{
    "data": [
        {
            "id": 123935,
            "original_name": "LIFE!5\u30df\u30cb\u30c3\u30c4",
            "popularity": 0.6
        }
    ],
    "relations": [],
    "top20": [
        {
            "id": 123935,
            "original_name": "LIFE!5\u30df\u30cb\u30c3\u30c4",
            "popularity": 0.6
        }
    ]
}