{
    "data": [
        {
            "id": 5815,
            "original_name": "Live!Girls! present Dogtown",
            "popularity": 0.6
        },
        {
            "id": 42881,
            "original_name": "\u5929\u5730\u7121\u7528!GXP",
            "popularity": 1.805
        },
        {
            "id": 104366,
            "original_name": "GO!GO!\u30a2\u30c8\u30e0",
            "popularity": 3.09
        }
    ],
    "relations": [],
    "top20": [
        {
            "id": 5815,
            "original_name": "Live!Girls! present Dogtown",
            "popularity": 0.6
        },
        {
            "id": 42881,
            "original_name": "\u5929\u5730\u7121\u7528!GXP",
            "popularity": 1.805
        },
        {
            "id": 104366,
            "original_name": "GO!GO!\u30a2\u30c8\u30e0",
            "popularity": 3.09
        }
    ]
}