{
    "data": [
        {
            "id": 210,
            "original_name": "The Man from U.N.C.L.E.",
            "popularity": 7.839
        },
        {
            "id": 1099,
            "original_name": "The Girl from U.N.C.L.E.",
            "popularity": 10.556
        }
    ],
    "relations": [],
    "top20": [
        {
            "id": 210,
            "original_name": "The Man from U.N.C.L.E.",
            "popularity": 7.839
        },
        {
            "id": 1099,
            "original_name": "The Girl from U.N.C.L.E.",
            "popularity": 10.556
        }
    ]
}