{
    "data": [
        {
            "id": 10978,
            "original_name": "D.I.C.E.",
            "popularity": 0.956
        },
        {
            "id": 39831,
            "original_name": "Vodafone M.I.C",
            "popularity": 0.6
        },
        {
            "id": 77778,
            "original_name": "A.I.C.O. Incarnation",
            "popularity": 11.878
        },
        {
            "id": 80057,
            "original_name": "P.O.L.I.C.I.A",
            "popularity": 0.792
        }
    ],
    "relations": [],
    "top20": [
        {
            "id": 10978,
            "original_name": "D.I.C.E.",
            "popularity": 0.956
        },
        {
            "id": 39831,
            "original_name": "Vodafone M.I.C",
            "popularity": 0.6
        },
        {
            "id": 77778,
            "original_name": "A.I.C.O. Incarnation",
            "popularity": 11.878
        },
        {
            "id": 80057,
            "original_name": "P.O.L.I.C.I.A",
            "popularity": 0.792
        }
    ]
}