{
    "data": [
        {
            "id": 8995,
            "original_name": "O.T.T.",
            "popularity": 0.6
        }
    ],
    "relations": [],
    "top20": [
        {
            "id": 8995,
            "original_name": "O.T.T.",
            "popularity": 0.6
        }
    ]
}