{
    "data": [
        {
            "id": 60387,
            "original_name": "/m/05s_w8r",
            "popularity": 0.6
        }
    ],
    "relations": [],
    "top20": [
        {
            "id": 60387,
            "original_name": "/m/05s_w8r",
            "popularity": 0.6
        }
    ]
}