{
    "data": [
        {
            "id": 139178,
            "original_name": "\u91cd\u56682069",
            "popularity": 0.6
        }
    ],
    "relations": [],
    "top20": [
        {
            "id": 139178,
            "original_name": "\u91cd\u56682069",
            "popularity": 0.6
        }
    ]
}