{
    "data": [
        {
            "id": 51073,
            "original_name": "Eleva20ren",
            "popularity": 0.6
        }
    ],
    "relations": [],
    "top20": [
        {
            "id": 51073,
            "original_name": "Eleva20ren",
            "popularity": 0.6
        }
    ]
}