{
    "data": [
        {
            "id": 171312,
            "original_name": "\u4e91\u9876\u5a31\u4e50yd111\u5b98\u65b9\u7f51\u7ad9\u3010\u7f54\u82b7jy01,cc\u3011_\u767e\u5ea6\u77e5\u9053a",
            "popularity": 1.265
        },
        {
            "id": 172747,
            "original_name": "\u6fb3\u95e8\u96c6\u7ed336111\u3010\u7f54\u82b7jy01,cc\u3011_\u767e\u5ea6\u77e5\u9053e",
            "popularity": 1.265
        },
        {
            "id": 172239,
            "original_name": "ju111\u4e5d\u5345\u5a31\u4e50\u624b\u673a\u7248\u3010\u7f54\u82b7jy01,cc\u3011_\u767e\u5ea6\u77e5\u9053u",
            "popularity": 1.015
        },
        {
            "id": 172602,
            "original_name": "\u6fb3\u95e8\u96c6\u7ed336111\u3010\u7f54\u82b7jy01,cc\u3011_\u767e\u5ea6\u77e5\u9053a",
            "popularity": 1.015
        },
        {
            "id": 173271,
            "original_name": "\u6fb3\u95e8\u96c6\u7ed336111\u3010\u7f54\u82b7jy01,cc\u3011_\u767e\u5ea6\u77e5\u9053e",
            "popularity": 1.015
        },
        {
            "id": 175815,
            "original_name": "\u4e5d\u5dde\u4e50ju111ne\u624b\u673a\u7248\u3010\u7f54\u82b7jy01,cc\u3011_\u767e\u5ea6\u77e5\u9053w",
            "popularity": 1.015
        },
        {
            "id": 176757,
            "original_name": "\u51ef\u53d1k81111\u56fd\u9645\u771f\u4eba\u7248\u3010\u7f54\u82b7jy01,cc\u3011_\u767e\u5ea6\u77e5\u9053k",
            "popularity": 1.015
        },
        {
            "id": 67613,
            "original_name": "Code 111",
            "popularity": 0.85
        },
        {
            "id": 177301,
            "original_name": "ju111\u4e5d\u5345\u5a31\u4e50\u624b\u673a\u7248\u3010\u7f54\u82b7jy01,cc\u3011_\u767e\u5ea6\u77e5\u9053u",
            "popularity": 0.765
        },
        {
            "id": 180416,
            "original_name": "\u4e91\u9876\u5a31\u4e50yd111\u5b98\u65b9\u7f51\u7ad9\u3010\u7f54\u82b7jy01,cc\u3011_\u767e\u5ea6\u77e5\u9053i",
            "popularity": 0.765
        },
        {
            "id": 180962,
            "original_name": "\u6fb3\u95e8\u96c6\u7ed336111\u3010\u7f54\u82b7jy01,cc\u3011_\u767e\u5ea6\u77e5\u9053m",
            "popularity": 0.765
        },
        {
            "id": 52778,
            "original_name": "111",
            "popularity": 0.6
        },
        {
            "id": 99052,
            "original_name": "2111",
            "popularity": 0.6
        },
        {
            "id": 108686,
            "original_name": "1111 - La m\u00e9lancolite",
            "popularity": 0.6
        },
        {
            "id": 124796,
            "original_name": "111 Momente",
            "popularity": 0.6
        },
        {
            "id": 138671,
            "original_name": "\uccad\ub2f4\ub3d9111-N flying \uc2a4\ud0c0\uac00 \ub418\ub294 \uae38",
            "popularity": 0.6
        },
        {
            "id": 139241,
            "original_name": "\uccad\ub2f4\ub3d9 111\ubc88\uc9c0",
            "popularity": 0.6
        }
    ],
    "relations": [],
    "top20": [
        {
            "id": 172747,
            "original_name": "\u6fb3\u95e8\u96c6\u7ed336111\u3010\u7f54\u82b7jy01,cc\u3011_\u767e\u5ea6\u77e5\u9053e",
            "popularity": 1.265
        },
        {
            "id": 171312,
            "original_name": "\u4e91\u9876\u5a31\u4e50yd111\u5b98\u65b9\u7f51\u7ad9\u3010\u7f54\u82b7jy01,cc\u3011_\u767e\u5ea6\u77e5\u9053a",
            "popularity": 1.265
        },
        {
            "id": 172602,
            "original_name": "\u6fb3\u95e8\u96c6\u7ed336111\u3010\u7f54\u82b7jy01,cc\u3011_\u767e\u5ea6\u77e5\u9053a",
            "popularity": 1.015
        },
        {
            "id": 175815,
            "original_name": "\u4e5d\u5dde\u4e50ju111ne\u624b\u673a\u7248\u3010\u7f54\u82b7jy01,cc\u3011_\u767e\u5ea6\u77e5\u9053w",
            "popularity": 1.015
        },
        {
            "id": 173271,
            "original_name": "\u6fb3\u95e8\u96c6\u7ed336111\u3010\u7f54\u82b7jy01,cc\u3011_\u767e\u5ea6\u77e5\u9053e",
            "popularity": 1.015
        },
        {
            "id": 176757,
            "original_name": "\u51ef\u53d1k81111\u56fd\u9645\u771f\u4eba\u7248\u3010\u7f54\u82b7jy01,cc\u3011_\u767e\u5ea6\u77e5\u9053k",
            "popularity": 1.015
        },
        {
            "id": 172239,
            "original_name": "ju111\u4e5d\u5345\u5a31\u4e50\u624b\u673a\u7248\u3010\u7f54\u82b7jy01,cc\u3011_\u767e\u5ea6\u77e5\u9053u",
            "popularity": 1.015
        },
        {
            "id": 67613,
            "original_name": "Code 111",
            "popularity": 0.85
        },
        {
            "id": 180416,
            "original_name": "\u4e91\u9876\u5a31\u4e50yd111\u5b98\u65b9\u7f51\u7ad9\u3010\u7f54\u82b7jy01,cc\u3011_\u767e\u5ea6\u77e5\u9053i",
            "popularity": 0.765
        },
        {
            "id": 180962,
            "original_name": "\u6fb3\u95e8\u96c6\u7ed336111\u3010\u7f54\u82b7jy01,cc\u3011_\u767e\u5ea6\u77e5\u9053m",
            "popularity": 0.765
        },
        {
            "id": 177301,
            "original_name": "ju111\u4e5d\u5345\u5a31\u4e50\u624b\u673a\u7248\u3010\u7f54\u82b7jy01,cc\u3011_\u767e\u5ea6\u77e5\u9053u",
            "popularity": 0.765
        },
        {
            "id": 99052,
            "original_name": "2111",
            "popularity": 0.6
        },
        {
            "id": 138671,
            "original_name": "\uccad\ub2f4\ub3d9111-N flying \uc2a4\ud0c0\uac00 \ub418\ub294 \uae38",
            "popularity": 0.6
        },
        {
            "id": 124796,
            "original_name": "111 Momente",
            "popularity": 0.6
        },
        {
            "id": 139241,
            "original_name": "\uccad\ub2f4\ub3d9 111\ubc88\uc9c0",
            "popularity": 0.6
        },
        {
            "id": 108686,
            "original_name": "1111 - La m\u00e9lancolite",
            "popularity": 0.6
        },
        {
            "id": 52778,
            "original_name": "111",
            "popularity": 0.6
        }
    ]
}