{
    "data": [
        {
            "id": 171835,
            "original_name": "\u4e91\u9876\u96c6\u56e24118\u5a31\u4e50\u5b98\u3010\u7f54\u82b7jy01,cc\u3011_\u767e\u5ea6\u77e5\u9053e",
            "popularity": 1.015
        },
        {
            "id": 172512,
            "original_name": "\u4e91\u9876\u96c6\u56e24118\u5a31\u4e50\u5b98\u3010\u7f54\u82b7jy01,cc\u3011_\u767e\u5ea6\u77e5\u9053f",
            "popularity": 1.015
        },
        {
            "id": 172791,
            "original_name": "\u4e91\u9876\u5b98\u65b9\u7f51\u7ad9yd11888\u3010\u7f54\u82b7jy01,cc\u3011_\u767e\u5ea6\u77e5\u9053a",
            "popularity": 1.015
        },
        {
            "id": 174783,
            "original_name": "\u4e91\u9876\u5a314118\u7f51\u5740\u3010\u7f54\u82b7jy01,cc\u3011_\u767e\u5ea6\u77e5\u9053i",
            "popularity": 1.015
        },
        {
            "id": 175282,
            "original_name": "\u4e91\u9876\u5b98\u65b9\u7f51\u7ad9yd11888\u3010\u7f54\u82b7jy01,cc\u3011_\u767e\u5ea6\u77e5\u9053u",
            "popularity": 1.015
        },
        {
            "id": 175943,
            "original_name": "\u4e91\u9876\u5a31\u4e504118\u3010\u7f54\u82b7jy01,cc\u3011_\u767e\u5ea6\u77e5\u9053c",
            "popularity": 1.015
        },
        {
            "id": 176600,
            "original_name": "\u4e91\u9876\u5a31\u4e504118\u3010\u7f54\u82b7jy01,cc\u3011_\u767e\u5ea6\u77e5\u9053s",
            "popularity": 1.015
        },
        {
            "id": 76741,
            "original_name": "118 Reunion 118 \u5927\u56e2\u5706",
            "popularity": 0.6
        },
        {
            "id": 124827,
            "original_name": "118",
            "popularity": 0.6
        }
    ],
    "relations": [],
    "top20": [
        {
            "id": 172512,
            "original_name": "\u4e91\u9876\u96c6\u56e24118\u5a31\u4e50\u5b98\u3010\u7f54\u82b7jy01,cc\u3011_\u767e\u5ea6\u77e5\u9053f",
            "popularity": 1.015
        },
        {
            "id": 174783,
            "original_name": "\u4e91\u9876\u5a314118\u7f51\u5740\u3010\u7f54\u82b7jy01,cc\u3011_\u767e\u5ea6\u77e5\u9053i",
            "popularity": 1.015
        },
        {
            "id": 175282,
            "original_name": "\u4e91\u9876\u5b98\u65b9\u7f51\u7ad9yd11888\u3010\u7f54\u82b7jy01,cc\u3011_\u767e\u5ea6\u77e5\u9053u",
            "popularity": 1.015
        },
        {
            "id": 172791,
            "original_name": "\u4e91\u9876\u5b98\u65b9\u7f51\u7ad9yd11888\u3010\u7f54\u82b7jy01,cc\u3011_\u767e\u5ea6\u77e5\u9053a",
            "popularity": 1.015
        },
        {
            "id": 175943,
            "original_name": "\u4e91\u9876\u5a31\u4e504118\u3010\u7f54\u82b7jy01,cc\u3011_\u767e\u5ea6\u77e5\u9053c",
            "popularity": 1.015
        },
        {
            "id": 171835,
            "original_name": "\u4e91\u9876\u96c6\u56e24118\u5a31\u4e50\u5b98\u3010\u7f54\u82b7jy01,cc\u3011_\u767e\u5ea6\u77e5\u9053e",
            "popularity": 1.015
        },
        {
            "id": 176600,
            "original_name": "\u4e91\u9876\u5a31\u4e504118\u3010\u7f54\u82b7jy01,cc\u3011_\u767e\u5ea6\u77e5\u9053s",
            "popularity": 1.015
        },
        {
            "id": 76741,
            "original_name": "118 Reunion 118 \u5927\u56e2\u5706",
            "popularity": 0.6
        },
        {
            "id": 124827,
            "original_name": "118",
            "popularity": 0.6
        }
    ]
}