{
    "data": [
        {
            "id": 174807,
            "original_name": "\u91d1\u5b9d\u640f188d\u7f51\u5740\u3010\u7f54\u82b7jy01,cc\u3011_\u767e\u5ea6\u77e5\u9053s",
            "popularity": 0.765
        },
        {
            "id": 176546,
            "original_name": "\u91d1\u5b9d\u640f188d\u7f51\u5740\u3010\u7f54\u82b7jy01,cc\u3011_\u767e\u5ea6\u77e5\u9053q",
            "popularity": 1.015
        },
        {
            "id": 177516,
            "original_name": "\u91d1\u5b9d\u640f188d\u7f51\u5740\u3010\u7f54\u82b7jy01,cc\u3011_\u767e\u5ea6\u77e5\u9053a",
            "popularity": 0.765
        },
        {
            "id": 180453,
            "original_name": "\u91d1\u5b9d\u640f188d\u7f51\u5740\u3010\u7f54\u82b7jy01,cc\u3011_\u767e\u5ea6\u77e5\u9053q",
            "popularity": 0.765
        }
    ],
    "relations": [],
    "top20": [
        {
            "id": 174807,
            "original_name": "\u91d1\u5b9d\u640f188d\u7f51\u5740\u3010\u7f54\u82b7jy01,cc\u3011_\u767e\u5ea6\u77e5\u9053s",
            "popularity": 0.765
        },
        {
            "id": 176546,
            "original_name": "\u91d1\u5b9d\u640f188d\u7f51\u5740\u3010\u7f54\u82b7jy01,cc\u3011_\u767e\u5ea6\u77e5\u9053q",
            "popularity": 1.015
        },
        {
            "id": 177516,
            "original_name": "\u91d1\u5b9d\u640f188d\u7f51\u5740\u3010\u7f54\u82b7jy01,cc\u3011_\u767e\u5ea6\u77e5\u9053a",
            "popularity": 0.765
        },
        {
            "id": 180453,
            "original_name": "\u91d1\u5b9d\u640f188d\u7f51\u5740\u3010\u7f54\u82b7jy01,cc\u3011_\u767e\u5ea6\u77e5\u9053q",
            "popularity": 0.765
        }
    ]
}