{
    "data": [
        {
            "id": 13380,
            "original_name": "1990",
            "popularity": 5.08
        },
        {
            "id": 29504,
            "original_name": "I Love 1990s",
            "popularity": 0.6
        },
        {
            "id": 47709,
            "original_name": "World Cup 1990",
            "popularity": 0.6
        },
        {
            "id": 57212,
            "original_name": "1990 Kentucky Derby",
            "popularity": 0.6
        },
        {
            "id": 58601,
            "original_name": "Radio 1990",
            "popularity": 0.6
        },
        {
            "id": 105776,
            "original_name": "The 1990s: The Deadliest Decade",
            "popularity": 0.682
        },
        {
            "id": 117562,
            "original_name": "The 1990s: Totally Scandalous",
            "popularity": 0.6
        },
        {
            "id": 118396,
            "original_name": "\u041a\u041e\u0410\u041f\u041f (1984-1990)",
            "popularity": 0.6
        }
    ],
    "relations": [],
    "top20": [
        {
            "id": 13380,
            "original_name": "1990",
            "popularity": 5.08
        },
        {
            "id": 29504,
            "original_name": "I Love 1990s",
            "popularity": 0.6
        },
        {
            "id": 47709,
            "original_name": "World Cup 1990",
            "popularity": 0.6
        },
        {
            "id": 57212,
            "original_name": "1990 Kentucky Derby",
            "popularity": 0.6
        },
        {
            "id": 58601,
            "original_name": "Radio 1990",
            "popularity": 0.6
        },
        {
            "id": 105776,
            "original_name": "The 1990s: The Deadliest Decade",
            "popularity": 0.682
        },
        {
            "id": 117562,
            "original_name": "The 1990s: Totally Scandalous",
            "popularity": 0.6
        },
        {
            "id": 118396,
            "original_name": "\u041a\u041e\u0410\u041f\u041f (1984-1990)",
            "popularity": 0.6
        }
    ]
}