{
    "data": [
        {
            "id": 56520,
            "original_name": "12.12.12: The Concert for Sandy Relief",
            "popularity": 0.6
        },
        {
            "id": 92281,
            "original_name": "12.1\u67aa\u6740\u5927\u6848",
            "popularity": 0.657
        }
    ],
    "relations": [],
    "top20": [
        {
            "id": 56520,
            "original_name": "12.12.12: The Concert for Sandy Relief",
            "popularity": 0.6
        },
        {
            "id": 92281,
            "original_name": "12.1\u67aa\u6740\u5927\u6848",
            "popularity": 0.657
        }
    ]
}