{
    "data": [
        {
            "id": 8184,
            "original_name": "Vis Unda 20000?",
            "popularity": 0.6
        }
    ],
    "relations": [],
    "top20": [
        {
            "id": 8184,
            "original_name": "Vis Unda 20000?",
            "popularity": 0.6
        }
    ]
}