{
    "data": [
        {
            "id": 16692,
            "original_name": "G2G",
            "popularity": 0.683
        },
        {
            "id": 37386,
            "original_name": "G2G: Got to Go!",
            "popularity": 0.6
        },
        {
            "id": 104925,
            "original_name": "2gether: The Series",
            "popularity": 2.927
        }
    ],
    "relations": [],
    "top20": [
        {
            "id": 16692,
            "original_name": "G2G",
            "popularity": 0.683
        },
        {
            "id": 37386,
            "original_name": "G2G: Got to Go!",
            "popularity": 0.6
        },
        {
            "id": 104925,
            "original_name": "2gether: The Series",
            "popularity": 2.927
        }
    ]
}