{
    "data": [
        {
            "id": 66100,
            "original_name": "Portkod 1321",
            "popularity": 1.298
        },
        {
            "id": 172583,
            "original_name": "\u7687\u51a0\u96c6\u56e23237\u3010\u7f54\u82b7jy01,cc\u3011_\u767e\u5ea6\u77e5\u9053y",
            "popularity": 1.265
        },
        {
            "id": 81281,
            "original_name": "Chambre 327",
            "popularity": 1.113
        },
        {
            "id": 172590,
            "original_name": "\u7687\u51a0\u96c6\u56e23237\u3010\u7f54\u82b7jy01,cc\u3011_\u767e\u5ea6\u77e5\u9053y",
            "popularity": 1.015
        },
        {
            "id": 176150,
            "original_name": "\u7687\u51a0\u96c6\u56e23237\u3010\u7f54\u82b7jy01,cc\u3011_\u767e\u5ea6\u77e5\u9053g",
            "popularity": 1.015
        },
        {
            "id": 176754,
            "original_name": "\u4e91\u98762322\u5907\u7528\u7f51\u5740\u3010\u7f54\u82b7jy01,cc\u3011_\u767e\u5ea6\u77e5\u9053w",
            "popularity": 1.015
        },
        {
            "id": 179606,
            "original_name": "\u7687\u51a0\u96c6\u56e23237\u3010\u7f54\u82b7jy01,cc\u3011_\u767e\u5ea6\u77e5\u9053y",
            "popularity": 0.765
        },
        {
            "id": 53151,
            "original_name": "Lijn 32",
            "popularity": 0.624
        },
        {
            "id": 30423,
            "original_name": "54321",
            "popularity": 0.6
        },
        {
            "id": 38531,
            "original_name": "32 Brinkburn Street",
            "popularity": 0.6
        },
        {
            "id": 54652,
            "original_name": "32. G\u00fcn",
            "popularity": 0.6
        },
        {
            "id": 65626,
            "original_name": "Sedd\u00fclbahir 32 Saat",
            "popularity": 0.6
        },
        {
            "id": 116464,
            "original_name": "\u0e15\u0e31\u0e27\u0e2d\u0e22\u0e48\u0e32\u0e0732",
            "popularity": 0.6
        }
    ],
    "relations": [],
    "top20": [
        {
            "id": 66100,
            "original_name": "Portkod 1321",
            "popularity": 1.298
        },
        {
            "id": 172583,
            "original_name": "\u7687\u51a0\u96c6\u56e23237\u3010\u7f54\u82b7jy01,cc\u3011_\u767e\u5ea6\u77e5\u9053y",
            "popularity": 1.265
        },
        {
            "id": 81281,
            "original_name": "Chambre 327",
            "popularity": 1.113
        },
        {
            "id": 172590,
            "original_name": "\u7687\u51a0\u96c6\u56e23237\u3010\u7f54\u82b7jy01,cc\u3011_\u767e\u5ea6\u77e5\u9053y",
            "popularity": 1.015
        },
        {
            "id": 176754,
            "original_name": "\u4e91\u98762322\u5907\u7528\u7f51\u5740\u3010\u7f54\u82b7jy01,cc\u3011_\u767e\u5ea6\u77e5\u9053w",
            "popularity": 1.015
        },
        {
            "id": 176150,
            "original_name": "\u7687\u51a0\u96c6\u56e23237\u3010\u7f54\u82b7jy01,cc\u3011_\u767e\u5ea6\u77e5\u9053g",
            "popularity": 1.015
        },
        {
            "id": 179606,
            "original_name": "\u7687\u51a0\u96c6\u56e23237\u3010\u7f54\u82b7jy01,cc\u3011_\u767e\u5ea6\u77e5\u9053y",
            "popularity": 0.765
        },
        {
            "id": 53151,
            "original_name": "Lijn 32",
            "popularity": 0.624
        },
        {
            "id": 65626,
            "original_name": "Sedd\u00fclbahir 32 Saat",
            "popularity": 0.6
        },
        {
            "id": 38531,
            "original_name": "32 Brinkburn Street",
            "popularity": 0.6
        },
        {
            "id": 116464,
            "original_name": "\u0e15\u0e31\u0e27\u0e2d\u0e22\u0e48\u0e32\u0e0732",
            "popularity": 0.6
        },
        {
            "id": 30423,
            "original_name": "54321",
            "popularity": 0.6
        },
        {
            "id": 54652,
            "original_name": "32. G\u00fcn",
            "popularity": 0.6
        }
    ]
}