{
    "data": [
        {
            "id": 35533,
            "original_name": "350Z Shock",
            "popularity": 0.6
        }
    ],
    "relations": [],
    "top20": [
        {
            "id": 35533,
            "original_name": "350Z Shock",
            "popularity": 0.6
        }
    ]
}