{
    "data": [
        {
            "id": 84,
            "original_name": "Mega64",
            "popularity": 1.96
        },
        {
            "id": 12020,
            "original_name": "The $64,000 Question",
            "popularity": 0.6
        },
        {
            "id": 13910,
            "original_name": "64 Zoo Lane",
            "popularity": 3.889
        },
        {
            "id": 31562,
            "original_name": "The $64,000 Question",
            "popularity": 0.6
        },
        {
            "id": 42623,
            "original_name": "664: The Neighbor of the Beast",
            "popularity": 0.6
        },
        {
            "id": 54357,
            "original_name": "1864",
            "popularity": 7.676
        },
        {
            "id": 56244,
            "original_name": "The Making of the President: 1964",
            "popularity": 0.6
        },
        {
            "id": 137683,
            "original_name": "546456",
            "popularity": 5.836
        }
    ],
    "relations": [],
    "top20": [
        {
            "id": 84,
            "original_name": "Mega64",
            "popularity": 1.96
        },
        {
            "id": 12020,
            "original_name": "The $64,000 Question",
            "popularity": 0.6
        },
        {
            "id": 13910,
            "original_name": "64 Zoo Lane",
            "popularity": 3.889
        },
        {
            "id": 31562,
            "original_name": "The $64,000 Question",
            "popularity": 0.6
        },
        {
            "id": 42623,
            "original_name": "664: The Neighbor of the Beast",
            "popularity": 0.6
        },
        {
            "id": 54357,
            "original_name": "1864",
            "popularity": 7.676
        },
        {
            "id": 56244,
            "original_name": "The Making of the President: 1964",
            "popularity": 0.6
        },
        {
            "id": 137683,
            "original_name": "546456",
            "popularity": 5.836
        }
    ]
}