{
    "data": [
        {
            "id": 5386,
            "original_name": "6ixth Sense",
            "popularity": 0.6
        },
        {
            "id": 98449,
            "original_name": "En 6i\u00e8me vitesse",
            "popularity": 0.6
        },
        {
            "id": 118570,
            "original_name": "Supervillain: The Making of Tekashi 6ix9ine",
            "popularity": 2.638
        },
        {
            "id": 139242,
            "original_name": "AB6IX COMEBACK SHOW \ube44\ube44\ub4dc",
            "popularity": 0.6
        }
    ],
    "relations": [],
    "top20": [
        {
            "id": 5386,
            "original_name": "6ixth Sense",
            "popularity": 0.6
        },
        {
            "id": 98449,
            "original_name": "En 6i\u00e8me vitesse",
            "popularity": 0.6
        },
        {
            "id": 118570,
            "original_name": "Supervillain: The Making of Tekashi 6ix9ine",
            "popularity": 2.638
        },
        {
            "id": 139242,
            "original_name": "AB6IX COMEBACK SHOW \ube44\ube44\ub4dc",
            "popularity": 0.6
        }
    ]
}