{
    "data": [
        {
            "id": 112314,
            "original_name": "Archive 81",
            "popularity": 5.386
        },
        {
            "id": 75460,
            "original_name": "W817",
            "popularity": 2.047
        },
        {
            "id": 161290,
            "original_name": "\u5f00\u51437818\u6ce8\u518c\u900198\u3010\u7f51\u82b7:zh88\u70b9vip\u3011_\u767e\u5ea6\u77e5\u9053x",
            "popularity": 1.4
        },
        {
            "id": 164548,
            "original_name": "\u5f00\u51437818\u6ce8\u518c\u900198\u3010\u7f51\u82b7:zh88\u70b9vip\u3011_\u767e\u5ea6\u77e5\u9053e",
            "popularity": 1.4
        },
        {
            "id": 172649,
            "original_name": "\u65b0\u6fb3\u95e8\u8461\u8404\u4eac8814\u3010\u7f54\u82b7jy01,cc\u3011_\u767e\u5ea6\u77e5\u9053e",
            "popularity": 1.265
        },
        {
            "id": 174304,
            "original_name": "\u65b0\u6fb3\u95e8\u8461\u8404\u4eac8814\u3010\u7f54\u82b7jy01,cc\u3011_\u767e\u5ea6\u77e5\u9053e",
            "popularity": 1.265
        },
        {
            "id": 171560,
            "original_name": "\u65b0\u6fb3\u95e8\u8461\u8404\u4eac8814c\u3010\u7f54\u82b7jy01,cc\u3011_\u767e\u5ea6\u77e5\u9053q",
            "popularity": 1.015
        },
        {
            "id": 171610,
            "original_name": "\u91d1\u6c9988128\u7ebf\u8def\u68c0\u6d4b\u3010\u7f54\u82b7jy01,cc\u3011_\u767e\u5ea6\u77e5\u9053q",
            "popularity": 1.015
        },
        {
            "id": 173068,
            "original_name": "\u5a01\u5c3c\u65af\u4eba81818\u5b98\u65b9\u7f51\u7ad9\u3010\u7f54\u82b7jy01,cc\u3011_\u767e\u5ea6\u77e5\u9053s",
            "popularity": 1.015
        },
        {
            "id": 173878,
            "original_name": "\u592a\u9633\u96c6\u56e281068\u7f51\u5740\u592a\u9633\u3010\u7f54\u82b7jy01,cc\u3011_\u767e\u5ea6\u77e5\u9053w",
            "popularity": 1.015
        },
        {
            "id": 175538,
            "original_name": "\u591a\u5f69\u7f5138116\u3010\u7f54\u82b7jy01,cc\u3011_\u767e\u5ea6\u77e5\u9053u",
            "popularity": 1.015
        },
        {
            "id": 176757,
            "original_name": "\u51ef\u53d1k81111\u56fd\u9645\u771f\u4eba\u7248\u3010\u7f54\u82b7jy01,cc\u3011_\u767e\u5ea6\u77e5\u9053k",
            "popularity": 1.015
        },
        {
            "id": 177049,
            "original_name": "\u591a\u5f69\u7f5138116\u3010\u7f54\u82b7jy01,cc\u3011_\u767e\u5ea6\u77e5\u9053c",
            "popularity": 1.015
        },
        {
            "id": 167047,
            "original_name": "\u5f00\u51437818\u6ce8\u518c\u900198\u3010\u7f51\u82b7:zh88\u70b9vip\u3011_\u767e\u5ea6\u77e5\u9053m",
            "popularity": 0.985
        },
        {
            "id": 175027,
            "original_name": "\u65b0\u6fb3\u95e8\u8461\u8404\u4eac8814c\u3010\u7f54\u82b7jy01,cc\u3011_\u767e\u5ea6\u77e5\u9053m",
            "popularity": 0.765
        },
        {
            "id": 175510,
            "original_name": "\u5a01\u5c3c\u65af\u4eba81818\u5b98\u65b9\u7f51\u7ad9\u3010\u7f54\u82b7jy01,cc\u3011_\u767e\u5ea6\u77e5\u9053c",
            "popularity": 0.765
        },
        {
            "id": 179809,
            "original_name": "\u65b0\u6fb3\u95e8\u8461\u8404\u4eac8814\u3010\u7f54\u82b7jy01,cc\u3011_\u767e\u5ea6\u77e5\u9053y",
            "popularity": 0.765
        },
        {
            "id": 179966,
            "original_name": "\u65b0\u6fb3\u95e8\u8461\u8404\u4eac8814app\u4e0b\u8f7d\u3010\u7f54\u82b7jy01,cc\u3011_\u767e\u5ea6\u77e5\u9053a",
            "popularity": 0.765
        },
        {
            "id": 16272,
            "original_name": "Block 815",
            "popularity": 0.6
        },
        {
            "id": 25923,
            "original_name": "The Bush Gang 1981",
            "popularity": 0.6
        },
        {
            "id": 45457,
            "original_name": "81st Annual Macy's Thanksgiving Day Parade",
            "popularity": 0.6
        },
        {
            "id": 46970,
            "original_name": "Explosion 1812",
            "popularity": 0.6
        },
        {
            "id": 50083,
            "original_name": "Artemis 81",
            "popularity": 0.6
        },
        {
            "id": 55786,
            "original_name": "Canada 1812: Forged in Fire",
            "popularity": 0.6
        },
        {
            "id": 77259,
            "original_name": "MST3K 818 - Devil Doll",
            "popularity": 0.6
        },
        {
            "id": 77835,
            "original_name": "War of 1812",
            "popularity": 0.6
        },
        {
            "id": 80861,
            "original_name": "Magic Moments Of Motorsport: Bathurst 1981",
            "popularity": 0.6
        },
        {
            "id": 83760,
            "original_name": "Jakten p\u00e5 Norge 1814-2014",
            "popularity": 0.6
        },
        {
            "id": 100394,
            "original_name": "\u0410\u043c\u0435\u0440\u0438\u043a\u0430\u043d\u0441\u043a\u0430\u044f \u0442\u0440\u0430\u0433\u0435\u0434\u0438\u044f (1981)",
            "popularity": 0.6
        },
        {
            "id": 105663,
            "original_name": "De Andr\u00e9 van Duin show [Theater 1980-1981]",
            "popularity": 0.6
        },
        {
            "id": 106487,
            "original_name": "1812 (Napoleonic Wars in Russia)",
            "popularity": 0.6
        },
        {
            "id": 112039,
            "original_name": "\u5927\u4fe0\u970d\u5143\u7532 (1981)",
            "popularity": 0.6
        },
        {
            "id": 112051,
            "original_name": "\u5c11\u5e74\u9ec3\u98db\u9d3b (1981)",
            "popularity": 0.6
        },
        {
            "id": 122406,
            "original_name": "281\u5c01\u4fe1",
            "popularity": 0.6
        },
        {
            "id": 132230,
            "original_name": "1818\u9ec4\u91d1\u773c",
            "popularity": 0.6
        },
        {
            "id": 160102,
            "original_name": "\u5f00\u51437818\u6ce8\u518c\u900198\u3010\u7f51\u82b7:zh88\u70b9vip\u3011_\u767e\u5ea6\u77e5\u9053y",
            "popularity": 0.0
        },
        {
            "id": 170321,
            "original_name": "\u65b0\u6fb3\u95e8\u8461\u8404\u4eac8814c\u3010\u7f54\u82b7jy01,cc\u3011_\u767e\u5ea6\u77e5\u9053s",
            "popularity": 0.0
        }
    ],
    "relations": [],
    "top20": [
        {
            "id": 112314,
            "original_name": "Archive 81",
            "popularity": 5.386
        },
        {
            "id": 75460,
            "original_name": "W817",
            "popularity": 2.047
        },
        {
            "id": 161290,
            "original_name": "\u5f00\u51437818\u6ce8\u518c\u900198\u3010\u7f51\u82b7:zh88\u70b9vip\u3011_\u767e\u5ea6\u77e5\u9053x",
            "popularity": 1.4
        },
        {
            "id": 164548,
            "original_name": "\u5f00\u51437818\u6ce8\u518c\u900198\u3010\u7f51\u82b7:zh88\u70b9vip\u3011_\u767e\u5ea6\u77e5\u9053e",
            "popularity": 1.4
        },
        {
            "id": 174304,
            "original_name": "\u65b0\u6fb3\u95e8\u8461\u8404\u4eac8814\u3010\u7f54\u82b7jy01,cc\u3011_\u767e\u5ea6\u77e5\u9053e",
            "popularity": 1.265
        },
        {
            "id": 172649,
            "original_name": "\u65b0\u6fb3\u95e8\u8461\u8404\u4eac8814\u3010\u7f54\u82b7jy01,cc\u3011_\u767e\u5ea6\u77e5\u9053e",
            "popularity": 1.265
        },
        {
            "id": 177049,
            "original_name": "\u591a\u5f69\u7f5138116\u3010\u7f54\u82b7jy01,cc\u3011_\u767e\u5ea6\u77e5\u9053c",
            "popularity": 1.015
        },
        {
            "id": 171560,
            "original_name": "\u65b0\u6fb3\u95e8\u8461\u8404\u4eac8814c\u3010\u7f54\u82b7jy01,cc\u3011_\u767e\u5ea6\u77e5\u9053q",
            "popularity": 1.015
        },
        {
            "id": 176757,
            "original_name": "\u51ef\u53d1k81111\u56fd\u9645\u771f\u4eba\u7248\u3010\u7f54\u82b7jy01,cc\u3011_\u767e\u5ea6\u77e5\u9053k",
            "popularity": 1.015
        },
        {
            "id": 173878,
            "original_name": "\u592a\u9633\u96c6\u56e281068\u7f51\u5740\u592a\u9633\u3010\u7f54\u82b7jy01,cc\u3011_\u767e\u5ea6\u77e5\u9053w",
            "popularity": 1.015
        },
        {
            "id": 173068,
            "original_name": "\u5a01\u5c3c\u65af\u4eba81818\u5b98\u65b9\u7f51\u7ad9\u3010\u7f54\u82b7jy01,cc\u3011_\u767e\u5ea6\u77e5\u9053s",
            "popularity": 1.015
        },
        {
            "id": 175538,
            "original_name": "\u591a\u5f69\u7f5138116\u3010\u7f54\u82b7jy01,cc\u3011_\u767e\u5ea6\u77e5\u9053u",
            "popularity": 1.015
        },
        {
            "id": 171610,
            "original_name": "\u91d1\u6c9988128\u7ebf\u8def\u68c0\u6d4b\u3010\u7f54\u82b7jy01,cc\u3011_\u767e\u5ea6\u77e5\u9053q",
            "popularity": 1.015
        },
        {
            "id": 167047,
            "original_name": "\u5f00\u51437818\u6ce8\u518c\u900198\u3010\u7f51\u82b7:zh88\u70b9vip\u3011_\u767e\u5ea6\u77e5\u9053m",
            "popularity": 0.985
        },
        {
            "id": 179809,
            "original_name": "\u65b0\u6fb3\u95e8\u8461\u8404\u4eac8814\u3010\u7f54\u82b7jy01,cc\u3011_\u767e\u5ea6\u77e5\u9053y",
            "popularity": 0.765
        },
        {
            "id": 179966,
            "original_name": "\u65b0\u6fb3\u95e8\u8461\u8404\u4eac8814app\u4e0b\u8f7d\u3010\u7f54\u82b7jy01,cc\u3011_\u767e\u5ea6\u77e5\u9053a",
            "popularity": 0.765
        },
        {
            "id": 175510,
            "original_name": "\u5a01\u5c3c\u65af\u4eba81818\u5b98\u65b9\u7f51\u7ad9\u3010\u7f54\u82b7jy01,cc\u3011_\u767e\u5ea6\u77e5\u9053c",
            "popularity": 0.765
        },
        {
            "id": 175027,
            "original_name": "\u65b0\u6fb3\u95e8\u8461\u8404\u4eac8814c\u3010\u7f54\u82b7jy01,cc\u3011_\u767e\u5ea6\u77e5\u9053m",
            "popularity": 0.765
        },
        {
            "id": 80861,
            "original_name": "Magic Moments Of Motorsport: Bathurst 1981",
            "popularity": 0.6
        },
        {
            "id": 77259,
            "original_name": "MST3K 818 - Devil Doll",
            "popularity": 0.6
        }
    ]
}