{
    "data": [
        {
            "id": 175997,
            "original_name": "6838\u94f6\u6cb3\u603b\u7ad9\u3010\u7f54\u82b7jy01,cc\u3011_\u767e\u5ea6\u77e5\u9053s",
            "popularity": 0.765
        },
        {
            "id": 176841,
            "original_name": "6838\u94f6\u6cb3\u603b\u7ad9\u3010\u7f54\u82b7jy01,cc\u3011_\u767e\u5ea6\u77e5\u9053q",
            "popularity": 1.015
        }
    ],
    "relations": [],
    "top20": [
        {
            "id": 175997,
            "original_name": "6838\u94f6\u6cb3\u603b\u7ad9\u3010\u7f54\u82b7jy01,cc\u3011_\u767e\u5ea6\u77e5\u9053s",
            "popularity": 0.765
        },
        {
            "id": 176841,
            "original_name": "6838\u94f6\u6cb3\u603b\u7ad9\u3010\u7f54\u82b7jy01,cc\u3011_\u767e\u5ea6\u77e5\u9053q",
            "popularity": 1.015
        }
    ]
}