{
    "data": [
        {
            "id": 43887,
            "original_name": "\u6a5f\u52d5\u6226\u58eb\u30ac\u30f3\u30c0\u30e0 \u7b2c08MS\u5c0f\u968a",
            "popularity": 7.782
        },
        {
            "id": 89030,
            "original_name": "8mm DDR",
            "popularity": 0.6
        },
        {
            "id": 106693,
            "original_name": "1968mm",
            "popularity": 0.6
        },
        {
            "id": 123641,
            "original_name": "8MMM Aboriginal Radio",
            "popularity": 0.6
        }
    ],
    "relations": [],
    "top20": [
        {
            "id": 43887,
            "original_name": "\u6a5f\u52d5\u6226\u58eb\u30ac\u30f3\u30c0\u30e0 \u7b2c08MS\u5c0f\u968a",
            "popularity": 7.782
        },
        {
            "id": 89030,
            "original_name": "8mm DDR",
            "popularity": 0.6
        },
        {
            "id": 106693,
            "original_name": "1968mm",
            "popularity": 0.6
        },
        {
            "id": 123641,
            "original_name": "8MMM Aboriginal Radio",
            "popularity": 0.6
        }
    ]
}