{
    "data": [
        {
            "id": 16736,
            "original_name": "1984",
            "popularity": 0.6
        },
        {
            "id": 46626,
            "original_name": "1984 Gymnastics Coverage",
            "popularity": 0.6
        },
        {
            "id": 57232,
            "original_name": "1984 Summer Olympics",
            "popularity": 0.6
        },
        {
            "id": 118396,
            "original_name": "\u041a\u041e\u0410\u041f\u041f (1984-1990)",
            "popularity": 0.6
        }
    ],
    "relations": [],
    "top20": [
        {
            "id": 16736,
            "original_name": "1984",
            "popularity": 0.6
        },
        {
            "id": 46626,
            "original_name": "1984 Gymnastics Coverage",
            "popularity": 0.6
        },
        {
            "id": 57232,
            "original_name": "1984 Summer Olympics",
            "popularity": 0.6
        },
        {
            "id": 118396,
            "original_name": "\u041a\u041e\u0410\u041f\u041f (1984-1990)",
            "popularity": 0.6
        }
    ]
}