{
    "data": [
        {
            "id": 74672,
            "original_name": "Kalakka Povadhu Yaaru",
            "popularity": 0.6
        },
        {
            "id": 104263,
            "original_name": "Paaru",
            "popularity": 0.616
        }
    ],
    "relations": [],
    "top20": [
        {
            "id": 74672,
            "original_name": "Kalakka Povadhu Yaaru",
            "popularity": 0.6
        },
        {
            "id": 104263,
            "original_name": "Paaru",
            "popularity": 0.616
        }
    ]
}