{
    "data": [
        {
            "id": 4797,
            "original_name": "Maayka",
            "popularity": 0.6
        },
        {
            "id": 5419,
            "original_name": "Raja Ki Aayegi Baraat",
            "popularity": 0.6
        },
        {
            "id": 7932,
            "original_name": "Betiyaan Apni Yaa Paraaya Dhan",
            "popularity": 1.34
        },
        {
            "id": 8118,
            "original_name": "Maayong Buntag Kapamilya",
            "popularity": 0.6
        },
        {
            "id": 8351,
            "original_name": "Saaya",
            "popularity": 0.6
        },
        {
            "id": 8520,
            "original_name": "Kabhi Aaye Na Judaai",
            "popularity": 0.6
        },
        {
            "id": 17971,
            "original_name": "Mere Ghar Aayi Ek Nanhi Pari",
            "popularity": 0.6
        },
        {
            "id": 19359,
            "original_name": "Raghukul Reet Sada Chali Aayi",
            "popularity": 0.6
        },
        {
            "id": 34008,
            "original_name": "Ram Milaayi Jodi",
            "popularity": 0.6
        },
        {
            "id": 34361,
            "original_name": "Yeh Ishq Haaye",
            "popularity": 0.6
        },
        {
            "id": 38865,
            "original_name": "Maayke Se Bandhi Dor",
            "popularity": 0.6
        },
        {
            "id": 40115,
            "original_name": "Kaala Saaya",
            "popularity": 0.6
        },
        {
            "id": 46628,
            "original_name": "Naam Gum Jaayega",
            "popularity": 0.6
        },
        {
            "id": 53763,
            "original_name": "Al-Emam Al-Nesaay",
            "popularity": 0.6
        },
        {
            "id": 54286,
            "original_name": "Aayza Atgawwez",
            "popularity": 0.6
        },
        {
            "id": 59392,
            "original_name": "Bhaago KK Aaya",
            "popularity": 0.6
        },
        {
            "id": 66881,
            "original_name": "Xal Maan U Waayey",
            "popularity": 0.6
        },
        {
            "id": 79920,
            "original_name": "Maaya",
            "popularity": 0.916
        },
        {
            "id": 81495,
            "original_name": "Saaya",
            "popularity": 0.913
        },
        {
            "id": 85004,
            "original_name": "Daayan",
            "popularity": 0.676
        },
        {
            "id": 86418,
            "original_name": "Enaaya",
            "popularity": 0.6
        },
        {
            "id": 90083,
            "original_name": "Kis Ki Aayegi Baraat",
            "popularity": 1.921
        },
        {
            "id": 106394,
            "original_name": "Tumse Na Ho Paayega",
            "popularity": 0.613
        },
        {
            "id": 111805,
            "original_name": "Apna Time Bhi Aayega",
            "popularity": 0.84
        },
        {
            "id": 112336,
            "original_name": "Bhoot Aaya",
            "popularity": 0.6
        },
        {
            "id": 131045,
            "original_name": "Aayiram Jannal Veedu",
            "popularity": 0.6
        },
        {
            "id": 136626,
            "original_name": "koi laut ke aaya hai",
            "popularity": 0.6
        }
    ],
    "relations": [
        {
            "character": "aayk"
        },
        {
            "character": "aaye"
        },
        {
            "character": "aaya"
        },
        {
            "character": "aayo"
        },
        {
            "character": "aayi"
        },
        {
            "character": "aayz"
        }
    ],
    "top20": [
        {
            "id": 90083,
            "original_name": "Kis Ki Aayegi Baraat",
            "popularity": 1.921
        },
        {
            "id": 7932,
            "original_name": "Betiyaan Apni Yaa Paraaya Dhan",
            "popularity": 1.34
        },
        {
            "id": 79920,
            "original_name": "Maaya",
            "popularity": 0.916
        },
        {
            "id": 81495,
            "original_name": "Saaya",
            "popularity": 0.913
        },
        {
            "id": 111805,
            "original_name": "Apna Time Bhi Aayega",
            "popularity": 0.84
        },
        {
            "id": 85004,
            "original_name": "Daayan",
            "popularity": 0.676
        },
        {
            "id": 106394,
            "original_name": "Tumse Na Ho Paayega",
            "popularity": 0.613
        },
        {
            "id": 8118,
            "original_name": "Maayong Buntag Kapamilya",
            "popularity": 0.6
        },
        {
            "id": 4797,
            "original_name": "Maayka",
            "popularity": 0.6
        },
        {
            "id": 34008,
            "original_name": "Ram Milaayi Jodi",
            "popularity": 0.6
        },
        {
            "id": 19359,
            "original_name": "Raghukul Reet Sada Chali Aayi",
            "popularity": 0.6
        },
        {
            "id": 5419,
            "original_name": "Raja Ki Aayegi Baraat",
            "popularity": 0.6
        },
        {
            "id": 46628,
            "original_name": "Naam Gum Jaayega",
            "popularity": 0.6
        },
        {
            "id": 38865,
            "original_name": "Maayke Se Bandhi Dor",
            "popularity": 0.6
        },
        {
            "id": 53763,
            "original_name": "Al-Emam Al-Nesaay",
            "popularity": 0.6
        },
        {
            "id": 40115,
            "original_name": "Kaala Saaya",
            "popularity": 0.6
        },
        {
            "id": 8520,
            "original_name": "Kabhi Aaye Na Judaai",
            "popularity": 0.6
        },
        {
            "id": 17971,
            "original_name": "Mere Ghar Aayi Ek Nanhi Pari",
            "popularity": 0.6
        },
        {
            "id": 8351,
            "original_name": "Saaya",
            "popularity": 0.6
        },
        {
            "id": 34361,
            "original_name": "Yeh Ishq Haaye",
            "popularity": 0.6
        }
    ]
}