{
    "data": [
        {
            "id": 938,
            "original_name": "Gabriel's Fire",
            "popularity": 3.066
        },
        {
            "id": 12687,
            "original_name": "Gabriel y Gabriela",
            "popularity": 0.6
        },
        {
            "id": 21593,
            "original_name": "Gabriela, giros del destino",
            "popularity": 0.6
        },
        {
            "id": 29875,
            "original_name": "De Fabriek",
            "popularity": 1.498
        },
        {
            "id": 46162,
            "original_name": "Gabriela",
            "popularity": 7.277
        },
        {
            "id": 53398,
            "original_name": "Gabriel Iglesias Shows",
            "popularity": 0.6
        },
        {
            "id": 59680,
            "original_name": "Gabrielle",
            "popularity": 0.6
        },
        {
            "id": 59746,
            "original_name": "Gabriel Iglesias Presents Stand-Up Revolution",
            "popularity": 2.197
        },
        {
            "id": 99626,
            "original_name": "The Trials of Gabriel Fernandez",
            "popularity": 13.253
        },
        {
            "id": 104762,
            "original_name": "Gabriel, amor inmortal",
            "popularity": 0.842
        },
        {
            "id": 107025,
            "original_name": "El \u00c1rbol de Gabriel",
            "popularity": 0.6
        },
        {
            "id": 119908,
            "original_name": "Gabrielle Marion : sans filtre",
            "popularity": 0.668
        },
        {
            "id": 131678,
            "original_name": "Studio Gabriel",
            "popularity": 0.6
        },
        {
            "id": 132734,
            "original_name": "Gabriela",
            "popularity": 0.84
        },
        {
            "id": 138277,
            "original_name": "Le monde de Gabrielle Roy",
            "popularity": 2.75
        }
    ],
    "relations": [],
    "top20": [
        {
            "id": 938,
            "original_name": "Gabriel's Fire",
            "popularity": 3.066
        },
        {
            "id": 12687,
            "original_name": "Gabriel y Gabriela",
            "popularity": 0.6
        },
        {
            "id": 21593,
            "original_name": "Gabriela, giros del destino",
            "popularity": 0.6
        },
        {
            "id": 29875,
            "original_name": "De Fabriek",
            "popularity": 1.498
        },
        {
            "id": 46162,
            "original_name": "Gabriela",
            "popularity": 7.277
        },
        {
            "id": 53398,
            "original_name": "Gabriel Iglesias Shows",
            "popularity": 0.6
        },
        {
            "id": 59680,
            "original_name": "Gabrielle",
            "popularity": 0.6
        },
        {
            "id": 59746,
            "original_name": "Gabriel Iglesias Presents Stand-Up Revolution",
            "popularity": 2.197
        },
        {
            "id": 99626,
            "original_name": "The Trials of Gabriel Fernandez",
            "popularity": 13.253
        },
        {
            "id": 104762,
            "original_name": "Gabriel, amor inmortal",
            "popularity": 0.842
        },
        {
            "id": 107025,
            "original_name": "El \u00c1rbol de Gabriel",
            "popularity": 0.6
        },
        {
            "id": 119908,
            "original_name": "Gabrielle Marion : sans filtre",
            "popularity": 0.668
        },
        {
            "id": 131678,
            "original_name": "Studio Gabriel",
            "popularity": 0.6
        },
        {
            "id": 132734,
            "original_name": "Gabriela",
            "popularity": 0.84
        },
        {
            "id": 138277,
            "original_name": "Le monde de Gabrielle Roy",
            "popularity": 2.75
        }
    ]
}