{
    "data": [
        {
            "id": 9222,
            "original_name": "Accidents Can Happen",
            "popularity": 0.6
        },
        {
            "id": 13551,
            "original_name": "Accidental Family",
            "popularity": 0.991
        },
        {
            "id": 18637,
            "original_name": "Accidentally on Purpose",
            "popularity": 5.73
        },
        {
            "id": 18953,
            "original_name": "Broken Arrow: Can a Nuclear Weapons Accident Happen Here?",
            "popularity": 0.6
        },
        {
            "id": 27254,
            "original_name": "Accident",
            "popularity": 0.642
        },
        {
            "id": 28391,
            "original_name": "Accidental Heroes",
            "popularity": 0.6
        },
        {
            "id": 36099,
            "original_name": "Accidental Fortune",
            "popularity": 0.6
        },
        {
            "id": 38682,
            "original_name": "Accidental Farmer",
            "popularity": 0.6
        },
        {
            "id": 68976,
            "original_name": "L'Accident",
            "popularity": 1.207
        },
        {
            "id": 75404,
            "original_name": "El accidente",
            "popularity": 3.257
        },
        {
            "id": 86182,
            "original_name": "The Accidental Wolf",
            "popularity": 1.4
        },
        {
            "id": 90628,
            "original_name": "Accident, Suicide or Murder",
            "popularity": 2.115
        },
        {
            "id": 94755,
            "original_name": "The Accident",
            "popularity": 3.393
        },
        {
            "id": 103435,
            "original_name": "Herederos por accidente",
            "popularity": 7.816
        },
        {
            "id": 115009,
            "original_name": "Mayday: The Accident Files",
            "popularity": 4.459
        },
        {
            "id": 125503,
            "original_name": "The Accidental Love Story",
            "popularity": 1.2
        },
        {
            "id": 132106,
            "original_name": "Amor por Accidente",
            "popularity": 0.6
        },
        {
            "id": 135671,
            "original_name": "Les pires accidents : Routes",
            "popularity": 0.6
        },
        {
            "id": 135686,
            "original_name": "Les pires accidents : Avions",
            "popularity": 0.6
        }
    ],
    "relations": [],
    "top20": [
        {
            "id": 9222,
            "original_name": "Accidents Can Happen",
            "popularity": 0.6
        },
        {
            "id": 13551,
            "original_name": "Accidental Family",
            "popularity": 0.991
        },
        {
            "id": 18637,
            "original_name": "Accidentally on Purpose",
            "popularity": 5.73
        },
        {
            "id": 18953,
            "original_name": "Broken Arrow: Can a Nuclear Weapons Accident Happen Here?",
            "popularity": 0.6
        },
        {
            "id": 27254,
            "original_name": "Accident",
            "popularity": 0.642
        },
        {
            "id": 28391,
            "original_name": "Accidental Heroes",
            "popularity": 0.6
        },
        {
            "id": 36099,
            "original_name": "Accidental Fortune",
            "popularity": 0.6
        },
        {
            "id": 38682,
            "original_name": "Accidental Farmer",
            "popularity": 0.6
        },
        {
            "id": 68976,
            "original_name": "L'Accident",
            "popularity": 1.207
        },
        {
            "id": 75404,
            "original_name": "El accidente",
            "popularity": 3.257
        },
        {
            "id": 86182,
            "original_name": "The Accidental Wolf",
            "popularity": 1.4
        },
        {
            "id": 90628,
            "original_name": "Accident, Suicide or Murder",
            "popularity": 2.115
        },
        {
            "id": 94755,
            "original_name": "The Accident",
            "popularity": 3.393
        },
        {
            "id": 103435,
            "original_name": "Herederos por accidente",
            "popularity": 7.816
        },
        {
            "id": 115009,
            "original_name": "Mayday: The Accident Files",
            "popularity": 4.459
        },
        {
            "id": 125503,
            "original_name": "The Accidental Love Story",
            "popularity": 1.2
        },
        {
            "id": 132106,
            "original_name": "Amor por Accidente",
            "popularity": 0.6
        },
        {
            "id": 135671,
            "original_name": "Les pires accidents : Routes",
            "popularity": 0.6
        },
        {
            "id": 135686,
            "original_name": "Les pires accidents : Avions",
            "popularity": 0.6
        }
    ]
}