{
    "data": [
        {
            "id": 19755,
            "original_name": "Spacecataz",
            "popularity": 0.6
        },
        {
            "id": 22357,
            "original_name": "Czego sie boja faceci, czyli seks w mniejszym miescie",
            "popularity": 0.845
        },
        {
            "id": 48779,
            "original_name": "Racecourse",
            "popularity": 0.6
        },
        {
            "id": 48780,
            "original_name": "Faceci do wziecia",
            "popularity": 0.62
        }
    ],
    "relations": [],
    "top20": [
        {
            "id": 19755,
            "original_name": "Spacecataz",
            "popularity": 0.6
        },
        {
            "id": 22357,
            "original_name": "Czego sie boja faceci, czyli seks w mniejszym miescie",
            "popularity": 0.845
        },
        {
            "id": 48779,
            "original_name": "Racecourse",
            "popularity": 0.6
        },
        {
            "id": 48780,
            "original_name": "Faceci do wziecia",
            "popularity": 0.62
        }
    ]
}