{
    "data": [
        {
            "id": 281,
            "original_name": "NASCAR Racers",
            "popularity": 3.356
        },
        {
            "id": 6029,
            "original_name": "Hot Wheels AcceleRacers",
            "popularity": 2.412
        },
        {
            "id": 13639,
            "original_name": "Alien Racers",
            "popularity": 0.688
        },
        {
            "id": 22805,
            "original_name": "Girl Racers",
            "popularity": 0.6
        },
        {
            "id": 25231,
            "original_name": "Dream Racers",
            "popularity": 0.6
        },
        {
            "id": 55660,
            "original_name": "Millionaire Boy Racers",
            "popularity": 0.6
        },
        {
            "id": 62310,
            "original_name": "Space Racers",
            "popularity": 1.156
        },
        {
            "id": 68713,
            "original_name": "Formula E: Street Racers",
            "popularity": 0.849
        },
        {
            "id": 70823,
            "original_name": "Mickey and the Roadster Racers",
            "popularity": 13.447
        },
        {
            "id": 95594,
            "original_name": "Fast & Furious Spy Racers",
            "popularity": 55.346
        },
        {
            "id": 95876,
            "original_name": "Dinner With Racers",
            "popularity": 0.6
        },
        {
            "id": 98424,
            "original_name": "Motos Cafe Racers",
            "popularity": 0.6
        },
        {
            "id": 128896,
            "original_name": "Ghostfacers",
            "popularity": 0.6
        },
        {
            "id": 130082,
            "original_name": "Galaxy Racers",
            "popularity": 0.6
        }
    ],
    "relations": [],
    "top20": [
        {
            "id": 281,
            "original_name": "NASCAR Racers",
            "popularity": 3.356
        },
        {
            "id": 6029,
            "original_name": "Hot Wheels AcceleRacers",
            "popularity": 2.412
        },
        {
            "id": 13639,
            "original_name": "Alien Racers",
            "popularity": 0.688
        },
        {
            "id": 22805,
            "original_name": "Girl Racers",
            "popularity": 0.6
        },
        {
            "id": 25231,
            "original_name": "Dream Racers",
            "popularity": 0.6
        },
        {
            "id": 55660,
            "original_name": "Millionaire Boy Racers",
            "popularity": 0.6
        },
        {
            "id": 62310,
            "original_name": "Space Racers",
            "popularity": 1.156
        },
        {
            "id": 68713,
            "original_name": "Formula E: Street Racers",
            "popularity": 0.849
        },
        {
            "id": 70823,
            "original_name": "Mickey and the Roadster Racers",
            "popularity": 13.447
        },
        {
            "id": 95594,
            "original_name": "Fast & Furious Spy Racers",
            "popularity": 55.346
        },
        {
            "id": 95876,
            "original_name": "Dinner With Racers",
            "popularity": 0.6
        },
        {
            "id": 98424,
            "original_name": "Motos Cafe Racers",
            "popularity": 0.6
        },
        {
            "id": 128896,
            "original_name": "Ghostfacers",
            "popularity": 0.6
        },
        {
            "id": 130082,
            "original_name": "Galaxy Racers",
            "popularity": 0.6
        }
    ]
}