{
    "data": [
        {
            "id": 136302,
            "original_name": "Kalyana Kacheri",
            "popularity": 0.6
        }
    ],
    "relations": [],
    "top20": [
        {
            "id": 136302,
            "original_name": "Kalyana Kacheri",
            "popularity": 0.6
        }
    ]
}