{
    "data": [
        {
            "id": 56150,
            "original_name": "Terminator Salvation: The Machinima Series",
            "popularity": 4.056
        },
        {
            "id": 135345,
            "original_name": "Adrift | A Star Citizen Machinima",
            "popularity": 0.84
        }
    ],
    "relations": [],
    "top20": [
        {
            "id": 56150,
            "original_name": "Terminator Salvation: The Machinima Series",
            "popularity": 4.056
        },
        {
            "id": 135345,
            "original_name": "Adrift | A Star Citizen Machinima",
            "popularity": 0.84
        }
    ]
}