{
    "data": [
        {
            "id": 50,
            "original_name": "Pacific Blue",
            "popularity": 11.242
        },
        {
            "id": 6841,
            "original_name": "Union Pacific",
            "popularity": 0.6
        },
        {
            "id": 11605,
            "original_name": "Pacific Station",
            "popularity": 0.884
        },
        {
            "id": 12100,
            "original_name": "Pacific Palisades",
            "popularity": 3.632
        },
        {
            "id": 12195,
            "original_name": "Pacific Drive",
            "popularity": 8.464
        },
        {
            "id": 16981,
            "original_name": "Pacific Abyss",
            "popularity": 0.6
        },
        {
            "id": 16997,
            "original_name": "The Pacific",
            "popularity": 42.585
        },
        {
            "id": 19338,
            "original_name": "South Pacific",
            "popularity": 6.239
        },
        {
            "id": 20944,
            "original_name": "The Pacific Century",
            "popularity": 0.6
        },
        {
            "id": 21356,
            "original_name": "Hell in the Pacific",
            "popularity": 0.6
        },
        {
            "id": 23297,
            "original_name": "South Pacific Adventures",
            "popularity": 0.6
        },
        {
            "id": 25991,
            "original_name": "Asia Pacific Focus",
            "popularity": 0.6
        },
        {
            "id": 29592,
            "original_name": "Wild Pacific",
            "popularity": 0.6
        },
        {
            "id": 33546,
            "original_name": "Pacificanada",
            "popularity": 0.6
        },
        {
            "id": 42736,
            "original_name": "South Pacific",
            "popularity": 0.6
        },
        {
            "id": 55395,
            "original_name": "Radar Across the Pacific",
            "popularity": 0.6
        },
        {
            "id": 68962,
            "original_name": "Pacific Heat",
            "popularity": 2.059
        },
        {
            "id": 72182,
            "original_name": "Big Pacific",
            "popularity": 1.087
        },
        {
            "id": 86146,
            "original_name": "Miracle in the Pacific",
            "popularity": 0.84
        },
        {
            "id": 89628,
            "original_name": "The Pacific War in Color",
            "popularity": 0.684
        },
        {
            "id": 90479,
            "original_name": "WWII in the Pacific",
            "popularity": 1.607
        },
        {
            "id": 93970,
            "original_name": "The Pacific In The Wake of Captain Cook",
            "popularity": 2.409
        },
        {
            "id": 97149,
            "original_name": "Battlezone WWII: Battle of Midway to Victory in the Pacific",
            "popularity": 0.6
        },
        {
            "id": 97458,
            "original_name": "The US Battle For Supremacy In The Pacific",
            "popularity": 0.6
        },
        {
            "id": 98233,
            "original_name": "My Pacific Quest",
            "popularity": 0.6
        },
        {
            "id": 103610,
            "original_name": "War in the Pacific - Eagle Against the Sun",
            "popularity": 0.6
        },
        {
            "id": 112162,
            "original_name": "Pacific Rim: The Black",
            "popularity": 49.42
        },
        {
            "id": 113676,
            "original_name": "Campaigns in the Pacific 1939-1943 Pearl Harbor to the Gilberts",
            "popularity": 0.878
        },
        {
            "id": 113723,
            "original_name": "World War II The War in the Pacific",
            "popularity": 0.6
        },
        {
            "id": 114534,
            "original_name": "Pacific Warriors",
            "popularity": 0.6
        },
        {
            "id": 128176,
            "original_name": "World War II - The Pacific Theater",
            "popularity": 0.6
        },
        {
            "id": 130005,
            "original_name": "Oceans Apart: Art and the Pacific with James Fox",
            "popularity": 0.6
        },
        {
            "id": 130007,
            "original_name": "Masters of the Pacific Coast: The Tribes of the American Northwest",
            "popularity": 0.6
        },
        {
            "id": 130596,
            "original_name": "Handmade in the Pacific",
            "popularity": 0.6
        }
    ],
    "relations": [
        {
            "character": "acifica"
        }
    ],
    "top20": [
        {
            "id": 112162,
            "original_name": "Pacific Rim: The Black",
            "popularity": 49.42
        },
        {
            "id": 16997,
            "original_name": "The Pacific",
            "popularity": 42.585
        },
        {
            "id": 50,
            "original_name": "Pacific Blue",
            "popularity": 11.242
        },
        {
            "id": 12195,
            "original_name": "Pacific Drive",
            "popularity": 8.464
        },
        {
            "id": 19338,
            "original_name": "South Pacific",
            "popularity": 6.239
        },
        {
            "id": 12100,
            "original_name": "Pacific Palisades",
            "popularity": 3.632
        },
        {
            "id": 93970,
            "original_name": "The Pacific In The Wake of Captain Cook",
            "popularity": 2.409
        },
        {
            "id": 68962,
            "original_name": "Pacific Heat",
            "popularity": 2.059
        },
        {
            "id": 90479,
            "original_name": "WWII in the Pacific",
            "popularity": 1.607
        },
        {
            "id": 72182,
            "original_name": "Big Pacific",
            "popularity": 1.087
        },
        {
            "id": 11605,
            "original_name": "Pacific Station",
            "popularity": 0.884
        },
        {
            "id": 113676,
            "original_name": "Campaigns in the Pacific 1939-1943 Pearl Harbor to the Gilberts",
            "popularity": 0.878
        },
        {
            "id": 86146,
            "original_name": "Miracle in the Pacific",
            "popularity": 0.84
        },
        {
            "id": 89628,
            "original_name": "The Pacific War in Color",
            "popularity": 0.684
        },
        {
            "id": 6841,
            "original_name": "Union Pacific",
            "popularity": 0.6
        },
        {
            "id": 25991,
            "original_name": "Asia Pacific Focus",
            "popularity": 0.6
        },
        {
            "id": 21356,
            "original_name": "Hell in the Pacific",
            "popularity": 0.6
        },
        {
            "id": 16981,
            "original_name": "Pacific Abyss",
            "popularity": 0.6
        },
        {
            "id": 23297,
            "original_name": "South Pacific Adventures",
            "popularity": 0.6
        },
        {
            "id": 20944,
            "original_name": "The Pacific Century",
            "popularity": 0.6
        }
    ]
}