{
    "data": [
        {
            "id": 45177,
            "original_name": "Life on Seacrow Island",
            "popularity": 0.6
        }
    ],
    "relations": [],
    "top20": [
        {
            "id": 45177,
            "original_name": "Life on Seacrow Island",
            "popularity": 0.6
        }
    ]
}