{
    "data": [
        {
            "id": 11892,
            "original_name": "Acting Crazy",
            "popularity": 0.6
        },
        {
            "id": 42660,
            "original_name": "Acting School Academy",
            "popularity": 0.6
        },
        {
            "id": 68226,
            "original_name": "Acting Out",
            "popularity": 0.6
        },
        {
            "id": 69476,
            "original_name": "Acting",
            "popularity": 0.679
        },
        {
            "id": 75855,
            "original_name": "Acting Dead",
            "popularity": 1.605
        },
        {
            "id": 80036,
            "original_name": "Acting Disruptive",
            "popularity": 1.4
        },
        {
            "id": 114215,
            "original_name": "Acting for a Cause",
            "popularity": 6.159
        }
    ],
    "relations": [],
    "top20": [
        {
            "id": 11892,
            "original_name": "Acting Crazy",
            "popularity": 0.6
        },
        {
            "id": 42660,
            "original_name": "Acting School Academy",
            "popularity": 0.6
        },
        {
            "id": 68226,
            "original_name": "Acting Out",
            "popularity": 0.6
        },
        {
            "id": 69476,
            "original_name": "Acting",
            "popularity": 0.679
        },
        {
            "id": 75855,
            "original_name": "Acting Dead",
            "popularity": 1.605
        },
        {
            "id": 80036,
            "original_name": "Acting Disruptive",
            "popularity": 1.4
        },
        {
            "id": 114215,
            "original_name": "Acting for a Cause",
            "popularity": 6.159
        }
    ]
}