{
    "data": [
        {
            "id": 2488,
            "original_name": "Fun Song Factory",
            "popularity": 0.882
        },
        {
            "id": 5069,
            "original_name": "Fun Factory",
            "popularity": 0.6
        },
        {
            "id": 5537,
            "original_name": "The Factory",
            "popularity": 0.623
        },
        {
            "id": 6233,
            "original_name": "Dance Factory",
            "popularity": 0.6
        },
        {
            "id": 10218,
            "original_name": "The Duck Factory",
            "popularity": 1.513
        },
        {
            "id": 12042,
            "original_name": "The Pop Factory",
            "popularity": 0.6
        },
        {
            "id": 12064,
            "original_name": "The Sausage Factory",
            "popularity": 2.408
        },
        {
            "id": 12401,
            "original_name": "Star Factory",
            "popularity": 0.6
        },
        {
            "id": 14654,
            "original_name": "Sunshine Factory",
            "popularity": 0.6
        },
        {
            "id": 14882,
            "original_name": "Corpse Factory",
            "popularity": 0.6
        },
        {
            "id": 17135,
            "original_name": "The Factory",
            "popularity": 0.6
        },
        {
            "id": 17562,
            "original_name": "Rob Dyrdek's Fantasy Factory",
            "popularity": 4.246
        },
        {
            "id": 20404,
            "original_name": "Factory Floor with Marshall Brain",
            "popularity": 0.6
        },
        {
            "id": 20619,
            "original_name": "The Mouse Factory",
            "popularity": 0.681
        },
        {
            "id": 20762,
            "original_name": "Willie's Wonky Chocolate Factory",
            "popularity": 0.7
        },
        {
            "id": 27374,
            "original_name": "Factory Made",
            "popularity": 0.6
        },
        {
            "id": 27880,
            "original_name": "Comedy Factory (NL)",
            "popularity": 0.6
        },
        {
            "id": 28782,
            "original_name": "The Fun Factory",
            "popularity": 0.6
        },
        {
            "id": 29438,
            "original_name": "The Dream Factory",
            "popularity": 0.6
        },
        {
            "id": 30240,
            "original_name": "Comedy Factory",
            "popularity": 0.6
        },
        {
            "id": 35188,
            "original_name": "LEGO Hero Factory",
            "popularity": 3.042
        },
        {
            "id": 35667,
            "original_name": "Jimmy's Food Factory",
            "popularity": 0.6
        },
        {
            "id": 45778,
            "original_name": "The Potato Factory",
            "popularity": 1.4
        },
        {
            "id": 54852,
            "original_name": "Fame Factory",
            "popularity": 0.6
        },
        {
            "id": 56010,
            "original_name": "Factory Tee Rak",
            "popularity": 0.6
        },
        {
            "id": 59741,
            "original_name": "The Kandi Factory",
            "popularity": 0.6
        },
        {
            "id": 67771,
            "original_name": "Battle Factory",
            "popularity": 0.6
        },
        {
            "id": 72793,
            "original_name": "Inside the Factory",
            "popularity": 1.959
        },
        {
            "id": 76234,
            "original_name": "Food Factory",
            "popularity": 2.311
        },
        {
            "id": 76235,
            "original_name": "Food Factory USA",
            "popularity": 0.956
        },
        {
            "id": 81600,
            "original_name": "Stand-up Factory",
            "popularity": 0.6
        },
        {
            "id": 89113,
            "original_name": "Kota Factory",
            "popularity": 6.54
        },
        {
            "id": 89693,
            "original_name": "Monster Factory",
            "popularity": 0.6
        },
        {
            "id": 90052,
            "original_name": "Ms. T's Music Factory",
            "popularity": 0.6
        },
        {
            "id": 94568,
            "original_name": "Back in Time for the Factory",
            "popularity": 0.6
        },
        {
            "id": 103613,
            "original_name": "The Fantastical Factory of Curious Craft",
            "popularity": 0.6
        },
        {
            "id": 107345,
            "original_name": "Failfactory",
            "popularity": 0.6
        },
        {
            "id": 110708,
            "original_name": "Inside the Spitfire Factory",
            "popularity": 0.643
        },
        {
            "id": 133010,
            "original_name": "Style Factory",
            "popularity": 0.6
        },
        {
            "id": 133106,
            "original_name": "Wolfboy and The Everything Factory",
            "popularity": 6.591
        },
        {
            "id": 133123,
            "original_name": "Gamer's Nexus Factory Tours",
            "popularity": 0.6
        },
        {
            "id": 137014,
            "original_name": "Home Factory",
            "popularity": 0.6
        }
    ],
    "relations": [],
    "top20": [
        {
            "id": 133106,
            "original_name": "Wolfboy and The Everything Factory",
            "popularity": 6.591
        },
        {
            "id": 89113,
            "original_name": "Kota Factory",
            "popularity": 6.54
        },
        {
            "id": 17562,
            "original_name": "Rob Dyrdek's Fantasy Factory",
            "popularity": 4.246
        },
        {
            "id": 35188,
            "original_name": "LEGO Hero Factory",
            "popularity": 3.042
        },
        {
            "id": 12064,
            "original_name": "The Sausage Factory",
            "popularity": 2.408
        },
        {
            "id": 76234,
            "original_name": "Food Factory",
            "popularity": 2.311
        },
        {
            "id": 72793,
            "original_name": "Inside the Factory",
            "popularity": 1.959
        },
        {
            "id": 10218,
            "original_name": "The Duck Factory",
            "popularity": 1.513
        },
        {
            "id": 45778,
            "original_name": "The Potato Factory",
            "popularity": 1.4
        },
        {
            "id": 76235,
            "original_name": "Food Factory USA",
            "popularity": 0.956
        },
        {
            "id": 2488,
            "original_name": "Fun Song Factory",
            "popularity": 0.882
        },
        {
            "id": 20762,
            "original_name": "Willie's Wonky Chocolate Factory",
            "popularity": 0.7
        },
        {
            "id": 20619,
            "original_name": "The Mouse Factory",
            "popularity": 0.681
        },
        {
            "id": 110708,
            "original_name": "Inside the Spitfire Factory",
            "popularity": 0.643
        },
        {
            "id": 5537,
            "original_name": "The Factory",
            "popularity": 0.623
        },
        {
            "id": 12042,
            "original_name": "The Pop Factory",
            "popularity": 0.6
        },
        {
            "id": 14654,
            "original_name": "Sunshine Factory",
            "popularity": 0.6
        },
        {
            "id": 12401,
            "original_name": "Star Factory",
            "popularity": 0.6
        },
        {
            "id": 5069,
            "original_name": "Fun Factory",
            "popularity": 0.6
        },
        {
            "id": 6233,
            "original_name": "Dance Factory",
            "popularity": 0.6
        }
    ]
}