{
    "data": [
        {
            "id": 2501,
            "original_name": "Fat Actress",
            "popularity": 3.292
        }
    ],
    "relations": [],
    "top20": [
        {
            "id": 2501,
            "original_name": "Fat Actress",
            "popularity": 3.292
        }
    ]
}