{
    "data": [
        {
            "id": 7534,
            "original_name": "Don Adams' Screen Test",
            "popularity": 0.6
        },
        {
            "id": 8241,
            "original_name": "Adams of Eagle Lake",
            "popularity": 1.189
        },
        {
            "id": 15114,
            "original_name": "John Adams",
            "popularity": 16.229
        },
        {
            "id": 17979,
            "original_name": "Mr. Adams and Eve",
            "popularity": 1.929
        },
        {
            "id": 19005,
            "original_name": "The Adams Chronicles",
            "popularity": 2.096
        },
        {
            "id": 23212,
            "original_name": "Around The World With Brian Adams",
            "popularity": 0.6
        },
        {
            "id": 23355,
            "original_name": "Eva Adams",
            "popularity": 0.6
        },
        {
            "id": 24123,
            "original_name": "Grizzly Adams",
            "popularity": 5.534
        },
        {
            "id": 29240,
            "original_name": "Adams Afternoon",
            "popularity": 0.6
        },
        {
            "id": 100440,
            "original_name": "Assistant Madams",
            "popularity": 0.6
        }
    ],
    "relations": [],
    "top20": [
        {
            "id": 7534,
            "original_name": "Don Adams' Screen Test",
            "popularity": 0.6
        },
        {
            "id": 8241,
            "original_name": "Adams of Eagle Lake",
            "popularity": 1.189
        },
        {
            "id": 15114,
            "original_name": "John Adams",
            "popularity": 16.229
        },
        {
            "id": 17979,
            "original_name": "Mr. Adams and Eve",
            "popularity": 1.929
        },
        {
            "id": 19005,
            "original_name": "The Adams Chronicles",
            "popularity": 2.096
        },
        {
            "id": 23212,
            "original_name": "Around The World With Brian Adams",
            "popularity": 0.6
        },
        {
            "id": 23355,
            "original_name": "Eva Adams",
            "popularity": 0.6
        },
        {
            "id": 24123,
            "original_name": "Grizzly Adams",
            "popularity": 5.534
        },
        {
            "id": 29240,
            "original_name": "Adams Afternoon",
            "popularity": 0.6
        },
        {
            "id": 100440,
            "original_name": "Assistant Madams",
            "popularity": 0.6
        }
    ]
}