{
    "data": [
        {
            "id": 39296,
            "original_name": "Badass",
            "popularity": 0.654
        },
        {
            "id": 69594,
            "original_name": "U-Prince The Series \u0e40\u0e23\u0e37\u0e48\u0e2d\u0e07 Badass Baker",
            "popularity": 0.6
        },
        {
            "id": 89821,
            "original_name": "U-Prince The Series: The Badass Baker",
            "popularity": 0.6
        },
        {
            "id": 92563,
            "original_name": "Giving Me Life in the Land of the Deadass",
            "popularity": 0.6
        },
        {
            "id": 110912,
            "original_name": "Badass Bitches of History",
            "popularity": 0.6
        },
        {
            "id": 129691,
            "original_name": "BADASS",
            "popularity": 0.6
        }
    ],
    "relations": [],
    "top20": [
        {
            "id": 39296,
            "original_name": "Badass",
            "popularity": 0.654
        },
        {
            "id": 69594,
            "original_name": "U-Prince The Series \u0e40\u0e23\u0e37\u0e48\u0e2d\u0e07 Badass Baker",
            "popularity": 0.6
        },
        {
            "id": 89821,
            "original_name": "U-Prince The Series: The Badass Baker",
            "popularity": 0.6
        },
        {
            "id": 92563,
            "original_name": "Giving Me Life in the Land of the Deadass",
            "popularity": 0.6
        },
        {
            "id": 110912,
            "original_name": "Badass Bitches of History",
            "popularity": 0.6
        },
        {
            "id": 129691,
            "original_name": "BADASS",
            "popularity": 0.6
        }
    ]
}