{
    "data": [
        {
            "id": 91630,
            "original_name": "O Auto da Compadecida",
            "popularity": 2.665
        }
    ],
    "relations": [],
    "top20": [
        {
            "id": 91630,
            "original_name": "O Auto da Compadecida",
            "popularity": 2.665
        }
    ]
}