{
    "data": [
        {
            "id": 54967,
            "original_name": "Hadeket El-Shar",
            "popularity": 0.6
        }
    ],
    "relations": [],
    "top20": [
        {
            "id": 54967,
            "original_name": "Hadeket El-Shar",
            "popularity": 0.6
        }
    ]
}