{
    "data": [
        {
            "id": 15611,
            "original_name": "Radhaa Ki Betiyaan Kuch Kar Dikhayengi",
            "popularity": 0.84
        },
        {
            "id": 15648,
            "original_name": "Indiadhanush",
            "popularity": 0.6
        },
        {
            "id": 17606,
            "original_name": "Indradhanush",
            "popularity": 0.6
        },
        {
            "id": 18080,
            "original_name": "Aradhana",
            "popularity": 0.6
        },
        {
            "id": 37650,
            "original_name": "Nadhaswaram",
            "popularity": 0.6
        },
        {
            "id": 41310,
            "original_name": "Pyaar Ke Do Naam: Ek Raadha, Ek Shyaam",
            "popularity": 0.6
        },
        {
            "id": 44247,
            "original_name": "Gopi Gadha Aur Gupshup",
            "popularity": 0.6
        },
        {
            "id": 46711,
            "original_name": "CBC News Now: Gadhafi Dead",
            "popularity": 0.6
        },
        {
            "id": 52258,
            "original_name": "Al-Adham",
            "popularity": 0.6
        },
        {
            "id": 53932,
            "original_name": "Maqamat Badi' az-Zaman al-Hamadhani",
            "popularity": 0.6
        },
        {
            "id": 72353,
            "original_name": "Pradhanmantri",
            "popularity": 1.183
        },
        {
            "id": 72402,
            "original_name": "As I'm Suffering From Kadhal",
            "popularity": 2.294
        },
        {
            "id": 90216,
            "original_name": "Ur_Tadhana",
            "popularity": 0.6
        },
        {
            "id": 94496,
            "original_name": "Tadhana",
            "popularity": 0.6
        },
        {
            "id": 105682,
            "original_name": "Samadhan Ki Samasya",
            "popularity": 0.6
        },
        {
            "id": 114237,
            "original_name": "Radha Madhu",
            "popularity": 0.6
        },
        {
            "id": 114893,
            "original_name": "Paava Kadhaigal",
            "popularity": 4.537
        },
        {
            "id": 118561,
            "original_name": "Vadham",
            "popularity": 1.022
        },
        {
            "id": 121312,
            "original_name": "Shubh Mangal Savadhan",
            "popularity": 1.4
        },
        {
            "id": 132130,
            "original_name": "Adhantari",
            "popularity": 0.6
        },
        {
            "id": 135209,
            "original_name": "Thondara Padaku Sundara Vadhana",
            "popularity": 0.6
        },
        {
            "id": 136176,
            "original_name": "Adhantari",
            "popularity": 0.6
        }
    ],
    "relations": [
        {
            "character": "adhaa"
        },
        {
            "character": "adhan"
        },
        {
            "character": "adhas"
        },
        {
            "character": "adhaf"
        },
        {
            "character": "adham"
        },
        {
            "character": "adhal"
        },
        {
            "character": "adhai"
        }
    ],
    "top20": [
        {
            "id": 114893,
            "original_name": "Paava Kadhaigal",
            "popularity": 4.537
        },
        {
            "id": 72402,
            "original_name": "As I'm Suffering From Kadhal",
            "popularity": 2.294
        },
        {
            "id": 121312,
            "original_name": "Shubh Mangal Savadhan",
            "popularity": 1.4
        },
        {
            "id": 72353,
            "original_name": "Pradhanmantri",
            "popularity": 1.183
        },
        {
            "id": 118561,
            "original_name": "Vadham",
            "popularity": 1.022
        },
        {
            "id": 15611,
            "original_name": "Radhaa Ki Betiyaan Kuch Kar Dikhayengi",
            "popularity": 0.84
        },
        {
            "id": 41310,
            "original_name": "Pyaar Ke Do Naam: Ek Raadha, Ek Shyaam",
            "popularity": 0.6
        },
        {
            "id": 132130,
            "original_name": "Adhantari",
            "popularity": 0.6
        },
        {
            "id": 90216,
            "original_name": "Ur_Tadhana",
            "popularity": 0.6
        },
        {
            "id": 15648,
            "original_name": "Indiadhanush",
            "popularity": 0.6
        },
        {
            "id": 44247,
            "original_name": "Gopi Gadha Aur Gupshup",
            "popularity": 0.6
        },
        {
            "id": 53932,
            "original_name": "Maqamat Badi' az-Zaman al-Hamadhani",
            "popularity": 0.6
        },
        {
            "id": 46711,
            "original_name": "CBC News Now: Gadhafi Dead",
            "popularity": 0.6
        },
        {
            "id": 18080,
            "original_name": "Aradhana",
            "popularity": 0.6
        },
        {
            "id": 37650,
            "original_name": "Nadhaswaram",
            "popularity": 0.6
        },
        {
            "id": 105682,
            "original_name": "Samadhan Ki Samasya",
            "popularity": 0.6
        },
        {
            "id": 52258,
            "original_name": "Al-Adham",
            "popularity": 0.6
        },
        {
            "id": 17606,
            "original_name": "Indradhanush",
            "popularity": 0.6
        },
        {
            "id": 94496,
            "original_name": "Tadhana",
            "popularity": 0.6
        },
        {
            "id": 114237,
            "original_name": "Radha Madhu",
            "popularity": 0.6
        }
    ]
}