{
    "data": [
        {
            "id": 69877,
            "original_name": "Madiba",
            "popularity": 3.141
        }
    ],
    "relations": [],
    "top20": [
        {
            "id": 69877,
            "original_name": "Madiba",
            "popularity": 3.141
        }
    ]
}