{
    "data": [
        {
            "id": 9245,
            "original_name": "Little Armadillos",
            "popularity": 0.6
        },
        {
            "id": 16814,
            "original_name": "Cadillacs and Dinosaurs",
            "popularity": 2.366
        },
        {
            "id": 30564,
            "original_name": "Piccadilly Palace",
            "popularity": 0.6
        },
        {
            "id": 55004,
            "original_name": "Piccadilly Circus",
            "popularity": 0.6
        },
        {
            "id": 65076,
            "original_name": "Pesadilla en la cocina",
            "popularity": 4.131
        },
        {
            "id": 66801,
            "original_name": "Martes y 13 Empanadillados",
            "popularity": 0.6
        },
        {
            "id": 87659,
            "original_name": "Cadillac Drive",
            "popularity": 0.6
        },
        {
            "id": 100631,
            "original_name": "Pesadilla en la cocina Argentina",
            "popularity": 0.849
        },
        {
            "id": 132738,
            "original_name": "Cabo Vadillo",
            "popularity": 0.6
        }
    ],
    "relations": [],
    "top20": [
        {
            "id": 9245,
            "original_name": "Little Armadillos",
            "popularity": 0.6
        },
        {
            "id": 16814,
            "original_name": "Cadillacs and Dinosaurs",
            "popularity": 2.366
        },
        {
            "id": 30564,
            "original_name": "Piccadilly Palace",
            "popularity": 0.6
        },
        {
            "id": 55004,
            "original_name": "Piccadilly Circus",
            "popularity": 0.6
        },
        {
            "id": 65076,
            "original_name": "Pesadilla en la cocina",
            "popularity": 4.131
        },
        {
            "id": 66801,
            "original_name": "Martes y 13 Empanadillados",
            "popularity": 0.6
        },
        {
            "id": 87659,
            "original_name": "Cadillac Drive",
            "popularity": 0.6
        },
        {
            "id": 100631,
            "original_name": "Pesadilla en la cocina Argentina",
            "popularity": 0.849
        },
        {
            "id": 132738,
            "original_name": "Cabo Vadillo",
            "popularity": 0.6
        }
    ]
}