{
    "data": [
        {
            "id": 12755,
            "original_name": "Madison",
            "popularity": 7.614
        },
        {
            "id": 28302,
            "original_name": "Madison Heights",
            "popularity": 0.6
        },
        {
            "id": 37768,
            "original_name": "Madison High",
            "popularity": 0.6
        },
        {
            "id": 40181,
            "original_name": "Dolley Madison",
            "popularity": 0.6
        },
        {
            "id": 58303,
            "original_name": "Famous Fights from Madison Square Garden",
            "popularity": 0.6
        },
        {
            "id": 71456,
            "original_name": "Mit paradiso liv",
            "popularity": 1.788
        },
        {
            "id": 73362,
            "original_name": "Il paradiso delle signore",
            "popularity": 7.206
        },
        {
            "id": 119991,
            "original_name": "The TS Madison Experience",
            "popularity": 0.6
        }
    ],
    "relations": [],
    "top20": [
        {
            "id": 12755,
            "original_name": "Madison",
            "popularity": 7.614
        },
        {
            "id": 28302,
            "original_name": "Madison Heights",
            "popularity": 0.6
        },
        {
            "id": 37768,
            "original_name": "Madison High",
            "popularity": 0.6
        },
        {
            "id": 40181,
            "original_name": "Dolley Madison",
            "popularity": 0.6
        },
        {
            "id": 58303,
            "original_name": "Famous Fights from Madison Square Garden",
            "popularity": 0.6
        },
        {
            "id": 71456,
            "original_name": "Mit paradiso liv",
            "popularity": 1.788
        },
        {
            "id": 73362,
            "original_name": "Il paradiso delle signore",
            "popularity": 7.206
        },
        {
            "id": 119991,
            "original_name": "The TS Madison Experience",
            "popularity": 0.6
        }
    ]
}