{
    "data": [
        {
            "id": 134695,
            "original_name": "Badnews",
            "popularity": 1.34
        },
        {
            "id": 134696,
            "original_name": "Badnews",
            "popularity": 0.6
        }
    ],
    "relations": [],
    "top20": [
        {
            "id": 134695,
            "original_name": "Badnews",
            "popularity": 1.34
        },
        {
            "id": 134696,
            "original_name": "Badnews",
            "popularity": 0.6
        }
    ]
}