{
    "data": [
        {
            "id": 33793,
            "original_name": "Babar and the Adventures of Badou",
            "popularity": 5.466
        },
        {
            "id": 58508,
            "original_name": "Troubadour, TX",
            "popularity": 0.6
        },
        {
            "id": 133901,
            "original_name": "Jeanne Poisson, Marquise de Pompadour",
            "popularity": 0.6
        }
    ],
    "relations": [],
    "top20": [
        {
            "id": 33793,
            "original_name": "Babar and the Adventures of Badou",
            "popularity": 5.466
        },
        {
            "id": 58508,
            "original_name": "Troubadour, TX",
            "popularity": 0.6
        },
        {
            "id": 133901,
            "original_name": "Jeanne Poisson, Marquise de Pompadour",
            "popularity": 0.6
        }
    ]
}