{
    "data": [
        {
            "id": 420,
            "original_name": "Whatever Happened to the Likely Lads?",
            "popularity": 4.156
        },
        {
            "id": 662,
            "original_name": "John Callahan's Quads!",
            "popularity": 0.624
        },
        {
            "id": 747,
            "original_name": "Lads' Army",
            "popularity": 1.2
        },
        {
            "id": 1862,
            "original_name": "My Two Dads",
            "popularity": 7.312
        },
        {
            "id": 2042,
            "original_name": "Antiques Roadshow",
            "popularity": 4.02
        },
        {
            "id": 2047,
            "original_name": "Petrolheads",
            "popularity": 0.6
        },
        {
            "id": 2735,
            "original_name": "The Likely Lads",
            "popularity": 2.285
        },
        {
            "id": 3547,
            "original_name": "Undergrads",
            "popularity": 2.678
        },
        {
            "id": 3584,
            "original_name": "Eggheads",
            "popularity": 0.725
        },
        {
            "id": 3753,
            "original_name": "Crossroads",
            "popularity": 14.16
        },
        {
            "id": 4523,
            "original_name": "Heads Up with Richard Herring",
            "popularity": 0.6
        },
        {
            "id": 5669,
            "original_name": "National Heads-Up Poker Championship",
            "popularity": 2.414
        },
        {
            "id": 5839,
            "original_name": "Stadskampen",
            "popularity": 0.6
        },
        {
            "id": 6075,
            "original_name": "Talking Heads",
            "popularity": 0.6
        },
        {
            "id": 6228,
            "original_name": "Used Car Roadshow",
            "popularity": 0.6
        },
        {
            "id": 7742,
            "original_name": "The Summer of Knobheads and Scones",
            "popularity": 0.6
        },
        {
            "id": 8199,
            "original_name": "Kya Hadsaa Kya Haqeeqat",
            "popularity": 0.6
        },
        {
            "id": 8728,
            "original_name": "Bad Dads",
            "popularity": 0.6
        },
        {
            "id": 8986,
            "original_name": "Heads Up!",
            "popularity": 0.6
        },
        {
            "id": 9914,
            "original_name": "Showbiz Moms & Dads",
            "popularity": 0.6
        },
        {
            "id": 10698,
            "original_name": "CMT Crossroads",
            "popularity": 3.018
        },
        {
            "id": 10898,
            "original_name": "ToonHeads",
            "popularity": 0.6
        },
        {
            "id": 14199,
            "original_name": "Noel's Saturday Roadshow",
            "popularity": 1.351
        },
        {
            "id": 15032,
            "original_name": "Canada Reads",
            "popularity": 0.6
        },
        {
            "id": 15664,
            "original_name": "Chowdaheads",
            "popularity": 0.6
        },
        {
            "id": 15816,
            "original_name": "Zindagi Badal Sakta Hai Hadsaa",
            "popularity": 0.6
        },
        {
            "id": 15820,
            "original_name": "Draadstaal",
            "popularity": 2.378
        },
        {
            "id": 16510,
            "original_name": "Crossroads",
            "popularity": 0.6
        },
        {
            "id": 16905,
            "original_name": "Nickheads",
            "popularity": 0.6
        },
        {
            "id": 17102,
            "original_name": "Skinheads USA: Soldiers of the Race War",
            "popularity": 0.6
        },
        {
            "id": 17272,
            "original_name": "The Blobheads",
            "popularity": 1.188
        },
        {
            "id": 17761,
            "original_name": "Uncle Bill Reads the Funnies",
            "popularity": 0.6
        },
        {
            "id": 17830,
            "original_name": "A Tribute to the Likely Lads",
            "popularity": 0.6
        },
        {
            "id": 18716,
            "original_name": "Threads of Hope",
            "popularity": 0.6
        },
        {
            "id": 19676,
            "original_name": "America at a Crossroads",
            "popularity": 0.623
        },
        {
            "id": 20386,
            "original_name": "Bluegrass & Backroads",
            "popularity": 0.6
        },
        {
            "id": 21238,
            "original_name": "The Paper Lads",
            "popularity": 0.6
        },
        {
            "id": 21504,
            "original_name": "Crossroads",
            "popularity": 5.942
        },
        {
            "id": 21607,
            "original_name": "Michael McIntyre's Comedy Roadshow",
            "popularity": 0.661
        },
        {
            "id": 21866,
            "original_name": "Battletoads",
            "popularity": 0.84
        },
        {
            "id": 22164,
            "original_name": "Showdog Moms & Dads",
            "popularity": 0.6
        },
        {
            "id": 23115,
            "original_name": "The John Konrads Show",
            "popularity": 0.6
        },
        {
            "id": 23768,
            "original_name": "The Eggheads",
            "popularity": 0.6
        },
        {
            "id": 23840,
            "original_name": "Crimewatch Roadshow",
            "popularity": 1.103
        },
        {
            "id": 24176,
            "original_name": "Hammer Heads",
            "popularity": 1.092
        },
        {
            "id": 25724,
            "original_name": "Country Roads",
            "popularity": 0.6
        },
        {
            "id": 25790,
            "original_name": "Crossroads",
            "popularity": 1.693
        },
        {
            "id": 25846,
            "original_name": "Tom O'Connor Roadshow",
            "popularity": 0.84
        },
        {
            "id": 27056,
            "original_name": "Best Ever Ads II",
            "popularity": 0.6
        },
        {
            "id": 27126,
            "original_name": "Canadian Antiques Roadshow",
            "popularity": 0.6
        },
        {
            "id": 27408,
            "original_name": "Threads of Life",
            "popularity": 0.6
        },
        {
            "id": 28324,
            "original_name": "Bad Dads, Phat Mums",
            "popularity": 0.6
        },
        {
            "id": 28426,
            "original_name": "Dads",
            "popularity": 1.35
        },
        {
            "id": 29029,
            "original_name": "Crossroads",
            "popularity": 4.406
        },
        {
            "id": 29120,
            "original_name": "20th Century Roadshow",
            "popularity": 0.6
        },
        {
            "id": 29662,
            "original_name": "The Animals Roadshow",
            "popularity": 0.6
        },
        {
            "id": 29737,
            "original_name": "Heads Up",
            "popularity": 0.6
        },
        {
            "id": 29846,
            "original_name": "Ads Infinitum",
            "popularity": 0.6
        },
        {
            "id": 30187,
            "original_name": "Sports Kids Moms & Dads",
            "popularity": 0.6
        },
        {
            "id": 30222,
            "original_name": "Best Ever Ads",
            "popularity": 0.6
        },
        {
            "id": 31241,
            "original_name": "Talking Threads",
            "popularity": 0.6
        },
        {
            "id": 31658,
            "original_name": "A Program About Unusual Buildings & Other Roadside Stuff",
            "popularity": 0.6
        },
        {
            "id": 31898,
            "original_name": "Crossroads Caf\u00e9",
            "popularity": 0.6
        },
        {
            "id": 32235,
            "original_name": "Headstart",
            "popularity": 0.6
        },
        {
            "id": 32961,
            "original_name": "InOverOurHeads",
            "popularity": 0.6
        },
        {
            "id": 33122,
            "original_name": "Nomads",
            "popularity": 0.6
        },
        {
            "id": 33574,
            "original_name": "Country Roads",
            "popularity": 0.6
        },
        {
            "id": 33709,
            "original_name": "Ballads and Bards",
            "popularity": 0.6
        },
        {
            "id": 33729,
            "original_name": "Priceless Antiques Roadshow",
            "popularity": 0.6
        },
        {
            "id": 33760,
            "original_name": "Cooking for Dads",
            "popularity": 0.6
        },
        {
            "id": 34830,
            "original_name": "Uncommon Threads",
            "popularity": 0.6
        },
        {
            "id": 34977,
            "original_name": "Broadsheet",
            "popularity": 0.6
        },
        {
            "id": 35531,
            "original_name": "Madskippers",
            "popularity": 0.6
        },
        {
            "id": 35556,
            "original_name": "Loggerheads",
            "popularity": 0.6
        },
        {
            "id": 35729,
            "original_name": "IRT Deadliest Roads",
            "popularity": 1.4
        },
        {
            "id": 36183,
            "original_name": "Heads or Tails",
            "popularity": 1.463
        },
        {
            "id": 38459,
            "original_name": "Gok's Clothes Roadshow",
            "popularity": 0.6
        },
        {
            "id": 39968,
            "original_name": "Heads N TailZ",
            "popularity": 0.6
        },
        {
            "id": 42329,
            "original_name": "Bunheads",
            "popularity": 6.493
        },
        {
            "id": 45411,
            "original_name": "Home Movie Roadshow",
            "popularity": 0.6
        },
        {
            "id": 45773,
            "original_name": "Bradshaw on Homecoming",
            "popularity": 0.6
        },
        {
            "id": 45777,
            "original_name": "China at the Crossroads",
            "popularity": 0.6
        },
        {
            "id": 46956,
            "original_name": "Dads",
            "popularity": 6.504
        },
        {
            "id": 47970,
            "original_name": "Heads And Tails",
            "popularity": 0.6
        },
        {
            "id": 48023,
            "original_name": "Roads to Freedom",
            "popularity": 0.6
        },
        {
            "id": 48110,
            "original_name": "Ironclads",
            "popularity": 0.6
        },
        {
            "id": 48540,
            "original_name": "Undergrads: South",
            "popularity": 0.6
        },
        {
            "id": 50951,
            "original_name": "HjerneMadsen fort\u00e6ller",
            "popularity": 0.84
        },
        {
            "id": 50952,
            "original_name": "HjerneMadsen",
            "popularity": 0.6
        },
        {
            "id": 52336,
            "original_name": "The Route Masters: Running London's Roads",
            "popularity": 0.6
        },
        {
            "id": 55603,
            "original_name": "SM\u00c5STADSDROTTNINGAR",
            "popularity": 0.6
        },
        {
            "id": 55701,
            "original_name": "How Safe are Britain's Roads?",
            "popularity": 0.6
        },
        {
            "id": 56551,
            "original_name": "Highroads with Dan Davis",
            "popularity": 0.6
        },
        {
            "id": 56929,
            "original_name": "Antiques Roadshow Australia",
            "popularity": 0.6
        },
        {
            "id": 58340,
            "original_name": "Dads",
            "popularity": 0.6
        },
        {
            "id": 58438,
            "original_name": "Crossroads",
            "popularity": 0.6
        },
        {
            "id": 59561,
            "original_name": "The Genealogy Roadshow",
            "popularity": 0.6
        },
        {
            "id": 59707,
            "original_name": "Undercover Dads!",
            "popularity": 0.6
        },
        {
            "id": 62350,
            "original_name": "Kr\u00f3nika-A II.Magyar Hadsereg a Donn\u00e1l",
            "popularity": 0.6
        },
        {
            "id": 63156,
            "original_name": "Kate Humble: Living with Nomads",
            "popularity": 0.856
        },
        {
            "id": 63272,
            "original_name": "World's Most Dangerous Roads",
            "popularity": 2.175
        },
        {
            "id": 65405,
            "original_name": "Back Roads",
            "popularity": 1.717
        },
        {
            "id": 68509,
            "original_name": "Julies Madselskaber",
            "popularity": 1.437
        },
        {
            "id": 70823,
            "original_name": "Mickey and the Roadster Racers",
            "popularity": 13.447
        },
        {
            "id": 72717,
            "original_name": "Hannah Gadsby's OZ",
            "popularity": 0.845
        },
        {
            "id": 72849,
            "original_name": "Open Roads",
            "popularity": 0.849
        },
        {
            "id": 74078,
            "original_name": "Madsen & Co.",
            "popularity": 0.6
        },
        {
            "id": 75936,
            "original_name": "Lonely Planet: Roads Less Travelled",
            "popularity": 0.6
        },
        {
            "id": 76531,
            "original_name": "The Grill Dads",
            "popularity": 0.644
        },
        {
            "id": 77605,
            "original_name": "Hannah Gadsby's Nakedy Nudes",
            "popularity": 0.945
        },
        {
            "id": 78212,
            "original_name": "Threads",
            "popularity": 0.928
        },
        {
            "id": 83949,
            "original_name": "Treadstone",
            "popularity": 16.673
        },
        {
            "id": 85435,
            "original_name": "All Roads Lead Home",
            "popularity": 0.6
        },
        {
            "id": 85684,
            "original_name": "deadside",
            "popularity": 0.6
        },
        {
            "id": 86055,
            "original_name": "Vintage Roads",
            "popularity": 0.6
        },
        {
            "id": 90179,
            "original_name": "Nomads of the Serengeti",
            "popularity": 0.6
        },
        {
            "id": 91589,
            "original_name": "Ancient Roads from Christ to Constantine",
            "popularity": 2.385
        },
        {
            "id": 91915,
            "original_name": "Hot Roads - Die gef\u00e4hrlichsten Stra\u00dfen der Welt",
            "popularity": 0.6
        },
        {
            "id": 94267,
            "original_name": "Council of Dads",
            "popularity": 4.05
        },
        {
            "id": 97029,
            "original_name": "Hell Roads",
            "popularity": 0.6
        },
        {
            "id": 101728,
            "original_name": "Roadside",
            "popularity": 0.6
        },
        {
            "id": 101808,
            "original_name": "Dybvads sofa",
            "popularity": 0.6
        },
        {
            "id": 102723,
            "original_name": "Triads",
            "popularity": 0.6
        },
        {
            "id": 104181,
            "original_name": "Walking Britain's Roman Roads",
            "popularity": 0.84
        },
        {
            "id": 104576,
            "original_name": "Anders Lund Madsen p\u00e5 Den Yderste \u00d8",
            "popularity": 0.6
        },
        {
            "id": 104577,
            "original_name": "Anders Lund Madsen i Den Yderste By",
            "popularity": 0.6
        },
        {
            "id": 105091,
            "original_name": "Britain's Lost Roman Roads",
            "popularity": 0.6
        },
        {
            "id": 105250,
            "original_name": "Alan Bennett's Talking Heads",
            "popularity": 0.958
        },
        {
            "id": 109314,
            "original_name": "De hemmelige optagelser med Peter Madsen",
            "popularity": 0.6
        },
        {
            "id": 109616,
            "original_name": "Sneakerheads",
            "popularity": 13.603
        },
        {
            "id": 109784,
            "original_name": "S\u00f8ren Kierkegaard Roadshow",
            "popularity": 1.34
        },
        {
            "id": 110117,
            "original_name": "The Bradshaw Bunch",
            "popularity": 17.975
        },
        {
            "id": 111846,
            "original_name": "Sledheads \u2013 et sn\u00f8skuterliv",
            "popularity": 0.6
        },
        {
            "id": 113230,
            "original_name": "The Motor Trend 500: NASCAR Heads West (2020)",
            "popularity": 0.6
        },
        {
            "id": 114419,
            "original_name": "Headspace Guide to Meditation",
            "popularity": 5.717
        },
        {
            "id": 114434,
            "original_name": "Peter Madsens flugt",
            "popularity": 0.6
        },
        {
            "id": 115537,
            "original_name": "Broadside",
            "popularity": 0.646
        },
        {
            "id": 117240,
            "original_name": "Great American Scenic Railroads",
            "popularity": 0.6
        },
        {
            "id": 117283,
            "original_name": "Railroads in U.S. History",
            "popularity": 0.6
        },
        {
            "id": 117369,
            "original_name": "The World's Greatest Railroads",
            "popularity": 0.6
        },
        {
            "id": 117371,
            "original_name": "Railroads: Tracks Across America",
            "popularity": 1.093
        },
        {
            "id": 117372,
            "original_name": "America's Railroads: The Steam Train Legacy",
            "popularity": 0.6
        },
        {
            "id": 118023,
            "original_name": "Roads End",
            "popularity": 0.6
        },
        {
            "id": 120971,
            "original_name": "Madson",
            "popularity": 1.4
        },
        {
            "id": 121479,
            "original_name": "Elvestads OL",
            "popularity": 0.6
        },
        {
            "id": 121628,
            "original_name": "Headspace Guide to Sleep",
            "popularity": 3.973
        },
        {
            "id": 125303,
            "original_name": "NRI Haadsa",
            "popularity": 0.641
        },
        {
            "id": 135171,
            "original_name": "Emili & Mads Emil",
            "popularity": 1.059
        },
        {
            "id": 136794,
            "original_name": "Spreadsheet",
            "popularity": 5.687
        },
        {
            "id": 137383,
            "original_name": "Bigheads",
            "popularity": 0.6
        }
    ],
    "relations": [
        {
            "character": "ads?"
        },
        {
            "character": "ads!"
        },
        {
            "character": "adsh"
        },
        {
            "character": "adsk"
        },
        {
            "character": "adsa"
        },
        {
            "character": "adst"
        },
        {
            "character": "adsi"
        },
        {
            "character": "adse"
        },
        {
            "character": "adsd"
        },
        {
            "character": "adsb"
        },
        {
            "character": "adsp"
        },
        {
            "character": "adso"
        }
    ],
    "top20": [
        {
            "id": 110117,
            "original_name": "The Bradshaw Bunch",
            "popularity": 17.975
        },
        {
            "id": 83949,
            "original_name": "Treadstone",
            "popularity": 16.673
        },
        {
            "id": 3753,
            "original_name": "Crossroads",
            "popularity": 14.16
        },
        {
            "id": 109616,
            "original_name": "Sneakerheads",
            "popularity": 13.603
        },
        {
            "id": 70823,
            "original_name": "Mickey and the Roadster Racers",
            "popularity": 13.447
        },
        {
            "id": 1862,
            "original_name": "My Two Dads",
            "popularity": 7.312
        },
        {
            "id": 46956,
            "original_name": "Dads",
            "popularity": 6.504
        },
        {
            "id": 42329,
            "original_name": "Bunheads",
            "popularity": 6.493
        },
        {
            "id": 21504,
            "original_name": "Crossroads",
            "popularity": 5.942
        },
        {
            "id": 114419,
            "original_name": "Headspace Guide to Meditation",
            "popularity": 5.717
        },
        {
            "id": 136794,
            "original_name": "Spreadsheet",
            "popularity": 5.687
        },
        {
            "id": 29029,
            "original_name": "Crossroads",
            "popularity": 4.406
        },
        {
            "id": 420,
            "original_name": "Whatever Happened to the Likely Lads?",
            "popularity": 4.156
        },
        {
            "id": 94267,
            "original_name": "Council of Dads",
            "popularity": 4.05
        },
        {
            "id": 2042,
            "original_name": "Antiques Roadshow",
            "popularity": 4.02
        },
        {
            "id": 121628,
            "original_name": "Headspace Guide to Sleep",
            "popularity": 3.973
        },
        {
            "id": 10698,
            "original_name": "CMT Crossroads",
            "popularity": 3.018
        },
        {
            "id": 3547,
            "original_name": "Undergrads",
            "popularity": 2.678
        },
        {
            "id": 5669,
            "original_name": "National Heads-Up Poker Championship",
            "popularity": 2.414
        },
        {
            "id": 91589,
            "original_name": "Ancient Roads from Christ to Constantine",
            "popularity": 2.385
        }
    ]
}