{
    "data": [
        {
            "id": 72717,
            "original_name": "Hannah Gadsby's OZ",
            "popularity": 0.845
        },
        {
            "id": 77605,
            "original_name": "Hannah Gadsby's Nakedy Nudes",
            "popularity": 0.945
        }
    ],
    "relations": [],
    "top20": [
        {
            "id": 72717,
            "original_name": "Hannah Gadsby's OZ",
            "popularity": 0.845
        },
        {
            "id": 77605,
            "original_name": "Hannah Gadsby's Nakedy Nudes",
            "popularity": 0.945
        }
    ]
}