{
    "data": [
        {
            "id": 52316,
            "original_name": "Bong Lae Sanaeha",
            "popularity": 0.6
        },
        {
            "id": 52537,
            "original_name": "SanaeHa Ngern Tra",
            "popularity": 0.6
        },
        {
            "id": 52980,
            "original_name": "Song Sanaeha",
            "popularity": 1.4
        },
        {
            "id": 56054,
            "original_name": "Sanaeha Sunya Kaen",
            "popularity": 0.904
        },
        {
            "id": 57922,
            "original_name": "Khaen Sanaeha",
            "popularity": 0.631
        },
        {
            "id": 77429,
            "original_name": "Bpoop Phaeh Saniwaat",
            "popularity": 2.861
        },
        {
            "id": 105461,
            "original_name": "Wiedaehan Gye Choon Bin",
            "popularity": 0.6
        },
        {
            "id": 137616,
            "original_name": "Soot Lay Sanaeha",
            "popularity": 2.571
        }
    ],
    "relations": [],
    "top20": [
        {
            "id": 52316,
            "original_name": "Bong Lae Sanaeha",
            "popularity": 0.6
        },
        {
            "id": 52537,
            "original_name": "SanaeHa Ngern Tra",
            "popularity": 0.6
        },
        {
            "id": 52980,
            "original_name": "Song Sanaeha",
            "popularity": 1.4
        },
        {
            "id": 56054,
            "original_name": "Sanaeha Sunya Kaen",
            "popularity": 0.904
        },
        {
            "id": 57922,
            "original_name": "Khaen Sanaeha",
            "popularity": 0.631
        },
        {
            "id": 77429,
            "original_name": "Bpoop Phaeh Saniwaat",
            "popularity": 2.861
        },
        {
            "id": 105461,
            "original_name": "Wiedaehan Gye Choon Bin",
            "popularity": 0.6
        },
        {
            "id": 137616,
            "original_name": "Soot Lay Sanaeha",
            "popularity": 2.571
        }
    ]
}