{
    "data": [
        {
            "id": 3619,
            "original_name": "Ki Fighter Taerang",
            "popularity": 0.6
        },
        {
            "id": 33482,
            "original_name": "Himnaera Him!",
            "popularity": 0.6
        },
        {
            "id": 52737,
            "original_name": "Al Haera",
            "popularity": 0.6
        },
        {
            "id": 53048,
            "original_name": "Al-Daaera",
            "popularity": 0.6
        },
        {
            "id": 55137,
            "original_name": "Ola ston aera",
            "popularity": 0.6
        }
    ],
    "relations": [],
    "top20": [
        {
            "id": 3619,
            "original_name": "Ki Fighter Taerang",
            "popularity": 0.6
        },
        {
            "id": 33482,
            "original_name": "Himnaera Him!",
            "popularity": 0.6
        },
        {
            "id": 52737,
            "original_name": "Al Haera",
            "popularity": 0.6
        },
        {
            "id": 53048,
            "original_name": "Al-Daaera",
            "popularity": 0.6
        },
        {
            "id": 55137,
            "original_name": "Ola ston aera",
            "popularity": 0.6
        }
    ]
}