{
    "data": [
        {
            "id": 25384,
            "original_name": "De Pfaffs",
            "popularity": 1.855
        },
        {
            "id": 115371,
            "original_name": "Pufpaffs Happy Hour",
            "popularity": 1.637
        }
    ],
    "relations": [],
    "top20": [
        {
            "id": 25384,
            "original_name": "De Pfaffs",
            "popularity": 1.855
        },
        {
            "id": 115371,
            "original_name": "Pufpaffs Happy Hour",
            "popularity": 1.637
        }
    ]
}