{
    "data": [
        {
            "id": 19544,
            "original_name": "Afro Samurai",
            "popularity": 17.916
        },
        {
            "id": 54921,
            "original_name": "Afroditi",
            "popularity": 0.6
        },
        {
            "id": 106752,
            "original_name": "Afronta!",
            "popularity": 0.6
        }
    ],
    "relations": [],
    "top20": [
        {
            "id": 19544,
            "original_name": "Afro Samurai",
            "popularity": 17.916
        },
        {
            "id": 54921,
            "original_name": "Afroditi",
            "popularity": 0.6
        },
        {
            "id": 106752,
            "original_name": "Afronta!",
            "popularity": 0.6
        }
    ]
}