{
    "data": [
        {
            "id": 97143,
            "original_name": "Aulaga. Senderos del Atl\u00e1ntico",
            "popularity": 0.622
        }
    ],
    "relations": [],
    "top20": [
        {
            "id": 97143,
            "original_name": "Aulaga. Senderos del Atl\u00e1ntico",
            "popularity": 0.622
        }
    ]
}