{
    "data": [
        {
            "id": 19966,
            "original_name": "Tagesthemen",
            "popularity": 0.6
        }
    ],
    "relations": [],
    "top20": [
        {
            "id": 19966,
            "original_name": "Tagesthemen",
            "popularity": 0.6
        }
    ]
}