{
    "data": [
        {
            "id": 30633,
            "original_name": "God kveld, Dagfinn",
            "popularity": 0.6
        }
    ],
    "relations": [],
    "top20": [
        {
            "id": 30633,
            "original_name": "God kveld, Dagfinn",
            "popularity": 0.6
        }
    ]
}