{
    "data": [
        {
            "id": 94245,
            "original_name": "Swagger",
            "popularity": 27.119
        },
        {
            "id": 66190,
            "original_name": "Marvel's Cloak & Dagger",
            "popularity": 25.191
        },
        {
            "id": 2428,
            "original_name": "Taggart",
            "popularity": 11.93
        },
        {
            "id": 2957,
            "original_name": "Fraggle Rock",
            "popularity": 11.899
        },
        {
            "id": 593,
            "original_name": "Shaggy & Scooby-Doo Get a Clue!",
            "popularity": 11.319
        },
        {
            "id": 42836,
            "original_name": "\u84bc\u7a79\u306e\u30d5\u30a1\u30d5\u30ca\u30fc Dead Aggressor",
            "popularity": 7.439
        },
        {
            "id": 104498,
            "original_name": "Guldbaggegalan",
            "popularity": 6.652
        },
        {
            "id": 138329,
            "original_name": "Anime Selvagge",
            "popularity": 6.301
        },
        {
            "id": 99462,
            "original_name": "Ruthless Aggression",
            "popularity": 6.076
        },
        {
            "id": 104002,
            "original_name": "Fraggle Rock: Back to the Rock",
            "popularity": 5.087
        },
        {
            "id": 21570,
            "original_name": "Maggie",
            "popularity": 3.462
        },
        {
            "id": 426,
            "original_name": "The Buzz on Maggie",
            "popularity": 3.17
        },
        {
            "id": 34665,
            "original_name": "Maggie Winters",
            "popularity": 2.841
        },
        {
            "id": 96900,
            "original_name": "Indefra - med Anders Agger",
            "popularity": 2.592
        },
        {
            "id": 14574,
            "original_name": "The Raggy Dolls",
            "popularity": 2.476
        },
        {
            "id": 32637,
            "original_name": "Baggage",
            "popularity": 2.465
        },
        {
            "id": 2844,
            "original_name": "Fraggle Rock: The Animated Series",
            "popularity": 2.416
        },
        {
            "id": 35249,
            "original_name": "The Staggering Stories of Ferdinand de Bargos",
            "popularity": 2.378
        },
        {
            "id": 2659,
            "original_name": "Maggie and the Ferocious Beast",
            "popularity": 2.216
        },
        {
            "id": 73379,
            "original_name": "Maggie & Bianca Fashion Friends",
            "popularity": 2.208
        },
        {
            "id": 102318,
            "original_name": "Fraggle Rock: Rock On!",
            "popularity": 2.12
        },
        {
            "id": 30634,
            "original_name": "The Adventures of Raggedy Ann and Andy",
            "popularity": 1.96
        },
        {
            "id": 11975,
            "original_name": "The Sandbaggers",
            "popularity": 1.852
        },
        {
            "id": 35736,
            "original_name": "Peter R. de Vries misdaadverslaggever",
            "popularity": 1.694
        },
        {
            "id": 171397,
            "original_name": "Only Slightly Exaggerated",
            "popularity": 1.4
        },
        {
            "id": 127162,
            "original_name": "Maggie",
            "popularity": 1.18
        },
        {
            "id": 8553,
            "original_name": "Baggy Pants and the Nitwits",
            "popularity": 1.09
        },
        {
            "id": 27224,
            "original_name": "Maggie And Her",
            "popularity": 1.09
        },
        {
            "id": 100084,
            "original_name": "The Trouble with Maggie Cole",
            "popularity": 1.064
        },
        {
            "id": 26449,
            "original_name": "Maggie",
            "popularity": 0.938
        },
        {
            "id": 28700,
            "original_name": "Maggie Briggs",
            "popularity": 0.931
        },
        {
            "id": 11885,
            "original_name": "Haggard",
            "popularity": 0.84
        },
        {
            "id": 117198,
            "original_name": "Mission Frontline with Rana Daggubati",
            "popularity": 0.84
        },
        {
            "id": 439,
            "original_name": "Maggi & Me",
            "popularity": 0.804
        },
        {
            "id": 55365,
            "original_name": "Baggage Battles",
            "popularity": 0.72
        },
        {
            "id": 75932,
            "original_name": "Dagger Kiss",
            "popularity": 0.718
        },
        {
            "id": 9469,
            "original_name": "Maggie",
            "popularity": 0.709
        },
        {
            "id": 24854,
            "original_name": "HPW Aggression",
            "popularity": 0.654
        },
        {
            "id": 45299,
            "original_name": "Excess Baggage",
            "popularity": 0.631
        },
        {
            "id": 4444,
            "original_name": "The Adventures of Aggie",
            "popularity": 0.6
        },
        {
            "id": 6496,
            "original_name": "Haggis Baggis",
            "popularity": 0.6
        },
        {
            "id": 7297,
            "original_name": "Scallywagga",
            "popularity": 0.6
        },
        {
            "id": 8235,
            "original_name": "Raggedy Ann and Andy in The Great Santa Claus Caper",
            "popularity": 0.6
        },
        {
            "id": 10195,
            "original_name": "Diggs Tailwagger",
            "popularity": 0.6
        },
        {
            "id": 15029,
            "original_name": "Maggie Muggins",
            "popularity": 0.6
        },
        {
            "id": 17748,
            "original_name": "Maggie: It's Me",
            "popularity": 0.6
        },
        {
            "id": 19167,
            "original_name": "The Stagg Party",
            "popularity": 0.6
        },
        {
            "id": 19452,
            "original_name": "Scragg 'n' Bones",
            "popularity": 0.6
        },
        {
            "id": 21052,
            "original_name": "Shaggy Dog Story",
            "popularity": 0.6
        },
        {
            "id": 22953,
            "original_name": "Melvyn Bragg's Travels In Written Britain",
            "popularity": 0.6
        },
        {
            "id": 23454,
            "original_name": "Maggie Hill",
            "popularity": 0.6
        },
        {
            "id": 29158,
            "original_name": "No Cloak - No Dagger",
            "popularity": 0.6
        },
        {
            "id": 29269,
            "original_name": "Shark Taggers",
            "popularity": 0.6
        },
        {
            "id": 29815,
            "original_name": "Maggie... At Home With",
            "popularity": 0.6
        },
        {
            "id": 30025,
            "original_name": "Maggie (AU)",
            "popularity": 0.6
        },
        {
            "id": 32594,
            "original_name": "Raggedy Ann and Andy in The Pumpkin Who Couldn't Smile",
            "popularity": 0.6
        },
        {
            "id": 36479,
            "original_name": "Tea and Biscuits with Maggie Pritchard",
            "popularity": 0.6
        },
        {
            "id": 37921,
            "original_name": "Ronny och Ragge",
            "popularity": 0.6
        },
        {
            "id": 41999,
            "original_name": "The Return of the Shaggy Dog",
            "popularity": 0.6
        },
        {
            "id": 44366,
            "original_name": "Maggie and the Ferocious Beast: Puzzles and Picnics",
            "popularity": 0.6
        },
        {
            "id": 44732,
            "original_name": "Melvyn Bragg on Class and Culture",
            "popularity": 0.6
        },
        {
            "id": 49079,
            "original_name": "D\u00fcnya Fraggle",
            "popularity": 0.6
        },
        {
            "id": 53451,
            "original_name": "G\u00e4st hos Hagge",
            "popularity": 0.6
        },
        {
            "id": 54833,
            "original_name": "El- Faggala",
            "popularity": 0.6
        },
        {
            "id": 54893,
            "original_name": "Goodbye, Raggedy Ann",
            "popularity": 0.6
        },
        {
            "id": 56113,
            "original_name": "Rafat Al-Haggan",
            "popularity": 0.6
        },
        {
            "id": 59170,
            "original_name": "Maggie",
            "popularity": 0.6
        },
        {
            "id": 59689,
            "original_name": "Maggie and Her",
            "popularity": 0.6
        },
        {
            "id": 66846,
            "original_name": "Viaggio nel Cosmo",
            "popularity": 0.6
        },
        {
            "id": 73092,
            "original_name": "In viaggio con Darwin",
            "popularity": 0.6
        },
        {
            "id": 118563,
            "original_name": "Pupetta - Il Coraggio e la passione",
            "popularity": 0.6
        },
        {
            "id": 122330,
            "original_name": "Viaggio nella valle del Po",
            "popularity": 0.6
        },
        {
            "id": 123969,
            "original_name": "io che sar\u00f2 roberto baggio",
            "popularity": 0.6
        },
        {
            "id": 125535,
            "original_name": "Argo, un viaggio nella storia",
            "popularity": 0.6
        },
        {
            "id": 128680,
            "original_name": "Aggressiv Amager",
            "popularity": 0.6
        },
        {
            "id": 129315,
            "original_name": "Per un viaggio in Italia",
            "popularity": 0.6
        },
        {
            "id": 131995,
            "original_name": "Viaggi al rallentatore",
            "popularity": 0.6
        },
        {
            "id": 138162,
            "original_name": "Le\u00e3o da Montanha (Snagglepuss)",
            "popularity": 0.6
        }
    ],
    "relations": [
        {
            "character": "aggi"
        },
        {
            "character": "aggy"
        },
        {
            "character": "agga"
        },
        {
            "character": "aggl"
        },
        {
            "character": "agge"
        },
        {
            "character": "aggr"
        },
        {
            "character": "aggu"
        }
    ],
    "top20": [
        {
            "id": 94245,
            "original_name": "Swagger",
            "popularity": 27.119
        },
        {
            "id": 66190,
            "original_name": "Marvel's Cloak & Dagger",
            "popularity": 25.191
        },
        {
            "id": 2428,
            "original_name": "Taggart",
            "popularity": 11.93
        },
        {
            "id": 2957,
            "original_name": "Fraggle Rock",
            "popularity": 11.899
        },
        {
            "id": 593,
            "original_name": "Shaggy & Scooby-Doo Get a Clue!",
            "popularity": 11.319
        },
        {
            "id": 42836,
            "original_name": "\u84bc\u7a79\u306e\u30d5\u30a1\u30d5\u30ca\u30fc Dead Aggressor",
            "popularity": 7.439
        },
        {
            "id": 104498,
            "original_name": "Guldbaggegalan",
            "popularity": 6.652
        },
        {
            "id": 138329,
            "original_name": "Anime Selvagge",
            "popularity": 6.301
        },
        {
            "id": 99462,
            "original_name": "Ruthless Aggression",
            "popularity": 6.076
        },
        {
            "id": 104002,
            "original_name": "Fraggle Rock: Back to the Rock",
            "popularity": 5.087
        },
        {
            "id": 21570,
            "original_name": "Maggie",
            "popularity": 3.462
        },
        {
            "id": 426,
            "original_name": "The Buzz on Maggie",
            "popularity": 3.17
        },
        {
            "id": 34665,
            "original_name": "Maggie Winters",
            "popularity": 2.841
        },
        {
            "id": 96900,
            "original_name": "Indefra - med Anders Agger",
            "popularity": 2.592
        },
        {
            "id": 14574,
            "original_name": "The Raggy Dolls",
            "popularity": 2.476
        },
        {
            "id": 32637,
            "original_name": "Baggage",
            "popularity": 2.465
        },
        {
            "id": 2844,
            "original_name": "Fraggle Rock: The Animated Series",
            "popularity": 2.416
        },
        {
            "id": 35249,
            "original_name": "The Staggering Stories of Ferdinand de Bargos",
            "popularity": 2.378
        },
        {
            "id": 2659,
            "original_name": "Maggie and the Ferocious Beast",
            "popularity": 2.216
        },
        {
            "id": 73379,
            "original_name": "Maggie & Bianca Fashion Friends",
            "popularity": 2.208
        }
    ]
}