{
    "data": [
        {
            "id": 14371,
            "original_name": "Agneepath",
            "popularity": 0.6
        }
    ],
    "relations": [],
    "top20": [
        {
            "id": 14371,
            "original_name": "Agneepath",
            "popularity": 0.6
        }
    ]
}