{
    "data": [
        {
            "id": 71302,
            "original_name": "Gidseltagningen",
            "popularity": 6.844
        }
    ],
    "relations": [],
    "top20": [
        {
            "id": 71302,
            "original_name": "Gidseltagningen",
            "popularity": 6.844
        }
    ]
}