{
    "data": [
        {
            "id": 858,
            "original_name": "Sahara with Michael Palin",
            "popularity": 1.655
        },
        {
            "id": 3526,
            "original_name": "Batang Kaharian",
            "popularity": 0.6
        },
        {
            "id": 8038,
            "original_name": "Aati Rahengi Baharein",
            "popularity": 0.84
        },
        {
            "id": 20758,
            "original_name": "Baharan Punjab Diyan",
            "popularity": 0.6
        },
        {
            "id": 35931,
            "original_name": "The Secret of the Sahara",
            "popularity": 6.078
        },
        {
            "id": 44761,
            "original_name": "\u0130kinci Bahar",
            "popularity": 2.949
        },
        {
            "id": 49539,
            "original_name": "Bahar Dallar\u0131",
            "popularity": 0.6
        },
        {
            "id": 49592,
            "original_name": "Gecmis bahar mimozalari",
            "popularity": 0.6
        },
        {
            "id": 49809,
            "original_name": "Son Bahar",
            "popularity": 0.6
        },
        {
            "id": 50156,
            "original_name": "El-marsa W El-bahar",
            "popularity": 0.6
        },
        {
            "id": 50218,
            "original_name": "Matahariku",
            "popularity": 0.6
        },
        {
            "id": 54161,
            "original_name": "Helm El-Leil w El-Nahar",
            "popularity": 0.6
        },
        {
            "id": 54190,
            "original_name": "3 Sam Taharn Suea Sao Series",
            "popularity": 0.605
        },
        {
            "id": 54278,
            "original_name": "Parkta Bir Sonbahar G\u00fcn\u00fcyd\u00fc",
            "popularity": 0.6
        },
        {
            "id": 54738,
            "original_name": "Zay El Naharda",
            "popularity": 0.6
        },
        {
            "id": 55143,
            "original_name": "Al Raks Ala Salalem Motahareka",
            "popularity": 0.6
        },
        {
            "id": 56397,
            "original_name": "Sahara: La Caravane du Sel",
            "popularity": 1.34
        },
        {
            "id": 56453,
            "original_name": "Sawt al Sahary",
            "popularity": 0.6
        },
        {
            "id": 60118,
            "original_name": "Bharat Ka Veer Putra \u2013 Maharana Pratap",
            "popularity": 0.62
        },
        {
            "id": 60230,
            "original_name": "Bravo Company: Kandahar",
            "popularity": 0.6
        },
        {
            "id": 69749,
            "original_name": "J'irai dormir chez les Maharadjahs",
            "popularity": 1.381
        },
        {
            "id": 71462,
            "original_name": "Maharaja Lawak Mega",
            "popularity": 5.606
        },
        {
            "id": 75647,
            "original_name": "The Maharaja's Daughter",
            "popularity": 4.425
        },
        {
            "id": 77045,
            "original_name": "A Kalahari Family",
            "popularity": 0.6
        },
        {
            "id": 81919,
            "original_name": "Kaif-e-Baharan",
            "popularity": 0.6
        },
        {
            "id": 85173,
            "original_name": "Sahara",
            "popularity": 0.6
        },
        {
            "id": 92188,
            "original_name": "Kalahari Gemsen",
            "popularity": 0.6
        },
        {
            "id": 96663,
            "original_name": "Bahar\u0131 Beklerken",
            "popularity": 2.941
        },
        {
            "id": 100170,
            "original_name": "Kalahari - Afrikas paradiesische W\u00fcste",
            "popularity": 0.6
        },
        {
            "id": 101226,
            "original_name": "Maharaj Ki Jai Ho",
            "popularity": 0.6
        },
        {
            "id": 112562,
            "original_name": "Zahara: The Return",
            "popularity": 0.62
        },
        {
            "id": 116940,
            "original_name": "Maharal \u2013 Tajemstv\u00ed talismanu",
            "popularity": 1.57
        },
        {
            "id": 120042,
            "original_name": "Night Drive with Lahari",
            "popularity": 0.6
        },
        {
            "id": 126098,
            "original_name": "Maharani",
            "popularity": 0.84
        },
        {
            "id": 128126,
            "original_name": "Saharey",
            "popularity": 0.6
        },
        {
            "id": 134143,
            "original_name": "Aharei Hatzot - Hasod Hachi Shamor Bair",
            "popularity": 0.6
        }
    ],
    "relations": [
        {
            "character": "ahara"
        },
        {
            "character": "ahari"
        },
        {
            "character": "ahare"
        },
        {
            "character": "aharn"
        },
        {
            "character": "ahard"
        },
        {
            "character": "ahary"
        }
    ],
    "top20": [
        {
            "id": 35931,
            "original_name": "The Secret of the Sahara",
            "popularity": 6.078
        },
        {
            "id": 71462,
            "original_name": "Maharaja Lawak Mega",
            "popularity": 5.606
        },
        {
            "id": 75647,
            "original_name": "The Maharaja's Daughter",
            "popularity": 4.425
        },
        {
            "id": 44761,
            "original_name": "\u0130kinci Bahar",
            "popularity": 2.949
        },
        {
            "id": 96663,
            "original_name": "Bahar\u0131 Beklerken",
            "popularity": 2.941
        },
        {
            "id": 858,
            "original_name": "Sahara with Michael Palin",
            "popularity": 1.655
        },
        {
            "id": 116940,
            "original_name": "Maharal \u2013 Tajemstv\u00ed talismanu",
            "popularity": 1.57
        },
        {
            "id": 69749,
            "original_name": "J'irai dormir chez les Maharadjahs",
            "popularity": 1.381
        },
        {
            "id": 56397,
            "original_name": "Sahara: La Caravane du Sel",
            "popularity": 1.34
        },
        {
            "id": 126098,
            "original_name": "Maharani",
            "popularity": 0.84
        },
        {
            "id": 8038,
            "original_name": "Aati Rahengi Baharein",
            "popularity": 0.84
        },
        {
            "id": 60118,
            "original_name": "Bharat Ka Veer Putra \u2013 Maharana Pratap",
            "popularity": 0.62
        },
        {
            "id": 112562,
            "original_name": "Zahara: The Return",
            "popularity": 0.62
        },
        {
            "id": 54190,
            "original_name": "3 Sam Taharn Suea Sao Series",
            "popularity": 0.605
        },
        {
            "id": 49539,
            "original_name": "Bahar Dallar\u0131",
            "popularity": 0.6
        },
        {
            "id": 3526,
            "original_name": "Batang Kaharian",
            "popularity": 0.6
        },
        {
            "id": 49809,
            "original_name": "Son Bahar",
            "popularity": 0.6
        },
        {
            "id": 50156,
            "original_name": "El-marsa W El-bahar",
            "popularity": 0.6
        },
        {
            "id": 20758,
            "original_name": "Baharan Punjab Diyan",
            "popularity": 0.6
        },
        {
            "id": 49592,
            "original_name": "Gecmis bahar mimozalari",
            "popularity": 0.6
        }
    ]
}