{
    "data": [
        {
            "id": 1338,
            "original_name": "Alarm f\u00fcr Cobra 11 \u2013 Die Autobahnpolizei",
            "popularity": 67.424
        }
    ],
    "relations": [],
    "top20": [
        {
            "id": 1338,
            "original_name": "Alarm f\u00fcr Cobra 11 \u2013 Die Autobahnpolizei",
            "popularity": 67.424
        }
    ]
}