{
    "data": [
        {
            "id": 129209,
            "original_name": "Mahrem",
            "popularity": 0.84
        }
    ],
    "relations": [],
    "top20": [
        {
            "id": 129209,
            "original_name": "Mahrem",
            "popularity": 0.84
        }
    ]
}