{
    "data": [
        {
            "id": 39942,
            "original_name": "100 Jahre - Der Countdown",
            "popularity": 0.841
        },
        {
            "id": 40656,
            "original_name": "Die Fernfahrer",
            "popularity": 1.259
        },
        {
            "id": 40894,
            "original_name": "Meine sch\u00f6nsten Jahre",
            "popularity": 1.4
        },
        {
            "id": 40963,
            "original_name": "2000 Jahre Christentum",
            "popularity": 0.992
        },
        {
            "id": 41062,
            "original_name": "Unsere sch\u00f6nsten Jahre",
            "popularity": 2.881
        },
        {
            "id": 41490,
            "original_name": "\u00d6sterreichs schlechtester Autofahrer",
            "popularity": 0.6
        },
        {
            "id": 41654,
            "original_name": "Weltber\u00fchmt in \u00d6sterreich \u2013 50 Jahre Austropop",
            "popularity": 0.6
        },
        {
            "id": 46810,
            "original_name": "Dittsche - Das wirklich wahre Leben",
            "popularity": 4.926
        },
        {
            "id": 55415,
            "original_name": "Album - Bilder eines Jahres",
            "popularity": 2.108
        },
        {
            "id": 61074,
            "original_name": "Die f\u00fcnfte Jahreszeit",
            "popularity": 0.969
        },
        {
            "id": 63872,
            "original_name": "Wanderjahre",
            "popularity": 2.32
        },
        {
            "id": 67472,
            "original_name": "60 x Deutschland - Die Jahresschau",
            "popularity": 2.265
        },
        {
            "id": 70567,
            "original_name": "Alle Jahre wieder",
            "popularity": 0.6
        },
        {
            "id": 74209,
            "original_name": "Zarah: Wilde Jahre",
            "popularity": 1.732
        },
        {
            "id": 74229,
            "original_name": "Schicksalsjahre",
            "popularity": 0.6
        },
        {
            "id": 77431,
            "original_name": "Das Ding des Jahres",
            "popularity": 0.643
        },
        {
            "id": 77550,
            "original_name": "Love Island - Hei\u00dfe Flirts & wahre Liebe",
            "popularity": 1.687
        },
        {
            "id": 78336,
            "original_name": "Berlin mit der S-Bahn erfahren",
            "popularity": 0.6
        },
        {
            "id": 80244,
            "original_name": "J\u00f6rn Drescher - 19 Jahre",
            "popularity": 0.876
        },
        {
            "id": 81263,
            "original_name": "Das bin ich - Wiener Schicksale aus den 30er Jahren: \u00d6sterreich zwischen Demokratie und Diktatur",
            "popularity": 0.6
        },
        {
            "id": 81286,
            "original_name": "Mit 80 Jahren um die Welt",
            "popularity": 0.6
        },
        {
            "id": 81319,
            "original_name": "100 Deutsche Jahre",
            "popularity": 0.6
        },
        {
            "id": 82124,
            "original_name": "Hundert Jahre Deutschland",
            "popularity": 0.6
        },
        {
            "id": 82309,
            "original_name": "Johannes -  Eine Familiengeschichte vor hundert Jahren",
            "popularity": 0.84
        },
        {
            "id": 85221,
            "original_name": "30 Jahre Techno in Berlin",
            "popularity": 0.6
        },
        {
            "id": 85619,
            "original_name": "Berlin - Schicksalsjahre einer Stadt",
            "popularity": 2.576
        },
        {
            "id": 91435,
            "original_name": "20 Jahre maschek",
            "popularity": 0.6
        },
        {
            "id": 93298,
            "original_name": "Oscar, der Ballonfahrer",
            "popularity": 0.6
        },
        {
            "id": 94246,
            "original_name": "12 Jahre, 3 Monate, 9 Tage - Die Jahreschronik des Dritten Reichs",
            "popularity": 0.6
        },
        {
            "id": 96776,
            "original_name": "Dynastie Knie - 100 Jahre Nationalcircus",
            "popularity": 0.6
        },
        {
            "id": 99183,
            "original_name": "Planet Deutschland - 300 Millionen Jahre",
            "popularity": 0.6
        },
        {
            "id": 99332,
            "original_name": "Seefahrer des Orients",
            "popularity": 0.6
        },
        {
            "id": 99856,
            "original_name": "Der gro\u00dfe Anfang: 500 Jahre Reformation",
            "popularity": 0.85
        },
        {
            "id": 100622,
            "original_name": "Unsere wunderbaren Jahre",
            "popularity": 3.273
        },
        {
            "id": 106561,
            "original_name": "Die englische Musikszene der 60er Jahre",
            "popularity": 0.6
        },
        {
            "id": 111764,
            "original_name": "Aus dem Tagebuch eines Uber Fahrers",
            "popularity": 1.169
        },
        {
            "id": 115635,
            "original_name": "Alle Jahre wieder \u2013 Die Familie Semmeling",
            "popularity": 0.6
        },
        {
            "id": 118818,
            "original_name": "Die 80er Jahre Show",
            "popularity": 1.742
        },
        {
            "id": 120519,
            "original_name": "Vorfahren gesucht",
            "popularity": 0.858
        },
        {
            "id": 121661,
            "original_name": "Haus des Jahres: Deutschland",
            "popularity": 0.6
        },
        {
            "id": 125864,
            "original_name": "50 Jahre \u201eDalli Dalli\u201c Die gro\u00dfe Jubil\u00e4umsshow",
            "popularity": 0.6
        },
        {
            "id": 127572,
            "original_name": "Im Bann der Jahreszeiten",
            "popularity": 0.6
        },
        {
            "id": 129209,
            "original_name": "Mahrem",
            "popularity": 0.84
        },
        {
            "id": 131130,
            "original_name": "Beutolom\u00e4us und der wahre Weihnachtsmann",
            "popularity": 0.6
        },
        {
            "id": 132884,
            "original_name": "100 Jahre Polizei",
            "popularity": 0.6
        },
        {
            "id": 133127,
            "original_name": "Detlef wird Rennfahrer",
            "popularity": 0.6
        },
        {
            "id": 133352,
            "original_name": "Die Jahreschronik des Dritten Reichs",
            "popularity": 0.6
        },
        {
            "id": 135874,
            "original_name": "Einfach abgefahren",
            "popularity": 0.6
        },
        {
            "id": 137972,
            "original_name": "Telekurs f\u00fcr Autofahrer",
            "popularity": 0.6
        }
    ],
    "relations": [
        {
            "character": "ahrer"
        },
        {
            "character": "ahres"
        },
        {
            "character": "ahren"
        },
        {
            "character": "ahrem"
        }
    ],
    "top20": [
        {
            "id": 46810,
            "original_name": "Dittsche - Das wirklich wahre Leben",
            "popularity": 4.926
        },
        {
            "id": 100622,
            "original_name": "Unsere wunderbaren Jahre",
            "popularity": 3.273
        },
        {
            "id": 41062,
            "original_name": "Unsere sch\u00f6nsten Jahre",
            "popularity": 2.881
        },
        {
            "id": 85619,
            "original_name": "Berlin - Schicksalsjahre einer Stadt",
            "popularity": 2.576
        },
        {
            "id": 63872,
            "original_name": "Wanderjahre",
            "popularity": 2.32
        },
        {
            "id": 67472,
            "original_name": "60 x Deutschland - Die Jahresschau",
            "popularity": 2.265
        },
        {
            "id": 55415,
            "original_name": "Album - Bilder eines Jahres",
            "popularity": 2.108
        },
        {
            "id": 118818,
            "original_name": "Die 80er Jahre Show",
            "popularity": 1.742
        },
        {
            "id": 74209,
            "original_name": "Zarah: Wilde Jahre",
            "popularity": 1.732
        },
        {
            "id": 77550,
            "original_name": "Love Island - Hei\u00dfe Flirts & wahre Liebe",
            "popularity": 1.687
        },
        {
            "id": 40894,
            "original_name": "Meine sch\u00f6nsten Jahre",
            "popularity": 1.4
        },
        {
            "id": 40656,
            "original_name": "Die Fernfahrer",
            "popularity": 1.259
        },
        {
            "id": 111764,
            "original_name": "Aus dem Tagebuch eines Uber Fahrers",
            "popularity": 1.169
        },
        {
            "id": 40963,
            "original_name": "2000 Jahre Christentum",
            "popularity": 0.992
        },
        {
            "id": 61074,
            "original_name": "Die f\u00fcnfte Jahreszeit",
            "popularity": 0.969
        },
        {
            "id": 80244,
            "original_name": "J\u00f6rn Drescher - 19 Jahre",
            "popularity": 0.876
        },
        {
            "id": 120519,
            "original_name": "Vorfahren gesucht",
            "popularity": 0.858
        },
        {
            "id": 99856,
            "original_name": "Der gro\u00dfe Anfang: 500 Jahre Reformation",
            "popularity": 0.85
        },
        {
            "id": 39942,
            "original_name": "100 Jahre - Der Countdown",
            "popularity": 0.841
        },
        {
            "id": 82309,
            "original_name": "Johannes -  Eine Familiengeschichte vor hundert Jahren",
            "popularity": 0.84
        }
    ]
}