{
    "data": [
        {
            "id": 50397,
            "original_name": "Kakak Iparku 17 Tahun",
            "popularity": 0.6
        },
        {
            "id": 118802,
            "original_name": "7 Hari Sebelum 17 Tahun",
            "popularity": 0.84
        }
    ],
    "relations": [],
    "top20": [
        {
            "id": 50397,
            "original_name": "Kakak Iparku 17 Tahun",
            "popularity": 0.6
        },
        {
            "id": 118802,
            "original_name": "7 Hari Sebelum 17 Tahun",
            "popularity": 0.84
        }
    ]
}