{
    "data": [
        {
            "id": 9598,
            "original_name": "\u9b54\u6cd5\u4f7f\u3044Tai!",
            "popularity": 0.902
        },
        {
            "id": 21274,
            "original_name": "Onegai! Samia-don",
            "popularity": 1.4
        },
        {
            "id": 27361,
            "original_name": "Tsubasa wo Kudasai!",
            "popularity": 1.091
        },
        {
            "id": 40706,
            "original_name": "Nantatte 18 sai!",
            "popularity": 0.6
        },
        {
            "id": 41624,
            "original_name": "Ts\u016bkai! OL D\u014dri",
            "popularity": 0.6
        },
        {
            "id": 45877,
            "original_name": "Onegai! Ranking",
            "popularity": 0.6
        },
        {
            "id": 45905,
            "original_name": "Ts\u00fbkai! Big Daddy",
            "popularity": 0.6
        },
        {
            "id": 124072,
            "original_name": "Stardom on Samurai! TV",
            "popularity": 0.662
        },
        {
            "id": 124634,
            "original_name": "Ice Ribbon on Samurai! TV",
            "popularity": 0.6
        },
        {
            "id": 137643,
            "original_name": "\u30a4\u30ed\u30c9\u30ea\u30df\u30c9\u30ea: Change Our MIRAI!",
            "popularity": 1.133
        }
    ],
    "relations": [],
    "top20": [
        {
            "id": 9598,
            "original_name": "\u9b54\u6cd5\u4f7f\u3044Tai!",
            "popularity": 0.902
        },
        {
            "id": 21274,
            "original_name": "Onegai! Samia-don",
            "popularity": 1.4
        },
        {
            "id": 27361,
            "original_name": "Tsubasa wo Kudasai!",
            "popularity": 1.091
        },
        {
            "id": 40706,
            "original_name": "Nantatte 18 sai!",
            "popularity": 0.6
        },
        {
            "id": 41624,
            "original_name": "Ts\u016bkai! OL D\u014dri",
            "popularity": 0.6
        },
        {
            "id": 45877,
            "original_name": "Onegai! Ranking",
            "popularity": 0.6
        },
        {
            "id": 45905,
            "original_name": "Ts\u00fbkai! Big Daddy",
            "popularity": 0.6
        },
        {
            "id": 124072,
            "original_name": "Stardom on Samurai! TV",
            "popularity": 0.662
        },
        {
            "id": 124634,
            "original_name": "Ice Ribbon on Samurai! TV",
            "popularity": 0.6
        },
        {
            "id": 137643,
            "original_name": "\u30a4\u30ed\u30c9\u30ea\u30df\u30c9\u30ea: Change Our MIRAI!",
            "popularity": 1.133
        }
    ]
}