{
    "data": [
        {
            "id": 63275,
            "original_name": "Was It Something I Said?",
            "popularity": 2.436
        }
    ],
    "relations": [],
    "top20": [
        {
            "id": 63275,
            "original_name": "Was It Something I Said?",
            "popularity": 2.436
        }
    ]
}