{
    "data": [
        {
            "id": 59787,
            "original_name": "Claimed and Shamed",
            "popularity": 9.258
        },
        {
            "id": 97469,
            "original_name": "Reclaimed",
            "popularity": 0.867
        }
    ],
    "relations": [],
    "top20": [
        {
            "id": 59787,
            "original_name": "Claimed and Shamed",
            "popularity": 9.258
        },
        {
            "id": 97469,
            "original_name": "Reclaimed",
            "popularity": 0.867
        }
    ]
}