{
    "data": [
        {
            "id": 492,
            "original_name": "Upstairs, Downstairs",
            "popularity": 12.689
        },
        {
            "id": 1545,
            "original_name": "Affairs of the Heart",
            "popularity": 0.895
        },
        {
            "id": 2965,
            "original_name": "Today's Affairs",
            "popularity": 0.6
        },
        {
            "id": 3091,
            "original_name": "Family Affairs",
            "popularity": 16.087
        },
        {
            "id": 4930,
            "original_name": "Backstairs at the White House",
            "popularity": 3.268
        },
        {
            "id": 7852,
            "original_name": "Hairspray: The School Musical",
            "popularity": 1.209
        },
        {
            "id": 11953,
            "original_name": "Musical Chairs",
            "popularity": 0.6
        },
        {
            "id": 12205,
            "original_name": "ABC News and Current Affairs",
            "popularity": 0.6
        },
        {
            "id": 15010,
            "original_name": "Musical Chairs",
            "popularity": 0.6
        },
        {
            "id": 15605,
            "original_name": "Lotto Weekend Miljonairs",
            "popularity": 0.6
        },
        {
            "id": 19114,
            "original_name": "Personal Affairs",
            "popularity": 1.523
        },
        {
            "id": 25804,
            "original_name": "Family Affairs",
            "popularity": 0.916
        },
        {
            "id": 27044,
            "original_name": "Mark & Lard's Pop Upstairs Downstairs",
            "popularity": 0.6
        },
        {
            "id": 28830,
            "original_name": "Foreign Affairs",
            "popularity": 0.6
        },
        {
            "id": 29518,
            "original_name": "Foreign Affairs",
            "popularity": 0.6
        },
        {
            "id": 30297,
            "original_name": "Men Of Affairs",
            "popularity": 0.92
        },
        {
            "id": 31631,
            "original_name": "Covert Affairs",
            "popularity": 24.847
        },
        {
            "id": 35565,
            "original_name": "Home Affairs",
            "popularity": 0.6
        },
        {
            "id": 35718,
            "original_name": "The Airships",
            "popularity": 0.6
        },
        {
            "id": 38322,
            "original_name": "Royal Upstairs Downstairs",
            "popularity": 0.677
        },
        {
            "id": 46609,
            "original_name": "Upstairs Downstairs",
            "popularity": 5.741
        },
        {
            "id": 47044,
            "original_name": "Deadly Affairs",
            "popularity": 0.934
        },
        {
            "id": 51694,
            "original_name": "Upstairs Downstairs Bears",
            "popularity": 0.6
        },
        {
            "id": 55500,
            "original_name": "Servants: The True Story of Life Below Stairs",
            "popularity": 0.6
        },
        {
            "id": 59740,
            "original_name": "Family Affairs",
            "popularity": 0.6
        },
        {
            "id": 60889,
            "original_name": "State of Affairs",
            "popularity": 1.435
        },
        {
            "id": 62718,
            "original_name": "Upstairs",
            "popularity": 0.6
        },
        {
            "id": 65504,
            "original_name": "Airshow",
            "popularity": 0.6
        },
        {
            "id": 67736,
            "original_name": "La vengeance aux yeux clairs",
            "popularity": 1.968
        },
        {
            "id": 78878,
            "original_name": "Murderous Affairs",
            "popularity": 1.03
        },
        {
            "id": 91935,
            "original_name": "Comic Relief: Uptown Downstairs Abbey",
            "popularity": 0.6
        },
        {
            "id": 96867,
            "original_name": "Downstairs",
            "popularity": 0.6
        },
        {
            "id": 100841,
            "original_name": "Airshow Extreme",
            "popularity": 0.6
        },
        {
            "id": 105074,
            "original_name": "Love and Affairs",
            "popularity": 0.84
        },
        {
            "id": 115169,
            "original_name": "Les grands airs de Tebaldo",
            "popularity": 1.4
        },
        {
            "id": 117147,
            "original_name": "Airs de France",
            "popularity": 0.6
        },
        {
            "id": 119159,
            "original_name": "Australian International Airshow",
            "popularity": 0.6
        },
        {
            "id": 129538,
            "original_name": "Au pairs",
            "popularity": 0.9
        },
        {
            "id": 135101,
            "original_name": "Impossible Repairs",
            "popularity": 0.6
        },
        {
            "id": 152547,
            "original_name": "Deadly Affairs: Betrayed by Love",
            "popularity": 1.4
        }
    ],
    "relations": [
        {
            "character": "airsp"
        },
        {
            "character": "airsh"
        }
    ],
    "top20": [
        {
            "id": 31631,
            "original_name": "Covert Affairs",
            "popularity": 24.847
        },
        {
            "id": 3091,
            "original_name": "Family Affairs",
            "popularity": 16.087
        },
        {
            "id": 492,
            "original_name": "Upstairs, Downstairs",
            "popularity": 12.689
        },
        {
            "id": 46609,
            "original_name": "Upstairs Downstairs",
            "popularity": 5.741
        },
        {
            "id": 4930,
            "original_name": "Backstairs at the White House",
            "popularity": 3.268
        },
        {
            "id": 67736,
            "original_name": "La vengeance aux yeux clairs",
            "popularity": 1.968
        },
        {
            "id": 19114,
            "original_name": "Personal Affairs",
            "popularity": 1.523
        },
        {
            "id": 60889,
            "original_name": "State of Affairs",
            "popularity": 1.435
        },
        {
            "id": 115169,
            "original_name": "Les grands airs de Tebaldo",
            "popularity": 1.4
        },
        {
            "id": 152547,
            "original_name": "Deadly Affairs: Betrayed by Love",
            "popularity": 1.4
        },
        {
            "id": 7852,
            "original_name": "Hairspray: The School Musical",
            "popularity": 1.209
        },
        {
            "id": 78878,
            "original_name": "Murderous Affairs",
            "popularity": 1.03
        },
        {
            "id": 47044,
            "original_name": "Deadly Affairs",
            "popularity": 0.934
        },
        {
            "id": 30297,
            "original_name": "Men Of Affairs",
            "popularity": 0.92
        },
        {
            "id": 25804,
            "original_name": "Family Affairs",
            "popularity": 0.916
        },
        {
            "id": 129538,
            "original_name": "Au pairs",
            "popularity": 0.9
        },
        {
            "id": 1545,
            "original_name": "Affairs of the Heart",
            "popularity": 0.895
        },
        {
            "id": 105074,
            "original_name": "Love and Affairs",
            "popularity": 0.84
        },
        {
            "id": 38322,
            "original_name": "Royal Upstairs Downstairs",
            "popularity": 0.677
        },
        {
            "id": 2965,
            "original_name": "Today's Affairs",
            "popularity": 0.6
        }
    ]
}