{
    "data": [
        {
            "id": 31771,
            "original_name": "Aisling's Diary",
            "popularity": 0.6
        },
        {
            "id": 96135,
            "original_name": "Brad Paisley Thinks He's Special",
            "popularity": 0.6
        },
        {
            "id": 104770,
            "original_name": "Aislados",
            "popularity": 0.6
        }
    ],
    "relations": [],
    "top20": [
        {
            "id": 31771,
            "original_name": "Aisling's Diary",
            "popularity": 0.6
        },
        {
            "id": 96135,
            "original_name": "Brad Paisley Thinks He's Special",
            "popularity": 0.6
        },
        {
            "id": 104770,
            "original_name": "Aislados",
            "popularity": 0.6
        }
    ]
}