{
    "data": [
        {
            "id": 83333,
            "original_name": "Bye-Bye Maison!",
            "popularity": 0.851
        }
    ],
    "relations": [],
    "top20": [
        {
            "id": 83333,
            "original_name": "Bye-Bye Maison!",
            "popularity": 0.851
        }
    ]
}