{
    "data": [
        {
            "id": 5110,
            "original_name": "Pecados Ajenos",
            "popularity": 0.987
        },
        {
            "id": 7847,
            "original_name": "Ajeeb",
            "popularity": 0.6
        },
        {
            "id": 12684,
            "original_name": "Coraz\u00f3n salvaje",
            "popularity": 0.6
        },
        {
            "id": 12753,
            "original_name": "Rosa Salvaje",
            "popularity": 9.087
        },
        {
            "id": 12770,
            "original_name": "Coraz\u00f3n salvaje",
            "popularity": 0.6
        },
        {
            "id": 12777,
            "original_name": "Coraz\u00f3n salvaje",
            "popularity": 7.053
        },
        {
            "id": 15241,
            "original_name": "Gata salvaje",
            "popularity": 6.243
        },
        {
            "id": 15392,
            "original_name": "Amor sin Maquillaje",
            "popularity": 0.6
        },
        {
            "id": 16046,
            "original_name": "Sentimientos Ajenos",
            "popularity": 0.711
        },
        {
            "id": 19715,
            "original_name": "Live From Her Majesty's",
            "popularity": 0.6
        },
        {
            "id": 20941,
            "original_name": "Padre Coraje",
            "popularity": 0.709
        },
        {
            "id": 30578,
            "original_name": "Her Majesty's Pleasure",
            "popularity": 1.4
        },
        {
            "id": 31214,
            "original_name": "Coraz\u00f3n salvaje",
            "popularity": 4.51
        },
        {
            "id": 32774,
            "original_name": "Playa salvaje",
            "popularity": 2.149
        },
        {
            "id": 33302,
            "original_name": "MetaJets",
            "popularity": 0.6
        },
        {
            "id": 33392,
            "original_name": "\u00a1Anita, no Te Rajes!",
            "popularity": 0.62
        },
        {
            "id": 33918,
            "original_name": "Drenaje Profundo",
            "popularity": 1.035
        },
        {
            "id": 34866,
            "original_name": "Mr. Majeika",
            "popularity": 0.654
        },
        {
            "id": 36845,
            "original_name": "Tajemstv\u00ed prout\u011bn\u00e9ho ko\u0161\u00edku",
            "popularity": 0.6
        },
        {
            "id": 37207,
            "original_name": "Tajemnica Twierdzy Szyfr\u00f3w",
            "popularity": 2.31
        },
        {
            "id": 39398,
            "original_name": "Bajega Band Baaja",
            "popularity": 0.6
        },
        {
            "id": 39563,
            "original_name": "Flor Salvaje",
            "popularity": 2.292
        },
        {
            "id": 47732,
            "original_name": "Sarajevo: A Street Under Siege",
            "popularity": 0.6
        },
        {
            "id": 48760,
            "original_name": "A Sarajevo Diary",
            "popularity": 0.6
        },
        {
            "id": 48906,
            "original_name": "Szymon Majewski show",
            "popularity": 0.6
        },
        {
            "id": 50095,
            "original_name": "Buch in de Bajes",
            "popularity": 0.6
        },
        {
            "id": 55174,
            "original_name": "Callejeros viajeros",
            "popularity": 2.685
        },
        {
            "id": 55207,
            "original_name": "Mowaten Bedarajet Wazir",
            "popularity": 0.6
        },
        {
            "id": 55752,
            "original_name": "Her Majesty's Prison: Aylesbury",
            "popularity": 0.6
        },
        {
            "id": 61802,
            "original_name": "Ramajetterne",
            "popularity": 1.096
        },
        {
            "id": 63943,
            "original_name": "Anna German. Tajemnica bia\u0142ego anio\u0142a",
            "popularity": 1.4
        },
        {
            "id": 66934,
            "original_name": "El \u00c1rtico m\u00e1s salvaje",
            "popularity": 0.6
        },
        {
            "id": 68172,
            "original_name": "Pac\u00edfico. Un viaje a los confines del hombre",
            "popularity": 0.6
        },
        {
            "id": 74022,
            "original_name": "En Tierras Salvajes",
            "popularity": 5.536
        },
        {
            "id": 76206,
            "original_name": "Nasa krajevna skupnost",
            "popularity": 0.6
        },
        {
            "id": 76785,
            "original_name": "Tajemnice historii",
            "popularity": 0.6
        },
        {
            "id": 78604,
            "original_name": "Viajeros Cuatro",
            "popularity": 1.443
        },
        {
            "id": 79077,
            "original_name": "Utajen\u00fd \u0161\u00e9f",
            "popularity": 0.6
        },
        {
            "id": 80508,
            "original_name": "Wild Chile: Un viaje salvaje",
            "popularity": 0.601
        },
        {
            "id": 82392,
            "original_name": "Ramajetternes jul",
            "popularity": 3.335
        },
        {
            "id": 83245,
            "original_name": "Distrito salvaje",
            "popularity": 13.69
        },
        {
            "id": 85484,
            "original_name": "L'angelo di Sarajevo",
            "popularity": 0.6
        },
        {
            "id": 86153,
            "original_name": "Viaje al centro de la tele",
            "popularity": 3.879
        },
        {
            "id": 88001,
            "original_name": "Mraziv\u00e1 tajemstv\u00ed",
            "popularity": 0.853
        },
        {
            "id": 88452,
            "original_name": "Utajen\u00e9 p\u0159\u00edb\u011bhy \u010desk\u00fdch d\u011bjin",
            "popularity": 0.646
        },
        {
            "id": 88815,
            "original_name": "Kullfi Kumarr Bajewala",
            "popularity": 0.638
        },
        {
            "id": 89722,
            "original_name": "El Viaje de Peter Mcdowell",
            "popularity": 1.362
        },
        {
            "id": 92280,
            "original_name": "Zambia Salvaje",
            "popularity": 0.6
        },
        {
            "id": 92282,
            "original_name": "Viajes espaciales",
            "popularity": 0.6
        },
        {
            "id": 92943,
            "original_name": "Autiste, bient\u00f4t majeur",
            "popularity": 0.673
        },
        {
            "id": 94650,
            "original_name": "Tajemnica Szyfru Marabuta",
            "popularity": 0.6
        },
        {
            "id": 94657,
            "original_name": "Tajemnice Wiklinowej Zatoki",
            "popularity": 0.6
        },
        {
            "id": 94667,
            "original_name": "De viaje con los Derbez",
            "popularity": 37.189
        },
        {
            "id": 95627,
            "original_name": "Sara Sajeeda",
            "popularity": 0.6
        },
        {
            "id": 96622,
            "original_name": "Utajen\u00fd \u0160\u00e9f",
            "popularity": 0.6
        },
        {
            "id": 98199,
            "original_name": "Piel salvaje",
            "popularity": 0.6
        },
        {
            "id": 98439,
            "original_name": "Les \u00celes de sa majest\u00e9",
            "popularity": 0.6
        },
        {
            "id": 99439,
            "original_name": "\u010cesk\u00e9 tajemno",
            "popularity": 1.4
        },
        {
            "id": 100001,
            "original_name": "\u2018Pedazo de acorde\u00f3n\u2019, un viaje a trav\u00e9s de la historia del vallenato",
            "popularity": 3.684
        },
        {
            "id": 101122,
            "original_name": "Pirineo Salvaje",
            "popularity": 0.6
        },
        {
            "id": 103305,
            "original_name": "Kajet\u00e1n a Modr\u00e1 li\u0161ka",
            "popularity": 0.6
        },
        {
            "id": 108179,
            "original_name": "Menajerimi Ara",
            "popularity": 3.197
        },
        {
            "id": 108497,
            "original_name": "Autiste, maintenant majeur",
            "popularity": 0.723
        },
        {
            "id": 114268,
            "original_name": "Luna salvaje",
            "popularity": 1.768
        },
        {
            "id": 114311,
            "original_name": "Trajectoires",
            "popularity": 0.623
        },
        {
            "id": 115113,
            "original_name": "TaJeMno",
            "popularity": 0.699
        },
        {
            "id": 116152,
            "original_name": "En viaje",
            "popularity": 0.822
        },
        {
            "id": 116456,
            "original_name": "Bez tajemnic",
            "popularity": 1.451
        },
        {
            "id": 116940,
            "original_name": "Maharal \u2013 Tajemstv\u00ed talismanu",
            "popularity": 1.57
        },
        {
            "id": 117385,
            "original_name": "Nasa krajevna skupnost (1980)",
            "popularity": 0.6
        },
        {
            "id": 118721,
            "original_name": "Sin maquillaje",
            "popularity": 1.976
        },
        {
            "id": 119030,
            "original_name": "Tajemnica zawodowa",
            "popularity": 1.163
        },
        {
            "id": 119638,
            "original_name": "Tajemnice Pocz\u0105tk\u00f3w Polski",
            "popularity": 0.6
        },
        {
            "id": 120248,
            "original_name": "Trajectoires d'Egypte",
            "popularity": 0.6
        },
        {
            "id": 122510,
            "original_name": "Kdy\u017e se hraje o \u010das",
            "popularity": 0.6
        },
        {
            "id": 125462,
            "original_name": "Viaje al centro de la Tierra",
            "popularity": 1.09
        },
        {
            "id": 130064,
            "original_name": "Majesty and Mortar: Britain's Great Palaces",
            "popularity": 0.6
        },
        {
            "id": 131443,
            "original_name": "Penelope Keith at Her Majesty's Service",
            "popularity": 0.6
        },
        {
            "id": 132332,
            "original_name": "Tajemnice Mi\u0142o\u015bci",
            "popularity": 9.2
        },
        {
            "id": 132556,
            "original_name": "Tajemstv\u00ed zem\u011b Nippon",
            "popularity": 0.6
        },
        {
            "id": 132742,
            "original_name": "Esp\u00edritu salvaje",
            "popularity": 0.6
        },
        {
            "id": 132877,
            "original_name": "Pasaje de emergencia",
            "popularity": 0.6
        },
        {
            "id": 138231,
            "original_name": "El coraje de vivir",
            "popularity": 0.84
        },
        {
            "id": 138473,
            "original_name": "Pau Gasol - Lo importante es el Viaje",
            "popularity": 2.599
        }
    ],
    "relations": [
        {
            "character": "ajen"
        },
        {
            "character": "ajee"
        },
        {
            "character": "ajes"
        },
        {
            "character": "ajet"
        },
        {
            "character": "ajei"
        },
        {
            "character": "ajem"
        },
        {
            "character": "ajeg"
        },
        {
            "character": "ajev"
        },
        {
            "character": "ajew"
        },
        {
            "character": "ajer"
        },
        {
            "character": "ajeu"
        },
        {
            "character": "ajec"
        }
    ],
    "top20": [
        {
            "id": 94667,
            "original_name": "De viaje con los Derbez",
            "popularity": 37.189
        },
        {
            "id": 83245,
            "original_name": "Distrito salvaje",
            "popularity": 13.69
        },
        {
            "id": 132332,
            "original_name": "Tajemnice Mi\u0142o\u015bci",
            "popularity": 9.2
        },
        {
            "id": 12753,
            "original_name": "Rosa Salvaje",
            "popularity": 9.087
        },
        {
            "id": 12777,
            "original_name": "Coraz\u00f3n salvaje",
            "popularity": 7.053
        },
        {
            "id": 15241,
            "original_name": "Gata salvaje",
            "popularity": 6.243
        },
        {
            "id": 74022,
            "original_name": "En Tierras Salvajes",
            "popularity": 5.536
        },
        {
            "id": 31214,
            "original_name": "Coraz\u00f3n salvaje",
            "popularity": 4.51
        },
        {
            "id": 86153,
            "original_name": "Viaje al centro de la tele",
            "popularity": 3.879
        },
        {
            "id": 100001,
            "original_name": "\u2018Pedazo de acorde\u00f3n\u2019, un viaje a trav\u00e9s de la historia del vallenato",
            "popularity": 3.684
        },
        {
            "id": 82392,
            "original_name": "Ramajetternes jul",
            "popularity": 3.335
        },
        {
            "id": 108179,
            "original_name": "Menajerimi Ara",
            "popularity": 3.197
        },
        {
            "id": 55174,
            "original_name": "Callejeros viajeros",
            "popularity": 2.685
        },
        {
            "id": 138473,
            "original_name": "Pau Gasol - Lo importante es el Viaje",
            "popularity": 2.599
        },
        {
            "id": 37207,
            "original_name": "Tajemnica Twierdzy Szyfr\u00f3w",
            "popularity": 2.31
        },
        {
            "id": 39563,
            "original_name": "Flor Salvaje",
            "popularity": 2.292
        },
        {
            "id": 32774,
            "original_name": "Playa salvaje",
            "popularity": 2.149
        },
        {
            "id": 118721,
            "original_name": "Sin maquillaje",
            "popularity": 1.976
        },
        {
            "id": 114268,
            "original_name": "Luna salvaje",
            "popularity": 1.768
        },
        {
            "id": 116940,
            "original_name": "Maharal \u2013 Tajemstv\u00ed talismanu",
            "popularity": 1.57
        }
    ]
}