{
    "data": [
        {
            "id": 23633,
            "original_name": "The Gospel of Music with Jeff Majors",
            "popularity": 0.6
        },
        {
            "id": 39134,
            "original_name": "Majors & Minors",
            "popularity": 1.126
        }
    ],
    "relations": [],
    "top20": [
        {
            "id": 23633,
            "original_name": "The Gospel of Music with Jeff Majors",
            "popularity": 0.6
        },
        {
            "id": 39134,
            "original_name": "Majors & Minors",
            "popularity": 1.126
        }
    ]
}