{
    "data": [
        {
            "id": 7808,
            "original_name": "Tougher In Alaska",
            "popularity": 0.6
        },
        {
            "id": 13806,
            "original_name": "The Alaskans",
            "popularity": 4.549
        },
        {
            "id": 22249,
            "original_name": "Clinically Wild: Alaska",
            "popularity": 0.6
        },
        {
            "id": 26039,
            "original_name": "Into Alaska With Jeff Corwin",
            "popularity": 0.878
        },
        {
            "id": 30091,
            "original_name": "Looking for Love: Bachelorettes in Alaska",
            "popularity": 0.6
        },
        {
            "id": 30534,
            "original_name": "From Alaska with love",
            "popularity": 0.6
        },
        {
            "id": 32402,
            "original_name": "Sarah Palin's Alaska",
            "popularity": 0.843
        },
        {
            "id": 35086,
            "original_name": "Alaska State Troopers",
            "popularity": 2.104
        },
        {
            "id": 35397,
            "original_name": "Flying Wild Alaska",
            "popularity": 0.6
        },
        {
            "id": 38335,
            "original_name": "Alaska Outdoors Television",
            "popularity": 0.6
        },
        {
            "id": 38708,
            "original_name": "Alaska Wing Men",
            "popularity": 0.6
        },
        {
            "id": 41021,
            "original_name": "The Alaska Kid",
            "popularity": 0.6
        },
        {
            "id": 42385,
            "original_name": "Mounted in Alaska",
            "popularity": 0.6
        },
        {
            "id": 46882,
            "original_name": "Coast Guard Alaska",
            "popularity": 0.6
        },
        {
            "id": 48319,
            "original_name": "Married to the Army: Alaska",
            "popularity": 0.6
        },
        {
            "id": 49441,
            "original_name": "Alaska & Mario",
            "popularity": 1.734
        },
        {
            "id": 49446,
            "original_name": "Ultimate Survival Alaska",
            "popularity": 0.619
        },
        {
            "id": 50169,
            "original_name": "Wild West Alaska",
            "popularity": 0.6
        },
        {
            "id": 51716,
            "original_name": "Alaska Fish Wars",
            "popularity": 0.6
        },
        {
            "id": 55550,
            "original_name": "Buying Alaska",
            "popularity": 1.037
        },
        {
            "id": 57608,
            "original_name": "Alaskan Steel Men",
            "popularity": 0.6
        },
        {
            "id": 58355,
            "original_name": "Alaskan Women Looking for Love",
            "popularity": 0.6
        },
        {
            "id": 61789,
            "original_name": "Alaskan Bush People",
            "popularity": 9.295
        },
        {
            "id": 62041,
            "original_name": "Alaska: Earth's Frozen Kingdom",
            "popularity": 1.008
        },
        {
            "id": 63313,
            "original_name": "Alaska: The Last Frontier",
            "popularity": 3.709
        },
        {
            "id": 63462,
            "original_name": "Edge of Alaska",
            "popularity": 1.485
        },
        {
            "id": 64639,
            "original_name": "Railroad Alaska",
            "popularity": 2.614
        },
        {
            "id": 64640,
            "original_name": "Dr. Dee: Alaska Vet",
            "popularity": 0.975
        },
        {
            "id": 64982,
            "original_name": "Alaska Monsters",
            "popularity": 0.74
        },
        {
            "id": 64993,
            "original_name": "Alaska: Battle on the Bay",
            "popularity": 0.6
        },
        {
            "id": 65043,
            "original_name": "The Last Alaskans",
            "popularity": 2.123
        },
        {
            "id": 65997,
            "original_name": "Big Fix Alaska",
            "popularity": 0.6
        },
        {
            "id": 66411,
            "original_name": "Alaska Mega Machines",
            "popularity": 0.6
        },
        {
            "id": 66419,
            "original_name": "Port Protection Alaska",
            "popularity": 1.373
        },
        {
            "id": 69384,
            "original_name": "Alaska Aircrash Investigations",
            "popularity": 0.6
        },
        {
            "id": 71054,
            "original_name": "Missing in Alaska",
            "popularity": 0.6
        },
        {
            "id": 72006,
            "original_name": "Alaska Homicide",
            "popularity": 0.6
        },
        {
            "id": 72722,
            "original_name": "Wild Alaska Live",
            "popularity": 0.6
        },
        {
            "id": 74908,
            "original_name": "Building Alaska",
            "popularity": 0.6
        },
        {
            "id": 79429,
            "original_name": "Alaska's Grizzly Gauntlet",
            "popularity": 0.6
        },
        {
            "id": 79884,
            "original_name": "Alaska Gold Diggers",
            "popularity": 0.625
        },
        {
            "id": 79939,
            "original_name": "Alaska Haunting: Dead of Winter",
            "popularity": 0.6
        },
        {
            "id": 83141,
            "original_name": "Into Alaska",
            "popularity": 0.6
        },
        {
            "id": 88494,
            "original_name": "Alaska's Wild Gourmet",
            "popularity": 0.6
        },
        {
            "id": 88495,
            "original_name": "Alaska's Ultimate Bush Pilots",
            "popularity": 0.6
        },
        {
            "id": 88640,
            "original_name": "Looking for Alaska",
            "popularity": 13.841
        },
        {
            "id": 89518,
            "original_name": "Great Alaskan Railroad Journeys",
            "popularity": 0.606
        },
        {
            "id": 92317,
            "original_name": "Supervivencia en Alaska, con Les Stroud",
            "popularity": 0.605
        },
        {
            "id": 95641,
            "original_name": "Alaska PD",
            "popularity": 0.655
        },
        {
            "id": 98225,
            "original_name": "Alaska Proof",
            "popularity": 0.6
        },
        {
            "id": 98493,
            "original_name": "Alaska Sauvage",
            "popularity": 0.6
        },
        {
            "id": 98660,
            "original_name": "Alaska: A Year in the Wild",
            "popularity": 0.6
        },
        {
            "id": 102343,
            "original_name": "Win the Wilderness: Alaska",
            "popularity": 1.291
        },
        {
            "id": 104521,
            "original_name": "Alaska Animal Rescue",
            "popularity": 0.6
        },
        {
            "id": 106040,
            "original_name": "Alaska Extreme",
            "popularity": 0.607
        },
        {
            "id": 110104,
            "original_name": "The Alaska Triangle",
            "popularity": 1.586
        },
        {
            "id": 112482,
            "original_name": "Ice Airport Alaska",
            "popularity": 0.669
        },
        {
            "id": 112668,
            "original_name": "Alaska",
            "popularity": 0.6
        },
        {
            "id": 115835,
            "original_name": "Alaska's Deadliest",
            "popularity": 0.6
        },
        {
            "id": 117646,
            "original_name": "Alaska Off-Road Warriors",
            "popularity": 0.6
        },
        {
            "id": 118451,
            "original_name": "Alaska The New Pioneers",
            "popularity": 0.651
        },
        {
            "id": 119539,
            "original_name": "Aliens In Alaska",
            "popularity": 0.747
        },
        {
            "id": 127754,
            "original_name": "Alaska Off the Grid",
            "popularity": 0.6
        },
        {
            "id": 128378,
            "original_name": "I Love Alaska",
            "popularity": 0.6
        },
        {
            "id": 131948,
            "original_name": "The Prophecy: A Warning Of Climate Change In Alaska",
            "popularity": 0.6
        },
        {
            "id": 131987,
            "original_name": "Cold Blooded Alaska",
            "popularity": 0.888
        },
        {
            "id": 136721,
            "original_name": "Alaska Outdoors",
            "popularity": 0.6
        },
        {
            "id": 137971,
            "original_name": "Teluk Alaska",
            "popularity": 19.212
        },
        {
            "id": 138669,
            "original_name": "Fatal Frontier: Evil in Alaska",
            "popularity": 3.151
        }
    ],
    "relations": [
        {
            "character": "alaska"
        }
    ],
    "top20": [
        {
            "id": 137971,
            "original_name": "Teluk Alaska",
            "popularity": 19.212
        },
        {
            "id": 88640,
            "original_name": "Looking for Alaska",
            "popularity": 13.841
        },
        {
            "id": 61789,
            "original_name": "Alaskan Bush People",
            "popularity": 9.295
        },
        {
            "id": 13806,
            "original_name": "The Alaskans",
            "popularity": 4.549
        },
        {
            "id": 63313,
            "original_name": "Alaska: The Last Frontier",
            "popularity": 3.709
        },
        {
            "id": 138669,
            "original_name": "Fatal Frontier: Evil in Alaska",
            "popularity": 3.151
        },
        {
            "id": 64639,
            "original_name": "Railroad Alaska",
            "popularity": 2.614
        },
        {
            "id": 65043,
            "original_name": "The Last Alaskans",
            "popularity": 2.123
        },
        {
            "id": 35086,
            "original_name": "Alaska State Troopers",
            "popularity": 2.104
        },
        {
            "id": 49441,
            "original_name": "Alaska & Mario",
            "popularity": 1.734
        },
        {
            "id": 110104,
            "original_name": "The Alaska Triangle",
            "popularity": 1.586
        },
        {
            "id": 63462,
            "original_name": "Edge of Alaska",
            "popularity": 1.485
        },
        {
            "id": 66419,
            "original_name": "Port Protection Alaska",
            "popularity": 1.373
        },
        {
            "id": 102343,
            "original_name": "Win the Wilderness: Alaska",
            "popularity": 1.291
        },
        {
            "id": 55550,
            "original_name": "Buying Alaska",
            "popularity": 1.037
        },
        {
            "id": 62041,
            "original_name": "Alaska: Earth's Frozen Kingdom",
            "popularity": 1.008
        },
        {
            "id": 64640,
            "original_name": "Dr. Dee: Alaska Vet",
            "popularity": 0.975
        },
        {
            "id": 131987,
            "original_name": "Cold Blooded Alaska",
            "popularity": 0.888
        },
        {
            "id": 26039,
            "original_name": "Into Alaska With Jeff Corwin",
            "popularity": 0.878
        },
        {
            "id": 32402,
            "original_name": "Sarah Palin's Alaska",
            "popularity": 0.843
        }
    ]
}