{
    "data": [
        {
            "id": 16666,
            "original_name": "Charters and Caldicott",
            "popularity": 0.744
        },
        {
            "id": 72406,
            "original_name": "Mi adorable maldici\u00f3n",
            "popularity": 2.733
        },
        {
            "id": 90876,
            "original_name": "Borb\u00f3n: La maldici\u00f3n de un apellido",
            "popularity": 0.6
        },
        {
            "id": 128871,
            "original_name": "Rabia: La Maldicion De Lejano Oeste",
            "popularity": 1.705
        },
        {
            "id": 146394,
            "original_name": "La Maldici\u00f3n del oro",
            "popularity": 0.6
        }
    ],
    "relations": [],
    "top20": [
        {
            "id": 16666,
            "original_name": "Charters and Caldicott",
            "popularity": 0.744
        },
        {
            "id": 72406,
            "original_name": "Mi adorable maldici\u00f3n",
            "popularity": 2.733
        },
        {
            "id": 90876,
            "original_name": "Borb\u00f3n: La maldici\u00f3n de un apellido",
            "popularity": 0.6
        },
        {
            "id": 128871,
            "original_name": "Rabia: La Maldicion De Lejano Oeste",
            "popularity": 1.705
        },
        {
            "id": 146394,
            "original_name": "La Maldici\u00f3n del oro",
            "popularity": 0.6
        }
    ]
}