{
    "data": [
        {
            "id": 6099,
            "original_name": "The Baldy Man",
            "popularity": 1.718
        }
    ],
    "relations": [],
    "top20": [
        {
            "id": 6099,
            "original_name": "The Baldy Man",
            "popularity": 1.718
        }
    ]
}