{
    "data": [
        {
            "id": 50676,
            "original_name": "Souq Almaqasees",
            "popularity": 0.6
        }
    ],
    "relations": [],
    "top20": [
        {
            "id": 50676,
            "original_name": "Souq Almaqasees",
            "popularity": 0.6
        }
    ]
}