{
    "data": [
        {
            "id": 82457,
            "original_name": "Richie's Musicalwelt",
            "popularity": 0.6
        }
    ],
    "relations": [],
    "top20": [
        {
            "id": 82457,
            "original_name": "Richie's Musicalwelt",
            "popularity": 0.6
        }
    ]
}