{
    "data": [
        {
            "id": 66427,
            "original_name": "9 meses con Samanta",
            "popularity": 1.098
        },
        {
            "id": 66428,
            "original_name": "Conexi\u00f3n Samanta",
            "popularity": 0.6
        },
        {
            "id": 81685,
            "original_name": "Samanta y...",
            "popularity": 0.6
        },
        {
            "id": 86083,
            "original_name": "La vida con Samanta",
            "popularity": 0.6
        },
        {
            "id": 101644,
            "original_name": "Samantar",
            "popularity": 9.314
        }
    ],
    "relations": [],
    "top20": [
        {
            "id": 66427,
            "original_name": "9 meses con Samanta",
            "popularity": 1.098
        },
        {
            "id": 66428,
            "original_name": "Conexi\u00f3n Samanta",
            "popularity": 0.6
        },
        {
            "id": 81685,
            "original_name": "Samanta y...",
            "popularity": 0.6
        },
        {
            "id": 86083,
            "original_name": "La vida con Samanta",
            "popularity": 0.6
        },
        {
            "id": 101644,
            "original_name": "Samantar",
            "popularity": 9.314
        }
    ]
}