{
    "data": [
        {
            "id": 136987,
            "original_name": "Tito \u2013 posljednji svjedoci testamenta",
            "popularity": 0.6
        },
        {
            "id": 139466,
            "original_name": "Masterclass: Joe Holder Teaches Fitness and Wellness Fundamentals",
            "popularity": 0.6
        },
        {
            "id": 152572,
            "original_name": "The Ornamental Kitchen Garden",
            "popularity": 0.6
        }
    ],
    "relations": [],
    "top20": [
        {
            "id": 136987,
            "original_name": "Tito \u2013 posljednji svjedoci testamenta",
            "popularity": 0.6
        },
        {
            "id": 139466,
            "original_name": "Masterclass: Joe Holder Teaches Fitness and Wellness Fundamentals",
            "popularity": 0.6
        },
        {
            "id": 152572,
            "original_name": "The Ornamental Kitchen Garden",
            "popularity": 0.6
        }
    ]
}