{
    "data": [
        {
            "id": 534,
            "original_name": "Gameshow Marathon",
            "popularity": 1.768
        },
        {
            "id": 1050,
            "original_name": "The Games",
            "popularity": 1.203
        },
        {
            "id": 1051,
            "original_name": "The Games",
            "popularity": 1.892
        },
        {
            "id": 1155,
            "original_name": "Thames Valley Tonight",
            "popularity": 0.6
        },
        {
            "id": 1258,
            "original_name": "Wicked Wicked Games",
            "popularity": 2.97
        },
        {
            "id": 1318,
            "original_name": "The Return of Jezebel James",
            "popularity": 1.4
        },
        {
            "id": 2310,
            "original_name": "Friday Night Games",
            "popularity": 0.6
        },
        {
            "id": 2360,
            "original_name": "Spyder Games",
            "popularity": 3.69
        },
        {
            "id": 2447,
            "original_name": "Gameshow Marathon",
            "popularity": 1.09
        },
        {
            "id": 3212,
            "original_name": "GamesMaster",
            "popularity": 5.465
        },
        {
            "id": 3646,
            "original_name": "The Surreal Life: Fame Games",
            "popularity": 1.768
        },
        {
            "id": 4084,
            "original_name": "Games World",
            "popularity": 0.6
        },
        {
            "id": 4710,
            "original_name": "My GamesFever",
            "popularity": 0.6
        },
        {
            "id": 5000,
            "original_name": "Dames in de Dop",
            "popularity": 0.6
        },
        {
            "id": 5155,
            "original_name": "TheatreGames LIVE",
            "popularity": 0.6
        },
        {
            "id": 5528,
            "original_name": "Thames News",
            "popularity": 0.6
        },
        {
            "id": 5697,
            "original_name": "When Games Attack",
            "popularity": 0.6
        },
        {
            "id": 5749,
            "original_name": "Wild Animal Games",
            "popularity": 0.6
        },
        {
            "id": 5751,
            "original_name": "Wild Animal Games",
            "popularity": 0.6
        },
        {
            "id": 6511,
            "original_name": "Oz and James's Big Wine Adventure",
            "popularity": 1.575
        },
        {
            "id": 6713,
            "original_name": "James May's 20th Century",
            "popularity": 1.022
        },
        {
            "id": 6994,
            "original_name": "Games Night",
            "popularity": 0.6
        },
        {
            "id": 7267,
            "original_name": "Dames in de Dop 2",
            "popularity": 0.6
        },
        {
            "id": 7268,
            "original_name": "Dames in de Dop 1",
            "popularity": 0.6
        },
        {
            "id": 8048,
            "original_name": "James May's Big Ideas",
            "popularity": 0.872
        },
        {
            "id": 8302,
            "original_name": "James Gunn's PG Porn",
            "popularity": 14.622
        },
        {
            "id": 8339,
            "original_name": "Games from the Crypt",
            "popularity": 0.6
        },
        {
            "id": 8571,
            "original_name": "Joe and James: Reunited",
            "popularity": 0.6
        },
        {
            "id": 8873,
            "original_name": "Techno Games",
            "popularity": 0.6
        },
        {
            "id": 8887,
            "original_name": "Thumb Candy: The History of Computer Games",
            "popularity": 0.6
        },
        {
            "id": 10138,
            "original_name": "James at 16",
            "popularity": 1.639
        },
        {
            "id": 10688,
            "original_name": "Deadly Games",
            "popularity": 3.836
        },
        {
            "id": 10793,
            "original_name": "DJ Games",
            "popularity": 0.6
        },
        {
            "id": 11299,
            "original_name": "NFL's Greatest Games",
            "popularity": 0.6
        },
        {
            "id": 11702,
            "original_name": "Fresh Baked Videogames",
            "popularity": 0.6
        },
        {
            "id": 11800,
            "original_name": "RollerGames",
            "popularity": 0.6
        },
        {
            "id": 12763,
            "original_name": "Disney Channel Games 2006",
            "popularity": 5.769
        },
        {
            "id": 12951,
            "original_name": "Games Republic",
            "popularity": 0.6
        },
        {
            "id": 13054,
            "original_name": "Way Out Games",
            "popularity": 0.6
        },
        {
            "id": 13323,
            "original_name": "James the Cat",
            "popularity": 0.6
        },
        {
            "id": 13355,
            "original_name": "Star Games",
            "popularity": 0.804
        },
        {
            "id": 14378,
            "original_name": "Games Uplate Live",
            "popularity": 0.6
        },
        {
            "id": 14684,
            "original_name": "Movies, Games and Videos",
            "popularity": 0.6
        },
        {
            "id": 14974,
            "original_name": "Games People Play",
            "popularity": 0.6
        },
        {
            "id": 15037,
            "original_name": "Saint-Tropez Games",
            "popularity": 0.6
        },
        {
            "id": 15058,
            "original_name": "Incredible Games",
            "popularity": 0.6
        },
        {
            "id": 15812,
            "original_name": "James Bond: The True Story",
            "popularity": 0.6
        },
        {
            "id": 16246,
            "original_name": "The Legend of Jesse James",
            "popularity": 3.736
        },
        {
            "id": 16259,
            "original_name": "Oz and James Drink to Britain",
            "popularity": 1.03
        },
        {
            "id": 17247,
            "original_name": "Buck James",
            "popularity": 0.6
        },
        {
            "id": 17880,
            "original_name": "Sweet Baby James",
            "popularity": 0.6
        },
        {
            "id": 18026,
            "original_name": "2007 Disney Channel Games",
            "popularity": 0.6
        },
        {
            "id": 18328,
            "original_name": "Braingames",
            "popularity": 0.6
        },
        {
            "id": 18742,
            "original_name": "Katie and Eilish: Siamese Twins",
            "popularity": 0.6
        },
        {
            "id": 19188,
            "original_name": "Citizen James",
            "popularity": 1.47
        },
        {
            "id": 19204,
            "original_name": "Good and Bad at Games",
            "popularity": 0.6
        },
        {
            "id": 19254,
            "original_name": "The Games Affair",
            "popularity": 0.6
        },
        {
            "id": 19487,
            "original_name": "Gilgamesh Night",
            "popularity": 0.6
        },
        {
            "id": 19520,
            "original_name": "GSN Video Games",
            "popularity": 0.6
        },
        {
            "id": 19528,
            "original_name": "The James D.T.J. & Friends 1/2 Hour",
            "popularity": 0.84
        },
        {
            "id": 22075,
            "original_name": "Walking the Thames",
            "popularity": 0.6
        },
        {
            "id": 22177,
            "original_name": "Captain James Cook",
            "popularity": 1.46
        },
        {
            "id": 22199,
            "original_name": "GameSpot TV",
            "popularity": 0.6
        },
        {
            "id": 23452,
            "original_name": "Beyond with James Van Praagh",
            "popularity": 0.6
        },
        {
            "id": 24694,
            "original_name": "Home James!",
            "popularity": 0.965
        },
        {
            "id": 24867,
            "original_name": "Head Games",
            "popularity": 1.117
        },
        {
            "id": 26107,
            "original_name": "Gilgamesh",
            "popularity": 3.857
        },
        {
            "id": 26259,
            "original_name": "Sex Games: Vegas",
            "popularity": 1.781
        },
        {
            "id": 26528,
            "original_name": "The James Whale Radio Show",
            "popularity": 0.6
        },
        {
            "id": 26923,
            "original_name": "Dames van Oranje",
            "popularity": 0.6
        },
        {
            "id": 27024,
            "original_name": "Wild Animal Games",
            "popularity": 0.6
        },
        {
            "id": 27419,
            "original_name": "The 2006 Commonwealth Games (UK)",
            "popularity": 0.6
        },
        {
            "id": 27527,
            "original_name": "The 2006 Commonwealth Games Highlights",
            "popularity": 0.6
        },
        {
            "id": 27699,
            "original_name": "Games Across America",
            "popularity": 0.6
        },
        {
            "id": 27748,
            "original_name": "Rating James",
            "popularity": 0.6
        },
        {
            "id": 28200,
            "original_name": "Home James (US)",
            "popularity": 0.6
        },
        {
            "id": 28651,
            "original_name": "Fun & Games",
            "popularity": 0.6
        },
        {
            "id": 28689,
            "original_name": "Kapamilya Games Uplate",
            "popularity": 0.6
        },
        {
            "id": 28730,
            "original_name": "Z Games",
            "popularity": 0.6
        },
        {
            "id": 29105,
            "original_name": "Hjelp Jeg Er Med i Et Japansk Gameshow",
            "popularity": 0.6
        },
        {
            "id": 29144,
            "original_name": "The James Pegler Show",
            "popularity": 0.6
        },
        {
            "id": 30010,
            "original_name": "Home James",
            "popularity": 0.6
        },
        {
            "id": 30682,
            "original_name": "The 2006 Commonwealth Games (AU)",
            "popularity": 0.6
        },
        {
            "id": 30756,
            "original_name": "Prime Games",
            "popularity": 0.6
        },
        {
            "id": 30832,
            "original_name": "Charlie Brooker's Gameswipe",
            "popularity": 0.6
        },
        {
            "id": 31107,
            "original_name": "James May's Toy Stories",
            "popularity": 3.387
        },
        {
            "id": 31260,
            "original_name": "The Ron James Show",
            "popularity": 0.6
        },
        {
            "id": 31643,
            "original_name": "Head Games",
            "popularity": 0.6
        },
        {
            "id": 31668,
            "original_name": "Jesse James Is a Dead Man",
            "popularity": 0.6
        },
        {
            "id": 31862,
            "original_name": "Love Games: Bad Girls Need Love Too",
            "popularity": 2.058
        },
        {
            "id": 32892,
            "original_name": "James Corden's World Cup Live",
            "popularity": 0.894
        },
        {
            "id": 33096,
            "original_name": "101 Ways to Leave a Gameshow",
            "popularity": 1.343
        },
        {
            "id": 33152,
            "original_name": "Without Warning: The James Brady Story",
            "popularity": 0.6
        },
        {
            "id": 34362,
            "original_name": "James May's Man Lab",
            "popularity": 1.541
        },
        {
            "id": 35104,
            "original_name": "Sagwa The Chinese Siamese Cat",
            "popularity": 4.344
        },
        {
            "id": 35927,
            "original_name": "Bienvenue aux dames",
            "popularity": 0.6
        },
        {
            "id": 36223,
            "original_name": "Dekselse dames",
            "popularity": 0.6
        },
        {
            "id": 36906,
            "original_name": "Josie and John James: What Happened Next?",
            "popularity": 0.6
        },
        {
            "id": 36929,
            "original_name": "All-Time Games",
            "popularity": 0.6
        },
        {
            "id": 37262,
            "original_name": "The 2010 Commonwealth Games",
            "popularity": 0.6
        },
        {
            "id": 38385,
            "original_name": "James Ellroy's LA: City Of Demons",
            "popularity": 0.6
        },
        {
            "id": 38573,
            "original_name": "Top 20 Games",
            "popularity": 0.6
        },
        {
            "id": 38622,
            "original_name": "James May's Road Trip",
            "popularity": 0.6
        },
        {
            "id": 39275,
            "original_name": "Disney's Friends for Change Games",
            "popularity": 1.4
        },
        {
            "id": 39431,
            "original_name": "Horrible Histories: Gory Games",
            "popularity": 0.6
        },
        {
            "id": 41784,
            "original_name": "Life Today with James Robison",
            "popularity": 0.6
        },
        {
            "id": 42245,
            "original_name": "James Bond Jr.",
            "popularity": 3.018
        },
        {
            "id": 42363,
            "original_name": "James May's Things You Need To Know",
            "popularity": 1.345
        },
        {
            "id": 42392,
            "original_name": "Young James Herriot",
            "popularity": 2.189
        },
        {
            "id": 42664,
            "original_name": "ESPN X-Games",
            "popularity": 0.6
        },
        {
            "id": 44008,
            "original_name": "The Goodwin Games",
            "popularity": 2.829
        },
        {
            "id": 44737,
            "original_name": "No Names",
            "popularity": 0.6
        },
        {
            "id": 45450,
            "original_name": "2007 Pan American Games opening ceremony",
            "popularity": 0.6
        },
        {
            "id": 45545,
            "original_name": "Opening Ceremony Salt Lake Paralympic Winter Games",
            "popularity": 0.6
        },
        {
            "id": 45802,
            "original_name": "James Stewart's Wonderful Life",
            "popularity": 0.6
        },
        {
            "id": 45898,
            "original_name": "Tameshite Gatten",
            "popularity": 0.6
        },
        {
            "id": 46465,
            "original_name": "The Games Of The XXVIII Olympiad: Opening Ceremony",
            "popularity": 0.6
        },
        {
            "id": 46492,
            "original_name": "The XXIII Olympic Winter Games: Opening Ceremony",
            "popularity": 0.6
        },
        {
            "id": 46871,
            "original_name": "Disney Channel Games 2008",
            "popularity": 0.6
        },
        {
            "id": 47028,
            "original_name": "James Dean",
            "popularity": 0.77
        },
        {
            "id": 47132,
            "original_name": "Centennial Olympic Games: Opening Ceremonies",
            "popularity": 0.6
        },
        {
            "id": 47718,
            "original_name": "Clive James on Television",
            "popularity": 0.6
        },
        {
            "id": 48475,
            "original_name": "The Commonwealth Games 2002",
            "popularity": 0.6
        },
        {
            "id": 48684,
            "original_name": "The Smurfic Games",
            "popularity": 0.6
        },
        {
            "id": 49109,
            "original_name": "Der Gameshow-Marathon",
            "popularity": 1.34
        },
        {
            "id": 50235,
            "original_name": "Ali James Bon",
            "popularity": 0.6
        },
        {
            "id": 50487,
            "original_name": "Badminton Live SEA Games 2011",
            "popularity": 0.6
        },
        {
            "id": 50765,
            "original_name": "James Michener's Dynasty",
            "popularity": 0.6
        },
        {
            "id": 51170,
            "original_name": "Mind Games",
            "popularity": 3.868
        },
        {
            "id": 51295,
            "original_name": "Gilgamesh Night",
            "popularity": 0.6
        },
        {
            "id": 52174,
            "original_name": "The Legend of Hundred Family Surnames",
            "popularity": 0.6
        },
        {
            "id": 52353,
            "original_name": "Iroes anamesa mas",
            "popularity": 0.6
        },
        {
            "id": 53248,
            "original_name": "Thames Television The Life and Times of Lord Mountbatten",
            "popularity": 0.6
        },
        {
            "id": 53394,
            "original_name": "The American Film Institute Salute to James Cagney",
            "popularity": 0.6
        },
        {
            "id": 54315,
            "original_name": "Brain Games",
            "popularity": 8.94
        },
        {
            "id": 54590,
            "original_name": "Billy T James - The Legend The Man The Cuz",
            "popularity": 0.6
        },
        {
            "id": 55191,
            "original_name": "The NFL Games",
            "popularity": 0.6
        },
        {
            "id": 55359,
            "original_name": "Operation Hospital Food with James Martin",
            "popularity": 0.6
        },
        {
            "id": 55366,
            "original_name": "Jesse James: Outlaw Garage",
            "popularity": 0.665
        },
        {
            "id": 56097,
            "original_name": "Ala Hamesh al Sirah",
            "popularity": 0.6
        },
        {
            "id": 56313,
            "original_name": "London 2012: Games of the XXX Olympiad",
            "popularity": 1.744
        },
        {
            "id": 56904,
            "original_name": "2006 BMX Games",
            "popularity": 0.6
        },
        {
            "id": 56991,
            "original_name": "BMX Games 2007",
            "popularity": 0.6
        },
        {
            "id": 57331,
            "original_name": "World's Toughest Expeditions with James Cracknell",
            "popularity": 0.624
        },
        {
            "id": 57401,
            "original_name": "Tropes vs. Women in Video Games",
            "popularity": 1.494
        },
        {
            "id": 57409,
            "original_name": "James & Mike Mondays",
            "popularity": 1.579
        },
        {
            "id": 58168,
            "original_name": "Power Games: The Packer-Murdoch Story",
            "popularity": 0.972
        },
        {
            "id": 58910,
            "original_name": "XIX Commonwealth Games 2010 Delhi",
            "popularity": 0.6
        },
        {
            "id": 59289,
            "original_name": "Repo Games",
            "popularity": 0.6
        },
        {
            "id": 59606,
            "original_name": "James Nesbitt's Ireland",
            "popularity": 0.6
        },
        {
            "id": 59814,
            "original_name": "James Martin's Food Map Of Britain",
            "popularity": 0.845
        },
        {
            "id": 60203,
            "original_name": "The Games of the XXVII Olympiad",
            "popularity": 0.6
        },
        {
            "id": 60463,
            "original_name": "1994 Commonwealth Games",
            "popularity": 0.6
        },
        {
            "id": 60525,
            "original_name": "Torino 2006 - the Olympic Winter Games on CBC (Olympic Prime Time)",
            "popularity": 0.6
        },
        {
            "id": 60718,
            "original_name": "Board James",
            "popularity": 2.227
        },
        {
            "id": 61285,
            "original_name": "James May's Cars of the People",
            "popularity": 1.825
        },
        {
            "id": 62223,
            "original_name": "The Late Late Show with James Corden",
            "popularity": 39.479
        },
        {
            "id": 62295,
            "original_name": "Goedenavond dames en heren",
            "popularity": 0.835
        },
        {
            "id": 62595,
            "original_name": "Guy's Grocery Games",
            "popularity": 5.982
        },
        {
            "id": 65156,
            "original_name": "Futurescape with James Woods",
            "popularity": 1.173
        },
        {
            "id": 69340,
            "original_name": "James May: The Reassembler",
            "popularity": 1.261
        },
        {
            "id": 70731,
            "original_name": "Katherine Mills: Mind Games",
            "popularity": 0.6
        },
        {
            "id": 71391,
            "original_name": "Jamestown",
            "popularity": 10.611
        },
        {
            "id": 72221,
            "original_name": "Red Flames",
            "popularity": 0.6
        },
        {
            "id": 72558,
            "original_name": "Hood Adjacent with James Davis",
            "popularity": 0.63
        },
        {
            "id": 72840,
            "original_name": "Die Prosieben Gameshow Konferenz",
            "popularity": 0.638
        },
        {
            "id": 72891,
            "original_name": "Dessert Games",
            "popularity": 0.6
        },
        {
            "id": 73044,
            "original_name": "Les Dames",
            "popularity": 1.611
        },
        {
            "id": 74391,
            "original_name": "James Martin's Saturday Morning",
            "popularity": 0.6
        },
        {
            "id": 75183,
            "original_name": "La Chambre des dames",
            "popularity": 0.879
        },
        {
            "id": 75624,
            "original_name": "Dan And Phil Games",
            "popularity": 0.6
        },
        {
            "id": 76048,
            "original_name": "Ellen's Game of Games",
            "popularity": 3.248
        },
        {
            "id": 76369,
            "original_name": "FLAMES",
            "popularity": 2.099
        },
        {
            "id": 76555,
            "original_name": "James Patterson's Murder is Forever",
            "popularity": 2.199
        },
        {
            "id": 77093,
            "original_name": "The Bachelor Winter Games",
            "popularity": 0.6
        },
        {
            "id": 77257,
            "original_name": "Les dames de la c\u00f4te",
            "popularity": 1.311
        },
        {
            "id": 78165,
            "original_name": "James Nesbitt: Disasters That Changed Britain",
            "popularity": 0.6
        },
        {
            "id": 78319,
            "original_name": "James Acaster: Repertoire",
            "popularity": 1.489
        },
        {
            "id": 78505,
            "original_name": "NFL Films - The NFL's Greatest Games",
            "popularity": 0.6
        },
        {
            "id": 78811,
            "original_name": "#WarGames",
            "popularity": 0.602
        },
        {
            "id": 79003,
            "original_name": "James Cameron's Story of Science Fiction",
            "popularity": 6.38
        },
        {
            "id": 79308,
            "original_name": "The Great Rameses: New Evidence Revealed",
            "popularity": 0.6
        },
        {
            "id": 79352,
            "original_name": "Sacred Games",
            "popularity": 12.694
        },
        {
            "id": 79427,
            "original_name": "2018 Commonwealth Games",
            "popularity": 0.6
        },
        {
            "id": 79894,
            "original_name": "James Martin's American Adventure",
            "popularity": 0.6
        },
        {
            "id": 80276,
            "original_name": "Crash Course Games",
            "popularity": 0.6
        },
        {
            "id": 84474,
            "original_name": "James and Jupp",
            "popularity": 0.6
        },
        {
            "id": 85044,
            "original_name": "Unlocked: The World of Games, Revealed",
            "popularity": 2.001
        },
        {
            "id": 85487,
            "original_name": "The Titan Games",
            "popularity": 4.895
        },
        {
            "id": 86008,
            "original_name": "James May: Building cars live",
            "popularity": 0.6
        },
        {
            "id": 86026,
            "original_name": "Mind Games",
            "popularity": 0.842
        },
        {
            "id": 86251,
            "original_name": "Thames Shipwrecks: A Race Against Time",
            "popularity": 0.842
        },
        {
            "id": 87041,
            "original_name": "James Martin's Great British Adventure",
            "popularity": 0.6
        },
        {
            "id": 87141,
            "original_name": "The Hangover Games",
            "popularity": 0.6
        },
        {
            "id": 87229,
            "original_name": "James May's Big Trouble in Model Britain",
            "popularity": 0.663
        },
        {
            "id": 87528,
            "original_name": "JablinskiGames",
            "popularity": 0.86
        },
        {
            "id": 88241,
            "original_name": "GameStar - Die Redaktion",
            "popularity": 0.6
        },
        {
            "id": 88242,
            "original_name": "Raumschiff GameStar",
            "popularity": 0.6
        },
        {
            "id": 88770,
            "original_name": "Games People Play",
            "popularity": 27.197
        },
        {
            "id": 89707,
            "original_name": "Infames",
            "popularity": 6.734
        },
        {
            "id": 90258,
            "original_name": "The Family Brain Games",
            "popularity": 0.657
        },
        {
            "id": 90603,
            "original_name": "Jeu de Dames",
            "popularity": 0.866
        },
        {
            "id": 96723,
            "original_name": "James May: Our Man In Japan",
            "popularity": 5.963
        },
        {
            "id": 97480,
            "original_name": "Spy Games",
            "popularity": 1.597
        },
        {
            "id": 97520,
            "original_name": "Clive James in Japan",
            "popularity": 0.6
        },
        {
            "id": 97729,
            "original_name": "Elis James - Cic Lan yr Archif",
            "popularity": 0.6
        },
        {
            "id": 98285,
            "original_name": "The Thames: Britain's Great River with Tony Robinson",
            "popularity": 1.14
        },
        {
            "id": 99593,
            "original_name": "James Martin Digs Deep",
            "popularity": 0.6
        },
        {
            "id": 100904,
            "original_name": "Eurogames",
            "popularity": 0.6
        },
        {
            "id": 102193,
            "original_name": "James Martin's Islands to Highlands",
            "popularity": 0.6
        },
        {
            "id": 103067,
            "original_name": "Instant Influencer with James Charles",
            "popularity": 1.024
        },
        {
            "id": 103960,
            "original_name": "Richard Osman's House of Games",
            "popularity": 424.854
        },
        {
            "id": 104149,
            "original_name": "Alan Carr\u2019s Epic Gameshow",
            "popularity": 0.84
        },
        {
            "id": 104270,
            "original_name": "Empire Games",
            "popularity": 0.6
        },
        {
            "id": 105724,
            "original_name": "Destravado: Hist\u00f3rias dos Videogames no Brasil",
            "popularity": 0.6
        },
        {
            "id": 106694,
            "original_name": "James May: Oh Cook!",
            "popularity": 8.405
        },
        {
            "id": 111892,
            "original_name": "NBC GIGA Games",
            "popularity": 0.6
        },
        {
            "id": 113310,
            "original_name": "Truck Games",
            "popularity": 0.6
        },
        {
            "id": 114054,
            "original_name": "Richard Osman's House of Games Night",
            "popularity": 2.742
        },
        {
            "id": 114341,
            "original_name": "Beer and Board Games",
            "popularity": 1.149
        },
        {
            "id": 114595,
            "original_name": "James Cook, l'explorateur du Pacifique",
            "popularity": 0.6
        },
        {
            "id": 114882,
            "original_name": "Nouvelles d'Henry James",
            "popularity": 2.013
        },
        {
            "id": 116895,
            "original_name": "James Patterson's Till Murder Do Us Part",
            "popularity": 0.6
        },
        {
            "id": 117663,
            "original_name": "James May's Build a Car in 24 Hours",
            "popularity": 1.135
        },
        {
            "id": 118542,
            "original_name": "Reset: The Unauthorized Guide To Video Games",
            "popularity": 0.6
        },
        {
            "id": 118825,
            "original_name": "90 Day Fianc\u00e9: Love Games",
            "popularity": 0.992
        },
        {
            "id": 119478,
            "original_name": "Game Of Games (AU)",
            "popularity": 0.606
        },
        {
            "id": 120433,
            "original_name": "Head Games",
            "popularity": 0.6
        },
        {
            "id": 120665,
            "original_name": "Lost Boy: Killing of James Bulger",
            "popularity": 0.6
        },
        {
            "id": 125985,
            "original_name": "Brain Games On The Road",
            "popularity": 0.84
        },
        {
            "id": 126013,
            "original_name": "Europamestrene",
            "popularity": 0.893
        },
        {
            "id": 127268,
            "original_name": "The Almost Impossible Gameshow",
            "popularity": 0.878
        },
        {
            "id": 127539,
            "original_name": "Elis James: Football Nation",
            "popularity": 0.714
        },
        {
            "id": 130005,
            "original_name": "Oceans Apart: Art and the Pacific with James Fox",
            "popularity": 0.6
        },
        {
            "id": 130767,
            "original_name": "Heroes of the Ancient Olympic Games",
            "popularity": 0.6
        },
        {
            "id": 131495,
            "original_name": "James, De Musical",
            "popularity": 40.43
        },
        {
            "id": 131591,
            "original_name": "Netflix Reality Games",
            "popularity": 0.631
        },
        {
            "id": 131597,
            "original_name": "Crash Games \u2013 Jeder Sturz z\u00e4hlt!",
            "popularity": 0.6
        },
        {
            "id": 131831,
            "original_name": "James Martin's French Adventure",
            "popularity": 0.6
        },
        {
            "id": 131832,
            "original_name": "James Martin: Home Comforts",
            "popularity": 0.6
        },
        {
            "id": 132053,
            "original_name": "Games Britannia",
            "popularity": 0.6
        },
        {
            "id": 132295,
            "original_name": "MLB's 20 Greatest Games",
            "popularity": 0.6
        },
        {
            "id": 132430,
            "original_name": "The Balkans in Flames",
            "popularity": 0.6
        },
        {
            "id": 136972,
            "original_name": "Clive James' Postcard from",
            "popularity": 0.6
        },
        {
            "id": 138178,
            "original_name": "Des dames de c\u0153ur",
            "popularity": 0.6
        },
        {
            "id": 139598,
            "original_name": "GamesMaster",
            "popularity": 29.539
        },
        {
            "id": 139706,
            "original_name": "Thames At Night With Tony Robinson",
            "popularity": 2.194
        }
    ],
    "relations": [
        {
            "character": "amesh"
        },
        {
            "character": "amesm"
        },
        {
            "character": "amesf"
        },
        {
            "character": "amese"
        },
        {
            "character": "amesp"
        },
        {
            "character": "ames!"
        },
        {
            "character": "amesw"
        },
        {
            "character": "amesa"
        },
        {
            "character": "amest"
        }
    ],
    "top20": [
        {
            "id": 103960,
            "original_name": "Richard Osman's House of Games",
            "popularity": 424.854
        },
        {
            "id": 131495,
            "original_name": "James, De Musical",
            "popularity": 40.43
        },
        {
            "id": 62223,
            "original_name": "The Late Late Show with James Corden",
            "popularity": 39.479
        },
        {
            "id": 139598,
            "original_name": "GamesMaster",
            "popularity": 29.539
        },
        {
            "id": 88770,
            "original_name": "Games People Play",
            "popularity": 27.197
        },
        {
            "id": 8302,
            "original_name": "James Gunn's PG Porn",
            "popularity": 14.622
        },
        {
            "id": 79352,
            "original_name": "Sacred Games",
            "popularity": 12.694
        },
        {
            "id": 71391,
            "original_name": "Jamestown",
            "popularity": 10.611
        },
        {
            "id": 54315,
            "original_name": "Brain Games",
            "popularity": 8.94
        },
        {
            "id": 106694,
            "original_name": "James May: Oh Cook!",
            "popularity": 8.405
        },
        {
            "id": 89707,
            "original_name": "Infames",
            "popularity": 6.734
        },
        {
            "id": 79003,
            "original_name": "James Cameron's Story of Science Fiction",
            "popularity": 6.38
        },
        {
            "id": 62595,
            "original_name": "Guy's Grocery Games",
            "popularity": 5.982
        },
        {
            "id": 96723,
            "original_name": "James May: Our Man In Japan",
            "popularity": 5.963
        },
        {
            "id": 12763,
            "original_name": "Disney Channel Games 2006",
            "popularity": 5.769
        },
        {
            "id": 3212,
            "original_name": "GamesMaster",
            "popularity": 5.465
        },
        {
            "id": 85487,
            "original_name": "The Titan Games",
            "popularity": 4.895
        },
        {
            "id": 35104,
            "original_name": "Sagwa The Chinese Siamese Cat",
            "popularity": 4.344
        },
        {
            "id": 51170,
            "original_name": "Mind Games",
            "popularity": 3.868
        },
        {
            "id": 26107,
            "original_name": "Gilgamesh",
            "popularity": 3.857
        }
    ]
}