{
    "data": [
        {
            "id": 85033,
            "original_name": "Die Pyramide",
            "popularity": 5.011
        },
        {
            "id": 96469,
            "original_name": "Pyramides: Les Myst\u00e8res R\u00e9v\u00e9l\u00e9s",
            "popularity": 0.6
        },
        {
            "id": 101886,
            "original_name": "Los secretos de la gran piramide",
            "popularity": 0.6
        },
        {
            "id": 124783,
            "original_name": "V\u00e4rldens Historia: Pyramidernas Hemligheter",
            "popularity": 0.6
        },
        {
            "id": 127936,
            "original_name": "La Re\u0301ve\u0301lation des Pyramides",
            "popularity": 0.6
        },
        {
            "id": 133061,
            "original_name": "Les secrets des b\u00e2tisseurs de pyramides",
            "popularity": 0.6
        }
    ],
    "relations": [],
    "top20": [
        {
            "id": 85033,
            "original_name": "Die Pyramide",
            "popularity": 5.011
        },
        {
            "id": 96469,
            "original_name": "Pyramides: Les Myst\u00e8res R\u00e9v\u00e9l\u00e9s",
            "popularity": 0.6
        },
        {
            "id": 101886,
            "original_name": "Los secretos de la gran piramide",
            "popularity": 0.6
        },
        {
            "id": 124783,
            "original_name": "V\u00e4rldens Historia: Pyramidernas Hemligheter",
            "popularity": 0.6
        },
        {
            "id": 127936,
            "original_name": "La Re\u0301ve\u0301lation des Pyramides",
            "popularity": 0.6
        },
        {
            "id": 133061,
            "original_name": "Les secrets des b\u00e2tisseurs de pyramides",
            "popularity": 0.6
        }
    ]
}