{
    "data": [
        {
            "id": 57741,
            "original_name": "Jokamiehen kymppitonni",
            "popularity": 0.6
        },
        {
            "id": 138371,
            "original_name": "Napamiehet",
            "popularity": 0.6
        }
    ],
    "relations": [],
    "top20": [
        {
            "id": 57741,
            "original_name": "Jokamiehen kymppitonni",
            "popularity": 0.6
        },
        {
            "id": 138371,
            "original_name": "Napamiehet",
            "popularity": 0.6
        }
    ]
}