{
    "data": [
        {
            "id": 26795,
            "original_name": "Hammered with John & Jimmy DiResta",
            "popularity": 0.6
        }
    ],
    "relations": [],
    "top20": [
        {
            "id": 26795,
            "original_name": "Hammered with John & Jimmy DiResta",
            "popularity": 0.6
        }
    ]
}