{
    "data": [
        {
            "id": 27441,
            "original_name": "The Return of the Psammead",
            "popularity": 0.6
        }
    ],
    "relations": [],
    "top20": [
        {
            "id": 27441,
            "original_name": "The Return of the Psammead",
            "popularity": 0.6
        }
    ]
}