{
    "data": [
        {
            "id": 69820,
            "original_name": "GRANBLUE FANTASY The Animation",
            "popularity": 17.323
        }
    ],
    "relations": [],
    "top20": [
        {
            "id": 69820,
            "original_name": "GRANBLUE FANTASY The Animation",
            "popularity": 17.323
        }
    ]
}