{
    "data": [
        {
            "id": 75367,
            "original_name": "The Heroic Quest of the Valiant Prince Ivandoe",
            "popularity": 1.4
        }
    ],
    "relations": [],
    "top20": [
        {
            "id": 75367,
            "original_name": "The Heroic Quest of the Valiant Prince Ivandoe",
            "popularity": 1.4
        }
    ]
}