{
    "data": [
        {
            "id": 20012,
            "original_name": "Grandpa's Garden",
            "popularity": 0.6
        },
        {
            "id": 21204,
            "original_name": "Grandpa in My Pocket",
            "popularity": 1.719
        },
        {
            "id": 26603,
            "original_name": "Grandpa Goes to Washington",
            "popularity": 3.255
        },
        {
            "id": 29295,
            "original_name": "The Grandparent Diaries",
            "popularity": 0.6
        },
        {
            "id": 36522,
            "original_name": "Brandpunt",
            "popularity": 0.954
        },
        {
            "id": 47035,
            "original_name": "Uncle Grandpa",
            "popularity": 10.953
        },
        {
            "id": 48795,
            "original_name": "Grandpa, Will You Run with Me?",
            "popularity": 0.6
        },
        {
            "id": 57709,
            "original_name": "25-year-old Grandpa",
            "popularity": 0.6
        },
        {
            "id": 96682,
            "original_name": "My Grandparents' War",
            "popularity": 1.104
        },
        {
            "id": 97663,
            "original_name": "Grandpa's gallery",
            "popularity": 0.6
        },
        {
            "id": 104727,
            "original_name": "NZZ Standpunkte",
            "popularity": 1.415
        }
    ],
    "relations": [],
    "top20": [
        {
            "id": 20012,
            "original_name": "Grandpa's Garden",
            "popularity": 0.6
        },
        {
            "id": 21204,
            "original_name": "Grandpa in My Pocket",
            "popularity": 1.719
        },
        {
            "id": 26603,
            "original_name": "Grandpa Goes to Washington",
            "popularity": 3.255
        },
        {
            "id": 29295,
            "original_name": "The Grandparent Diaries",
            "popularity": 0.6
        },
        {
            "id": 36522,
            "original_name": "Brandpunt",
            "popularity": 0.954
        },
        {
            "id": 47035,
            "original_name": "Uncle Grandpa",
            "popularity": 10.953
        },
        {
            "id": 48795,
            "original_name": "Grandpa, Will You Run with Me?",
            "popularity": 0.6
        },
        {
            "id": 57709,
            "original_name": "25-year-old Grandpa",
            "popularity": 0.6
        },
        {
            "id": 96682,
            "original_name": "My Grandparents' War",
            "popularity": 1.104
        },
        {
            "id": 97663,
            "original_name": "Grandpa's gallery",
            "popularity": 0.6
        },
        {
            "id": 104727,
            "original_name": "NZZ Standpunkte",
            "popularity": 1.415
        }
    ]
}