{
    "data": [
        {
            "id": 1589,
            "original_name": "Mandrake",
            "popularity": 1.96
        },
        {
            "id": 6396,
            "original_name": "Kassandra",
            "popularity": 3.044
        },
        {
            "id": 8133,
            "original_name": "Chandrakanta",
            "popularity": 0.6
        },
        {
            "id": 14013,
            "original_name": "Andra Avenyn",
            "popularity": 4.574
        },
        {
            "id": 26437,
            "original_name": "Horse People With Alexandra Tolstoy",
            "popularity": 0.6
        },
        {
            "id": 28116,
            "original_name": "Semi-Homemade Cooking with Sandra Lee",
            "popularity": 0.6
        },
        {
            "id": 28118,
            "original_name": "Andra",
            "popularity": 0.6
        },
        {
            "id": 28206,
            "original_name": "Sandra's Money Saving Menus",
            "popularity": 0.6
        },
        {
            "id": 28717,
            "original_name": "Queer Edge with Jack E. Jett & Sandra Bernhard",
            "popularity": 0.6
        },
        {
            "id": 31158,
            "original_name": "Sandra, detective de cuentos",
            "popularity": 1.171
        },
        {
            "id": 36685,
            "original_name": "Kalandra Fal!",
            "popularity": 0.6
        },
        {
            "id": 39364,
            "original_name": "Chandragupta Maurya",
            "popularity": 0.6
        },
        {
            "id": 39594,
            "original_name": "Kahani Chandrakanta Ki",
            "popularity": 0.6
        },
        {
            "id": 42243,
            "original_name": "Andra",
            "popularity": 0.6
        },
        {
            "id": 43732,
            "original_name": "Vermisst - Alexandra Walch, 17",
            "popularity": 0.6
        },
        {
            "id": 50322,
            "original_name": "Andra Cari Cinta",
            "popularity": 0.6
        },
        {
            "id": 52126,
            "original_name": "Sandra's Restaurant Remakes",
            "popularity": 0.6
        },
        {
            "id": 55519,
            "original_name": "Sandra Lee's Taverns, Lounges and Clubs",
            "popularity": 0.6
        },
        {
            "id": 58246,
            "original_name": "Cassandra: Warrior Angel",
            "popularity": 0.6
        },
        {
            "id": 60409,
            "original_name": "El Enemigo de Sandra",
            "popularity": 0.6
        },
        {
            "id": 67162,
            "original_name": "Den Andra Sporten",
            "popularity": 0.6
        },
        {
            "id": 69390,
            "original_name": "Saraswatichandra",
            "popularity": 4.332
        },
        {
            "id": 70290,
            "original_name": "Cassandra French's Finishing School",
            "popularity": 1.264
        },
        {
            "id": 72412,
            "original_name": "Chandra Nandini",
            "popularity": 7.581
        },
        {
            "id": 75308,
            "original_name": "Chandrakanta",
            "popularity": 1.224
        },
        {
            "id": 78834,
            "original_name": "Alexandra Ehle",
            "popularity": 2.472
        },
        {
            "id": 79806,
            "original_name": "Nicholas and Alexandra",
            "popularity": 1.4
        },
        {
            "id": 82399,
            "original_name": "Chandra Levy: An American Murder Mystery",
            "popularity": 1.4
        },
        {
            "id": 83985,
            "original_name": "Chandragupta Maurya",
            "popularity": 0.84
        },
        {
            "id": 84190,
            "original_name": "Chandragupta Maurya",
            "popularity": 0.6
        },
        {
            "id": 88852,
            "original_name": "El Secreto de Alejandra",
            "popularity": 2.085
        },
        {
            "id": 99000,
            "original_name": "Sagan om den snarkande T\u00f6rnrosa och 14 andra \u00e4lskade sagor",
            "popularity": 0.6
        },
        {
            "id": 100768,
            "original_name": "Andra \u00e5ket",
            "popularity": 0.626
        },
        {
            "id": 103295,
            "original_name": "Malandragem Ninja",
            "popularity": 0.6
        },
        {
            "id": 104284,
            "original_name": "The Sandra West Diaries",
            "popularity": 0.6
        },
        {
            "id": 129905,
            "original_name": "Unknown Amazon with Pedro Andrade",
            "popularity": 0.668
        },
        {
            "id": 135409,
            "original_name": "Sandra, princesse rebelle",
            "popularity": 0.6
        }
    ],
    "relations": [
        {
            "character": "andrak"
        },
        {
            "character": "andrag"
        },
        {
            "character": "andrad"
        }
    ],
    "top20": [
        {
            "id": 72412,
            "original_name": "Chandra Nandini",
            "popularity": 7.581
        },
        {
            "id": 14013,
            "original_name": "Andra Avenyn",
            "popularity": 4.574
        },
        {
            "id": 69390,
            "original_name": "Saraswatichandra",
            "popularity": 4.332
        },
        {
            "id": 6396,
            "original_name": "Kassandra",
            "popularity": 3.044
        },
        {
            "id": 78834,
            "original_name": "Alexandra Ehle",
            "popularity": 2.472
        },
        {
            "id": 88852,
            "original_name": "El Secreto de Alejandra",
            "popularity": 2.085
        },
        {
            "id": 1589,
            "original_name": "Mandrake",
            "popularity": 1.96
        },
        {
            "id": 79806,
            "original_name": "Nicholas and Alexandra",
            "popularity": 1.4
        },
        {
            "id": 82399,
            "original_name": "Chandra Levy: An American Murder Mystery",
            "popularity": 1.4
        },
        {
            "id": 70290,
            "original_name": "Cassandra French's Finishing School",
            "popularity": 1.264
        },
        {
            "id": 75308,
            "original_name": "Chandrakanta",
            "popularity": 1.224
        },
        {
            "id": 31158,
            "original_name": "Sandra, detective de cuentos",
            "popularity": 1.171
        },
        {
            "id": 83985,
            "original_name": "Chandragupta Maurya",
            "popularity": 0.84
        },
        {
            "id": 129905,
            "original_name": "Unknown Amazon with Pedro Andrade",
            "popularity": 0.668
        },
        {
            "id": 100768,
            "original_name": "Andra \u00e5ket",
            "popularity": 0.626
        },
        {
            "id": 28206,
            "original_name": "Sandra's Money Saving Menus",
            "popularity": 0.6
        },
        {
            "id": 8133,
            "original_name": "Chandrakanta",
            "popularity": 0.6
        },
        {
            "id": 42243,
            "original_name": "Andra",
            "popularity": 0.6
        },
        {
            "id": 28118,
            "original_name": "Andra",
            "popularity": 0.6
        },
        {
            "id": 26437,
            "original_name": "Horse People With Alexandra Tolstoy",
            "popularity": 0.6
        }
    ]
}