{
    "data": [
        {
            "id": 12056,
            "original_name": "Landscape of Geometry",
            "popularity": 0.6
        },
        {
            "id": 25172,
            "original_name": "Weekend Landscaping",
            "popularity": 0.6
        },
        {
            "id": 25237,
            "original_name": "Landscape Smart",
            "popularity": 0.6
        },
        {
            "id": 28875,
            "original_name": "Desperate Landscapes",
            "popularity": 1.093
        },
        {
            "id": 29840,
            "original_name": "Landscape With Figures",
            "popularity": 0.6
        },
        {
            "id": 30139,
            "original_name": "Landscapers' Challenge",
            "popularity": 1.13
        },
        {
            "id": 30143,
            "original_name": "Landscape Solutions",
            "popularity": 0.6
        },
        {
            "id": 33358,
            "original_name": "Man in a Landscape",
            "popularity": 0.6
        },
        {
            "id": 35139,
            "original_name": "The Landscape Man",
            "popularity": 0.664
        },
        {
            "id": 35213,
            "original_name": "Blott on the Landscape",
            "popularity": 2.052
        },
        {
            "id": 36433,
            "original_name": "10 Best Desperate Landscapes",
            "popularity": 0.6
        },
        {
            "id": 38090,
            "original_name": "Making Scotland's Landscape",
            "popularity": 0.6
        },
        {
            "id": 45396,
            "original_name": "Landscapes Through Time with David Dunlop",
            "popularity": 0.6
        },
        {
            "id": 48492,
            "original_name": "A Day in the Country: Impressionism and the French Landscape",
            "popularity": 0.6
        },
        {
            "id": 50874,
            "original_name": "Secrets Of The Irish Landscape",
            "popularity": 0.6
        },
        {
            "id": 59813,
            "original_name": "Landscape as Muse",
            "popularity": 0.6
        },
        {
            "id": 95394,
            "original_name": "Landscape Artist of the Year",
            "popularity": 2.79
        },
        {
            "id": 103142,
            "original_name": "Landscape Mysteries",
            "popularity": 0.6
        },
        {
            "id": 103586,
            "original_name": "Talking Landscapes",
            "popularity": 0.6
        },
        {
            "id": 113987,
            "original_name": "Landscapers",
            "popularity": 35.349
        },
        {
            "id": 128104,
            "original_name": "Britain's Most Beautiful Landscapes",
            "popularity": 1.07
        },
        {
            "id": 135478,
            "original_name": "The World's Most Beautiful Landscapes",
            "popularity": 0.852
        }
    ],
    "relations": [
        {
            "character": "andscape"
        },
        {
            "character": "andscapi"
        }
    ],
    "top20": [
        {
            "id": 113987,
            "original_name": "Landscapers",
            "popularity": 35.349
        },
        {
            "id": 95394,
            "original_name": "Landscape Artist of the Year",
            "popularity": 2.79
        },
        {
            "id": 35213,
            "original_name": "Blott on the Landscape",
            "popularity": 2.052
        },
        {
            "id": 30139,
            "original_name": "Landscapers' Challenge",
            "popularity": 1.13
        },
        {
            "id": 28875,
            "original_name": "Desperate Landscapes",
            "popularity": 1.093
        },
        {
            "id": 128104,
            "original_name": "Britain's Most Beautiful Landscapes",
            "popularity": 1.07
        },
        {
            "id": 135478,
            "original_name": "The World's Most Beautiful Landscapes",
            "popularity": 0.852
        },
        {
            "id": 35139,
            "original_name": "The Landscape Man",
            "popularity": 0.664
        },
        {
            "id": 33358,
            "original_name": "Man in a Landscape",
            "popularity": 0.6
        },
        {
            "id": 48492,
            "original_name": "A Day in the Country: Impressionism and the French Landscape",
            "popularity": 0.6
        },
        {
            "id": 59813,
            "original_name": "Landscape as Muse",
            "popularity": 0.6
        },
        {
            "id": 30143,
            "original_name": "Landscape Solutions",
            "popularity": 0.6
        },
        {
            "id": 38090,
            "original_name": "Making Scotland's Landscape",
            "popularity": 0.6
        },
        {
            "id": 12056,
            "original_name": "Landscape of Geometry",
            "popularity": 0.6
        },
        {
            "id": 45396,
            "original_name": "Landscapes Through Time with David Dunlop",
            "popularity": 0.6
        },
        {
            "id": 36433,
            "original_name": "10 Best Desperate Landscapes",
            "popularity": 0.6
        },
        {
            "id": 50874,
            "original_name": "Secrets Of The Irish Landscape",
            "popularity": 0.6
        },
        {
            "id": 25172,
            "original_name": "Weekend Landscaping",
            "popularity": 0.6
        },
        {
            "id": 29840,
            "original_name": "Landscape With Figures",
            "popularity": 0.6
        },
        {
            "id": 25237,
            "original_name": "Landscape Smart",
            "popularity": 0.6
        }
    ]
}