{
    "data": [
        {
            "id": 5555,
            "original_name": "Kkangana",
            "popularity": 0.6
        },
        {
            "id": 12867,
            "original_name": "Meri Doli Tere Angana",
            "popularity": 0.6
        },
        {
            "id": 80863,
            "original_name": "The Misadventures of Romesh Ranganathan",
            "popularity": 1.283
        },
        {
            "id": 89535,
            "original_name": "The Ranganation",
            "popularity": 5.054
        }
    ],
    "relations": [],
    "top20": [
        {
            "id": 5555,
            "original_name": "Kkangana",
            "popularity": 0.6
        },
        {
            "id": 12867,
            "original_name": "Meri Doli Tere Angana",
            "popularity": 0.6
        },
        {
            "id": 80863,
            "original_name": "The Misadventures of Romesh Ranganathan",
            "popularity": 1.283
        },
        {
            "id": 89535,
            "original_name": "The Ranganation",
            "popularity": 5.054
        }
    ]
}