{
    "data": [
        {
            "id": 1107,
            "original_name": "Tittybangbang",
            "popularity": 0.931
        },
        {
            "id": 53746,
            "original_name": "Pangbulle",
            "popularity": 0.877
        },
        {
            "id": 66988,
            "original_name": "Fangbone!",
            "popularity": 2.004
        },
        {
            "id": 78282,
            "original_name": "Annabel Langbein - The Free Range Cook",
            "popularity": 0.724
        },
        {
            "id": 126697,
            "original_name": "Bound Gangbangs",
            "popularity": 0.6
        }
    ],
    "relations": [],
    "top20": [
        {
            "id": 1107,
            "original_name": "Tittybangbang",
            "popularity": 0.931
        },
        {
            "id": 53746,
            "original_name": "Pangbulle",
            "popularity": 0.877
        },
        {
            "id": 66988,
            "original_name": "Fangbone!",
            "popularity": 2.004
        },
        {
            "id": 78282,
            "original_name": "Annabel Langbein - The Free Range Cook",
            "popularity": 0.724
        },
        {
            "id": 126697,
            "original_name": "Bound Gangbangs",
            "popularity": 0.6
        }
    ]
}