{
    "data": [
        {
            "id": 19419,
            "original_name": "Aangename kennismaking",
            "popularity": 0.6
        },
        {
            "id": 22138,
            "original_name": "Spangen",
            "popularity": 1.503
        },
        {
            "id": 36872,
            "original_name": "Gemeentebelangen",
            "popularity": 0.6
        },
        {
            "id": 38781,
            "original_name": "Fangene P\u00e5 Fortet",
            "popularity": 1.244
        },
        {
            "id": 54674,
            "original_name": "Kaos i opgangen",
            "popularity": 0.6
        },
        {
            "id": 61248,
            "original_name": "Das Haus der Schlangen",
            "popularity": 0.6
        },
        {
            "id": 88199,
            "original_name": "CATCH! Die Deutsche Meisterschaft im Fangen",
            "popularity": 0.6
        },
        {
            "id": 96336,
            "original_name": "Fantorangens Jul",
            "popularity": 0.6
        },
        {
            "id": 112758,
            "original_name": "Beruchte Gevangenissen- Ewout in de Cel",
            "popularity": 0.6
        },
        {
            "id": 116411,
            "original_name": "CATCH! Die Deutsche Meisterschaft im Fangen",
            "popularity": 0.6
        },
        {
            "id": 117323,
            "original_name": "Hit med sangen",
            "popularity": 1.495
        },
        {
            "id": 122086,
            "original_name": "Fantorangens verden",
            "popularity": 0.6
        },
        {
            "id": 122092,
            "original_name": "Den lieben langen Tag",
            "popularity": 0.6
        },
        {
            "id": 124594,
            "original_name": "Alloo In de Buitenlandse Gevangenis",
            "popularity": 0.6
        },
        {
            "id": 138535,
            "original_name": "Fangene p\u00e5 Fortet 2021",
            "popularity": 4.991
        },
        {
            "id": 139554,
            "original_name": "Das Gefangenenexperiment",
            "popularity": 5.165
        }
    ],
    "relations": [],
    "top20": [
        {
            "id": 19419,
            "original_name": "Aangename kennismaking",
            "popularity": 0.6
        },
        {
            "id": 22138,
            "original_name": "Spangen",
            "popularity": 1.503
        },
        {
            "id": 36872,
            "original_name": "Gemeentebelangen",
            "popularity": 0.6
        },
        {
            "id": 38781,
            "original_name": "Fangene P\u00e5 Fortet",
            "popularity": 1.244
        },
        {
            "id": 54674,
            "original_name": "Kaos i opgangen",
            "popularity": 0.6
        },
        {
            "id": 61248,
            "original_name": "Das Haus der Schlangen",
            "popularity": 0.6
        },
        {
            "id": 88199,
            "original_name": "CATCH! Die Deutsche Meisterschaft im Fangen",
            "popularity": 0.6
        },
        {
            "id": 96336,
            "original_name": "Fantorangens Jul",
            "popularity": 0.6
        },
        {
            "id": 112758,
            "original_name": "Beruchte Gevangenissen- Ewout in de Cel",
            "popularity": 0.6
        },
        {
            "id": 116411,
            "original_name": "CATCH! Die Deutsche Meisterschaft im Fangen",
            "popularity": 0.6
        },
        {
            "id": 117323,
            "original_name": "Hit med sangen",
            "popularity": 1.495
        },
        {
            "id": 122086,
            "original_name": "Fantorangens verden",
            "popularity": 0.6
        },
        {
            "id": 122092,
            "original_name": "Den lieben langen Tag",
            "popularity": 0.6
        },
        {
            "id": 124594,
            "original_name": "Alloo In de Buitenlandse Gevangenis",
            "popularity": 0.6
        },
        {
            "id": 138535,
            "original_name": "Fangene p\u00e5 Fortet 2021",
            "popularity": 4.991
        },
        {
            "id": 139554,
            "original_name": "Das Gefangenenexperiment",
            "popularity": 5.165
        }
    ]
}