{
    "data": [
        {
            "id": 12070,
            "original_name": "Sanjay Gupta MD",
            "popularity": 0.6
        },
        {
            "id": 61520,
            "original_name": "Sanjay and Craig",
            "popularity": 12.181
        },
        {
            "id": 103579,
            "original_name": "Chasing Life with Dr. Sanjay Gupta",
            "popularity": 0.642
        }
    ],
    "relations": [],
    "top20": [
        {
            "id": 12070,
            "original_name": "Sanjay Gupta MD",
            "popularity": 0.6
        },
        {
            "id": 61520,
            "original_name": "Sanjay and Craig",
            "popularity": 12.181
        },
        {
            "id": 103579,
            "original_name": "Chasing Life with Dr. Sanjay Gupta",
            "popularity": 0.642
        }
    ]
}