{
    "data": [
        {
            "id": 1316,
            "original_name": "Blankety Blanks",
            "popularity": 0.6
        },
        {
            "id": 2156,
            "original_name": "The Tyra Banks Show",
            "popularity": 13.692
        },
        {
            "id": 3444,
            "original_name": "Thanks",
            "popularity": 1.278
        },
        {
            "id": 5730,
            "original_name": "Macy's Thanksgiving Day Parade",
            "popularity": 1.58
        },
        {
            "id": 8846,
            "original_name": "Intergalactic Thanksgiving",
            "popularity": 0.6
        },
        {
            "id": 9208,
            "original_name": "Blankety Blanks",
            "popularity": 0.6
        },
        {
            "id": 10427,
            "original_name": "Blankety Blanks",
            "popularity": 0.623
        },
        {
            "id": 18380,
            "original_name": "Yanks Go Home",
            "popularity": 0.61
        },
        {
            "id": 19449,
            "original_name": "Douglas Fairbanks, Jr., Presents",
            "popularity": 1.512
        },
        {
            "id": 22994,
            "original_name": "At Home with the Eubanks",
            "popularity": 0.6
        },
        {
            "id": 23448,
            "original_name": "40 Greatest Pranks",
            "popularity": 0.654
        },
        {
            "id": 23534,
            "original_name": "40 Greatest Pranks 2",
            "popularity": 0.703
        },
        {
            "id": 24058,
            "original_name": "No Thanks, I'm On A Diet",
            "popularity": 0.6
        },
        {
            "id": 28339,
            "original_name": "The Morwenna Banks Show",
            "popularity": 0.6
        },
        {
            "id": 29123,
            "original_name": "The Steven Banks Show",
            "popularity": 0.62
        },
        {
            "id": 29165,
            "original_name": "B.C.: The First Thanksgiving",
            "popularity": 0.6
        },
        {
            "id": 29657,
            "original_name": "The Thanksgiving That Almost Wasn't",
            "popularity": 0.6
        },
        {
            "id": 33694,
            "original_name": "The Tommy Banks Show",
            "popularity": 0.6
        },
        {
            "id": 37594,
            "original_name": "Arly Hanks",
            "popularity": 0.6
        },
        {
            "id": 38628,
            "original_name": "McDonald's Thanksgiving Parade",
            "popularity": 0.6
        },
        {
            "id": 38658,
            "original_name": "The Thanksgiving Day Parade on CBS",
            "popularity": 0.6
        },
        {
            "id": 38938,
            "original_name": "America's Thanksgiving Parade",
            "popularity": 0.6
        },
        {
            "id": 39233,
            "original_name": "The Blanks Video",
            "popularity": 0.6
        },
        {
            "id": 39682,
            "original_name": "PrankStars",
            "popularity": 0.964
        },
        {
            "id": 40277,
            "original_name": "Nikki and John Pranksters in Love",
            "popularity": 0.6
        },
        {
            "id": 40278,
            "original_name": "At Home With The Eubanks",
            "popularity": 0.6
        },
        {
            "id": 40343,
            "original_name": "The Trivial Pursuits of Arthur Banks",
            "popularity": 0.961
        },
        {
            "id": 40675,
            "original_name": "DCI Banks",
            "popularity": 11.498
        },
        {
            "id": 41697,
            "original_name": "6abc Dunkin' Donuts Thanksgiving Day Parade",
            "popularity": 0.6
        },
        {
            "id": 44696,
            "original_name": "Thanksgiving Live!",
            "popularity": 0.6
        },
        {
            "id": 44896,
            "original_name": "85th Annual Macy's Thanksgiving Day Parade",
            "popularity": 0.6
        },
        {
            "id": 45233,
            "original_name": "84th Annual Macy's Thanksgiving Day Parade",
            "popularity": 0.6
        },
        {
            "id": 45353,
            "original_name": "82nd Annual Macy's Thanksgiving Day Parade",
            "popularity": 0.6
        },
        {
            "id": 45457,
            "original_name": "81st Annual Macy's Thanksgiving Day Parade",
            "popularity": 0.6
        },
        {
            "id": 45506,
            "original_name": "80th Annual Macy's Thanksgiving Day Parade",
            "popularity": 0.6
        },
        {
            "id": 45533,
            "original_name": "78th Annual Macy's Thanksgiving Day Parade",
            "popularity": 0.6
        },
        {
            "id": 45546,
            "original_name": "Macy's Thanksgiving Day Parade",
            "popularity": 0.6
        },
        {
            "id": 45555,
            "original_name": "75th Annual Macy's Thanksgiving Day Parade",
            "popularity": 0.6
        },
        {
            "id": 45864,
            "original_name": "Macy's Thanksgiving Day Parade 1982",
            "popularity": 0.6
        },
        {
            "id": 49366,
            "original_name": "A Walton Thanksgiving Reunion",
            "popularity": 0.6
        },
        {
            "id": 51855,
            "original_name": "86th Annual Macy's Thanksgiving Day Parade",
            "popularity": 0.6
        },
        {
            "id": 53117,
            "original_name": "Graffiti Wars: Banksy Vs. Robbo",
            "popularity": 0.6
        },
        {
            "id": 55938,
            "original_name": "The Thanksgiving Visitor",
            "popularity": 0.6
        },
        {
            "id": 56475,
            "original_name": "CBS All-American Thanksgiving Day Parade",
            "popularity": 0.6
        },
        {
            "id": 56853,
            "original_name": "Thanks For Listening",
            "popularity": 0.6
        },
        {
            "id": 62014,
            "original_name": "Die Koblanks",
            "popularity": 1.34
        },
        {
            "id": 64054,
            "original_name": "Wicked Tuna: Outer Banks",
            "popularity": 3.516
        },
        {
            "id": 76892,
            "original_name": "Bad Banks",
            "popularity": 9.01
        },
        {
            "id": 79215,
            "original_name": "Georgy Pranks",
            "popularity": 0.602
        },
        {
            "id": 83754,
            "original_name": "Ultimate Thanksgiving Challenge",
            "popularity": 0.6
        },
        {
            "id": 84459,
            "original_name": "Chris Webber's Full Court Pranks",
            "popularity": 2.327
        },
        {
            "id": 86986,
            "original_name": "Thanksgiving",
            "popularity": 1.4
        },
        {
            "id": 89052,
            "original_name": "PEK - Pranksters Elite Klub",
            "popularity": 0.617
        },
        {
            "id": 95568,
            "original_name": "Tanks, dans l'Enfer des Combats",
            "popularity": 1.036
        },
        {
            "id": 95951,
            "original_name": "Thanks for the Memories",
            "popularity": 1.851
        },
        {
            "id": 99613,
            "original_name": "Harry Redknapp's Sandbanks Summer",
            "popularity": 0.6
        },
        {
            "id": 100757,
            "original_name": "Outer Banks",
            "popularity": 34.734
        },
        {
            "id": 100986,
            "original_name": "Thanks a Million",
            "popularity": 2.277
        },
        {
            "id": 104968,
            "original_name": "Killer Tanks",
            "popularity": 0.6
        },
        {
            "id": 109621,
            "original_name": "Tanks! - Evolution of a Legend",
            "popularity": 0.6
        },
        {
            "id": 113003,
            "original_name": "Tanks, rois des champs de bataille",
            "popularity": 0.639
        },
        {
            "id": 131854,
            "original_name": "Inglorious Pranksters",
            "popularity": 0.6
        }
    ],
    "relations": [
        {
            "character": "anksg"
        },
        {
            "character": "ankst"
        },
        {
            "character": "anksy"
        },
        {
            "character": "anks!"
        }
    ],
    "top20": [
        {
            "id": 100757,
            "original_name": "Outer Banks",
            "popularity": 34.734
        },
        {
            "id": 2156,
            "original_name": "The Tyra Banks Show",
            "popularity": 13.692
        },
        {
            "id": 40675,
            "original_name": "DCI Banks",
            "popularity": 11.498
        },
        {
            "id": 76892,
            "original_name": "Bad Banks",
            "popularity": 9.01
        },
        {
            "id": 64054,
            "original_name": "Wicked Tuna: Outer Banks",
            "popularity": 3.516
        },
        {
            "id": 84459,
            "original_name": "Chris Webber's Full Court Pranks",
            "popularity": 2.327
        },
        {
            "id": 100986,
            "original_name": "Thanks a Million",
            "popularity": 2.277
        },
        {
            "id": 95951,
            "original_name": "Thanks for the Memories",
            "popularity": 1.851
        },
        {
            "id": 5730,
            "original_name": "Macy's Thanksgiving Day Parade",
            "popularity": 1.58
        },
        {
            "id": 19449,
            "original_name": "Douglas Fairbanks, Jr., Presents",
            "popularity": 1.512
        },
        {
            "id": 86986,
            "original_name": "Thanksgiving",
            "popularity": 1.4
        },
        {
            "id": 62014,
            "original_name": "Die Koblanks",
            "popularity": 1.34
        },
        {
            "id": 3444,
            "original_name": "Thanks",
            "popularity": 1.278
        },
        {
            "id": 95568,
            "original_name": "Tanks, dans l'Enfer des Combats",
            "popularity": 1.036
        },
        {
            "id": 39682,
            "original_name": "PrankStars",
            "popularity": 0.964
        },
        {
            "id": 40343,
            "original_name": "The Trivial Pursuits of Arthur Banks",
            "popularity": 0.961
        },
        {
            "id": 23534,
            "original_name": "40 Greatest Pranks 2",
            "popularity": 0.703
        },
        {
            "id": 23448,
            "original_name": "40 Greatest Pranks",
            "popularity": 0.654
        },
        {
            "id": 113003,
            "original_name": "Tanks, rois des champs de bataille",
            "popularity": 0.639
        },
        {
            "id": 10427,
            "original_name": "Blankety Blanks",
            "popularity": 0.623
        }
    ]
}