{
    "data": [
        {
            "id": 28010,
            "original_name": "Wax Cracks Cannes",
            "popularity": 0.6
        },
        {
            "id": 30173,
            "original_name": "Filmjournaal Cannes",
            "popularity": 0.6
        },
        {
            "id": 52004,
            "original_name": "Hannes und der B\u00fcrgermeister",
            "popularity": 0.937
        },
        {
            "id": 57270,
            "original_name": "The World Against Apartheid: Have You Heard from Johannesburg?",
            "popularity": 0.844
        },
        {
            "id": 63069,
            "original_name": "Die Johannes B. Kerner Show",
            "popularity": 14.84
        },
        {
            "id": 82220,
            "original_name": "Kann es Johannes?",
            "popularity": 0.6
        },
        {
            "id": 82309,
            "original_name": "Johannes -  Eine Familiengeschichte vor hundert Jahren",
            "popularity": 0.84
        },
        {
            "id": 83740,
            "original_name": "Fair handeln - Unterwegs mit Hannes Jaenicke",
            "popularity": 1.4
        },
        {
            "id": 106839,
            "original_name": "Takayuki Yamada's Cannes Film Festival",
            "popularity": 7.436
        },
        {
            "id": 109292,
            "original_name": "Mariannesaken: Vodcast",
            "popularity": 0.6
        },
        {
            "id": 111628,
            "original_name": "Hannes sommer",
            "popularity": 0.6
        },
        {
            "id": 126149,
            "original_name": "The Real Housewives of Johannesburg",
            "popularity": 1.4
        },
        {
            "id": 127677,
            "original_name": "Silas, Johannes og Louise",
            "popularity": 0.6
        },
        {
            "id": 138001,
            "original_name": "Hannes Scharf",
            "popularity": 0.6
        }
    ],
    "relations": [],
    "top20": [
        {
            "id": 28010,
            "original_name": "Wax Cracks Cannes",
            "popularity": 0.6
        },
        {
            "id": 30173,
            "original_name": "Filmjournaal Cannes",
            "popularity": 0.6
        },
        {
            "id": 52004,
            "original_name": "Hannes und der B\u00fcrgermeister",
            "popularity": 0.937
        },
        {
            "id": 57270,
            "original_name": "The World Against Apartheid: Have You Heard from Johannesburg?",
            "popularity": 0.844
        },
        {
            "id": 63069,
            "original_name": "Die Johannes B. Kerner Show",
            "popularity": 14.84
        },
        {
            "id": 82220,
            "original_name": "Kann es Johannes?",
            "popularity": 0.6
        },
        {
            "id": 82309,
            "original_name": "Johannes -  Eine Familiengeschichte vor hundert Jahren",
            "popularity": 0.84
        },
        {
            "id": 83740,
            "original_name": "Fair handeln - Unterwegs mit Hannes Jaenicke",
            "popularity": 1.4
        },
        {
            "id": 106839,
            "original_name": "Takayuki Yamada's Cannes Film Festival",
            "popularity": 7.436
        },
        {
            "id": 109292,
            "original_name": "Mariannesaken: Vodcast",
            "popularity": 0.6
        },
        {
            "id": 111628,
            "original_name": "Hannes sommer",
            "popularity": 0.6
        },
        {
            "id": 126149,
            "original_name": "The Real Housewives of Johannesburg",
            "popularity": 1.4
        },
        {
            "id": 127677,
            "original_name": "Silas, Johannes og Louise",
            "popularity": 0.6
        },
        {
            "id": 138001,
            "original_name": "Hannes Scharf",
            "popularity": 0.6
        }
    ]
}