{
    "data": [
        {
            "id": 8166,
            "original_name": "Breaking Up with Shannen Doherty",
            "popularity": 1.342
        },
        {
            "id": 19135,
            "original_name": "Silvermannen",
            "popularity": 0.6
        },
        {
            "id": 22141,
            "original_name": "Mannen, mannen",
            "popularity": 1.128
        },
        {
            "id": 28298,
            "original_name": "Suzanne en de mannen",
            "popularity": 0.6
        },
        {
            "id": 32682,
            "original_name": "Lasermannen",
            "popularity": 2.524
        },
        {
            "id": 34472,
            "original_name": "Annenberg TV News",
            "popularity": 0.6
        },
        {
            "id": 45607,
            "original_name": "The Bannen Way",
            "popularity": 1.334
        },
        {
            "id": 55307,
            "original_name": "De Klusjesmannen",
            "popularity": 0.6
        },
        {
            "id": 63763,
            "original_name": "Den fj\u00e4rde mannen",
            "popularity": 2.271
        },
        {
            "id": 65828,
            "original_name": "Moerkerke en de mannen",
            "popularity": 0.6
        },
        {
            "id": 69483,
            "original_name": "De mannen van dokter Anne",
            "popularity": 2.085
        },
        {
            "id": 73592,
            "original_name": "Medicinmannen",
            "popularity": 1.212
        },
        {
            "id": 73803,
            "original_name": "Mannen under trappan",
            "popularity": 1.186
        },
        {
            "id": 73828,
            "original_name": "Mannen som log",
            "popularity": 2.024
        },
        {
            "id": 76293,
            "original_name": "De Mannentester",
            "popularity": 0.931
        },
        {
            "id": 82480,
            "original_name": "Voor de mannen",
            "popularity": 0.6
        },
        {
            "id": 83781,
            "original_name": "Zannen na Otto",
            "popularity": 0.6
        },
        {
            "id": 85626,
            "original_name": "Unter Tannen",
            "popularity": 0.6
        },
        {
            "id": 86512,
            "original_name": "Spannende Geschichten",
            "popularity": 0.6
        },
        {
            "id": 88021,
            "original_name": "Stieg Larsson - Mannen som lekte med elden",
            "popularity": 0.6
        },
        {
            "id": 91954,
            "original_name": "Kullamannen",
            "popularity": 0.6
        },
        {
            "id": 97369,
            "original_name": "Mannen som falt",
            "popularity": 0.6
        },
        {
            "id": 112134,
            "original_name": "Pleiten, Pech und Pannen",
            "popularity": 1.208
        },
        {
            "id": 113498,
            "original_name": "Bir Annenin G\u00fcnah\u0131",
            "popularity": 1.262
        },
        {
            "id": 113748,
            "original_name": "Drie mannen onder een dak",
            "popularity": 0.6
        },
        {
            "id": 120275,
            "original_name": "Upps \u2013 Die Superpannenshow",
            "popularity": 0.6
        },
        {
            "id": 123044,
            "original_name": "Jakten p\u00e5 Lasermannen",
            "popularity": 0.6
        },
        {
            "id": 130080,
            "original_name": "S\u00f6dermannen",
            "popularity": 0.6
        },
        {
            "id": 137696,
            "original_name": "Apelsinmannen",
            "popularity": 0.6
        }
    ],
    "relations": [
        {
            "character": "annenb"
        },
        {
            "character": "annent"
        },
        {
            "character": "annend"
        },
        {
            "character": "anneni"
        },
        {
            "character": "annens"
        }
    ],
    "top20": [
        {
            "id": 32682,
            "original_name": "Lasermannen",
            "popularity": 2.524
        },
        {
            "id": 63763,
            "original_name": "Den fj\u00e4rde mannen",
            "popularity": 2.271
        },
        {
            "id": 69483,
            "original_name": "De mannen van dokter Anne",
            "popularity": 2.085
        },
        {
            "id": 73828,
            "original_name": "Mannen som log",
            "popularity": 2.024
        },
        {
            "id": 8166,
            "original_name": "Breaking Up with Shannen Doherty",
            "popularity": 1.342
        },
        {
            "id": 45607,
            "original_name": "The Bannen Way",
            "popularity": 1.334
        },
        {
            "id": 113498,
            "original_name": "Bir Annenin G\u00fcnah\u0131",
            "popularity": 1.262
        },
        {
            "id": 73592,
            "original_name": "Medicinmannen",
            "popularity": 1.212
        },
        {
            "id": 112134,
            "original_name": "Pleiten, Pech und Pannen",
            "popularity": 1.208
        },
        {
            "id": 73803,
            "original_name": "Mannen under trappan",
            "popularity": 1.186
        },
        {
            "id": 22141,
            "original_name": "Mannen, mannen",
            "popularity": 1.128
        },
        {
            "id": 76293,
            "original_name": "De Mannentester",
            "popularity": 0.931
        },
        {
            "id": 82480,
            "original_name": "Voor de mannen",
            "popularity": 0.6
        },
        {
            "id": 19135,
            "original_name": "Silvermannen",
            "popularity": 0.6
        },
        {
            "id": 34472,
            "original_name": "Annenberg TV News",
            "popularity": 0.6
        },
        {
            "id": 85626,
            "original_name": "Unter Tannen",
            "popularity": 0.6
        },
        {
            "id": 55307,
            "original_name": "De Klusjesmannen",
            "popularity": 0.6
        },
        {
            "id": 83781,
            "original_name": "Zannen na Otto",
            "popularity": 0.6
        },
        {
            "id": 28298,
            "original_name": "Suzanne en de mannen",
            "popularity": 0.6
        },
        {
            "id": 65828,
            "original_name": "Moerkerke en de mannen",
            "popularity": 0.6
        }
    ]
}