{
    "data": [
        {
            "id": 49838,
            "original_name": "Begin Japanology",
            "popularity": 1.928
        },
        {
            "id": 73679,
            "original_name": "Japanology Plus",
            "popularity": 5.173
        },
        {
            "id": 81590,
            "original_name": "Metanol",
            "popularity": 2.265
        },
        {
            "id": 81690,
            "original_name": "Manolito Gafotas",
            "popularity": 0.6
        },
        {
            "id": 102709,
            "original_name": "Manolo y Benito Corporeision",
            "popularity": 0.84
        },
        {
            "id": 103466,
            "original_name": "Begin Japanology Mini",
            "popularity": 0.6
        }
    ],
    "relations": [],
    "top20": [
        {
            "id": 49838,
            "original_name": "Begin Japanology",
            "popularity": 1.928
        },
        {
            "id": 73679,
            "original_name": "Japanology Plus",
            "popularity": 5.173
        },
        {
            "id": 81590,
            "original_name": "Metanol",
            "popularity": 2.265
        },
        {
            "id": 81690,
            "original_name": "Manolito Gafotas",
            "popularity": 0.6
        },
        {
            "id": 102709,
            "original_name": "Manolo y Benito Corporeision",
            "popularity": 0.84
        },
        {
            "id": 103466,
            "original_name": "Begin Japanology Mini",
            "popularity": 0.6
        }
    ]
}