{
    "data": [
        {
            "id": 16433,
            "original_name": "Jack and the Beanstalk: The Real Story",
            "popularity": 8.854
        },
        {
            "id": 24284,
            "original_name": "Jacks And The Beanstalk",
            "popularity": 0.6
        },
        {
            "id": 30812,
            "original_name": "Neues aus der Anstalt",
            "popularity": 1.935
        },
        {
            "id": 38614,
            "original_name": "Stansted: The Inside Story",
            "popularity": 0.6
        },
        {
            "id": 43637,
            "original_name": "Anstalten",
            "popularity": 0.623
        },
        {
            "id": 56215,
            "original_name": "Jack and the Beanstalk",
            "popularity": 0.6
        },
        {
            "id": 65343,
            "original_name": "Die Anstalt - Zur\u00fcck ins Leben",
            "popularity": 1.212
        },
        {
            "id": 73860,
            "original_name": "Die Anstalt",
            "popularity": 27.152
        },
        {
            "id": 78785,
            "original_name": "Vyhnanstv\u00ed",
            "popularity": 2.07
        },
        {
            "id": 90005,
            "original_name": "The Goodies and the Beanstalk",
            "popularity": 0.6
        },
        {
            "id": 94564,
            "original_name": "Ant Anstead Master Mechanic",
            "popularity": 0.6
        },
        {
            "id": 121992,
            "original_name": "Cranston",
            "popularity": 4.369
        }
    ],
    "relations": [],
    "top20": [
        {
            "id": 16433,
            "original_name": "Jack and the Beanstalk: The Real Story",
            "popularity": 8.854
        },
        {
            "id": 24284,
            "original_name": "Jacks And The Beanstalk",
            "popularity": 0.6
        },
        {
            "id": 30812,
            "original_name": "Neues aus der Anstalt",
            "popularity": 1.935
        },
        {
            "id": 38614,
            "original_name": "Stansted: The Inside Story",
            "popularity": 0.6
        },
        {
            "id": 43637,
            "original_name": "Anstalten",
            "popularity": 0.623
        },
        {
            "id": 56215,
            "original_name": "Jack and the Beanstalk",
            "popularity": 0.6
        },
        {
            "id": 65343,
            "original_name": "Die Anstalt - Zur\u00fcck ins Leben",
            "popularity": 1.212
        },
        {
            "id": 73860,
            "original_name": "Die Anstalt",
            "popularity": 27.152
        },
        {
            "id": 78785,
            "original_name": "Vyhnanstv\u00ed",
            "popularity": 2.07
        },
        {
            "id": 90005,
            "original_name": "The Goodies and the Beanstalk",
            "popularity": 0.6
        },
        {
            "id": 94564,
            "original_name": "Ant Anstead Master Mechanic",
            "popularity": 0.6
        },
        {
            "id": 121992,
            "original_name": "Cranston",
            "popularity": 4.369
        }
    ]
}