{
    "data": [
        {
            "id": 102408,
            "original_name": "Le voyage fantastique des fr\u00e8res Bogdanov",
            "popularity": 0.6
        },
        {
            "id": 127736,
            "original_name": "Les Aventures Fantastiques du Commandant Cousteau",
            "popularity": 0.841
        }
    ],
    "relations": [],
    "top20": [
        {
            "id": 102408,
            "original_name": "Le voyage fantastique des fr\u00e8res Bogdanov",
            "popularity": 0.6
        },
        {
            "id": 127736,
            "original_name": "Les Aventures Fantastiques du Commandant Cousteau",
            "popularity": 0.841
        }
    ]
}