{
    "data": [
        {
            "id": 120848,
            "original_name": "Qui sait chanter?",
            "popularity": 8.474
        }
    ],
    "relations": [],
    "top20": [
        {
            "id": 120848,
            "original_name": "Qui sait chanter?",
            "popularity": 8.474
        }
    ]
}