{
    "data": [
        {
            "id": 58350,
            "original_name": "The Great Santini Brothers",
            "popularity": 0.6
        },
        {
            "id": 80536,
            "original_name": "Il Sequestro Soffiantini",
            "popularity": 0.6
        }
    ],
    "relations": [],
    "top20": [
        {
            "id": 58350,
            "original_name": "The Great Santini Brothers",
            "popularity": 0.6
        },
        {
            "id": 80536,
            "original_name": "Il Sequestro Soffiantini",
            "popularity": 0.6
        }
    ]
}