{
    "data": [
        {
            "id": 95053,
            "original_name": "Das Tanzb\u00e4renm\u00e4rchen",
            "popularity": 0.6
        }
    ],
    "relations": [],
    "top20": [
        {
            "id": 95053,
            "original_name": "Das Tanzb\u00e4renm\u00e4rchen",
            "popularity": 0.6
        }
    ]
}