{
    "data": [
        {
            "id": 7118,
            "original_name": "Gaby's Xtraordinary Files",
            "popularity": 0.6
        },
        {
            "id": 7737,
            "original_name": "Extraordinary People",
            "popularity": 0.6
        },
        {
            "id": 8657,
            "original_name": "The Extraordinary",
            "popularity": 0.6
        },
        {
            "id": 13267,
            "original_name": "The Amazing Extraordinary Friends",
            "popularity": 0.6
        },
        {
            "id": 13863,
            "original_name": "Extraordinary People",
            "popularity": 0.935
        },
        {
            "id": 27492,
            "original_name": "Captain Cook's Extraordinary Atlas",
            "popularity": 0.6
        },
        {
            "id": 27993,
            "original_name": "Dogs with Extraordinary Jobs",
            "popularity": 0.6
        },
        {
            "id": 28989,
            "original_name": "Extraordinary Animals",
            "popularity": 0.6
        },
        {
            "id": 34466,
            "original_name": "The Legion of Extraordinary Dancers",
            "popularity": 5.863
        },
        {
            "id": 38481,
            "original_name": "Extraordinary Dogs",
            "popularity": 0.6
        },
        {
            "id": 40157,
            "original_name": "The Extraordinary Adventures of Poppy Cat",
            "popularity": 1.192
        },
        {
            "id": 42255,
            "original_name": "Extraordinary Moms",
            "popularity": 0.6
        },
        {
            "id": 44724,
            "original_name": "Orbit: Earth's Extraordinary Journey",
            "popularity": 1.454
        },
        {
            "id": 45560,
            "original_name": "Beyond Tara: The Extraordinary Life of Hattie McDaniel",
            "popularity": 0.6
        },
        {
            "id": 46751,
            "original_name": "Extraordinary Canadians",
            "popularity": 0.6
        },
        {
            "id": 47907,
            "original_name": "Extraordinary",
            "popularity": 0.84
        },
        {
            "id": 71796,
            "original_name": "The World's Most Extraordinary Homes",
            "popularity": 4.099
        },
        {
            "id": 75946,
            "original_name": "Os Extraordin\u00e1rios",
            "popularity": 1.396
        },
        {
            "id": 78429,
            "original_name": "Countdown to Life: The Extraordinary Making of You",
            "popularity": 0.847
        },
        {
            "id": 79653,
            "original_name": "Les p'tites histoires extraordinaire d'Elisabeth de Caligny",
            "popularity": 0.6
        },
        {
            "id": 81885,
            "original_name": "Enqu\u00eates extraordinaires",
            "popularity": 0.6
        },
        {
            "id": 81904,
            "original_name": "Les pouvoirs extraordinaires du corps humain",
            "popularity": 1.363
        },
        {
            "id": 82272,
            "original_name": "Extraordinary Rituals",
            "popularity": 0.646
        },
        {
            "id": 86722,
            "original_name": "Le straordinarie avventure di Jules Verne",
            "popularity": 0.705
        },
        {
            "id": 95941,
            "original_name": "Zoey's Extraordinary Playlist",
            "popularity": 38.623
        },
        {
            "id": 103272,
            "original_name": "Diana: An Extraordinary Life",
            "popularity": 0.6
        },
        {
            "id": 105635,
            "original_name": "Laura, una vida extraordinaria",
            "popularity": 0.6
        },
        {
            "id": 108645,
            "original_name": "My Extraordinary",
            "popularity": 0.84
        },
        {
            "id": 110347,
            "original_name": "London Zoo: An Extraordinary Year",
            "popularity": 0.6
        },
        {
            "id": 122800,
            "original_name": "Extraordinary Women",
            "popularity": 0.6
        },
        {
            "id": 122957,
            "original_name": "Extraordinary Escapes with Sandi Toksvig",
            "popularity": 0.84
        },
        {
            "id": 124516,
            "original_name": "Secrets et Myst\u00e8res du monde : ph\u00e9nom\u00e8nes extraordinaires inexpliqu\u00e9s",
            "popularity": 0.6
        },
        {
            "id": 127843,
            "original_name": "The World's Most Extraordinary People",
            "popularity": 0.6
        },
        {
            "id": 132372,
            "original_name": "Les voyages extraordinaires de Jules Verne",
            "popularity": 0.6
        },
        {
            "id": 133568,
            "original_name": "Experimentos Extraordin\u00e1rios",
            "popularity": 0.6
        },
        {
            "id": 134716,
            "original_name": "Extraordinary Stories Behind Everyday Things",
            "popularity": 0.6
        },
        {
            "id": 136475,
            "original_name": "Extraordinary Extensions",
            "popularity": 4.885
        }
    ],
    "relations": [
        {
            "character": "aordi"
        }
    ],
    "top20": [
        {
            "id": 95941,
            "original_name": "Zoey's Extraordinary Playlist",
            "popularity": 38.623
        },
        {
            "id": 34466,
            "original_name": "The Legion of Extraordinary Dancers",
            "popularity": 5.863
        },
        {
            "id": 136475,
            "original_name": "Extraordinary Extensions",
            "popularity": 4.885
        },
        {
            "id": 71796,
            "original_name": "The World's Most Extraordinary Homes",
            "popularity": 4.099
        },
        {
            "id": 44724,
            "original_name": "Orbit: Earth's Extraordinary Journey",
            "popularity": 1.454
        },
        {
            "id": 75946,
            "original_name": "Os Extraordin\u00e1rios",
            "popularity": 1.396
        },
        {
            "id": 81904,
            "original_name": "Les pouvoirs extraordinaires du corps humain",
            "popularity": 1.363
        },
        {
            "id": 40157,
            "original_name": "The Extraordinary Adventures of Poppy Cat",
            "popularity": 1.192
        },
        {
            "id": 13863,
            "original_name": "Extraordinary People",
            "popularity": 0.935
        },
        {
            "id": 78429,
            "original_name": "Countdown to Life: The Extraordinary Making of You",
            "popularity": 0.847
        },
        {
            "id": 47907,
            "original_name": "Extraordinary",
            "popularity": 0.84
        },
        {
            "id": 122957,
            "original_name": "Extraordinary Escapes with Sandi Toksvig",
            "popularity": 0.84
        },
        {
            "id": 108645,
            "original_name": "My Extraordinary",
            "popularity": 0.84
        },
        {
            "id": 86722,
            "original_name": "Le straordinarie avventure di Jules Verne",
            "popularity": 0.705
        },
        {
            "id": 82272,
            "original_name": "Extraordinary Rituals",
            "popularity": 0.646
        },
        {
            "id": 7737,
            "original_name": "Extraordinary People",
            "popularity": 0.6
        },
        {
            "id": 7118,
            "original_name": "Gaby's Xtraordinary Files",
            "popularity": 0.6
        },
        {
            "id": 8657,
            "original_name": "The Extraordinary",
            "popularity": 0.6
        },
        {
            "id": 13267,
            "original_name": "The Amazing Extraordinary Friends",
            "popularity": 0.6
        },
        {
            "id": 27492,
            "original_name": "Captain Cook's Extraordinary Atlas",
            "popularity": 0.6
        }
    ]
}