{
    "data": [
        {
            "id": 4994,
            "original_name": "Biography",
            "popularity": 7.343
        },
        {
            "id": 6023,
            "original_name": "Chefography",
            "popularity": 0.6
        },
        {
            "id": 6337,
            "original_name": "The Aphrodite Inheritance",
            "popularity": 1.848
        },
        {
            "id": 9702,
            "original_name": "Yankeeography",
            "popularity": 0.6
        },
        {
            "id": 11057,
            "original_name": "Scrapheap Challenge",
            "popularity": 7.53
        },
        {
            "id": 11320,
            "original_name": "Soapography",
            "popularity": 0.6
        },
        {
            "id": 12569,
            "original_name": "NBA Basketballography",
            "popularity": 0.6
        },
        {
            "id": 13306,
            "original_name": "Clapham Junction",
            "popularity": 0.6
        },
        {
            "id": 15929,
            "original_name": "National Geographic: Situation Critical",
            "popularity": 0.6
        },
        {
            "id": 18926,
            "original_name": "Sadat: Action Biography",
            "popularity": 0.6
        },
        {
            "id": 20432,
            "original_name": "Speed Grapher",
            "popularity": 3.847
        },
        {
            "id": 21069,
            "original_name": "Geographically Speaking",
            "popularity": 0.6
        },
        {
            "id": 22382,
            "original_name": "Liography",
            "popularity": 1.4
        },
        {
            "id": 22877,
            "original_name": "Sciography",
            "popularity": 0.859
        },
        {
            "id": 23407,
            "original_name": "The Genius of Photography",
            "popularity": 0.6
        },
        {
            "id": 23536,
            "original_name": "Slaphappy",
            "popularity": 0.6
        },
        {
            "id": 25880,
            "original_name": "A CARography",
            "popularity": 0.6
        },
        {
            "id": 25979,
            "original_name": "True Crime with Aphrodite Jones",
            "popularity": 0.6
        },
        {
            "id": 27842,
            "original_name": "Action Autographs",
            "popularity": 0.6
        },
        {
            "id": 29245,
            "original_name": "Scrapheap Challenge: The Scrappy Races",
            "popularity": 0.6
        },
        {
            "id": 31236,
            "original_name": "Deputy Seraph",
            "popularity": 0.6
        },
        {
            "id": 31792,
            "original_name": "The Haphazard Show",
            "popularity": 0.6
        },
        {
            "id": 32680,
            "original_name": "Photographic Horizons",
            "popularity": 0.6
        },
        {
            "id": 33444,
            "original_name": "Graphic",
            "popularity": 0.6
        },
        {
            "id": 36282,
            "original_name": "Food(ography)",
            "popularity": 0.6
        },
        {
            "id": 36768,
            "original_name": "TVography",
            "popularity": 0.6
        },
        {
            "id": 38501,
            "original_name": "Pornography: The Secret History Of Civilization",
            "popularity": 8.619
        },
        {
            "id": 39853,
            "original_name": "Shadow of Israphel",
            "popularity": 0.6
        },
        {
            "id": 44289,
            "original_name": "National Geographic's Most Incredible Photos",
            "popularity": 0.6
        },
        {
            "id": 47048,
            "original_name": "Epitaph",
            "popularity": 0.6
        },
        {
            "id": 47639,
            "original_name": "Remembrance Day Service: The Cenotaph",
            "popularity": 0.6
        },
        {
            "id": 48220,
            "original_name": "Festival Of Remembrance At Cenotaph",
            "popularity": 0.6
        },
        {
            "id": 48346,
            "original_name": "Geographical Eye Over Europe",
            "popularity": 0.6
        },
        {
            "id": 48849,
            "original_name": "The World's Most Photographed",
            "popularity": 0.6
        },
        {
            "id": 50957,
            "original_name": "The Autobiography of Miss Jane Pittman",
            "popularity": 0.6
        },
        {
            "id": 51495,
            "original_name": "National Geographic Nordic Wild",
            "popularity": 0.6
        },
        {
            "id": 51985,
            "original_name": "Saphai Luk Thung",
            "popularity": 0.6
        },
        {
            "id": 52914,
            "original_name": "Gathering of Mustapha",
            "popularity": 0.6
        },
        {
            "id": 56634,
            "original_name": "AFL on-field Graphics",
            "popularity": 0.6
        },
        {
            "id": 56722,
            "original_name": "Saphai Jaided",
            "popularity": 0.6
        },
        {
            "id": 58357,
            "original_name": "National Geographic: Best of 125 Years",
            "popularity": 0.6
        },
        {
            "id": 63711,
            "original_name": "Der Paragraphenwirt",
            "popularity": 1.461
        },
        {
            "id": 64877,
            "original_name": "Pawnography",
            "popularity": 0.986
        },
        {
            "id": 66947,
            "original_name": "Master of Photography",
            "popularity": 3.305
        },
        {
            "id": 70054,
            "original_name": "American Cinematographers Awards",
            "popularity": 0.6
        },
        {
            "id": 72641,
            "original_name": "Mencintaimu Mr Photographer",
            "popularity": 2.129
        },
        {
            "id": 72965,
            "original_name": "Raphael: una historia de superaci\u00f3n personal",
            "popularity": 0.843
        },
        {
            "id": 77863,
            "original_name": "Beijing: Biography Of An Imperial Capital",
            "popularity": 0.6
        },
        {
            "id": 83606,
            "original_name": "National Geographic Masters of Photography",
            "popularity": 0.6
        },
        {
            "id": 83808,
            "original_name": "National Geographic Extraterrestrial",
            "popularity": 0.6
        },
        {
            "id": 84962,
            "original_name": "Apharan",
            "popularity": 2.71
        },
        {
            "id": 86030,
            "original_name": "Advanced Lighting for Adventure Photography",
            "popularity": 0.6
        },
        {
            "id": 86243,
            "original_name": "\u00c9pitaphe",
            "popularity": 1.117
        },
        {
            "id": 88380,
            "original_name": "100 Photographs: The Most Influential Photographs Of All Time",
            "popularity": 0.6
        },
        {
            "id": 88384,
            "original_name": "Astrid et Rapha\u00eblle",
            "popularity": 16.95
        },
        {
            "id": 88414,
            "original_name": "Elizabeth Smart: Autobiography",
            "popularity": 0.601
        },
        {
            "id": 91227,
            "original_name": "National Geographic: Nature Untamed",
            "popularity": 0.6
        },
        {
            "id": 93144,
            "original_name": "Biography: The Trump Dynasty",
            "popularity": 0.6
        },
        {
            "id": 96086,
            "original_name": "Unauthorized Biographies with Peter Graves",
            "popularity": 0.6
        },
        {
            "id": 97162,
            "original_name": "Biographies: Icons of History",
            "popularity": 0.6
        },
        {
            "id": 97487,
            "original_name": "National Geographic 100 Years",
            "popularity": 0.894
        },
        {
            "id": 98274,
            "original_name": "Le polygraphe",
            "popularity": 0.6
        },
        {
            "id": 100532,
            "original_name": "National Geographic Specials",
            "popularity": 0.6
        },
        {
            "id": 105496,
            "original_name": "National Geographic Making History",
            "popularity": 0.6
        },
        {
            "id": 108145,
            "original_name": "Aphasie, la r\u00e9volte de Dantra",
            "popularity": 0.6
        },
        {
            "id": 110814,
            "original_name": "National Geographic Explorer",
            "popularity": 0.6
        },
        {
            "id": 114021,
            "original_name": "Crash Course Geography",
            "popularity": 2.646
        },
        {
            "id": 115673,
            "original_name": "National Geographic Presents: IMPACT with Gal Gadot",
            "popularity": 4.453
        },
        {
            "id": 116560,
            "original_name": "Auto Biography: Racing Legends",
            "popularity": 0.66
        },
        {
            "id": 117921,
            "original_name": "Les Graphistes",
            "popularity": 0.6
        },
        {
            "id": 119985,
            "original_name": "Biography: WWE Legends",
            "popularity": 2.369
        },
        {
            "id": 120220,
            "original_name": "Earth: The Biography",
            "popularity": 1.4
        },
        {
            "id": 121881,
            "original_name": "Biography: Farrah Fawcett Forever",
            "popularity": 0.6
        },
        {
            "id": 125032,
            "original_name": "National Geographic : Secrets of Wild India",
            "popularity": 0.6
        },
        {
            "id": 125841,
            "original_name": "Klaphat",
            "popularity": 0.6
        },
        {
            "id": 126267,
            "original_name": "Biography: \"Stone Cold\" Steve Austin",
            "popularity": 0.6
        },
        {
            "id": 126740,
            "original_name": "Great British Photography Challenge",
            "popularity": 1.316
        },
        {
            "id": 128310,
            "original_name": "Biography: KISStory",
            "popularity": 1.645
        },
        {
            "id": 128895,
            "original_name": "Auto/Biography: Cold Cases",
            "popularity": 0.6
        },
        {
            "id": 130039,
            "original_name": "Doctors: The History of Scientific Medicine Revealed Through Biography",
            "popularity": 0.6
        },
        {
            "id": 130487,
            "original_name": "Marvi H\u00e4mmer pr\u00e4sentiert National Geographic World",
            "popularity": 0.6
        },
        {
            "id": 130632,
            "original_name": "Britain in Focus: A Photographic History",
            "popularity": 0.6
        },
        {
            "id": 133612,
            "original_name": "Raphaelismo",
            "popularity": 0.6
        },
        {
            "id": 134641,
            "original_name": "Auto/Biography",
            "popularity": 0.6
        },
        {
            "id": 135315,
            "original_name": "Seraphin",
            "popularity": 0.6
        }
    ],
    "relations": [
        {
            "character": "aphy"
        },
        {
            "character": "aphr"
        },
        {
            "character": "aphe"
        },
        {
            "character": "apha"
        },
        {
            "character": "aphi"
        },
        {
            "character": "aphs"
        }
    ],
    "top20": [
        {
            "id": 88384,
            "original_name": "Astrid et Rapha\u00eblle",
            "popularity": 16.95
        },
        {
            "id": 38501,
            "original_name": "Pornography: The Secret History Of Civilization",
            "popularity": 8.619
        },
        {
            "id": 11057,
            "original_name": "Scrapheap Challenge",
            "popularity": 7.53
        },
        {
            "id": 4994,
            "original_name": "Biography",
            "popularity": 7.343
        },
        {
            "id": 115673,
            "original_name": "National Geographic Presents: IMPACT with Gal Gadot",
            "popularity": 4.453
        },
        {
            "id": 20432,
            "original_name": "Speed Grapher",
            "popularity": 3.847
        },
        {
            "id": 66947,
            "original_name": "Master of Photography",
            "popularity": 3.305
        },
        {
            "id": 84962,
            "original_name": "Apharan",
            "popularity": 2.71
        },
        {
            "id": 114021,
            "original_name": "Crash Course Geography",
            "popularity": 2.646
        },
        {
            "id": 119985,
            "original_name": "Biography: WWE Legends",
            "popularity": 2.369
        },
        {
            "id": 72641,
            "original_name": "Mencintaimu Mr Photographer",
            "popularity": 2.129
        },
        {
            "id": 6337,
            "original_name": "The Aphrodite Inheritance",
            "popularity": 1.848
        },
        {
            "id": 128310,
            "original_name": "Biography: KISStory",
            "popularity": 1.645
        },
        {
            "id": 63711,
            "original_name": "Der Paragraphenwirt",
            "popularity": 1.461
        },
        {
            "id": 120220,
            "original_name": "Earth: The Biography",
            "popularity": 1.4
        },
        {
            "id": 22382,
            "original_name": "Liography",
            "popularity": 1.4
        },
        {
            "id": 126740,
            "original_name": "Great British Photography Challenge",
            "popularity": 1.316
        },
        {
            "id": 86243,
            "original_name": "\u00c9pitaphe",
            "popularity": 1.117
        },
        {
            "id": 64877,
            "original_name": "Pawnography",
            "popularity": 0.986
        },
        {
            "id": 97487,
            "original_name": "National Geographic 100 Years",
            "popularity": 0.894
        }
    ]
}