{
    "data": [
        {
            "id": 573,
            "original_name": "Hapinas",
            "popularity": 1.4
        },
        {
            "id": 1758,
            "original_name": "Capital News",
            "popularity": 2.395
        },
        {
            "id": 2185,
            "original_name": "Capitol Critters",
            "popularity": 1.503
        },
        {
            "id": 2513,
            "original_name": "Dr. Katz, Professional Therapist",
            "popularity": 7.5
        },
        {
            "id": 4131,
            "original_name": "Capit\u00e1n Simio y los monos gal\u00e1cticos",
            "popularity": 5.007
        },
        {
            "id": 4923,
            "original_name": "Capital Connection",
            "popularity": 0.6
        },
        {
            "id": 5961,
            "original_name": "Capital D",
            "popularity": 0.6
        },
        {
            "id": 7155,
            "original_name": "Komiks Presents: Kapitan Boom",
            "popularity": 0.6
        },
        {
            "id": 7924,
            "original_name": "Il capo dei capi",
            "popularity": 9.801
        },
        {
            "id": 9779,
            "original_name": "BodyShaping",
            "popularity": 0.6
        },
        {
            "id": 10214,
            "original_name": "Capitol",
            "popularity": 17.539
        },
        {
            "id": 11080,
            "original_name": "Capital City",
            "popularity": 2.901
        },
        {
            "id": 11454,
            "original_name": "Trust Me \u2013 I'm a Beauty Therapist",
            "popularity": 0.6
        },
        {
            "id": 11883,
            "original_name": "The Shapies",
            "popularity": 0.6
        },
        {
            "id": 12135,
            "original_name": "Shaping Up",
            "popularity": 0.929
        },
        {
            "id": 12248,
            "original_name": "Capital Gang",
            "popularity": 0.6
        },
        {
            "id": 12413,
            "original_name": "Chapi Chapo",
            "popularity": 1.464
        },
        {
            "id": 12815,
            "original_name": "Hapinas Balita",
            "popularity": 1.351
        },
        {
            "id": 13195,
            "original_name": "Capitol Gains",
            "popularity": 0.6
        },
        {
            "id": 13697,
            "original_name": "Rapido",
            "popularity": 0.6
        },
        {
            "id": 14987,
            "original_name": "D*A*A*S Kapital",
            "popularity": 0.84
        },
        {
            "id": 15283,
            "original_name": "Dinosapien",
            "popularity": 0.966
        },
        {
            "id": 15304,
            "original_name": "Dinhing Dapita Sadya",
            "popularity": 0.6
        },
        {
            "id": 15445,
            "original_name": "Habang Kapiling Ka",
            "popularity": 0.6
        },
        {
            "id": 16688,
            "original_name": "Tis Agapis Maheria",
            "popularity": 0.6
        },
        {
            "id": 17962,
            "original_name": "Lapitch the Little Shoemaker",
            "popularity": 0.626
        },
        {
            "id": 18889,
            "original_name": "The Great War and the Shaping of the 20th Century",
            "popularity": 2.235
        },
        {
            "id": 19865,
            "original_name": "Capitu",
            "popularity": 2.144
        },
        {
            "id": 20035,
            "original_name": "Chlapci a chlapi",
            "popularity": 0.6
        },
        {
            "id": 21270,
            "original_name": "Kapitein Zeppos",
            "popularity": 0.6
        },
        {
            "id": 25172,
            "original_name": "Weekend Landscaping",
            "popularity": 0.6
        },
        {
            "id": 27198,
            "original_name": "Capitol Capers",
            "popularity": 0.6
        },
        {
            "id": 28691,
            "original_name": "Alternative Therapies",
            "popularity": 0.6
        },
        {
            "id": 28859,
            "original_name": "Yuusei Shonen Papii",
            "popularity": 0.841
        },
        {
            "id": 29948,
            "original_name": "Capitol Cloak Room",
            "popularity": 0.84
        },
        {
            "id": 30556,
            "original_name": "1914-18: The Great War and the Shaping of the 20th Century",
            "popularity": 0.6
        },
        {
            "id": 33456,
            "original_name": "Everybody Hapi",
            "popularity": 0.6
        },
        {
            "id": 35065,
            "original_name": "Rapid Roulette",
            "popularity": 0.6
        },
        {
            "id": 36722,
            "original_name": "Brit Cops: Rapid Response",
            "popularity": 0.6
        },
        {
            "id": 37435,
            "original_name": "Theo's Adventure Capitalists",
            "popularity": 0.6
        },
        {
            "id": 38939,
            "original_name": "Speed Capital of the World: Bonneville",
            "popularity": 0.6
        },
        {
            "id": 40199,
            "original_name": "In therapie",
            "popularity": 2.588
        },
        {
            "id": 40943,
            "original_name": "Der Kapit\u00e4n",
            "popularity": 1.777
        },
        {
            "id": 41405,
            "original_name": "Terapia d'urgenza",
            "popularity": 0.6
        },
        {
            "id": 42938,
            "original_name": "Il capitano",
            "popularity": 0.6
        },
        {
            "id": 42975,
            "original_name": "Pecado Capital",
            "popularity": 3.69
        },
        {
            "id": 43543,
            "original_name": "Kapitan Awesome",
            "popularity": 0.6
        },
        {
            "id": 45712,
            "original_name": "Capitol Gains",
            "popularity": 0.6
        },
        {
            "id": 45729,
            "original_name": "Political Capital with Al Hunt",
            "popularity": 0.6
        },
        {
            "id": 46521,
            "original_name": "Capital Account",
            "popularity": 0.6
        },
        {
            "id": 49233,
            "original_name": "Kapilari a\u00e7mak",
            "popularity": 0.6
        },
        {
            "id": 50740,
            "original_name": "Apiniharn Khun Yai Tong Kham",
            "popularity": 0.6
        },
        {
            "id": 51648,
            "original_name": "Capitali culturali d'Europa",
            "popularity": 0.6
        },
        {
            "id": 53164,
            "original_name": "Enas apithanos detective...",
            "popularity": 0.6
        },
        {
            "id": 53589,
            "original_name": "Apimaheuma Maha Setee",
            "popularity": 0.6
        },
        {
            "id": 53840,
            "original_name": "Yair Lapid Live on 10",
            "popularity": 0.6
        },
        {
            "id": 53841,
            "original_name": "Yair Lapid",
            "popularity": 0.6
        },
        {
            "id": 54441,
            "original_name": "Me Agapi, Anna",
            "popularity": 0.6
        },
        {
            "id": 54446,
            "original_name": "Shore, Stein, Papier",
            "popularity": 1.126
        },
        {
            "id": 55983,
            "original_name": "Miss Beauty Of The West Capital",
            "popularity": 0.6
        },
        {
            "id": 56430,
            "original_name": "En Terapia",
            "popularity": 4.15
        },
        {
            "id": 57553,
            "original_name": "Sess\u00e3o de Terapia",
            "popularity": 3.011
        },
        {
            "id": 59410,
            "original_name": "Kapitan Sowa na tropie",
            "popularity": 1.707
        },
        {
            "id": 60698,
            "original_name": "Comedy Nights with Kapil",
            "popularity": 11.468
        },
        {
            "id": 60838,
            "original_name": "Les aventures du capitaine L\u00fcckner",
            "popularity": 1.151
        },
        {
            "id": 62201,
            "original_name": "Les Lapins Cr\u00e9tins : Invasion",
            "popularity": 8.152
        },
        {
            "id": 62279,
            "original_name": "Las aventuras del Capit\u00e1n Alatriste",
            "popularity": 2.678
        },
        {
            "id": 63067,
            "original_name": "Kapit\u00e4n Harmsen",
            "popularity": 1.081
        },
        {
            "id": 63199,
            "original_name": "Escaping Polygamy",
            "popularity": 1.79
        },
        {
            "id": 64505,
            "original_name": "Capital",
            "popularity": 3.712
        },
        {
            "id": 64919,
            "original_name": "Rapid Response",
            "popularity": 0.6
        },
        {
            "id": 65189,
            "original_name": "Terapia",
            "popularity": 1.4
        },
        {
            "id": 66359,
            "original_name": "Misteri Gunung Merapi",
            "popularity": 1.262
        },
        {
            "id": 66465,
            "original_name": "The Kapil Sharma Show",
            "popularity": 27.036
        },
        {
            "id": 67237,
            "original_name": "En th\u00e9rapie",
            "popularity": 3.643
        },
        {
            "id": 67238,
            "original_name": "Web th\u00e9rapie",
            "popularity": 1.906
        },
        {
            "id": 67509,
            "original_name": "The People's Republic of Capitalism",
            "popularity": 0.917
        },
        {
            "id": 70371,
            "original_name": "A Tenkes kapit\u00e1nya",
            "popularity": 2.982
        },
        {
            "id": 70774,
            "original_name": "Rapides et dangereuses",
            "popularity": 0.6
        },
        {
            "id": 71584,
            "original_name": "The Therapist",
            "popularity": 0.941
        },
        {
            "id": 71735,
            "original_name": "Capitalism",
            "popularity": 1.4
        },
        {
            "id": 71904,
            "original_name": "Capitaine Marleau",
            "popularity": 4.525
        },
        {
            "id": 72012,
            "original_name": "Kapil Sharma Show",
            "popularity": 0.6
        },
        {
            "id": 72614,
            "original_name": "Conociendo al Capital",
            "popularity": 0.6
        },
        {
            "id": 73527,
            "original_name": "Kapit\u00e1n Exner",
            "popularity": 0.684
        },
        {
            "id": 73700,
            "original_name": "Un Gallo para Esculapio",
            "popularity": 5.452
        },
        {
            "id": 73883,
            "original_name": "Rapides et millionnaires",
            "popularity": 0.6
        },
        {
            "id": 74396,
            "original_name": "R\u00e4cher, Retter und Rapiere",
            "popularity": 0.629
        },
        {
            "id": 74467,
            "original_name": "Adventure Capitalists",
            "popularity": 0.6
        },
        {
            "id": 75515,
            "original_name": "Kapitan Bomba",
            "popularity": 0.68
        },
        {
            "id": 75551,
            "original_name": "La figlia del capitano",
            "popularity": 0.736
        },
        {
            "id": 75564,
            "original_name": "Les Galapiats",
            "popularity": 0.706
        },
        {
            "id": 75852,
            "original_name": "Z\u00e1hada t\u0159\u00ed kapit\u00e1n\u016f",
            "popularity": 0.876
        },
        {
            "id": 76594,
            "original_name": "Papi Ricky",
            "popularity": 3.624
        },
        {
            "id": 76648,
            "original_name": "Le dernier chapitre",
            "popularity": 1.34
        },
        {
            "id": 76709,
            "original_name": "Skapi Naslednici",
            "popularity": 2.814
        },
        {
            "id": 77128,
            "original_name": "Capitaine X",
            "popularity": 1.026
        },
        {
            "id": 77214,
            "original_name": "Vado a vedere il mondo capisco tutto e torno",
            "popularity": 0.6
        },
        {
            "id": 77419,
            "original_name": "The Reaping",
            "popularity": 0.725
        },
        {
            "id": 77863,
            "original_name": "Beijing: Biography Of An Imperial Capital",
            "popularity": 0.6
        },
        {
            "id": 77964,
            "original_name": "Robo Sapiens",
            "popularity": 0.6
        },
        {
            "id": 78180,
            "original_name": "Terapie",
            "popularity": 4.002
        },
        {
            "id": 78290,
            "original_name": "Family Time With Kapil Sharma",
            "popularity": 0.663
        },
        {
            "id": 78455,
            "original_name": "Big Papi Needs a Job",
            "popularity": 0.6
        },
        {
            "id": 79765,
            "original_name": "Il Capitano Maria",
            "popularity": 0.853
        },
        {
            "id": 82391,
            "original_name": "Parterapi",
            "popularity": 1.014
        },
        {
            "id": 83416,
            "original_name": "Sres. Papis",
            "popularity": 3.455
        },
        {
            "id": 83804,
            "original_name": "Misteri Gunung Merapi",
            "popularity": 1.427
        },
        {
            "id": 89566,
            "original_name": "Shapira Shapira",
            "popularity": 0.615
        },
        {
            "id": 90093,
            "original_name": "Papilles",
            "popularity": 0.844
        },
        {
            "id": 90153,
            "original_name": "I grandi Papi",
            "popularity": 0.617
        },
        {
            "id": 90264,
            "original_name": "P\u0159ipoutejte se, pros\u00edm, kapitalismus p\u0159ich\u00e1z\u00ed",
            "popularity": 0.6
        },
        {
            "id": 90565,
            "original_name": "Les 7 p\u00e9ch\u00e9s capitaux",
            "popularity": 0.6
        },
        {
            "id": 90734,
            "original_name": "The Ben Shapiro Show",
            "popularity": 2.221
        },
        {
            "id": 90964,
            "original_name": "Death Row: A History of Capital Punishment in America",
            "popularity": 0.809
        },
        {
            "id": 91493,
            "original_name": "T\u0159i chlapi v chalup\u011b",
            "popularity": 1.735
        },
        {
            "id": 93262,
            "original_name": "Les belles histoires de Pomme d'Api",
            "popularity": 1.02
        },
        {
            "id": 93576,
            "original_name": "Capit\u00e3o Roby",
            "popularity": 0.6
        },
        {
            "id": 94799,
            "original_name": "Beatrix Potter : Les Contes de Pierre Lapin et ses amis",
            "popularity": 0.627
        },
        {
            "id": 94994,
            "original_name": "Capitaly",
            "popularity": 0.6
        },
        {
            "id": 95040,
            "original_name": "Kisah Tanah Jawa: Merapi",
            "popularity": 1.192
        },
        {
            "id": 95428,
            "original_name": "En th\u00e9rapie",
            "popularity": 11.791
        },
        {
            "id": 95638,
            "original_name": "Capitani",
            "popularity": 11.785
        },
        {
            "id": 96857,
            "original_name": "Die Steintaler - Von wegen Homo sapiens",
            "popularity": 0.6
        },
        {
            "id": 97116,
            "original_name": "Parterapi",
            "popularity": 0.921
        },
        {
            "id": 98029,
            "original_name": "Capital",
            "popularity": 0.6
        },
        {
            "id": 99786,
            "original_name": "Th\u00e9rapie",
            "popularity": 0.6
        },
        {
            "id": 102849,
            "original_name": "Hapi Ang Buhay",
            "popularity": 0.6
        },
        {
            "id": 102952,
            "original_name": "Tapis Rouge",
            "popularity": 0.6
        },
        {
            "id": 103251,
            "original_name": "Kapit\u00e1n \u0158\u00edp",
            "popularity": 1.514
        },
        {
            "id": 103429,
            "original_name": "Jao Mae Asorapit",
            "popularity": 0.6
        },
        {
            "id": 103575,
            "original_name": "En terapia",
            "popularity": 2.015
        },
        {
            "id": 104598,
            "original_name": "Terapija/Na terapiji",
            "popularity": 0.6
        },
        {
            "id": 106634,
            "original_name": "Ein Kapitel f\u00fcr sich",
            "popularity": 1.4
        },
        {
            "id": 107022,
            "original_name": "El Capit\u00e1n Camacho",
            "popularity": 0.6
        },
        {
            "id": 107251,
            "original_name": "Chlapi nepla\u010d\u00fa",
            "popularity": 0.6
        },
        {
            "id": 107411,
            "original_name": "Na terapiji",
            "popularity": 0.6
        },
        {
            "id": 113026,
            "original_name": "Terapie sd\u00edlen\u00edm",
            "popularity": 2.051
        },
        {
            "id": 113530,
            "original_name": "Pecados Capitales",
            "popularity": 1.148
        },
        {
            "id": 113531,
            "original_name": "Telenovela Pecados Capitales",
            "popularity": 5.846
        },
        {
            "id": 113764,
            "original_name": "Les Sapiens",
            "popularity": 1.481
        },
        {
            "id": 113993,
            "original_name": "a.C.d.C. - Dall'Homo Sapiens a Napoleone",
            "popularity": 0.6
        },
        {
            "id": 115456,
            "original_name": "#heuldoch - Therapie wie noch nie",
            "popularity": 0.84
        },
        {
            "id": 115815,
            "original_name": "Terapist",
            "popularity": 0.84
        },
        {
            "id": 116034,
            "original_name": "The Great Escapists",
            "popularity": 4.229
        },
        {
            "id": 116273,
            "original_name": "PCC: Primeiro Cartel da Capital",
            "popularity": 0.6
        },
        {
            "id": 117720,
            "original_name": "China's Capitalist Revolution",
            "popularity": 0.713
        },
        {
            "id": 117885,
            "original_name": "Capital Terre",
            "popularity": 0.6
        },
        {
            "id": 119435,
            "original_name": "Parterapi",
            "popularity": 0.696
        },
        {
            "id": 120680,
            "original_name": "Britain's Ancient Capital: Secrets Of Orkney",
            "popularity": 0.6
        },
        {
            "id": 122082,
            "original_name": "Predator: Catching The Black Cab Rapist",
            "popularity": 0.6
        },
        {
            "id": 124257,
            "original_name": "The Rapist Next Door",
            "popularity": 0.6
        },
        {
            "id": 124804,
            "original_name": "Eric gegen Stehfest: In Therapie",
            "popularity": 0.84
        },
        {
            "id": 126187,
            "original_name": "Capitol Hill",
            "popularity": 0.6
        },
        {
            "id": 126234,
            "original_name": "Zooth\u00e9rapie",
            "popularity": 0.6
        },
        {
            "id": 126883,
            "original_name": "Capit\u00e3es do A\u00e7\u00facar",
            "popularity": 0.6
        },
        {
            "id": 127081,
            "original_name": "Le Grand spectacle de la F\u00eate nationale dans la Capitale",
            "popularity": 0.859
        },
        {
            "id": 127483,
            "original_name": "Dobrodru\u017estv\u00e1 Budzog\u00e1\u0148a, zbojn\u00edckeho kapit\u00e1na",
            "popularity": 0.6
        },
        {
            "id": 127625,
            "original_name": "Capitulation",
            "popularity": 0.6
        },
        {
            "id": 127917,
            "original_name": "Capital One College Bowl",
            "popularity": 8.317
        },
        {
            "id": 127942,
            "original_name": "Terapia alternativa",
            "popularity": 14.132
        },
        {
            "id": 128643,
            "original_name": "Pirata et Capitano",
            "popularity": 0.6
        },
        {
            "id": 129276,
            "original_name": "Yoyo Th\u00e9rapie",
            "popularity": 0.988
        },
        {
            "id": 131218,
            "original_name": "Gamer Sapiens",
            "popularity": 0.6
        },
        {
            "id": 131697,
            "original_name": "Papiery na szcz\u0119\u015bcie",
            "popularity": 74.337
        },
        {
            "id": 132275,
            "original_name": "Apis",
            "popularity": 0.6
        },
        {
            "id": 135713,
            "original_name": "Escaping Evil: My Life in a Cult",
            "popularity": 1.374
        },
        {
            "id": 138026,
            "original_name": "Meneer Papier",
            "popularity": 0.822
        },
        {
            "id": 138769,
            "original_name": "Los Picapiedra - La Serie Completa",
            "popularity": 2.206
        },
        {
            "id": 139473,
            "original_name": "Ruido Capital",
            "popularity": 0.6
        },
        {
            "id": 152392,
            "original_name": "Se\u00f1ores papis",
            "popularity": 1.131
        }
    ],
    "relations": [
        {
            "character": "apin"
        },
        {
            "character": "apit"
        },
        {
            "character": "apis"
        },
        {
            "character": "apie"
        },
        {
            "character": "apid"
        },
        {
            "character": "apil"
        },
        {
            "character": "apii"
        },
        {
            "character": "apia"
        },
        {
            "character": "apim"
        },
        {
            "character": "apio"
        },
        {
            "character": "apir"
        },
        {
            "character": "apij"
        }
    ],
    "top20": [
        {
            "id": 131697,
            "original_name": "Papiery na szcz\u0119\u015bcie",
            "popularity": 74.337
        },
        {
            "id": 66465,
            "original_name": "The Kapil Sharma Show",
            "popularity": 27.036
        },
        {
            "id": 10214,
            "original_name": "Capitol",
            "popularity": 17.539
        },
        {
            "id": 127942,
            "original_name": "Terapia alternativa",
            "popularity": 14.132
        },
        {
            "id": 95428,
            "original_name": "En th\u00e9rapie",
            "popularity": 11.791
        },
        {
            "id": 95638,
            "original_name": "Capitani",
            "popularity": 11.785
        },
        {
            "id": 60698,
            "original_name": "Comedy Nights with Kapil",
            "popularity": 11.468
        },
        {
            "id": 7924,
            "original_name": "Il capo dei capi",
            "popularity": 9.801
        },
        {
            "id": 127917,
            "original_name": "Capital One College Bowl",
            "popularity": 8.317
        },
        {
            "id": 62201,
            "original_name": "Les Lapins Cr\u00e9tins : Invasion",
            "popularity": 8.152
        },
        {
            "id": 2513,
            "original_name": "Dr. Katz, Professional Therapist",
            "popularity": 7.5
        },
        {
            "id": 113531,
            "original_name": "Telenovela Pecados Capitales",
            "popularity": 5.846
        },
        {
            "id": 73700,
            "original_name": "Un Gallo para Esculapio",
            "popularity": 5.452
        },
        {
            "id": 4131,
            "original_name": "Capit\u00e1n Simio y los monos gal\u00e1cticos",
            "popularity": 5.007
        },
        {
            "id": 71904,
            "original_name": "Capitaine Marleau",
            "popularity": 4.525
        },
        {
            "id": 116034,
            "original_name": "The Great Escapists",
            "popularity": 4.229
        },
        {
            "id": 56430,
            "original_name": "En Terapia",
            "popularity": 4.15
        },
        {
            "id": 78180,
            "original_name": "Terapie",
            "popularity": 4.002
        },
        {
            "id": 64505,
            "original_name": "Capital",
            "popularity": 3.712
        },
        {
            "id": 42975,
            "original_name": "Pecado Capital",
            "popularity": 3.69
        }
    ]
}