{
    "data": [
        {
            "id": 819,
            "original_name": "Live at the Apollo",
            "popularity": 27.705
        },
        {
            "id": 1497,
            "original_name": "Future Weapons",
            "popularity": 0.739
        },
        {
            "id": 2701,
            "original_name": "Napol\u00e9on",
            "popularity": 5.71
        },
        {
            "id": 3234,
            "original_name": "Whoops Apocalypse",
            "popularity": 1.82
        },
        {
            "id": 3528,
            "original_name": "The Lab with Leo Laporte",
            "popularity": 0.6
        },
        {
            "id": 4689,
            "original_name": "'Sang Linggo nAPO Sila",
            "popularity": 0.6
        },
        {
            "id": 5448,
            "original_name": "Weapon Masters",
            "popularity": 0.6
        },
        {
            "id": 6699,
            "original_name": "Human Weapon",
            "popularity": 0.6
        },
        {
            "id": 6895,
            "original_name": "Sa Linggo nAPO Sila",
            "popularity": 0.6
        },
        {
            "id": 7091,
            "original_name": "Weaponology",
            "popularity": 0.6
        },
        {
            "id": 7458,
            "original_name": "El Cartel de los Sapos",
            "popularity": 140.637
        },
        {
            "id": 7807,
            "original_name": "Perfect Weapon",
            "popularity": 0.6
        },
        {
            "id": 7924,
            "original_name": "Il capo dei capi",
            "popularity": 9.801
        },
        {
            "id": 9203,
            "original_name": "10.5: Apocalypse",
            "popularity": 6.048
        },
        {
            "id": 9886,
            "original_name": "Showtime at the Apollo",
            "popularity": 3.717
        },
        {
            "id": 10777,
            "original_name": "The Adventures of Chico and Guapo",
            "popularity": 0.6
        },
        {
            "id": 11320,
            "original_name": "Soapography",
            "popularity": 0.6
        },
        {
            "id": 12413,
            "original_name": "Chapi Chapo",
            "popularity": 1.464
        },
        {
            "id": 12726,
            "original_name": "Tapout",
            "popularity": 0.6
        },
        {
            "id": 13231,
            "original_name": "The Mystery of Al Capone's Vaults",
            "popularity": 0.6
        },
        {
            "id": 13245,
            "original_name": "Singapore Idol",
            "popularity": 0.6
        },
        {
            "id": 14026,
            "original_name": "Tanamera \u2013 Lion of Singapore",
            "popularity": 0.6
        },
        {
            "id": 15489,
            "original_name": "Al diablo con los guapos",
            "popularity": 9.647
        },
        {
            "id": 17153,
            "original_name": "Surf Now Apocalypse Later",
            "popularity": 0.6
        },
        {
            "id": 17429,
            "original_name": "Singapore Tonight",
            "popularity": 0.6
        },
        {
            "id": 18121,
            "original_name": "Men of Annapolis",
            "popularity": 0.6
        },
        {
            "id": 18175,
            "original_name": "Sugat ng Kahapon",
            "popularity": 0.6
        },
        {
            "id": 18238,
            "original_name": "Lidia's Italy: Sweet Napoli",
            "popularity": 0.6
        },
        {
            "id": 18372,
            "original_name": "Halik Sa Apoy",
            "popularity": 0.6
        },
        {
            "id": 18579,
            "original_name": "The Negro in Indianapolis",
            "popularity": 0.6
        },
        {
            "id": 18953,
            "original_name": "Broken Arrow: Can a Nuclear Weapons Accident Happen Here?",
            "popularity": 0.6
        },
        {
            "id": 19666,
            "original_name": "Migrapolis",
            "popularity": 0.6
        },
        {
            "id": 20075,
            "original_name": "UFO Warrior Dai Apolon",
            "popularity": 0.6
        },
        {
            "id": 20191,
            "original_name": "Beija Sapo",
            "popularity": 0.6
        },
        {
            "id": 20417,
            "original_name": "Little Napoleons",
            "popularity": 5.444
        },
        {
            "id": 20820,
            "original_name": "APO 923",
            "popularity": 0.6
        },
        {
            "id": 21166,
            "original_name": "Decisive Weapons",
            "popularity": 0.6
        },
        {
            "id": 21617,
            "original_name": "Israel's Secret Weapon",
            "popularity": 0.6
        },
        {
            "id": 23294,
            "original_name": "Our Secret Weapon: The Truth",
            "popularity": 1.4
        },
        {
            "id": 25103,
            "original_name": "FutureWeapons",
            "popularity": 0.6
        },
        {
            "id": 25634,
            "original_name": "Singapore Sling",
            "popularity": 0.6
        },
        {
            "id": 27378,
            "original_name": "A Thousand Apologies",
            "popularity": 0.6
        },
        {
            "id": 27489,
            "original_name": "Napoleon and Josephine: A Love Story",
            "popularity": 2.019
        },
        {
            "id": 28309,
            "original_name": "Weaponizers",
            "popularity": 0.6
        },
        {
            "id": 30243,
            "original_name": "Apostrophes",
            "popularity": 0.6
        },
        {
            "id": 31268,
            "original_name": "El Capo",
            "popularity": 43.764
        },
        {
            "id": 31949,
            "original_name": "Star Search Singapore",
            "popularity": 0.6
        },
        {
            "id": 33189,
            "original_name": "Apocalypse - La 2\u00e8me guerre mondiale",
            "popularity": 11.043
        },
        {
            "id": 33508,
            "original_name": "Napoleon and Love",
            "popularity": 2.594
        },
        {
            "id": 35220,
            "original_name": "Wapos Bay: The Series",
            "popularity": 0.6
        },
        {
            "id": 35222,
            "original_name": "Apocalypse Island",
            "popularity": 0.6
        },
        {
            "id": 35774,
            "original_name": "Get Your Face on with Napoleon Perdis",
            "popularity": 0.6
        },
        {
            "id": 37845,
            "original_name": "Weapon X",
            "popularity": 0.6
        },
        {
            "id": 39586,
            "original_name": "We Are Singaporeans",
            "popularity": 0.6
        },
        {
            "id": 39715,
            "original_name": "Napoleon Dynamite",
            "popularity": 4.922
        },
        {
            "id": 39932,
            "original_name": "Visoki napon",
            "popularity": 0.6
        },
        {
            "id": 40266,
            "original_name": "Livin' for the Apocalypse",
            "popularity": 0.6
        },
        {
            "id": 40329,
            "original_name": "Million Dollar Money Drop: Singapore Edition",
            "popularity": 0.6
        },
        {
            "id": 40945,
            "original_name": "Every Singaporean Son",
            "popularity": 0.6
        },
        {
            "id": 40958,
            "original_name": "Every Singaporean Son \u2013 Epilogue",
            "popularity": 0.6
        },
        {
            "id": 42187,
            "original_name": "Triggers: Weapons That Changed the World",
            "popularity": 0.6
        },
        {
            "id": 42302,
            "original_name": "Viking Apocalypse",
            "popularity": 0.6
        },
        {
            "id": 43216,
            "original_name": "Apocalypse Man",
            "popularity": 0.6
        },
        {
            "id": 44450,
            "original_name": "Il tredicesimo apostolo",
            "popularity": 1.963
        },
        {
            "id": 45732,
            "original_name": "Singapore Sessions",
            "popularity": 0.6
        },
        {
            "id": 46349,
            "original_name": "Teapot",
            "popularity": 0.6
        },
        {
            "id": 46416,
            "original_name": "Robin Williams: Weapons of Self-Destruction",
            "popularity": 0.6
        },
        {
            "id": 46841,
            "original_name": "Esli by ya byl moim papoy",
            "popularity": 0.6
        },
        {
            "id": 47164,
            "original_name": "Weapons of Mass Distraction",
            "popularity": 0.6
        },
        {
            "id": 47536,
            "original_name": "The Lost Capone",
            "popularity": 0.6
        },
        {
            "id": 48317,
            "original_name": "Motown Returns to the Apollo",
            "popularity": 0.6
        },
        {
            "id": 48872,
            "original_name": "Napol\u00e9on et l'Europe",
            "popularity": 0.6
        },
        {
            "id": 50161,
            "original_name": "Engineering Britain's Superweapons",
            "popularity": 0.6
        },
        {
            "id": 51163,
            "original_name": "Kapoios na ti fylaei",
            "popularity": 0.6
        },
        {
            "id": 52338,
            "original_name": "Pali apo tin arhi",
            "popularity": 0.6
        },
        {
            "id": 54565,
            "original_name": "Napoleon - The Myth, The Battles, The Legend",
            "popularity": 0.6
        },
        {
            "id": 54600,
            "original_name": "Apollo 17: Splashdown",
            "popularity": 0.6
        },
        {
            "id": 54622,
            "original_name": "Apofegey",
            "popularity": 0.6
        },
        {
            "id": 54627,
            "original_name": "I apodrasi",
            "popularity": 0.6
        },
        {
            "id": 54720,
            "original_name": "Mia gynaika apo to parelthon",
            "popularity": 0.6
        },
        {
            "id": 54934,
            "original_name": "Apollo 14 Recovery Aboard The USS New Orleans",
            "popularity": 0.6
        },
        {
            "id": 55063,
            "original_name": "Man on the Moon: The Epic Journey of Apollo 11",
            "popularity": 1.17
        },
        {
            "id": 55150,
            "original_name": "Apollo: Journey To the Moon",
            "popularity": 0.6
        },
        {
            "id": 55482,
            "original_name": "Top Secret Weapons Revealed",
            "popularity": 0.6
        },
        {
            "id": 55557,
            "original_name": "Soldiers of the Apocalypse",
            "popularity": 0.6
        },
        {
            "id": 55885,
            "original_name": "The World's Weirdest Weapons",
            "popularity": 0.6
        },
        {
            "id": 56089,
            "original_name": "BBC - Heroes and Weapons of WWII",
            "popularity": 0.872
        },
        {
            "id": 56436,
            "original_name": "El Capo",
            "popularity": 8.432
        },
        {
            "id": 56623,
            "original_name": "Uptown: A Tribute to the Apollo Theatre",
            "popularity": 0.6
        },
        {
            "id": 58270,
            "original_name": "Derren Brown: Apocalypse",
            "popularity": 1.211
        },
        {
            "id": 58550,
            "original_name": "Apoy Sa Dagat",
            "popularity": 0.6
        },
        {
            "id": 61314,
            "original_name": "Apocalypse, la Premi\u00e8re Guerre Mondiale",
            "popularity": 9.807
        },
        {
            "id": 62049,
            "original_name": "I Survived a Zombie Apocalypse",
            "popularity": 1.642
        },
        {
            "id": 62456,
            "original_name": "You, Me and the Apocalypse",
            "popularity": 15.349
        },
        {
            "id": 63025,
            "original_name": "Deadly Journeys of the Apostles",
            "popularity": 0.888
        },
        {
            "id": 64121,
            "original_name": "Napoleon",
            "popularity": 0.6
        },
        {
            "id": 64364,
            "original_name": "Apocalypse, Staline",
            "popularity": 4.068
        },
        {
            "id": 65174,
            "original_name": "Ancient Apocalypse",
            "popularity": 1.4
        },
        {
            "id": 65681,
            "original_name": "Apocalypse, Verdun",
            "popularity": 4.334
        },
        {
            "id": 66492,
            "original_name": "Non dirlo al mio capo",
            "popularity": 2.621
        },
        {
            "id": 67116,
            "original_name": "Lethal Weapon",
            "popularity": 89.807
        },
        {
            "id": 67302,
            "original_name": "Countdown to Apocalypse",
            "popularity": 0.6
        },
        {
            "id": 67872,
            "original_name": "Nosotros los Guapos",
            "popularity": 62.025
        },
        {
            "id": 68245,
            "original_name": "WWII Megaweapons",
            "popularity": 0.6
        },
        {
            "id": 68558,
            "original_name": "Apocalypse, Hitler",
            "popularity": 9.188
        },
        {
            "id": 68832,
            "original_name": "Apocalypse 101",
            "popularity": 0.6
        },
        {
            "id": 69102,
            "original_name": "Singapore 1942 End of Empire",
            "popularity": 0.6
        },
        {
            "id": 69564,
            "original_name": "Cyril a Metod\u011bj \u2013 Apo\u0161tolov\u00e9 Slovan\u016f",
            "popularity": 1.484
        },
        {
            "id": 69585,
            "original_name": "Destination Flavour Singapore",
            "popularity": 0.6
        },
        {
            "id": 69751,
            "original_name": "WaPo Bodensee",
            "popularity": 17.231
        },
        {
            "id": 69972,
            "original_name": "L'Apocalypse",
            "popularity": 0.626
        },
        {
            "id": 71411,
            "original_name": "El Chapo",
            "popularity": 111.627
        },
        {
            "id": 71449,
            "original_name": "The Weapon Hunter",
            "popularity": 0.6
        },
        {
            "id": 72304,
            "original_name": "Fate/Apocrypha",
            "popularity": 26.885
        },
        {
            "id": 72423,
            "original_name": "V\u00e9nus & Apollon",
            "popularity": 0.6
        },
        {
            "id": 72535,
            "original_name": "Ultimate Weapons",
            "popularity": 0.601
        },
        {
            "id": 72786,
            "original_name": "Apollo Gauntlet",
            "popularity": 1.516
        },
        {
            "id": 72822,
            "original_name": "El capo - El amo del t\u00fanel",
            "popularity": 7.446
        },
        {
            "id": 73173,
            "original_name": "The Capones",
            "popularity": 0.6
        },
        {
            "id": 74111,
            "original_name": "Apocalypse 9/11",
            "popularity": 0.6
        },
        {
            "id": 74579,
            "original_name": "The Day I Met El Chapo",
            "popularity": 13.399
        },
        {
            "id": 75209,
            "original_name": "Apocalipse",
            "popularity": 16.841
        },
        {
            "id": 76550,
            "original_name": "Indianapolis 500",
            "popularity": 0.6
        },
        {
            "id": 77106,
            "original_name": "Atti degli apostoli",
            "popularity": 2.243
        },
        {
            "id": 77109,
            "original_name": "Andorra, entre el torb i la Gestapo",
            "popularity": 0.6
        },
        {
            "id": 77368,
            "original_name": "Apocalypse - Il grande racconto della storia",
            "popularity": 0.6
        },
        {
            "id": 77843,
            "original_name": "Napol\u00e9on: La Campagne de Russie",
            "popularity": 1.132
        },
        {
            "id": 79198,
            "original_name": "Capos",
            "popularity": 0.84
        },
        {
            "id": 79411,
            "original_name": "Kody Kapow",
            "popularity": 1.421
        },
        {
            "id": 80071,
            "original_name": "Unapologetic with Aisha Tyler",
            "popularity": 2.106
        },
        {
            "id": 80666,
            "original_name": "Hollywood Weapons",
            "popularity": 2.761
        },
        {
            "id": 80988,
            "original_name": "American Kenpo Karate And Weapons",
            "popularity": 0.6
        },
        {
            "id": 81664,
            "original_name": "History of Weapons",
            "popularity": 0.884
        },
        {
            "id": 81792,
            "original_name": "Le Japon, entre terre et ciel",
            "popularity": 0.932
        },
        {
            "id": 82733,
            "original_name": "Remy & Papoose: Meet the Mackies",
            "popularity": 0.6
        },
        {
            "id": 82936,
            "original_name": "Araponga",
            "popularity": 5.379
        },
        {
            "id": 83961,
            "original_name": "Apocalypse, la paix impossible (1918-1926)",
            "popularity": 1.651
        },
        {
            "id": 84880,
            "original_name": "Now Apocalypse",
            "popularity": 9.531
        },
        {
            "id": 84990,
            "original_name": "Japon, au coeur de la nature",
            "popularity": 0.6
        },
        {
            "id": 85060,
            "original_name": "Le Japon vu du ciel",
            "popularity": 0.6
        },
        {
            "id": 85336,
            "original_name": "Seapower",
            "popularity": 0.6
        },
        {
            "id": 87913,
            "original_name": "Pasaporte Pampliega",
            "popularity": 0.6
        },
        {
            "id": 88500,
            "original_name": "Apocalipse Kids",
            "popularity": 0.6
        },
        {
            "id": 89781,
            "original_name": "Apollo dans l'frigo",
            "popularity": 0.6
        },
        {
            "id": 90455,
            "original_name": "Mysteries of Apollo",
            "popularity": 1.11
        },
        {
            "id": 90457,
            "original_name": "Apollo's Moon Shot",
            "popularity": 0.61
        },
        {
            "id": 91521,
            "original_name": "The Apollo Chronicles",
            "popularity": 0.6
        },
        {
            "id": 91692,
            "original_name": "13 Factors That Saved Apollo 13",
            "popularity": 0.6
        },
        {
            "id": 91694,
            "original_name": "The Apollo experience : Apollo 17",
            "popularity": 0.6
        },
        {
            "id": 91783,
            "original_name": "Apollo \u00e0 la mer",
            "popularity": 0.6
        },
        {
            "id": 91850,
            "original_name": "Apollo: Back to the Moon",
            "popularity": 0.698
        },
        {
            "id": 93215,
            "original_name": "The Green Beret's Guide to Surviving the Apocalypse",
            "popularity": 0.6
        },
        {
            "id": 93925,
            "original_name": "Napoleon in Holland",
            "popularity": 0.638
        },
        {
            "id": 94060,
            "original_name": "Co na\u0161e babi\u010dky um\u011bly a na co my jsme zapomn\u011bli",
            "popularity": 4.574
        },
        {
            "id": 94519,
            "original_name": "Napoleon",
            "popularity": 0.6
        },
        {
            "id": 95224,
            "original_name": "Apocalypse, la guerre des mondes",
            "popularity": 1.754
        },
        {
            "id": 95715,
            "original_name": "Singapore Social",
            "popularity": 0.977
        },
        {
            "id": 96219,
            "original_name": "Countdown to Apollo",
            "popularity": 0.6
        },
        {
            "id": 97473,
            "original_name": "Visions of War: Infantry Weapons and Tactics",
            "popularity": 0.6
        },
        {
            "id": 97598,
            "original_name": "Apollon le grillon et les dr\u00f4les de petites b\u00eates",
            "popularity": 1.836
        },
        {
            "id": 98062,
            "original_name": "The Apostle Paul",
            "popularity": 0.6
        },
        {
            "id": 98465,
            "original_name": "Le Fleuve Brahmapoutre : De L'Himalaya au Golfe du Bengale",
            "popularity": 0.6
        },
        {
            "id": 98509,
            "original_name": "Papouasie Un Dernier Eden",
            "popularity": 0.6
        },
        {
            "id": 98939,
            "original_name": "Apocalipsis. La guerra interminable [1918-1926]",
            "popularity": 1.235
        },
        {
            "id": 100311,
            "original_name": "Le Japon sauvage",
            "popularity": 0.6
        },
        {
            "id": 100359,
            "original_name": "Marianne, une \u00e9toile pour Napol\u00e9on",
            "popularity": 0.6
        },
        {
            "id": 100630,
            "original_name": "World of Weapons",
            "popularity": 0.6
        },
        {
            "id": 101219,
            "original_name": "\u9b54\u7363\u6226\u7dda THE APOCALYPSE",
            "popularity": 1.4
        },
        {
            "id": 101846,
            "original_name": "Nosotros fuimos la Mision Apolo",
            "popularity": 0.6
        },
        {
            "id": 102080,
            "original_name": "WaPo Berlin",
            "popularity": 2.767
        },
        {
            "id": 102275,
            "original_name": "La Ca\u00edda de Apolo",
            "popularity": 0.6
        },
        {
            "id": 103477,
            "original_name": "Hearts of Darkness: A Filmmaker's Apocalypse",
            "popularity": 0.6
        },
        {
            "id": 103753,
            "original_name": "Napol\u00e9on, le documentaire",
            "popularity": 0.6
        },
        {
            "id": 104528,
            "original_name": "El rey del sapo la serie",
            "popularity": 0.721
        },
        {
            "id": 105861,
            "original_name": "Apocalypse Earth",
            "popularity": 0.923
        },
        {
            "id": 106422,
            "original_name": "Mal\u00e9 PostApo",
            "popularity": 0.6
        },
        {
            "id": 106487,
            "original_name": "1812 (Napoleonic Wars in Russia)",
            "popularity": 0.6
        },
        {
            "id": 106873,
            "original_name": "The Singapore Grip",
            "popularity": 4.751
        },
        {
            "id": 107953,
            "original_name": "Right Now Kapow",
            "popularity": 1.186
        },
        {
            "id": 110836,
            "original_name": "Arsenal:History of Weapons",
            "popularity": 0.6
        },
        {
            "id": 111308,
            "original_name": "Trip to Quiapo",
            "popularity": 0.84
        },
        {
            "id": 112880,
            "original_name": "Megapolis, les plus grandes Villes de l\u2019Antiquit\u00e9",
            "popularity": 0.636
        },
        {
            "id": 112904,
            "original_name": "MasterChef Singapore",
            "popularity": 0.6
        },
        {
            "id": 113993,
            "original_name": "a.C.d.C. - Dall'Homo Sapiens a Napoleone",
            "popularity": 0.6
        },
        {
            "id": 114315,
            "original_name": "Les fr\u00e8res apocalypse",
            "popularity": 2.202
        },
        {
            "id": 115363,
            "original_name": "Weapons of World War II",
            "popularity": 0.6
        },
        {
            "id": 117124,
            "original_name": "japon investigation",
            "popularity": 0.6
        },
        {
            "id": 117213,
            "original_name": "Campaigns of Napoleon",
            "popularity": 0.6
        },
        {
            "id": 117342,
            "original_name": "Weapons at War",
            "popularity": 0.6
        },
        {
            "id": 119633,
            "original_name": "Da Capo",
            "popularity": 1.415
        },
        {
            "id": 121268,
            "original_name": "The Gestapo: Hitler's Secret Police",
            "popularity": 0.842
        },
        {
            "id": 124208,
            "original_name": "El Apocalipsis de San Juan",
            "popularity": 1.68
        },
        {
            "id": 124582,
            "original_name": "Les 7 Eglises de l'Apocalypse",
            "popularity": 0.6
        },
        {
            "id": 124927,
            "original_name": "Apocalypse, Hitler Attaque \u00e0 l'Ouest",
            "popularity": 2.18
        },
        {
            "id": 126823,
            "original_name": "Aposta que Amas",
            "popularity": 1.348
        },
        {
            "id": 127160,
            "original_name": "Esprit Japon",
            "popularity": 0.6
        },
        {
            "id": 128252,
            "original_name": "El cartel de los sapos: El origen",
            "popularity": 254.558
        },
        {
            "id": 128574,
            "original_name": "Apocalypse, la Seconde Guerre mondiale",
            "popularity": 0.6
        },
        {
            "id": 128594,
            "original_name": "Les soeurs Dufour-Lapointe : d'un r\u00eave \u00e0 l'autre",
            "popularity": 0.6
        },
        {
            "id": 129461,
            "original_name": "It's Showtime at the Apollo",
            "popularity": 0.6
        },
        {
            "id": 130805,
            "original_name": "Marvel Knights: Wolverine Weapon X: Tomorrow Dies Today",
            "popularity": 1.547
        },
        {
            "id": 130860,
            "original_name": "A Todo Vapor!",
            "popularity": 0.6
        },
        {
            "id": 131033,
            "original_name": "Krapopolis",
            "popularity": 1.779
        },
        {
            "id": 133076,
            "original_name": "Ancient Apocalypse",
            "popularity": 1.96
        },
        {
            "id": 133400,
            "original_name": "Uppdrag granskning: I skuggan av El Chapo",
            "popularity": 8.519
        },
        {
            "id": 133990,
            "original_name": "Apollo the Greatest Leap",
            "popularity": 0.6
        },
        {
            "id": 134718,
            "original_name": "Weapons that Made Britain",
            "popularity": 0.6
        },
        {
            "id": 135024,
            "original_name": "Weapons That Changed War",
            "popularity": 0.6
        },
        {
            "id": 136509,
            "original_name": "Simpetheri Apo Ta Tirana",
            "popularity": 0.6
        },
        {
            "id": 136554,
            "original_name": "Apocalypse, Hitler Attaque \u00e0 l\u2019Est",
            "popularity": 4.852
        },
        {
            "id": 136556,
            "original_name": "ElChapo",
            "popularity": 0.6
        },
        {
            "id": 138169,
            "original_name": "Extrapolations",
            "popularity": 2.926
        },
        {
            "id": 138993,
            "original_name": "Hard Knocks In Season: The Indianapolis Colts",
            "popularity": 5.282
        },
        {
            "id": 139521,
            "original_name": "Unapologetic",
            "popularity": 14.111
        },
        {
            "id": 139584,
            "original_name": "Le tr\u00e9sor de guerre de Napol\u00e9on",
            "popularity": 0.672
        },
        {
            "id": 152360,
            "original_name": "Passaporte para Liberdade",
            "popularity": 3.158
        },
        {
            "id": 152438,
            "original_name": "The Real Housewives Di Napoli",
            "popularity": 0.707
        }
    ],
    "relations": [
        {
            "character": "apol"
        },
        {
            "character": "apon"
        },
        {
            "character": "apoc"
        },
        {
            "character": "apor"
        },
        {
            "character": "apos"
        },
        {
            "character": "apog"
        },
        {
            "character": "apou"
        },
        {
            "character": "apoy"
        },
        {
            "character": "apot"
        },
        {
            "character": "apoi"
        },
        {
            "character": "apof"
        },
        {
            "character": "apod"
        },
        {
            "character": "apow"
        },
        {
            "character": "apoo"
        },
        {
            "character": "apom"
        },
        {
            "character": "apop"
        }
    ],
    "top20": [
        {
            "id": 128252,
            "original_name": "El cartel de los sapos: El origen",
            "popularity": 254.558
        },
        {
            "id": 7458,
            "original_name": "El Cartel de los Sapos",
            "popularity": 140.637
        },
        {
            "id": 71411,
            "original_name": "El Chapo",
            "popularity": 111.627
        },
        {
            "id": 67116,
            "original_name": "Lethal Weapon",
            "popularity": 89.807
        },
        {
            "id": 67872,
            "original_name": "Nosotros los Guapos",
            "popularity": 62.025
        },
        {
            "id": 31268,
            "original_name": "El Capo",
            "popularity": 43.764
        },
        {
            "id": 819,
            "original_name": "Live at the Apollo",
            "popularity": 27.705
        },
        {
            "id": 72304,
            "original_name": "Fate/Apocrypha",
            "popularity": 26.885
        },
        {
            "id": 69751,
            "original_name": "WaPo Bodensee",
            "popularity": 17.231
        },
        {
            "id": 75209,
            "original_name": "Apocalipse",
            "popularity": 16.841
        },
        {
            "id": 62456,
            "original_name": "You, Me and the Apocalypse",
            "popularity": 15.349
        },
        {
            "id": 139521,
            "original_name": "Unapologetic",
            "popularity": 14.111
        },
        {
            "id": 74579,
            "original_name": "The Day I Met El Chapo",
            "popularity": 13.399
        },
        {
            "id": 33189,
            "original_name": "Apocalypse - La 2\u00e8me guerre mondiale",
            "popularity": 11.043
        },
        {
            "id": 61314,
            "original_name": "Apocalypse, la Premi\u00e8re Guerre Mondiale",
            "popularity": 9.807
        },
        {
            "id": 7924,
            "original_name": "Il capo dei capi",
            "popularity": 9.801
        },
        {
            "id": 15489,
            "original_name": "Al diablo con los guapos",
            "popularity": 9.647
        },
        {
            "id": 84880,
            "original_name": "Now Apocalypse",
            "popularity": 9.531
        },
        {
            "id": 68558,
            "original_name": "Apocalypse, Hitler",
            "popularity": 9.188
        },
        {
            "id": 133400,
            "original_name": "Uppdrag granskning: I skuggan av El Chapo",
            "popularity": 8.519
        }
    ]
}