{
    "data": [
        {
            "id": 175327,
            "original_name": "\u4e07\u8d62\u4f53\u80b2app2018\u3010\u7f54\u82b7jy01,cc\u3011_\u767e\u5ea6\u77e5\u9053s",
            "popularity": 1.015
        },
        {
            "id": 180932,
            "original_name": "\u706b\u4fe1app2.0\u5b98\u7f51\u4e0b\u8f7d\u3010\u7f54\u82b7jy01,cc\u3011_\u767e\u5ea6\u77e5\u9053k",
            "popularity": 0.765
        }
    ],
    "relations": [],
    "top20": [
        {
            "id": 175327,
            "original_name": "\u4e07\u8d62\u4f53\u80b2app2018\u3010\u7f54\u82b7jy01,cc\u3011_\u767e\u5ea6\u77e5\u9053s",
            "popularity": 1.015
        },
        {
            "id": 180932,
            "original_name": "\u706b\u4fe1app2.0\u5b98\u7f51\u4e0b\u8f7d\u3010\u7f54\u82b7jy01,cc\u3011_\u767e\u5ea6\u77e5\u9053k",
            "popularity": 0.765
        }
    ]
}