{
    "data": [
        {
            "id": 18184,
            "original_name": "Appalachia: A History of Mountains and People",
            "popularity": 1.4
        },
        {
            "id": 26363,
            "original_name": "My Appalling School Report",
            "popularity": 0.6
        },
        {
            "id": 64883,
            "original_name": "Appalachian Outlaws",
            "popularity": 0.6
        },
        {
            "id": 72530,
            "original_name": "\u00c9jjel-Nappal Budapest",
            "popularity": 0.6
        },
        {
            "id": 75411,
            "original_name": "Pappaliv",
            "popularity": 0.6
        },
        {
            "id": 133974,
            "original_name": "Appalaches Rebelles",
            "popularity": 0.6
        }
    ],
    "relations": [],
    "top20": [
        {
            "id": 18184,
            "original_name": "Appalachia: A History of Mountains and People",
            "popularity": 1.4
        },
        {
            "id": 26363,
            "original_name": "My Appalling School Report",
            "popularity": 0.6
        },
        {
            "id": 64883,
            "original_name": "Appalachian Outlaws",
            "popularity": 0.6
        },
        {
            "id": 72530,
            "original_name": "\u00c9jjel-Nappal Budapest",
            "popularity": 0.6
        },
        {
            "id": 75411,
            "original_name": "Pappaliv",
            "popularity": 0.6
        },
        {
            "id": 133974,
            "original_name": "Appalaches Rebelles",
            "popularity": 0.6
        }
    ]
}