{
    "data": [
        {
            "id": 1039,
            "original_name": "Trapper John, M.D.",
            "popularity": 15.983
        },
        {
            "id": 1234,
            "original_name": "Clapperboard",
            "popularity": 0.6
        },
        {
            "id": 5077,
            "original_name": "ego trip's The (White) Rapper Show",
            "popularity": 0.6
        },
        {
            "id": 8906,
            "original_name": "The Wheeltappers and Shunters Social Club",
            "popularity": 0.62
        },
        {
            "id": 17141,
            "original_name": "Warriors with Terry Schappert",
            "popularity": 0.6
        },
        {
            "id": 19127,
            "original_name": "Flappers",
            "popularity": 0.6
        },
        {
            "id": 27510,
            "original_name": "Hollywood Snappers",
            "popularity": 0.6
        },
        {
            "id": 33764,
            "original_name": "Scrappers",
            "popularity": 0.6
        },
        {
            "id": 44293,
            "original_name": "Redneck Adventures Television Show: Bass Hawgin' & Snapper Chummin'",
            "popularity": 0.6
        },
        {
            "id": 58310,
            "original_name": "The Lead with Jake Tapper",
            "popularity": 0.6
        },
        {
            "id": 86565,
            "original_name": "The Rapper",
            "popularity": 0.6
        },
        {
            "id": 99264,
            "original_name": "Rapper Warrior Ninja",
            "popularity": 0.6
        },
        {
            "id": 118447,
            "original_name": "Scrappers",
            "popularity": 0.673
        },
        {
            "id": 130289,
            "original_name": "Schwesta Ewa - Rapperin. H\u00e4ftling. Mutter.",
            "popularity": 0.6
        }
    ],
    "relations": [],
    "top20": [
        {
            "id": 1039,
            "original_name": "Trapper John, M.D.",
            "popularity": 15.983
        },
        {
            "id": 1234,
            "original_name": "Clapperboard",
            "popularity": 0.6
        },
        {
            "id": 5077,
            "original_name": "ego trip's The (White) Rapper Show",
            "popularity": 0.6
        },
        {
            "id": 8906,
            "original_name": "The Wheeltappers and Shunters Social Club",
            "popularity": 0.62
        },
        {
            "id": 17141,
            "original_name": "Warriors with Terry Schappert",
            "popularity": 0.6
        },
        {
            "id": 19127,
            "original_name": "Flappers",
            "popularity": 0.6
        },
        {
            "id": 27510,
            "original_name": "Hollywood Snappers",
            "popularity": 0.6
        },
        {
            "id": 33764,
            "original_name": "Scrappers",
            "popularity": 0.6
        },
        {
            "id": 44293,
            "original_name": "Redneck Adventures Television Show: Bass Hawgin' & Snapper Chummin'",
            "popularity": 0.6
        },
        {
            "id": 58310,
            "original_name": "The Lead with Jake Tapper",
            "popularity": 0.6
        },
        {
            "id": 86565,
            "original_name": "The Rapper",
            "popularity": 0.6
        },
        {
            "id": 99264,
            "original_name": "Rapper Warrior Ninja",
            "popularity": 0.6
        },
        {
            "id": 118447,
            "original_name": "Scrappers",
            "popularity": 0.673
        },
        {
            "id": 130289,
            "original_name": "Schwesta Ewa - Rapperin. H\u00e4ftling. Mutter.",
            "popularity": 0.6
        }
    ]
}