{
    "data": [
        {
            "id": 53331,
            "original_name": "Saqr Quraish",
            "popularity": 0.6
        }
    ],
    "relations": [],
    "top20": [
        {
            "id": 53331,
            "original_name": "Saqr Quraish",
            "popularity": 0.6
        }
    ]
}