{
    "data": [
        {
            "id": 33241,
            "original_name": "Aquarium",
            "popularity": 0.6
        },
        {
            "id": 61239,
            "original_name": "Aquarius",
            "popularity": 13.869
        },
        {
            "id": 88377,
            "original_name": "Aquarela do Brasil",
            "popularity": 3.89
        },
        {
            "id": 89078,
            "original_name": "Aquarius",
            "popularity": 0.6
        },
        {
            "id": 89609,
            "original_name": "The Aquarium",
            "popularity": 0.6
        },
        {
            "id": 121823,
            "original_name": "Mundo Aquarela Kids",
            "popularity": 0.6
        }
    ],
    "relations": [],
    "top20": [
        {
            "id": 33241,
            "original_name": "Aquarium",
            "popularity": 0.6
        },
        {
            "id": 61239,
            "original_name": "Aquarius",
            "popularity": 13.869
        },
        {
            "id": 88377,
            "original_name": "Aquarela do Brasil",
            "popularity": 3.89
        },
        {
            "id": 89078,
            "original_name": "Aquarius",
            "popularity": 0.6
        },
        {
            "id": 89609,
            "original_name": "The Aquarium",
            "popularity": 0.6
        },
        {
            "id": 121823,
            "original_name": "Mundo Aquarela Kids",
            "popularity": 0.6
        }
    ]
}