{
    "data": [
        {
            "id": 51093,
            "original_name": "zHit-paraden",
            "popularity": 0.6
        },
        {
            "id": 77026,
            "original_name": "Sen Anlat Karadeniz",
            "popularity": 6.666
        }
    ],
    "relations": [],
    "top20": [
        {
            "id": 51093,
            "original_name": "zHit-paraden",
            "popularity": 0.6
        },
        {
            "id": 77026,
            "original_name": "Sen Anlat Karadeniz",
            "popularity": 6.666
        }
    ]
}