{
    "data": [
        {
            "id": 3759,
            "original_name": "The Magnificent Marble Machine",
            "popularity": 0.6
        },
        {
            "id": 10796,
            "original_name": "Big Blue Marble",
            "popularity": 0.6
        },
        {
            "id": 17344,
            "original_name": "Marblehead Manor",
            "popularity": 1.493
        },
        {
            "id": 105802,
            "original_name": "Marblegen",
            "popularity": 0.879
        },
        {
            "id": 117168,
            "original_name": "Marble Mania",
            "popularity": 0.692
        },
        {
            "id": 124380,
            "original_name": "Marble Hornets",
            "popularity": 1.551
        }
    ],
    "relations": [],
    "top20": [
        {
            "id": 3759,
            "original_name": "The Magnificent Marble Machine",
            "popularity": 0.6
        },
        {
            "id": 10796,
            "original_name": "Big Blue Marble",
            "popularity": 0.6
        },
        {
            "id": 17344,
            "original_name": "Marblehead Manor",
            "popularity": 1.493
        },
        {
            "id": 105802,
            "original_name": "Marblegen",
            "popularity": 0.879
        },
        {
            "id": 117168,
            "original_name": "Marble Mania",
            "popularity": 0.692
        },
        {
            "id": 124380,
            "original_name": "Marble Hornets",
            "popularity": 1.551
        }
    ]
}