{
    "data": [
        {
            "id": 951,
            "original_name": "The Archie Show",
            "popularity": 5.725
        },
        {
            "id": 1409,
            "original_name": "Sons of Anarchy",
            "popularity": 95.896
        },
        {
            "id": 1597,
            "original_name": "Search for Tomorrow",
            "popularity": 7.742
        },
        {
            "id": 1599,
            "original_name": "Archibald le Magi-chien",
            "popularity": 0.876
        },
        {
            "id": 2215,
            "original_name": "Monarch of the Glen",
            "popularity": 5.156
        },
        {
            "id": 2868,
            "original_name": "In Search of the Pope's Children",
            "popularity": 0.6
        },
        {
            "id": 3447,
            "original_name": "Fat March",
            "popularity": 0.6
        },
        {
            "id": 3574,
            "original_name": "In Search of...",
            "popularity": 2.92
        },
        {
            "id": 3747,
            "original_name": "Archie's Weird Mysteries",
            "popularity": 3.686
        },
        {
            "id": 3992,
            "original_name": "Archibald the Rabbit",
            "popularity": 0.6
        },
        {
            "id": 4277,
            "original_name": "Archie Bunker's Place",
            "popularity": 5.995
        },
        {
            "id": 4291,
            "original_name": "The Search for the Funniest Mom in America",
            "popularity": 1.39
        },
        {
            "id": 6142,
            "original_name": "Archibald the Koala",
            "popularity": 0.6
        },
        {
            "id": 6443,
            "original_name": "Star Search",
            "popularity": 1.971
        },
        {
            "id": 6658,
            "original_name": "Search for a Star",
            "popularity": 0.6
        },
        {
            "id": 6719,
            "original_name": "Be Bench / The Model Search",
            "popularity": 0.6
        },
        {
            "id": 6766,
            "original_name": "The Naked Archaeologist",
            "popularity": 0.6
        },
        {
            "id": 7365,
            "original_name": "Legally Blonde \u2013 The Musical: The Search for Elle Woods",
            "popularity": 1.177
        },
        {
            "id": 7391,
            "original_name": "Youth on the March",
            "popularity": 0.6
        },
        {
            "id": 8396,
            "original_name": "S Club Search",
            "popularity": 0.6
        },
        {
            "id": 8467,
            "original_name": "Blush: The Search For the Next Great Makeup Artist",
            "popularity": 0.6
        },
        {
            "id": 8782,
            "original_name": "Contest Searchlight",
            "popularity": 1.4
        },
        {
            "id": 8830,
            "original_name": "Searching for the Roots of 9/11",
            "popularity": 0.6
        },
        {
            "id": 9397,
            "original_name": "Strip Search",
            "popularity": 0.6
        },
        {
            "id": 9484,
            "original_name": "Monarchy",
            "popularity": 1.526
        },
        {
            "id": 9771,
            "original_name": "Archie's TV Funnies",
            "popularity": 0.6
        },
        {
            "id": 9829,
            "original_name": "The New Archies",
            "popularity": 1.065
        },
        {
            "id": 9963,
            "original_name": "The U.S. of Archie",
            "popularity": 0.6
        },
        {
            "id": 10283,
            "original_name": "Archer",
            "popularity": 50.911
        },
        {
            "id": 10634,
            "original_name": "Monarch Cove",
            "popularity": 1.233
        },
        {
            "id": 11398,
            "original_name": "Search",
            "popularity": 8.863
        },
        {
            "id": 11512,
            "original_name": "Search and Rescue",
            "popularity": 0.6
        },
        {
            "id": 11651,
            "original_name": "Zardip's Search for Healthy Wellness",
            "popularity": 0.6
        },
        {
            "id": 12040,
            "original_name": "Muchmusic VJ Search",
            "popularity": 0.6
        },
        {
            "id": 12651,
            "original_name": "Sports Illustrated Swimsuit Model Search",
            "popularity": 0.6
        },
        {
            "id": 12989,
            "original_name": "Search for a Supermodel",
            "popularity": 0.6
        },
        {
            "id": 13828,
            "original_name": "The Barchester Chronicles",
            "popularity": 2.186
        },
        {
            "id": 13924,
            "original_name": "The Search",
            "popularity": 0.6
        },
        {
            "id": 14254,
            "original_name": "The Search for the Next Elvira",
            "popularity": 1.534
        },
        {
            "id": 14599,
            "original_name": "The New Archie and Sabrina Hour",
            "popularity": 11.714
        },
        {
            "id": 14771,
            "original_name": "Middlemarch",
            "popularity": 5.102
        },
        {
            "id": 15617,
            "original_name": "Main Teri Parchhain Hoon",
            "popularity": 0.6
        },
        {
            "id": 15973,
            "original_name": "Search and Rescue",
            "popularity": 0.6
        },
        {
            "id": 16776,
            "original_name": "The Ultimate Coyote Ugly Search",
            "popularity": 0.6
        },
        {
            "id": 18374,
            "original_name": "Search for the Perfect Girlfriend",
            "popularity": 0.966
        },
        {
            "id": 18757,
            "original_name": "The Search for the Nile",
            "popularity": 1.377
        },
        {
            "id": 19665,
            "original_name": "Spanish Archer",
            "popularity": 0.6
        },
        {
            "id": 19770,
            "original_name": "Britain's Real Monarch",
            "popularity": 0.6
        },
        {
            "id": 20157,
            "original_name": "The Search for Alexander",
            "popularity": 0.6
        },
        {
            "id": 20523,
            "original_name": "R U All That?: Nickelodeon's Search for the Funniest Kid in America",
            "popularity": 0.6
        },
        {
            "id": 20826,
            "original_name": "In Search of a Midnight Kiss",
            "popularity": 0.6
        },
        {
            "id": 20851,
            "original_name": "Dan Cruickshank's Adventures in Architecture",
            "popularity": 0.6
        },
        {
            "id": 21150,
            "original_name": "Colonel March of Scotland Yard",
            "popularity": 2.733
        },
        {
            "id": 21505,
            "original_name": "Meet Corliss Archer",
            "popularity": 2.599
        },
        {
            "id": 21573,
            "original_name": "Fanarchy",
            "popularity": 0.6
        },
        {
            "id": 22010,
            "original_name": "The Archie Comedy Hour",
            "popularity": 1.791
        },
        {
            "id": 22036,
            "original_name": "Aruba Model Search",
            "popularity": 0.6
        },
        {
            "id": 22449,
            "original_name": "Stripsearch",
            "popularity": 0.6
        },
        {
            "id": 22788,
            "original_name": "In Search of Shakespeare",
            "popularity": 0.743
        },
        {
            "id": 22806,
            "original_name": "Much Music VJ Search: The Series",
            "popularity": 0.6
        },
        {
            "id": 23091,
            "original_name": "The 100 Hottest Web Searches 2005",
            "popularity": 0.6
        },
        {
            "id": 23560,
            "original_name": "Educating Archie",
            "popularity": 0.6
        },
        {
            "id": 23721,
            "original_name": "Garden Architecture",
            "popularity": 0.6
        },
        {
            "id": 23910,
            "original_name": "In Search Of Mr Average",
            "popularity": 0.6
        },
        {
            "id": 24110,
            "original_name": "Ross Kemp in Search of Pirates",
            "popularity": 0.6
        },
        {
            "id": 24203,
            "original_name": "Ultimate Fuse Gig: The VJ Search",
            "popularity": 0.6
        },
        {
            "id": 24431,
            "original_name": "Search For A Star",
            "popularity": 0.6
        },
        {
            "id": 24868,
            "original_name": "Search Party",
            "popularity": 1.303
        },
        {
            "id": 25043,
            "original_name": "Archie's Funhouse",
            "popularity": 0.6
        },
        {
            "id": 25334,
            "original_name": "Heston Blumenthal: In Search of Perfection",
            "popularity": 0.622
        },
        {
            "id": 26304,
            "original_name": "In Search of Love",
            "popularity": 0.6
        },
        {
            "id": 26529,
            "original_name": "Archer",
            "popularity": 1.616
        },
        {
            "id": 26637,
            "original_name": "In Search of Happiness",
            "popularity": 0.876
        },
        {
            "id": 26737,
            "original_name": "Manhunt: The Search for America's Most Gorgeous Male Model",
            "popularity": 1.968
        },
        {
            "id": 27123,
            "original_name": "In Search of Ancient Ireland",
            "popularity": 0.841
        },
        {
            "id": 27681,
            "original_name": "In Search of Myths and Heroes",
            "popularity": 0.6
        },
        {
            "id": 27711,
            "original_name": "High Sierra Search and Rescue",
            "popularity": 2.3
        },
        {
            "id": 27777,
            "original_name": "In Search of the Trojan War",
            "popularity": 1.4
        },
        {
            "id": 27876,
            "original_name": "Caribbean Model Search",
            "popularity": 0.6
        },
        {
            "id": 28526,
            "original_name": "Search for Treasure Island",
            "popularity": 1.211
        },
        {
            "id": 28628,
            "original_name": "Search Out Science",
            "popularity": 0.6
        },
        {
            "id": 28817,
            "original_name": "The US of Archie",
            "popularity": 0.6
        },
        {
            "id": 29083,
            "original_name": "Strip Search",
            "popularity": 0.6
        },
        {
            "id": 29717,
            "original_name": "Searching",
            "popularity": 0.6
        },
        {
            "id": 29988,
            "original_name": "Architecture School",
            "popularity": 0.6
        },
        {
            "id": 30301,
            "original_name": "Archangel",
            "popularity": 8.43
        },
        {
            "id": 30325,
            "original_name": "The March of Medicine",
            "popularity": 0.6
        },
        {
            "id": 31535,
            "original_name": "The Searchers",
            "popularity": 0.6
        },
        {
            "id": 31949,
            "original_name": "Star Search Singapore",
            "popularity": 0.6
        },
        {
            "id": 32288,
            "original_name": "TV Land's Ultimate Fan Search",
            "popularity": 0.6
        },
        {
            "id": 34032,
            "original_name": "Search for the Star in a Million",
            "popularity": 0.6
        },
        {
            "id": 34324,
            "original_name": "Monarchy: The Royal Family at Work",
            "popularity": 0.6
        },
        {
            "id": 35076,
            "original_name": "Your OWN Show: Oprah's Search for the Next TV Star",
            "popularity": 0.843
        },
        {
            "id": 35468,
            "original_name": "Japanland: A Year in Search of Wa",
            "popularity": 0.6
        },
        {
            "id": 35505,
            "original_name": "Dancing About Architecture",
            "popularity": 0.6
        },
        {
            "id": 35539,
            "original_name": "Gulder Ultimate Search",
            "popularity": 0.6
        },
        {
            "id": 35926,
            "original_name": "The March Sisters",
            "popularity": 0.6
        },
        {
            "id": 36136,
            "original_name": "Search and Rescue (AU)",
            "popularity": 0.6
        },
        {
            "id": 37184,
            "original_name": "Archer's Goon",
            "popularity": 0.954
        },
        {
            "id": 37372,
            "original_name": "Girls Gone Wild Presents: Search for the Hottest Girl in America",
            "popularity": 1.96
        },
        {
            "id": 37774,
            "original_name": "Marchlands",
            "popularity": 4.353
        },
        {
            "id": 38685,
            "original_name": "Searching for...",
            "popularity": 0.6
        },
        {
            "id": 38897,
            "original_name": "The Search: The Next Male Model",
            "popularity": 0.6
        },
        {
            "id": 39271,
            "original_name": "Parchhaiyan",
            "popularity": 0.6
        },
        {
            "id": 39805,
            "original_name": "In Search of the Dark Ages",
            "popularity": 0.6
        },
        {
            "id": 39959,
            "original_name": "Archiv des Todes",
            "popularity": 1.704
        },
        {
            "id": 43034,
            "original_name": "Michael the Archangel's Dance",
            "popularity": 0.6
        },
        {
            "id": 43453,
            "original_name": "Ubu cocu ou l'arch\u00e9opt\u00e9ryx",
            "popularity": 0.6
        },
        {
            "id": 43653,
            "original_name": "Architectures",
            "popularity": 1.303
        },
        {
            "id": 43655,
            "original_name": "Archives of Death",
            "popularity": 0.6
        },
        {
            "id": 44237,
            "original_name": "In Search of History",
            "popularity": 0.6
        },
        {
            "id": 44382,
            "original_name": "Architecture & Design of Man and Woman",
            "popularity": 0.6
        },
        {
            "id": 44467,
            "original_name": "Search for the Gods",
            "popularity": 0.6
        },
        {
            "id": 45200,
            "original_name": "Search for Science",
            "popularity": 0.6
        },
        {
            "id": 46702,
            "original_name": "BC The Archaeology of the Bible Lands",
            "popularity": 0.6
        },
        {
            "id": 47077,
            "original_name": "Absent Minded Inventions and the Search for Flubber",
            "popularity": 0.6
        },
        {
            "id": 47263,
            "original_name": "The Search for Signs of Intelligent Life in the Universe",
            "popularity": 0.6
        },
        {
            "id": 47589,
            "original_name": "Manhunt: The Search for the Yorkshire Ripper",
            "popularity": 0.6
        },
        {
            "id": 47685,
            "original_name": "The Long Search",
            "popularity": 0.6
        },
        {
            "id": 48013,
            "original_name": "Andy Williams and the NBC Kids Search for Santa",
            "popularity": 0.6
        },
        {
            "id": 49256,
            "original_name": "Three Sisters: Searching for a Cure",
            "popularity": 0.6
        },
        {
            "id": 49857,
            "original_name": "Archaeology: A Secret History",
            "popularity": 0.894
        },
        {
            "id": 51659,
            "original_name": "L\u00e5ngtradarchauff\u00f6rens ber\u00e4ttelse",
            "popularity": 0.6
        },
        {
            "id": 51929,
            "original_name": "Asia's Monarchies",
            "popularity": 0.6
        },
        {
            "id": 52956,
            "original_name": "Marching",
            "popularity": 0.6
        },
        {
            "id": 53047,
            "original_name": "In Search of Britain's Green and Pleasant Land",
            "popularity": 0.6
        },
        {
            "id": 54452,
            "original_name": "Beyond the Search",
            "popularity": 0.6
        },
        {
            "id": 55418,
            "original_name": "Patriarchy",
            "popularity": 0.6
        },
        {
            "id": 55601,
            "original_name": "Disney D23's Armchair Archivists",
            "popularity": 0.6
        },
        {
            "id": 55700,
            "original_name": "Ireland's Search And Rescue",
            "popularity": 0.6
        },
        {
            "id": 55888,
            "original_name": "The Flying Archaeologist",
            "popularity": 0.6
        },
        {
            "id": 57013,
            "original_name": "Pain, Pus and Poison: The Search for Modern Medicines",
            "popularity": 0.916
        },
        {
            "id": 57056,
            "original_name": "Searching for Lost Worlds. Atlantis. Mystery of the Minoans",
            "popularity": 0.6
        },
        {
            "id": 57116,
            "original_name": "David Starkey's Music and Monarchy",
            "popularity": 0.6
        },
        {
            "id": 57505,
            "original_name": "WWII: The Lost Color Archives",
            "popularity": 0.6
        },
        {
            "id": 57529,
            "original_name": "Extreme Archaeology",
            "popularity": 0.97
        },
        {
            "id": 57846,
            "original_name": "Chasing the Royals: The Media and the Monarchy",
            "popularity": 0.6
        },
        {
            "id": 57916,
            "original_name": "Show Oksany Marchenko",
            "popularity": 0.6
        },
        {
            "id": 62070,
            "original_name": "\u653b\u6bbb\u6a5f\u52d5\u968a ARISE ALTERNATIVE ARCHITECTURE",
            "popularity": 13.154
        },
        {
            "id": 64990,
            "original_name": "Search for the Lost Giants",
            "popularity": 0.665
        },
        {
            "id": 65259,
            "original_name": "Archaeology",
            "popularity": 0.626
        },
        {
            "id": 65530,
            "original_name": "Gonzaga: The March to Madness",
            "popularity": 0.6
        },
        {
            "id": 67697,
            "original_name": "Search Party",
            "popularity": 12.779
        },
        {
            "id": 68754,
            "original_name": "Marche \u00e0 l'ombre",
            "popularity": 1.625
        },
        {
            "id": 69144,
            "original_name": "MythBusters: The Search",
            "popularity": 0.6
        },
        {
            "id": 70250,
            "original_name": "Phenomenon: The Lost Archives",
            "popularity": 0.976
        },
        {
            "id": 70462,
            "original_name": "The Long March",
            "popularity": 0.6
        },
        {
            "id": 70628,
            "original_name": "Parched",
            "popularity": 0.6
        },
        {
            "id": 73427,
            "original_name": "Architects of F1",
            "popularity": 1.096
        },
        {
            "id": 75339,
            "original_name": "Myst\u00e8res d'Archives",
            "popularity": 1.059
        },
        {
            "id": 77082,
            "original_name": "Die Patriarchin",
            "popularity": 2.229
        },
        {
            "id": 77864,
            "original_name": "Curious Minds: Marine Archaeology",
            "popularity": 0.6
        },
        {
            "id": 78574,
            "original_name": "Elvis Presley: The Searcher",
            "popularity": 3.43
        },
        {
            "id": 79513,
            "original_name": "In Search Of",
            "popularity": 3.139
        },
        {
            "id": 80769,
            "original_name": "Los archivos del cardenal",
            "popularity": 2.771
        },
        {
            "id": 81350,
            "original_name": "Marching Orders",
            "popularity": 1.4
        },
        {
            "id": 82163,
            "original_name": "UFOs: The Footage Archives",
            "popularity": 0.6
        },
        {
            "id": 83013,
            "original_name": "The Mystery of Matter: Search for the Elements",
            "popularity": 0.712
        },
        {
            "id": 83048,
            "original_name": "Expedition Unknown: After The Search",
            "popularity": 0.6
        },
        {
            "id": 83241,
            "original_name": "Hitler's Architect",
            "popularity": 0.6
        },
        {
            "id": 84591,
            "original_name": "Archivos de la Fiscalia",
            "popularity": 0.6
        },
        {
            "id": 86927,
            "original_name": "Archivos del m\u00e1s All\u00e1",
            "popularity": 0.6
        },
        {
            "id": 87084,
            "original_name": "Parchhayee: Ghost Stories By Ruskin Bond",
            "popularity": 2.093
        },
        {
            "id": 87995,
            "original_name": "Dobrodru\u017estv\u00ed archeologie",
            "popularity": 0.6
        },
        {
            "id": 89252,
            "original_name": "March\u00e9 conclu!",
            "popularity": 0.6
        },
        {
            "id": 89592,
            "original_name": "Private Lives of the Monarchs",
            "popularity": 0.6
        },
        {
            "id": 89652,
            "original_name": "In Search of Monsters",
            "popularity": 0.988
        },
        {
            "id": 89787,
            "original_name": "Enqu\u00eates arch\u00e9ologiques",
            "popularity": 0.6
        },
        {
            "id": 90233,
            "original_name": "Der letzte Patriarch",
            "popularity": 0.92
        },
        {
            "id": 90384,
            "original_name": "Top 10 Architecture",
            "popularity": 0.6
        },
        {
            "id": 91362,
            "original_name": "Ni dieu ni ma\u00eetre, une histoire de l'anarchisme",
            "popularity": 0.6
        },
        {
            "id": 91595,
            "original_name": "Archers Gallery",
            "popularity": 0.6
        },
        {
            "id": 92166,
            "original_name": "Search for Second Earth",
            "popularity": 0.993
        },
        {
            "id": 93310,
            "original_name": "Archibald's Next Big Thing",
            "popularity": 6.445
        },
        {
            "id": 93930,
            "original_name": "SAS - The Search for Warriors",
            "popularity": 0.6
        },
        {
            "id": 94324,
            "original_name": "Search block",
            "popularity": 0.6
        },
        {
            "id": 94578,
            "original_name": "The Art Of Architecture",
            "popularity": 0.612
        },
        {
            "id": 95972,
            "original_name": "Mars: In Search of the Red Planet",
            "popularity": 0.6
        },
        {
            "id": 97139,
            "original_name": "Architects of Darkness",
            "popularity": 0.6
        },
        {
            "id": 97274,
            "original_name": "Archiwista",
            "popularity": 2.968
        },
        {
            "id": 97729,
            "original_name": "Elis James - Cic Lan yr Archif",
            "popularity": 0.6
        },
        {
            "id": 97909,
            "original_name": "The Archiveologists",
            "popularity": 0.6
        },
        {
            "id": 98171,
            "original_name": "Analog Archives",
            "popularity": 0.639
        },
        {
            "id": 98373,
            "original_name": "Le Marcheur de l'Himalaya",
            "popularity": 0.6
        },
        {
            "id": 98531,
            "original_name": "Les Plus Beaux March\u00e9s d'Europe",
            "popularity": 0.6
        },
        {
            "id": 98589,
            "original_name": "Le marcheur du Caucase",
            "popularity": 0.6
        },
        {
            "id": 98595,
            "original_name": "Architecture Durable",
            "popularity": 0.6
        },
        {
            "id": 99032,
            "original_name": "In Search of Aliens",
            "popularity": 1.632
        },
        {
            "id": 99122,
            "original_name": "The Search For Canada's Game Shows",
            "popularity": 1.96
        },
        {
            "id": 99227,
            "original_name": "Terra X - Ungel\u00f6ste F\u00e4lle der Arch\u00e4ologie",
            "popularity": 0.6
        },
        {
            "id": 99992,
            "original_name": "Wild Archeology",
            "popularity": 0.6
        },
        {
            "id": 103103,
            "original_name": "The Architecture the Railways Built",
            "popularity": 1.307
        },
        {
            "id": 103686,
            "original_name": "The Search for Solutions",
            "popularity": 0.606
        },
        {
            "id": 103915,
            "original_name": "Fachoda ou La Mission Marchand",
            "popularity": 0.6
        },
        {
            "id": 105400,
            "original_name": "Janta Curfew - 22 March",
            "popularity": 0.6
        },
        {
            "id": 105983,
            "original_name": "Bonnet Pe Charcha",
            "popularity": 0.6
        },
        {
            "id": 106789,
            "original_name": "Slovensk\u00ed archeol\u00f3govia na Slovensku",
            "popularity": 0.6
        },
        {
            "id": 110595,
            "original_name": "Little Mix: The Search",
            "popularity": 1.903
        },
        {
            "id": 111913,
            "original_name": "Henry VIII: Man Monarch Monster",
            "popularity": 1.134
        },
        {
            "id": 112240,
            "original_name": "Searching for Superhuman",
            "popularity": 0.84
        },
        {
            "id": 112314,
            "original_name": "Archive 81",
            "popularity": 5.386
        },
        {
            "id": 112599,
            "original_name": "Sin parche",
            "popularity": 0.607
        },
        {
            "id": 113133,
            "original_name": "L'\u00e9volution en marche",
            "popularity": 0.6
        },
        {
            "id": 113140,
            "original_name": "Search and Rescue: North Shore",
            "popularity": 1.4
        },
        {
            "id": 114375,
            "original_name": "RBO - The Archives",
            "popularity": 0.725
        },
        {
            "id": 116140,
            "original_name": "Les Monarchies face \u00e0 Hitler",
            "popularity": 0.84
        },
        {
            "id": 116662,
            "original_name": "QAnon: The Search for Q",
            "popularity": 0.84
        },
        {
            "id": 117852,
            "original_name": "Stop, Search, Seize",
            "popularity": 5.828
        },
        {
            "id": 118219,
            "original_name": "Archipel de feu",
            "popularity": 0.6
        },
        {
            "id": 118446,
            "original_name": "Noc v arch\u00edve",
            "popularity": 0.6
        },
        {
            "id": 118762,
            "original_name": "Aus dem Archiv",
            "popularity": 1.277
        },
        {
            "id": 118937,
            "original_name": "Expedition Unknown: Search for the Afterlife",
            "popularity": 0.604
        },
        {
            "id": 119027,
            "original_name": "Archiwum X - \u015aledztwa po latach",
            "popularity": 0.6
        },
        {
            "id": 119033,
            "original_name": "Stanley Tucci: Searching for Italy",
            "popularity": 2.709
        },
        {
            "id": 119855,
            "original_name": "Middlemarch",
            "popularity": 0.6
        },
        {
            "id": 120309,
            "original_name": "Parchayi",
            "popularity": 0.682
        },
        {
            "id": 120962,
            "original_name": "National Archives WWII: Air War",
            "popularity": 0.6
        },
        {
            "id": 121578,
            "original_name": "L'Arche de Zo\u00e9",
            "popularity": 0.6
        },
        {
            "id": 125268,
            "original_name": "HistoryMarche",
            "popularity": 0.848
        },
        {
            "id": 125713,
            "original_name": "Monarch",
            "popularity": 4.295
        },
        {
            "id": 126134,
            "original_name": "In Search of Hidden Holy Sites",
            "popularity": 0.6
        },
        {
            "id": 126361,
            "original_name": "People's Palaces: The Golden Age of Civic Architecture",
            "popularity": 0.6
        },
        {
            "id": 127140,
            "original_name": "Fred And Rose West: The Search For The Victims",
            "popularity": 0.722
        },
        {
            "id": 127489,
            "original_name": "Nachhaltige Architektur",
            "popularity": 0.6
        },
        {
            "id": 127605,
            "original_name": "Searching for Secrets",
            "popularity": 1.4
        },
        {
            "id": 127624,
            "original_name": "Finding the Archibald",
            "popularity": 5.17
        },
        {
            "id": 127799,
            "original_name": "Searching for Secrets",
            "popularity": 1.4
        },
        {
            "id": 127914,
            "original_name": "Murder at the Cottage: The Search for Justice for Sophie",
            "popularity": 9.761
        },
        {
            "id": 129277,
            "original_name": "Archibald's Next Big Thing Is Here",
            "popularity": 1.031
        },
        {
            "id": 129354,
            "original_name": "UConn: The March to Madness",
            "popularity": 0.6
        },
        {
            "id": 129775,
            "original_name": "Utopia: In Search of the Dream",
            "popularity": 0.6
        },
        {
            "id": 130087,
            "original_name": "King George and Queen Mary: The Royals Who Rescued the Monarchy",
            "popularity": 0.6
        },
        {
            "id": 130117,
            "original_name": "In Search of Speed",
            "popularity": 0.6
        },
        {
            "id": 130622,
            "original_name": "In Search of The Frog Boys",
            "popularity": 0.6
        },
        {
            "id": 130908,
            "original_name": "Lost Worlds: The Story of Archaeology",
            "popularity": 0.6
        },
        {
            "id": 132999,
            "original_name": "Finding Bigfoot: The Search Continues",
            "popularity": 0.6
        },
        {
            "id": 134909,
            "original_name": "In Search of Medieval Britain",
            "popularity": 0.6
        },
        {
            "id": 138128,
            "original_name": "Jake Black's Search For Adventure",
            "popularity": 0.6
        }
    ],
    "relations": [
        {
            "character": "archi"
        },
        {
            "character": "archy"
        },
        {
            "character": "archa"
        },
        {
            "character": "archl"
        },
        {
            "character": "arche"
        },
        {
            "character": "archh"
        },
        {
            "character": "archs"
        }
    ],
    "top20": [
        {
            "id": 1409,
            "original_name": "Sons of Anarchy",
            "popularity": 95.896
        },
        {
            "id": 10283,
            "original_name": "Archer",
            "popularity": 50.911
        },
        {
            "id": 62070,
            "original_name": "\u653b\u6bbb\u6a5f\u52d5\u968a ARISE ALTERNATIVE ARCHITECTURE",
            "popularity": 13.154
        },
        {
            "id": 67697,
            "original_name": "Search Party",
            "popularity": 12.779
        },
        {
            "id": 14599,
            "original_name": "The New Archie and Sabrina Hour",
            "popularity": 11.714
        },
        {
            "id": 127914,
            "original_name": "Murder at the Cottage: The Search for Justice for Sophie",
            "popularity": 9.761
        },
        {
            "id": 11398,
            "original_name": "Search",
            "popularity": 8.863
        },
        {
            "id": 30301,
            "original_name": "Archangel",
            "popularity": 8.43
        },
        {
            "id": 1597,
            "original_name": "Search for Tomorrow",
            "popularity": 7.742
        },
        {
            "id": 93310,
            "original_name": "Archibald's Next Big Thing",
            "popularity": 6.445
        },
        {
            "id": 4277,
            "original_name": "Archie Bunker's Place",
            "popularity": 5.995
        },
        {
            "id": 117852,
            "original_name": "Stop, Search, Seize",
            "popularity": 5.828
        },
        {
            "id": 951,
            "original_name": "The Archie Show",
            "popularity": 5.725
        },
        {
            "id": 112314,
            "original_name": "Archive 81",
            "popularity": 5.386
        },
        {
            "id": 127624,
            "original_name": "Finding the Archibald",
            "popularity": 5.17
        },
        {
            "id": 2215,
            "original_name": "Monarch of the Glen",
            "popularity": 5.156
        },
        {
            "id": 14771,
            "original_name": "Middlemarch",
            "popularity": 5.102
        },
        {
            "id": 37774,
            "original_name": "Marchlands",
            "popularity": 4.353
        },
        {
            "id": 125713,
            "original_name": "Monarch",
            "popularity": 4.295
        },
        {
            "id": 3747,
            "original_name": "Archie's Weird Mysteries",
            "popularity": 3.686
        }
    ]
}