{
    "data": [
        {
            "id": 92840,
            "original_name": "Secreto bien guardado",
            "popularity": 1.277
        }
    ],
    "relations": [],
    "top20": [
        {
            "id": 92840,
            "original_name": "Secreto bien guardado",
            "popularity": 1.277
        }
    ]
}