{
    "data": [
        {
            "id": 102815,
            "original_name": "La Buhardilla",
            "popularity": 1.211
        }
    ],
    "relations": [],
    "top20": [
        {
            "id": 102815,
            "original_name": "La Buhardilla",
            "popularity": 1.211
        }
    ]
}