{
    "data": [
        {
            "id": 3105,
            "original_name": "The Lion, the Witch and the Wardrobe",
            "popularity": 1.213
        },
        {
            "id": 128237,
            "original_name": "\u8056\u5263\u4f1d\u8aac Legend of Mana -The Teardrop Crystal-",
            "popularity": 0.6
        }
    ],
    "relations": [],
    "top20": [
        {
            "id": 3105,
            "original_name": "The Lion, the Witch and the Wardrobe",
            "popularity": 1.213
        },
        {
            "id": 128237,
            "original_name": "\u8056\u5263\u4f1d\u8aac Legend of Mana -The Teardrop Crystal-",
            "popularity": 0.6
        }
    ]
}