{
    "data": [
        {
            "id": 7017,
            "original_name": "Laredo",
            "popularity": 15.515
        },
        {
            "id": 42742,
            "original_name": "Bordertown: Laredo",
            "popularity": 0.6
        },
        {
            "id": 45270,
            "original_name": "Streets of Laredo",
            "popularity": 4.445
        }
    ],
    "relations": [],
    "top20": [
        {
            "id": 7017,
            "original_name": "Laredo",
            "popularity": 15.515
        },
        {
            "id": 42742,
            "original_name": "Bordertown: Laredo",
            "popularity": 0.6
        },
        {
            "id": 45270,
            "original_name": "Streets of Laredo",
            "popularity": 4.445
        }
    ]
}