{
    "data": [
        {
            "id": 2290,
            "original_name": "Stargate Atlantis",
            "popularity": 37.67
        },
        {
            "id": 2580,
            "original_name": "Stargate Infinity",
            "popularity": 3.727
        },
        {
            "id": 4629,
            "original_name": "Stargate SG-1",
            "popularity": 70.505
        },
        {
            "id": 5148,
            "original_name": "Stargate Universe",
            "popularity": 19.652
        },
        {
            "id": 46852,
            "original_name": "Stargate 2012",
            "popularity": 0.6
        },
        {
            "id": 70280,
            "original_name": "Lotta p\u00e5 Br\u00e5kmakargatan",
            "popularity": 0.931
        },
        {
            "id": 72925,
            "original_name": "Stargate Origins",
            "popularity": 14.527
        },
        {
            "id": 130081,
            "original_name": "Vargattacken p\u00e5 Kolm\u00e5rden",
            "popularity": 0.6
        }
    ],
    "relations": [],
    "top20": [
        {
            "id": 2290,
            "original_name": "Stargate Atlantis",
            "popularity": 37.67
        },
        {
            "id": 2580,
            "original_name": "Stargate Infinity",
            "popularity": 3.727
        },
        {
            "id": 4629,
            "original_name": "Stargate SG-1",
            "popularity": 70.505
        },
        {
            "id": 5148,
            "original_name": "Stargate Universe",
            "popularity": 19.652
        },
        {
            "id": 46852,
            "original_name": "Stargate 2012",
            "popularity": 0.6
        },
        {
            "id": 70280,
            "original_name": "Lotta p\u00e5 Br\u00e5kmakargatan",
            "popularity": 0.931
        },
        {
            "id": 72925,
            "original_name": "Stargate Origins",
            "popularity": 14.527
        },
        {
            "id": 130081,
            "original_name": "Vargattacken p\u00e5 Kolm\u00e5rden",
            "popularity": 0.6
        }
    ]
}