{
    "data": [
        {
            "id": 67275,
            "original_name": "ChaarGoosh",
            "popularity": 0.6
        }
    ],
    "relations": [],
    "top20": [
        {
            "id": 67275,
            "original_name": "ChaarGoosh",
            "popularity": 0.6
        }
    ]
}