{
    "data": [
        {
            "id": 53217,
            "original_name": "Lulu w Marjan",
            "popularity": 0.6
        },
        {
            "id": 57384,
            "original_name": "Marja Tyrnin Joulushow",
            "popularity": 0.6
        },
        {
            "id": 57493,
            "original_name": "Harjakaisen & Piisisen talkoot",
            "popularity": 0.6
        },
        {
            "id": 75439,
            "original_name": "Ishq Mein Marjawan",
            "popularity": 4.133
        },
        {
            "id": 102688,
            "original_name": "Harjaei",
            "popularity": 0.6
        },
        {
            "id": 104413,
            "original_name": "Harjaei-DUBLE",
            "popularity": 0.6
        },
        {
            "id": 108972,
            "original_name": "Karjalan kunnailla",
            "popularity": 0.626
        },
        {
            "id": 113841,
            "original_name": "Ishq Mein Marjawan 2",
            "popularity": 1.487
        },
        {
            "id": 127902,
            "original_name": "Cougarjagt - Ung mand s\u00f8ger moden kvinde",
            "popularity": 0.6
        },
        {
            "id": 132780,
            "original_name": "10 Suomalaista sarjamurhaajaa",
            "popularity": 0.6
        }
    ],
    "relations": [],
    "top20": [
        {
            "id": 53217,
            "original_name": "Lulu w Marjan",
            "popularity": 0.6
        },
        {
            "id": 57384,
            "original_name": "Marja Tyrnin Joulushow",
            "popularity": 0.6
        },
        {
            "id": 57493,
            "original_name": "Harjakaisen & Piisisen talkoot",
            "popularity": 0.6
        },
        {
            "id": 75439,
            "original_name": "Ishq Mein Marjawan",
            "popularity": 4.133
        },
        {
            "id": 102688,
            "original_name": "Harjaei",
            "popularity": 0.6
        },
        {
            "id": 104413,
            "original_name": "Harjaei-DUBLE",
            "popularity": 0.6
        },
        {
            "id": 108972,
            "original_name": "Karjalan kunnailla",
            "popularity": 0.626
        },
        {
            "id": 113841,
            "original_name": "Ishq Mein Marjawan 2",
            "popularity": 1.487
        },
        {
            "id": 127902,
            "original_name": "Cougarjagt - Ung mand s\u00f8ger moden kvinde",
            "popularity": 0.6
        },
        {
            "id": 132780,
            "original_name": "10 Suomalaista sarjamurhaajaa",
            "popularity": 0.6
        }
    ]
}