{
    "data": [
        {
            "id": 9341,
            "original_name": "Jerry Yarnell School of Fine Art",
            "popularity": 0.6
        },
        {
            "id": 26506,
            "original_name": "Shields and Yarnell",
            "popularity": 0.6
        },
        {
            "id": 27156,
            "original_name": "Parnell & the Englishwoman",
            "popularity": 0.6
        },
        {
            "id": 29250,
            "original_name": "Val Parnell's Sunday Night at the London Palladium",
            "popularity": 0.6
        },
        {
            "id": 137416,
            "original_name": "Surprise! Die Bruce Darnell Show",
            "popularity": 4.429
        }
    ],
    "relations": [],
    "top20": [
        {
            "id": 9341,
            "original_name": "Jerry Yarnell School of Fine Art",
            "popularity": 0.6
        },
        {
            "id": 26506,
            "original_name": "Shields and Yarnell",
            "popularity": 0.6
        },
        {
            "id": 27156,
            "original_name": "Parnell & the Englishwoman",
            "popularity": 0.6
        },
        {
            "id": 29250,
            "original_name": "Val Parnell's Sunday Night at the London Palladium",
            "popularity": 0.6
        },
        {
            "id": 137416,
            "original_name": "Surprise! Die Bruce Darnell Show",
            "popularity": 4.429
        }
    ]
}