{
    "data": [
        {
            "id": 24537,
            "original_name": "The Carnforth Practice",
            "popularity": 0.766
        }
    ],
    "relations": [],
    "top20": [
        {
            "id": 24537,
            "original_name": "The Carnforth Practice",
            "popularity": 0.766
        }
    ]
}