{
    "data": [
        {
            "id": 106013,
            "original_name": "Kharonch",
            "popularity": 0.6
        }
    ],
    "relations": [],
    "top20": [
        {
            "id": 106013,
            "original_name": "Kharonch",
            "popularity": 0.6
        }
    ]
}