{
    "data": [
        {
            "id": 53257,
            "original_name": "Oi mystikoi arravones",
            "popularity": 0.6
        }
    ],
    "relations": [],
    "top20": [
        {
            "id": 53257,
            "original_name": "Oi mystikoi arravones",
            "popularity": 0.6
        }
    ]
}