{
    "data": [
        {
            "id": 468,
            "original_name": "Monster Warriors",
            "popularity": 0.862
        },
        {
            "id": 1718,
            "original_name": "Skeleton Warriors",
            "popularity": 1.042
        },
        {
            "id": 3872,
            "original_name": "Conan and the Young Warriors",
            "popularity": 1.013
        },
        {
            "id": 4616,
            "original_name": "Xena: Warrior Princess",
            "popularity": 48.222
        },
        {
            "id": 5443,
            "original_name": "Mythic Warriors",
            "popularity": 0.621
        },
        {
            "id": 5957,
            "original_name": "Warrior Challenge",
            "popularity": 0.6
        },
        {
            "id": 6268,
            "original_name": "Warriors",
            "popularity": 0.6
        },
        {
            "id": 8804,
            "original_name": "Wulin Warriors",
            "popularity": 0.6
        },
        {
            "id": 9526,
            "original_name": "Warrior Queen",
            "popularity": 0.686
        },
        {
            "id": 10311,
            "original_name": "Wizards and Warriors",
            "popularity": 2.232
        },
        {
            "id": 12490,
            "original_name": "Barrio S\u00e9samo",
            "popularity": 0.6
        },
        {
            "id": 12965,
            "original_name": "Mar\u00eda la del Barrio",
            "popularity": 208.58
        },
        {
            "id": 17141,
            "original_name": "Warriors with Terry Schappert",
            "popularity": 0.6
        },
        {
            "id": 17367,
            "original_name": "Shaolin Monk Warriors",
            "popularity": 0.6
        },
        {
            "id": 17762,
            "original_name": "Wall Street Warriors",
            "popularity": 1.4
        },
        {
            "id": 18545,
            "original_name": "Deadliest Warrior",
            "popularity": 2.895
        },
        {
            "id": 18547,
            "original_name": "Warriors in Transit",
            "popularity": 0.6
        },
        {
            "id": 19765,
            "original_name": "Barrio 19",
            "popularity": 0.6
        },
        {
            "id": 20075,
            "original_name": "UFO Warrior Dai Apolon",
            "popularity": 0.6
        },
        {
            "id": 20898,
            "original_name": "Wimps to Warriors",
            "popularity": 0.6
        },
        {
            "id": 23655,
            "original_name": "Robot Wars: Extreme Warriors",
            "popularity": 1.4
        },
        {
            "id": 24347,
            "original_name": "Weekend Warriors",
            "popularity": 0.6
        },
        {
            "id": 25037,
            "original_name": "Warehouse Warriors",
            "popularity": 0.6
        },
        {
            "id": 25690,
            "original_name": "Warrior Challenge",
            "popularity": 0.6
        },
        {
            "id": 26683,
            "original_name": "Ninja Warrior",
            "popularity": 1.645
        },
        {
            "id": 27020,
            "original_name": "AWF Warriors of Wrestling",
            "popularity": 0.845
        },
        {
            "id": 29653,
            "original_name": "The Age of Warriors",
            "popularity": 2.055
        },
        {
            "id": 30333,
            "original_name": "Warrior Nation",
            "popularity": 0.6
        },
        {
            "id": 31987,
            "original_name": "Warriors",
            "popularity": 0.6
        },
        {
            "id": 32109,
            "original_name": "Spirit Warriors",
            "popularity": 0.6
        },
        {
            "id": 36974,
            "original_name": "Fish Warrior",
            "popularity": 0.6
        },
        {
            "id": 37248,
            "original_name": "Road Warriors",
            "popularity": 0.6
        },
        {
            "id": 37913,
            "original_name": "American Ninja Warrior",
            "popularity": 10.965
        },
        {
            "id": 38211,
            "original_name": "Fish Warrior",
            "popularity": 0.6
        },
        {
            "id": 38222,
            "original_name": "Maria la del Barrio",
            "popularity": 0.7
        },
        {
            "id": 38376,
            "original_name": "Tailgate Warriors with Guy Fieri",
            "popularity": 0.6
        },
        {
            "id": 38669,
            "original_name": "Car Warriors",
            "popularity": 0.6
        },
        {
            "id": 39475,
            "original_name": "Ice Warriors",
            "popularity": 0.6
        },
        {
            "id": 43089,
            "original_name": "Market Warriors",
            "popularity": 0.6
        },
        {
            "id": 43239,
            "original_name": "Great Lake Warriors",
            "popularity": 0.6
        },
        {
            "id": 44297,
            "original_name": "Warrior Queen Boudica",
            "popularity": 0.84
        },
        {
            "id": 45403,
            "original_name": "SD\u30ac\u30f3\u30c0\u30e0\u4e09\u56fd\u4f1d Brave Battle Warriors",
            "popularity": 0.843
        },
        {
            "id": 45755,
            "original_name": "Knights and Warriors",
            "popularity": 0.6
        },
        {
            "id": 48242,
            "original_name": "Wind Warrior",
            "popularity": 0.6
        },
        {
            "id": 48564,
            "original_name": "The Mystic Warrior",
            "popularity": 1.4
        },
        {
            "id": 49290,
            "original_name": "Incognito Cinema Warriors XP",
            "popularity": 0.6
        },
        {
            "id": 52201,
            "original_name": "Chess Warriors",
            "popularity": 0.6
        },
        {
            "id": 58051,
            "original_name": "Steve Irwin's Wildlife Warriors",
            "popularity": 0.6
        },
        {
            "id": 58246,
            "original_name": "Cassandra: Warrior Angel",
            "popularity": 0.6
        },
        {
            "id": 59180,
            "original_name": "Great Lake Warriors",
            "popularity": 0.6
        },
        {
            "id": 59672,
            "original_name": "Ancient Warriors",
            "popularity": 0.6
        },
        {
            "id": 60158,
            "original_name": "SD Gundam Legend of the Three Kingdoms Brave Battle Warriors",
            "popularity": 1.428
        },
        {
            "id": 60877,
            "original_name": "Bravest Warriors",
            "popularity": 5.624
        },
        {
            "id": 62235,
            "original_name": "Ninja Warrior Sweden",
            "popularity": 0.6
        },
        {
            "id": 62734,
            "original_name": "Pr\u00edncipes de barrio",
            "popularity": 1.255
        },
        {
            "id": 63408,
            "original_name": "Amor de barrio",
            "popularity": 0.715
        },
        {
            "id": 64169,
            "original_name": "Air Warriors",
            "popularity": 1.485
        },
        {
            "id": 65595,
            "original_name": "American Ninja Warrior: Ninja vs. Ninja",
            "popularity": 1.837
        },
        {
            "id": 66486,
            "original_name": "Labia: Warrior Princess",
            "popularity": 0.6
        },
        {
            "id": 67051,
            "original_name": "Ninja Warrior : Le Parcours des h\u00e9ros",
            "popularity": 1.415
        },
        {
            "id": 70479,
            "original_name": "Navy SEALs: America's Secret Warriors",
            "popularity": 2.366
        },
        {
            "id": 70783,
            "original_name": "The Warriors",
            "popularity": 0.621
        },
        {
            "id": 72332,
            "original_name": "Ninja Warrior Espa\u00f1a",
            "popularity": 0.93
        },
        {
            "id": 72776,
            "original_name": "Ninja Warrior NL",
            "popularity": 0.882
        },
        {
            "id": 73255,
            "original_name": "American Ninja Warrior: Crashing The Course",
            "popularity": 1.178
        },
        {
            "id": 73340,
            "original_name": "De Vuelta al Barrio",
            "popularity": 4.549
        },
        {
            "id": 73461,
            "original_name": "Ninja Warrior Germany",
            "popularity": 12.165
        },
        {
            "id": 73544,
            "original_name": "Warrior",
            "popularity": 29.032
        },
        {
            "id": 73986,
            "original_name": "Warrior",
            "popularity": 0.6
        },
        {
            "id": 74445,
            "original_name": "SAS: Rogue Warriors",
            "popularity": 0.6
        },
        {
            "id": 76250,
            "original_name": "Warrior POV",
            "popularity": 0.6
        },
        {
            "id": 76676,
            "original_name": "Los reyes del barrio",
            "popularity": 1.14
        },
        {
            "id": 76854,
            "original_name": "Wildlife Warriors",
            "popularity": 0.6
        },
        {
            "id": 77454,
            "original_name": "Mariposa de barrio",
            "popularity": 5.648
        },
        {
            "id": 78149,
            "original_name": "Epic Warrior Women",
            "popularity": 1.337
        },
        {
            "id": 80958,
            "original_name": "Australian Ninja Warrior",
            "popularity": 1.128
        },
        {
            "id": 82427,
            "original_name": "Warriors of Liberty City",
            "popularity": 0.737
        },
        {
            "id": 82729,
            "original_name": "Paquita la del Barrio",
            "popularity": 4.038
        },
        {
            "id": 83111,
            "original_name": "Jenni Rivera: Mariposa de Barrio",
            "popularity": 71.603
        },
        {
            "id": 83168,
            "original_name": "Ninja Warrior Hungary",
            "popularity": 0.6
        },
        {
            "id": 83468,
            "original_name": "Clash of Warriors",
            "popularity": 0.6
        },
        {
            "id": 83590,
            "original_name": "Wolves and Warriors",
            "popularity": 0.6
        },
        {
            "id": 87689,
            "original_name": "Warrior Nun",
            "popularity": 43.265
        },
        {
            "id": 88127,
            "original_name": "Ninja Warrior UK",
            "popularity": 0.6
        },
        {
            "id": 90256,
            "original_name": "Barrio S\u00e9samo",
            "popularity": 0.6
        },
        {
            "id": 90370,
            "original_name": "Team Ninja Warrior Germany",
            "popularity": 1.168
        },
        {
            "id": 91234,
            "original_name": "Ainsley Harriott's Street Food",
            "popularity": 0.602
        },
        {
            "id": 91390,
            "original_name": "American Ninja Warrior Junior",
            "popularity": 2.528
        },
        {
            "id": 92468,
            "original_name": "La Familia del Barrio",
            "popularity": 34.92
        },
        {
            "id": 93238,
            "original_name": "Barrio Kulimlim",
            "popularity": 0.6
        },
        {
            "id": 93930,
            "original_name": "SAS - The Search for Warriors",
            "popularity": 0.6
        },
        {
            "id": 99264,
            "original_name": "Rapper Warrior Ninja",
            "popularity": 0.6
        },
        {
            "id": 103839,
            "original_name": "The Warrior's Way",
            "popularity": 0.913
        },
        {
            "id": 104551,
            "original_name": "Bushido: Way of the Warrior",
            "popularity": 0.6
        },
        {
            "id": 104801,
            "original_name": "Dark Rising: Warrior of Worlds",
            "popularity": 1.4
        },
        {
            "id": 106671,
            "original_name": "Big Rig Warriors",
            "popularity": 1.123
        },
        {
            "id": 107152,
            "original_name": "As\u00ed en el barrio como en el cielo",
            "popularity": 0.6
        },
        {
            "id": 107579,
            "original_name": "Australian Ninja Warrior: State of Origin",
            "popularity": 0.6
        },
        {
            "id": 114534,
            "original_name": "Pacific Warriors",
            "popularity": 0.6
        },
        {
            "id": 114751,
            "original_name": "The Warrior Show",
            "popularity": 0.6
        },
        {
            "id": 114757,
            "original_name": "Ladakh Warriors: The Sons Of The Soil",
            "popularity": 0.649
        },
        {
            "id": 114776,
            "original_name": "Ocean Warriors",
            "popularity": 0.6
        },
        {
            "id": 117221,
            "original_name": "Civil Warriors",
            "popularity": 0.6
        },
        {
            "id": 117646,
            "original_name": "Alaska Off-Road Warriors",
            "popularity": 0.6
        },
        {
            "id": 122641,
            "original_name": "Ninja Warrior Germany Allstars",
            "popularity": 0.6
        },
        {
            "id": 125708,
            "original_name": "Bushido: The Way of the Warrior",
            "popularity": 0.6
        },
        {
            "id": 128024,
            "original_name": "Unicorn: Warriors Eternal",
            "popularity": 0.6
        },
        {
            "id": 131811,
            "original_name": "New Wave Warriors",
            "popularity": 0.6
        },
        {
            "id": 132715,
            "original_name": "Ninja Warrior Polska",
            "popularity": 0.6
        },
        {
            "id": 134720,
            "original_name": "Warrior Women with Lucy Lawless",
            "popularity": 0.6
        },
        {
            "id": 134959,
            "original_name": "Richard the Lionheart and Saladin: Holy Warriors",
            "popularity": 0.6
        },
        {
            "id": 136037,
            "original_name": "Rescue Warriors",
            "popularity": 0.6
        },
        {
            "id": 138526,
            "original_name": "Akedo: Ultimate Arcade Warriors",
            "popularity": 0.933
        }
    ],
    "relations": [
        {
            "character": "arrior"
        },
        {
            "character": "arriot"
        }
    ],
    "top20": [
        {
            "id": 12965,
            "original_name": "Mar\u00eda la del Barrio",
            "popularity": 208.58
        },
        {
            "id": 83111,
            "original_name": "Jenni Rivera: Mariposa de Barrio",
            "popularity": 71.603
        },
        {
            "id": 4616,
            "original_name": "Xena: Warrior Princess",
            "popularity": 48.222
        },
        {
            "id": 87689,
            "original_name": "Warrior Nun",
            "popularity": 43.265
        },
        {
            "id": 92468,
            "original_name": "La Familia del Barrio",
            "popularity": 34.92
        },
        {
            "id": 73544,
            "original_name": "Warrior",
            "popularity": 29.032
        },
        {
            "id": 73461,
            "original_name": "Ninja Warrior Germany",
            "popularity": 12.165
        },
        {
            "id": 37913,
            "original_name": "American Ninja Warrior",
            "popularity": 10.965
        },
        {
            "id": 77454,
            "original_name": "Mariposa de barrio",
            "popularity": 5.648
        },
        {
            "id": 60877,
            "original_name": "Bravest Warriors",
            "popularity": 5.624
        },
        {
            "id": 73340,
            "original_name": "De Vuelta al Barrio",
            "popularity": 4.549
        },
        {
            "id": 82729,
            "original_name": "Paquita la del Barrio",
            "popularity": 4.038
        },
        {
            "id": 18545,
            "original_name": "Deadliest Warrior",
            "popularity": 2.895
        },
        {
            "id": 91390,
            "original_name": "American Ninja Warrior Junior",
            "popularity": 2.528
        },
        {
            "id": 70479,
            "original_name": "Navy SEALs: America's Secret Warriors",
            "popularity": 2.366
        },
        {
            "id": 10311,
            "original_name": "Wizards and Warriors",
            "popularity": 2.232
        },
        {
            "id": 29653,
            "original_name": "The Age of Warriors",
            "popularity": 2.055
        },
        {
            "id": 65595,
            "original_name": "American Ninja Warrior: Ninja vs. Ninja",
            "popularity": 1.837
        },
        {
            "id": 26683,
            "original_name": "Ninja Warrior",
            "popularity": 1.645
        },
        {
            "id": 64169,
            "original_name": "Air Warriors",
            "popularity": 1.485
        }
    ]
}