{
    "data": [
        {
            "id": 7241,
            "original_name": "Codename: Asero",
            "popularity": 0.6
        },
        {
            "id": 8078,
            "original_name": "Condename: Asero",
            "popularity": 0.6
        }
    ],
    "relations": [],
    "top20": [
        {
            "id": 7241,
            "original_name": "Codename: Asero",
            "popularity": 0.6
        },
        {
            "id": 8078,
            "original_name": "Condename: Asero",
            "popularity": 0.6
        }
    ]
}