{
    "data": [
        {
            "id": 21903,
            "original_name": "Flashez",
            "popularity": 0.84
        }
    ],
    "relations": [],
    "top20": [
        {
            "id": 21903,
            "original_name": "Flashez",
            "popularity": 0.84
        }
    ]
}