{
    "data": [
        {
            "id": 20445,
            "original_name": "Pasila",
            "popularity": 1.249
        },
        {
            "id": 53597,
            "original_name": "El-Set Asila",
            "popularity": 0.6
        },
        {
            "id": 65847,
            "original_name": "Pasila 2.5 The Spin-Off",
            "popularity": 1.678
        }
    ],
    "relations": [],
    "top20": [
        {
            "id": 20445,
            "original_name": "Pasila",
            "popularity": 1.249
        },
        {
            "id": 53597,
            "original_name": "El-Set Asila",
            "popularity": 0.6
        },
        {
            "id": 65847,
            "original_name": "Pasila 2.5 The Spin-Off",
            "popularity": 1.678
        }
    ]
}