{
    "data": [
        {
            "id": 14111,
            "original_name": "Chhoona Hai Aasmaan",
            "popularity": 0.6
        },
        {
            "id": 14202,
            "original_name": "Thodi Si Zameen Thoda Sa Aasmaan",
            "popularity": 0.6
        },
        {
            "id": 56450,
            "original_name": "La Ara La Asmaa La Atkalam",
            "popularity": 0.6
        },
        {
            "id": 58101,
            "original_name": "Ek Mutthi Aasmaan",
            "popularity": 0.6
        },
        {
            "id": 118334,
            "original_name": "Ek Mutthi Aasmaan",
            "popularity": 0.6
        },
        {
            "id": 125307,
            "original_name": "\u0628\u062f\u0648\u0646 \u0630\u0643\u0631 \u0623\u0633\u0645\u0627\u0621 - bedon Zekr asmaa",
            "popularity": 0.6
        },
        {
            "id": 125591,
            "original_name": "Khule Aasmaan Ke Niche",
            "popularity": 0.907
        }
    ],
    "relations": [],
    "top20": [
        {
            "id": 14111,
            "original_name": "Chhoona Hai Aasmaan",
            "popularity": 0.6
        },
        {
            "id": 14202,
            "original_name": "Thodi Si Zameen Thoda Sa Aasmaan",
            "popularity": 0.6
        },
        {
            "id": 56450,
            "original_name": "La Ara La Asmaa La Atkalam",
            "popularity": 0.6
        },
        {
            "id": 58101,
            "original_name": "Ek Mutthi Aasmaan",
            "popularity": 0.6
        },
        {
            "id": 118334,
            "original_name": "Ek Mutthi Aasmaan",
            "popularity": 0.6
        },
        {
            "id": 125307,
            "original_name": "\u0628\u062f\u0648\u0646 \u0630\u0643\u0631 \u0623\u0633\u0645\u0627\u0621 - bedon Zekr asmaa",
            "popularity": 0.6
        },
        {
            "id": 125591,
            "original_name": "Khule Aasmaan Ke Niche",
            "popularity": 0.907
        }
    ]
}