{
    "data": [
        {
            "id": 26084,
            "original_name": "At Last...It's Mike Elliott",
            "popularity": 0.6
        }
    ],
    "relations": [],
    "top20": [
        {
            "id": 26084,
            "original_name": "At Last...It's Mike Elliott",
            "popularity": 0.6
        }
    ]
}