{
    "data": [
        {
            "id": 101899,
            "original_name": "Megastadium : le tour d'Europe",
            "popularity": 0.6
        }
    ],
    "relations": [],
    "top20": [
        {
            "id": 101899,
            "original_name": "Megastadium : le tour d'Europe",
            "popularity": 0.6
        }
    ]
}