{
    "data": [
        {
            "id": 442,
            "original_name": "Castaway 2007",
            "popularity": 0.6
        },
        {
            "id": 706,
            "original_name": "Basta Sports",
            "popularity": 0.6
        },
        {
            "id": 4122,
            "original_name": "Castaway 2000",
            "popularity": 1.802
        },
        {
            "id": 5158,
            "original_name": "Blastazoid",
            "popularity": 0.6
        },
        {
            "id": 5891,
            "original_name": "Bastard Boys",
            "popularity": 1.349
        },
        {
            "id": 10097,
            "original_name": "Dastardly and Muttley in Their Flying Machines",
            "popularity": 10.592
        },
        {
            "id": 10384,
            "original_name": "Shasta McNasty",
            "popularity": 1.858
        },
        {
            "id": 11940,
            "original_name": "Castaways in Italy",
            "popularity": 0.6
        },
        {
            "id": 15255,
            "original_name": "\u5fae\u7b11PASTA",
            "popularity": 0.677
        },
        {
            "id": 15450,
            "original_name": "Basta't Kasama Kita",
            "popularity": 1.4
        },
        {
            "id": 15818,
            "original_name": "Yeh Shaam Mastani",
            "popularity": 0.6
        },
        {
            "id": 15919,
            "original_name": "The Coastal Gardener",
            "popularity": 0.6
        },
        {
            "id": 16611,
            "original_name": "Estrambotica Anastasia",
            "popularity": 1.094
        },
        {
            "id": 18674,
            "original_name": "Dear Friend: Madrasta",
            "popularity": 0.6
        },
        {
            "id": 18685,
            "original_name": "Hasta Que el Dinero Nos Separe",
            "popularity": 20.599
        },
        {
            "id": 21016,
            "original_name": "Ser Bonita No Basta",
            "popularity": 3.938
        },
        {
            "id": 24450,
            "original_name": "Alastair Campbell Diaries",
            "popularity": 0.6
        },
        {
            "id": 28255,
            "original_name": "Chan Canasta",
            "popularity": 0.6
        },
        {
            "id": 31054,
            "original_name": "Qui peut battre Benjamin Castaldi?",
            "popularity": 0.6
        },
        {
            "id": 31753,
            "original_name": "Coastal Dreams",
            "popularity": 1.4
        },
        {
            "id": 31864,
            "original_name": "Popstar to Operastar",
            "popularity": 1.166
        },
        {
            "id": 33994,
            "original_name": "Benidorm Bastards",
            "popularity": 0.6
        },
        {
            "id": 34542,
            "original_name": "Castaway",
            "popularity": 0.886
        },
        {
            "id": 35258,
            "original_name": "Rastamouse",
            "popularity": 1.411
        },
        {
            "id": 35495,
            "original_name": "Castaway Exposed",
            "popularity": 0.604
        },
        {
            "id": 35960,
            "original_name": "Benidorm Bastards",
            "popularity": 0.6
        },
        {
            "id": 37346,
            "original_name": "The Castaways",
            "popularity": 0.876
        },
        {
            "id": 37411,
            "original_name": "BiCoastal",
            "popularity": 0.6
        },
        {
            "id": 38629,
            "original_name": "Basta",
            "popularity": 0.6
        },
        {
            "id": 38755,
            "original_name": "Avastars",
            "popularity": 0.848
        },
        {
            "id": 42211,
            "original_name": "Phir Chand Pe Dastak",
            "popularity": 0.6
        },
        {
            "id": 42947,
            "original_name": "Anastasia",
            "popularity": 0.84
        },
        {
            "id": 47243,
            "original_name": "Anastasia: The Mystery of Anna",
            "popularity": 3.294
        },
        {
            "id": 48505,
            "original_name": "Prawo miasta",
            "popularity": 0.6
        },
        {
            "id": 49596,
            "original_name": "Fred Astaire",
            "popularity": 0.84
        },
        {
            "id": 50193,
            "original_name": "Hastayim doktor",
            "popularity": 0.6
        },
        {
            "id": 51672,
            "original_name": "Ellie Lambeti: I teleutaia parastasi",
            "popularity": 0.6
        },
        {
            "id": 54630,
            "original_name": "Stavrosi xoris anastasi",
            "popularity": 0.6
        },
        {
            "id": 54990,
            "original_name": "Rakastan, rakastan",
            "popularity": 0.6
        },
        {
            "id": 55852,
            "original_name": "Naked Castaway",
            "popularity": 0.6
        },
        {
            "id": 57611,
            "original_name": "Der Knastarzt",
            "popularity": 0.854
        },
        {
            "id": 59474,
            "original_name": "Badalte Rishton Ki Dastaan",
            "popularity": 0.87
        },
        {
            "id": 59618,
            "original_name": "Gastank",
            "popularity": 0.6
        },
        {
            "id": 61861,
            "original_name": "Hasta el fin del mundo",
            "popularity": 6.277
        },
        {
            "id": 63349,
            "original_name": "The Bastard Executioner",
            "popularity": 11.5
        },
        {
            "id": 64945,
            "original_name": "Lucky Bastards",
            "popularity": 0.6
        },
        {
            "id": 64976,
            "original_name": "Rat Bastards",
            "popularity": 0.6
        },
        {
            "id": 67637,
            "original_name": "Hasta que te conoc\u00ed",
            "popularity": 44.716
        },
        {
            "id": 69142,
            "original_name": "I bastardi di Pizzofalcone",
            "popularity": 13.941
        },
        {
            "id": 75866,
            "original_name": "Smashie's Xmastastic Playlist",
            "popularity": 0.852
        },
        {
            "id": 76678,
            "original_name": "Luonnonmukainen rakastaja",
            "popularity": 0.757
        },
        {
            "id": 79571,
            "original_name": "Antti Holma ja maastamuuttajat",
            "popularity": 0.6
        },
        {
            "id": 81479,
            "original_name": "Crush , la pasta te aplasta",
            "popularity": 1.4
        },
        {
            "id": 81675,
            "original_name": "Castaways",
            "popularity": 0.6
        },
        {
            "id": 81979,
            "original_name": "11000 Aastat Hiljem",
            "popularity": 0.6
        },
        {
            "id": 82664,
            "original_name": "Dastaan-E-Mohabbat: Salim Anarkali",
            "popularity": 1.872
        },
        {
            "id": 82957,
            "original_name": "Saastamoisen Poika",
            "popularity": 0.6
        },
        {
            "id": 85959,
            "original_name": "Lombard. \u017bycie pod zastaw",
            "popularity": 4.428
        },
        {
            "id": 86300,
            "original_name": "Coastal Railways with Julie Walters",
            "popularity": 0.676
        },
        {
            "id": 86355,
            "original_name": "Coastal Walks with My Dog",
            "popularity": 0.6
        },
        {
            "id": 88534,
            "original_name": "Adam's Pasta Pilgrimage",
            "popularity": 0.6
        },
        {
            "id": 88706,
            "original_name": "Penelope Keith's Coastal Villages",
            "popularity": 0.6
        },
        {
            "id": 91018,
            "original_name": "La pasta pomil\u03c9ri",
            "popularity": 0.6
        },
        {
            "id": 92534,
            "original_name": "Hasta luego, cocodrilo",
            "popularity": 0.6
        },
        {
            "id": 93050,
            "original_name": "Ceria Megastar Ministar",
            "popularity": 0.6
        },
        {
            "id": 93857,
            "original_name": "Bad Creepypasta",
            "popularity": 0.84
        },
        {
            "id": 93966,
            "original_name": "Prawo Miasta",
            "popularity": 0.6
        },
        {
            "id": 99276,
            "original_name": "The Shape of Pasta",
            "popularity": 0.65
        },
        {
            "id": 100087,
            "original_name": "Hasta que la plata nos separe",
            "popularity": 9.503
        },
        {
            "id": 101684,
            "original_name": "I Teleftea Parastasi",
            "popularity": 0.6
        },
        {
            "id": 101899,
            "original_name": "Megastadium : le tour d'Europe",
            "popularity": 0.6
        },
        {
            "id": 101943,
            "original_name": "Royal Misfits: Backstage at Anastasia with Christy Altomare",
            "popularity": 0.631
        },
        {
            "id": 102023,
            "original_name": "Pasta Like a Pro: Everyday to Gourmet",
            "popularity": 0.87
        },
        {
            "id": 102248,
            "original_name": "Dastane Ma",
            "popularity": 0.6
        },
        {
            "id": 102998,
            "original_name": "Los Bastardos",
            "popularity": 2.556
        },
        {
            "id": 103555,
            "original_name": "castaway 2000",
            "popularity": 0.6
        },
        {
            "id": 105693,
            "original_name": "The Adventures Of Abbaas Mastan",
            "popularity": 0.6
        },
        {
            "id": 114669,
            "original_name": "Peter Kuruvita's Coastal Kitchen",
            "popularity": 0.6
        },
        {
            "id": 115508,
            "original_name": "Coastal Africa",
            "popularity": 0.6
        },
        {
            "id": 115567,
            "original_name": "La cocinera de Castamar",
            "popularity": 10.918
        },
        {
            "id": 116597,
            "original_name": "D-1 DEVASTATOR",
            "popularity": 0.6
        },
        {
            "id": 117973,
            "original_name": "Adrian Dunbar's Coastal Ireland",
            "popularity": 0.84
        },
        {
            "id": 118644,
            "original_name": "Dorastanie",
            "popularity": 0.6
        },
        {
            "id": 119326,
            "original_name": "Astartes",
            "popularity": 0.6
        },
        {
            "id": 120478,
            "original_name": "Kate Humble's Coastal Britain",
            "popularity": 0.84
        },
        {
            "id": 121543,
            "original_name": "Parasta aikaa",
            "popularity": 1.098
        },
        {
            "id": 122045,
            "original_name": "LIMBO\u2026 hasta que lo decida",
            "popularity": 1.767
        },
        {
            "id": 125266,
            "original_name": "AVASTARS",
            "popularity": 0.6
        },
        {
            "id": 126563,
            "original_name": "Der Bastard",
            "popularity": 0.6
        },
        {
            "id": 126884,
            "original_name": "A Rainha e a Bastarda",
            "popularity": 1.115
        },
        {
            "id": 127538,
            "original_name": "\u015eokopop Portreler: Megastar Tarkan",
            "popularity": 5.054
        },
        {
            "id": 127865,
            "original_name": "Kastanjemanden",
            "popularity": 144.098
        },
        {
            "id": 128107,
            "original_name": "Bastardi (Seri\u00e1l)",
            "popularity": 1.346
        },
        {
            "id": 129629,
            "original_name": "Front And Center: Trey Anastasio: Brooklyn Bowl 2014",
            "popularity": 0.846
        },
        {
            "id": 131994,
            "original_name": "Soppa Nasta Kahi",
            "popularity": 0.6
        },
        {
            "id": 132060,
            "original_name": "Coastal Devon & Cornwall with Michael Portillo",
            "popularity": 4.758
        },
        {
            "id": 133654,
            "original_name": "Coastal Path",
            "popularity": 0.6
        },
        {
            "id": 135500,
            "original_name": "ESTRAMBOTICA ANASTASIA",
            "popularity": 0.706
        },
        {
            "id": 136612,
            "original_name": "Ankahee Dastaan",
            "popularity": 0.84
        },
        {
            "id": 136696,
            "original_name": "Robson Green: Coastal Fishing",
            "popularity": 0.861
        },
        {
            "id": 138356,
            "original_name": "Bastards",
            "popularity": 0.6
        },
        {
            "id": 139372,
            "original_name": "Royal Bastards: Rise of the Tudors",
            "popularity": 15.188
        },
        {
            "id": 139508,
            "original_name": "Asta Basta Bum",
            "popularity": 0.6
        }
    ],
    "relations": [
        {
            "character": "astaw"
        },
        {
            "character": "astaz"
        },
        {
            "character": "astar"
        },
        {
            "character": "astan"
        },
        {
            "character": "astal"
        },
        {
            "character": "astas"
        },
        {
            "character": "astai"
        },
        {
            "character": "astam"
        },
        {
            "character": "astak"
        },
        {
            "character": "astay"
        },
        {
            "character": "astaa"
        },
        {
            "character": "astaj"
        },
        {
            "character": "astat"
        },
        {
            "character": "astad"
        }
    ],
    "top20": [
        {
            "id": 127865,
            "original_name": "Kastanjemanden",
            "popularity": 144.098
        },
        {
            "id": 67637,
            "original_name": "Hasta que te conoc\u00ed",
            "popularity": 44.716
        },
        {
            "id": 18685,
            "original_name": "Hasta Que el Dinero Nos Separe",
            "popularity": 20.599
        },
        {
            "id": 139372,
            "original_name": "Royal Bastards: Rise of the Tudors",
            "popularity": 15.188
        },
        {
            "id": 69142,
            "original_name": "I bastardi di Pizzofalcone",
            "popularity": 13.941
        },
        {
            "id": 63349,
            "original_name": "The Bastard Executioner",
            "popularity": 11.5
        },
        {
            "id": 115567,
            "original_name": "La cocinera de Castamar",
            "popularity": 10.918
        },
        {
            "id": 10097,
            "original_name": "Dastardly and Muttley in Their Flying Machines",
            "popularity": 10.592
        },
        {
            "id": 100087,
            "original_name": "Hasta que la plata nos separe",
            "popularity": 9.503
        },
        {
            "id": 61861,
            "original_name": "Hasta el fin del mundo",
            "popularity": 6.277
        },
        {
            "id": 127538,
            "original_name": "\u015eokopop Portreler: Megastar Tarkan",
            "popularity": 5.054
        },
        {
            "id": 132060,
            "original_name": "Coastal Devon & Cornwall with Michael Portillo",
            "popularity": 4.758
        },
        {
            "id": 85959,
            "original_name": "Lombard. \u017bycie pod zastaw",
            "popularity": 4.428
        },
        {
            "id": 21016,
            "original_name": "Ser Bonita No Basta",
            "popularity": 3.938
        },
        {
            "id": 47243,
            "original_name": "Anastasia: The Mystery of Anna",
            "popularity": 3.294
        },
        {
            "id": 102998,
            "original_name": "Los Bastardos",
            "popularity": 2.556
        },
        {
            "id": 82664,
            "original_name": "Dastaan-E-Mohabbat: Salim Anarkali",
            "popularity": 1.872
        },
        {
            "id": 10384,
            "original_name": "Shasta McNasty",
            "popularity": 1.858
        },
        {
            "id": 4122,
            "original_name": "Castaway 2000",
            "popularity": 1.802
        },
        {
            "id": 122045,
            "original_name": "LIMBO\u2026 hasta que lo decida",
            "popularity": 1.767
        }
    ]
}