{
    "data": [
        {
            "id": 2621,
            "original_name": "Mastermind",
            "popularity": 8.871
        },
        {
            "id": 5123,
            "original_name": "Masterminds",
            "popularity": 0.6
        },
        {
            "id": 7781,
            "original_name": "Sport Mastermind",
            "popularity": 0.6
        },
        {
            "id": 12575,
            "original_name": "Masterminds",
            "popularity": 0.664
        },
        {
            "id": 14875,
            "original_name": "International Mastermind",
            "popularity": 0.6
        },
        {
            "id": 15556,
            "original_name": "Junior Mastermind",
            "popularity": 0.6
        },
        {
            "id": 19893,
            "original_name": "Celebrity Mastermind",
            "popularity": 3.794
        },
        {
            "id": 26473,
            "original_name": "Mastermind (AU)",
            "popularity": 0.621
        },
        {
            "id": 40327,
            "original_name": "Mastermind",
            "popularity": 0.6
        },
        {
            "id": 102942,
            "original_name": "Celebrity Mastermind",
            "popularity": 0.6
        },
        {
            "id": 106965,
            "original_name": "Murder Masterminds",
            "popularity": 0.6
        },
        {
            "id": 123787,
            "original_name": "Mastermind of Murder",
            "popularity": 0.723
        }
    ],
    "relations": [],
    "top20": [
        {
            "id": 2621,
            "original_name": "Mastermind",
            "popularity": 8.871
        },
        {
            "id": 5123,
            "original_name": "Masterminds",
            "popularity": 0.6
        },
        {
            "id": 7781,
            "original_name": "Sport Mastermind",
            "popularity": 0.6
        },
        {
            "id": 12575,
            "original_name": "Masterminds",
            "popularity": 0.664
        },
        {
            "id": 14875,
            "original_name": "International Mastermind",
            "popularity": 0.6
        },
        {
            "id": 15556,
            "original_name": "Junior Mastermind",
            "popularity": 0.6
        },
        {
            "id": 19893,
            "original_name": "Celebrity Mastermind",
            "popularity": 3.794
        },
        {
            "id": 26473,
            "original_name": "Mastermind (AU)",
            "popularity": 0.621
        },
        {
            "id": 40327,
            "original_name": "Mastermind",
            "popularity": 0.6
        },
        {
            "id": 102942,
            "original_name": "Celebrity Mastermind",
            "popularity": 0.6
        },
        {
            "id": 106965,
            "original_name": "Murder Masterminds",
            "popularity": 0.6
        },
        {
            "id": 123787,
            "original_name": "Mastermind of Murder",
            "popularity": 0.723
        }
    ]
}