{
    "data": [
        {
            "id": 1121,
            "original_name": "Sasuke",
            "popularity": 2.668
        },
        {
            "id": 45294,
            "original_name": "Tasuke, the Samurai Cop",
            "popularity": 0.6
        },
        {
            "id": 112166,
            "original_name": "Yasuke",
            "popularity": 8.637
        },
        {
            "id": 133662,
            "original_name": "Sono koi Mousukoshi Atatamemasuka",
            "popularity": 0.6
        }
    ],
    "relations": [],
    "top20": [
        {
            "id": 1121,
            "original_name": "Sasuke",
            "popularity": 2.668
        },
        {
            "id": 45294,
            "original_name": "Tasuke, the Samurai Cop",
            "popularity": 0.6
        },
        {
            "id": 112166,
            "original_name": "Yasuke",
            "popularity": 8.637
        },
        {
            "id": 133662,
            "original_name": "Sono koi Mousukoshi Atatamemasuka",
            "popularity": 0.6
        }
    ]
}