{
    "data": [
        {
            "id": 4395,
            "original_name": "Matador",
            "popularity": 3.69
        },
        {
            "id": 55120,
            "original_name": "El watad",
            "popularity": 0.6
        },
        {
            "id": 56434,
            "original_name": "Maltratadas",
            "popularity": 1.4
        },
        {
            "id": 61225,
            "original_name": "Matador",
            "popularity": 5.301
        },
        {
            "id": 85677,
            "original_name": "Matadero",
            "popularity": 3.616
        },
        {
            "id": 103616,
            "original_name": "Job interview: est\u00e1s contratado",
            "popularity": 0.6
        }
    ],
    "relations": [],
    "top20": [
        {
            "id": 4395,
            "original_name": "Matador",
            "popularity": 3.69
        },
        {
            "id": 55120,
            "original_name": "El watad",
            "popularity": 0.6
        },
        {
            "id": 56434,
            "original_name": "Maltratadas",
            "popularity": 1.4
        },
        {
            "id": 61225,
            "original_name": "Matador",
            "popularity": 5.301
        },
        {
            "id": 85677,
            "original_name": "Matadero",
            "popularity": 3.616
        },
        {
            "id": 103616,
            "original_name": "Job interview: est\u00e1s contratado",
            "popularity": 0.6
        }
    ]
}