{
    "data": [
        {
            "id": 78,
            "original_name": "Dateline",
            "popularity": 12.202
        },
        {
            "id": 2803,
            "original_name": "LateLine",
            "popularity": 4.434
        },
        {
            "id": 3023,
            "original_name": "Lateline",
            "popularity": 0.6
        },
        {
            "id": 4093,
            "original_name": "Dateline",
            "popularity": 0.6
        },
        {
            "id": 11820,
            "original_name": "Stateline",
            "popularity": 0.6
        },
        {
            "id": 19718,
            "original_name": "Community Dateline",
            "popularity": 0.6
        },
        {
            "id": 26788,
            "original_name": "Dateline: Hollywood",
            "popularity": 0.6
        },
        {
            "id": 29631,
            "original_name": "Dateline (CA)",
            "popularity": 0.6
        },
        {
            "id": 33703,
            "original_name": "Dateline",
            "popularity": 0.6
        },
        {
            "id": 35347,
            "original_name": "Dateline Philippines",
            "popularity": 0.6
        },
        {
            "id": 40303,
            "original_name": "Dateline Pakistan",
            "popularity": 0.6
        },
        {
            "id": 44306,
            "original_name": "Dateline London",
            "popularity": 0.6
        },
        {
            "id": 70341,
            "original_name": "Dateline on OWN",
            "popularity": 0.6
        },
        {
            "id": 71165,
            "original_name": "Dateline on ID",
            "popularity": 1.474
        },
        {
            "id": 72127,
            "original_name": "L'Atelier Enchant\u00e9",
            "popularity": 0.6
        },
        {
            "id": 74284,
            "original_name": "Dateline: Secrets Uncovered",
            "popularity": 2.947
        },
        {
            "id": 77970,
            "original_name": "Atelier Fontana - Le sorelle della moda",
            "popularity": 1.602
        },
        {
            "id": 92973,
            "original_name": "L'atelier culinaire",
            "popularity": 1.114
        },
        {
            "id": 113190,
            "original_name": "L'atelier du Bbq avec le Ma\u00eetre du grill",
            "popularity": 0.6
        },
        {
            "id": 128685,
            "original_name": "L'atelier",
            "popularity": 4.117
        }
    ],
    "relations": [],
    "top20": [
        {
            "id": 78,
            "original_name": "Dateline",
            "popularity": 12.202
        },
        {
            "id": 2803,
            "original_name": "LateLine",
            "popularity": 4.434
        },
        {
            "id": 3023,
            "original_name": "Lateline",
            "popularity": 0.6
        },
        {
            "id": 4093,
            "original_name": "Dateline",
            "popularity": 0.6
        },
        {
            "id": 11820,
            "original_name": "Stateline",
            "popularity": 0.6
        },
        {
            "id": 19718,
            "original_name": "Community Dateline",
            "popularity": 0.6
        },
        {
            "id": 26788,
            "original_name": "Dateline: Hollywood",
            "popularity": 0.6
        },
        {
            "id": 29631,
            "original_name": "Dateline (CA)",
            "popularity": 0.6
        },
        {
            "id": 33703,
            "original_name": "Dateline",
            "popularity": 0.6
        },
        {
            "id": 35347,
            "original_name": "Dateline Philippines",
            "popularity": 0.6
        },
        {
            "id": 40303,
            "original_name": "Dateline Pakistan",
            "popularity": 0.6
        },
        {
            "id": 44306,
            "original_name": "Dateline London",
            "popularity": 0.6
        },
        {
            "id": 70341,
            "original_name": "Dateline on OWN",
            "popularity": 0.6
        },
        {
            "id": 71165,
            "original_name": "Dateline on ID",
            "popularity": 1.474
        },
        {
            "id": 72127,
            "original_name": "L'Atelier Enchant\u00e9",
            "popularity": 0.6
        },
        {
            "id": 74284,
            "original_name": "Dateline: Secrets Uncovered",
            "popularity": 2.947
        },
        {
            "id": 77970,
            "original_name": "Atelier Fontana - Le sorelle della moda",
            "popularity": 1.602
        },
        {
            "id": 92973,
            "original_name": "L'atelier culinaire",
            "popularity": 1.114
        },
        {
            "id": 113190,
            "original_name": "L'atelier du Bbq avec le Ma\u00eetre du grill",
            "popularity": 0.6
        },
        {
            "id": 128685,
            "original_name": "L'atelier",
            "popularity": 4.117
        }
    ]
}