{
    "data": [
        {
            "id": 50543,
            "original_name": "Atesten g\u00fcnler",
            "popularity": 0.6
        }
    ],
    "relations": [],
    "top20": [
        {
            "id": 50543,
            "original_name": "Atesten g\u00fcnler",
            "popularity": 0.6
        }
    ]
}