{
    "data": [
        {
            "id": 31201,
            "original_name": "Project Mathematics!",
            "popularity": 0.6
        },
        {
            "id": 43647,
            "original_name": "Applied Mathematics",
            "popularity": 0.6
        },
        {
            "id": 77788,
            "original_name": "Nature's Mathematics",
            "popularity": 0.6
        },
        {
            "id": 98958,
            "original_name": "Dimensions:A Walk Through Mathematics",
            "popularity": 0.6
        },
        {
            "id": 103010,
            "original_name": "Die geheimnisvolle Welt der Mathematik",
            "popularity": 0.6
        },
        {
            "id": 129907,
            "original_name": "Topics in the History of Mathematics",
            "popularity": 0.6
        }
    ],
    "relations": [],
    "top20": [
        {
            "id": 31201,
            "original_name": "Project Mathematics!",
            "popularity": 0.6
        },
        {
            "id": 43647,
            "original_name": "Applied Mathematics",
            "popularity": 0.6
        },
        {
            "id": 77788,
            "original_name": "Nature's Mathematics",
            "popularity": 0.6
        },
        {
            "id": 98958,
            "original_name": "Dimensions:A Walk Through Mathematics",
            "popularity": 0.6
        },
        {
            "id": 103010,
            "original_name": "Die geheimnisvolle Welt der Mathematik",
            "popularity": 0.6
        },
        {
            "id": 129907,
            "original_name": "Topics in the History of Mathematics",
            "popularity": 0.6
        }
    ]
}