{
    "data": [
        {
            "id": 63476,
            "original_name": "Unidad Nacional Operativa",
            "popularity": 1.358
        },
        {
            "id": 127942,
            "original_name": "Terapia alternativa",
            "popularity": 14.132
        },
        {
            "id": 137827,
            "original_name": "Lendas e Narrativas",
            "popularity": 0.6
        }
    ],
    "relations": [],
    "top20": [
        {
            "id": 63476,
            "original_name": "Unidad Nacional Operativa",
            "popularity": 1.358
        },
        {
            "id": 127942,
            "original_name": "Terapia alternativa",
            "popularity": 14.132
        },
        {
            "id": 137827,
            "original_name": "Lendas e Narrativas",
            "popularity": 0.6
        }
    ]
}