{
    "data": [
        {
            "id": 513,
            "original_name": "Batman Beyond",
            "popularity": 36.449
        },
        {
            "id": 2022,
            "original_name": "The Batman",
            "popularity": 46.039
        },
        {
            "id": 2098,
            "original_name": "Batman: The Animated Series",
            "popularity": 57.281
        },
        {
            "id": 2287,
            "original_name": "Batman",
            "popularity": 29.621
        },
        {
            "id": 4521,
            "original_name": "Jake and the Fatman",
            "popularity": 18.03
        },
        {
            "id": 4625,
            "original_name": "The New Batman Adventures",
            "popularity": 35.175
        },
        {
            "id": 8828,
            "original_name": "Sam and The Fatman",
            "popularity": 0.6
        },
        {
            "id": 10502,
            "original_name": "The New Adventures of Batman",
            "popularity": 4.86
        },
        {
            "id": 14391,
            "original_name": "Flatmania",
            "popularity": 0.6
        },
        {
            "id": 15804,
            "original_name": "Batman: The Brave and the Bold",
            "popularity": 52.777
        },
        {
            "id": 19579,
            "original_name": "The Superman/Batman Adventures",
            "popularity": 0.893
        },
        {
            "id": 31749,
            "original_name": "The Adventures of Batman",
            "popularity": 7.08
        },
        {
            "id": 41676,
            "original_name": "Beware the Batman",
            "popularity": 14.782
        },
        {
            "id": 44807,
            "original_name": "Fatmag\u00fcl'\u00fcn Su\u00e7u Ne?",
            "popularity": 16.544
        },
        {
            "id": 50755,
            "original_name": "Bir Adam Yaratmak",
            "popularity": 0.6
        },
        {
            "id": 53794,
            "original_name": "Hac\u0131yatmaz",
            "popularity": 0.6
        },
        {
            "id": 54828,
            "original_name": "Man Allazi La Yoheb Fatma",
            "popularity": 0.6
        },
        {
            "id": 57110,
            "original_name": "Batman: Black and White Motion Comics",
            "popularity": 2.917
        },
        {
            "id": 89328,
            "original_name": "Hutatma",
            "popularity": 0.6
        },
        {
            "id": 97394,
            "original_name": "Flatmates",
            "popularity": 0.6
        },
        {
            "id": 100535,
            "original_name": "Batman Unlimited",
            "popularity": 5.268
        },
        {
            "id": 115451,
            "original_name": "Stratmanns - Jupps Kneipentheater im Pott",
            "popularity": 2.141
        },
        {
            "id": 116128,
            "original_name": "Untitled The Batman Spinoff",
            "popularity": 1.96
        },
        {
            "id": 122372,
            "original_name": "Batman Adventures: Mad Love",
            "popularity": 0.6
        },
        {
            "id": 123138,
            "original_name": "Fatma",
            "popularity": 7.538
        },
        {
            "id": 125909,
            "original_name": "Batman: Caped Crusader",
            "popularity": 2.392
        },
        {
            "id": 129356,
            "original_name": "Batman and Robin Serial",
            "popularity": 1.808
        },
        {
            "id": 134495,
            "original_name": "Nour & Fatma",
            "popularity": 0.6
        },
        {
            "id": 138006,
            "original_name": "Batman e Robin",
            "popularity": 1.508
        }
    ],
    "relations": [
        {
            "character": "atman"
        },
        {
            "character": "atmag"
        },
        {
            "character": "atmak"
        },
        {
            "character": "atmaz"
        },
        {
            "character": "atmat"
        }
    ],
    "top20": [
        {
            "id": 2098,
            "original_name": "Batman: The Animated Series",
            "popularity": 57.281
        },
        {
            "id": 15804,
            "original_name": "Batman: The Brave and the Bold",
            "popularity": 52.777
        },
        {
            "id": 2022,
            "original_name": "The Batman",
            "popularity": 46.039
        },
        {
            "id": 513,
            "original_name": "Batman Beyond",
            "popularity": 36.449
        },
        {
            "id": 4625,
            "original_name": "The New Batman Adventures",
            "popularity": 35.175
        },
        {
            "id": 2287,
            "original_name": "Batman",
            "popularity": 29.621
        },
        {
            "id": 4521,
            "original_name": "Jake and the Fatman",
            "popularity": 18.03
        },
        {
            "id": 44807,
            "original_name": "Fatmag\u00fcl'\u00fcn Su\u00e7u Ne?",
            "popularity": 16.544
        },
        {
            "id": 41676,
            "original_name": "Beware the Batman",
            "popularity": 14.782
        },
        {
            "id": 123138,
            "original_name": "Fatma",
            "popularity": 7.538
        },
        {
            "id": 31749,
            "original_name": "The Adventures of Batman",
            "popularity": 7.08
        },
        {
            "id": 100535,
            "original_name": "Batman Unlimited",
            "popularity": 5.268
        },
        {
            "id": 10502,
            "original_name": "The New Adventures of Batman",
            "popularity": 4.86
        },
        {
            "id": 57110,
            "original_name": "Batman: Black and White Motion Comics",
            "popularity": 2.917
        },
        {
            "id": 125909,
            "original_name": "Batman: Caped Crusader",
            "popularity": 2.392
        },
        {
            "id": 115451,
            "original_name": "Stratmanns - Jupps Kneipentheater im Pott",
            "popularity": 2.141
        },
        {
            "id": 116128,
            "original_name": "Untitled The Batman Spinoff",
            "popularity": 1.96
        },
        {
            "id": 129356,
            "original_name": "Batman and Robin Serial",
            "popularity": 1.808
        },
        {
            "id": 138006,
            "original_name": "Batman e Robin",
            "popularity": 1.508
        },
        {
            "id": 19579,
            "original_name": "The Superman/Batman Adventures",
            "popularity": 0.893
        }
    ]
}