{
    "data": [
        {
            "id": 135193,
            "original_name": "Malverde: El Santo Patr\u00f3n",
            "popularity": 319.15
        },
        {
            "id": 43348,
            "original_name": "Pablo Escobar: El Patr\u00f3n del Mal",
            "popularity": 305.062
        },
        {
            "id": 126824,
            "original_name": "The Patrick Star Show",
            "popularity": 239.804
        },
        {
            "id": 44914,
            "original_name": "La Patrona",
            "popularity": 163.256
        },
        {
            "id": 79501,
            "original_name": "Doom Patrol",
            "popularity": 85.89
        },
        {
            "id": 57532,
            "original_name": "PAW Patrol",
            "popularity": 83.712
        },
        {
            "id": 126818,
            "original_name": "Richard Herring's Leicester Square Theatre Podcast",
            "popularity": 29.278
        },
        {
            "id": 12277,
            "original_name": "Lux Video Theatre",
            "popularity": 23.702
        },
        {
            "id": 11576,
            "original_name": "Bob Hope Presents the Chrysler Theatre",
            "popularity": 21.449
        },
        {
            "id": 85964,
            "original_name": "Patria",
            "popularity": 16.045
        },
        {
            "id": 18350,
            "original_name": "Atr\u00e9vete a so\u00f1ar",
            "popularity": 15.996
        },
        {
            "id": 29917,
            "original_name": "Thirty-Minute Theatre",
            "popularity": 15.728
        },
        {
            "id": 72787,
            "original_name": "Patrick Melrose",
            "popularity": 14.944
        },
        {
            "id": 64396,
            "original_name": "Patriot",
            "popularity": 13.06
        },
        {
            "id": 104206,
            "original_name": "\u00bfQui\u00e9n mat\u00f3 a Patricia Soler?",
            "popularity": 12.993
        },
        {
            "id": 35339,
            "original_name": "Alcatraz",
            "popularity": 12.708
        },
        {
            "id": 45166,
            "original_name": "GALACTIC PATROL \u30ec\u30f3\u30ba\u30de\u30f3",
            "popularity": 12.056
        },
        {
            "id": 47119,
            "original_name": "Cleopatra",
            "popularity": 11.281
        },
        {
            "id": 11920,
            "original_name": "Highway Patrol",
            "popularity": 11.17
        },
        {
            "id": 4603,
            "original_name": "Faerie Tale Theatre",
            "popularity": 10.331
        },
        {
            "id": 13908,
            "original_name": "The Rat Patrol",
            "popularity": 10.286
        },
        {
            "id": 20790,
            "original_name": "Matroesjka's",
            "popularity": 9.202
        },
        {
            "id": 1627,
            "original_name": "Kraft Suspense Theatre",
            "popularity": 9.166
        },
        {
            "id": 115569,
            "original_name": "SanPa: luci e tenebre di San Patrignano",
            "popularity": 8.353
        },
        {
            "id": 116875,
            "original_name": "Paw Patrol: Shorts",
            "popularity": 8.016
        },
        {
            "id": 38983,
            "original_name": "Emperatriz",
            "popularity": 7.864
        },
        {
            "id": 4858,
            "original_name": "Sea Patrol",
            "popularity": 7.809
        },
        {
            "id": 711,
            "original_name": "Threat Matrix",
            "popularity": 7.063
        },
        {
            "id": 10643,
            "original_name": "Ford Theatre",
            "popularity": 7.029
        },
        {
            "id": 20885,
            "original_name": "Quatro Por Quatro",
            "popularity": 7.009
        },
        {
            "id": 118403,
            "original_name": "Paw Patrol: Pups save Puplantis",
            "popularity": 6.673
        },
        {
            "id": 1602,
            "original_name": "Science Fiction Theatre",
            "popularity": 5.887
        },
        {
            "id": 13834,
            "original_name": "Raumpatrouille \u2013 Die phantastischen Abenteuer des Raumschiffes Orion",
            "popularity": 5.847
        },
        {
            "id": 83519,
            "original_name": "Patriot Act with Hasan Minhaj",
            "popularity": 5.648
        },
        {
            "id": 11706,
            "original_name": "Armstrong Circle Theatre",
            "popularity": 5.332
        },
        {
            "id": 35954,
            "original_name": "Space Patrol",
            "popularity": 4.763
        },
        {
            "id": 32161,
            "original_name": "Escenas de matrimonio",
            "popularity": 4.713
        },
        {
            "id": 5398,
            "original_name": "Cleopatra 2525",
            "popularity": 4.711
        },
        {
            "id": 48535,
            "original_name": "Bir Demet Tiyatro",
            "popularity": 3.912
        },
        {
            "id": 11477,
            "original_name": "Alcoa Theatre",
            "popularity": 3.789
        },
        {
            "id": 64975,
            "original_name": "The Supervet: Noel Fitzpatrick",
            "popularity": 3.667
        },
        {
            "id": 28571,
            "original_name": "Kraft Mystery Theatre",
            "popularity": 3.454
        },
        {
            "id": 11393,
            "original_name": "Matrix",
            "popularity": 3.453
        },
        {
            "id": 69063,
            "original_name": "Cuatro estaciones en La Habana",
            "popularity": 3.348
        },
        {
            "id": 76690,
            "original_name": "Sinatra: All or Nothing at All",
            "popularity": 3.19
        },
        {
            "id": 62730,
            "original_name": "Matriarcas",
            "popularity": 3.162
        },
        {
            "id": 70289,
            "original_name": "Undeniable with Dan Patrick",
            "popularity": 2.899
        },
        {
            "id": 35403,
            "original_name": "The Fitzpatricks",
            "popularity": 2.848
        },
        {
            "id": 81841,
            "original_name": "B\u00e9b\u00e9atrice",
            "popularity": 2.7
        },
        {
            "id": 67185,
            "original_name": "Au secours de B\u00e9atrice",
            "popularity": 2.687
        },
        {
            "id": 62279,
            "original_name": "Las aventuras del Capit\u00e1n Alatriste",
            "popularity": 2.678
        },
        {
            "id": 16531,
            "original_name": "Danger Theatre",
            "popularity": 2.602
        },
        {
            "id": 130133,
            "original_name": "Henry VIII: Patron or Plunderer?",
            "popularity": 2.558
        },
        {
            "id": 19093,
            "original_name": "The Chevrolet Tele-Theatre",
            "popularity": 2.547
        },
        {
            "id": 95516,
            "original_name": "Patrick Sen\u00e9cal pr\u00e9sente",
            "popularity": 2.438
        },
        {
            "id": 11859,
            "original_name": "The Cleopatras",
            "popularity": 2.325
        },
        {
            "id": 71801,
            "original_name": "Live PD: Police Patrol",
            "popularity": 2.323
        },
        {
            "id": 8216,
            "original_name": "Atracci\u00f3n x4",
            "popularity": 2.25
        },
        {
            "id": 77082,
            "original_name": "Die Patriarchin",
            "popularity": 2.229
        },
        {
            "id": 26124,
            "original_name": "Medallion Theatre",
            "popularity": 2.198
        },
        {
            "id": 66749,
            "original_name": "Matrimoni e altre follie",
            "popularity": 2.188
        },
        {
            "id": 130757,
            "original_name": "Sado Psychiatrist",
            "popularity": 2.177
        },
        {
            "id": 87369,
            "original_name": "Sex Drugs & Theatre",
            "popularity": 2.161
        },
        {
            "id": 91869,
            "original_name": "Atrapa a un ladr\u00f3n",
            "popularity": 2.038
        },
        {
            "id": 59159,
            "original_name": "Atr\u00e9vete a Olvidarme",
            "popularity": 1.932
        },
        {
            "id": 63403,
            "original_name": "Air Albatros",
            "popularity": 1.882
        },
        {
            "id": 38248,
            "original_name": "Theatre Night",
            "popularity": 1.865
        },
        {
            "id": 137571,
            "original_name": "Historias breves de \u00c9lite: Patrick",
            "popularity": 1.856
        },
        {
            "id": 685,
            "original_name": "The Psychiatrist",
            "popularity": 1.759
        },
        {
            "id": 117118,
            "original_name": "Atropa",
            "popularity": 1.746
        },
        {
            "id": 21503,
            "original_name": "Sunday Night Theatre",
            "popularity": 1.735
        },
        {
            "id": 63933,
            "original_name": "Best Time Ever with Neil Patrick Harris",
            "popularity": 1.654
        },
        {
            "id": 47876,
            "original_name": "Teatr telewizji",
            "popularity": 1.564
        },
        {
            "id": 7814,
            "original_name": "Patrik Pacard",
            "popularity": 1.561
        },
        {
            "id": 127467,
            "original_name": "Lilli Palmer Theatre",
            "popularity": 1.553
        },
        {
            "id": 105349,
            "original_name": "Cleopatra in Space",
            "popularity": 1.552
        },
        {
            "id": 95509,
            "original_name": "Patrulha Salvadora",
            "popularity": 1.515
        },
        {
            "id": 9454,
            "original_name": "Cameo Theatre",
            "popularity": 1.512
        },
        {
            "id": 30734,
            "original_name": "Duck Patrol",
            "popularity": 1.503
        },
        {
            "id": 2781,
            "original_name": "Motorway Patrol",
            "popularity": 1.499
        },
        {
            "id": 102390,
            "original_name": "Teatro en Chilevisi\u00f3n",
            "popularity": 1.485
        },
        {
            "id": 69737,
            "original_name": "Un matrimonio",
            "popularity": 1.465
        },
        {
            "id": 80793,
            "original_name": "Crime Patrol",
            "popularity": 1.453
        },
        {
            "id": 78604,
            "original_name": "Viajeros Cuatro",
            "popularity": 1.443
        },
        {
            "id": 10554,
            "original_name": "Space Patrol",
            "popularity": 1.442
        },
        {
            "id": 19910,
            "original_name": "Border Patrol",
            "popularity": 1.431
        },
        {
            "id": 14049,
            "original_name": "La Petite Patrie",
            "popularity": 1.428
        },
        {
            "id": 74867,
            "original_name": "Song Vir Katryn",
            "popularity": 1.415
        },
        {
            "id": 22946,
            "original_name": "Somerset Maugham Theatre",
            "popularity": 1.4
        },
        {
            "id": 38306,
            "original_name": "Cuenta atr\u00e1s",
            "popularity": 1.4
        },
        {
            "id": 98974,
            "original_name": "S Tatrou kolem sv\u011bta",
            "popularity": 1.4
        },
        {
            "id": 114640,
            "original_name": "Hundepatruljen Oslo",
            "popularity": 1.4
        },
        {
            "id": 124348,
            "original_name": "Cleopatra",
            "popularity": 1.4
        },
        {
            "id": 4516,
            "original_name": "Toad Patrol",
            "popularity": 1.385
        },
        {
            "id": 22846,
            "original_name": "Nash Airflyte Theatre",
            "popularity": 1.36
        },
        {
            "id": 126291,
            "original_name": "Nuestro teatro",
            "popularity": 1.345
        },
        {
            "id": 85518,
            "original_name": "Khatron Ke Khiladi",
            "popularity": 1.313
        },
        {
            "id": 10962,
            "original_name": "Kraft Television Theatre",
            "popularity": 1.228
        },
        {
            "id": 82778,
            "original_name": "Lawinenpatrouille",
            "popularity": 1.21
        },
        {
            "id": 123300,
            "original_name": "Patriot Brains",
            "popularity": 1.21
        },
        {
            "id": 41152,
            "original_name": "Katrin ist die Beste",
            "popularity": 1.191
        },
        {
            "id": 87088,
            "original_name": "Le Grand Batre",
            "popularity": 1.178
        },
        {
            "id": 113653,
            "original_name": "Atrieb\u0113jas",
            "popularity": 1.17
        },
        {
            "id": 55640,
            "original_name": "Nattpatruljen",
            "popularity": 1.169
        },
        {
            "id": 120157,
            "original_name": "Matrimonio con hijos",
            "popularity": 1.166
        },
        {
            "id": 27750,
            "original_name": "Starlight Theatre",
            "popularity": 1.134
        },
        {
            "id": 27633,
            "original_name": "The Many Wives Of Patrick",
            "popularity": 1.129
        },
        {
            "id": 130136,
            "original_name": "Chhatrasal",
            "popularity": 1.115
        },
        {
            "id": 15656,
            "original_name": "El \u00daltimo Matrimonio Feliz",
            "popularity": 1.098
        },
        {
            "id": 86525,
            "original_name": "Channel Patrol",
            "popularity": 1.096
        },
        {
            "id": 38554,
            "original_name": "Australian Pirate Patrol",
            "popularity": 1.093
        },
        {
            "id": 113432,
            "original_name": "Les Cadavres exquis de Patricia Highsmith",
            "popularity": 1.09
        },
        {
            "id": 23540,
            "original_name": "Sinatra",
            "popularity": 1.084
        },
        {
            "id": 96993,
            "original_name": "Le grand patron",
            "popularity": 0.969
        },
        {
            "id": 12679,
            "original_name": "Disorderly Conduct: Video on Patrol",
            "popularity": 0.965
        },
        {
            "id": 12576,
            "original_name": "The Frank Sinatra Show",
            "popularity": 0.938
        },
        {
            "id": 7809,
            "original_name": "Goodyear Theatre",
            "popularity": 0.929
        },
        {
            "id": 7765,
            "original_name": "Street Patrol",
            "popularity": 0.922
        },
        {
            "id": 90233,
            "original_name": "Der letzte Patriarch",
            "popularity": 0.92
        },
        {
            "id": 16388,
            "original_name": "Atr\u00e9vete a so\u00f1ar",
            "popularity": 0.916
        },
        {
            "id": 77450,
            "original_name": "Patrice Lemieux 24/7",
            "popularity": 0.911
        },
        {
            "id": 114176,
            "original_name": "K pour Katrine",
            "popularity": 0.9
        },
        {
            "id": 48070,
            "original_name": "ITV Sunday Night Theatre",
            "popularity": 0.896
        },
        {
            "id": 78138,
            "original_name": "T\u0159et\u00ed patro",
            "popularity": 0.892
        },
        {
            "id": 88663,
            "original_name": "Les patronnes",
            "popularity": 0.853
        },
        {
            "id": 28739,
            "original_name": "Plaza Patrol",
            "popularity": 0.851
        },
        {
            "id": 66085,
            "original_name": "Patrouille Linkeroever",
            "popularity": 0.848
        },
        {
            "id": 103980,
            "original_name": "No\u00eble aux quatre vents",
            "popularity": 0.846
        },
        {
            "id": 22217,
            "original_name": "Orient Theatre",
            "popularity": 0.841
        },
        {
            "id": 25914,
            "original_name": "Revlon Mirror Theatre",
            "popularity": 0.841
        },
        {
            "id": 122461,
            "original_name": "The Ford Television Theatre",
            "popularity": 0.841
        },
        {
            "id": 77,
            "original_name": "TV Patrol Northern Luzon",
            "popularity": 0.84
        },
        {
            "id": 82091,
            "original_name": "Atrapada",
            "popularity": 0.84
        },
        {
            "id": 125410,
            "original_name": "Patr\u00f5es Fora!",
            "popularity": 0.84
        },
        {
            "id": 129362,
            "original_name": "Great British Theatre",
            "popularity": 0.84
        },
        {
            "id": 58163,
            "original_name": "Patrick Dempsey: Racing LeMans",
            "popularity": 0.836
        },
        {
            "id": 131170,
            "original_name": "Patr\u00edcia",
            "popularity": 0.783
        },
        {
            "id": 110346,
            "original_name": "Albatros",
            "popularity": 0.725
        },
        {
            "id": 124936,
            "original_name": "Olympiatroppen",
            "popularity": 0.689
        },
        {
            "id": 20326,
            "original_name": "The Adventures of the Bush Patrol",
            "popularity": 0.678
        },
        {
            "id": 47825,
            "original_name": "The Tale of Beatrix Potter",
            "popularity": 0.677
        },
        {
            "id": 132385,
            "original_name": "Bay Patrol",
            "popularity": 0.668
        },
        {
            "id": 59939,
            "original_name": "Highway Patrol",
            "popularity": 0.654
        },
        {
            "id": 94757,
            "original_name": "Andy op Patrouille",
            "popularity": 0.645
        },
        {
            "id": 106130,
            "original_name": "La patrulla del desierto",
            "popularity": 0.635
        },
        {
            "id": 107094,
            "original_name": "Ratri Ke Yatri",
            "popularity": 0.631
        },
        {
            "id": 25527,
            "original_name": "The National Theatre Of Brent Presents...",
            "popularity": 0.627
        },
        {
            "id": 94799,
            "original_name": "Beatrix Potter : Les Contes de Pierre Lapin et ses amis",
            "popularity": 0.627
        },
        {
            "id": 89848,
            "original_name": "Tiere vor der Kamera: Landung frei f\u00fcr Albatrosse",
            "popularity": 0.62
        },
        {
            "id": 94780,
            "original_name": "Shubh Ratri",
            "popularity": 0.613
        },
        {
            "id": 76527,
            "original_name": "Sydney Harbour Patrol",
            "popularity": 0.602
        },
        {
            "id": 810,
            "original_name": "Armchair Theatre",
            "popularity": 0.6
        },
        {
            "id": 1262,
            "original_name": "Patrol Boat",
            "popularity": 0.6
        },
        {
            "id": 2256,
            "original_name": "TV Patrol Southern Mindanao",
            "popularity": 0.6
        },
        {
            "id": 2611,
            "original_name": "TV Patrol",
            "popularity": 0.6
        },
        {
            "id": 3479,
            "original_name": "TV Patrol Northern Mindanao",
            "popularity": 0.6
        },
        {
            "id": 3865,
            "original_name": "TV Patrol Northwestern Mindanao",
            "popularity": 0.6
        },
        {
            "id": 4235,
            "original_name": "TV Patrol Panay",
            "popularity": 0.6
        },
        {
            "id": 4472,
            "original_name": "Prank Patrol",
            "popularity": 0.6
        },
        {
            "id": 4651,
            "original_name": "TV Patrol Central Visayas",
            "popularity": 0.6
        },
        {
            "id": 5136,
            "original_name": "Surf Patrol",
            "popularity": 0.6
        },
        {
            "id": 5155,
            "original_name": "TheatreGames LIVE",
            "popularity": 0.6
        },
        {
            "id": 6644,
            "original_name": "TV Patrol Chavacano",
            "popularity": 0.6
        },
        {
            "id": 7015,
            "original_name": "El Patr\u00f3n de la Vereda",
            "popularity": 0.6
        },
        {
            "id": 7052,
            "original_name": "TV Patrol North Central Luzon",
            "popularity": 0.6
        },
        {
            "id": 7165,
            "original_name": "TV Patrol Pampanga",
            "popularity": 0.6
        },
        {
            "id": 7260,
            "original_name": "TV Patrol Ilocos",
            "popularity": 0.6
        },
        {
            "id": 7523,
            "original_name": "Fear Factor: Khatron Ke Khiladi",
            "popularity": 0.6
        },
        {
            "id": 7713,
            "original_name": "Colgate Theatre",
            "popularity": 0.6
        },
        {
            "id": 7719,
            "original_name": "TV Patrol Tacloban",
            "popularity": 0.6
        },
        {
            "id": 8219,
            "original_name": "TV Patrol Bicol",
            "popularity": 0.6
        },
        {
            "id": 8250,
            "original_name": "TV Patrol Socsksargen",
            "popularity": 0.6
        },
        {
            "id": 8305,
            "original_name": "TV Patrol Negros",
            "popularity": 0.6
        },
        {
            "id": 8374,
            "original_name": "TV Patrol Caraga",
            "popularity": 0.6
        },
        {
            "id": 8401,
            "original_name": "The Bigelow Theatre",
            "popularity": 0.6
        },
        {
            "id": 8708,
            "original_name": "Nightmare Theatre",
            "popularity": 0.6
        },
        {
            "id": 9390,
            "original_name": "Yatra",
            "popularity": 0.6
        },
        {
            "id": 10375,
            "original_name": "Midnight Patrol: Adventures in the Dream Zone",
            "popularity": 0.6
        },
        {
            "id": 10560,
            "original_name": "Disasterpiece Theatre",
            "popularity": 0.6
        },
        {
            "id": 11290,
            "original_name": "Theatre 625",
            "popularity": 0.6
        },
        {
            "id": 11541,
            "original_name": "Math Patrol",
            "popularity": 0.6
        },
        {
            "id": 11785,
            "original_name": "New Wave Theatre",
            "popularity": 0.6
        },
        {
            "id": 12674,
            "original_name": "Teatrimundo",
            "popularity": 0.6
        },
        {
            "id": 12725,
            "original_name": "Beach Patrol",
            "popularity": 0.6
        },
        {
            "id": 12937,
            "original_name": "Real Stories of the Highway Patrol",
            "popularity": 0.6
        },
        {
            "id": 14080,
            "original_name": "Crawford Mystery Theatre",
            "popularity": 0.6
        },
        {
            "id": 14796,
            "original_name": "Patrick Kielty Almost Live",
            "popularity": 0.6
        },
        {
            "id": 14871,
            "original_name": "Audubon Wildlife Theatre",
            "popularity": 0.6
        },
        {
            "id": 14921,
            "original_name": "General Motors Theatre",
            "popularity": 0.6
        },
        {
            "id": 15546,
            "original_name": "The Zula Patrol",
            "popularity": 0.6
        },
        {
            "id": 16080,
            "original_name": "Francis Albert Sinatra Does His Thing",
            "popularity": 0.6
        },
        {
            "id": 16331,
            "original_name": "Cosmopolitan Theatre",
            "popularity": 0.6
        },
        {
            "id": 17002,
            "original_name": "News Patrol",
            "popularity": 0.6
        },
        {
            "id": 17508,
            "original_name": "Fear Factor: Khatron Ke Khiladi",
            "popularity": 0.6
        },
        {
            "id": 18093,
            "original_name": "Border Patrol",
            "popularity": 0.6
        },
        {
            "id": 18353,
            "original_name": "TV Patrol Cagayan Valley",
            "popularity": 0.6
        },
        {
            "id": 18382,
            "original_name": "TV Patrol Southern Tagalog",
            "popularity": 0.6
        },
        {
            "id": 18401,
            "original_name": "Paranormal Matrix",
            "popularity": 0.6
        },
        {
            "id": 18406,
            "original_name": "Love Patrol",
            "popularity": 0.6
        },
        {
            "id": 18581,
            "original_name": "Hollywood Television Theatre",
            "popularity": 0.6
        },
        {
            "id": 18700,
            "original_name": "Celanese Theatre",
            "popularity": 0.6
        },
        {
            "id": 18709,
            "original_name": "NBC Television Opera Theatre",
            "popularity": 0.6
        },
        {
            "id": 18911,
            "original_name": "NBC Children's Theatre",
            "popularity": 0.6
        },
        {
            "id": 18934,
            "original_name": "Theatre in America",
            "popularity": 0.6
        },
        {
            "id": 19080,
            "original_name": "The Frank Sinatra Show",
            "popularity": 0.6
        },
        {
            "id": 19402,
            "original_name": "The Beatrice Arthur Special",
            "popularity": 0.6
        },
        {
            "id": 21132,
            "original_name": "Theatre Parade",
            "popularity": 0.6
        },
        {
            "id": 21190,
            "original_name": "The Silver Theatre",
            "popularity": 0.6
        },
        {
            "id": 21245,
            "original_name": "Chiller Theatre",
            "popularity": 0.6
        },
        {
            "id": 21689,
            "original_name": "Frontier Theatre",
            "popularity": 0.6
        },
        {
            "id": 21717,
            "original_name": "TV Patrol Central Mindanao",
            "popularity": 0.6
        },
        {
            "id": 21783,
            "original_name": "Teatro Popular Caracol",
            "popularity": 0.6
        },
        {
            "id": 22066,
            "original_name": "The Eddie Cantor Comedy Theatre",
            "popularity": 0.6
        },
        {
            "id": 22744,
            "original_name": "Crown Theatre with Gloria Swanson",
            "popularity": 0.6
        },
        {
            "id": 22996,
            "original_name": "Comin' Atcha / In The House With Cleopatra",
            "popularity": 0.6
        },
        {
            "id": 23109,
            "original_name": "Paul Bernard, Psychiatrist",
            "popularity": 0.6
        },
        {
            "id": 24451,
            "original_name": "Hollywood Theatre Time",
            "popularity": 0.6
        },
        {
            "id": 24641,
            "original_name": "Hollywood Summer Theatre",
            "popularity": 0.6
        },
        {
            "id": 24724,
            "original_name": "Beach Patrol: Miami Beach",
            "popularity": 0.6
        },
        {
            "id": 24919,
            "original_name": "African Patrol",
            "popularity": 0.6
        },
        {
            "id": 24944,
            "original_name": "Faith Baldwin Romance Theatre",
            "popularity": 0.6
        },
        {
            "id": 24963,
            "original_name": "Alcatraz: The Whole Shocking Story",
            "popularity": 0.6
        },
        {
            "id": 25949,
            "original_name": "Beach Patrol: Honolulu",
            "popularity": 0.6
        },
        {
            "id": 26106,
            "original_name": "Shoestring Theatre",
            "popularity": 0.6
        },
        {
            "id": 27195,
            "original_name": "Date Patrol",
            "popularity": 0.6
        },
        {
            "id": 27697,
            "original_name": "Lou and Lou: Safety Patrol",
            "popularity": 0.6
        },
        {
            "id": 27751,
            "original_name": "Academy Theatre",
            "popularity": 0.6
        },
        {
            "id": 27871,
            "original_name": "Mark Saber Mystery Theatre",
            "popularity": 0.6
        },
        {
            "id": 27933,
            "original_name": "The Patriots",
            "popularity": 0.6
        },
        {
            "id": 29265,
            "original_name": "Broadway Television Theatre",
            "popularity": 0.6
        },
        {
            "id": 30158,
            "original_name": "Ski Patrol",
            "popularity": 0.6
        },
        {
            "id": 30369,
            "original_name": "Patrick in Uruzgan",
            "popularity": 0.6
        },
        {
            "id": 31062,
            "original_name": "Bell System Family Theatre",
            "popularity": 0.6
        },
        {
            "id": 31063,
            "original_name": "ABC Theatre",
            "popularity": 0.6
        },
        {
            "id": 31249,
            "original_name": "Cheat Satrey",
            "popularity": 0.6
        },
        {
            "id": 31264,
            "original_name": "Patrick Macnee's Ghost Stories",
            "popularity": 0.6
        },
        {
            "id": 31636,
            "original_name": "Matrix",
            "popularity": 0.6
        },
        {
            "id": 31924,
            "original_name": "Between Love and Hatred",
            "popularity": 0.6
        },
        {
            "id": 32197,
            "original_name": "Patrol",
            "popularity": 0.6
        },
        {
            "id": 32239,
            "original_name": "Crime Patrol",
            "popularity": 0.6
        },
        {
            "id": 32316,
            "original_name": "Fear Factor: Khatron Ke Khiladi",
            "popularity": 0.6
        },
        {
            "id": 32558,
            "original_name": "Prank Patrol",
            "popularity": 0.6
        },
        {
            "id": 32570,
            "original_name": "Prank Patrol",
            "popularity": 0.6
        },
        {
            "id": 32703,
            "original_name": "Sea Patrol UK",
            "popularity": 0.6
        },
        {
            "id": 33308,
            "original_name": "A Midsummer Theatre",
            "popularity": 0.6
        },
        {
            "id": 33780,
            "original_name": "Theatre Canada",
            "popularity": 0.6
        },
        {
            "id": 33781,
            "original_name": "Paul Bernard, Psychiatrist",
            "popularity": 0.6
        },
        {
            "id": 33976,
            "original_name": "The Patriotic Knights",
            "popularity": 0.6
        },
        {
            "id": 34372,
            "original_name": "Patrol ng Pilipino",
            "popularity": 0.6
        },
        {
            "id": 36191,
            "original_name": "Beatrix 30 jaar Koningin",
            "popularity": 0.6
        },
        {
            "id": 37078,
            "original_name": "Chatroom Chicks",
            "popularity": 0.6
        },
        {
            "id": 38368,
            "original_name": "Approval Matrix",
            "popularity": 0.6
        },
        {
            "id": 38575,
            "original_name": "Royal Navy Caribbean Patrol",
            "popularity": 0.6
        },
        {
            "id": 38835,
            "original_name": "Hundepatruljen",
            "popularity": 0.6
        },
        {
            "id": 38942,
            "original_name": "Emperatriz",
            "popularity": 0.6
        },
        {
            "id": 39101,
            "original_name": "TV Patrol Western Mindanao",
            "popularity": 0.6
        },
        {
            "id": 39181,
            "original_name": "Academy Theatre",
            "popularity": 0.6
        },
        {
            "id": 39287,
            "original_name": "TV Patrol Palawan",
            "popularity": 0.6
        },
        {
            "id": 39627,
            "original_name": "CNN Heroes: Coming Back from Katrina",
            "popularity": 0.6
        },
        {
            "id": 39943,
            "original_name": "The Dan Patrick Show",
            "popularity": 0.6
        },
        {
            "id": 39988,
            "original_name": "Saturday Night Theatre",
            "popularity": 0.6
        },
        {
            "id": 40102,
            "original_name": "Bomb Patrol: Afghanistan",
            "popularity": 0.6
        },
        {
            "id": 40241,
            "original_name": "Fear Factor: Khatron Ke Khiladi",
            "popularity": 0.6
        },
        {
            "id": 40543,
            "original_name": "Den stora matresan",
            "popularity": 0.6
        },
        {
            "id": 40582,
            "original_name": "Katrin und die Welt der Tiere",
            "popularity": 0.6
        },
        {
            "id": 42082,
            "original_name": "Footlight Theatre",
            "popularity": 0.6
        },
        {
            "id": 42535,
            "original_name": "Great West End Theatres",
            "popularity": 0.6
        },
        {
            "id": 43225,
            "original_name": "George Schaefer Showcase Theatre",
            "popularity": 0.6
        },
        {
            "id": 43265,
            "original_name": "Sinatra",
            "popularity": 0.6
        },
        {
            "id": 43804,
            "original_name": "Beatrix, Oranje onder vuur",
            "popularity": 0.6
        },
        {
            "id": 44255,
            "original_name": "The Errol Flynn Theatre",
            "popularity": 0.6
        },
        {
            "id": 44924,
            "original_name": "African Patrol",
            "popularity": 0.6
        },
        {
            "id": 44930,
            "original_name": "Your Story Theatre",
            "popularity": 0.6
        },
        {
            "id": 45111,
            "original_name": "Family Theatre",
            "popularity": 0.6
        },
        {
            "id": 45494,
            "original_name": "Michael Feinstein: The Sinatra Legacy",
            "popularity": 0.6
        },
        {
            "id": 47197,
            "original_name": "Sinatra Duets",
            "popularity": 0.6
        },
        {
            "id": 47377,
            "original_name": "The Patricia Neal Story",
            "popularity": 0.6
        },
        {
            "id": 47812,
            "original_name": "The Magic of David Copperfield IX: Escape from Alcatraz",
            "popularity": 0.6
        },
        {
            "id": 48127,
            "original_name": "Thursday Theatre",
            "popularity": 0.6
        },
        {
            "id": 48147,
            "original_name": "American Ballet Theatre's \"Romeo and Juliet\" Live",
            "popularity": 0.6
        },
        {
            "id": 48689,
            "original_name": "Armchair Mystery Theatre",
            "popularity": 0.6
        },
        {
            "id": 49113,
            "original_name": "Sinatra: The Man and His Music",
            "popularity": 0.6
        },
        {
            "id": 49379,
            "original_name": "Gizli Patron",
            "popularity": 0.6
        },
        {
            "id": 49582,
            "original_name": "Sinatra: The First 40 Years",
            "popularity": 0.6
        },
        {
            "id": 49832,
            "original_name": "The Nutcracker (American Ballet Theatre)",
            "popularity": 0.6
        },
        {
            "id": 51354,
            "original_name": "Madame Mod Theatre",
            "popularity": 0.6
        },
        {
            "id": 51365,
            "original_name": "Magnavox Presents Frank Sinatra",
            "popularity": 0.6
        },
        {
            "id": 51727,
            "original_name": "Ta Paratragouda",
            "popularity": 0.6
        },
        {
            "id": 51987,
            "original_name": "Krungthep Ratri",
            "popularity": 0.6
        },
        {
            "id": 54275,
            "original_name": "Get ahead med Patrick Toftgaard",
            "popularity": 0.6
        },
        {
            "id": 54832,
            "original_name": "Fawazeer Tiatro",
            "popularity": 0.6
        },
        {
            "id": 55418,
            "original_name": "Patriarchy",
            "popularity": 0.6
        },
        {
            "id": 55625,
            "original_name": "SockPuppet Theatre",
            "popularity": 0.6
        },
        {
            "id": 56399,
            "original_name": "Theatre '62",
            "popularity": 0.6
        },
        {
            "id": 56407,
            "original_name": "The Patrice Munsel Show",
            "popularity": 0.6
        },
        {
            "id": 56584,
            "original_name": "MegaTruckers",
            "popularity": 0.6
        },
        {
            "id": 56623,
            "original_name": "Uptown: A Tribute to the Apollo Theatre",
            "popularity": 0.6
        },
        {
            "id": 58844,
            "original_name": "Ethel Barrymore Theatre",
            "popularity": 0.6
        },
        {
            "id": 58900,
            "original_name": "Celanese Theatre",
            "popularity": 0.6
        },
        {
            "id": 58997,
            "original_name": "Satree Tee Lok Leum",
            "popularity": 0.6
        },
        {
            "id": 59261,
            "original_name": "Chiller Theatre",
            "popularity": 0.6
        },
        {
            "id": 59971,
            "original_name": "Nuebe Patrol",
            "popularity": 0.6
        },
        {
            "id": 60093,
            "original_name": "Street Patrol UK",
            "popularity": 0.6
        },
        {
            "id": 60402,
            "original_name": "Patrick O'Hagan Sings",
            "popularity": 0.6
        },
        {
            "id": 66984,
            "original_name": "Highway Patrol",
            "popularity": 0.6
        },
        {
            "id": 68447,
            "original_name": "Matrix Chiambretti",
            "popularity": 0.6
        },
        {
            "id": 69633,
            "original_name": "Leh ratree 2015",
            "popularity": 0.6
        },
        {
            "id": 70032,
            "original_name": "Veipatruljen",
            "popularity": 0.6
        },
        {
            "id": 71665,
            "original_name": "When Patrick met Kylie",
            "popularity": 0.6
        },
        {
            "id": 72576,
            "original_name": "Patron incognito",
            "popularity": 0.6
        },
        {
            "id": 73730,
            "original_name": "Khatron Ke Khiladi",
            "popularity": 0.6
        },
        {
            "id": 73934,
            "original_name": "Megatrains",
            "popularity": 0.6
        },
        {
            "id": 74890,
            "original_name": "Patria Mea Esti Tu",
            "popularity": 0.6
        },
        {
            "id": 74913,
            "original_name": "Crime Patrol",
            "popularity": 0.6
        },
        {
            "id": 75819,
            "original_name": "Go Greek with Patricia",
            "popularity": 0.6
        },
        {
            "id": 77378,
            "original_name": "Patrick Carman's 3:15 Stories",
            "popularity": 0.6
        },
        {
            "id": 78291,
            "original_name": "Nite Owl Theatre",
            "popularity": 0.6
        },
        {
            "id": 79982,
            "original_name": "Des patrons et des hommes",
            "popularity": 0.6
        },
        {
            "id": 80961,
            "original_name": "Booze Patrol",
            "popularity": 0.6
        },
        {
            "id": 81706,
            "original_name": "Tareq Taylors Nordiska Matresa",
            "popularity": 0.6
        },
        {
            "id": 81866,
            "original_name": "Heimatrauschen",
            "popularity": 0.6
        },
        {
            "id": 81960,
            "original_name": "Natrah",
            "popularity": 0.6
        },
        {
            "id": 82401,
            "original_name": "Die Katrin wird Soldat",
            "popularity": 0.6
        },
        {
            "id": 83690,
            "original_name": "Live PD Presents: Women On Patrol",
            "popularity": 0.6
        },
        {
            "id": 83918,
            "original_name": "Les quatre soeurs",
            "popularity": 0.6
        },
        {
            "id": 85920,
            "original_name": "La vie en quatre temps",
            "popularity": 0.6
        },
        {
            "id": 87125,
            "original_name": "Larga vida al teatro",
            "popularity": 0.6
        },
        {
            "id": 89917,
            "original_name": "Quatre mariages pour une lune de miel",
            "popularity": 0.6
        },
        {
            "id": 93056,
            "original_name": "Trails of Hatred",
            "popularity": 0.6
        },
        {
            "id": 94072,
            "original_name": "Aesop's Theatre",
            "popularity": 0.6
        },
        {
            "id": 94832,
            "original_name": "Inside the Operating Theatre",
            "popularity": 0.6
        },
        {
            "id": 95618,
            "original_name": "Ellie op patrouille",
            "popularity": 0.6
        },
        {
            "id": 95648,
            "original_name": "Suri Katriana",
            "popularity": 0.6
        },
        {
            "id": 95965,
            "original_name": "Tygo in de Psychiatrie",
            "popularity": 0.6
        },
        {
            "id": 96278,
            "original_name": "Ture Sventon och Bermudatriangelns hemlighet",
            "popularity": 0.6
        },
        {
            "id": 98146,
            "original_name": "Madatrek",
            "popularity": 0.6
        },
        {
            "id": 100261,
            "original_name": "Sinatra : Le parcours d'une l\u00e9gende",
            "popularity": 0.6
        },
        {
            "id": 101354,
            "original_name": "Shubhratri",
            "popularity": 0.6
        },
        {
            "id": 104564,
            "original_name": "Guignol - Le th\u00e9atre de vos enfants",
            "popularity": 0.6
        },
        {
            "id": 104651,
            "original_name": "As\u00ed nace Cuatro",
            "popularity": 0.6
        },
        {
            "id": 107638,
            "original_name": "Fokus Japan: Unterwegs mit Patrick Rohr",
            "popularity": 0.6
        },
        {
            "id": 110505,
            "original_name": "Patrick Gower: On Weed",
            "popularity": 0.6
        },
        {
            "id": 111042,
            "original_name": "Tatra kolem sv\u011bta 2",
            "popularity": 0.6
        },
        {
            "id": 111487,
            "original_name": "O Teatro das Tesouras",
            "popularity": 0.6
        },
        {
            "id": 113306,
            "original_name": "Super Patrulhas",
            "popularity": 0.6
        },
        {
            "id": 114089,
            "original_name": "Colgate Theatre",
            "popularity": 0.6
        },
        {
            "id": 115152,
            "original_name": "Patrol Tatry",
            "popularity": 0.6
        },
        {
            "id": 115900,
            "original_name": "Lone Star Law: Patrol and Protect",
            "popularity": 0.6
        },
        {
            "id": 116501,
            "original_name": "Escape The Matrix",
            "popularity": 0.6
        },
        {
            "id": 116577,
            "original_name": "Tareq Taylors matresa",
            "popularity": 0.6
        },
        {
            "id": 120999,
            "original_name": "El repatriado",
            "popularity": 0.6
        },
        {
            "id": 121412,
            "original_name": "Les desserts de Patrice",
            "popularity": 0.6
        },
        {
            "id": 122058,
            "original_name": "Cuatro Reinas",
            "popularity": 0.6
        },
        {
            "id": 123614,
            "original_name": "Pr\u00edbehy tatransk\u00fdch \u0161t\u00edtov",
            "popularity": 0.6
        },
        {
            "id": 123900,
            "original_name": "Uropatruljen - Politiets h\u00e5rde hunde",
            "popularity": 0.6
        },
        {
            "id": 124427,
            "original_name": "Gintberg - De sidste patriarker",
            "popularity": 0.6
        },
        {
            "id": 126822,
            "original_name": "Theatre Macabre",
            "popularity": 0.6
        },
        {
            "id": 127104,
            "original_name": "Patrouille Suisse",
            "popularity": 0.6
        },
        {
            "id": 127763,
            "original_name": "Patrick Gower: On P",
            "popularity": 0.6
        },
        {
            "id": 127909,
            "original_name": "The Theatre Channel",
            "popularity": 0.6
        },
        {
            "id": 130094,
            "original_name": "Patrik m\u00f6ter",
            "popularity": 0.6
        },
        {
            "id": 131032,
            "original_name": "Patrice Al\u00e8gre : le pr\u00e9dateur invisible",
            "popularity": 0.6
        },
        {
            "id": 131208,
            "original_name": "Matrimoine",
            "popularity": 0.6
        },
        {
            "id": 132287,
            "original_name": "Atrapados en los 90",
            "popularity": 0.6
        },
        {
            "id": 132995,
            "original_name": "BIMA Satria Garuda",
            "popularity": 0.6
        },
        {
            "id": 134908,
            "original_name": "Theatre Box",
            "popularity": 0.6
        },
        {
            "id": 135564,
            "original_name": "Battle of Alcatraz",
            "popularity": 0.6
        },
        {
            "id": 135592,
            "original_name": "Alcatraz: The Great Escapes",
            "popularity": 0.6
        },
        {
            "id": 137081,
            "original_name": "Ultramechatron Team Go!",
            "popularity": 0.6
        },
        {
            "id": 137984,
            "original_name": "Hist\u00f3ria do Teatro de Revista em Portugal",
            "popularity": 0.6
        },
        {
            "id": 138495,
            "original_name": "Soho Theatre Live",
            "popularity": 0.6
        },
        {
            "id": 171389,
            "original_name": "Atreverse",
            "popularity": 0.6
        }
    ],
    "relations": [
        {
            "character": "atro"
        },
        {
            "character": "atri"
        },
        {
            "character": "atre"
        },
        {
            "character": "atra"
        },
        {
            "character": "atru"
        },
        {
            "character": "atry"
        }
    ],
    "top20": [
        {
            "id": 135193,
            "original_name": "Malverde: El Santo Patr\u00f3n",
            "popularity": 319.15
        },
        {
            "id": 43348,
            "original_name": "Pablo Escobar: El Patr\u00f3n del Mal",
            "popularity": 305.062
        },
        {
            "id": 126824,
            "original_name": "The Patrick Star Show",
            "popularity": 239.804
        },
        {
            "id": 44914,
            "original_name": "La Patrona",
            "popularity": 163.256
        },
        {
            "id": 79501,
            "original_name": "Doom Patrol",
            "popularity": 85.89
        },
        {
            "id": 57532,
            "original_name": "PAW Patrol",
            "popularity": 83.712
        },
        {
            "id": 126818,
            "original_name": "Richard Herring's Leicester Square Theatre Podcast",
            "popularity": 29.278
        },
        {
            "id": 12277,
            "original_name": "Lux Video Theatre",
            "popularity": 23.702
        },
        {
            "id": 11576,
            "original_name": "Bob Hope Presents the Chrysler Theatre",
            "popularity": 21.449
        },
        {
            "id": 85964,
            "original_name": "Patria",
            "popularity": 16.045
        },
        {
            "id": 18350,
            "original_name": "Atr\u00e9vete a so\u00f1ar",
            "popularity": 15.996
        },
        {
            "id": 29917,
            "original_name": "Thirty-Minute Theatre",
            "popularity": 15.728
        },
        {
            "id": 72787,
            "original_name": "Patrick Melrose",
            "popularity": 14.944
        },
        {
            "id": 64396,
            "original_name": "Patriot",
            "popularity": 13.06
        },
        {
            "id": 104206,
            "original_name": "\u00bfQui\u00e9n mat\u00f3 a Patricia Soler?",
            "popularity": 12.993
        },
        {
            "id": 35339,
            "original_name": "Alcatraz",
            "popularity": 12.708
        },
        {
            "id": 45166,
            "original_name": "GALACTIC PATROL \u30ec\u30f3\u30ba\u30de\u30f3",
            "popularity": 12.056
        },
        {
            "id": 47119,
            "original_name": "Cleopatra",
            "popularity": 11.281
        },
        {
            "id": 11920,
            "original_name": "Highway Patrol",
            "popularity": 11.17
        },
        {
            "id": 4603,
            "original_name": "Faerie Tale Theatre",
            "popularity": 10.331
        }
    ]
}