{
    "data": [
        {
            "id": 81960,
            "original_name": "Natrah",
            "popularity": 0.6
        }
    ],
    "relations": [],
    "top20": [
        {
            "id": 81960,
            "original_name": "Natrah",
            "popularity": 0.6
        }
    ]
}