{
    "data": [
        {
            "id": 31924,
            "original_name": "Between Love and Hatred",
            "popularity": 0.6
        },
        {
            "id": 93056,
            "original_name": "Trails of Hatred",
            "popularity": 0.6
        }
    ],
    "relations": [],
    "top20": [
        {
            "id": 31924,
            "original_name": "Between Love and Hatred",
            "popularity": 0.6
        },
        {
            "id": 93056,
            "original_name": "Trails of Hatred",
            "popularity": 0.6
        }
    ]
}