{
    "data": [
        {
            "id": 117118,
            "original_name": "Atropa",
            "popularity": 1.746
        },
        {
            "id": 124936,
            "original_name": "Olympiatroppen",
            "popularity": 0.689
        }
    ],
    "relations": [],
    "top20": [
        {
            "id": 117118,
            "original_name": "Atropa",
            "popularity": 1.746
        },
        {
            "id": 124936,
            "original_name": "Olympiatroppen",
            "popularity": 0.689
        }
    ]
}