{
    "data": [
        {
            "id": 470,
            "original_name": "Ratsada",
            "popularity": 0.6
        },
        {
            "id": 590,
            "original_name": "SWAT Kats: The Radical Squadron",
            "popularity": 9.144
        },
        {
            "id": 1195,
            "original_name": "American Eats",
            "popularity": 0.6
        },
        {
            "id": 1601,
            "original_name": "The Watson Report",
            "popularity": 0.6
        },
        {
            "id": 1988,
            "original_name": "ThunderCats",
            "popularity": 29.513
        },
        {
            "id": 3022,
            "original_name": "Rugrats",
            "popularity": 40.562
        },
        {
            "id": 3161,
            "original_name": "Cheap Seats",
            "popularity": 3.341
        },
        {
            "id": 3502,
            "original_name": "Poolside Chats",
            "popularity": 0.6
        },
        {
            "id": 3805,
            "original_name": "Catscratch",
            "popularity": 8.553
        },
        {
            "id": 4020,
            "original_name": "8 out of 10 Cats",
            "popularity": 17.66
        },
        {
            "id": 4381,
            "original_name": "Good Eats",
            "popularity": 5.768
        },
        {
            "id": 4489,
            "original_name": "Josie and the Pussycats",
            "popularity": 6.021
        },
        {
            "id": 4802,
            "original_name": "Plats bruts",
            "popularity": 1.805
        },
        {
            "id": 4881,
            "original_name": "Water Rats",
            "popularity": 6.108
        },
        {
            "id": 5468,
            "original_name": "Cats",
            "popularity": 0.6
        },
        {
            "id": 5578,
            "original_name": "B.A.D. Cats",
            "popularity": 0.895
        },
        {
            "id": 6031,
            "original_name": "Wild Oats",
            "popularity": 2.132
        },
        {
            "id": 6693,
            "original_name": "Kitty Cats",
            "popularity": 0.6
        },
        {
            "id": 6784,
            "original_name": "Jikuu Keisatsu Wecker",
            "popularity": 0.6
        },
        {
            "id": 7132,
            "original_name": "Aristocrats",
            "popularity": 1.347
        },
        {
            "id": 7209,
            "original_name": "Hrvatski Top Model",
            "popularity": 0.6
        },
        {
            "id": 7383,
            "original_name": "Pistols 'n' Petticoats",
            "popularity": 3.145
        },
        {
            "id": 7430,
            "original_name": "The Aquabats! Super Show!",
            "popularity": 1.756
        },
        {
            "id": 8134,
            "original_name": "Lab Rats Challenge",
            "popularity": 0.6
        },
        {
            "id": 8375,
            "original_name": "Hrvatska tra\u017ei zvijezdu",
            "popularity": 0.6
        },
        {
            "id": 8899,
            "original_name": "Laku no\u0107, Hrvatska",
            "popularity": 0.6
        },
        {
            "id": 10397,
            "original_name": "Space Cats",
            "popularity": 1.268
        },
        {
            "id": 11059,
            "original_name": "Rugrats Pre-School Daze",
            "popularity": 0.6
        },
        {
            "id": 11301,
            "original_name": "Lab Rats",
            "popularity": 0.6
        },
        {
            "id": 11516,
            "original_name": "Cool for Cats",
            "popularity": 0.6
        },
        {
            "id": 11794,
            "original_name": "Harriet's Magic Hats",
            "popularity": 0.6
        },
        {
            "id": 12451,
            "original_name": "Cattanooga Cats",
            "popularity": 4.858
        },
        {
            "id": 12935,
            "original_name": "Slacker Cats",
            "popularity": 1.922
        },
        {
            "id": 13003,
            "original_name": "Moccasin Flats",
            "popularity": 0.626
        },
        {
            "id": 13272,
            "original_name": "Hrvatski Idol",
            "popularity": 0.6
        },
        {
            "id": 13769,
            "original_name": "Bearcats!",
            "popularity": 0.6
        },
        {
            "id": 13781,
            "original_name": "Heathcliff and the Catillac Cats",
            "popularity": 8.0
        },
        {
            "id": 13829,
            "original_name": "The Catillac Cats",
            "popularity": 0.6
        },
        {
            "id": 14711,
            "original_name": "Fortycoats & Co.",
            "popularity": 0.6
        },
        {
            "id": 14809,
            "original_name": "Seibu Keisatsu",
            "popularity": 0.6
        },
        {
            "id": 15036,
            "original_name": "The Houndcats",
            "popularity": 0.927
        },
        {
            "id": 15253,
            "original_name": "The Off-Beats",
            "popularity": 0.6
        },
        {
            "id": 16888,
            "original_name": "The Hot Rod Dogs and Cool Car Cats",
            "popularity": 1.689
        },
        {
            "id": 17491,
            "original_name": "Brats of the Lost Nebula",
            "popularity": 1.361
        },
        {
            "id": 20392,
            "original_name": "Auntie's All-Time Greats",
            "popularity": 0.6
        },
        {
            "id": 21246,
            "original_name": "The Hollywood Greats",
            "popularity": 2.67
        },
        {
            "id": 21985,
            "original_name": "Ippatsu Kiki Musume",
            "popularity": 2.665
        },
        {
            "id": 23222,
            "original_name": "Hachigatsu no Love Song",
            "popularity": 0.6
        },
        {
            "id": 23434,
            "original_name": "Fiddles, Cheats and Scams",
            "popularity": 0.6
        },
        {
            "id": 24112,
            "original_name": "The Aquabats Super Show",
            "popularity": 0.6
        },
        {
            "id": 24211,
            "original_name": "Josie and the Pussycats in Outer Space",
            "popularity": 3.978
        },
        {
            "id": 24350,
            "original_name": "Catspaw",
            "popularity": 0.6
        },
        {
            "id": 24558,
            "original_name": "L.A. Hard Hats",
            "popularity": 0.6
        },
        {
            "id": 24830,
            "original_name": "Desert Rats",
            "popularity": 0.6
        },
        {
            "id": 25550,
            "original_name": "Komatsu Sakyo Anime Gekijou",
            "popularity": 0.6
        },
        {
            "id": 26849,
            "original_name": "Copy Cats",
            "popularity": 0.6
        },
        {
            "id": 27003,
            "original_name": "Cats 101",
            "popularity": 0.6
        },
        {
            "id": 28964,
            "original_name": "Redcoats",
            "popularity": 0.6
        },
        {
            "id": 30707,
            "original_name": "The Podcats",
            "popularity": 0.6
        },
        {
            "id": 31141,
            "original_name": "Jikuu Keisatsu Wecker D-02",
            "popularity": 0.6
        },
        {
            "id": 31144,
            "original_name": "Ruth Watson's Hotel Rescue",
            "popularity": 0.6
        },
        {
            "id": 31258,
            "original_name": "Jikuu Keisatsu Wecker Signa",
            "popularity": 0.6
        },
        {
            "id": 31817,
            "original_name": "The Steve Katsos Show",
            "popularity": 0.6
        },
        {
            "id": 32504,
            "original_name": "Hellcats",
            "popularity": 9.543
        },
        {
            "id": 32791,
            "original_name": "Cats' Eyes",
            "popularity": 0.6
        },
        {
            "id": 32880,
            "original_name": "Hrvatski Top Model",
            "popularity": 0.6
        },
        {
            "id": 34098,
            "original_name": "Street Eats",
            "popularity": 0.6
        },
        {
            "id": 34419,
            "original_name": "Dr. Tricks & Mr. Treats Stupendous Creep-a-thon",
            "popularity": 0.804
        },
        {
            "id": 34421,
            "original_name": "Copycats",
            "popularity": 0.6
        },
        {
            "id": 35123,
            "original_name": "Carter Beats the Devil",
            "popularity": 0.6
        },
        {
            "id": 35714,
            "original_name": "The Chairman of Chatsworth",
            "popularity": 0.6
        },
        {
            "id": 36395,
            "original_name": "Unique Eats",
            "popularity": 0.6
        },
        {
            "id": 37151,
            "original_name": "Jiiji~Mago to ita Natsu~",
            "popularity": 0.6
        },
        {
            "id": 37308,
            "original_name": "Hitonatsu no Puropozu",
            "popularity": 0.6
        },
        {
            "id": 37640,
            "original_name": "Animal Planet: Must Love Cats",
            "popularity": 0.844
        },
        {
            "id": 37784,
            "original_name": "Rebels and Redcoats: How Britain Lost America",
            "popularity": 0.6
        },
        {
            "id": 38040,
            "original_name": "Border ~hanzai shinri sousatsu file~",
            "popularity": 0.6
        },
        {
            "id": 38134,
            "original_name": "Mark Watson kicks Off",
            "popularity": 0.6
        },
        {
            "id": 38165,
            "original_name": "ThunderCats",
            "popularity": 14.806
        },
        {
            "id": 38867,
            "original_name": "Lab Rats",
            "popularity": 17.626
        },
        {
            "id": 39905,
            "original_name": "Toy Story Treats",
            "popularity": 3.939
        },
        {
            "id": 40172,
            "original_name": "Avocats & associ\u00e9s",
            "popularity": 0.6
        },
        {
            "id": 40938,
            "original_name": "Der Staatsanwalt hat das Wort",
            "popularity": 9.116
        },
        {
            "id": 41301,
            "original_name": "Staatsanwalt Posch ermittelt",
            "popularity": 0.6
        },
        {
            "id": 41482,
            "original_name": "Natsu ni Koisuru Onnatachi",
            "popularity": 0.6
        },
        {
            "id": 42777,
            "original_name": "Mudcats",
            "popularity": 0.6
        },
        {
            "id": 42798,
            "original_name": "United Stats of America",
            "popularity": 0.6
        },
        {
            "id": 43277,
            "original_name": "Osomatsu-kun",
            "popularity": 0.6
        },
        {
            "id": 43329,
            "original_name": "P.I.S. - Politiets indsatsstyrke",
            "popularity": 0.6
        },
        {
            "id": 43574,
            "original_name": "8 Out of 10 Cats Uncut",
            "popularity": 1.464
        },
        {
            "id": 44212,
            "original_name": "Welsh Greats",
            "popularity": 0.6
        },
        {
            "id": 44248,
            "original_name": "Hatsuinu The Animation",
            "popularity": 0.6
        },
        {
            "id": 44453,
            "original_name": "Amazing Eats",
            "popularity": 0.6
        },
        {
            "id": 44571,
            "original_name": "Ketchup: Cats Who Cook",
            "popularity": 0.6
        },
        {
            "id": 44769,
            "original_name": "Ippatsu Kanta-kun",
            "popularity": 0.6
        },
        {
            "id": 44855,
            "original_name": "Ratsada E",
            "popularity": 0.6
        },
        {
            "id": 44955,
            "original_name": "Tenbatsu! Angel Rabbie",
            "popularity": 0.6
        },
        {
            "id": 45405,
            "original_name": "Hatsuinu 2 The Animation - A Strange Kind of Woman ~again~",
            "popularity": 0.822
        },
        {
            "id": 45924,
            "original_name": "Matsuko & Ariyoshi's Angry New Party",
            "popularity": 0.6
        },
        {
            "id": 46042,
            "original_name": "Asadora Satsujin Jiken",
            "popularity": 0.6
        },
        {
            "id": 46062,
            "original_name": "Natsu kumo agare",
            "popularity": 0.6
        },
        {
            "id": 46215,
            "original_name": "Wada Akiko satsujin jiken",
            "popularity": 0.6
        },
        {
            "id": 46233,
            "original_name": "M\u00f4s\u00f4 s\u00f4sa: Kuwagata K\u00f4ichi junky\u00f4ju no stylish na seikatsu",
            "popularity": 0.6
        },
        {
            "id": 47504,
            "original_name": "20th Century Greats",
            "popularity": 1.978
        },
        {
            "id": 49188,
            "original_name": "Cats & Dogs: Dog Segment",
            "popularity": 0.6
        },
        {
            "id": 49296,
            "original_name": "Greggs: More Than Meats the Pie",
            "popularity": 0.6
        },
        {
            "id": 50999,
            "original_name": "Anlatsam Roman Olur",
            "popularity": 0.6
        },
        {
            "id": 51389,
            "original_name": "Arupusu sangaku ky\u00fbjotai Shimon Ikki 9: Hakuba Sangaku tsu\u00e2 tenk\u00fb no misshitsu satsujin",
            "popularity": 0.6
        },
        {
            "id": 51576,
            "original_name": "Every Heart Beats True: The Jim Stynes Story",
            "popularity": 0.6
        },
        {
            "id": 52124,
            "original_name": "Extreme Houseboats",
            "popularity": 0.6
        },
        {
            "id": 52499,
            "original_name": "Piatsa Kolonaki",
            "popularity": 0.6
        },
        {
            "id": 52744,
            "original_name": "The Bats",
            "popularity": 0.6
        },
        {
            "id": 53921,
            "original_name": "Nereden Ba\u015flasak Nas\u0131l Anlatsak",
            "popularity": 0.6
        },
        {
            "id": 54854,
            "original_name": "Operatsiya slava",
            "popularity": 0.6
        },
        {
            "id": 55276,
            "original_name": "Diary of a Wimpy Kid Treats",
            "popularity": 0.865
        },
        {
            "id": 55524,
            "original_name": "Wir Staatsk\u00fcnstler",
            "popularity": 0.612
        },
        {
            "id": 55830,
            "original_name": "Rebel Eats",
            "popularity": 0.6
        },
        {
            "id": 57519,
            "original_name": "The Legendary of Matsu",
            "popularity": 0.6
        },
        {
            "id": 58427,
            "original_name": "The Cheap Seats",
            "popularity": 0.6
        },
        {
            "id": 59020,
            "original_name": "Moccasin Flats: Redemption",
            "popularity": 0.6
        },
        {
            "id": 59802,
            "original_name": "Lilla vi (tar stor plats)",
            "popularity": 0.6
        },
        {
            "id": 60433,
            "original_name": "Cool Cats Show",
            "popularity": 0.6
        },
        {
            "id": 62325,
            "original_name": "Der Staatsanwalt",
            "popularity": 12.44
        },
        {
            "id": 62625,
            "original_name": "Granite Flats",
            "popularity": 3.352
        },
        {
            "id": 62974,
            "original_name": "8 Out of 10 Cats Does Countdown",
            "popularity": 13.627
        },
        {
            "id": 63044,
            "original_name": "Piratskattens Hemlighet",
            "popularity": 1.264
        },
        {
            "id": 63621,
            "original_name": "Mountain Goats",
            "popularity": 1.96
        },
        {
            "id": 63788,
            "original_name": "Liebe ist Privatsache",
            "popularity": 1.461
        },
        {
            "id": 64894,
            "original_name": "Watson & Oliver",
            "popularity": 0.6
        },
        {
            "id": 65080,
            "original_name": "Carnival Eats",
            "popularity": 1.96
        },
        {
            "id": 65766,
            "original_name": "Lab Rats: Elite Force",
            "popularity": 9.94
        },
        {
            "id": 65822,
            "original_name": "The Story of Cats",
            "popularity": 1.028
        },
        {
            "id": 66024,
            "original_name": "Atseh",
            "popularity": 0.6
        },
        {
            "id": 68214,
            "original_name": "Padoem Patsss",
            "popularity": 0.6
        },
        {
            "id": 68337,
            "original_name": "Hrvatski Kraljevi",
            "popularity": 0.6
        },
        {
            "id": 69964,
            "original_name": "De Maatschap",
            "popularity": 1.141
        },
        {
            "id": 71010,
            "original_name": "\u55a7\u5629\u756a\u9577 \u4e59\u5973-Girl Beats Boys-",
            "popularity": 5.25
        },
        {
            "id": 71451,
            "original_name": "Iron Chef Eats",
            "popularity": 1.138
        },
        {
            "id": 72083,
            "original_name": "Avocats et associ\u00e9s",
            "popularity": 1.4
        },
        {
            "id": 72190,
            "original_name": "Med livet som innsats",
            "popularity": 0.6
        },
        {
            "id": 72427,
            "original_name": "Kontainer Kats",
            "popularity": 0.6
        },
        {
            "id": 74121,
            "original_name": "Late Nite Eats",
            "popularity": 0.601
        },
        {
            "id": 75274,
            "original_name": "The Stats of Life",
            "popularity": 0.6
        },
        {
            "id": 75564,
            "original_name": "Les Galapiats",
            "popularity": 0.706
        },
        {
            "id": 75825,
            "original_name": "Jo Brand's Cats & Kittens",
            "popularity": 0.6
        },
        {
            "id": 75971,
            "original_name": "Cats v Dogs: Which is Best?",
            "popularity": 0.6
        },
        {
            "id": 76180,
            "original_name": "La vie secr\u00e8te des chats",
            "popularity": 0.6
        },
        {
            "id": 76304,
            "original_name": "Big Cats",
            "popularity": 1.699
        },
        {
            "id": 76311,
            "original_name": "Sherlock Holmes and Dr. Watson",
            "popularity": 2.002
        },
        {
            "id": 76672,
            "original_name": "Celebrity Big Brother (Hrvatska)",
            "popularity": 0.84
        },
        {
            "id": 77574,
            "original_name": "Kanats\u0131z Ku\u015flar",
            "popularity": 2.787
        },
        {
            "id": 77811,
            "original_name": "Curiosity Retreats 2015 Lectures",
            "popularity": 0.6
        },
        {
            "id": 77856,
            "original_name": "Curiosity Retreats 2014 Lectures",
            "popularity": 0.6
        },
        {
            "id": 77898,
            "original_name": "Curiosity Retreats 2016 Lectures",
            "popularity": 0.6
        },
        {
            "id": 78139,
            "original_name": "Big Cats: An Amazing Animal Family",
            "popularity": 1.226
        },
        {
            "id": 78906,
            "original_name": "HITOSHI MATSUMOTO Presents \u30c9\u30ad\u30e5\u30e1\u30f3\u30bf\u30eb",
            "popularity": 3.461
        },
        {
            "id": 79616,
            "original_name": "Der Staatsfeind",
            "popularity": 1.4
        },
        {
            "id": 79694,
            "original_name": "ThunderCats Roar",
            "popularity": 9.592
        },
        {
            "id": 80459,
            "original_name": "Stath Lets Flats",
            "popularity": 6.605
        },
        {
            "id": 82525,
            "original_name": "Kinderquatsch mit Michael",
            "popularity": 0.615
        },
        {
            "id": 82620,
            "original_name": "HITOSHI MATSUMOTO Presents FREEZE",
            "popularity": 0.856
        },
        {
            "id": 82846,
            "original_name": "BAKUMATSU ~\u604b\u611b\u5e55\u672b\u30ab\u30ec\u30b7 \u5916\u4f1d~",
            "popularity": 1.469
        },
        {
            "id": 82887,
            "original_name": "Amanchu!: Yakusoku no Natsu to Atarashii Omoide no Koto",
            "popularity": 0.6
        },
        {
            "id": 83017,
            "original_name": "Whats up Doc",
            "popularity": 0.6
        },
        {
            "id": 83179,
            "original_name": "Good Eats: Reloaded",
            "popularity": 1.701
        },
        {
            "id": 83514,
            "original_name": "Inmu 2 Chijoku no Kaniku Matsuri",
            "popularity": 0.6
        },
        {
            "id": 83857,
            "original_name": "Bakumatsu Gurume Bushimeshi",
            "popularity": 0.602
        },
        {
            "id": 84470,
            "original_name": "Statsministrarna",
            "popularity": 0.644
        },
        {
            "id": 84725,
            "original_name": "Plumpaquatsch",
            "popularity": 0.6
        },
        {
            "id": 85635,
            "original_name": "Big Cats About The House",
            "popularity": 0.6
        },
        {
            "id": 86011,
            "original_name": "Age of Big Cats",
            "popularity": 0.605
        },
        {
            "id": 86553,
            "original_name": "Die Staatsanw\u00e4ltin",
            "popularity": 0.857
        },
        {
            "id": 86629,
            "original_name": "Etats-Unis vus du ciel",
            "popularity": 0.6
        },
        {
            "id": 89712,
            "original_name": "African Cats",
            "popularity": 1.093
        },
        {
            "id": 89841,
            "original_name": "#TAG WHATSCOMING",
            "popularity": 0.665
        },
        {
            "id": 95002,
            "original_name": "Matsjokket",
            "popularity": 1.014
        },
        {
            "id": 95533,
            "original_name": "Hissatsu Shigotonin",
            "popularity": 0.6
        },
        {
            "id": 95556,
            "original_name": "Expats",
            "popularity": 0.6
        },
        {
            "id": 95568,
            "original_name": "Tanks, dans l'Enfer des Combats",
            "popularity": 1.036
        },
        {
            "id": 96129,
            "original_name": "Don't F**k with Cats: Hunting an Internet Killer",
            "popularity": 9.597
        },
        {
            "id": 96315,
            "original_name": "Submarine: Steel Boats, Iron Men",
            "popularity": 0.6
        },
        {
            "id": 97101,
            "original_name": "Statsministerens nyt\u00e5rstale",
            "popularity": 0.6
        },
        {
            "id": 97272,
            "original_name": "Katsching!",
            "popularity": 0.647
        },
        {
            "id": 97399,
            "original_name": "6 Juin 1944: Paroles de Soldats",
            "popularity": 0.6
        },
        {
            "id": 98042,
            "original_name": "SISTERS - The Last Day of Summer - Chinatsu",
            "popularity": 0.917
        },
        {
            "id": 98043,
            "original_name": "SISTERS - The Last Day of Summer - Chinatsu x Haruka",
            "popularity": 0.6
        },
        {
            "id": 98253,
            "original_name": "Snow Cats and Me",
            "popularity": 0.6
        },
        {
            "id": 98486,
            "original_name": "Les \u00c9tats-Unis au Fil de l'Eau",
            "popularity": 0.6
        },
        {
            "id": 98580,
            "original_name": "La C\u00f4te Est des \u00c9tats-Unis",
            "popularity": 0.6
        },
        {
            "id": 98922,
            "original_name": "Storm Cats",
            "popularity": 0.6
        },
        {
            "id": 98930,
            "original_name": "Eddie Eats America",
            "popularity": 0.895
        },
        {
            "id": 99598,
            "original_name": "Wild Cats of India",
            "popularity": 1.4
        },
        {
            "id": 99814,
            "original_name": "Les soldats du feu",
            "popularity": 0.6
        },
        {
            "id": 100274,
            "original_name": "Chats des villes et chats des champs",
            "popularity": 0.6
        },
        {
            "id": 100563,
            "original_name": "9 mesyatsev",
            "popularity": 1.511
        },
        {
            "id": 100591,
            "original_name": "Ayatsuri Haramase Dream Note",
            "popularity": 1.4
        },
        {
            "id": 101833,
            "original_name": "What's New, Pussycat!: Backstage at 'Cats' with Tyler Hanes",
            "popularity": 7.872
        },
        {
            "id": 102700,
            "original_name": "L\u2019eau dans tous ses \u00e9tats",
            "popularity": 0.6
        },
        {
            "id": 102821,
            "original_name": "Le sexe aux \u00c9tats-Unis",
            "popularity": 0.6
        },
        {
            "id": 103424,
            "original_name": "Kaffeeklatsch",
            "popularity": 0.6
        },
        {
            "id": 103486,
            "original_name": "Au coeur de l'enqu\u00eate : Au coeur de la plus grande prison de haute s\u00e9curit\u00e9 des Etats-Unis",
            "popularity": 0.6
        },
        {
            "id": 103547,
            "original_name": "Big Zuu's Big Eats",
            "popularity": 0.796
        },
        {
            "id": 104938,
            "original_name": "The Secret Lives Of Big Cats",
            "popularity": 0.6
        },
        {
            "id": 105778,
            "original_name": "Hrvatsko Prolje\u0107e",
            "popularity": 0.6
        },
        {
            "id": 105830,
            "original_name": "O! Vatsyayana",
            "popularity": 0.607
        },
        {
            "id": 107106,
            "original_name": "Close To My Heartbeats",
            "popularity": 0.6
        },
        {
            "id": 107182,
            "original_name": "Hatsuya",
            "popularity": 0.6
        },
        {
            "id": 110562,
            "original_name": "Sadakatsiz",
            "popularity": 20.214
        },
        {
            "id": 110593,
            "original_name": "Paul Hollywood Eats Japan",
            "popularity": 0.6
        },
        {
            "id": 112144,
            "original_name": "Les USA dans tous leurs \u00c9tats",
            "popularity": 0.6
        },
        {
            "id": 113468,
            "original_name": "Hatsuya",
            "popularity": 0.88
        },
        {
            "id": 113683,
            "original_name": "Kats & Co",
            "popularity": 1.4
        },
        {
            "id": 113726,
            "original_name": "U-Boats Hitler's Sharks",
            "popularity": 0.6
        },
        {
            "id": 115359,
            "original_name": "Quatsch Comedy Club",
            "popularity": 2.521
        },
        {
            "id": 115652,
            "original_name": "Slavik \u2013 Auf Staats Nacken",
            "popularity": 0.727
        },
        {
            "id": 116291,
            "original_name": "Die Schlager des Monats",
            "popularity": 1.391
        },
        {
            "id": 116814,
            "original_name": "De Onfatsoenlijken",
            "popularity": 0.6
        },
        {
            "id": 116876,
            "original_name": "La longue guerre Isra\u00ebl - Iran - Etats-Unis",
            "popularity": 0.84
        },
        {
            "id": 118436,
            "original_name": "Indsatslederne",
            "popularity": 0.704
        },
        {
            "id": 118694,
            "original_name": "Kid-E-Cats",
            "popularity": 0.6
        },
        {
            "id": 119047,
            "original_name": "Ilhados com Beats",
            "popularity": 0.6
        },
        {
            "id": 119834,
            "original_name": "Re:Petit kara Hajimeru Isekai Seikatsu",
            "popularity": 0.848
        },
        {
            "id": 120438,
            "original_name": "Brothers Green Eats!",
            "popularity": 0.6
        },
        {
            "id": 121766,
            "original_name": "Manatsu no Shonen: 19452020",
            "popularity": 0.6
        },
        {
            "id": 122496,
            "original_name": "GOATs: The Greatest of All Time",
            "popularity": 0.6
        },
        {
            "id": 124920,
            "original_name": "Rugrats",
            "popularity": 34.545
        },
        {
            "id": 124988,
            "original_name": "Since September : empty seats tour",
            "popularity": 0.6
        },
        {
            "id": 125179,
            "original_name": "Meet The Meerkats",
            "popularity": 0.72
        },
        {
            "id": 125222,
            "original_name": "Age of the Big Cats",
            "popularity": 0.6
        },
        {
            "id": 127617,
            "original_name": "Elize Matsunaga: Era uma Vez um Crime",
            "popularity": 7.751
        },
        {
            "id": 127863,
            "original_name": "Quatsch Comedy Club Classics",
            "popularity": 0.672
        },
        {
            "id": 129052,
            "original_name": "Liebesg'schichten und Heiratssachen",
            "popularity": 0.6
        },
        {
            "id": 129601,
            "original_name": "The Cheap Seats",
            "popularity": 5.383
        },
        {
            "id": 129824,
            "original_name": "The Boats That Built Britain",
            "popularity": 0.6
        },
        {
            "id": 132766,
            "original_name": "Etats-unis  Histoire d'Une Nation",
            "popularity": 0.6
        },
        {
            "id": 133064,
            "original_name": "Scaredy Cats",
            "popularity": 11.508
        },
        {
            "id": 133821,
            "original_name": "Secret Eats with Adam Richman",
            "popularity": 0.6
        },
        {
            "id": 133867,
            "original_name": "De moord op Marianne Vaatstra",
            "popularity": 0.971
        },
        {
            "id": 134096,
            "original_name": "Soldats de dieu",
            "popularity": 0.604
        },
        {
            "id": 134282,
            "original_name": "Dogs Rule! Cats... Not So Much",
            "popularity": 0.6
        },
        {
            "id": 135353,
            "original_name": "Oats Studios",
            "popularity": 20.22
        },
        {
            "id": 135521,
            "original_name": "Campus Eats",
            "popularity": 0.6
        },
        {
            "id": 136109,
            "original_name": "Insats torsk - sexhandeln inifr\u00e5n",
            "popularity": 1.429
        },
        {
            "id": 138373,
            "original_name": "Tatsachen und Legenden",
            "popularity": 0.6
        },
        {
            "id": 138487,
            "original_name": "Jack B. Yeats: The Man who Painted Ireland",
            "popularity": 0.84
        },
        {
            "id": 138940,
            "original_name": "Matsya Kaand",
            "popularity": 5.318
        },
        {
            "id": 139448,
            "original_name": "Rob De Nijs \u2013 Voor Het Laatst",
            "popularity": 13.902
        }
    ],
    "relations": [
        {
            "character": "atsa"
        },
        {
            "character": "atso"
        },
        {
            "character": "atsc"
        },
        {
            "character": "atsu"
        },
        {
            "character": "atsk"
        },
        {
            "character": "ats!"
        },
        {
            "character": "atsp"
        },
        {
            "character": "atsw"
        },
        {
            "character": "atss"
        },
        {
            "character": "atsi"
        },
        {
            "character": "atse"
        },
        {
            "character": "atsf"
        },
        {
            "character": "atsm"
        },
        {
            "character": "atsj"
        },
        {
            "character": "atsy"
        },
        {
            "character": "atsl"
        },
        {
            "character": "atst"
        },
        {
            "character": "ats."
        }
    ],
    "top20": [
        {
            "id": 3022,
            "original_name": "Rugrats",
            "popularity": 40.562
        },
        {
            "id": 124920,
            "original_name": "Rugrats",
            "popularity": 34.545
        },
        {
            "id": 1988,
            "original_name": "ThunderCats",
            "popularity": 29.513
        },
        {
            "id": 135353,
            "original_name": "Oats Studios",
            "popularity": 20.22
        },
        {
            "id": 110562,
            "original_name": "Sadakatsiz",
            "popularity": 20.214
        },
        {
            "id": 4020,
            "original_name": "8 out of 10 Cats",
            "popularity": 17.66
        },
        {
            "id": 38867,
            "original_name": "Lab Rats",
            "popularity": 17.626
        },
        {
            "id": 38165,
            "original_name": "ThunderCats",
            "popularity": 14.806
        },
        {
            "id": 139448,
            "original_name": "Rob De Nijs \u2013 Voor Het Laatst",
            "popularity": 13.902
        },
        {
            "id": 62974,
            "original_name": "8 Out of 10 Cats Does Countdown",
            "popularity": 13.627
        },
        {
            "id": 62325,
            "original_name": "Der Staatsanwalt",
            "popularity": 12.44
        },
        {
            "id": 133064,
            "original_name": "Scaredy Cats",
            "popularity": 11.508
        },
        {
            "id": 65766,
            "original_name": "Lab Rats: Elite Force",
            "popularity": 9.94
        },
        {
            "id": 96129,
            "original_name": "Don't F**k with Cats: Hunting an Internet Killer",
            "popularity": 9.597
        },
        {
            "id": 79694,
            "original_name": "ThunderCats Roar",
            "popularity": 9.592
        },
        {
            "id": 32504,
            "original_name": "Hellcats",
            "popularity": 9.543
        },
        {
            "id": 590,
            "original_name": "SWAT Kats: The Radical Squadron",
            "popularity": 9.144
        },
        {
            "id": 40938,
            "original_name": "Der Staatsanwalt hat das Wort",
            "popularity": 9.116
        },
        {
            "id": 3805,
            "original_name": "Catscratch",
            "popularity": 8.553
        },
        {
            "id": 13781,
            "original_name": "Heathcliff and the Catillac Cats",
            "popularity": 8.0
        }
    ]
}