{
    "data": [
        {
            "id": 46042,
            "original_name": "Asadora Satsujin Jiken",
            "popularity": 0.6
        },
        {
            "id": 46215,
            "original_name": "Wada Akiko satsujin jiken",
            "popularity": 0.6
        },
        {
            "id": 51389,
            "original_name": "Arupusu sangaku ky\u00fbjotai Shimon Ikki 9: Hakuba Sangaku tsu\u00e2 tenk\u00fb no misshitsu satsujin",
            "popularity": 0.6
        }
    ],
    "relations": [],
    "top20": [
        {
            "id": 46042,
            "original_name": "Asadora Satsujin Jiken",
            "popularity": 0.6
        },
        {
            "id": 46215,
            "original_name": "Wada Akiko satsujin jiken",
            "popularity": 0.6
        },
        {
            "id": 51389,
            "original_name": "Arupusu sangaku ky\u00fbjotai Shimon Ikki 9: Hakuba Sangaku tsu\u00e2 tenk\u00fb no misshitsu satsujin",
            "popularity": 0.6
        }
    ]
}