{
    "data": [
        {
            "id": 776,
            "original_name": "Shattered",
            "popularity": 0.6
        },
        {
            "id": 809,
            "original_name": "Catterick",
            "popularity": 1.032
        },
        {
            "id": 1445,
            "original_name": "Lady Chatterley's Stories",
            "popularity": 2.643
        },
        {
            "id": 2685,
            "original_name": "Family Matters",
            "popularity": 28.05
        },
        {
            "id": 4338,
            "original_name": "Torchy the Battery Boy",
            "popularity": 0.913
        },
        {
            "id": 5832,
            "original_name": "The Strawhatters",
            "popularity": 0.6
        },
        {
            "id": 7234,
            "original_name": "Butch Patterson: Private Dick",
            "popularity": 0.84
        },
        {
            "id": 8069,
            "original_name": "Batteries Not Included",
            "popularity": 0.6
        },
        {
            "id": 10011,
            "original_name": "Scattergories",
            "popularity": 0.6
        },
        {
            "id": 10055,
            "original_name": "Bob Patterson",
            "popularity": 1.47
        },
        {
            "id": 11652,
            "original_name": "Slattery's People",
            "popularity": 3.49
        },
        {
            "id": 12329,
            "original_name": "Test Pattern",
            "popularity": 0.6
        },
        {
            "id": 14663,
            "original_name": "Trading Matters",
            "popularity": 0.6
        },
        {
            "id": 19762,
            "original_name": "Family Matters",
            "popularity": 0.6
        },
        {
            "id": 20206,
            "original_name": "A Scattering of Seeds",
            "popularity": 0.6
        },
        {
            "id": 20260,
            "original_name": "Shattered City: The Halifax Explosion",
            "popularity": 0.6
        },
        {
            "id": 20548,
            "original_name": "Patterns",
            "popularity": 0.6
        },
        {
            "id": 21187,
            "original_name": "To Shatter the Sky",
            "popularity": 0.6
        },
        {
            "id": 21348,
            "original_name": "Patterns of Practice",
            "popularity": 0.6
        },
        {
            "id": 21578,
            "original_name": "Shattered",
            "popularity": 3.76
        },
        {
            "id": 21588,
            "original_name": "Battery Park",
            "popularity": 1.063
        },
        {
            "id": 21991,
            "original_name": "Scattergood - Friend Of All",
            "popularity": 0.6
        },
        {
            "id": 22420,
            "original_name": "Country Matters",
            "popularity": 1.685
        },
        {
            "id": 24236,
            "original_name": "Some Matters Of Little Consequence",
            "popularity": 0.6
        },
        {
            "id": 26495,
            "original_name": "Wildcatters",
            "popularity": 0.6
        },
        {
            "id": 26667,
            "original_name": "A Matter Of Chance",
            "popularity": 0.6
        },
        {
            "id": 26785,
            "original_name": "Family Matters",
            "popularity": 0.6
        },
        {
            "id": 29997,
            "original_name": "Blackhearts in Battersea",
            "popularity": 0.6
        },
        {
            "id": 30161,
            "original_name": "Family Matters",
            "popularity": 0.6
        },
        {
            "id": 30683,
            "original_name": "Patter Merchants",
            "popularity": 0.6
        },
        {
            "id": 32074,
            "original_name": "Sex Matters",
            "popularity": 0.6
        },
        {
            "id": 32838,
            "original_name": "Squatters",
            "popularity": 0.6
        },
        {
            "id": 35044,
            "original_name": "Channel Kidswatter",
            "popularity": 0.6
        },
        {
            "id": 36737,
            "original_name": "Lady Chatterley",
            "popularity": 5.417
        },
        {
            "id": 36744,
            "original_name": "Aishiatteru Kai",
            "popularity": 1.429
        },
        {
            "id": 39633,
            "original_name": "Splatter",
            "popularity": 1.631
        },
        {
            "id": 40815,
            "original_name": "Die Gespenster von Flatterfels",
            "popularity": 0.897
        },
        {
            "id": 41684,
            "original_name": "Mid Morning Matters with Alan Partridge",
            "popularity": 2.39
        },
        {
            "id": 43832,
            "original_name": "Dark Matters: Twisted But True",
            "popularity": 1.747
        },
        {
            "id": 44145,
            "original_name": "Blood Matters",
            "popularity": 0.6
        },
        {
            "id": 44683,
            "original_name": "Championship Matters",
            "popularity": 0.6
        },
        {
            "id": 45231,
            "original_name": "Family Matters",
            "popularity": 0.6
        },
        {
            "id": 45520,
            "original_name": "Reality Matters",
            "popularity": 0.6
        },
        {
            "id": 47887,
            "original_name": "Facts For Life: Family Matters",
            "popularity": 0.6
        },
        {
            "id": 48213,
            "original_name": "Men against the Matterhorn",
            "popularity": 0.6
        },
        {
            "id": 50166,
            "original_name": "What Does Money Matter?",
            "popularity": 0.6
        },
        {
            "id": 52945,
            "original_name": "Chatterbox",
            "popularity": 0.6
        },
        {
            "id": 54526,
            "original_name": "Sarah Millican Chatterbox Live",
            "popularity": 0.6
        },
        {
            "id": 58256,
            "original_name": "Heart of the Matter",
            "popularity": 0.6
        },
        {
            "id": 61962,
            "original_name": "Lily Cole's Art Matters",
            "popularity": 0.6
        },
        {
            "id": 62425,
            "original_name": "Dark Matter",
            "popularity": 15.85
        },
        {
            "id": 62514,
            "original_name": "Der Bestatter",
            "popularity": 5.158
        },
        {
            "id": 65103,
            "original_name": "Love Matters",
            "popularity": 0.6
        },
        {
            "id": 66074,
            "original_name": "Nick Knatterton",
            "popularity": 1.4
        },
        {
            "id": 73448,
            "original_name": "Shattered",
            "popularity": 0.639
        },
        {
            "id": 76555,
            "original_name": "James Patterson's Murder is Forever",
            "popularity": 2.199
        },
        {
            "id": 80391,
            "original_name": "Matt Hatter Chronicles",
            "popularity": 1.807
        },
        {
            "id": 83013,
            "original_name": "The Mystery of Matter: Search for the Elements",
            "popularity": 0.712
        },
        {
            "id": 83871,
            "original_name": "Latterlig smart",
            "popularity": 0.6
        },
        {
            "id": 84138,
            "original_name": "A Matter of Life and Debt",
            "popularity": 0.636
        },
        {
            "id": 85965,
            "original_name": "Size Matters",
            "popularity": 0.6
        },
        {
            "id": 93475,
            "original_name": "Oegendahl.og.de.store.forfattere",
            "popularity": 0.6
        },
        {
            "id": 98360,
            "original_name": "Atterrir au bout du monde",
            "popularity": 0.6
        },
        {
            "id": 112552,
            "original_name": "Black Hearts in Battersea",
            "popularity": 0.6
        },
        {
            "id": 116895,
            "original_name": "James Patterson's Till Murder Do Us Part",
            "popularity": 0.6
        },
        {
            "id": 117178,
            "original_name": "\u00d8gendahl og de store forfattere",
            "popularity": 0.865
        },
        {
            "id": 117866,
            "original_name": "The Battery's Down",
            "popularity": 0.6
        },
        {
            "id": 120498,
            "original_name": "Black Lives Matter: A Global Reckoning",
            "popularity": 0.6
        },
        {
            "id": 121507,
            "original_name": "Hvad Heinos fatter g\u00f8r",
            "popularity": 0.6
        },
        {
            "id": 122953,
            "original_name": "Matterns Revier",
            "popularity": 0.6
        },
        {
            "id": 125546,
            "original_name": "Alma Matters: Inside the IIT Dream",
            "popularity": 1.96
        },
        {
            "id": 125716,
            "original_name": "Scattered",
            "popularity": 1.113
        },
        {
            "id": 127550,
            "original_name": "Do Black Lives Still Matter?",
            "popularity": 0.6
        },
        {
            "id": 128811,
            "original_name": "Heroes Reborn: Dark Matters",
            "popularity": 0.897
        },
        {
            "id": 133022,
            "original_name": "Latterlig politikk",
            "popularity": 0.6
        },
        {
            "id": 133424,
            "original_name": "Die gro\u00dfe Flatter",
            "popularity": 0.6
        },
        {
            "id": 139703,
            "original_name": "The Real Housewives of Atlanta: Porsha's Family Matters",
            "popularity": 9.5
        }
    ],
    "relations": [
        {
            "character": "attere"
        },
        {
            "character": "atteri"
        },
        {
            "character": "atterl"
        },
        {
            "character": "atters"
        },
        {
            "character": "attery"
        },
        {
            "character": "atterg"
        },
        {
            "character": "attern"
        },
        {
            "character": "atteru"
        },
        {
            "character": "atterf"
        },
        {
            "character": "atterh"
        },
        {
            "character": "atter?"
        },
        {
            "character": "atterb"
        },
        {
            "character": "attert"
        },
        {
            "character": "atterr"
        }
    ],
    "top20": [
        {
            "id": 2685,
            "original_name": "Family Matters",
            "popularity": 28.05
        },
        {
            "id": 62425,
            "original_name": "Dark Matter",
            "popularity": 15.85
        },
        {
            "id": 139703,
            "original_name": "The Real Housewives of Atlanta: Porsha's Family Matters",
            "popularity": 9.5
        },
        {
            "id": 36737,
            "original_name": "Lady Chatterley",
            "popularity": 5.417
        },
        {
            "id": 62514,
            "original_name": "Der Bestatter",
            "popularity": 5.158
        },
        {
            "id": 21578,
            "original_name": "Shattered",
            "popularity": 3.76
        },
        {
            "id": 11652,
            "original_name": "Slattery's People",
            "popularity": 3.49
        },
        {
            "id": 1445,
            "original_name": "Lady Chatterley's Stories",
            "popularity": 2.643
        },
        {
            "id": 41684,
            "original_name": "Mid Morning Matters with Alan Partridge",
            "popularity": 2.39
        },
        {
            "id": 76555,
            "original_name": "James Patterson's Murder is Forever",
            "popularity": 2.199
        },
        {
            "id": 125546,
            "original_name": "Alma Matters: Inside the IIT Dream",
            "popularity": 1.96
        },
        {
            "id": 80391,
            "original_name": "Matt Hatter Chronicles",
            "popularity": 1.807
        },
        {
            "id": 43832,
            "original_name": "Dark Matters: Twisted But True",
            "popularity": 1.747
        },
        {
            "id": 22420,
            "original_name": "Country Matters",
            "popularity": 1.685
        },
        {
            "id": 39633,
            "original_name": "Splatter",
            "popularity": 1.631
        },
        {
            "id": 10055,
            "original_name": "Bob Patterson",
            "popularity": 1.47
        },
        {
            "id": 36744,
            "original_name": "Aishiatteru Kai",
            "popularity": 1.429
        },
        {
            "id": 66074,
            "original_name": "Nick Knatterton",
            "popularity": 1.4
        },
        {
            "id": 125716,
            "original_name": "Scattered",
            "popularity": 1.113
        },
        {
            "id": 21588,
            "original_name": "Battery Park",
            "popularity": 1.063
        }
    ]
}