{
    "data": [
        {
            "id": 114495,
            "original_name": "Tajniki Matematyki",
            "popularity": 0.6
        }
    ],
    "relations": [],
    "top20": [
        {
            "id": 114495,
            "original_name": "Tajniki Matematyki",
            "popularity": 0.6
        }
    ]
}