{
    "data": [
        {
            "id": 10247,
            "original_name": "Dan August",
            "popularity": 2.029
        },
        {
            "id": 41435,
            "original_name": "Saugut",
            "popularity": 0.6
        },
        {
            "id": 42974,
            "original_name": "Teva: Op\u00e9ration Gauguin",
            "popularity": 0.6
        },
        {
            "id": 44672,
            "original_name": "Augustine: The Decline of the Roman Empire",
            "popularity": 1.273
        },
        {
            "id": 47304,
            "original_name": "The 52nd Presidential Inaugural Gala",
            "popularity": 0.6
        },
        {
            "id": 47308,
            "original_name": "United States presidential inaugural balls",
            "popularity": 0.6
        },
        {
            "id": 47309,
            "original_name": "An American Reunion: The People's Inaugural Celebration",
            "popularity": 0.6
        },
        {
            "id": 49226,
            "original_name": "San Francisco Symphony Inaugural Gala",
            "popularity": 0.6
        },
        {
            "id": 49518,
            "original_name": "Gauguin the Savage",
            "popularity": 0.6
        },
        {
            "id": 52243,
            "original_name": "August Strindberg: Ett liv",
            "popularity": 2.483
        },
        {
            "id": 56369,
            "original_name": "The 53rd Presidential Inaugural Gala",
            "popularity": 0.6
        },
        {
            "id": 73615,
            "original_name": "August",
            "popularity": 1.75
        },
        {
            "id": 75674,
            "original_name": "Paul Gauguin",
            "popularity": 0.6
        },
        {
            "id": 78090,
            "original_name": "Rua Augusta",
            "popularity": 1.062
        },
        {
            "id": 80382,
            "original_name": "Die unfreiwilligen Reisen des Moritz August Benjowski",
            "popularity": 2.067
        },
        {
            "id": 83177,
            "original_name": "Ein Mann kam im August",
            "popularity": 0.96
        },
        {
            "id": 107966,
            "original_name": "Krabb\u00e9 zoekt Gauguin",
            "popularity": 0.663
        },
        {
            "id": 119184,
            "original_name": "Augusto - Il primo imperatore",
            "popularity": 2.395
        },
        {
            "id": 126306,
            "original_name": "Cheetah In August",
            "popularity": 0.6
        }
    ],
    "relations": [],
    "top20": [
        {
            "id": 10247,
            "original_name": "Dan August",
            "popularity": 2.029
        },
        {
            "id": 41435,
            "original_name": "Saugut",
            "popularity": 0.6
        },
        {
            "id": 42974,
            "original_name": "Teva: Op\u00e9ration Gauguin",
            "popularity": 0.6
        },
        {
            "id": 44672,
            "original_name": "Augustine: The Decline of the Roman Empire",
            "popularity": 1.273
        },
        {
            "id": 47304,
            "original_name": "The 52nd Presidential Inaugural Gala",
            "popularity": 0.6
        },
        {
            "id": 47308,
            "original_name": "United States presidential inaugural balls",
            "popularity": 0.6
        },
        {
            "id": 47309,
            "original_name": "An American Reunion: The People's Inaugural Celebration",
            "popularity": 0.6
        },
        {
            "id": 49226,
            "original_name": "San Francisco Symphony Inaugural Gala",
            "popularity": 0.6
        },
        {
            "id": 49518,
            "original_name": "Gauguin the Savage",
            "popularity": 0.6
        },
        {
            "id": 52243,
            "original_name": "August Strindberg: Ett liv",
            "popularity": 2.483
        },
        {
            "id": 56369,
            "original_name": "The 53rd Presidential Inaugural Gala",
            "popularity": 0.6
        },
        {
            "id": 73615,
            "original_name": "August",
            "popularity": 1.75
        },
        {
            "id": 75674,
            "original_name": "Paul Gauguin",
            "popularity": 0.6
        },
        {
            "id": 78090,
            "original_name": "Rua Augusta",
            "popularity": 1.062
        },
        {
            "id": 80382,
            "original_name": "Die unfreiwilligen Reisen des Moritz August Benjowski",
            "popularity": 2.067
        },
        {
            "id": 83177,
            "original_name": "Ein Mann kam im August",
            "popularity": 0.96
        },
        {
            "id": 107966,
            "original_name": "Krabb\u00e9 zoekt Gauguin",
            "popularity": 0.663
        },
        {
            "id": 119184,
            "original_name": "Augusto - Il primo imperatore",
            "popularity": 2.395
        },
        {
            "id": 126306,
            "original_name": "Cheetah In August",
            "popularity": 0.6
        }
    ]
}