{
    "data": [
        {
            "id": 246,
            "original_name": "Avatar: The Last Airbender",
            "popularity": 51.126
        },
        {
            "id": 44424,
            "original_name": "Mega-Excavators: Machines That Reshape the World",
            "popularity": 0.6
        },
        {
            "id": 55078,
            "original_name": "Tavataan Karppisilla",
            "popularity": 0.6
        },
        {
            "id": 57802,
            "original_name": "Timbavati: An Epic Cat Story",
            "popularity": 1.34
        },
        {
            "id": 75288,
            "original_name": "Paramavatar Shri Krishna",
            "popularity": 0.6
        },
        {
            "id": 82452,
            "original_name": "Avatar: The Last Airbender",
            "popularity": 12.997
        },
        {
            "id": 94144,
            "original_name": "The Verdict - State Vs Nanavati",
            "popularity": 1.969
        },
        {
            "id": 113577,
            "original_name": "The Avatars",
            "popularity": 1.432
        },
        {
            "id": 114914,
            "original_name": "8 Avatar",
            "popularity": 3.135
        }
    ],
    "relations": [],
    "top20": [
        {
            "id": 246,
            "original_name": "Avatar: The Last Airbender",
            "popularity": 51.126
        },
        {
            "id": 44424,
            "original_name": "Mega-Excavators: Machines That Reshape the World",
            "popularity": 0.6
        },
        {
            "id": 55078,
            "original_name": "Tavataan Karppisilla",
            "popularity": 0.6
        },
        {
            "id": 57802,
            "original_name": "Timbavati: An Epic Cat Story",
            "popularity": 1.34
        },
        {
            "id": 75288,
            "original_name": "Paramavatar Shri Krishna",
            "popularity": 0.6
        },
        {
            "id": 82452,
            "original_name": "Avatar: The Last Airbender",
            "popularity": 12.997
        },
        {
            "id": 94144,
            "original_name": "The Verdict - State Vs Nanavati",
            "popularity": 1.969
        },
        {
            "id": 113577,
            "original_name": "The Avatars",
            "popularity": 1.432
        },
        {
            "id": 114914,
            "original_name": "8 Avatar",
            "popularity": 3.135
        }
    ]
}