{
    "data": [
        {
            "id": 49829,
            "original_name": "Savc\u0131n\u0131n Kar\u0131s\u0131",
            "popularity": 0.6
        },
        {
            "id": 50836,
            "original_name": "Savc\u0131",
            "popularity": 0.6
        },
        {
            "id": 89556,
            "original_name": "Temizlik Avc\u0131lar\u0131",
            "popularity": 0.6
        },
        {
            "id": 110194,
            "original_name": "Hurv\u00ednek vzduchoplavcem",
            "popularity": 0.6
        }
    ],
    "relations": [],
    "top20": [
        {
            "id": 49829,
            "original_name": "Savc\u0131n\u0131n Kar\u0131s\u0131",
            "popularity": 0.6
        },
        {
            "id": 50836,
            "original_name": "Savc\u0131",
            "popularity": 0.6
        },
        {
            "id": 89556,
            "original_name": "Temizlik Avc\u0131lar\u0131",
            "popularity": 0.6
        },
        {
            "id": 110194,
            "original_name": "Hurv\u00ednek vzduchoplavcem",
            "popularity": 0.6
        }
    ]
}