{
    "data": [
        {
            "id": 83,
            "original_name": "9am with David & Kim",
            "popularity": 1.092
        },
        {
            "id": 232,
            "original_name": "Ultraviolet",
            "popularity": 3.261
        },
        {
            "id": 336,
            "original_name": "The Geena Davis Show",
            "popularity": 4.026
        },
        {
            "id": 353,
            "original_name": "Stark Raving Mad",
            "popularity": 5.184
        },
        {
            "id": 498,
            "original_name": "Late Show with David Letterman",
            "popularity": 23.004
        },
        {
            "id": 610,
            "original_name": "Mr. Show with Bob and David",
            "popularity": 10.381
        },
        {
            "id": 664,
            "original_name": "The Gavin Crawford Show",
            "popularity": 1.228
        },
        {
            "id": 785,
            "original_name": "Men Behaving Badly",
            "popularity": 5.325
        },
        {
            "id": 1212,
            "original_name": "Prisoners of Gravity",
            "popularity": 7.102
        },
        {
            "id": 1349,
            "original_name": "The Mavis Bramston Show",
            "popularity": 0.6
        },
        {
            "id": 1861,
            "original_name": "Ain't Misbehavin'",
            "popularity": 2.08
        },
        {
            "id": 2067,
            "original_name": "The Showbiz Show with David Spade",
            "popularity": 3.774
        },
        {
            "id": 2479,
            "original_name": "Davina",
            "popularity": 1.558
        },
        {
            "id": 2849,
            "original_name": "David el gnomo",
            "popularity": 4.542
        },
        {
            "id": 3021,
            "original_name": "David Rocco's Dolce Vita",
            "popularity": 0.6
        },
        {
            "id": 3439,
            "original_name": "Saving Babies",
            "popularity": 0.6
        },
        {
            "id": 3573,
            "original_name": "David Tench Tonight",
            "popularity": 0.605
        },
        {
            "id": 3696,
            "original_name": "Gavin & Stacey",
            "popularity": 9.129
        },
        {
            "id": 4467,
            "original_name": "Late Night with David Letterman",
            "popularity": 13.736
        },
        {
            "id": 5450,
            "original_name": "Davis Rules",
            "popularity": 3.857
        },
        {
            "id": 5471,
            "original_name": "Saving Kids",
            "popularity": 0.6
        },
        {
            "id": 5496,
            "original_name": "The David Susskind Show",
            "popularity": 4.895
        },
        {
            "id": 5713,
            "original_name": "Girls Behaving Badly",
            "popularity": 0.6
        },
        {
            "id": 6217,
            "original_name": "The Life and Times of David Lloyd George",
            "popularity": 0.6
        },
        {
            "id": 6307,
            "original_name": "The David Letterman Show",
            "popularity": 1.093
        },
        {
            "id": 6650,
            "original_name": "Public Life with Randy David",
            "popularity": 0.6
        },
        {
            "id": 7269,
            "original_name": "Rokdim Im Kokhavim",
            "popularity": 0.6
        },
        {
            "id": 7273,
            "original_name": "So You Think You Can Dance Scandinavia",
            "popularity": 0.6
        },
        {
            "id": 7438,
            "original_name": "Ljubav, navika, panika",
            "popularity": 0.667
        },
        {
            "id": 8460,
            "original_name": "Carrie and David's Popshop",
            "popularity": 0.6
        },
        {
            "id": 8607,
            "original_name": "Defying Gravity",
            "popularity": 6.228
        },
        {
            "id": 8911,
            "original_name": "The Anti-Gravity Room",
            "popularity": 0.6
        },
        {
            "id": 8943,
            "original_name": "The Death of Yugoslavia",
            "popularity": 1.461
        },
        {
            "id": 9673,
            "original_name": "Seaview",
            "popularity": 0.6
        },
        {
            "id": 9899,
            "original_name": "Saving Grace",
            "popularity": 14.05
        },
        {
            "id": 10038,
            "original_name": "Goode Behavior",
            "popularity": 4.342
        },
        {
            "id": 10637,
            "original_name": "New Scandinavian Cooking",
            "popularity": 0.6
        },
        {
            "id": 11244,
            "original_name": "Martin Shaw: Aviators",
            "popularity": 0.6
        },
        {
            "id": 11250,
            "original_name": "Pasi\u00f3n de gavilanes",
            "popularity": 262.415
        },
        {
            "id": 11313,
            "original_name": "David Cassidy: Man Under Cover",
            "popularity": 1.4
        },
        {
            "id": 11947,
            "original_name": "Having It Off",
            "popularity": 0.876
        },
        {
            "id": 11977,
            "original_name": "Sit Down Comedy with David Steinberg",
            "popularity": 2.895
        },
        {
            "id": 11979,
            "original_name": "Scandinavia's Next Top Model",
            "popularity": 0.6
        },
        {
            "id": 13016,
            "original_name": "From the Ground Up with Debbie Travis",
            "popularity": 0.6
        },
        {
            "id": 13124,
            "original_name": "Debbie Travis' Facelift",
            "popularity": 0.878
        },
        {
            "id": 13943,
            "original_name": "Beavis and Butt-head",
            "popularity": 21.195
        },
        {
            "id": 14157,
            "original_name": "Telegantic Megavision",
            "popularity": 0.6
        },
        {
            "id": 14688,
            "original_name": "Fight Back! with David Horowitz",
            "popularity": 0.6
        },
        {
            "id": 14769,
            "original_name": "Xavier: Renegade Angel",
            "popularity": 3.907
        },
        {
            "id": 14845,
            "original_name": "Bear Behaving Badly",
            "popularity": 1.4
        },
        {
            "id": 15533,
            "original_name": "Behaving Badly",
            "popularity": 0.945
        },
        {
            "id": 15923,
            "original_name": "David Beckham's Soccer USA",
            "popularity": 0.6
        },
        {
            "id": 16459,
            "original_name": "Marta y Javier",
            "popularity": 0.6
        },
        {
            "id": 16580,
            "original_name": "Arresting Behavior",
            "popularity": 0.73
        },
        {
            "id": 16784,
            "original_name": "Paloozaville",
            "popularity": 0.6
        },
        {
            "id": 17150,
            "original_name": "Sammy Davis Jr.: The Golden Years",
            "popularity": 0.6
        },
        {
            "id": 17289,
            "original_name": "Extreme Expeditions: Model Behavior",
            "popularity": 0.6
        },
        {
            "id": 17698,
            "original_name": "Kingdom of David: The Saga of the Israelites",
            "popularity": 0.6
        },
        {
            "id": 17836,
            "original_name": "David Copperfield",
            "popularity": 6.817
        },
        {
            "id": 18216,
            "original_name": "David Blaine: Fearless",
            "popularity": 0.6
        },
        {
            "id": 18217,
            "original_name": "David Blaine: Vertigo",
            "popularity": 0.6
        },
        {
            "id": 18218,
            "original_name": "David Blaine: Magic Man",
            "popularity": 0.6
        },
        {
            "id": 18219,
            "original_name": "David Blaine: Dive of Death",
            "popularity": 0.6
        },
        {
            "id": 18220,
            "original_name": "David Blaine: Frozen in Time",
            "popularity": 0.6
        },
        {
            "id": 18262,
            "original_name": "David Brinkley's Journal",
            "popularity": 0.6
        },
        {
            "id": 18621,
            "original_name": "Doing DaVinci",
            "popularity": 0.843
        },
        {
            "id": 18626,
            "original_name": "Judge David Young",
            "popularity": 0.6
        },
        {
            "id": 18862,
            "original_name": "The Aviators",
            "popularity": 1.542
        },
        {
            "id": 18902,
            "original_name": "Travis",
            "popularity": 0.6
        },
        {
            "id": 18917,
            "original_name": "Having Our Say: The Delany Sisters' First 100 Years",
            "popularity": 0.6
        },
        {
            "id": 18990,
            "original_name": "Yugoslavia: Death of a Nation",
            "popularity": 0.6
        },
        {
            "id": 19298,
            "original_name": "This Is David Lander",
            "popularity": 0.929
        },
        {
            "id": 19347,
            "original_name": "Captain David Grief",
            "popularity": 2.943
        },
        {
            "id": 19794,
            "original_name": "Slavi's Show",
            "popularity": 0.6
        },
        {
            "id": 19975,
            "original_name": "Totally Outrageous Behavior",
            "popularity": 0.6
        },
        {
            "id": 20209,
            "original_name": "Uzmi ili ostavi",
            "popularity": 0.6
        },
        {
            "id": 20511,
            "original_name": "Men Behaving Badly",
            "popularity": 3.712
        },
        {
            "id": 20811,
            "original_name": "Saving Planet Earth",
            "popularity": 0.846
        },
        {
            "id": 20989,
            "original_name": "Canavial de Paix\u00f5es",
            "popularity": 0.6
        },
        {
            "id": 21802,
            "original_name": "Flash Nick From Jindavick",
            "popularity": 0.6
        },
        {
            "id": 21809,
            "original_name": "David Copperfield",
            "popularity": 1.979
        },
        {
            "id": 21848,
            "original_name": "S.O.B.: Socially Offensive Behavior",
            "popularity": 0.6
        },
        {
            "id": 23273,
            "original_name": "The David Essex Showcase",
            "popularity": 0.6
        },
        {
            "id": 23403,
            "original_name": "David Copperfield",
            "popularity": 1.128
        },
        {
            "id": 23593,
            "original_name": "David Copperfield",
            "popularity": 0.6
        },
        {
            "id": 23909,
            "original_name": "Saving a Species",
            "popularity": 0.6
        },
        {
            "id": 24414,
            "original_name": "Leaving",
            "popularity": 0.999
        },
        {
            "id": 24498,
            "original_name": "Leaving L.A.",
            "popularity": 1.963
        },
        {
            "id": 25025,
            "original_name": "The David Niven Show",
            "popularity": 0.883
        },
        {
            "id": 25029,
            "original_name": "This Is David Gest",
            "popularity": 0.6
        },
        {
            "id": 25556,
            "original_name": "The David Steinberg Show",
            "popularity": 2.542
        },
        {
            "id": 25637,
            "original_name": "The Bryan Davies Show",
            "popularity": 0.6
        },
        {
            "id": 26023,
            "original_name": "Australia Behaving Badly",
            "popularity": 0.6
        },
        {
            "id": 26041,
            "original_name": "The John Davidson Show",
            "popularity": 0.6
        },
        {
            "id": 26087,
            "original_name": "The Jim Davidson Show",
            "popularity": 0.6
        },
        {
            "id": 26221,
            "original_name": "Gavilan",
            "popularity": 0.959
        },
        {
            "id": 26338,
            "original_name": "Tavis Smiley",
            "popularity": 2.101
        },
        {
            "id": 26415,
            "original_name": "Home Energy Savings",
            "popularity": 0.6
        },
        {
            "id": 26621,
            "original_name": "Party Planner with David Tutera",
            "popularity": 0.6
        },
        {
            "id": 26816,
            "original_name": "Guzmania: Javier Guzmans late uurtje",
            "popularity": 0.6
        },
        {
            "id": 26855,
            "original_name": "Stand Up Jim Davidson",
            "popularity": 0.6
        },
        {
            "id": 27092,
            "original_name": "The Sammy Davis Jr. Show",
            "popularity": 0.6
        },
        {
            "id": 28186,
            "original_name": "The Marilyn McCoo and Billy Davis Jr. Show",
            "popularity": 0.6
        },
        {
            "id": 28206,
            "original_name": "Sandra's Money Saving Menus",
            "popularity": 0.6
        },
        {
            "id": 29648,
            "original_name": "Families Behaving Badly",
            "popularity": 0.6
        },
        {
            "id": 29733,
            "original_name": "The David Clayton-Thomas Show",
            "popularity": 0.6
        },
        {
            "id": 29786,
            "original_name": "Javier Guzman presenteert: Comedy Explosion",
            "popularity": 0.6
        },
        {
            "id": 30020,
            "original_name": "Stupid Behavior Caught on Tape",
            "popularity": 0.6
        },
        {
            "id": 30311,
            "original_name": "The Mac Davis Show",
            "popularity": 0.6
        },
        {
            "id": 30448,
            "original_name": "The Melba Moore-Clifton Davis Show",
            "popularity": 0.6
        },
        {
            "id": 30463,
            "original_name": "The John Davidson Show",
            "popularity": 1.091
        },
        {
            "id": 30619,
            "original_name": "Headliners with David Frost",
            "popularity": 0.6
        },
        {
            "id": 30676,
            "original_name": "Debbie Travis' Painted House",
            "popularity": 0.6
        },
        {
            "id": 31393,
            "original_name": "Gravity",
            "popularity": 4.012
        },
        {
            "id": 31799,
            "original_name": "Model Behaviour",
            "popularity": 0.6
        },
        {
            "id": 31884,
            "original_name": "Bhagyavidhaata",
            "popularity": 0.6
        },
        {
            "id": 32024,
            "original_name": "Ancients Behaving Badly",
            "popularity": 0.71
        },
        {
            "id": 32200,
            "original_name": "Criminal Minds: Suspect Behavior",
            "popularity": 10.232
        },
        {
            "id": 32470,
            "original_name": "Healthy Cravings",
            "popularity": 0.6
        },
        {
            "id": 32574,
            "original_name": "Tonight with Arnold Clavio",
            "popularity": 0.6
        },
        {
            "id": 33146,
            "original_name": "David Copperfield",
            "popularity": 1.288
        },
        {
            "id": 33757,
            "original_name": "Pavilion",
            "popularity": 0.6
        },
        {
            "id": 34077,
            "original_name": "Good Behavior",
            "popularity": 0.6
        },
        {
            "id": 34788,
            "original_name": "This Is David Harper",
            "popularity": 0.6
        },
        {
            "id": 35817,
            "original_name": "Zavin\u00e1\u010d on-line",
            "popularity": 0.6
        },
        {
            "id": 36016,
            "original_name": "Savile Row",
            "popularity": 0.6
        },
        {
            "id": 36343,
            "original_name": "Alphaville",
            "popularity": 0.6
        },
        {
            "id": 36870,
            "original_name": "Alan Davies' Teenage Revolution",
            "popularity": 0.843
        },
        {
            "id": 37017,
            "original_name": "De Kavijaks",
            "popularity": 0.652
        },
        {
            "id": 37247,
            "original_name": "Courtside with Seth Davis",
            "popularity": 0.6
        },
        {
            "id": 37426,
            "original_name": "David Nolande",
            "popularity": 1.96
        },
        {
            "id": 37501,
            "original_name": "David",
            "popularity": 1.055
        },
        {
            "id": 38564,
            "original_name": "10 Best Space-Saving Solutions",
            "popularity": 0.6
        },
        {
            "id": 38808,
            "original_name": "Les Lavigueur, la vraie histoire",
            "popularity": 1.432
        },
        {
            "id": 39070,
            "original_name": "The Shelby Davis Show",
            "popularity": 1.09
        },
        {
            "id": 39727,
            "original_name": "David",
            "popularity": 0.6
        },
        {
            "id": 40075,
            "original_name": "Gravity Falls",
            "popularity": 108.804
        },
        {
            "id": 40129,
            "original_name": "Ain't Misbehavin'",
            "popularity": 2.21
        },
        {
            "id": 40183,
            "original_name": "The Tromaville Cafe",
            "popularity": 0.6
        },
        {
            "id": 40439,
            "original_name": "Untitled David Litt Project",
            "popularity": 0.6
        },
        {
            "id": 41044,
            "original_name": "Ravioli",
            "popularity": 2.295
        },
        {
            "id": 41213,
            "original_name": "Zakon ljubavi",
            "popularity": 0.6
        },
        {
            "id": 41462,
            "original_name": "Il mondo \u00e8 meraviglioso",
            "popularity": 0.6
        },
        {
            "id": 42158,
            "original_name": "Es muss nicht immer Kaviar sein",
            "popularity": 0.892
        },
        {
            "id": 43041,
            "original_name": "Saving the Wildlife",
            "popularity": 0.6
        },
        {
            "id": 43062,
            "original_name": "Rei Davi",
            "popularity": 9.773
        },
        {
            "id": 43097,
            "original_name": "Saving Hope",
            "popularity": 15.4
        },
        {
            "id": 43234,
            "original_name": "David Mitchell's Soapbox",
            "popularity": 1.69
        },
        {
            "id": 43389,
            "original_name": "Liza and David",
            "popularity": 0.6
        },
        {
            "id": 43477,
            "original_name": "The Leaving of Liverpool",
            "popularity": 1.418
        },
        {
            "id": 43989,
            "original_name": "The Girl's Guide to Depravity",
            "popularity": 3.062
        },
        {
            "id": 44000,
            "original_name": "David Rocco's Amalfi Getaway",
            "popularity": 0.6
        },
        {
            "id": 44069,
            "original_name": "Saving the Ocean: Shark Reef & the Sacred Island",
            "popularity": 0.6
        },
        {
            "id": 44523,
            "original_name": "ElisaVictoriaTV",
            "popularity": 0.6
        },
        {
            "id": 45169,
            "original_name": "Surf's Up For Dogs: The Making of the World's Longest and Heaviest Float",
            "popularity": 0.6
        },
        {
            "id": 45333,
            "original_name": "Pravi Biznis",
            "popularity": 0.6
        },
        {
            "id": 45396,
            "original_name": "Landscapes Through Time with David Dunlop",
            "popularity": 0.6
        },
        {
            "id": 45518,
            "original_name": "Saving a Species: Sharks at Risk",
            "popularity": 0.6
        },
        {
            "id": 46845,
            "original_name": "Pevsner's Cities with Gavin Stamp",
            "popularity": 0.6
        },
        {
            "id": 47000,
            "original_name": "Savitri",
            "popularity": 0.6
        },
        {
            "id": 47203,
            "original_name": "The Magic Of David Copperfield XVI: Unexplained Forces",
            "popularity": 0.6
        },
        {
            "id": 47237,
            "original_name": "David Foster's Christmas Album",
            "popularity": 0.6
        },
        {
            "id": 47258,
            "original_name": "David Copperfield: 15 Years of Magic",
            "popularity": 0.6
        },
        {
            "id": 47283,
            "original_name": "The Magic of David Copperfield XV: Fires of Passion",
            "popularity": 0.6
        },
        {
            "id": 47442,
            "original_name": "Crozza nel Paese delle Meraviglie",
            "popularity": 1.4
        },
        {
            "id": 47485,
            "original_name": "The Magic of David Copperfield XI: The Explosive Encounter",
            "popularity": 0.6
        },
        {
            "id": 47519,
            "original_name": "David",
            "popularity": 0.6
        },
        {
            "id": 47546,
            "original_name": "The Magic of David Copperfield XIII: Mystery on the Orient Express",
            "popularity": 0.6
        },
        {
            "id": 47624,
            "original_name": "Rhythm: Leaving Home",
            "popularity": 0.6
        },
        {
            "id": 47779,
            "original_name": "The Far Pavilions",
            "popularity": 3.384
        },
        {
            "id": 47781,
            "original_name": "The Boy David",
            "popularity": 0.6
        },
        {
            "id": 47812,
            "original_name": "The Magic of David Copperfield IX: Escape from Alcatraz",
            "popularity": 0.6
        },
        {
            "id": 47955,
            "original_name": "It's Life With David Bellamy",
            "popularity": 0.6
        },
        {
            "id": 48073,
            "original_name": "The Magic of David Copperfield VIII: Walking Through the Great Wall of China",
            "popularity": 0.6
        },
        {
            "id": 48296,
            "original_name": "Mavi Kelebekler",
            "popularity": 0.6
        },
        {
            "id": 48307,
            "original_name": "Pembe ve Mavi",
            "popularity": 0.6
        },
        {
            "id": 48426,
            "original_name": "Saving The Tiger",
            "popularity": 0.6
        },
        {
            "id": 48538,
            "original_name": "David Frost Presents: The Fifth International Book of World Records",
            "popularity": 0.6
        },
        {
            "id": 48574,
            "original_name": "The Magic of David Copperfield VI: Floating Over the Grand Canyon",
            "popularity": 0.6
        },
        {
            "id": 48823,
            "original_name": "The Magic of David Copperfield X: The Bermuda Triangle",
            "popularity": 0.6
        },
        {
            "id": 49006,
            "original_name": "David Frost Presents: The Fourth International Guinness Book of World Records",
            "popularity": 0.6
        },
        {
            "id": 49027,
            "original_name": "David",
            "popularity": 0.6
        },
        {
            "id": 49111,
            "original_name": "The Magic of David Copperfield IV: The Vanishing Airplane",
            "popularity": 0.6
        },
        {
            "id": 49231,
            "original_name": "The Magic of David Copperfield III: Levitating Ferrari",
            "popularity": 0.6
        },
        {
            "id": 49291,
            "original_name": "Wild Skandinavia",
            "popularity": 0.6
        },
        {
            "id": 49491,
            "original_name": "The Magic of David Copperfield II",
            "popularity": 0.6
        },
        {
            "id": 49663,
            "original_name": "The John Davidson Christmas Show",
            "popularity": 0.6
        },
        {
            "id": 51543,
            "original_name": "Mavi \u015eeker",
            "popularity": 0.6
        },
        {
            "id": 51700,
            "original_name": "David Suchet: In the Footsteps of St. Paul",
            "popularity": 0.6
        },
        {
            "id": 51877,
            "original_name": "Micro Monsters with David Attenborough",
            "popularity": 1.925
        },
        {
            "id": 52997,
            "original_name": "Alilot David",
            "popularity": 0.6
        },
        {
            "id": 53080,
            "original_name": "Learn Guitar with David Brent",
            "popularity": 0.6
        },
        {
            "id": 54823,
            "original_name": "And David Wept",
            "popularity": 0.6
        },
        {
            "id": 54874,
            "original_name": "The David Frost Show",
            "popularity": 0.6
        },
        {
            "id": 55107,
            "original_name": "The Mystery of Animal Behavior",
            "popularity": 0.6
        },
        {
            "id": 55152,
            "original_name": "David Icke - Conspiracies Unvealed",
            "popularity": 0.6
        },
        {
            "id": 55491,
            "original_name": "Tel Aviviot",
            "popularity": 0.6
        },
        {
            "id": 55633,
            "original_name": "Skandinavien von oben",
            "popularity": 0.6
        },
        {
            "id": 55652,
            "original_name": "Legaviy",
            "popularity": 0.6
        },
        {
            "id": 55718,
            "original_name": "Brain Hospital: Saving Lives",
            "popularity": 0.6
        },
        {
            "id": 55880,
            "original_name": "Don't Just Stand There\u2026 I'm Having Your Baby",
            "popularity": 0.6
        },
        {
            "id": 56283,
            "original_name": "The Swinging World of Sammy Davis, Jr.",
            "popularity": 0.6
        },
        {
            "id": 56542,
            "original_name": "The Magic of David Copperfield",
            "popularity": 0.681
        },
        {
            "id": 56551,
            "original_name": "Highroads with Dan Davis",
            "popularity": 0.6
        },
        {
            "id": 57116,
            "original_name": "David Starkey's Music and Monarchy",
            "popularity": 0.6
        },
        {
            "id": 57457,
            "original_name": "Leaving Home",
            "popularity": 0.6
        },
        {
            "id": 57537,
            "original_name": "David Walliams' Awfully Good",
            "popularity": 0.6
        },
        {
            "id": 57784,
            "original_name": "I'm Having Their Baby",
            "popularity": 0.6
        },
        {
            "id": 57835,
            "original_name": "The Freedom By Savik Shuster",
            "popularity": 0.6
        },
        {
            "id": 57941,
            "original_name": "Jamie's Money Saving Meals",
            "popularity": 0.625
        },
        {
            "id": 58614,
            "original_name": "David Haye versus",
            "popularity": 0.6
        },
        {
            "id": 58703,
            "original_name": "David Attenborough's Natural Curiosities",
            "popularity": 1.923
        },
        {
            "id": 58902,
            "original_name": "Live with Savik Shuster",
            "popularity": 0.6
        },
        {
            "id": 59437,
            "original_name": "Galapagos 3D with David Attenborough",
            "popularity": 1.574
        },
        {
            "id": 59465,
            "original_name": "Misbehaving Mums To Be",
            "popularity": 0.6
        },
        {
            "id": 59497,
            "original_name": "Davis at Large",
            "popularity": 0.6
        },
        {
            "id": 59616,
            "original_name": "The Stu Davis Show",
            "popularity": 0.6
        },
        {
            "id": 59877,
            "original_name": "Kolah Pahlavi",
            "popularity": 0.6
        },
        {
            "id": 59950,
            "original_name": "Wakkaville",
            "popularity": 0.6
        },
        {
            "id": 60018,
            "original_name": "David Attenborough's Rise of Animals: Triumph of the Vertebrates",
            "popularity": 2.299
        },
        {
            "id": 60045,
            "original_name": "The President Versus David Hicks",
            "popularity": 0.6
        },
        {
            "id": 60257,
            "original_name": "Avril Lavigne: Exclusive",
            "popularity": 0.6
        },
        {
            "id": 60898,
            "original_name": "The Mind of David Berglas",
            "popularity": 0.6
        },
        {
            "id": 62426,
            "original_name": "Weekend Escapes with Warwick Davis",
            "popularity": 0.6
        },
        {
            "id": 62800,
            "original_name": "David Attenborough's Conquest of the Skies",
            "popularity": 1.345
        },
        {
            "id": 62930,
            "original_name": "The Gavin McInnes Show",
            "popularity": 0.6
        },
        {
            "id": 64053,
            "original_name": "I'll Have What Phil's Having",
            "popularity": 0.6
        },
        {
            "id": 64113,
            "original_name": "W/ Bob & David",
            "popularity": 4.64
        },
        {
            "id": 64836,
            "original_name": "Good Behavior",
            "popularity": 8.455
        },
        {
            "id": 64839,
            "original_name": "Great Barrier Reef with David Attenborough",
            "popularity": 2.846
        },
        {
            "id": 65609,
            "original_name": "Leaving",
            "popularity": 7.819
        },
        {
            "id": 65793,
            "original_name": "Der Tel-Aviv-Krimi",
            "popularity": 2.065
        },
        {
            "id": 65960,
            "original_name": "Art of Scandinavia",
            "popularity": 0.6
        },
        {
            "id": 65962,
            "original_name": "Plants Behaving Badly",
            "popularity": 0.6
        },
        {
            "id": 66086,
            "original_name": "Destination Flavour Scandinavia",
            "popularity": 0.6
        },
        {
            "id": 66151,
            "original_name": "David Holt's State of Music",
            "popularity": 1.515
        },
        {
            "id": 66771,
            "original_name": "Hlavi\u010dkove rozpr\u00e1vky",
            "popularity": 0.6
        },
        {
            "id": 66833,
            "original_name": "La Macchina Meravigliosa",
            "popularity": 0.6
        },
        {
            "id": 66847,
            "original_name": "Migdalim Ba'avir",
            "popularity": 0.6
        },
        {
            "id": 67481,
            "original_name": "Histoire de l'Aviation",
            "popularity": 1.4
        },
        {
            "id": 67673,
            "original_name": "Harley and the Davidsons",
            "popularity": 4.475
        },
        {
            "id": 67843,
            "original_name": "Supravie\u021buitorul",
            "popularity": 0.6
        },
        {
            "id": 68391,
            "original_name": "Saving Africa's Elephants: Hugh and the Ivory War",
            "popularity": 0.6
        },
        {
            "id": 69721,
            "original_name": "Anh Does Scandinavia",
            "popularity": 0.6
        },
        {
            "id": 70071,
            "original_name": "The Special Without Brett Davis",
            "popularity": 0.6
        },
        {
            "id": 70206,
            "original_name": "Saving Lives at Sea",
            "popularity": 1.99
        },
        {
            "id": 70335,
            "original_name": "Wildes Skandinavien",
            "popularity": 1.051
        },
        {
            "id": 70499,
            "original_name": "La Demoiselle d'Avignon",
            "popularity": 0.758
        },
        {
            "id": 70952,
            "original_name": "Alan Davies: As Yet Untitled",
            "popularity": 6.419
        },
        {
            "id": 71202,
            "original_name": "Gavilanes",
            "popularity": 1.19
        },
        {
            "id": 71320,
            "original_name": "Car Saviors",
            "popularity": 0.6
        },
        {
            "id": 71895,
            "original_name": "The Brain with David Eagleman",
            "popularity": 1.217
        },
        {
            "id": 72188,
            "original_name": "La proph\u00e9tie d'Avignon",
            "popularity": 1.4
        },
        {
            "id": 72370,
            "original_name": "Saving the Human Race",
            "popularity": 2.281
        },
        {
            "id": 72379,
            "original_name": "David Stratton's Stories of Australian Cinema",
            "popularity": 0.6
        },
        {
            "id": 72558,
            "original_name": "Hood Adjacent with James Davis",
            "popularity": 0.63
        },
        {
            "id": 72692,
            "original_name": "Os Nossos Dias - David & Xavier",
            "popularity": 1.471
        },
        {
            "id": 72831,
            "original_name": "Detective Maravilhas",
            "popularity": 0.6
        },
        {
            "id": 73015,
            "original_name": "Ill Behaviour",
            "popularity": 0.963
        },
        {
            "id": 74924,
            "original_name": "Skandinavien: Der Ruf der Natur",
            "popularity": 0.6
        },
        {
            "id": 75369,
            "original_name": "Savitri Devi College & Hospital",
            "popularity": 0.6
        },
        {
            "id": 75503,
            "original_name": "David Jason's Secret Service",
            "popularity": 0.6
        },
        {
            "id": 75948,
            "original_name": "Meraviglie - La penisola dei tesori",
            "popularity": 1.139
        },
        {
            "id": 76178,
            "original_name": "My Next Guest Needs No Introduction With David Letterman",
            "popularity": 5.109
        },
        {
            "id": 76325,
            "original_name": "The Horrible Terrible Misadventures of David Atkins",
            "popularity": 0.6
        },
        {
            "id": 76386,
            "original_name": "Ultraviolet",
            "popularity": 6.58
        },
        {
            "id": 77138,
            "original_name": "David Suchet: In the Footsteps of St Peter",
            "popularity": 0.826
        },
        {
            "id": 77251,
            "original_name": "Les Enqu\u00eates du commissaire Laviolette",
            "popularity": 0.707
        },
        {
            "id": 77289,
            "original_name": "David",
            "popularity": 0.636
        },
        {
            "id": 77782,
            "original_name": "Amazing Gravity",
            "popularity": 0.6
        },
        {
            "id": 77820,
            "original_name": "Curious Minds: David McCullough",
            "popularity": 0.6
        },
        {
            "id": 78218,
            "original_name": "Alicia en el pa\u00eds de las maravillas (Anime)",
            "popularity": 1.791
        },
        {
            "id": 78454,
            "original_name": "El maravilloso mundo de los animales de Disney",
            "popularity": 0.6
        },
        {
            "id": 78529,
            "original_name": "David Copperfield",
            "popularity": 0.654
        },
        {
            "id": 78763,
            "original_name": "A\u015fk ve Mavi",
            "popularity": 1.201
        },
        {
            "id": 78810,
            "original_name": "Thai Street Food with David Thompson",
            "popularity": 0.6
        },
        {
            "id": 79781,
            "original_name": "Gavilanes",
            "popularity": 0.6
        },
        {
            "id": 79873,
            "original_name": "Aviones de combate",
            "popularity": 0.6
        },
        {
            "id": 80317,
            "original_name": "Sette Meraviglie",
            "popularity": 0.6
        },
        {
            "id": 81149,
            "original_name": "Saving Fiona",
            "popularity": 0.6
        },
        {
            "id": 81702,
            "original_name": "Niklas Ekstedt: Ny skandinavisk mat",
            "popularity": 0.6
        },
        {
            "id": 82661,
            "original_name": "Saving My Tomorrow",
            "popularity": 0.6
        },
        {
            "id": 84273,
            "original_name": "Otto, der Klavierstimmer",
            "popularity": 0.957
        },
        {
            "id": 85225,
            "original_name": "Animals Behaving Badly",
            "popularity": 0.604
        },
        {
            "id": 85271,
            "original_name": "WandaVision",
            "popularity": 191.862
        },
        {
            "id": 85439,
            "original_name": "Discovering Animal Behaviour",
            "popularity": 0.6
        },
        {
            "id": 85862,
            "original_name": "Belgravia",
            "popularity": 6.898
        },
        {
            "id": 85874,
            "original_name": "Det vilda Skandinavien",
            "popularity": 0.6
        },
        {
            "id": 86457,
            "original_name": "Business Nightmares with Evan Davis",
            "popularity": 0.6
        },
        {
            "id": 86540,
            "original_name": "My Great Big Live Wedding with David Tutera",
            "popularity": 0.639
        },
        {
            "id": 86779,
            "original_name": "David Tutera's Celebrations",
            "popularity": 0.861
        },
        {
            "id": 86951,
            "original_name": "Leaving Neverland",
            "popularity": 9.597
        },
        {
            "id": 87321,
            "original_name": "Docstop: Team Whack - kaikki on hakkeroitavissa",
            "popularity": 1.247
        },
        {
            "id": 87753,
            "original_name": "Un avion sans elle",
            "popularity": 1.068
        },
        {
            "id": 88269,
            "original_name": "Almoravids and Andalus",
            "popularity": 0.6
        },
        {
            "id": 88922,
            "original_name": "David Jeremiah",
            "popularity": 0.6
        },
        {
            "id": 89396,
            "original_name": "Going Deep with David Rees",
            "popularity": 0.84
        },
        {
            "id": 90489,
            "original_name": "David Makes Man",
            "popularity": 4.079
        },
        {
            "id": 90871,
            "original_name": "David Lansky",
            "popularity": 1.129
        },
        {
            "id": 91084,
            "original_name": "Javier ya no vive solo",
            "popularity": 1.541
        },
        {
            "id": 91174,
            "original_name": "Lights Out with David Spade",
            "popularity": 11.08
        },
        {
            "id": 91361,
            "original_name": "La Duchesse d'Avila",
            "popularity": 1.21
        },
        {
            "id": 91731,
            "original_name": "I Love David!",
            "popularity": 0.87
        },
        {
            "id": 94276,
            "original_name": "Javi and the Tree Club",
            "popularity": 0.6
        },
        {
            "id": 95379,
            "original_name": "Mulher maravilha 2011",
            "popularity": 0.6
        },
        {
            "id": 96006,
            "original_name": "Bo\u017e\u00ed dar \u2013 p\u0159\u00edb\u011bhy \u010desk\u00fdch potravin",
            "popularity": 0.6
        },
        {
            "id": 96169,
            "original_name": "Il \u00e9tait un grand navire",
            "popularity": 0.6
        },
        {
            "id": 96208,
            "original_name": "D\u00edas de Navidad",
            "popularity": 7.292
        },
        {
            "id": 96504,
            "original_name": "Xavier Riddle and the Secret Museum",
            "popularity": 0.759
        },
        {
            "id": 97530,
            "original_name": "Dogs Behaving (Very) Badly",
            "popularity": 0.6
        },
        {
            "id": 98405,
            "original_name": "WTF Baron Davis",
            "popularity": 0.6
        },
        {
            "id": 98543,
            "original_name": "David Jason: Planes, Trains and Automobiles",
            "popularity": 0.609
        },
        {
            "id": 98548,
            "original_name": "David Jason's Great British Inventions",
            "popularity": 0.617
        },
        {
            "id": 99045,
            "original_name": "Mi Peque\u00f1a Traviesa",
            "popularity": 7.199
        },
        {
            "id": 99101,
            "original_name": "Saving Planet Earth UK",
            "popularity": 1.882
        },
        {
            "id": 99292,
            "original_name": "Kavita Bhabhi",
            "popularity": 7.754
        },
        {
            "id": 100044,
            "original_name": "Pavitra Bhagya",
            "popularity": 0.6
        },
        {
            "id": 100107,
            "original_name": "Saving Sirga: Journey into the Heart of a Lion",
            "popularity": 0.659
        },
        {
            "id": 100150,
            "original_name": "David de Kabouter",
            "popularity": 0.6
        },
        {
            "id": 100180,
            "original_name": "Scandinavian Star",
            "popularity": 0.964
        },
        {
            "id": 100374,
            "original_name": "Davina McCall: Life at the Extreme",
            "popularity": 0.6
        },
        {
            "id": 100871,
            "original_name": "Canavial de Paix\u00f5es",
            "popularity": 0.6
        },
        {
            "id": 102185,
            "original_name": "David Lomas Investigates",
            "popularity": 0.968
        },
        {
            "id": 102360,
            "original_name": "Coronavirus, Explained",
            "popularity": 4.181
        },
        {
            "id": 103566,
            "original_name": "Heavies tendres",
            "popularity": 0.6
        },
        {
            "id": 103641,
            "original_name": "Harry's Heroes: Euro Having A Laugh",
            "popularity": 0.627
        },
        {
            "id": 103790,
            "original_name": "I'll Have What You're Having",
            "popularity": 0.6
        },
        {
            "id": 104266,
            "original_name": "Coronavirus : le monde sous la menace",
            "popularity": 0.6
        },
        {
            "id": 104562,
            "original_name": "Vestavind",
            "popularity": 0.96
        },
        {
            "id": 104756,
            "original_name": "The Real Housewives of Atlanta: Porsha's Having a Baby",
            "popularity": 0.6
        },
        {
            "id": 106647,
            "original_name": "David Lynch Theater Presents: Short Films",
            "popularity": 0.6
        },
        {
            "id": 107153,
            "original_name": "Milagros de Navidad",
            "popularity": 1.111
        },
        {
            "id": 107678,
            "original_name": "Especiales de Navidad 2018",
            "popularity": 9.785
        },
        {
            "id": 107706,
            "original_name": "Ravi Patel's Pursuit of Happiness",
            "popularity": 0.84
        },
        {
            "id": 109146,
            "original_name": "Skandinavien i Hitlers jerngreb",
            "popularity": 0.6
        },
        {
            "id": 110559,
            "original_name": "The Amazing World of Aviation",
            "popularity": 0.6
        },
        {
            "id": 112551,
            "original_name": "Saving Britain's Pubs with Tom Kerridge",
            "popularity": 0.84
        },
        {
            "id": 113777,
            "original_name": "Yougoslavie, de l'autre c\u00f4t\u00e9 du miroir",
            "popularity": 0.6
        },
        {
            "id": 114212,
            "original_name": "Party At David's",
            "popularity": 0.6
        },
        {
            "id": 115652,
            "original_name": "Slavik \u2013 Auf Staats Nacken",
            "popularity": 0.727
        },
        {
            "id": 117107,
            "original_name": "David Wilson's Crime Files",
            "popularity": 0.828
        },
        {
            "id": 117249,
            "original_name": "Jefferson Davis: An American President",
            "popularity": 0.6
        },
        {
            "id": 117956,
            "original_name": "Drugo ime ljubavi",
            "popularity": 0.6
        },
        {
            "id": 118617,
            "original_name": "Gardening Together with Diarmuid Gavin",
            "popularity": 0.629
        },
        {
            "id": 119517,
            "original_name": "Am Klavier im Studio 4",
            "popularity": 0.6
        },
        {
            "id": 119754,
            "original_name": "Gente maravillosa",
            "popularity": 0.6
        },
        {
            "id": 119994,
            "original_name": "David Rocco's Dolce Africa",
            "popularity": 0.6
        },
        {
            "id": 120193,
            "original_name": "Alle elsker David",
            "popularity": 0.664
        },
        {
            "id": 120287,
            "original_name": "Javi y Lucy",
            "popularity": 0.6
        },
        {
            "id": 121000,
            "original_name": "Aleksandar od Jugoslavije",
            "popularity": 2.103
        },
        {
            "id": 123919,
            "original_name": "Maravillas sagradas del mundo",
            "popularity": 0.6
        },
        {
            "id": 124359,
            "original_name": "Escravid\u00e3o \u2013 S\u00e9culo XXI",
            "popularity": 0.84
        },
        {
            "id": 124624,
            "original_name": "David Beckham: Into the Unknown",
            "popularity": 1.4
        },
        {
            "id": 124876,
            "original_name": "2. Verdenskrig i Skandinavien",
            "popularity": 0.6
        },
        {
            "id": 125532,
            "original_name": "Ex-Yougoslavie - Les proc\u00e8s du Tribunal p\u00e9nal international",
            "popularity": 0.6
        },
        {
            "id": 126296,
            "original_name": "The DaVincibles",
            "popularity": 0.6
        },
        {
            "id": 127215,
            "original_name": "The Dog Rescuers with Alan Davies",
            "popularity": 1.844
        },
        {
            "id": 128091,
            "original_name": "Beach Bum: Backstage at 'Escape to Margaritaville' with Paul Alexander Nolan",
            "popularity": 6.695
        },
        {
            "id": 129198,
            "original_name": "EnnyKravitz",
            "popularity": 0.6
        },
        {
            "id": 129413,
            "original_name": "Saving Our Nurses",
            "popularity": 0.6
        },
        {
            "id": 130204,
            "original_name": "Ravi\u2019s Close Up!",
            "popularity": 0.6
        },
        {
            "id": 130281,
            "original_name": "Defying Gravity: The Untold Story of Women's Gymnastics",
            "popularity": 0.6
        },
        {
            "id": 130468,
            "original_name": "Spice It Up With David And Annie",
            "popularity": 0.6
        },
        {
            "id": 132165,
            "original_name": "Les avions du bout du monde",
            "popularity": 0.6
        },
        {
            "id": 132308,
            "original_name": "David Attenborough's Global Adventure",
            "popularity": 0.694
        },
        {
            "id": 132321,
            "original_name": "Kameleoni \u2013 Beatlesi nekdanje Jugoslavije",
            "popularity": 1.142
        },
        {
            "id": 132570,
            "original_name": "Par avion",
            "popularity": 0.6
        },
        {
            "id": 133126,
            "original_name": "Du votest, ich entscheide! by Slavik Junge",
            "popularity": 0.6
        },
        {
            "id": 133346,
            "original_name": "Aviond\u017eije",
            "popularity": 5.542
        },
        {
            "id": 133468,
            "original_name": "TOKYO MER: Emergency Lifesaving Room That Does Not Run",
            "popularity": 0.6
        },
        {
            "id": 133645,
            "original_name": "Wonders of Scotland with David Hayman",
            "popularity": 0.967
        },
        {
            "id": 133647,
            "original_name": "Pavitra Rishta - It's Never too Late",
            "popularity": 1.176
        },
        {
            "id": 135523,
            "original_name": "Heros of Aviation: Against All Odds",
            "popularity": 0.6
        },
        {
            "id": 135686,
            "original_name": "Les pires accidents : Avions",
            "popularity": 0.6
        },
        {
            "id": 136031,
            "original_name": "Navidad sin Fin",
            "popularity": 2.481
        },
        {
            "id": 136936,
            "original_name": "Avisen",
            "popularity": 0.6
        },
        {
            "id": 138480,
            "original_name": "Discovering David Dobrik",
            "popularity": 1.47
        },
        {
            "id": 138991,
            "original_name": "Navires de L\u00e9gende",
            "popularity": 12.703
        },
        {
            "id": 139090,
            "original_name": "Along for the Ride with David O'Doherty",
            "popularity": 7.507
        },
        {
            "id": 152328,
            "original_name": "Navigavia",
            "popularity": 5.379
        }
    ],
    "relations": [
        {
            "character": "avid"
        },
        {
            "character": "avio"
        },
        {
            "character": "avis"
        },
        {
            "character": "avin"
        },
        {
            "character": "avit"
        },
        {
            "character": "avim"
        },
        {
            "character": "avia"
        },
        {
            "character": "avik"
        },
        {
            "character": "avie"
        },
        {
            "character": "avil"
        },
        {
            "character": "avic"
        },
        {
            "character": "avij"
        },
        {
            "character": "avig"
        },
        {
            "character": "aviv"
        },
        {
            "character": "aviy"
        },
        {
            "character": "avir"
        }
    ],
    "top20": [
        {
            "id": 11250,
            "original_name": "Pasi\u00f3n de gavilanes",
            "popularity": 262.415
        },
        {
            "id": 85271,
            "original_name": "WandaVision",
            "popularity": 191.862
        },
        {
            "id": 40075,
            "original_name": "Gravity Falls",
            "popularity": 108.804
        },
        {
            "id": 498,
            "original_name": "Late Show with David Letterman",
            "popularity": 23.004
        },
        {
            "id": 13943,
            "original_name": "Beavis and Butt-head",
            "popularity": 21.195
        },
        {
            "id": 43097,
            "original_name": "Saving Hope",
            "popularity": 15.4
        },
        {
            "id": 9899,
            "original_name": "Saving Grace",
            "popularity": 14.05
        },
        {
            "id": 4467,
            "original_name": "Late Night with David Letterman",
            "popularity": 13.736
        },
        {
            "id": 138991,
            "original_name": "Navires de L\u00e9gende",
            "popularity": 12.703
        },
        {
            "id": 91174,
            "original_name": "Lights Out with David Spade",
            "popularity": 11.08
        },
        {
            "id": 610,
            "original_name": "Mr. Show with Bob and David",
            "popularity": 10.381
        },
        {
            "id": 32200,
            "original_name": "Criminal Minds: Suspect Behavior",
            "popularity": 10.232
        },
        {
            "id": 107678,
            "original_name": "Especiales de Navidad 2018",
            "popularity": 9.785
        },
        {
            "id": 43062,
            "original_name": "Rei Davi",
            "popularity": 9.773
        },
        {
            "id": 86951,
            "original_name": "Leaving Neverland",
            "popularity": 9.597
        },
        {
            "id": 3696,
            "original_name": "Gavin & Stacey",
            "popularity": 9.129
        },
        {
            "id": 64836,
            "original_name": "Good Behavior",
            "popularity": 8.455
        },
        {
            "id": 65609,
            "original_name": "Leaving",
            "popularity": 7.819
        },
        {
            "id": 99292,
            "original_name": "Kavita Bhabhi",
            "popularity": 7.754
        },
        {
            "id": 139090,
            "original_name": "Along for the Ride with David O'Doherty",
            "popularity": 7.507
        }
    ]
}