{
    "data": [
        {
            "id": 50778,
            "original_name": "Khun Chai Pavornruj",
            "popularity": 0.6
        }
    ],
    "relations": [],
    "top20": [
        {
            "id": 50778,
            "original_name": "Khun Chai Pavornruj",
            "popularity": 0.6
        }
    ]
}