{
    "data": [
        {
            "id": 5884,
            "original_name": "Goliath Awaits",
            "popularity": 2.83
        },
        {
            "id": 64625,
            "original_name": "Awaiting Jasmine",
            "popularity": 0.6
        },
        {
            "id": 78490,
            "original_name": "Soul Worker: Your Destiny Awaits",
            "popularity": 1.232
        }
    ],
    "relations": [],
    "top20": [
        {
            "id": 5884,
            "original_name": "Goliath Awaits",
            "popularity": 2.83
        },
        {
            "id": 64625,
            "original_name": "Awaiting Jasmine",
            "popularity": 0.6
        },
        {
            "id": 78490,
            "original_name": "Soul Worker: Your Destiny Awaits",
            "popularity": 1.232
        }
    ]
}