{
    "data": [
        {
            "id": 142,
            "original_name": "Kay Susan Tayo",
            "popularity": 0.6
        },
        {
            "id": 646,
            "original_name": "Penny Crayon",
            "popularity": 1.776
        },
        {
            "id": 2718,
            "original_name": "Tom Goes to the Mayor",
            "popularity": 9.266
        },
        {
            "id": 6121,
            "original_name": "Balita Ngayon",
            "popularity": 0.6
        },
        {
            "id": 8118,
            "original_name": "Maayong Buntag Kapamilya",
            "popularity": 0.6
        },
        {
            "id": 8469,
            "original_name": "Tayong Dalawa",
            "popularity": 0.6
        },
        {
            "id": 11504,
            "original_name": "NFL Cheerleader Playoffs",
            "popularity": 0.844
        },
        {
            "id": 13462,
            "original_name": "Mayo",
            "popularity": 2.866
        },
        {
            "id": 13751,
            "original_name": "Desde Gayola",
            "popularity": 0.6
        },
        {
            "id": 15578,
            "original_name": "Home in Toa Payoh",
            "popularity": 0.6
        },
        {
            "id": 15589,
            "original_name": "The Big Payoff",
            "popularity": 0.841
        },
        {
            "id": 15786,
            "original_name": "The Crayon Box",
            "popularity": 0.6
        },
        {
            "id": 17607,
            "original_name": "SNN: Showbiz News Ngayon",
            "popularity": 0.6
        },
        {
            "id": 18665,
            "original_name": "Ngayon at Kailanman",
            "popularity": 0.6
        },
        {
            "id": 22945,
            "original_name": "Mayor of the Town",
            "popularity": 1.018
        },
        {
            "id": 24875,
            "original_name": "Harold and the Purple Crayon",
            "popularity": 0.6
        },
        {
            "id": 25006,
            "original_name": "The Stanley Cup Playoffs",
            "popularity": 0.6
        },
        {
            "id": 29894,
            "original_name": "The Mayo Clinic",
            "popularity": 0.6
        },
        {
            "id": 30040,
            "original_name": "He's the Mayor",
            "popularity": 0.973
        },
        {
            "id": 30658,
            "original_name": "The Mayor of Casterbridge",
            "popularity": 1.722
        },
        {
            "id": 31348,
            "original_name": "Sana Ngayong Pasko",
            "popularity": 0.6
        },
        {
            "id": 31474,
            "original_name": "Kung Tayo'y Magkakalayo",
            "popularity": 0.6
        },
        {
            "id": 31977,
            "original_name": "Dan for Mayor",
            "popularity": 1.632
        },
        {
            "id": 32217,
            "original_name": "Failon Ngayon",
            "popularity": 0.6
        },
        {
            "id": 33113,
            "original_name": "Lumayo ka man sa akin",
            "popularity": 0.6
        },
        {
            "id": 33442,
            "original_name": "He's the Mayor",
            "popularity": 0.6
        },
        {
            "id": 37616,
            "original_name": "Magic Palayok",
            "popularity": 0.6
        },
        {
            "id": 37622,
            "original_name": "Iba-Balita Ngayon",
            "popularity": 0.6
        },
        {
            "id": 39044,
            "original_name": "On Call: Serbisyong Totoo. Ngayon.",
            "popularity": 0.6
        },
        {
            "id": 39871,
            "original_name": "Balita Pilipinas Ngayon",
            "popularity": 0.6
        },
        {
            "id": 40138,
            "original_name": "She's the Mayor",
            "popularity": 0.6
        },
        {
            "id": 41993,
            "original_name": "The Layover",
            "popularity": 2.733
        },
        {
            "id": 42311,
            "original_name": "Lumayo Ka Man Sa Akin",
            "popularity": 0.6
        },
        {
            "id": 43984,
            "original_name": "Ran Samanalayo",
            "popularity": 0.6
        },
        {
            "id": 46213,
            "original_name": "Samayoi zakura",
            "popularity": 0.6
        },
        {
            "id": 49184,
            "original_name": "A Bayou Legend",
            "popularity": 0.6
        },
        {
            "id": 52185,
            "original_name": "Ayo",
            "popularity": 0.6
        },
        {
            "id": 54876,
            "original_name": "Bayou Billionaires",
            "popularity": 0.6
        },
        {
            "id": 56639,
            "original_name": "Tareq wa Hayoona",
            "popularity": 0.6
        },
        {
            "id": 56833,
            "original_name": "Potemayo",
            "popularity": 0.6
        },
        {
            "id": 57863,
            "original_name": "Buying the Bayou",
            "popularity": 0.6
        },
        {
            "id": 58017,
            "original_name": "Sue Sung Fa, 2 Payak Payong",
            "popularity": 0.6
        },
        {
            "id": 61055,
            "original_name": "Beasts of the Bayou",
            "popularity": 0.6
        },
        {
            "id": 71727,
            "original_name": "The Mayor",
            "popularity": 5.04
        },
        {
            "id": 73668,
            "original_name": "A Kid Called Mayonnaise",
            "popularity": 0.727
        },
        {
            "id": 74546,
            "original_name": "Peches des Bayous",
            "popularity": 0.6
        },
        {
            "id": 78819,
            "original_name": "Out Da' Bayou",
            "popularity": 0.6
        },
        {
            "id": 79826,
            "original_name": "Hermano mayor",
            "popularity": 1.883
        },
        {
            "id": 79944,
            "original_name": "Colegio Mayor",
            "popularity": 1.091
        },
        {
            "id": 83083,
            "original_name": "Bayou with a Twist",
            "popularity": 0.6
        },
        {
            "id": 90921,
            "original_name": "Los d\u00edas de Ayotzinapa",
            "popularity": 3.239
        },
        {
            "id": 91821,
            "original_name": "Murder in the Bayou",
            "popularity": 1.303
        },
        {
            "id": 93064,
            "original_name": "English Crayon",
            "popularity": 0.6
        },
        {
            "id": 96440,
            "original_name": "Dayories",
            "popularity": 0.6
        },
        {
            "id": 97951,
            "original_name": "Mayor of Kingstown",
            "popularity": 51.138
        },
        {
            "id": 101064,
            "original_name": "El candidato Rayo",
            "popularity": 0.6
        },
        {
            "id": 102707,
            "original_name": "Au bout du crayon",
            "popularity": 0.6
        },
        {
            "id": 104168,
            "original_name": "Dos de mayo, la libertad de una naci\u00f3n",
            "popularity": 0.6
        },
        {
            "id": 104961,
            "original_name": "Gifu no Tatekayoko",
            "popularity": 0.6
        },
        {
            "id": 105228,
            "original_name": "Kermode and Mayo\u2019s Home Entertainment Service",
            "popularity": 1.024
        },
        {
            "id": 106296,
            "original_name": "Ayo and Rachel are Single",
            "popularity": 0.6
        },
        {
            "id": 106835,
            "original_name": "El premio mayor",
            "popularity": 3.233
        },
        {
            "id": 107205,
            "original_name": "Los mayores gamberros",
            "popularity": 0.6
        },
        {
            "id": 112302,
            "original_name": "Ngayon at Kailanman",
            "popularity": 0.6
        },
        {
            "id": 113226,
            "original_name": "Death in the Bayou: The Jennings 8",
            "popularity": 0.64
        },
        {
            "id": 113386,
            "original_name": "Espa\u00f1a: Ensayo de una guerra",
            "popularity": 0.6
        },
        {
            "id": 113477,
            "original_name": "Mr. Mayor",
            "popularity": 7.131
        },
        {
            "id": 118591,
            "original_name": "Parang Kayo Pero Hindi",
            "popularity": 2.198
        },
        {
            "id": 119717,
            "original_name": "Padayon",
            "popularity": 0.6
        },
        {
            "id": 127360,
            "original_name": "NOLA: Life, Death and Heavy Blues from the Bayou",
            "popularity": 0.6
        },
        {
            "id": 128777,
            "original_name": "Saan, Sana Tayo sa Himig ng Musika",
            "popularity": 0.996
        },
        {
            "id": 130931,
            "original_name": "SBS Inkigayo",
            "popularity": 0.6
        },
        {
            "id": 133863,
            "original_name": "Tayo and Little Wizards",
            "popularity": 0.6
        },
        {
            "id": 136027,
            "original_name": "2015 College Football Playoff National Championship",
            "popularity": 0.6
        },
        {
            "id": 152269,
            "original_name": "SHOWNUayo",
            "popularity": 7.531
        }
    ],
    "relations": [
        {
            "character": "ayon"
        },
        {
            "character": "ayor"
        },
        {
            "character": "ayof"
        },
        {
            "character": "ayol"
        },
        {
            "character": "ayoh"
        },
        {
            "character": "ayok"
        },
        {
            "character": "ayov"
        },
        {
            "character": "ayoi"
        },
        {
            "character": "ayou"
        },
        {
            "character": "ayoo"
        },
        {
            "character": "ayot"
        }
    ],
    "top20": [
        {
            "id": 97951,
            "original_name": "Mayor of Kingstown",
            "popularity": 51.138
        },
        {
            "id": 2718,
            "original_name": "Tom Goes to the Mayor",
            "popularity": 9.266
        },
        {
            "id": 152269,
            "original_name": "SHOWNUayo",
            "popularity": 7.531
        },
        {
            "id": 113477,
            "original_name": "Mr. Mayor",
            "popularity": 7.131
        },
        {
            "id": 71727,
            "original_name": "The Mayor",
            "popularity": 5.04
        },
        {
            "id": 90921,
            "original_name": "Los d\u00edas de Ayotzinapa",
            "popularity": 3.239
        },
        {
            "id": 106835,
            "original_name": "El premio mayor",
            "popularity": 3.233
        },
        {
            "id": 13462,
            "original_name": "Mayo",
            "popularity": 2.866
        },
        {
            "id": 41993,
            "original_name": "The Layover",
            "popularity": 2.733
        },
        {
            "id": 118591,
            "original_name": "Parang Kayo Pero Hindi",
            "popularity": 2.198
        },
        {
            "id": 79826,
            "original_name": "Hermano mayor",
            "popularity": 1.883
        },
        {
            "id": 646,
            "original_name": "Penny Crayon",
            "popularity": 1.776
        },
        {
            "id": 30658,
            "original_name": "The Mayor of Casterbridge",
            "popularity": 1.722
        },
        {
            "id": 31977,
            "original_name": "Dan for Mayor",
            "popularity": 1.632
        },
        {
            "id": 91821,
            "original_name": "Murder in the Bayou",
            "popularity": 1.303
        },
        {
            "id": 79944,
            "original_name": "Colegio Mayor",
            "popularity": 1.091
        },
        {
            "id": 105228,
            "original_name": "Kermode and Mayo\u2019s Home Entertainment Service",
            "popularity": 1.024
        },
        {
            "id": 22945,
            "original_name": "Mayor of the Town",
            "popularity": 1.018
        },
        {
            "id": 128777,
            "original_name": "Saan, Sana Tayo sa Himig ng Musika",
            "popularity": 0.996
        },
        {
            "id": 30040,
            "original_name": "He's the Mayor",
            "popularity": 0.973
        }
    ]
}