{
    "data": [
        {
            "id": 152580,
            "original_name": "O Pr\u00f3ximo Brazilian Storm",
            "popularity": 1.4
        }
    ],
    "relations": [],
    "top20": [
        {
            "id": 152580,
            "original_name": "O Pr\u00f3ximo Brazilian Storm",
            "popularity": 1.4
        }
    ]
}