{
    "data": [
        {
            "id": 397,
            "original_name": "The Dukes of Hazzard",
            "popularity": 16.793
        },
        {
            "id": 5631,
            "original_name": "Wazzup Wazzup",
            "popularity": 0.6
        },
        {
            "id": 8316,
            "original_name": "Razzmatazz",
            "popularity": 0.6
        },
        {
            "id": 9186,
            "original_name": "The Sound of Jazz",
            "popularity": 0.6
        },
        {
            "id": 9716,
            "original_name": "Razzledazzle",
            "popularity": 0.6
        },
        {
            "id": 10501,
            "original_name": "Shazzan",
            "popularity": 5.069
        },
        {
            "id": 12344,
            "original_name": "Bobby Dazzler",
            "popularity": 0.6
        },
        {
            "id": 14584,
            "original_name": "Razzamatazz",
            "popularity": 1.34
        },
        {
            "id": 14988,
            "original_name": "Razzle Dazzle",
            "popularity": 0.6
        },
        {
            "id": 15675,
            "original_name": "Krazzy Kiya Re",
            "popularity": 0.6
        },
        {
            "id": 16221,
            "original_name": "Razzberry Jazzberry Jam",
            "popularity": 1.099
        },
        {
            "id": 20861,
            "original_name": "Jazz",
            "popularity": 3.059
        },
        {
            "id": 22411,
            "original_name": "Jazz",
            "popularity": 0.6
        },
        {
            "id": 22512,
            "original_name": "Jazz In Stereo",
            "popularity": 0.6
        },
        {
            "id": 22626,
            "original_name": "Jazz Meets Folk",
            "popularity": 0.6
        },
        {
            "id": 24021,
            "original_name": "Adventures In Jazz",
            "popularity": 0.6
        },
        {
            "id": 24079,
            "original_name": "The Hudson Brothers Razzle Dazzle Show",
            "popularity": 1.223
        },
        {
            "id": 26266,
            "original_name": "Paparazzi",
            "popularity": 0.6
        },
        {
            "id": 27311,
            "original_name": "Razzledazzle",
            "popularity": 0.6
        },
        {
            "id": 27840,
            "original_name": "Stars Of Jazz",
            "popularity": 0.6
        },
        {
            "id": 27999,
            "original_name": "Chicago Jazz",
            "popularity": 0.6
        },
        {
            "id": 29063,
            "original_name": "The Jazz Age",
            "popularity": 2.305
        },
        {
            "id": 29590,
            "original_name": "Pastor Jazz",
            "popularity": 0.6
        },
        {
            "id": 30943,
            "original_name": "Sei pi\u00f9 bravo di un ragazzino di 5\u00aa?",
            "popularity": 0.6
        },
        {
            "id": 32492,
            "original_name": "Paparazzi",
            "popularity": 0.6
        },
        {
            "id": 33245,
            "original_name": "Lazzat with Asad",
            "popularity": 0.84
        },
        {
            "id": 33471,
            "original_name": "Jazz with Jackson",
            "popularity": 0.6
        },
        {
            "id": 33548,
            "original_name": "Dixieland Jazz",
            "popularity": 0.6
        },
        {
            "id": 33599,
            "original_name": "Commonwealth Jazz Club",
            "popularity": 0.6
        },
        {
            "id": 33627,
            "original_name": "Jazz Canada",
            "popularity": 0.6
        },
        {
            "id": 35227,
            "original_name": "Jazz Casual",
            "popularity": 0.6
        },
        {
            "id": 39867,
            "original_name": "Adventures in Jazz",
            "popularity": 0.6
        },
        {
            "id": 41358,
            "original_name": "I ragazzi di padre Tobia",
            "popularity": 0.6
        },
        {
            "id": 41377,
            "original_name": "Pazza Famiglia",
            "popularity": 0.883
        },
        {
            "id": 41423,
            "original_name": "I ragazzi del muretto",
            "popularity": 2.081
        },
        {
            "id": 41446,
            "original_name": "Tutti pazzi per amore",
            "popularity": 2.377
        },
        {
            "id": 41583,
            "original_name": "I Ragazzi della 3\u00aa C",
            "popularity": 3.892
        },
        {
            "id": 41701,
            "original_name": "FBI \u2013 Francesco Bertolazzi investigatore",
            "popularity": 0.6
        },
        {
            "id": 41734,
            "original_name": "Felipe ha gli occhi azzurri",
            "popularity": 0.6
        },
        {
            "id": 44771,
            "original_name": "Noi lazzaroni",
            "popularity": 1.09
        },
        {
            "id": 46329,
            "original_name": "Jazz Party",
            "popularity": 0.6
        },
        {
            "id": 48117,
            "original_name": "Jazz 625",
            "popularity": 0.6
        },
        {
            "id": 48123,
            "original_name": "Jazz Scene USA",
            "popularity": 0.6
        },
        {
            "id": 53860,
            "original_name": "Ailat Awlad Azzam",
            "popularity": 0.6
        },
        {
            "id": 53871,
            "original_name": "Burj Al-Hazz",
            "popularity": 0.6
        },
        {
            "id": 53988,
            "original_name": "Awlad `Azzam",
            "popularity": 0.6
        },
        {
            "id": 55292,
            "original_name": "Razzia",
            "popularity": 0.6
        },
        {
            "id": 57494,
            "original_name": "Paparazzit",
            "popularity": 0.6
        },
        {
            "id": 58853,
            "original_name": "The Subject is Jazz",
            "popularity": 0.6
        },
        {
            "id": 58975,
            "original_name": "Paranormal Paparazzi",
            "popularity": 0.6
        },
        {
            "id": 59218,
            "original_name": "SOLOS: The Jazz Sessions",
            "popularity": 0.6
        },
        {
            "id": 59412,
            "original_name": "Brynne: My Bedazzled Life",
            "popularity": 0.6
        },
        {
            "id": 65220,
            "original_name": "I Am Jazz",
            "popularity": 16.388
        },
        {
            "id": 67455,
            "original_name": "JazzDuck",
            "popularity": 0.6
        },
        {
            "id": 70279,
            "original_name": "Jazzie B's 1980s: From Dole to Soul",
            "popularity": 0.6
        },
        {
            "id": 71351,
            "original_name": "Babbala e il Ragazzo Idiota",
            "popularity": 0.6
        },
        {
            "id": 73094,
            "original_name": "Ultima razzia",
            "popularity": 0.6
        },
        {
            "id": 78243,
            "original_name": "Pupazzo criminale - La serie",
            "popularity": 2.068
        },
        {
            "id": 83143,
            "original_name": "Le ragazze di Piazza di Spagna",
            "popularity": 0.6
        },
        {
            "id": 88158,
            "original_name": "GazZelig - I comici dalla A allo Zelig",
            "popularity": 0.843
        },
        {
            "id": 97590,
            "original_name": "P\u0159\u00edb\u011bhy \u010desk\u00e9ho jazzu",
            "popularity": 1.042
        },
        {
            "id": 100800,
            "original_name": "west.art Jazzline",
            "popularity": 0.6
        },
        {
            "id": 101199,
            "original_name": "Mazzaropi - Uma s\u00e9rie de causos",
            "popularity": 0.6
        },
        {
            "id": 106167,
            "original_name": "Musiksommer 2020  Jazz Festival",
            "popularity": 0.6
        },
        {
            "id": 111947,
            "original_name": "I ragazzi della valle misteriosa",
            "popularity": 1.207
        },
        {
            "id": 112696,
            "original_name": "VazzRock the Animation",
            "popularity": 0.6
        },
        {
            "id": 121047,
            "original_name": "NDR Jazz Workshops",
            "popularity": 1.4
        },
        {
            "id": 124127,
            "original_name": "Frankly Jazz",
            "popularity": 0.6
        },
        {
            "id": 126260,
            "original_name": "Homorazzi",
            "popularity": 0.6
        },
        {
            "id": 127244,
            "original_name": "Sogno Azzurro",
            "popularity": 1.0
        },
        {
            "id": 131062,
            "original_name": "Decameron di Daniele Luttazzi",
            "popularity": 0.634
        },
        {
            "id": 131632,
            "original_name": "Pupparazzi",
            "popularity": 0.6
        },
        {
            "id": 137834,
            "original_name": "Le canap\u00e9 de Jazz en Comminges",
            "popularity": 3.429
        },
        {
            "id": 139399,
            "original_name": "Vita da paparazzo",
            "popularity": 0.6
        },
        {
            "id": 139444,
            "original_name": "Sarah - La ragazza di Avetrana",
            "popularity": 2.659
        }
    ],
    "relations": [
        {
            "character": "azza"
        },
        {
            "character": "azzu"
        },
        {
            "character": "azzm"
        },
        {
            "character": "azzl"
        },
        {
            "character": "azzy"
        },
        {
            "character": "azzb"
        },
        {
            "character": "azzi"
        },
        {
            "character": "azzd"
        },
        {
            "character": "azzo"
        },
        {
            "character": "azze"
        },
        {
            "character": "azzr"
        }
    ],
    "top20": [
        {
            "id": 397,
            "original_name": "The Dukes of Hazzard",
            "popularity": 16.793
        },
        {
            "id": 65220,
            "original_name": "I Am Jazz",
            "popularity": 16.388
        },
        {
            "id": 10501,
            "original_name": "Shazzan",
            "popularity": 5.069
        },
        {
            "id": 41583,
            "original_name": "I Ragazzi della 3\u00aa C",
            "popularity": 3.892
        },
        {
            "id": 137834,
            "original_name": "Le canap\u00e9 de Jazz en Comminges",
            "popularity": 3.429
        },
        {
            "id": 20861,
            "original_name": "Jazz",
            "popularity": 3.059
        },
        {
            "id": 139444,
            "original_name": "Sarah - La ragazza di Avetrana",
            "popularity": 2.659
        },
        {
            "id": 41446,
            "original_name": "Tutti pazzi per amore",
            "popularity": 2.377
        },
        {
            "id": 29063,
            "original_name": "The Jazz Age",
            "popularity": 2.305
        },
        {
            "id": 41423,
            "original_name": "I ragazzi del muretto",
            "popularity": 2.081
        },
        {
            "id": 78243,
            "original_name": "Pupazzo criminale - La serie",
            "popularity": 2.068
        },
        {
            "id": 121047,
            "original_name": "NDR Jazz Workshops",
            "popularity": 1.4
        },
        {
            "id": 14584,
            "original_name": "Razzamatazz",
            "popularity": 1.34
        },
        {
            "id": 24079,
            "original_name": "The Hudson Brothers Razzle Dazzle Show",
            "popularity": 1.223
        },
        {
            "id": 111947,
            "original_name": "I ragazzi della valle misteriosa",
            "popularity": 1.207
        },
        {
            "id": 16221,
            "original_name": "Razzberry Jazzberry Jam",
            "popularity": 1.099
        },
        {
            "id": 44771,
            "original_name": "Noi lazzaroni",
            "popularity": 1.09
        },
        {
            "id": 97590,
            "original_name": "P\u0159\u00edb\u011bhy \u010desk\u00e9ho jazzu",
            "popularity": 1.042
        },
        {
            "id": 127244,
            "original_name": "Sogno Azzurro",
            "popularity": 1.0
        },
        {
            "id": 41377,
            "original_name": "Pazza Famiglia",
            "popularity": 0.883
        }
    ]
}