{
    "data": [
        {
            "id": 6861,
            "original_name": "Na-Scam Ka Na Ba?",
            "popularity": 0.6
        }
    ],
    "relations": [],
    "top20": [
        {
            "id": 6861,
            "original_name": "Na-Scam Ka Na Ba?",
            "popularity": 0.6
        }
    ]
}