{
    "data": [
        {
            "id": 670,
            "original_name": "Baby Looney Tunes",
            "popularity": 20.074
        },
        {
            "id": 1510,
            "original_name": "Hotel Babylon",
            "popularity": 6.061
        },
        {
            "id": 1696,
            "original_name": "Rock Me Baby",
            "popularity": 1.63
        },
        {
            "id": 2533,
            "original_name": "Hit Me, Baby, One More Time",
            "popularity": 0.631
        },
        {
            "id": 3137,
            "original_name": "Babylon 5",
            "popularity": 33.504
        },
        {
            "id": 3628,
            "original_name": "Murray The K \u2013 It's What's Happening, Baby",
            "popularity": 0.6
        },
        {
            "id": 3901,
            "original_name": "Baa Bahoo Aur Baby",
            "popularity": 0.6
        },
        {
            "id": 4363,
            "original_name": "Baby, I'm Back",
            "popularity": 1.677
        },
        {
            "id": 4874,
            "original_name": "Classical Baby",
            "popularity": 0.686
        },
        {
            "id": 5519,
            "original_name": "The Baby Borrowers",
            "popularity": 0.6
        },
        {
            "id": 6422,
            "original_name": "Go Baby",
            "popularity": 0.6
        },
        {
            "id": 6437,
            "original_name": "Brainiac's Test Tube Baby",
            "popularity": 0.6
        },
        {
            "id": 6635,
            "original_name": "Oh Baby",
            "popularity": 3.151
        },
        {
            "id": 7414,
            "original_name": "The Baby Borrowers",
            "popularity": 0.842
        },
        {
            "id": 9746,
            "original_name": "Baby Races",
            "popularity": 0.6
        },
        {
            "id": 9825,
            "original_name": "Baby Talk",
            "popularity": 0.6
        },
        {
            "id": 10035,
            "original_name": "Baby Felix",
            "popularity": 0.6
        },
        {
            "id": 10212,
            "original_name": "Baby Bob",
            "popularity": 2.071
        },
        {
            "id": 10448,
            "original_name": "The Baby-Sitters Club",
            "popularity": 1.799
        },
        {
            "id": 11724,
            "original_name": "The Baby Huey Show",
            "popularity": 0.6
        },
        {
            "id": 13900,
            "original_name": "Baby Ballroom: The Championship",
            "popularity": 0.842
        },
        {
            "id": 14756,
            "original_name": "Baby Blues",
            "popularity": 2.713
        },
        {
            "id": 15759,
            "original_name": "Bol Baby Bol",
            "popularity": 0.6
        },
        {
            "id": 16740,
            "original_name": "That's My Baby",
            "popularity": 0.6
        },
        {
            "id": 17332,
            "original_name": "Baby Songs",
            "popularity": 0.6
        },
        {
            "id": 17880,
            "original_name": "Sweet Baby James",
            "popularity": 0.6
        },
        {
            "id": 17900,
            "original_name": "Hollyrock-a-Bye Baby",
            "popularity": 1.4
        },
        {
            "id": 18030,
            "original_name": "Bringing Up Baby",
            "popularity": 0.6
        },
        {
            "id": 18903,
            "original_name": "The Baby Dance",
            "popularity": 0.6
        },
        {
            "id": 19048,
            "original_name": "She's Nobody's Baby: The History of American Women in the 20th Century",
            "popularity": 0.6
        },
        {
            "id": 19475,
            "original_name": "Baby Blue Movies",
            "popularity": 1.27
        },
        {
            "id": 20061,
            "original_name": "Babyfather",
            "popularity": 0.6
        },
        {
            "id": 21594,
            "original_name": "Baby Boom",
            "popularity": 2.037
        },
        {
            "id": 21961,
            "original_name": "Baby's Wil Is Wet",
            "popularity": 0.6
        },
        {
            "id": 22540,
            "original_name": "Katie & Peter: The Baby Diaries",
            "popularity": 0.6
        },
        {
            "id": 23832,
            "original_name": "Make Room for Baby",
            "popularity": 0.6
        },
        {
            "id": 24416,
            "original_name": "Holding The Baby (UK)",
            "popularity": 0.6
        },
        {
            "id": 24462,
            "original_name": "My Fake Baby",
            "popularity": 0.6
        },
        {
            "id": 24544,
            "original_name": "Hollywood Babylon",
            "popularity": 0.6
        },
        {
            "id": 24679,
            "original_name": "Babyboom",
            "popularity": 0.6
        },
        {
            "id": 25074,
            "original_name": "Holding the Baby",
            "popularity": 1.553
        },
        {
            "id": 25573,
            "original_name": "Baby te huur",
            "popularity": 0.6
        },
        {
            "id": 26414,
            "original_name": "Create Your Baby's Nursery",
            "popularity": 0.6
        },
        {
            "id": 28387,
            "original_name": "Bringing Home Baby",
            "popularity": 0.6
        },
        {
            "id": 29242,
            "original_name": "The Baby Mind Reader",
            "popularity": 0.6
        },
        {
            "id": 30021,
            "original_name": "Whose Baby",
            "popularity": 0.6
        },
        {
            "id": 30348,
            "original_name": "The Baby Game",
            "popularity": 0.6
        },
        {
            "id": 30853,
            "original_name": "Baby Makes Five",
            "popularity": 0.638
        },
        {
            "id": 30885,
            "original_name": "A Baby Story",
            "popularity": 1.092
        },
        {
            "id": 30965,
            "original_name": "Baby Bonus",
            "popularity": 0.6
        },
        {
            "id": 30994,
            "original_name": "Baby M",
            "popularity": 0.6
        },
        {
            "id": 31733,
            "original_name": "Big Baby",
            "popularity": 0.6
        },
        {
            "id": 31946,
            "original_name": "Dinosaur Baby Holy Heroes",
            "popularity": 0.6
        },
        {
            "id": 34944,
            "original_name": "Mario Lopez: Saved By the Baby",
            "popularity": 0.6
        },
        {
            "id": 38660,
            "original_name": "And Baby Will Fall",
            "popularity": 0.6
        },
        {
            "id": 38968,
            "original_name": "Wild Animal Baby Explorers",
            "popularity": 0.6
        },
        {
            "id": 39518,
            "original_name": "My Babysitter's a Vampire",
            "popularity": 22.965
        },
        {
            "id": 39974,
            "original_name": "Baby Sister",
            "popularity": 0.6
        },
        {
            "id": 42137,
            "original_name": "Circus Baby",
            "popularity": 0.6
        },
        {
            "id": 42272,
            "original_name": "Baby Daddy",
            "popularity": 22.289
        },
        {
            "id": 43768,
            "original_name": "Baby Hospital",
            "popularity": 0.6
        },
        {
            "id": 43769,
            "original_name": "Babylon Fields",
            "popularity": 2.183
        },
        {
            "id": 44385,
            "original_name": "The Baby Borrowers",
            "popularity": 0.6
        },
        {
            "id": 45675,
            "original_name": "What Every Baby Knows",
            "popularity": 0.6
        },
        {
            "id": 46243,
            "original_name": "Super Junior and Sistar's Hello Baby",
            "popularity": 0.6
        },
        {
            "id": 46269,
            "original_name": "BabyFirstTV: Shushybye Baby",
            "popularity": 0.6
        },
        {
            "id": 48339,
            "original_name": "My Baby",
            "popularity": 0.6
        },
        {
            "id": 49154,
            "original_name": "Classical Baby 2",
            "popularity": 0.6
        },
        {
            "id": 50010,
            "original_name": "Baby-in-Arms",
            "popularity": 0.6
        },
        {
            "id": 50077,
            "original_name": "How Many Miles to Babylon?",
            "popularity": 0.6
        },
        {
            "id": 50132,
            "original_name": "The Spoils of Babylon",
            "popularity": 4.22
        },
        {
            "id": 50220,
            "original_name": "Baby Doll",
            "popularity": 0.6
        },
        {
            "id": 50743,
            "original_name": "Barbie's Baby",
            "popularity": 0.6
        },
        {
            "id": 51691,
            "original_name": "Babyboom",
            "popularity": 0.6
        },
        {
            "id": 52074,
            "original_name": "Baby Dance",
            "popularity": 0.6
        },
        {
            "id": 55880,
            "original_name": "Don't Just Stand There\u2026 I'm Having Your Baby",
            "popularity": 0.6
        },
        {
            "id": 56612,
            "original_name": "Baby Comes Home",
            "popularity": 0.6
        },
        {
            "id": 57361,
            "original_name": "The Mystery of Babylon: An Alternate View",
            "popularity": 0.6
        },
        {
            "id": 57784,
            "original_name": "I'm Having Their Baby",
            "popularity": 0.6
        },
        {
            "id": 57785,
            "original_name": "I Wanna Have Your Baby",
            "popularity": 0.6
        },
        {
            "id": 58933,
            "original_name": "Bet on Your Baby",
            "popularity": 0.6
        },
        {
            "id": 59127,
            "original_name": "Where You at Baby?",
            "popularity": 0.6
        },
        {
            "id": 59270,
            "original_name": "Baby Jake",
            "popularity": 0.66
        },
        {
            "id": 59666,
            "original_name": "Holding the Baby",
            "popularity": 0.6
        },
        {
            "id": 59881,
            "original_name": "BabyFirst - Art & Music",
            "popularity": 0.6
        },
        {
            "id": 60769,
            "original_name": "Perfect Baby",
            "popularity": 0.6
        },
        {
            "id": 61815,
            "original_name": "Babylon",
            "popularity": 2.788
        },
        {
            "id": 65274,
            "original_name": "Oh! My Baby",
            "popularity": 0.6
        },
        {
            "id": 65813,
            "original_name": "Rosemary's Baby",
            "popularity": 10.322
        },
        {
            "id": 66448,
            "original_name": "Quo vadis, Baby?",
            "popularity": 0.6
        },
        {
            "id": 66980,
            "original_name": "Babylon Berlin",
            "popularity": 22.672
        },
        {
            "id": 68383,
            "original_name": "Baby Boom",
            "popularity": 0.6
        },
        {
            "id": 68511,
            "original_name": "Amalies Baby",
            "popularity": 0.6
        },
        {
            "id": 75208,
            "original_name": "DEVILMAN crybaby",
            "popularity": 33.43
        },
        {
            "id": 75458,
            "original_name": "Baby Human",
            "popularity": 0.6
        },
        {
            "id": 76485,
            "original_name": "How to Buy a Baby",
            "popularity": 1.255
        },
        {
            "id": 77606,
            "original_name": "The Boss Baby: Back in Business",
            "popularity": 47.585
        },
        {
            "id": 80990,
            "original_name": "Alle meine Babys",
            "popularity": 0.6
        },
        {
            "id": 81475,
            "original_name": "Baby Ballroom",
            "popularity": 1.4
        },
        {
            "id": 82700,
            "original_name": "Baby",
            "popularity": 41.645
        },
        {
            "id": 83650,
            "original_name": "Baby Come Naa",
            "popularity": 1.4
        },
        {
            "id": 84024,
            "original_name": "Clone Baby",
            "popularity": 0.6
        },
        {
            "id": 87147,
            "original_name": "Baby boom",
            "popularity": 0.893
        },
        {
            "id": 88470,
            "original_name": "Baby e Rose",
            "popularity": 0.934
        },
        {
            "id": 90075,
            "original_name": "Servus Baby",
            "popularity": 1.806
        },
        {
            "id": 90873,
            "original_name": "Exportbaby (2018)",
            "popularity": 0.6
        },
        {
            "id": 94738,
            "original_name": "Babylon",
            "popularity": 1.508
        },
        {
            "id": 96354,
            "original_name": "Baby Folies",
            "popularity": 0.6
        },
        {
            "id": 97562,
            "original_name": "Baby Chimp Rescue",
            "popularity": 2.029
        },
        {
            "id": 97643,
            "original_name": "Baby TV",
            "popularity": 0.6
        },
        {
            "id": 98734,
            "original_name": "Bang Bang Baby",
            "popularity": 0.6
        },
        {
            "id": 98868,
            "original_name": "Fru St\u00e6hr og mysteriet om babyliget p\u00e5 loftet",
            "popularity": 0.6
        },
        {
            "id": 99755,
            "original_name": "Bolibompa Baby",
            "popularity": 0.973
        },
        {
            "id": 99968,
            "original_name": "Baby Planet",
            "popularity": 0.6
        },
        {
            "id": 100070,
            "original_name": "The Wonderful World of Baby Animals",
            "popularity": 0.6
        },
        {
            "id": 100412,
            "original_name": "The Baby-Sitters Club",
            "popularity": 48.162
        },
        {
            "id": 101646,
            "original_name": "Kill the Baby",
            "popularity": 0.6
        },
        {
            "id": 102338,
            "original_name": "Babylon Unveiled",
            "popularity": 0.6
        },
        {
            "id": 102562,
            "original_name": "Little Baby Bum",
            "popularity": 2.09
        },
        {
            "id": 103676,
            "original_name": "Learning Songs by Little Baby Bum  Nursery Rhyme Friends",
            "popularity": 0.6
        },
        {
            "id": 104756,
            "original_name": "The Real Housewives of Atlanta: Porsha's Having a Baby",
            "popularity": 0.6
        },
        {
            "id": 104944,
            "original_name": "UFO Baby",
            "popularity": 0.654
        },
        {
            "id": 106142,
            "original_name": "Super baby JOJO",
            "popularity": 3.223
        },
        {
            "id": 106866,
            "original_name": "Baby Animals In The Wild",
            "popularity": 0.676
        },
        {
            "id": 109947,
            "original_name": "La baby sister",
            "popularity": 0.6
        },
        {
            "id": 110113,
            "original_name": "IRON BABY",
            "popularity": 0.6
        },
        {
            "id": 111793,
            "original_name": "Melhor do Babyfirst",
            "popularity": 0.6
        },
        {
            "id": 112981,
            "original_name": "Baby Animals",
            "popularity": 0.6
        },
        {
            "id": 115915,
            "original_name": "The Baby",
            "popularity": 0.6
        },
        {
            "id": 115937,
            "original_name": "I Love You Baby",
            "popularity": 0.916
        },
        {
            "id": 117030,
            "original_name": "We Baby Bears",
            "popularity": 4.907
        },
        {
            "id": 117099,
            "original_name": "Baby Geniuses Television Series",
            "popularity": 1.749
        },
        {
            "id": 117882,
            "original_name": "Andy's Baby Animals",
            "popularity": 0.6
        },
        {
            "id": 119427,
            "original_name": "Petra f\u00e5r en baby",
            "popularity": 0.6
        },
        {
            "id": 120770,
            "original_name": "Baby Animals and Friends",
            "popularity": 0.6
        },
        {
            "id": 121962,
            "original_name": "Baby Animals Around the World",
            "popularity": 0.6
        },
        {
            "id": 122463,
            "original_name": "Hvordan k\u00f8ber man en baby?",
            "popularity": 0.711
        },
        {
            "id": 122701,
            "original_name": "Sugar Daddy vs Sugar Baby",
            "popularity": 0.6
        },
        {
            "id": 126496,
            "original_name": "Baby Surgeons: Delivering Miracles",
            "popularity": 1.178
        },
        {
            "id": 127179,
            "original_name": "My Demon Tyrant and Sweet Baby",
            "popularity": 1.502
        },
        {
            "id": 127690,
            "original_name": "Lady f\u00f8r baby",
            "popularity": 0.6
        },
        {
            "id": 129194,
            "original_name": "Baby Trucks",
            "popularity": 0.6
        },
        {
            "id": 129437,
            "original_name": "Pinkfong Baby Shark  Brooklyn",
            "popularity": 0.6
        },
        {
            "id": 131530,
            "original_name": "Baby Yoda",
            "popularity": 0.955
        },
        {
            "id": 132128,
            "original_name": "Baby Einstein (Classics)",
            "popularity": 0.6
        },
        {
            "id": 134192,
            "original_name": "Babylons stol",
            "popularity": 2.493
        },
        {
            "id": 137699,
            "original_name": "Abort eller baby",
            "popularity": 0.6
        },
        {
            "id": 137815,
            "original_name": "Super cute little baby",
            "popularity": 0.6
        },
        {
            "id": 139530,
            "original_name": "The Baby Killer Conspiracy",
            "popularity": 5.624
        }
    ],
    "relations": [
        {
            "character": "babyl"
        },
        {
            "character": "babyf"
        },
        {
            "character": "babyb"
        },
        {
            "character": "babys"
        },
        {
            "character": "baby?"
        }
    ],
    "top20": [
        {
            "id": 100412,
            "original_name": "The Baby-Sitters Club",
            "popularity": 48.162
        },
        {
            "id": 77606,
            "original_name": "The Boss Baby: Back in Business",
            "popularity": 47.585
        },
        {
            "id": 82700,
            "original_name": "Baby",
            "popularity": 41.645
        },
        {
            "id": 3137,
            "original_name": "Babylon 5",
            "popularity": 33.504
        },
        {
            "id": 75208,
            "original_name": "DEVILMAN crybaby",
            "popularity": 33.43
        },
        {
            "id": 39518,
            "original_name": "My Babysitter's a Vampire",
            "popularity": 22.965
        },
        {
            "id": 66980,
            "original_name": "Babylon Berlin",
            "popularity": 22.672
        },
        {
            "id": 42272,
            "original_name": "Baby Daddy",
            "popularity": 22.289
        },
        {
            "id": 670,
            "original_name": "Baby Looney Tunes",
            "popularity": 20.074
        },
        {
            "id": 65813,
            "original_name": "Rosemary's Baby",
            "popularity": 10.322
        },
        {
            "id": 1510,
            "original_name": "Hotel Babylon",
            "popularity": 6.061
        },
        {
            "id": 139530,
            "original_name": "The Baby Killer Conspiracy",
            "popularity": 5.624
        },
        {
            "id": 117030,
            "original_name": "We Baby Bears",
            "popularity": 4.907
        },
        {
            "id": 50132,
            "original_name": "The Spoils of Babylon",
            "popularity": 4.22
        },
        {
            "id": 106142,
            "original_name": "Super baby JOJO",
            "popularity": 3.223
        },
        {
            "id": 6635,
            "original_name": "Oh Baby",
            "popularity": 3.151
        },
        {
            "id": 61815,
            "original_name": "Babylon",
            "popularity": 2.788
        },
        {
            "id": 14756,
            "original_name": "Baby Blues",
            "popularity": 2.713
        },
        {
            "id": 134192,
            "original_name": "Babylons stol",
            "popularity": 2.493
        },
        {
            "id": 43769,
            "original_name": "Babylon Fields",
            "popularity": 2.183
        }
    ]
}