{
    "data": [
        {
            "id": 10988,
            "original_name": "BackBerner",
            "popularity": 0.6
        }
    ],
    "relations": [],
    "top20": [
        {
            "id": 10988,
            "original_name": "BackBerner",
            "popularity": 0.6
        }
    ]
}