{
    "data": [
        {
            "id": 14019,
            "original_name": "Backup",
            "popularity": 3.849
        },
        {
            "id": 22445,
            "original_name": "The Jim Backus Show",
            "popularity": 0.84
        },
        {
            "id": 37503,
            "original_name": "Confessions of a Backup Dancer",
            "popularity": 0.6
        },
        {
            "id": 74803,
            "original_name": "Mission Backup Earth",
            "popularity": 0.6
        }
    ],
    "relations": [],
    "top20": [
        {
            "id": 14019,
            "original_name": "Backup",
            "popularity": 3.849
        },
        {
            "id": 22445,
            "original_name": "The Jim Backus Show",
            "popularity": 0.84
        },
        {
            "id": 37503,
            "original_name": "Confessions of a Backup Dancer",
            "popularity": 0.6
        },
        {
            "id": 74803,
            "original_name": "Mission Backup Earth",
            "popularity": 0.6
        }
    ]
}