{
    "data": [
        {
            "id": 91240,
            "original_name": "Ishq Ibadat",
            "popularity": 0.923
        },
        {
            "id": 91261,
            "original_name": "Ishq Ibadat",
            "popularity": 1.615
        }
    ],
    "relations": [],
    "top20": [
        {
            "id": 91240,
            "original_name": "Ishq Ibadat",
            "popularity": 0.923
        },
        {
            "id": 91261,
            "original_name": "Ishq Ibadat",
            "popularity": 1.615
        }
    ]
}