{
    "data": [
        {
            "id": 759,
            "original_name": "Baddiel and Skinner Unplanned",
            "popularity": 1.67
        },
        {
            "id": 8313,
            "original_name": "Chashme Baddoor",
            "popularity": 0.6
        },
        {
            "id": 12067,
            "original_name": "Newman and Baddiel in Pieces",
            "popularity": 0.623
        },
        {
            "id": 30723,
            "original_name": "Baddiel's Syndrome",
            "popularity": 1.807
        },
        {
            "id": 43195,
            "original_name": "Arabian naitsu: Shinbaddo no b\u00f4ken",
            "popularity": 0.631
        },
        {
            "id": 138324,
            "original_name": "Biggest and Baddest",
            "popularity": 0.6
        },
        {
            "id": 138466,
            "original_name": "baddua",
            "popularity": 0.654
        }
    ],
    "relations": [],
    "top20": [
        {
            "id": 759,
            "original_name": "Baddiel and Skinner Unplanned",
            "popularity": 1.67
        },
        {
            "id": 8313,
            "original_name": "Chashme Baddoor",
            "popularity": 0.6
        },
        {
            "id": 12067,
            "original_name": "Newman and Baddiel in Pieces",
            "popularity": 0.623
        },
        {
            "id": 30723,
            "original_name": "Baddiel's Syndrome",
            "popularity": 1.807
        },
        {
            "id": 43195,
            "original_name": "Arabian naitsu: Shinbaddo no b\u00f4ken",
            "popularity": 0.631
        },
        {
            "id": 138324,
            "original_name": "Biggest and Baddest",
            "popularity": 0.6
        },
        {
            "id": 138466,
            "original_name": "baddua",
            "popularity": 0.654
        }
    ]
}