{
    "data": [
        {
            "id": 6496,
            "original_name": "Haggis Baggis",
            "popularity": 0.6
        },
        {
            "id": 8553,
            "original_name": "Baggy Pants and the Nitwits",
            "popularity": 1.09
        },
        {
            "id": 11975,
            "original_name": "The Sandbaggers",
            "popularity": 1.852
        },
        {
            "id": 32637,
            "original_name": "Baggage",
            "popularity": 2.465
        },
        {
            "id": 45299,
            "original_name": "Excess Baggage",
            "popularity": 0.631
        },
        {
            "id": 55365,
            "original_name": "Baggage Battles",
            "popularity": 0.72
        },
        {
            "id": 104498,
            "original_name": "Guldbaggegalan",
            "popularity": 6.652
        },
        {
            "id": 123969,
            "original_name": "io che sar\u00f2 roberto baggio",
            "popularity": 0.6
        }
    ],
    "relations": [],
    "top20": [
        {
            "id": 6496,
            "original_name": "Haggis Baggis",
            "popularity": 0.6
        },
        {
            "id": 8553,
            "original_name": "Baggy Pants and the Nitwits",
            "popularity": 1.09
        },
        {
            "id": 11975,
            "original_name": "The Sandbaggers",
            "popularity": 1.852
        },
        {
            "id": 32637,
            "original_name": "Baggage",
            "popularity": 2.465
        },
        {
            "id": 45299,
            "original_name": "Excess Baggage",
            "popularity": 0.631
        },
        {
            "id": 55365,
            "original_name": "Baggage Battles",
            "popularity": 0.72
        },
        {
            "id": 104498,
            "original_name": "Guldbaggegalan",
            "popularity": 6.652
        },
        {
            "id": 123969,
            "original_name": "io che sar\u00f2 roberto baggio",
            "popularity": 0.6
        }
    ]
}