{
    "data": [
        {
            "id": 13150,
            "original_name": "Scott Baio Is 45...and Single",
            "popularity": 0.6
        },
        {
            "id": 14840,
            "original_name": "Scott Baio Is 46...and Pregnant",
            "popularity": 1.47
        }
    ],
    "relations": [],
    "top20": [
        {
            "id": 13150,
            "original_name": "Scott Baio Is 45...and Single",
            "popularity": 0.6
        },
        {
            "id": 14840,
            "original_name": "Scott Baio Is 46...and Pregnant",
            "popularity": 1.47
        }
    ]
}