{
    "data": [
        {
            "id": 10006,
            "original_name": "Bakersfield P.D.",
            "popularity": 6.306
        },
        {
            "id": 68030,
            "original_name": "Worst Bakers in America",
            "popularity": 1.4
        },
        {
            "id": 70422,
            "original_name": "Bakers vs. Fakers",
            "popularity": 0.6
        },
        {
            "id": 78439,
            "original_name": "Victorian Bakers",
            "popularity": 0.6
        }
    ],
    "relations": [],
    "top20": [
        {
            "id": 10006,
            "original_name": "Bakersfield P.D.",
            "popularity": 6.306
        },
        {
            "id": 68030,
            "original_name": "Worst Bakers in America",
            "popularity": 1.4
        },
        {
            "id": 70422,
            "original_name": "Bakers vs. Fakers",
            "popularity": 0.6
        },
        {
            "id": 78439,
            "original_name": "Victorian Bakers",
            "popularity": 0.6
        }
    ]
}