{
    "data": [
        {
            "id": 93737,
            "original_name": "Barkskins",
            "popularity": 16.214
        },
        {
            "id": 101367,
            "original_name": "Lady in Red: Backstage at 'Pretty Woman' with Samantha Barks",
            "popularity": 1.385
        }
    ],
    "relations": [],
    "top20": [
        {
            "id": 93737,
            "original_name": "Barkskins",
            "popularity": 16.214
        },
        {
            "id": 101367,
            "original_name": "Lady in Red: Backstage at 'Pretty Woman' with Samantha Barks",
            "popularity": 1.385
        }
    ]
}