{
    "data": [
        {
            "id": 6564,
            "original_name": "The Basketball Show",
            "popularity": 0.6
        },
        {
            "id": 12569,
            "original_name": "NBA Basketballography",
            "popularity": 0.6
        },
        {
            "id": 13303,
            "original_name": "The Baskervilles",
            "popularity": 0.6
        },
        {
            "id": 21977,
            "original_name": "The Last Of The Baskets",
            "popularity": 0.6
        },
        {
            "id": 22173,
            "original_name": "The Magic Basket",
            "popularity": 0.6
        },
        {
            "id": 32789,
            "original_name": "Basketball Wives",
            "popularity": 1.673
        },
        {
            "id": 39567,
            "original_name": "Basketball Wives LA",
            "popularity": 0.943
        },
        {
            "id": 41992,
            "original_name": "The Last of the Baskets",
            "popularity": 0.6
        },
        {
            "id": 44225,
            "original_name": "The Hound of the Baskervilles",
            "popularity": 1.219
        },
        {
            "id": 48157,
            "original_name": "Basketball Tribe",
            "popularity": 0.6
        },
        {
            "id": 48726,
            "original_name": "Senden baska",
            "popularity": 0.6
        },
        {
            "id": 49224,
            "original_name": "Baska yerde yok",
            "popularity": 0.6
        },
        {
            "id": 52511,
            "original_name": "Bask\u00fcl Ailesi",
            "popularity": 0.6
        },
        {
            "id": 64551,
            "original_name": "Baskets",
            "popularity": 15.025
        },
        {
            "id": 91794,
            "original_name": "Basketball or Nothing",
            "popularity": 2.428
        },
        {
            "id": 101731,
            "original_name": "Basket Fever",
            "popularity": 0.672
        },
        {
            "id": 102201,
            "original_name": "Basketball Science",
            "popularity": 0.6
        },
        {
            "id": 104858,
            "original_name": "The Basketeers",
            "popularity": 2.641
        },
        {
            "id": 106078,
            "original_name": "Food: What Goes in your Basket?",
            "popularity": 0.6
        },
        {
            "id": 106121,
            "original_name": "Basketball: A Love Story",
            "popularity": 1.78
        },
        {
            "id": 118876,
            "original_name": "Last Chance U: Basketball",
            "popularity": 11.169
        },
        {
            "id": 120638,
            "original_name": "Easter Basket Challenge",
            "popularity": 0.6
        },
        {
            "id": 126272,
            "original_name": "Bobaski i Mi\u015b",
            "popularity": 0.6
        },
        {
            "id": 134306,
            "original_name": "Des baskets dans l'assiette",
            "popularity": 0.6
        },
        {
            "id": 137829,
            "original_name": "Carole Baskin\u2019s Cage Fight",
            "popularity": 5.232
        }
    ],
    "relations": [
        {
            "character": "baske"
        },
        {
            "character": "baska"
        },
        {
            "character": "baski"
        }
    ],
    "top20": [
        {
            "id": 64551,
            "original_name": "Baskets",
            "popularity": 15.025
        },
        {
            "id": 118876,
            "original_name": "Last Chance U: Basketball",
            "popularity": 11.169
        },
        {
            "id": 137829,
            "original_name": "Carole Baskin\u2019s Cage Fight",
            "popularity": 5.232
        },
        {
            "id": 104858,
            "original_name": "The Basketeers",
            "popularity": 2.641
        },
        {
            "id": 91794,
            "original_name": "Basketball or Nothing",
            "popularity": 2.428
        },
        {
            "id": 106121,
            "original_name": "Basketball: A Love Story",
            "popularity": 1.78
        },
        {
            "id": 32789,
            "original_name": "Basketball Wives",
            "popularity": 1.673
        },
        {
            "id": 44225,
            "original_name": "The Hound of the Baskervilles",
            "popularity": 1.219
        },
        {
            "id": 39567,
            "original_name": "Basketball Wives LA",
            "popularity": 0.943
        },
        {
            "id": 101731,
            "original_name": "Basket Fever",
            "popularity": 0.672
        },
        {
            "id": 48157,
            "original_name": "Basketball Tribe",
            "popularity": 0.6
        },
        {
            "id": 13303,
            "original_name": "The Baskervilles",
            "popularity": 0.6
        },
        {
            "id": 12569,
            "original_name": "NBA Basketballography",
            "popularity": 0.6
        },
        {
            "id": 52511,
            "original_name": "Bask\u00fcl Ailesi",
            "popularity": 0.6
        },
        {
            "id": 22173,
            "original_name": "The Magic Basket",
            "popularity": 0.6
        },
        {
            "id": 48726,
            "original_name": "Senden baska",
            "popularity": 0.6
        },
        {
            "id": 41992,
            "original_name": "The Last of the Baskets",
            "popularity": 0.6
        },
        {
            "id": 49224,
            "original_name": "Baska yerde yok",
            "popularity": 0.6
        },
        {
            "id": 6564,
            "original_name": "The Basketball Show",
            "popularity": 0.6
        },
        {
            "id": 21977,
            "original_name": "The Last Of The Baskets",
            "popularity": 0.6
        }
    ]
}