{
    "data": [
        {
            "id": 67985,
            "original_name": "Sol de Batey",
            "popularity": 0.6
        }
    ],
    "relations": [],
    "top20": [
        {
            "id": 67985,
            "original_name": "Sol de Batey",
            "popularity": 0.6
        }
    ]
}