{
    "data": [
        {
            "id": 123312,
            "original_name": "Plant\u00e3o BBB",
            "popularity": 0.6
        },
        {
            "id": 123320,
            "original_name": "BBB ao Vivo no Multishow",
            "popularity": 0.6
        }
    ],
    "relations": [],
    "top20": [
        {
            "id": 123312,
            "original_name": "Plant\u00e3o BBB",
            "popularity": 0.6
        },
        {
            "id": 123320,
            "original_name": "BBB ao Vivo no Multishow",
            "popularity": 0.6
        }
    ]
}