{
    "data": [
        {
            "id": 156,
            "original_name": "The Beachcombers",
            "popularity": 1.341
        },
        {
            "id": 371,
            "original_name": "Chilly Beach",
            "popularity": 1.848
        },
        {
            "id": 671,
            "original_name": "Moolah Beach",
            "popularity": 0.6
        },
        {
            "id": 869,
            "original_name": "Son of the Beach",
            "popularity": 7.988
        },
        {
            "id": 1160,
            "original_name": "Beach Girls",
            "popularity": 1.558
        },
        {
            "id": 1221,
            "original_name": "Las Brujas de South Beach",
            "popularity": 0.6
        },
        {
            "id": 1583,
            "original_name": "Falcon Beach",
            "popularity": 1.714
        },
        {
            "id": 2254,
            "original_name": "Sunset Beach",
            "popularity": 17.159
        },
        {
            "id": 2294,
            "original_name": "China Beach",
            "popularity": 8.45
        },
        {
            "id": 3605,
            "original_name": "Laguna Beach",
            "popularity": 3.015
        },
        {
            "id": 4329,
            "original_name": "South Beach",
            "popularity": 2.264
        },
        {
            "id": 8429,
            "original_name": "From Hanoi to China Beach a Taste of the Exotic",
            "popularity": 0.6
        },
        {
            "id": 8767,
            "original_name": "MTV Beach House",
            "popularity": 0.6
        },
        {
            "id": 8975,
            "original_name": "The Beachcomber",
            "popularity": 2.545
        },
        {
            "id": 10404,
            "original_name": "Paradise Beach",
            "popularity": 3.315
        },
        {
            "id": 12484,
            "original_name": "South Beach",
            "popularity": 0.834
        },
        {
            "id": 12725,
            "original_name": "Beach Patrol",
            "popularity": 0.6
        },
        {
            "id": 13119,
            "original_name": "Fitness Beach",
            "popularity": 0.6
        },
        {
            "id": 13142,
            "original_name": "Nicktoons Summer Beachouse",
            "popularity": 0.6
        },
        {
            "id": 14333,
            "original_name": "Echo Beach UK Soap",
            "popularity": 0.6
        },
        {
            "id": 14719,
            "original_name": "Echo Beach",
            "popularity": 1.778
        },
        {
            "id": 16598,
            "original_name": "Yellow Jacket: The Beach Crazy Cyclist",
            "popularity": 1.34
        },
        {
            "id": 17168,
            "original_name": "Bash at the Beach",
            "popularity": 0.6
        },
        {
            "id": 19066,
            "original_name": "Tales from Pleasure Beach",
            "popularity": 0.6
        },
        {
            "id": 19155,
            "original_name": "College Hill South Beach",
            "popularity": 0.6
        },
        {
            "id": 19657,
            "original_name": "Westbeach",
            "popularity": 0.6
        },
        {
            "id": 19727,
            "original_name": "T4 on the Beach",
            "popularity": 0.6
        },
        {
            "id": 23368,
            "original_name": "The San Pedro Beach Bums",
            "popularity": 3.951
        },
        {
            "id": 24473,
            "original_name": "Ocean Force: Huntington Beach, O.C.",
            "popularity": 0.6
        },
        {
            "id": 24724,
            "original_name": "Beach Patrol: Miami Beach",
            "popularity": 0.6
        },
        {
            "id": 25050,
            "original_name": "Surf & Rescue: Dewey Beach",
            "popularity": 0.6
        },
        {
            "id": 25949,
            "original_name": "Beach Patrol: Honolulu",
            "popularity": 0.6
        },
        {
            "id": 28715,
            "original_name": "Bridget's Sexiest Beaches",
            "popularity": 0.933
        },
        {
            "id": 30785,
            "original_name": "Tere Mere Beach Mein",
            "popularity": 1.224
        },
        {
            "id": 31220,
            "original_name": "Beached Az",
            "popularity": 0.6
        },
        {
            "id": 31291,
            "original_name": "Bash at the Beach",
            "popularity": 0.6
        },
        {
            "id": 32176,
            "original_name": "Beach Lane",
            "popularity": 0.6
        },
        {
            "id": 34074,
            "original_name": "The World of Beachcomber",
            "popularity": 0.6
        },
        {
            "id": 34588,
            "original_name": "Mission Beach USA",
            "popularity": 0.6
        },
        {
            "id": 37171,
            "original_name": "Beach Lane",
            "popularity": 0.6
        },
        {
            "id": 37542,
            "original_name": "The Beach Boys: An American Family",
            "popularity": 1.504
        },
        {
            "id": 37581,
            "original_name": "Beach Heat: Miami",
            "popularity": 7.385
        },
        {
            "id": 38690,
            "original_name": "South Beach Classics",
            "popularity": 0.6
        },
        {
            "id": 42652,
            "original_name": "Willard Beach: The Real Story",
            "popularity": 0.6
        },
        {
            "id": 47184,
            "original_name": "Pavarotti on Miami Beach",
            "popularity": 0.6
        },
        {
            "id": 55257,
            "original_name": "Summer in Sunny Beach",
            "popularity": 0.6
        },
        {
            "id": 56088,
            "original_name": "The Fairport Beach School - Television Series",
            "popularity": 0.6
        },
        {
            "id": 59897,
            "original_name": "Crazy Beaches",
            "popularity": 0.6
        },
        {
            "id": 60392,
            "original_name": "Beach Clash",
            "popularity": 0.6
        },
        {
            "id": 60867,
            "original_name": "Ex on the Beach",
            "popularity": 20.827
        },
        {
            "id": 61481,
            "original_name": "Pleasure Beach",
            "popularity": 0.625
        },
        {
            "id": 64891,
            "original_name": "Buying the Beach",
            "popularity": 0.6
        },
        {
            "id": 67607,
            "original_name": "Ex on the Beach: Double Dutch",
            "popularity": 3.389
        },
        {
            "id": 68353,
            "original_name": "Beach Cops",
            "popularity": 0.6
        },
        {
            "id": 69683,
            "original_name": "Top Secret Beaches",
            "popularity": 0.6
        },
        {
            "id": 69808,
            "original_name": "Beaches",
            "popularity": 0.6
        },
        {
            "id": 70816,
            "original_name": "Big Beach Builds",
            "popularity": 0.6
        },
        {
            "id": 71983,
            "original_name": "Beach Bites with Katie Lee",
            "popularity": 0.6
        },
        {
            "id": 72775,
            "original_name": "Beachfront Bargain Hunt: Renovation",
            "popularity": 2.475
        },
        {
            "id": 73430,
            "original_name": "Beachclub",
            "popularity": 0.6
        },
        {
            "id": 73509,
            "original_name": "Playboy's Beach House",
            "popularity": 3.608
        },
        {
            "id": 76632,
            "original_name": "Beachfront Bargain Hunt",
            "popularity": 1.957
        },
        {
            "id": 78350,
            "original_name": "Beach Club",
            "popularity": 1.29
        },
        {
            "id": 78360,
            "original_name": "Beach Day Every Day",
            "popularity": 0.6
        },
        {
            "id": 78975,
            "original_name": "Ex on the Beach: Body SOS",
            "popularity": 0.6
        },
        {
            "id": 78976,
            "original_name": "Ex on the Beach",
            "popularity": 2.051
        },
        {
            "id": 79895,
            "original_name": "Beach Hunters",
            "popularity": 1.117
        },
        {
            "id": 80295,
            "original_name": "South Beach",
            "popularity": 0.6
        },
        {
            "id": 81917,
            "original_name": "Ex On The Beach",
            "popularity": 2.636
        },
        {
            "id": 85622,
            "original_name": "Lindsay Lohan's Beach Club",
            "popularity": 0.802
        },
        {
            "id": 88485,
            "original_name": "Naked Beach",
            "popularity": 0.683
        },
        {
            "id": 88923,
            "original_name": "Hey Qween! Beach House",
            "popularity": 0.6
        },
        {
            "id": 95197,
            "original_name": "Off The Grid On The Beach",
            "popularity": 0.6
        },
        {
            "id": 98996,
            "original_name": "Celebrity Ex on the Beach",
            "popularity": 2.13
        },
        {
            "id": 99621,
            "original_name": "The Living Beach",
            "popularity": 0.6
        },
        {
            "id": 101925,
            "original_name": "Ex on the Beach Norge",
            "popularity": 8.343
        },
        {
            "id": 104137,
            "original_name": "The Beach",
            "popularity": 8.581
        },
        {
            "id": 105626,
            "original_name": "Ex on The Beach Italia",
            "popularity": 0.988
        },
        {
            "id": 106138,
            "original_name": "Monster Beach",
            "popularity": 0.709
        },
        {
            "id": 107625,
            "original_name": "Million Dollar Beach House",
            "popularity": 1.168
        },
        {
            "id": 111209,
            "original_name": "Ex on the Beach",
            "popularity": 0.707
        },
        {
            "id": 112111,
            "original_name": "Murder on Middle Beach",
            "popularity": 1.657
        },
        {
            "id": 118828,
            "original_name": "Sommer i Sunny Beach",
            "popularity": 0.6
        },
        {
            "id": 120047,
            "original_name": "Charterfeber After Beach",
            "popularity": 0.6
        },
        {
            "id": 121613,
            "original_name": "Kangaroo Beach",
            "popularity": 0.653
        },
        {
            "id": 127133,
            "original_name": "Beach Around the World",
            "popularity": 0.6
        },
        {
            "id": 128091,
            "original_name": "Beach Bum: Backstage at 'Escape to Margaritaville' with Paul Alexander Nolan",
            "popularity": 6.695
        },
        {
            "id": 128984,
            "original_name": "Battle on the Beach",
            "popularity": 0.6
        },
        {
            "id": 138125,
            "original_name": "Britain by Beach",
            "popularity": 1.507
        },
        {
            "id": 138517,
            "original_name": "The Beachbuds",
            "popularity": 0.82
        }
    ],
    "relations": [
        {
            "character": "beachc"
        },
        {
            "character": "beacho"
        },
        {
            "character": "beache"
        },
        {
            "character": "beachf"
        },
        {
            "character": "beachb"
        }
    ],
    "top20": [
        {
            "id": 60867,
            "original_name": "Ex on the Beach",
            "popularity": 20.827
        },
        {
            "id": 2254,
            "original_name": "Sunset Beach",
            "popularity": 17.159
        },
        {
            "id": 104137,
            "original_name": "The Beach",
            "popularity": 8.581
        },
        {
            "id": 2294,
            "original_name": "China Beach",
            "popularity": 8.45
        },
        {
            "id": 101925,
            "original_name": "Ex on the Beach Norge",
            "popularity": 8.343
        },
        {
            "id": 869,
            "original_name": "Son of the Beach",
            "popularity": 7.988
        },
        {
            "id": 37581,
            "original_name": "Beach Heat: Miami",
            "popularity": 7.385
        },
        {
            "id": 128091,
            "original_name": "Beach Bum: Backstage at 'Escape to Margaritaville' with Paul Alexander Nolan",
            "popularity": 6.695
        },
        {
            "id": 23368,
            "original_name": "The San Pedro Beach Bums",
            "popularity": 3.951
        },
        {
            "id": 73509,
            "original_name": "Playboy's Beach House",
            "popularity": 3.608
        },
        {
            "id": 67607,
            "original_name": "Ex on the Beach: Double Dutch",
            "popularity": 3.389
        },
        {
            "id": 10404,
            "original_name": "Paradise Beach",
            "popularity": 3.315
        },
        {
            "id": 3605,
            "original_name": "Laguna Beach",
            "popularity": 3.015
        },
        {
            "id": 81917,
            "original_name": "Ex On The Beach",
            "popularity": 2.636
        },
        {
            "id": 8975,
            "original_name": "The Beachcomber",
            "popularity": 2.545
        },
        {
            "id": 72775,
            "original_name": "Beachfront Bargain Hunt: Renovation",
            "popularity": 2.475
        },
        {
            "id": 4329,
            "original_name": "South Beach",
            "popularity": 2.264
        },
        {
            "id": 98996,
            "original_name": "Celebrity Ex on the Beach",
            "popularity": 2.13
        },
        {
            "id": 78976,
            "original_name": "Ex on the Beach",
            "popularity": 2.051
        },
        {
            "id": 76632,
            "original_name": "Beachfront Bargain Hunt",
            "popularity": 1.957
        }
    ]
}