{
    "data": [
        {
            "id": 9124,
            "original_name": "Beany and Cecil",
            "popularity": 1.02
        },
        {
            "id": 13352,
            "original_name": "Time for Beany",
            "popularity": 0.6
        },
        {
            "id": 16866,
            "original_name": "The New Adventures of Beany and Cecil",
            "popularity": 0.6
        }
    ],
    "relations": [],
    "top20": [
        {
            "id": 9124,
            "original_name": "Beany and Cecil",
            "popularity": 1.02
        },
        {
            "id": 13352,
            "original_name": "Time for Beany",
            "popularity": 0.6
        },
        {
            "id": 16866,
            "original_name": "The New Adventures of Beany and Cecil",
            "popularity": 0.6
        }
    ]
}