{
    "data": [
        {
            "id": 48249,
            "original_name": "Unbeatable 2",
            "popularity": 0.6
        },
        {
            "id": 48429,
            "original_name": "Unbeatable",
            "popularity": 0.6
        },
        {
            "id": 64967,
            "original_name": "Showdown of the Unbeatables",
            "popularity": 0.6
        },
        {
            "id": 125147,
            "original_name": "Unbeatable",
            "popularity": 1.414
        }
    ],
    "relations": [],
    "top20": [
        {
            "id": 48249,
            "original_name": "Unbeatable 2",
            "popularity": 0.6
        },
        {
            "id": 48429,
            "original_name": "Unbeatable",
            "popularity": 0.6
        },
        {
            "id": 64967,
            "original_name": "Showdown of the Unbeatables",
            "popularity": 0.6
        },
        {
            "id": 125147,
            "original_name": "Unbeatable",
            "popularity": 1.414
        }
    ]
}