{
    "data": [
        {
            "id": 36097,
            "original_name": "De Grote Bijbelquiz",
            "popularity": 0.896
        }
    ],
    "relations": [],
    "top20": [
        {
            "id": 36097,
            "original_name": "De Grote Bijbelquiz",
            "popularity": 0.896
        }
    ]
}