{
    "data": [
        {
            "id": 27083,
            "original_name": "Hey Remember!",
            "popularity": 0.6
        }
    ],
    "relations": [],
    "top20": [
        {
            "id": 27083,
            "original_name": "Hey Remember!",
            "popularity": 0.6
        }
    ]
}