{
    "data": [
        {
            "id": 60650,
            "original_name": "Cybergeddon",
            "popularity": 3.155
        }
    ],
    "relations": [],
    "top20": [
        {
            "id": 60650,
            "original_name": "Cybergeddon",
            "popularity": 3.155
        }
    ]
}