{
    "data": [
        {
            "id": 37252,
            "original_name": "Berlinerpoplene",
            "popularity": 0.663
        },
        {
            "id": 40510,
            "original_name": "Berliner Schnauzen",
            "popularity": 0.6
        },
        {
            "id": 41251,
            "original_name": "Berliner Wei\u00dfe mit Schu\u00df",
            "popularity": 2.354
        }
    ],
    "relations": [],
    "top20": [
        {
            "id": 37252,
            "original_name": "Berlinerpoplene",
            "popularity": 0.663
        },
        {
            "id": 40510,
            "original_name": "Berliner Schnauzen",
            "popularity": 0.6
        },
        {
            "id": 41251,
            "original_name": "Berliner Wei\u00dfe mit Schu\u00df",
            "popularity": 2.354
        }
    ]
}