{
    "data": [
        {
            "id": 15991,
            "original_name": "D'\u00e6kke bare, bare Bernt",
            "popularity": 0.6
        }
    ],
    "relations": [],
    "top20": [
        {
            "id": 15991,
            "original_name": "D'\u00e6kke bare, bare Bernt",
            "popularity": 0.6
        }
    ]
}