{
    "data": [
        {
            "id": 69546,
            "original_name": "Ebersberg",
            "popularity": 0.6
        }
    ],
    "relations": [],
    "top20": [
        {
            "id": 69546,
            "original_name": "Ebersberg",
            "popularity": 0.6
        }
    ]
}