{
    "data": [
        {
            "id": 2785,
            "original_name": "Imbestigador",
            "popularity": 0.6
        },
        {
            "id": 8815,
            "original_name": "B&B: Bella y Bestia",
            "popularity": 0.6
        },
        {
            "id": 49083,
            "original_name": "Piekny i Bestia",
            "popularity": 0.6
        },
        {
            "id": 80241,
            "original_name": "La Bella y las Bestias",
            "popularity": 5.573
        },
        {
            "id": 84786,
            "original_name": "Besties",
            "popularity": 0.731
        },
        {
            "id": 89590,
            "original_name": "Bestioles Motel",
            "popularity": 0.6
        },
        {
            "id": 91348,
            "original_name": "The InBESTigators",
            "popularity": 7.362
        },
        {
            "id": 112898,
            "original_name": "Bestioles et cie",
            "popularity": 0.6
        },
        {
            "id": 114299,
            "original_name": "Bestie Picks Bae",
            "popularity": 0.6
        },
        {
            "id": 116467,
            "original_name": "Die Monster-J\u00e4ger - Bestien auf der Spur",
            "popularity": 0.6
        },
        {
            "id": 117814,
            "original_name": "Bestiales Animales",
            "popularity": 0.6
        }
    ],
    "relations": [],
    "top20": [
        {
            "id": 2785,
            "original_name": "Imbestigador",
            "popularity": 0.6
        },
        {
            "id": 8815,
            "original_name": "B&B: Bella y Bestia",
            "popularity": 0.6
        },
        {
            "id": 49083,
            "original_name": "Piekny i Bestia",
            "popularity": 0.6
        },
        {
            "id": 80241,
            "original_name": "La Bella y las Bestias",
            "popularity": 5.573
        },
        {
            "id": 84786,
            "original_name": "Besties",
            "popularity": 0.731
        },
        {
            "id": 89590,
            "original_name": "Bestioles Motel",
            "popularity": 0.6
        },
        {
            "id": 91348,
            "original_name": "The InBESTigators",
            "popularity": 7.362
        },
        {
            "id": 112898,
            "original_name": "Bestioles et cie",
            "popularity": 0.6
        },
        {
            "id": 114299,
            "original_name": "Bestie Picks Bae",
            "popularity": 0.6
        },
        {
            "id": 116467,
            "original_name": "Die Monster-J\u00e4ger - Bestien auf der Spur",
            "popularity": 0.6
        },
        {
            "id": 117814,
            "original_name": "Bestiales Animales",
            "popularity": 0.6
        }
    ]
}