{
    "data": [
        {
            "id": 50835,
            "original_name": "Egyenes Beszed",
            "popularity": 0.6
        },
        {
            "id": 55085,
            "original_name": "Mi\u00e9rt besz\u00e9l annyit Mrs. Piper?",
            "popularity": 0.6
        },
        {
            "id": 116102,
            "original_name": "Tesztbesz\u00e9d",
            "popularity": 1.143
        }
    ],
    "relations": [],
    "top20": [
        {
            "id": 50835,
            "original_name": "Egyenes Beszed",
            "popularity": 0.6
        },
        {
            "id": 55085,
            "original_name": "Mi\u00e9rt besz\u00e9l annyit Mrs. Piper?",
            "popularity": 0.6
        },
        {
            "id": 116102,
            "original_name": "Tesztbesz\u00e9d",
            "popularity": 1.143
        }
    ]
}