{
    "data": [
        {
            "id": 2575,
            "original_name": "Between Brothers",
            "popularity": 2.814
        },
        {
            "id": 2997,
            "original_name": "Between the Lines",
            "popularity": 8.385
        },
        {
            "id": 4302,
            "original_name": "Between the Lions",
            "popularity": 4.25
        },
        {
            "id": 6539,
            "original_name": "Between The Sheets",
            "popularity": 1.783
        },
        {
            "id": 7317,
            "original_name": "The Inbetweeners",
            "popularity": 16.574
        },
        {
            "id": 8772,
            "original_name": "Between Time and Timbuktu",
            "popularity": 0.6
        },
        {
            "id": 14246,
            "original_name": "Between the Lines Episode Guide",
            "popularity": 0.6
        },
        {
            "id": 18289,
            "original_name": "Between the Lines",
            "popularity": 0.6
        },
        {
            "id": 25638,
            "original_name": "Between Ourselves",
            "popularity": 0.6
        },
        {
            "id": 28265,
            "original_name": "Between the Wars",
            "popularity": 0.6
        },
        {
            "id": 28758,
            "original_name": "In Between",
            "popularity": 0.6
        },
        {
            "id": 31033,
            "original_name": "Ernie Kovacs: Between the Laughter",
            "popularity": 0.6
        },
        {
            "id": 31924,
            "original_name": "Between Love and Hatred",
            "popularity": 0.6
        },
        {
            "id": 36318,
            "original_name": "Between the Lines 2010",
            "popularity": 0.6
        },
        {
            "id": 38952,
            "original_name": "The Inbetweeners",
            "popularity": 5.121
        },
        {
            "id": 39754,
            "original_name": "Between Two Ferns with Zach Galifianakis",
            "popularity": 9.612
        },
        {
            "id": 41353,
            "original_name": "Reed Between the Lines",
            "popularity": 2.14
        },
        {
            "id": 41804,
            "original_name": "Between the Lines",
            "popularity": 0.6
        },
        {
            "id": 50003,
            "original_name": "The War Between the Tates",
            "popularity": 0.6
        },
        {
            "id": 56702,
            "original_name": "The Never-Ending Battle Between Mother-and-Daughter-in-Law",
            "popularity": 0.6
        },
        {
            "id": 56746,
            "original_name": "Between the Wars",
            "popularity": 0.6
        },
        {
            "id": 60517,
            "original_name": "The In-between World of M.G. Vassanji",
            "popularity": 0.6
        },
        {
            "id": 62433,
            "original_name": "Between",
            "popularity": 16.09
        },
        {
            "id": 70390,
            "original_name": "Somewhere Between",
            "popularity": 11.418
        },
        {
            "id": 78176,
            "original_name": "China: Between Clouds and Dreams",
            "popularity": 0.6
        },
        {
            "id": 81358,
            "original_name": "Mr Inbetween",
            "popularity": 18.049
        },
        {
            "id": 81947,
            "original_name": "The InBetween",
            "popularity": 9.833
        },
        {
            "id": 97342,
            "original_name": "Millie Inbetween",
            "popularity": 0.6
        },
        {
            "id": 106498,
            "original_name": "Between Two Worlds",
            "popularity": 1.96
        },
        {
            "id": 109365,
            "original_name": "Between Worlds",
            "popularity": 0.6
        },
        {
            "id": 110349,
            "original_name": "Brain Surgeons: Between Life and Death",
            "popularity": 0.6
        },
        {
            "id": 111311,
            "original_name": "Between the Covers",
            "popularity": 24.538
        },
        {
            "id": 116721,
            "original_name": "Between Black and Blue",
            "popularity": 1.005
        },
        {
            "id": 120188,
            "original_name": "Between Us",
            "popularity": 1.026
        },
        {
            "id": 122516,
            "original_name": "Between the Sheets",
            "popularity": 1.133
        },
        {
            "id": 135731,
            "original_name": "Poongryu - Battle Between the Vocalists",
            "popularity": 3.318
        },
        {
            "id": 135907,
            "original_name": "In Between Men",
            "popularity": 0.6
        },
        {
            "id": 137340,
            "original_name": "Just Between Us",
            "popularity": 0.628
        }
    ],
    "relations": [
        {
            "character": "betweene"
        }
    ],
    "top20": [
        {
            "id": 111311,
            "original_name": "Between the Covers",
            "popularity": 24.538
        },
        {
            "id": 81358,
            "original_name": "Mr Inbetween",
            "popularity": 18.049
        },
        {
            "id": 7317,
            "original_name": "The Inbetweeners",
            "popularity": 16.574
        },
        {
            "id": 62433,
            "original_name": "Between",
            "popularity": 16.09
        },
        {
            "id": 70390,
            "original_name": "Somewhere Between",
            "popularity": 11.418
        },
        {
            "id": 81947,
            "original_name": "The InBetween",
            "popularity": 9.833
        },
        {
            "id": 39754,
            "original_name": "Between Two Ferns with Zach Galifianakis",
            "popularity": 9.612
        },
        {
            "id": 2997,
            "original_name": "Between the Lines",
            "popularity": 8.385
        },
        {
            "id": 38952,
            "original_name": "The Inbetweeners",
            "popularity": 5.121
        },
        {
            "id": 4302,
            "original_name": "Between the Lions",
            "popularity": 4.25
        },
        {
            "id": 135731,
            "original_name": "Poongryu - Battle Between the Vocalists",
            "popularity": 3.318
        },
        {
            "id": 2575,
            "original_name": "Between Brothers",
            "popularity": 2.814
        },
        {
            "id": 41353,
            "original_name": "Reed Between the Lines",
            "popularity": 2.14
        },
        {
            "id": 106498,
            "original_name": "Between Two Worlds",
            "popularity": 1.96
        },
        {
            "id": 6539,
            "original_name": "Between The Sheets",
            "popularity": 1.783
        },
        {
            "id": 122516,
            "original_name": "Between the Sheets",
            "popularity": 1.133
        },
        {
            "id": 120188,
            "original_name": "Between Us",
            "popularity": 1.026
        },
        {
            "id": 116721,
            "original_name": "Between Black and Blue",
            "popularity": 1.005
        },
        {
            "id": 137340,
            "original_name": "Just Between Us",
            "popularity": 0.628
        },
        {
            "id": 8772,
            "original_name": "Between Time and Timbuktu",
            "popularity": 0.6
        }
    ]
}