{
    "data": [
        {
            "id": 3853,
            "original_name": "Palibhasa Lalake",
            "popularity": 0.6
        },
        {
            "id": 4165,
            "original_name": "Sarabhai vs Sarabhai",
            "popularity": 5.155
        },
        {
            "id": 8347,
            "original_name": "Annu Ki Ho Gayee Waah Bhai Waah",
            "popularity": 0.6
        },
        {
            "id": 12605,
            "original_name": "Mahabharat",
            "popularity": 5.036
        },
        {
            "id": 12606,
            "original_name": "The Mahabharata",
            "popularity": 0.84
        },
        {
            "id": 14310,
            "original_name": "Bhabhi",
            "popularity": 0.6
        },
        {
            "id": 15650,
            "original_name": "Mahabharat",
            "popularity": 0.6
        },
        {
            "id": 15662,
            "original_name": "Kahaani Hamaaray Mahaabhaarat Ki",
            "popularity": 1.592
        },
        {
            "id": 17987,
            "original_name": "Burey Bhi Hum Bhale Bhi Hum",
            "popularity": 0.6
        },
        {
            "id": 18301,
            "original_name": "Bharat Ek Khoj",
            "popularity": 1.597
        },
        {
            "id": 18460,
            "original_name": "Bhaskar Bharti",
            "popularity": 0.6
        },
        {
            "id": 21657,
            "original_name": "Bhaid",
            "popularity": 0.6
        },
        {
            "id": 31884,
            "original_name": "Bhagyavidhaata",
            "popularity": 0.6
        },
        {
            "id": 32353,
            "original_name": "Godh Bharaai",
            "popularity": 0.6
        },
        {
            "id": 33039,
            "original_name": "Palibhasa Sikat",
            "popularity": 0.6
        },
        {
            "id": 34446,
            "original_name": "Mutthi Bhar Mitti",
            "popularity": 0.6
        },
        {
            "id": 34616,
            "original_name": "Sapno Se Bhare Nena",
            "popularity": 0.6
        },
        {
            "id": 35000,
            "original_name": "Sapnon Se Bhare Naina",
            "popularity": 0.6
        },
        {
            "id": 38964,
            "original_name": "Bhagonwali-Baante Apni Taqdeer",
            "popularity": 0.6
        },
        {
            "id": 39093,
            "original_name": "Sambhav Asambhav",
            "popularity": 0.6
        },
        {
            "id": 39147,
            "original_name": "Rishton Ke Bhanwar Mein Uljhi Niyati",
            "popularity": 0.6
        },
        {
            "id": 39313,
            "original_name": "Neer Bhare Tere Naina Devi",
            "popularity": 0.84
        },
        {
            "id": 39527,
            "original_name": "Shobha Somnath Ki",
            "popularity": 0.84
        },
        {
            "id": 39915,
            "original_name": "Dwarkadheesh Bhagwaan Shree Krishn",
            "popularity": 0.6
        },
        {
            "id": 40347,
            "original_name": "Dwarkadheesh \u2013 Bhagwaan Shree Krishn",
            "popularity": 0.6
        },
        {
            "id": 40934,
            "original_name": "Zaban Sambhal ke",
            "popularity": 0.6
        },
        {
            "id": 41312,
            "original_name": "Zabaan Sambhal ke",
            "popularity": 0.6
        },
        {
            "id": 44817,
            "original_name": "Sose Thanda Sowbhagya",
            "popularity": 0.6
        },
        {
            "id": 45069,
            "original_name": "Bhai Bhaiya Aur Brother",
            "popularity": 0.6
        },
        {
            "id": 59041,
            "original_name": "Hero - Bhakti Hi Shakti Hai",
            "popularity": 11.259
        },
        {
            "id": 59351,
            "original_name": "India with Sanjeev Bhaskar",
            "popularity": 0.6
        },
        {
            "id": 59392,
            "original_name": "Bhaago KK Aaya",
            "popularity": 0.6
        },
        {
            "id": 60118,
            "original_name": "Bharat Ka Veer Putra \u2013 Maharana Pratap",
            "popularity": 0.62
        },
        {
            "id": 60550,
            "original_name": "Mahabharat",
            "popularity": 6.378
        },
        {
            "id": 65532,
            "original_name": "Woh Teri Bhabhi Hai Pagle",
            "popularity": 0.6
        },
        {
            "id": 68345,
            "original_name": "Gopal Bhar (Bengali)",
            "popularity": 0.6
        },
        {
            "id": 68980,
            "original_name": "Bhale Chance Le",
            "popularity": 0.6
        },
        {
            "id": 69789,
            "original_name": "Chinese Bhasad",
            "popularity": 1.148
        },
        {
            "id": 71734,
            "original_name": "Kumkum Bhagya",
            "popularity": 6.684
        },
        {
            "id": 72691,
            "original_name": "Yashodip Bhadane",
            "popularity": 0.6
        },
        {
            "id": 72778,
            "original_name": "Sarabhai vs Sarabhai Take 2",
            "popularity": 2.993
        },
        {
            "id": 74955,
            "original_name": "KAAL BHAIRAV",
            "popularity": 0.6
        },
        {
            "id": 75199,
            "original_name": "Kaal Bhairav Rahasya",
            "popularity": 1.882
        },
        {
            "id": 75244,
            "original_name": "Dil Sambhal Jaa Zara",
            "popularity": 1.351
        },
        {
            "id": 75282,
            "original_name": "Kundali Bhagya",
            "popularity": 6.984
        },
        {
            "id": 82991,
            "original_name": "Bharaghar",
            "popularity": 0.6
        },
        {
            "id": 83369,
            "original_name": "Zaban Sambhal Ke",
            "popularity": 0.895
        },
        {
            "id": 87324,
            "original_name": "Abhay",
            "popularity": 1.265
        },
        {
            "id": 89110,
            "original_name": "Bhai Bhai",
            "popularity": 0.6
        },
        {
            "id": 90754,
            "original_name": "Bharosa Pyar Tera",
            "popularity": 1.176
        },
        {
            "id": 90943,
            "original_name": "Manbhanjan",
            "popularity": 0.685
        },
        {
            "id": 93571,
            "original_name": "Piya Mann Bhaye",
            "popularity": 0.637
        },
        {
            "id": 93790,
            "original_name": "Bhakharwadi",
            "popularity": 0.6
        },
        {
            "id": 96074,
            "original_name": "Shubharambh",
            "popularity": 0.615
        },
        {
            "id": 96201,
            "original_name": "Ishq Subhan Allah",
            "popularity": 2.313
        },
        {
            "id": 97314,
            "original_name": "Zabaan Sambhal Ke",
            "popularity": 0.6
        },
        {
            "id": 98442,
            "original_name": "Virgin Bhasskar",
            "popularity": 0.6
        },
        {
            "id": 99292,
            "original_name": "Kavita Bhabhi",
            "popularity": 7.754
        },
        {
            "id": 100044,
            "original_name": "Pavitra Bhagya",
            "popularity": 0.6
        },
        {
            "id": 100732,
            "original_name": "Bhaukaal",
            "popularity": 1.563
        },
        {
            "id": 101054,
            "original_name": "Eungdabhara 1994",
            "popularity": 0.6
        },
        {
            "id": 104004,
            "original_name": "Bhalla Calling Bhalla",
            "popularity": 0.996
        },
        {
            "id": 104407,
            "original_name": "Seetha Vallabha",
            "popularity": 0.6
        },
        {
            "id": 105218,
            "original_name": "Rasbhari",
            "popularity": 1.4
        },
        {
            "id": 107609,
            "original_name": "Bhanwar",
            "popularity": 0.84
        },
        {
            "id": 111997,
            "original_name": "Mum Bhai",
            "popularity": 1.373
        },
        {
            "id": 114185,
            "original_name": "Bhaag Beanie Bhaag",
            "popularity": 1.702
        },
        {
            "id": 115765,
            "original_name": "Sumit Sambhal Lega",
            "popularity": 1.183
        },
        {
            "id": 116008,
            "original_name": "Mahabharat Katha",
            "popularity": 0.6
        },
        {
            "id": 119257,
            "original_name": "Pandeyji Zara Sambhalke",
            "popularity": 0.707
        },
        {
            "id": 119721,
            "original_name": "Sweety Bhabhi",
            "popularity": 0.6
        },
        {
            "id": 120017,
            "original_name": "Vande Bharat Flight IX 1344: Hope to Survival",
            "popularity": 0.6
        },
        {
            "id": 122117,
            "original_name": "PRABHA KI DIARY - S2 HONEYMOON SPECIAL",
            "popularity": 0.664
        },
        {
            "id": 122905,
            "original_name": "Mohini Bhabhi",
            "popularity": 1.278
        },
        {
            "id": 125008,
            "original_name": "Subharambha",
            "popularity": 0.927
        },
        {
            "id": 125695,
            "original_name": "Khoon Bhari Maang",
            "popularity": 0.6
        },
        {
            "id": 127052,
            "original_name": "Bhasudi",
            "popularity": 0.6
        },
        {
            "id": 128947,
            "original_name": "Nancy Bhabhi",
            "popularity": 0.84
        },
        {
            "id": 129322,
            "original_name": "Lollu Sabha",
            "popularity": 0.6
        },
        {
            "id": 129724,
            "original_name": "Shrimad Bhagwat Mahapuran",
            "popularity": 0.6
        },
        {
            "id": 129756,
            "original_name": "Chole Bhatoore",
            "popularity": 0.6
        },
        {
            "id": 130542,
            "original_name": "Bhagya Lakshmi",
            "popularity": 0.6
        },
        {
            "id": 131790,
            "original_name": "Jai Bhavani Jai Shivaji",
            "popularity": 0.6
        },
        {
            "id": 137068,
            "original_name": "Aur Bhai Kya Chal Raha Hai",
            "popularity": 0.6
        },
        {
            "id": 137507,
            "original_name": "Chacha Bhatija",
            "popularity": 0.6
        }
    ],
    "relations": [
        {
            "character": "bhas"
        },
        {
            "character": "bhai"
        },
        {
            "character": "bhar"
        },
        {
            "character": "bhab"
        },
        {
            "character": "bhaa"
        },
        {
            "character": "bhal"
        },
        {
            "character": "bhag"
        },
        {
            "character": "bhav"
        },
        {
            "character": "bhan"
        },
        {
            "character": "bhak"
        },
        {
            "character": "bhad"
        },
        {
            "character": "bhay"
        },
        {
            "character": "bhau"
        },
        {
            "character": "bhat"
        }
    ],
    "top20": [
        {
            "id": 59041,
            "original_name": "Hero - Bhakti Hi Shakti Hai",
            "popularity": 11.259
        },
        {
            "id": 99292,
            "original_name": "Kavita Bhabhi",
            "popularity": 7.754
        },
        {
            "id": 75282,
            "original_name": "Kundali Bhagya",
            "popularity": 6.984
        },
        {
            "id": 71734,
            "original_name": "Kumkum Bhagya",
            "popularity": 6.684
        },
        {
            "id": 60550,
            "original_name": "Mahabharat",
            "popularity": 6.378
        },
        {
            "id": 4165,
            "original_name": "Sarabhai vs Sarabhai",
            "popularity": 5.155
        },
        {
            "id": 12605,
            "original_name": "Mahabharat",
            "popularity": 5.036
        },
        {
            "id": 72778,
            "original_name": "Sarabhai vs Sarabhai Take 2",
            "popularity": 2.993
        },
        {
            "id": 96201,
            "original_name": "Ishq Subhan Allah",
            "popularity": 2.313
        },
        {
            "id": 75199,
            "original_name": "Kaal Bhairav Rahasya",
            "popularity": 1.882
        },
        {
            "id": 114185,
            "original_name": "Bhaag Beanie Bhaag",
            "popularity": 1.702
        },
        {
            "id": 18301,
            "original_name": "Bharat Ek Khoj",
            "popularity": 1.597
        },
        {
            "id": 15662,
            "original_name": "Kahaani Hamaaray Mahaabhaarat Ki",
            "popularity": 1.592
        },
        {
            "id": 100732,
            "original_name": "Bhaukaal",
            "popularity": 1.563
        },
        {
            "id": 105218,
            "original_name": "Rasbhari",
            "popularity": 1.4
        },
        {
            "id": 111997,
            "original_name": "Mum Bhai",
            "popularity": 1.373
        },
        {
            "id": 75244,
            "original_name": "Dil Sambhal Jaa Zara",
            "popularity": 1.351
        },
        {
            "id": 122905,
            "original_name": "Mohini Bhabhi",
            "popularity": 1.278
        },
        {
            "id": 87324,
            "original_name": "Abhay",
            "popularity": 1.265
        },
        {
            "id": 115765,
            "original_name": "Sumit Sambhal Lega",
            "popularity": 1.183
        }
    ]
}