{
    "data": [
        {
            "id": 34616,
            "original_name": "Sapno Se Bhare Nena",
            "popularity": 0.6
        },
        {
            "id": 35000,
            "original_name": "Sapnon Se Bhare Naina",
            "popularity": 0.6
        },
        {
            "id": 39313,
            "original_name": "Neer Bhare Tere Naina Devi",
            "popularity": 0.84
        }
    ],
    "relations": [],
    "top20": [
        {
            "id": 34616,
            "original_name": "Sapno Se Bhare Nena",
            "popularity": 0.6
        },
        {
            "id": 35000,
            "original_name": "Sapnon Se Bhare Naina",
            "popularity": 0.6
        },
        {
            "id": 39313,
            "original_name": "Neer Bhare Tere Naina Devi",
            "popularity": 0.84
        }
    ]
}