{
    "data": [
        {
            "id": 8204,
            "original_name": "Koj saka da bide milioner?",
            "popularity": 0.6
        },
        {
            "id": 77492,
            "original_name": "Kutsidazu bidea, Ixabel",
            "popularity": 0.636
        }
    ],
    "relations": [],
    "top20": [
        {
            "id": 8204,
            "original_name": "Koj saka da bide milioner?",
            "popularity": 0.6
        },
        {
            "id": 77492,
            "original_name": "Kutsidazu bidea, Ixabel",
            "popularity": 0.636
        }
    ]
}