{
    "data": [
        {
            "id": 579,
            "original_name": "The Biggest Loser",
            "popularity": 4.123
        },
        {
            "id": 3008,
            "original_name": "100 Biggest Weather Moments",
            "popularity": 0.6
        },
        {
            "id": 3170,
            "original_name": "The Biggest Loser Australia",
            "popularity": 1.248
        },
        {
            "id": 6391,
            "original_name": "Breaking the Magician's Code: Magic's Biggest Secrets Finally Revealed",
            "popularity": 7.415
        },
        {
            "id": 9057,
            "original_name": "The Biggest Loser: Special Edition",
            "popularity": 0.6
        },
        {
            "id": 15335,
            "original_name": "Biggest Loser Jeetega",
            "popularity": 0.6
        },
        {
            "id": 16256,
            "original_name": "The Biggest Loser (UK)",
            "popularity": 0.728
        },
        {
            "id": 25493,
            "original_name": "The Biggest Loser",
            "popularity": 0.6
        },
        {
            "id": 28288,
            "original_name": "Big, Bigger, Biggest",
            "popularity": 1.042
        },
        {
            "id": 30919,
            "original_name": "The Biggest Loser South Africa",
            "popularity": 0.6
        },
        {
            "id": 31045,
            "original_name": "Windscale: Britain\u2019s Biggest Nuclear Disaster",
            "popularity": 0.6
        },
        {
            "id": 31317,
            "original_name": "The Biggest Winner",
            "popularity": 0.6
        },
        {
            "id": 31498,
            "original_name": "The Biggest Winner Arab: Couples",
            "popularity": 0.6
        },
        {
            "id": 31773,
            "original_name": "The Biggest Loser Asia",
            "popularity": 0.6
        },
        {
            "id": 32554,
            "original_name": "The Biggest Loser",
            "popularity": 2.725
        },
        {
            "id": 33046,
            "original_name": "The Biggest Loser Pinoy Edition",
            "popularity": 0.6
        },
        {
            "id": 37945,
            "original_name": "Breaking Up The Biggest",
            "popularity": 0.6
        },
        {
            "id": 41952,
            "original_name": "The Biggest Winner Arab",
            "popularity": 0.6
        },
        {
            "id": 49286,
            "original_name": "Biggest Loser Sverige",
            "popularity": 8.149
        },
        {
            "id": 51491,
            "original_name": "Britain's Biggest Hoarders",
            "popularity": 0.6
        },
        {
            "id": 70109,
            "original_name": "Britain's Biggest Armed Robbery",
            "popularity": 0.6
        },
        {
            "id": 70587,
            "original_name": "World's Biggest Ship",
            "popularity": 0.6
        },
        {
            "id": 73733,
            "original_name": "Biggest loser VIP Sverige",
            "popularity": 1.351
        },
        {
            "id": 74211,
            "original_name": "Biggest Deal",
            "popularity": 1.42
        },
        {
            "id": 78611,
            "original_name": "Chinese New Year: The Biggest Celebration on Earth",
            "popularity": 0.6
        },
        {
            "id": 78733,
            "original_name": "Britain's Biggest Warship",
            "popularity": 0.6
        },
        {
            "id": 80330,
            "original_name": "The Biggest Weekend",
            "popularity": 1.473
        },
        {
            "id": 95917,
            "original_name": "Biggest Little Cook-Off",
            "popularity": 0.6
        },
        {
            "id": 103587,
            "original_name": "Britain's Biggest Adventures with Bear Grylls",
            "popularity": 1.103
        },
        {
            "id": 110733,
            "original_name": "Britain's Biggest Dig",
            "popularity": 0.84
        },
        {
            "id": 110778,
            "original_name": "British History's Biggest Fibs with Lucy Worsley",
            "popularity": 0.6
        },
        {
            "id": 110846,
            "original_name": "Royal History's Biggest Fibs with Lucy Worsley",
            "popularity": 0.638
        },
        {
            "id": 110874,
            "original_name": "American History's Biggest Fibs with Lucy Worsley",
            "popularity": 0.857
        },
        {
            "id": 112272,
            "original_name": "Your Biggest Fan",
            "popularity": 0.6
        },
        {
            "id": 113981,
            "original_name": "Biggest Little Christmas Showdown",
            "popularity": 0.6
        },
        {
            "id": 120582,
            "original_name": "This Is a Robbery: The World's Biggest Art Heist",
            "popularity": 3.947
        },
        {
            "id": 120925,
            "original_name": "World's Biggest Shipbuilders",
            "popularity": 0.6
        },
        {
            "id": 127165,
            "original_name": "Building Britain's Biggest Nuclear Power Station",
            "popularity": 1.063
        },
        {
            "id": 135963,
            "original_name": "Dickinson's Biggest and Best Deals",
            "popularity": 0.6
        },
        {
            "id": 136163,
            "original_name": "The Biggest Loser - Family Power Couples",
            "popularity": 0.6
        },
        {
            "id": 136165,
            "original_name": "The Biggest Loser TEENS",
            "popularity": 0.6
        },
        {
            "id": 138324,
            "original_name": "Biggest and Baddest",
            "popularity": 0.6
        },
        {
            "id": 138567,
            "original_name": "Britain's Biggest 70s Hits",
            "popularity": 11.316
        },
        {
            "id": 139578,
            "original_name": "Bollywood: The World's Biggest Film Industry",
            "popularity": 0.604
        }
    ],
    "relations": [],
    "top20": [
        {
            "id": 138567,
            "original_name": "Britain's Biggest 70s Hits",
            "popularity": 11.316
        },
        {
            "id": 49286,
            "original_name": "Biggest Loser Sverige",
            "popularity": 8.149
        },
        {
            "id": 6391,
            "original_name": "Breaking the Magician's Code: Magic's Biggest Secrets Finally Revealed",
            "popularity": 7.415
        },
        {
            "id": 579,
            "original_name": "The Biggest Loser",
            "popularity": 4.123
        },
        {
            "id": 120582,
            "original_name": "This Is a Robbery: The World's Biggest Art Heist",
            "popularity": 3.947
        },
        {
            "id": 32554,
            "original_name": "The Biggest Loser",
            "popularity": 2.725
        },
        {
            "id": 80330,
            "original_name": "The Biggest Weekend",
            "popularity": 1.473
        },
        {
            "id": 74211,
            "original_name": "Biggest Deal",
            "popularity": 1.42
        },
        {
            "id": 73733,
            "original_name": "Biggest loser VIP Sverige",
            "popularity": 1.351
        },
        {
            "id": 3170,
            "original_name": "The Biggest Loser Australia",
            "popularity": 1.248
        },
        {
            "id": 103587,
            "original_name": "Britain's Biggest Adventures with Bear Grylls",
            "popularity": 1.103
        },
        {
            "id": 127165,
            "original_name": "Building Britain's Biggest Nuclear Power Station",
            "popularity": 1.063
        },
        {
            "id": 28288,
            "original_name": "Big, Bigger, Biggest",
            "popularity": 1.042
        },
        {
            "id": 110874,
            "original_name": "American History's Biggest Fibs with Lucy Worsley",
            "popularity": 0.857
        },
        {
            "id": 110733,
            "original_name": "Britain's Biggest Dig",
            "popularity": 0.84
        },
        {
            "id": 16256,
            "original_name": "The Biggest Loser (UK)",
            "popularity": 0.728
        },
        {
            "id": 110846,
            "original_name": "Royal History's Biggest Fibs with Lucy Worsley",
            "popularity": 0.638
        },
        {
            "id": 139578,
            "original_name": "Bollywood: The World's Biggest Film Industry",
            "popularity": 0.604
        },
        {
            "id": 3008,
            "original_name": "100 Biggest Weather Moments",
            "popularity": 0.6
        },
        {
            "id": 9057,
            "original_name": "The Biggest Loser: Special Edition",
            "popularity": 0.6
        }
    ]
}