{
    "data": [
        {
            "id": 17118,
            "original_name": "Bikkuriman 2000",
            "popularity": 1.101
        },
        {
            "id": 71264,
            "original_name": "Bibik Bibikku",
            "popularity": 0.655
        },
        {
            "id": 79463,
            "original_name": "\u5c0f\u3055\u306a\u30d0\u30a4\u30ad\u30f3\u30b0\u30d3\u30c3\u30b1, Chiisana Baikingu Bikke",
            "popularity": 0.6
        }
    ],
    "relations": [],
    "top20": [
        {
            "id": 17118,
            "original_name": "Bikkuriman 2000",
            "popularity": 1.101
        },
        {
            "id": 71264,
            "original_name": "Bibik Bibikku",
            "popularity": 0.655
        },
        {
            "id": 79463,
            "original_name": "\u5c0f\u3055\u306a\u30d0\u30a4\u30ad\u30f3\u30b0\u30d3\u30c3\u30b1, Chiisana Baikingu Bikke",
            "popularity": 0.6
        }
    ]
}