{
    "data": [
        {
            "id": 37988,
            "original_name": "Daria, Iubirea Mea",
            "popularity": 0.6
        },
        {
            "id": 50118,
            "original_name": "Numai iubirea",
            "popularity": 0.6
        },
        {
            "id": 53532,
            "original_name": "Lacrimi de iubire",
            "popularity": 1.12
        },
        {
            "id": 56678,
            "original_name": "Iubire ca \u00een filme",
            "popularity": 0.6
        },
        {
            "id": 70859,
            "original_name": "Iubire \u0219i Onoare",
            "popularity": 0.633
        }
    ],
    "relations": [],
    "top20": [
        {
            "id": 37988,
            "original_name": "Daria, Iubirea Mea",
            "popularity": 0.6
        },
        {
            "id": 50118,
            "original_name": "Numai iubirea",
            "popularity": 0.6
        },
        {
            "id": 53532,
            "original_name": "Lacrimi de iubire",
            "popularity": 1.12
        },
        {
            "id": 56678,
            "original_name": "Iubire ca \u00een filme",
            "popularity": 0.6
        },
        {
            "id": 70859,
            "original_name": "Iubire \u0219i Onoare",
            "popularity": 0.633
        }
    ]
}