{
    "data": [
        {
            "id": 126182,
            "original_name": "Blackville",
            "popularity": 0.6
        }
    ],
    "relations": [],
    "top20": [
        {
            "id": 126182,
            "original_name": "Blackville",
            "popularity": 0.6
        }
    ]
}