{
    "data": [
        {
            "id": 1316,
            "original_name": "Blankety Blanks",
            "popularity": 0.6
        },
        {
            "id": 4261,
            "original_name": "Blankety Blank",
            "popularity": 4.051
        },
        {
            "id": 9208,
            "original_name": "Blankety Blanks",
            "popularity": 0.6
        },
        {
            "id": 10427,
            "original_name": "Blankety Blanks",
            "popularity": 0.623
        },
        {
            "id": 11788,
            "original_name": "Blank Check",
            "popularity": 0.6
        },
        {
            "id": 12318,
            "original_name": "Point Blank",
            "popularity": 0.6
        },
        {
            "id": 36432,
            "original_name": "Blanke Ark",
            "popularity": 0.6
        },
        {
            "id": 39233,
            "original_name": "The Blanks Video",
            "popularity": 0.6
        },
        {
            "id": 41300,
            "original_name": "Blankenese",
            "popularity": 0.966
        },
        {
            "id": 55857,
            "original_name": "Blank Canvas With Shaynna Blaze",
            "popularity": 0.6
        },
        {
            "id": 62014,
            "original_name": "Die Koblanks",
            "popularity": 1.34
        },
        {
            "id": 67617,
            "original_name": "Blank on Blank",
            "popularity": 1.425
        },
        {
            "id": 71258,
            "original_name": "Blank Meier Jensen",
            "popularity": 1.009
        },
        {
            "id": 81634,
            "original_name": "Blank",
            "popularity": 0.6
        },
        {
            "id": 83203,
            "original_name": "Four in a Blanket",
            "popularity": 1.133
        },
        {
            "id": 116185,
            "original_name": "Inspecteur Le Blanko",
            "popularity": 1.597
        },
        {
            "id": 136009,
            "original_name": "Blankety Blank",
            "popularity": 8.164
        },
        {
            "id": 138605,
            "original_name": "Wigs in a Blanket",
            "popularity": 0.6
        }
    ],
    "relations": [],
    "top20": [
        {
            "id": 1316,
            "original_name": "Blankety Blanks",
            "popularity": 0.6
        },
        {
            "id": 4261,
            "original_name": "Blankety Blank",
            "popularity": 4.051
        },
        {
            "id": 9208,
            "original_name": "Blankety Blanks",
            "popularity": 0.6
        },
        {
            "id": 10427,
            "original_name": "Blankety Blanks",
            "popularity": 0.623
        },
        {
            "id": 11788,
            "original_name": "Blank Check",
            "popularity": 0.6
        },
        {
            "id": 12318,
            "original_name": "Point Blank",
            "popularity": 0.6
        },
        {
            "id": 36432,
            "original_name": "Blanke Ark",
            "popularity": 0.6
        },
        {
            "id": 39233,
            "original_name": "The Blanks Video",
            "popularity": 0.6
        },
        {
            "id": 41300,
            "original_name": "Blankenese",
            "popularity": 0.966
        },
        {
            "id": 55857,
            "original_name": "Blank Canvas With Shaynna Blaze",
            "popularity": 0.6
        },
        {
            "id": 62014,
            "original_name": "Die Koblanks",
            "popularity": 1.34
        },
        {
            "id": 67617,
            "original_name": "Blank on Blank",
            "popularity": 1.425
        },
        {
            "id": 71258,
            "original_name": "Blank Meier Jensen",
            "popularity": 1.009
        },
        {
            "id": 81634,
            "original_name": "Blank",
            "popularity": 0.6
        },
        {
            "id": 83203,
            "original_name": "Four in a Blanket",
            "popularity": 1.133
        },
        {
            "id": 116185,
            "original_name": "Inspecteur Le Blanko",
            "popularity": 1.597
        },
        {
            "id": 136009,
            "original_name": "Blankety Blank",
            "popularity": 8.164
        },
        {
            "id": 138605,
            "original_name": "Wigs in a Blanket",
            "popularity": 0.6
        }
    ]
}