{
    "data": [
        {
            "id": 134934,
            "original_name": "Backyard Blowout",
            "popularity": 4.278
        }
    ],
    "relations": [],
    "top20": [
        {
            "id": 134934,
            "original_name": "Backyard Blowout",
            "popularity": 4.278
        }
    ]
}