{
    "data": [
        {
            "id": 1823,
            "original_name": "The Love Boat",
            "popularity": 96.644
        },
        {
            "id": 1621,
            "original_name": "Boardwalk Empire",
            "popularity": 25.765
        },
        {
            "id": 61692,
            "original_name": "Fresh Off the Boat",
            "popularity": 24.195
        },
        {
            "id": 91185,
            "original_name": "Riverboat",
            "popularity": 16.929
        },
        {
            "id": 14105,
            "original_name": "Riverboat",
            "popularity": 10.046
        },
        {
            "id": 9772,
            "original_name": "Love Boat: The Next Wave",
            "popularity": 6.236
        },
        {
            "id": 94421,
            "original_name": "Zomboat!",
            "popularity": 6.17
        },
        {
            "id": 95881,
            "original_name": "N\u00e9boa",
            "popularity": 5.146
        },
        {
            "id": 2678,
            "original_name": "When the Boat Comes In",
            "popularity": 3.023
        },
        {
            "id": 40195,
            "original_name": "Mist\u00e9rios de Lisboa",
            "popularity": 2.821
        },
        {
            "id": 86404,
            "original_name": "Target: Billboard - KILL BILL",
            "popularity": 2.544
        },
        {
            "id": 14122,
            "original_name": "The Baileys of Balboa",
            "popularity": 2.531
        },
        {
            "id": 60718,
            "original_name": "Board James",
            "popularity": 2.227
        },
        {
            "id": 22489,
            "original_name": "Is Harry On The Boat?",
            "popularity": 2.009
        },
        {
            "id": 112726,
            "original_name": "Marvel's Storyboards",
            "popularity": 1.761
        },
        {
            "id": 70448,
            "original_name": "Boarding House No. 24",
            "popularity": 1.733
        },
        {
            "id": 38052,
            "original_name": "The Lifeboat",
            "popularity": 1.535
        },
        {
            "id": 28153,
            "original_name": "Welcome Aboard",
            "popularity": 1.4
        },
        {
            "id": 55713,
            "original_name": "Old Jack's Boat",
            "popularity": 1.368
        },
        {
            "id": 84461,
            "original_name": "Across the Board",
            "popularity": 1.264
        },
        {
            "id": 3160,
            "original_name": "Theodore Tugboat",
            "popularity": 1.256
        },
        {
            "id": 114341,
            "original_name": "Beer and Board Games",
            "popularity": 1.149
        },
        {
            "id": 91080,
            "original_name": "Murder Board",
            "popularity": 1.067
        },
        {
            "id": 146109,
            "original_name": "Onda Boa com Ivete",
            "popularity": 0.96
        },
        {
            "id": 29719,
            "original_name": "Don't Rock The Boat",
            "popularity": 0.958
        },
        {
            "id": 177911,
            "original_name": "\u7ade\u535aJBOapp\u4e0b\u8f7d\u3010\u7f54\u82b7jy01,cc\u3011_\u767e\u5ea6\u77e5\u9053a",
            "popularity": 0.765
        },
        {
            "id": 1234,
            "original_name": "Clapperboard",
            "popularity": 0.6
        },
        {
            "id": 1262,
            "original_name": "Patrol Boat",
            "popularity": 0.6
        },
        {
            "id": 3094,
            "original_name": "College Scoreboard",
            "popularity": 0.6
        },
        {
            "id": 11291,
            "original_name": "The Adventures of Tugboat Annie",
            "popularity": 0.6
        },
        {
            "id": 11363,
            "original_name": "NFL Scoreboard",
            "popularity": 0.6
        },
        {
            "id": 12283,
            "original_name": "The Lyrics Board",
            "popularity": 0.6
        },
        {
            "id": 14476,
            "original_name": "Captain 11's Showboat",
            "popularity": 0.6
        },
        {
            "id": 17712,
            "original_name": "Lifeboat Luke",
            "popularity": 0.6
        },
        {
            "id": 18239,
            "original_name": "Dada Boat",
            "popularity": 0.6
        },
        {
            "id": 20129,
            "original_name": "Ferry Boat Fred",
            "popularity": 0.6
        },
        {
            "id": 20881,
            "original_name": "The Boat Show",
            "popularity": 0.6
        },
        {
            "id": 22214,
            "original_name": "Storyboard",
            "popularity": 0.6
        },
        {
            "id": 23064,
            "original_name": "On Board Air Force One",
            "popularity": 0.6
        },
        {
            "id": 24424,
            "original_name": "Boarding House: North Shore",
            "popularity": 0.6
        },
        {
            "id": 25291,
            "original_name": "The Skateboard Show",
            "popularity": 0.6
        },
        {
            "id": 26099,
            "original_name": "Slow Boat From Surabaya",
            "popularity": 0.6
        },
        {
            "id": 26282,
            "original_name": "Russ Hodges' Scoreboard",
            "popularity": 0.6
        },
        {
            "id": 26456,
            "original_name": "All Aboard",
            "popularity": 0.6
        },
        {
            "id": 28562,
            "original_name": "Chequerboard",
            "popularity": 0.6
        },
        {
            "id": 28563,
            "original_name": "The Ballad Of Riverboat Bill",
            "popularity": 0.6
        },
        {
            "id": 29137,
            "original_name": "The King's Cupboard",
            "popularity": 0.6
        },
        {
            "id": 29431,
            "original_name": "Across The Board",
            "popularity": 0.6
        },
        {
            "id": 29612,
            "original_name": "NRL Scoreboard",
            "popularity": 0.6
        },
        {
            "id": 29694,
            "original_name": "Rock the Boat",
            "popularity": 0.6
        },
        {
            "id": 34211,
            "original_name": "House of Boateng",
            "popularity": 0.6
        },
        {
            "id": 34389,
            "original_name": "Three Men in a Boat",
            "popularity": 0.6
        },
        {
            "id": 36443,
            "original_name": "Skateboard Street League",
            "popularity": 0.6
        },
        {
            "id": 38059,
            "original_name": "Britain's Youngest Boarders",
            "popularity": 0.6
        },
        {
            "id": 38765,
            "original_name": "The Boat that Guy Built",
            "popularity": 0.6
        },
        {
            "id": 40339,
            "original_name": "Blackboard Jungle",
            "popularity": 0.6
        },
        {
            "id": 41534,
            "original_name": "The Standard Snowboard Show",
            "popularity": 0.6
        },
        {
            "id": 44151,
            "original_name": "Boardwalk & Baseball's Super Bowl of Sports Trivia",
            "popularity": 0.6
        },
        {
            "id": 47475,
            "original_name": "The Boat Race",
            "popularity": 0.6
        },
        {
            "id": 47753,
            "original_name": "The Last African Flying Boat",
            "popularity": 0.6
        },
        {
            "id": 49175,
            "original_name": "Billboard Music Awards",
            "popularity": 0.6
        },
        {
            "id": 49304,
            "original_name": "One Planet - All Aboard",
            "popularity": 0.6
        },
        {
            "id": 52124,
            "original_name": "Extreme Houseboats",
            "popularity": 0.6
        },
        {
            "id": 52519,
            "original_name": "Wagaa AlBoaad",
            "popularity": 0.6
        },
        {
            "id": 54498,
            "original_name": "Bikinis & Boardwalks",
            "popularity": 0.6
        },
        {
            "id": 54615,
            "original_name": "Narrowboat Afloat",
            "popularity": 0.6
        },
        {
            "id": 54934,
            "original_name": "Apollo 14 Recovery Aboard The USS New Orleans",
            "popularity": 0.6
        },
        {
            "id": 55595,
            "original_name": "Geordies Overboard",
            "popularity": 0.6
        },
        {
            "id": 57108,
            "original_name": "Blackboard Wars",
            "popularity": 0.6
        },
        {
            "id": 57773,
            "original_name": "Storyboard",
            "popularity": 0.6
        },
        {
            "id": 59519,
            "original_name": "On the Boardwalk with Paul Whiteman",
            "popularity": 0.6
        },
        {
            "id": 59564,
            "original_name": "The King's Cupboard",
            "popularity": 0.6
        },
        {
            "id": 59635,
            "original_name": "Showboaters",
            "popularity": 0.6
        },
        {
            "id": 61052,
            "original_name": "Fresh Off the Boat",
            "popularity": 0.6
        },
        {
            "id": 61887,
            "original_name": "Rock This Boat: New Kids on the Block",
            "popularity": 0.6
        },
        {
            "id": 70291,
            "original_name": "Boat Buyers",
            "popularity": 0.6
        },
        {
            "id": 73416,
            "original_name": "Boat Masters",
            "popularity": 0.6
        },
        {
            "id": 76460,
            "original_name": "The 12,000 Bottle boat",
            "popularity": 0.6
        },
        {
            "id": 77528,
            "original_name": "The Yorkshire Steam Railway: All Aboard",
            "popularity": 0.6
        },
        {
            "id": 82880,
            "original_name": "Building an 8-bit breadboard computer!",
            "popularity": 0.6
        },
        {
            "id": 85270,
            "original_name": "All Aboard - Dentro da Eurovis\u00e3o 2018",
            "popularity": 0.6
        },
        {
            "id": 87596,
            "original_name": "On Board",
            "popularity": 0.6
        },
        {
            "id": 96315,
            "original_name": "Submarine: Steel Boats, Iron Men",
            "popularity": 0.6
        },
        {
            "id": 112585,
            "original_name": "Don't Rock the Boat",
            "popularity": 0.6
        },
        {
            "id": 113726,
            "original_name": "U-Boats Hitler's Sharks",
            "popularity": 0.6
        },
        {
            "id": 114884,
            "original_name": "Canal Boat Diaries",
            "popularity": 0.6
        },
        {
            "id": 123702,
            "original_name": "Murders at The Boarding House",
            "popularity": 0.6
        },
        {
            "id": 129345,
            "original_name": "Weekender: Boat Party",
            "popularity": 0.6
        },
        {
            "id": 129824,
            "original_name": "The Boats That Built Britain",
            "popularity": 0.6
        },
        {
            "id": 129918,
            "original_name": "Motherboard",
            "popularity": 0.6
        },
        {
            "id": 130666,
            "original_name": "The Love Boat",
            "popularity": 0.6
        },
        {
            "id": 130667,
            "original_name": "The Love Boat II",
            "popularity": 0.6
        },
        {
            "id": 130668,
            "original_name": "The New Love Boat",
            "popularity": 0.6
        },
        {
            "id": 132956,
            "original_name": "Lisboa Azul",
            "popularity": 0.6
        },
        {
            "id": 138908,
            "original_name": "Solteira e Boa Rapariga",
            "popularity": 0.6
        },
        {
            "id": 139672,
            "original_name": "Boa Sorte Viajante",
            "popularity": 0.6
        }
    ],
    "relations": [
        {
            "character": "boar"
        },
        {
            "character": "boat"
        },
        {
            "character": "boaa"
        }
    ],
    "top20": [
        {
            "id": 1823,
            "original_name": "The Love Boat",
            "popularity": 96.644
        },
        {
            "id": 1621,
            "original_name": "Boardwalk Empire",
            "popularity": 25.765
        },
        {
            "id": 61692,
            "original_name": "Fresh Off the Boat",
            "popularity": 24.195
        },
        {
            "id": 91185,
            "original_name": "Riverboat",
            "popularity": 16.929
        },
        {
            "id": 14105,
            "original_name": "Riverboat",
            "popularity": 10.046
        },
        {
            "id": 9772,
            "original_name": "Love Boat: The Next Wave",
            "popularity": 6.236
        },
        {
            "id": 94421,
            "original_name": "Zomboat!",
            "popularity": 6.17
        },
        {
            "id": 95881,
            "original_name": "N\u00e9boa",
            "popularity": 5.146
        },
        {
            "id": 2678,
            "original_name": "When the Boat Comes In",
            "popularity": 3.023
        },
        {
            "id": 40195,
            "original_name": "Mist\u00e9rios de Lisboa",
            "popularity": 2.821
        },
        {
            "id": 86404,
            "original_name": "Target: Billboard - KILL BILL",
            "popularity": 2.544
        },
        {
            "id": 14122,
            "original_name": "The Baileys of Balboa",
            "popularity": 2.531
        },
        {
            "id": 60718,
            "original_name": "Board James",
            "popularity": 2.227
        },
        {
            "id": 22489,
            "original_name": "Is Harry On The Boat?",
            "popularity": 2.009
        },
        {
            "id": 112726,
            "original_name": "Marvel's Storyboards",
            "popularity": 1.761
        },
        {
            "id": 70448,
            "original_name": "Boarding House No. 24",
            "popularity": 1.733
        },
        {
            "id": 38052,
            "original_name": "The Lifeboat",
            "popularity": 1.535
        },
        {
            "id": 28153,
            "original_name": "Welcome Aboard",
            "popularity": 1.4
        },
        {
            "id": 55713,
            "original_name": "Old Jack's Boat",
            "popularity": 1.368
        },
        {
            "id": 84461,
            "original_name": "Across the Board",
            "popularity": 1.264
        }
    ]
}