{
    "data": [
        {
            "id": 1767,
            "original_name": "Bobby's World",
            "popularity": 9.334
        },
        {
            "id": 1859,
            "original_name": "Jack & Bobby",
            "popularity": 8.012
        },
        {
            "id": 9988,
            "original_name": "Bobby Jones Gospel",
            "popularity": 0.62
        },
        {
            "id": 11070,
            "original_name": "Being Bobby Brown",
            "popularity": 0.663
        },
        {
            "id": 11600,
            "original_name": "Throwdown! with Bobby Flay",
            "popularity": 1.932
        },
        {
            "id": 12344,
            "original_name": "Bobby Dazzler",
            "popularity": 0.6
        },
        {
            "id": 12366,
            "original_name": "BBQ with Bobby Flay",
            "popularity": 0.968
        },
        {
            "id": 14207,
            "original_name": "Uncle Bobby",
            "popularity": 0.6
        },
        {
            "id": 19075,
            "original_name": "The Bobby Vinton Show",
            "popularity": 0.6
        },
        {
            "id": 21839,
            "original_name": "The Bobby Darin Show",
            "popularity": 1.352
        },
        {
            "id": 22716,
            "original_name": "The Bobby Limb Show",
            "popularity": 0.6
        },
        {
            "id": 23018,
            "original_name": "Bobby Limb's Sound Of Music",
            "popularity": 0.6
        },
        {
            "id": 23929,
            "original_name": "The Bobby Goldsboro Show",
            "popularity": 0.6
        },
        {
            "id": 24003,
            "original_name": "FoodNation With Bobby Flay",
            "popularity": 0.6
        },
        {
            "id": 27307,
            "original_name": "The Bobby Heenan Show",
            "popularity": 1.35
        },
        {
            "id": 30150,
            "original_name": "Grill It! with Bobby Flay",
            "popularity": 0.6
        },
        {
            "id": 30298,
            "original_name": "Bobby Davro On The Box",
            "popularity": 0.6
        },
        {
            "id": 30399,
            "original_name": "Bobby Davro's TV Weekly",
            "popularity": 0.6
        },
        {
            "id": 30478,
            "original_name": "Bobby Davro: Rock With Laughter",
            "popularity": 0.6
        },
        {
            "id": 39751,
            "original_name": "Brunch @ Bobby's",
            "popularity": 0.6
        },
        {
            "id": 41776,
            "original_name": "Vinnie & Bobby",
            "popularity": 1.029
        },
        {
            "id": 43001,
            "original_name": "Bobby Flay's Barbecue Addiction",
            "popularity": 0.6
        },
        {
            "id": 43554,
            "original_name": "Bobby Darin: The Darin Invasion",
            "popularity": 1.09
        },
        {
            "id": 45586,
            "original_name": "Hot Off the Grill with Bobby Flay",
            "popularity": 0.6
        },
        {
            "id": 55705,
            "original_name": "Bobby's Dinner Battle",
            "popularity": 0.6
        },
        {
            "id": 58261,
            "original_name": "The Bobby Limb Show",
            "popularity": 0.6
        },
        {
            "id": 58639,
            "original_name": "3 Days to Open with Bobby Flay",
            "popularity": 0.6
        },
        {
            "id": 62481,
            "original_name": "Beat Bobby Flay",
            "popularity": 19.316
        },
        {
            "id": 69689,
            "original_name": "Tina & Bobby",
            "popularity": 0.945
        },
        {
            "id": 73651,
            "original_name": "The Bobby and Damaris Show",
            "popularity": 0.6
        },
        {
            "id": 78704,
            "original_name": "Bobby Kennedy for President",
            "popularity": 2.536
        },
        {
            "id": 81491,
            "original_name": "Becoming Bobby Feeno",
            "popularity": 0.6
        },
        {
            "id": 82432,
            "original_name": "The Bobby Brown Story",
            "popularity": 2.539
        },
        {
            "id": 101620,
            "original_name": "Bobby and Harriet Get Married",
            "popularity": 0.881
        },
        {
            "id": 117142,
            "original_name": "Bobby and Giada in Italy",
            "popularity": 1.045
        },
        {
            "id": 118454,
            "original_name": "Breaking Bobby Bones",
            "popularity": 9.191
        }
    ],
    "relations": [],
    "top20": [
        {
            "id": 62481,
            "original_name": "Beat Bobby Flay",
            "popularity": 19.316
        },
        {
            "id": 1767,
            "original_name": "Bobby's World",
            "popularity": 9.334
        },
        {
            "id": 118454,
            "original_name": "Breaking Bobby Bones",
            "popularity": 9.191
        },
        {
            "id": 1859,
            "original_name": "Jack & Bobby",
            "popularity": 8.012
        },
        {
            "id": 82432,
            "original_name": "The Bobby Brown Story",
            "popularity": 2.539
        },
        {
            "id": 78704,
            "original_name": "Bobby Kennedy for President",
            "popularity": 2.536
        },
        {
            "id": 11600,
            "original_name": "Throwdown! with Bobby Flay",
            "popularity": 1.932
        },
        {
            "id": 21839,
            "original_name": "The Bobby Darin Show",
            "popularity": 1.352
        },
        {
            "id": 27307,
            "original_name": "The Bobby Heenan Show",
            "popularity": 1.35
        },
        {
            "id": 43554,
            "original_name": "Bobby Darin: The Darin Invasion",
            "popularity": 1.09
        },
        {
            "id": 117142,
            "original_name": "Bobby and Giada in Italy",
            "popularity": 1.045
        },
        {
            "id": 41776,
            "original_name": "Vinnie & Bobby",
            "popularity": 1.029
        },
        {
            "id": 12366,
            "original_name": "BBQ with Bobby Flay",
            "popularity": 0.968
        },
        {
            "id": 69689,
            "original_name": "Tina & Bobby",
            "popularity": 0.945
        },
        {
            "id": 101620,
            "original_name": "Bobby and Harriet Get Married",
            "popularity": 0.881
        },
        {
            "id": 11070,
            "original_name": "Being Bobby Brown",
            "popularity": 0.663
        },
        {
            "id": 9988,
            "original_name": "Bobby Jones Gospel",
            "popularity": 0.62
        },
        {
            "id": 14207,
            "original_name": "Uncle Bobby",
            "popularity": 0.6
        },
        {
            "id": 12344,
            "original_name": "Bobby Dazzler",
            "popularity": 0.6
        },
        {
            "id": 19075,
            "original_name": "The Bobby Vinton Show",
            "popularity": 0.6
        }
    ]
}