{
    "data": [
        {
            "id": 21371,
            "original_name": "Cambodia Year Ten",
            "popularity": 0.6
        },
        {
            "id": 47869,
            "original_name": "Year Zero: The Silent Death of Cambodia",
            "popularity": 0.6
        }
    ],
    "relations": [],
    "top20": [
        {
            "id": 21371,
            "original_name": "Cambodia Year Ten",
            "popularity": 0.6
        },
        {
            "id": 47869,
            "original_name": "Year Zero: The Silent Death of Cambodia",
            "popularity": 0.6
        }
    ]
}