{
    "data": [
        {
            "id": 9101,
            "original_name": "Mr. Bogus",
            "popularity": 1.252
        },
        {
            "id": 9788,
            "original_name": "Boggle",
            "popularity": 0.6
        },
        {
            "id": 12545,
            "original_name": "Bognor or Bust",
            "popularity": 1.097
        },
        {
            "id": 15813,
            "original_name": "Bogan Pride",
            "popularity": 0.6
        },
        {
            "id": 15934,
            "original_name": "Bogans on the Run",
            "popularity": 0.6
        },
        {
            "id": 22313,
            "original_name": "Bognor",
            "popularity": 1.052
        },
        {
            "id": 30607,
            "original_name": "Rozalka Olaboga",
            "popularity": 0.6
        },
        {
            "id": 38178,
            "original_name": "Bog Stop",
            "popularity": 0.6
        },
        {
            "id": 40873,
            "original_name": "Dr. Sommerfeld - Neues vom B\u00fclowbogen",
            "popularity": 5.817
        },
        {
            "id": 41071,
            "original_name": "Praxis B\u00fclowbogen",
            "popularity": 3.98
        },
        {
            "id": 42859,
            "original_name": "Bamses billedbog",
            "popularity": 0.744
        },
        {
            "id": 47752,
            "original_name": "Dirk Bogarde: Above The Title",
            "popularity": 0.6
        },
        {
            "id": 58479,
            "original_name": "Upper Middle Bogan",
            "popularity": 6.243
        },
        {
            "id": 59317,
            "original_name": "Who Killed Dr Bogle and Mrs Chandler?",
            "popularity": 0.6
        },
        {
            "id": 61756,
            "original_name": "Bogan Hunters",
            "popularity": 1.388
        },
        {
            "id": 63133,
            "original_name": "Engadiner Bilderbogen",
            "popularity": 0.6
        },
        {
            "id": 64633,
            "original_name": "Bogy\u00f3 \u00e9s Bab\u00f3ca",
            "popularity": 2.013
        },
        {
            "id": 64760,
            "original_name": "Fungus the Bogeyman",
            "popularity": 2.409
        },
        {
            "id": 68821,
            "original_name": "Sk\u00e6g med bogstaver",
            "popularity": 0.6
        },
        {
            "id": 77482,
            "original_name": "Stara ba\u015b\u0144. Kiedy s\u0142o\u0144ce by\u0142o bogiem",
            "popularity": 1.147
        },
        {
            "id": 83367,
            "original_name": "Bogaras sz\u00fcl\u0151k",
            "popularity": 0.6
        },
        {
            "id": 86166,
            "original_name": "Iboga Green",
            "popularity": 0.6
        },
        {
            "id": 86920,
            "original_name": "Tanz auf dem Regenbogen",
            "popularity": 0.6
        },
        {
            "id": 88034,
            "original_name": "Les bogues de la vie",
            "popularity": 0.981
        },
        {
            "id": 89580,
            "original_name": "Bogans",
            "popularity": 0.6
        },
        {
            "id": 92626,
            "original_name": "Arbogafallet",
            "popularity": 0.602
        },
        {
            "id": 96301,
            "original_name": "Robog az \u00fathenger",
            "popularity": 0.6
        },
        {
            "id": 100519,
            "original_name": "U Pana Boga w ogr\u00f3dku - 4 pory roku",
            "popularity": 0.65
        },
        {
            "id": 102408,
            "original_name": "Le voyage fantastique des fr\u00e8res Bogdanov",
            "popularity": 0.6
        },
        {
            "id": 109219,
            "original_name": "Ludzie i bogowie",
            "popularity": 7.866
        },
        {
            "id": 112172,
            "original_name": "Regular Old Bogan",
            "popularity": 0.84
        },
        {
            "id": 114183,
            "original_name": "Bogdan Boner: Egzorcysta",
            "popularity": 1.4
        },
        {
            "id": 118185,
            "original_name": "Montevideo, Bog te video",
            "popularity": 0.6
        },
        {
            "id": 118229,
            "original_name": "M\u00fcnchner Bilderbogen",
            "popularity": 0.6
        },
        {
            "id": 122080,
            "original_name": "Bamses lillebitte billedbog",
            "popularity": 0.6
        },
        {
            "id": 133032,
            "original_name": "Bl\u00e5 bog for evigt",
            "popularity": 1.176
        },
        {
            "id": 133195,
            "original_name": "Bogaty dom - biedny dom",
            "popularity": 0.6
        },
        {
            "id": 138907,
            "original_name": "Bogu iza nogu",
            "popularity": 0.671
        }
    ],
    "relations": [
        {
            "character": "bogu"
        },
        {
            "character": "bogg"
        },
        {
            "character": "bogn"
        },
        {
            "character": "boga"
        },
        {
            "character": "boge"
        },
        {
            "character": "bogl"
        },
        {
            "character": "bogy"
        },
        {
            "character": "bogs"
        },
        {
            "character": "bogi"
        },
        {
            "character": "bogd"
        },
        {
            "character": "bogo"
        }
    ],
    "top20": [
        {
            "id": 109219,
            "original_name": "Ludzie i bogowie",
            "popularity": 7.866
        },
        {
            "id": 58479,
            "original_name": "Upper Middle Bogan",
            "popularity": 6.243
        },
        {
            "id": 40873,
            "original_name": "Dr. Sommerfeld - Neues vom B\u00fclowbogen",
            "popularity": 5.817
        },
        {
            "id": 41071,
            "original_name": "Praxis B\u00fclowbogen",
            "popularity": 3.98
        },
        {
            "id": 64760,
            "original_name": "Fungus the Bogeyman",
            "popularity": 2.409
        },
        {
            "id": 64633,
            "original_name": "Bogy\u00f3 \u00e9s Bab\u00f3ca",
            "popularity": 2.013
        },
        {
            "id": 114183,
            "original_name": "Bogdan Boner: Egzorcysta",
            "popularity": 1.4
        },
        {
            "id": 61756,
            "original_name": "Bogan Hunters",
            "popularity": 1.388
        },
        {
            "id": 9101,
            "original_name": "Mr. Bogus",
            "popularity": 1.252
        },
        {
            "id": 133032,
            "original_name": "Bl\u00e5 bog for evigt",
            "popularity": 1.176
        },
        {
            "id": 77482,
            "original_name": "Stara ba\u015b\u0144. Kiedy s\u0142o\u0144ce by\u0142o bogiem",
            "popularity": 1.147
        },
        {
            "id": 12545,
            "original_name": "Bognor or Bust",
            "popularity": 1.097
        },
        {
            "id": 22313,
            "original_name": "Bognor",
            "popularity": 1.052
        },
        {
            "id": 88034,
            "original_name": "Les bogues de la vie",
            "popularity": 0.981
        },
        {
            "id": 112172,
            "original_name": "Regular Old Bogan",
            "popularity": 0.84
        },
        {
            "id": 42859,
            "original_name": "Bamses billedbog",
            "popularity": 0.744
        },
        {
            "id": 138907,
            "original_name": "Bogu iza nogu",
            "popularity": 0.671
        },
        {
            "id": 100519,
            "original_name": "U Pana Boga w ogr\u00f3dku - 4 pory roku",
            "popularity": 0.65
        },
        {
            "id": 92626,
            "original_name": "Arbogafallet",
            "popularity": 0.602
        },
        {
            "id": 9788,
            "original_name": "Boggle",
            "popularity": 0.6
        }
    ]
}