{
    "data": [
        {
            "id": 20167,
            "original_name": "Bonjour la Classe",
            "popularity": 0.6
        },
        {
            "id": 30018,
            "original_name": "Bonjour, Bon Jour",
            "popularity": 0.6
        },
        {
            "id": 36279,
            "original_name": "Bonje met de Buren",
            "popularity": 0.6
        },
        {
            "id": 84158,
            "original_name": "Bonjour\u266a\u604b\u5473\u30d1\u30c6\u30a3\u30b9\u30ea\u30fc",
            "popularity": 3.957
        },
        {
            "id": 89680,
            "original_name": "Salut Bonjour",
            "popularity": 5.83
        },
        {
            "id": 123481,
            "original_name": "Bonjour docteur",
            "popularity": 0.6
        },
        {
            "id": 136034,
            "original_name": "Salut Bonjour Weekend",
            "popularity": 8.472
        }
    ],
    "relations": [],
    "top20": [
        {
            "id": 20167,
            "original_name": "Bonjour la Classe",
            "popularity": 0.6
        },
        {
            "id": 30018,
            "original_name": "Bonjour, Bon Jour",
            "popularity": 0.6
        },
        {
            "id": 36279,
            "original_name": "Bonje met de Buren",
            "popularity": 0.6
        },
        {
            "id": 84158,
            "original_name": "Bonjour\u266a\u604b\u5473\u30d1\u30c6\u30a3\u30b9\u30ea\u30fc",
            "popularity": 3.957
        },
        {
            "id": 89680,
            "original_name": "Salut Bonjour",
            "popularity": 5.83
        },
        {
            "id": 123481,
            "original_name": "Bonjour docteur",
            "popularity": 0.6
        },
        {
            "id": 136034,
            "original_name": "Salut Bonjour Weekend",
            "popularity": 8.472
        }
    ]
}