{
    "data": [
        {
            "id": 9165,
            "original_name": "Boo!",
            "popularity": 2.626
        },
        {
            "id": 14217,
            "original_name": "Ozie Boo!",
            "popularity": 1.09
        }
    ],
    "relations": [],
    "top20": [
        {
            "id": 9165,
            "original_name": "Boo!",
            "popularity": 2.626
        },
        {
            "id": 14217,
            "original_name": "Ozie Boo!",
            "popularity": 1.09
        }
    ]
}