{
    "data": [
        {
            "id": 707,
            "original_name": "Boomtown",
            "popularity": 9.464
        },
        {
            "id": 20187,
            "original_name": "Boomtown",
            "popularity": 0.6
        },
        {
            "id": 38618,
            "original_name": "Boomtown",
            "popularity": 0.6
        }
    ],
    "relations": [],
    "top20": [
        {
            "id": 707,
            "original_name": "Boomtown",
            "popularity": 9.464
        },
        {
            "id": 20187,
            "original_name": "Boomtown",
            "popularity": 0.6
        },
        {
            "id": 38618,
            "original_name": "Boomtown",
            "popularity": 0.6
        }
    ]
}