{
    "data": [
        {
            "id": 90876,
            "original_name": "Borb\u00f3n: La maldici\u00f3n de un apellido",
            "popularity": 0.6
        }
    ],
    "relations": [],
    "top20": [
        {
            "id": 90876,
            "original_name": "Borb\u00f3n: La maldici\u00f3n de un apellido",
            "popularity": 0.6
        }
    ]
}