{
    "data": [
        {
            "id": 3857,
            "original_name": "Beverly Hills Bordello",
            "popularity": 4.652
        }
    ],
    "relations": [],
    "top20": [
        {
            "id": 3857,
            "original_name": "Beverly Hills Bordello",
            "popularity": 4.652
        }
    ]
}