{
    "data": [
        {
            "id": 1534,
            "original_name": "Robotboy",
            "popularity": 9.573
        },
        {
            "id": 125574,
            "original_name": "Transformers: Botbots",
            "popularity": 0.6
        }
    ],
    "relations": [],
    "top20": [
        {
            "id": 1534,
            "original_name": "Robotboy",
            "popularity": 9.573
        },
        {
            "id": 125574,
            "original_name": "Transformers: Botbots",
            "popularity": 0.6
        }
    ]
}