{
    "data": [
        {
            "id": 41579,
            "original_name": "Bowhunter TV",
            "popularity": 0.6
        },
        {
            "id": 57641,
            "original_name": "Heartland Bowhunter",
            "popularity": 0.6
        }
    ],
    "relations": [],
    "top20": [
        {
            "id": 41579,
            "original_name": "Bowhunter TV",
            "popularity": 0.6
        },
        {
            "id": 57641,
            "original_name": "Heartland Bowhunter",
            "popularity": 0.6
        }
    ]
}