{
    "data": [
        {
            "id": 1152,
            "original_name": "Squawk Box Europe",
            "popularity": 0.6
        },
        {
            "id": 1392,
            "original_name": "Squawk Box",
            "popularity": 0.6
        },
        {
            "id": 2033,
            "original_name": "Shoebox Zoo",
            "popularity": 2.196
        },
        {
            "id": 2602,
            "original_name": "Snuff Box",
            "popularity": 3.208
        },
        {
            "id": 2670,
            "original_name": "Asia Squawk Box",
            "popularity": 0.6
        },
        {
            "id": 3325,
            "original_name": "Boxing from St. Nicholas Arena",
            "popularity": 0.6
        },
        {
            "id": 5263,
            "original_name": "Crashbox",
            "popularity": 3.915
        },
        {
            "id": 5877,
            "original_name": "Pandora's Box",
            "popularity": 0.731
        },
        {
            "id": 6128,
            "original_name": "In the Box",
            "popularity": 0.6
        },
        {
            "id": 7086,
            "original_name": "Pick a Box",
            "popularity": 0.6
        },
        {
            "id": 7585,
            "original_name": "Life Beyond the Box: Margo Leadbetter",
            "popularity": 0.6
        },
        {
            "id": 8646,
            "original_name": "Artbox Bunch",
            "popularity": 0.6
        },
        {
            "id": 8737,
            "original_name": "Video Music Box",
            "popularity": 0.6
        },
        {
            "id": 9040,
            "original_name": "Out of the Box",
            "popularity": 0.998
        },
        {
            "id": 10261,
            "original_name": "Celebrity Boxing",
            "popularity": 0.6
        },
        {
            "id": 10574,
            "original_name": "Video Jukebox",
            "popularity": 0.6
        },
        {
            "id": 10660,
            "original_name": "The Box",
            "popularity": 0.6
        },
        {
            "id": 11221,
            "original_name": "Juke Box Jury",
            "popularity": 0.6
        },
        {
            "id": 11438,
            "original_name": "The Idiot Box",
            "popularity": 0.6
        },
        {
            "id": 11847,
            "original_name": "Nickelodeon Launch Box",
            "popularity": 0.6
        },
        {
            "id": 11929,
            "original_name": "FightBox",
            "popularity": 0.6
        },
        {
            "id": 12269,
            "original_name": "Boxing After Dark",
            "popularity": 0.6
        },
        {
            "id": 12270,
            "original_name": "The Box",
            "popularity": 0.6
        },
        {
            "id": 12631,
            "original_name": "Black Box",
            "popularity": 0.6
        },
        {
            "id": 12957,
            "original_name": "Pencil Box",
            "popularity": 0.6
        },
        {
            "id": 13013,
            "original_name": "ShoBox: The New Generation",
            "popularity": 0.6
        },
        {
            "id": 13080,
            "original_name": "Inside the Box",
            "popularity": 0.6
        },
        {
            "id": 15480,
            "original_name": "Brainbox Challenge",
            "popularity": 0.6
        },
        {
            "id": 15760,
            "original_name": "Pinoy Mano Mano: Celebrity Boxing Challenge",
            "popularity": 0.6
        },
        {
            "id": 15786,
            "original_name": "The Crayon Box",
            "popularity": 0.6
        },
        {
            "id": 16245,
            "original_name": "The Magic Make-Up Box",
            "popularity": 0.6
        },
        {
            "id": 16860,
            "original_name": "Despatch Box",
            "popularity": 0.6
        },
        {
            "id": 17073,
            "original_name": "Playbox",
            "popularity": 0.6
        },
        {
            "id": 17136,
            "original_name": "Max on Boxing",
            "popularity": 0.6
        },
        {
            "id": 20150,
            "original_name": "Boxing on CBS",
            "popularity": 0.6
        },
        {
            "id": 21353,
            "original_name": "The Box of Delights",
            "popularity": 1.937
        },
        {
            "id": 22922,
            "original_name": "Bentley's Bandbox",
            "popularity": 0.6
        },
        {
            "id": 23057,
            "original_name": "Beyond the Box",
            "popularity": 0.6
        },
        {
            "id": 23125,
            "original_name": "Boxing Academy",
            "popularity": 0.6
        },
        {
            "id": 23158,
            "original_name": "Tool Box",
            "popularity": 0.6
        },
        {
            "id": 24346,
            "original_name": "Letter Box",
            "popularity": 0.6
        },
        {
            "id": 24728,
            "original_name": "Musical Box",
            "popularity": 0.6
        },
        {
            "id": 25386,
            "original_name": "Perfect 10 Model Boxing",
            "popularity": 0.6
        },
        {
            "id": 25922,
            "original_name": "Juke Box Jury (AU)",
            "popularity": 0.6
        },
        {
            "id": 26241,
            "original_name": "Hotbox",
            "popularity": 0.6
        },
        {
            "id": 27703,
            "original_name": "Inside The Box",
            "popularity": 0.6
        },
        {
            "id": 27734,
            "original_name": "Trinder Box",
            "popularity": 0.6
        },
        {
            "id": 28911,
            "original_name": "Boxing Bonaduce",
            "popularity": 0.635
        },
        {
            "id": 29148,
            "original_name": "Beatbox",
            "popularity": 0.6
        },
        {
            "id": 29314,
            "original_name": "Comedy Bandbox",
            "popularity": 0.6
        },
        {
            "id": 29919,
            "original_name": "Doddy's Music Box",
            "popularity": 0.6
        },
        {
            "id": 30298,
            "original_name": "Bobby Davro On The Box",
            "popularity": 0.6
        },
        {
            "id": 31253,
            "original_name": "The Selection Box",
            "popularity": 0.6
        },
        {
            "id": 33512,
            "original_name": "Brain Box",
            "popularity": 0.6
        },
        {
            "id": 34719,
            "original_name": "MeeBOX",
            "popularity": 0.6
        },
        {
            "id": 37043,
            "original_name": "Jukebox Heroes",
            "popularity": 0.6
        },
        {
            "id": 37795,
            "original_name": "Playbox",
            "popularity": 0.929
        },
        {
            "id": 38872,
            "original_name": "Jukebox Jury",
            "popularity": 0.6
        },
        {
            "id": 38966,
            "original_name": "Star Box",
            "popularity": 0.6
        },
        {
            "id": 40104,
            "original_name": "Maths-In-A-Box",
            "popularity": 0.6
        },
        {
            "id": 40247,
            "original_name": "The Box",
            "popularity": 0.6
        },
        {
            "id": 41338,
            "original_name": "Solo boxeo",
            "popularity": 0.6
        },
        {
            "id": 41797,
            "original_name": "Sandbox",
            "popularity": 0.6
        },
        {
            "id": 43234,
            "original_name": "David Mitchell's Soapbox",
            "popularity": 1.69
        },
        {
            "id": 45456,
            "original_name": "Lloyd's Lunchbox",
            "popularity": 0.6
        },
        {
            "id": 45858,
            "original_name": "Medaka Box",
            "popularity": 1.77
        },
        {
            "id": 46662,
            "original_name": "Jack In A Box",
            "popularity": 0.68
        },
        {
            "id": 47426,
            "original_name": "The Music Box",
            "popularity": 0.6
        },
        {
            "id": 47859,
            "original_name": "20th Century Box",
            "popularity": 0.6
        },
        {
            "id": 48119,
            "original_name": "Christmas Box",
            "popularity": 0.6
        },
        {
            "id": 51675,
            "original_name": "Black Box",
            "popularity": 4.176
        },
        {
            "id": 52945,
            "original_name": "Chatterbox",
            "popularity": 0.6
        },
        {
            "id": 54317,
            "original_name": "Juke Box Saturday Night",
            "popularity": 0.6
        },
        {
            "id": 54526,
            "original_name": "Sarah Millican Chatterbox Live",
            "popularity": 0.6
        },
        {
            "id": 55808,
            "original_name": "Gogglebox",
            "popularity": 1.558
        },
        {
            "id": 56360,
            "original_name": "The Shadow Box",
            "popularity": 0.6
        },
        {
            "id": 56966,
            "original_name": "Sports Active Grand Final: From the Coaches Box",
            "popularity": 0.6
        },
        {
            "id": 57148,
            "original_name": "The Fight - Boxing In and Out of the Ring",
            "popularity": 0.84
        },
        {
            "id": 57635,
            "original_name": "Tools of the Trade Videos: Inside the Technician\u2019s Toolbox",
            "popularity": 0.6
        },
        {
            "id": 58292,
            "original_name": "Juicebox",
            "popularity": 0.6
        },
        {
            "id": 58327,
            "original_name": "Boxing From Jamaica Arena",
            "popularity": 0.6
        },
        {
            "id": 58619,
            "original_name": "Boxing from Eastern Parkway",
            "popularity": 0.6
        },
        {
            "id": 59160,
            "original_name": "Toybox",
            "popularity": 0.6
        },
        {
            "id": 59608,
            "original_name": "Deon Cole's Black Box",
            "popularity": 0.629
        },
        {
            "id": 61395,
            "original_name": "BlackBoxTV Presents",
            "popularity": 6.731
        },
        {
            "id": 61850,
            "original_name": "Schulz in the Box",
            "popularity": 1.131
        },
        {
            "id": 62877,
            "original_name": "Big Box Little Box",
            "popularity": 0.6
        },
        {
            "id": 67150,
            "original_name": "TV total Quizboxen",
            "popularity": 0.6
        },
        {
            "id": 69411,
            "original_name": "Lunch Box",
            "popularity": 0.6
        },
        {
            "id": 70153,
            "original_name": "The Toy Box",
            "popularity": 1.453
        },
        {
            "id": 70213,
            "original_name": "Mr. Box Office",
            "popularity": 0.6
        },
        {
            "id": 73758,
            "original_name": "Gogglebox. Przed telewizorem.",
            "popularity": 3.941
        },
        {
            "id": 74337,
            "original_name": "Gogglebox Australia",
            "popularity": 3.417
        },
        {
            "id": 75842,
            "original_name": "House Hunters: Outside the Box",
            "popularity": 0.602
        },
        {
            "id": 77733,
            "original_name": "Box Cricket League",
            "popularity": 0.6
        },
        {
            "id": 79929,
            "original_name": "UNBOXED",
            "popularity": 0.613
        },
        {
            "id": 82219,
            "original_name": "Boxi: In The Nature",
            "popularity": 0.6
        },
        {
            "id": 83684,
            "original_name": "Letterbox",
            "popularity": 0.6
        },
        {
            "id": 89101,
            "original_name": "Pandora's Box: Unleashing Evil",
            "popularity": 0.6
        },
        {
            "id": 91291,
            "original_name": "Celebrity Gogglebox",
            "popularity": 4.532
        },
        {
            "id": 93443,
            "original_name": "Bento Expo: The Global Lunchbox Project",
            "popularity": 0.6
        },
        {
            "id": 94460,
            "original_name": "Tv\u00e5 n\u00f6tcreme och en moviebox",
            "popularity": 0.6
        },
        {
            "id": 94859,
            "original_name": "Broadway Boxing",
            "popularity": 0.6
        },
        {
            "id": 96852,
            "original_name": "Video Game Box Art: The Stories Behind the Covers",
            "popularity": 0.669
        },
        {
            "id": 98036,
            "original_name": "Box 21",
            "popularity": 9.582
        },
        {
            "id": 103703,
            "original_name": "Chessboxing",
            "popularity": 1.4
        },
        {
            "id": 105988,
            "original_name": "Extreme Unboxing",
            "popularity": 0.619
        },
        {
            "id": 111725,
            "original_name": "Andy's Dino Toybox",
            "popularity": 0.903
        },
        {
            "id": 111972,
            "original_name": "Murder Unboxed",
            "popularity": 0.6
        },
        {
            "id": 112794,
            "original_name": "Out of the Box",
            "popularity": 0.6
        },
        {
            "id": 112825,
            "original_name": "Autour du Jukebox",
            "popularity": 0.603
        },
        {
            "id": 113719,
            "original_name": "Gogglebox Ireland",
            "popularity": 1.051
        },
        {
            "id": 119491,
            "original_name": "Gary Neville's Soccerbox",
            "popularity": 0.986
        },
        {
            "id": 121002,
            "original_name": "El Desaf\u00edo: The Box",
            "popularity": 1.193
        },
        {
            "id": 121555,
            "original_name": "Boxxla Xjaten",
            "popularity": 0.6
        },
        {
            "id": 123270,
            "original_name": "EXO's First Box",
            "popularity": 0.6
        },
        {
            "id": 128653,
            "original_name": "The Box",
            "popularity": 13.949
        },
        {
            "id": 129022,
            "original_name": "\u97d3ON! BOX!!",
            "popularity": 1.018
        },
        {
            "id": 134153,
            "original_name": "Gossip Box",
            "popularity": 2.341
        },
        {
            "id": 134470,
            "original_name": "Beadle's Box Of Tricks",
            "popularity": 0.6
        },
        {
            "id": 134908,
            "original_name": "Theatre Box",
            "popularity": 0.6
        },
        {
            "id": 136865,
            "original_name": "Les Dawson's Christmas Box",
            "popularity": 0.6
        },
        {
            "id": 138891,
            "original_name": "Box Peek",
            "popularity": 0.6
        }
    ],
    "relations": [
        {
            "character": "boxi"
        },
        {
            "character": "boxe"
        },
        {
            "character": "boxt"
        },
        {
            "character": "box."
        },
        {
            "character": "boxx"
        },
        {
            "character": "box!"
        }
    ],
    "top20": [
        {
            "id": 128653,
            "original_name": "The Box",
            "popularity": 13.949
        },
        {
            "id": 98036,
            "original_name": "Box 21",
            "popularity": 9.582
        },
        {
            "id": 61395,
            "original_name": "BlackBoxTV Presents",
            "popularity": 6.731
        },
        {
            "id": 91291,
            "original_name": "Celebrity Gogglebox",
            "popularity": 4.532
        },
        {
            "id": 51675,
            "original_name": "Black Box",
            "popularity": 4.176
        },
        {
            "id": 73758,
            "original_name": "Gogglebox. Przed telewizorem.",
            "popularity": 3.941
        },
        {
            "id": 5263,
            "original_name": "Crashbox",
            "popularity": 3.915
        },
        {
            "id": 74337,
            "original_name": "Gogglebox Australia",
            "popularity": 3.417
        },
        {
            "id": 2602,
            "original_name": "Snuff Box",
            "popularity": 3.208
        },
        {
            "id": 134153,
            "original_name": "Gossip Box",
            "popularity": 2.341
        },
        {
            "id": 2033,
            "original_name": "Shoebox Zoo",
            "popularity": 2.196
        },
        {
            "id": 21353,
            "original_name": "The Box of Delights",
            "popularity": 1.937
        },
        {
            "id": 45858,
            "original_name": "Medaka Box",
            "popularity": 1.77
        },
        {
            "id": 43234,
            "original_name": "David Mitchell's Soapbox",
            "popularity": 1.69
        },
        {
            "id": 55808,
            "original_name": "Gogglebox",
            "popularity": 1.558
        },
        {
            "id": 70153,
            "original_name": "The Toy Box",
            "popularity": 1.453
        },
        {
            "id": 103703,
            "original_name": "Chessboxing",
            "popularity": 1.4
        },
        {
            "id": 121002,
            "original_name": "El Desaf\u00edo: The Box",
            "popularity": 1.193
        },
        {
            "id": 61850,
            "original_name": "Schulz in the Box",
            "popularity": 1.131
        },
        {
            "id": 113719,
            "original_name": "Gogglebox Ireland",
            "popularity": 1.051
        }
    ]
}