{
    "data": [
        {
            "id": 3421,
            "original_name": "Great BBQ Challenge",
            "popularity": 0.6
        },
        {
            "id": 12366,
            "original_name": "BBQ with Bobby Flay",
            "popularity": 0.968
        },
        {
            "id": 28090,
            "original_name": "Grilling & BBQ",
            "popularity": 0.6
        },
        {
            "id": 31978,
            "original_name": "BBQ Pitmasters",
            "popularity": 1.088
        },
        {
            "id": 57481,
            "original_name": "BBQ Crawl",
            "popularity": 0.6
        },
        {
            "id": 63554,
            "original_name": "BBQ Champ",
            "popularity": 0.6
        },
        {
            "id": 65028,
            "original_name": "BBQ Pit Wars",
            "popularity": 0.6
        },
        {
            "id": 67289,
            "original_name": "BBQ Brasil: Churrasco na Brasa",
            "popularity": 0.6
        },
        {
            "id": 69254,
            "original_name": "VBQ Todo por la fama",
            "popularity": 0.6
        },
        {
            "id": 71526,
            "original_name": "Kids BBQ Championship",
            "popularity": 0.6
        },
        {
            "id": 76322,
            "original_name": "Big Bad BBQ Brawl",
            "popularity": 0.6
        },
        {
            "id": 78663,
            "original_name": "BBQ with Franklin",
            "popularity": 0.6
        },
        {
            "id": 86839,
            "original_name": "Zibq",
            "popularity": 0.6
        },
        {
            "id": 87558,
            "original_name": "BBQ non-stop",
            "popularity": 0.6
        },
        {
            "id": 91771,
            "original_name": "BBQ Brawl",
            "popularity": 0.6
        },
        {
            "id": 93012,
            "original_name": "BBQ non-stop avec Hugo Girard",
            "popularity": 0.6
        },
        {
            "id": 101849,
            "original_name": "Fous du BBQ",
            "popularity": 0.863
        },
        {
            "id": 102945,
            "original_name": "BBQuest",
            "popularity": 0.6
        },
        {
            "id": 107573,
            "original_name": "BBQ en bo\u00eete",
            "popularity": 0.6
        },
        {
            "id": 107671,
            "original_name": "Chef's Table: BBQ",
            "popularity": 2.516
        },
        {
            "id": 113190,
            "original_name": "L'atelier du Bbq avec le Ma\u00eetre du grill",
            "popularity": 0.6
        },
        {
            "id": 115473,
            "original_name": "MAX PubQuiz",
            "popularity": 0.734
        },
        {
            "id": 121035,
            "original_name": "American BBQ showdown",
            "popularity": 0.6
        },
        {
            "id": 122149,
            "original_name": "3, 2, 1 BBQ",
            "popularity": 1.009
        },
        {
            "id": 127810,
            "original_name": "La Tag BBQ",
            "popularity": 0.6
        },
        {
            "id": 128466,
            "original_name": "OD BBQ",
            "popularity": 0.6
        },
        {
            "id": 128837,
            "original_name": "BBQ Brawl - Flay vs Symon",
            "popularity": 0.723
        }
    ],
    "relations": [
        {
            "character": "bqu"
        }
    ],
    "top20": [
        {
            "id": 107671,
            "original_name": "Chef's Table: BBQ",
            "popularity": 2.516
        },
        {
            "id": 31978,
            "original_name": "BBQ Pitmasters",
            "popularity": 1.088
        },
        {
            "id": 122149,
            "original_name": "3, 2, 1 BBQ",
            "popularity": 1.009
        },
        {
            "id": 12366,
            "original_name": "BBQ with Bobby Flay",
            "popularity": 0.968
        },
        {
            "id": 101849,
            "original_name": "Fous du BBQ",
            "popularity": 0.863
        },
        {
            "id": 115473,
            "original_name": "MAX PubQuiz",
            "popularity": 0.734
        },
        {
            "id": 128837,
            "original_name": "BBQ Brawl - Flay vs Symon",
            "popularity": 0.723
        },
        {
            "id": 91771,
            "original_name": "BBQ Brawl",
            "popularity": 0.6
        },
        {
            "id": 71526,
            "original_name": "Kids BBQ Championship",
            "popularity": 0.6
        },
        {
            "id": 67289,
            "original_name": "BBQ Brasil: Churrasco na Brasa",
            "popularity": 0.6
        },
        {
            "id": 28090,
            "original_name": "Grilling & BBQ",
            "popularity": 0.6
        },
        {
            "id": 86839,
            "original_name": "Zibq",
            "popularity": 0.6
        },
        {
            "id": 69254,
            "original_name": "VBQ Todo por la fama",
            "popularity": 0.6
        },
        {
            "id": 76322,
            "original_name": "Big Bad BBQ Brawl",
            "popularity": 0.6
        },
        {
            "id": 65028,
            "original_name": "BBQ Pit Wars",
            "popularity": 0.6
        },
        {
            "id": 78663,
            "original_name": "BBQ with Franklin",
            "popularity": 0.6
        },
        {
            "id": 87558,
            "original_name": "BBQ non-stop",
            "popularity": 0.6
        },
        {
            "id": 3421,
            "original_name": "Great BBQ Challenge",
            "popularity": 0.6
        },
        {
            "id": 63554,
            "original_name": "BBQ Champ",
            "popularity": 0.6
        },
        {
            "id": 57481,
            "original_name": "BBQ Crawl",
            "popularity": 0.6
        }
    ]
}