{
    "data": [
        {
            "id": 2614,
            "original_name": "Brainiac: Science Abuse",
            "popularity": 4.364
        },
        {
            "id": 5445,
            "original_name": "Brainiac: History Abuse",
            "popularity": 0.6
        },
        {
            "id": 6437,
            "original_name": "Brainiac's Test Tube Baby",
            "popularity": 0.6
        },
        {
            "id": 12481,
            "original_name": "Australia's Brainiest",
            "popularity": 0.6
        },
        {
            "id": 19958,
            "original_name": "Britain's Brainiest Kid",
            "popularity": 0.6
        },
        {
            "id": 25191,
            "original_name": "Brainiac",
            "popularity": 2.414
        }
    ],
    "relations": [],
    "top20": [
        {
            "id": 2614,
            "original_name": "Brainiac: Science Abuse",
            "popularity": 4.364
        },
        {
            "id": 5445,
            "original_name": "Brainiac: History Abuse",
            "popularity": 0.6
        },
        {
            "id": 6437,
            "original_name": "Brainiac's Test Tube Baby",
            "popularity": 0.6
        },
        {
            "id": 12481,
            "original_name": "Australia's Brainiest",
            "popularity": 0.6
        },
        {
            "id": 19958,
            "original_name": "Britain's Brainiest Kid",
            "popularity": 0.6
        },
        {
            "id": 25191,
            "original_name": "Brainiac",
            "popularity": 2.414
        }
    ]
}