{
    "data": [
        {
            "id": 62212,
            "original_name": "Kreisbrandmeister Felix Martin",
            "popularity": 1.177
        }
    ],
    "relations": [],
    "top20": [
        {
            "id": 62212,
            "original_name": "Kreisbrandmeister Felix Martin",
            "popularity": 1.177
        }
    ]
}