{
    "data": [
        {
            "id": 13818,
            "original_name": "Branded",
            "popularity": 12.044
        },
        {
            "id": 35631,
            "original_name": "Brandende Kwesties",
            "popularity": 0.6
        },
        {
            "id": 88900,
            "original_name": "The Count by Branded Entertainment",
            "popularity": 0.6
        },
        {
            "id": 124352,
            "original_name": "Berlin und Brandenburg unterm Hakenkreuz",
            "popularity": 0.6
        },
        {
            "id": 125967,
            "original_name": "20 x Brandenburg",
            "popularity": 0.6
        }
    ],
    "relations": [],
    "top20": [
        {
            "id": 13818,
            "original_name": "Branded",
            "popularity": 12.044
        },
        {
            "id": 35631,
            "original_name": "Brandende Kwesties",
            "popularity": 0.6
        },
        {
            "id": 88900,
            "original_name": "The Count by Branded Entertainment",
            "popularity": 0.6
        },
        {
            "id": 124352,
            "original_name": "Berlin und Brandenburg unterm Hakenkreuz",
            "popularity": 0.6
        },
        {
            "id": 125967,
            "original_name": "20 x Brandenburg",
            "popularity": 0.6
        }
    ]
}