{
    "data": [
        {
            "id": 14887,
            "original_name": "Aubrey and Gus",
            "popularity": 0.6
        },
        {
            "id": 29052,
            "original_name": "Aubrey",
            "popularity": 0.6
        },
        {
            "id": 37604,
            "original_name": "All About Aubrey",
            "popularity": 0.6
        },
        {
            "id": 40526,
            "original_name": "Aubrey",
            "popularity": 0.6
        }
    ],
    "relations": [],
    "top20": [
        {
            "id": 14887,
            "original_name": "Aubrey and Gus",
            "popularity": 0.6
        },
        {
            "id": 29052,
            "original_name": "Aubrey",
            "popularity": 0.6
        },
        {
            "id": 37604,
            "original_name": "All About Aubrey",
            "popularity": 0.6
        },
        {
            "id": 40526,
            "original_name": "Aubrey",
            "popularity": 0.6
        }
    ]
}