{
    "data": [
        {
            "id": 12511,
            "original_name": "Then Came Bronson",
            "popularity": 6.259
        },
        {
            "id": 40192,
            "original_name": "The LeBrons",
            "popularity": 0.6
        },
        {
            "id": 41267,
            "original_name": "Bronski und Bernstein",
            "popularity": 2.535
        },
        {
            "id": 55422,
            "original_name": "The Bronson Pinchot Project",
            "popularity": 0.6
        },
        {
            "id": 67407,
            "original_name": "Action Bronson and Friends Watch Ancient Aliens",
            "popularity": 1.912
        },
        {
            "id": 74635,
            "original_name": "The Untitled Action Bronson Show",
            "popularity": 1.032
        }
    ],
    "relations": [],
    "top20": [
        {
            "id": 12511,
            "original_name": "Then Came Bronson",
            "popularity": 6.259
        },
        {
            "id": 40192,
            "original_name": "The LeBrons",
            "popularity": 0.6
        },
        {
            "id": 41267,
            "original_name": "Bronski und Bernstein",
            "popularity": 2.535
        },
        {
            "id": 55422,
            "original_name": "The Bronson Pinchot Project",
            "popularity": 0.6
        },
        {
            "id": 67407,
            "original_name": "Action Bronson and Friends Watch Ancient Aliens",
            "popularity": 1.912
        },
        {
            "id": 74635,
            "original_name": "The Untitled Action Bronson Show",
            "popularity": 1.032
        }
    ]
}