{
    "data": [
        {
            "id": 19811,
            "original_name": "The Decorating Adventures of Ambrose Price",
            "popularity": 0.6
        }
    ],
    "relations": [],
    "top20": [
        {
            "id": 19811,
            "original_name": "The Decorating Adventures of Ambrose Price",
            "popularity": 0.6
        }
    ]
}