{
    "data": [
        {
            "id": 7785,
            "original_name": "Amazon with Bruce Parry",
            "popularity": 0.6
        },
        {
            "id": 10359,
            "original_name": "Bruce Forsyth's Hot Streak",
            "popularity": 0.6
        },
        {
            "id": 20140,
            "original_name": "Bruce Wayne",
            "popularity": 0.804
        },
        {
            "id": 21885,
            "original_name": "The Bruce Forsyth Show",
            "popularity": 0.841
        },
        {
            "id": 26052,
            "original_name": "Bruce Parry's Amazon",
            "popularity": 0.6
        },
        {
            "id": 26887,
            "original_name": "Bruce's Guest Night",
            "popularity": 0.6
        },
        {
            "id": 26991,
            "original_name": "Bruce",
            "popularity": 0.6
        },
        {
            "id": 29769,
            "original_name": "Bruce's Generation Game - Now And Then",
            "popularity": 0.878
        },
        {
            "id": 30013,
            "original_name": "Sin With Bruce Morton",
            "popularity": 0.6
        },
        {
            "id": 37869,
            "original_name": "Arctic With Bruce Parry",
            "popularity": 0.6
        },
        {
            "id": 42774,
            "original_name": "How Bruce Lee Changed the World",
            "popularity": 0.87
        },
        {
            "id": 46471,
            "original_name": "Bruce Springsteen & the E Street Band",
            "popularity": 0.6
        },
        {
            "id": 58323,
            "original_name": "Bruce Forsyth's Big Night",
            "popularity": 0.6
        },
        {
            "id": 69802,
            "original_name": "Bruce",
            "popularity": 0.6
        },
        {
            "id": 100656,
            "original_name": "Bruce's Hall of Fame",
            "popularity": 1.246
        },
        {
            "id": 119227,
            "original_name": "Rendezvous mit Bruce Low",
            "popularity": 0.6
        },
        {
            "id": 137416,
            "original_name": "Surprise! Die Bruce Darnell Show",
            "popularity": 4.429
        }
    ],
    "relations": [],
    "top20": [
        {
            "id": 7785,
            "original_name": "Amazon with Bruce Parry",
            "popularity": 0.6
        },
        {
            "id": 10359,
            "original_name": "Bruce Forsyth's Hot Streak",
            "popularity": 0.6
        },
        {
            "id": 20140,
            "original_name": "Bruce Wayne",
            "popularity": 0.804
        },
        {
            "id": 21885,
            "original_name": "The Bruce Forsyth Show",
            "popularity": 0.841
        },
        {
            "id": 26052,
            "original_name": "Bruce Parry's Amazon",
            "popularity": 0.6
        },
        {
            "id": 26887,
            "original_name": "Bruce's Guest Night",
            "popularity": 0.6
        },
        {
            "id": 26991,
            "original_name": "Bruce",
            "popularity": 0.6
        },
        {
            "id": 29769,
            "original_name": "Bruce's Generation Game - Now And Then",
            "popularity": 0.878
        },
        {
            "id": 30013,
            "original_name": "Sin With Bruce Morton",
            "popularity": 0.6
        },
        {
            "id": 37869,
            "original_name": "Arctic With Bruce Parry",
            "popularity": 0.6
        },
        {
            "id": 42774,
            "original_name": "How Bruce Lee Changed the World",
            "popularity": 0.87
        },
        {
            "id": 46471,
            "original_name": "Bruce Springsteen & the E Street Band",
            "popularity": 0.6
        },
        {
            "id": 58323,
            "original_name": "Bruce Forsyth's Big Night",
            "popularity": 0.6
        },
        {
            "id": 69802,
            "original_name": "Bruce",
            "popularity": 0.6
        },
        {
            "id": 100656,
            "original_name": "Bruce's Hall of Fame",
            "popularity": 1.246
        },
        {
            "id": 119227,
            "original_name": "Rendezvous mit Bruce Low",
            "popularity": 0.6
        },
        {
            "id": 137416,
            "original_name": "Surprise! Die Bruce Darnell Show",
            "popularity": 4.429
        }
    ]
}