{
    "data": [
        {
            "id": 22461,
            "original_name": "Ardhangani - Ek Khoobsurat Jeevan Saathi",
            "popularity": 0.6
        },
        {
            "id": 59235,
            "original_name": "Dil Ki Nazar Se Khoobsurat",
            "popularity": 0.6
        },
        {
            "id": 99792,
            "original_name": "Unraveled | Absurdly Comprehensive Game Lore",
            "popularity": 0.6
        },
        {
            "id": 101836,
            "original_name": "Absurd Planet",
            "popularity": 18.654
        },
        {
            "id": 113249,
            "original_name": "La ciencia de lo absurdo",
            "popularity": 0.918
        },
        {
            "id": 113253,
            "original_name": "Ci\u00eancia do Absurdo",
            "popularity": 0.6
        },
        {
            "id": 138059,
            "original_name": "Carangas Absurdas",
            "popularity": 7.471
        }
    ],
    "relations": [],
    "top20": [
        {
            "id": 22461,
            "original_name": "Ardhangani - Ek Khoobsurat Jeevan Saathi",
            "popularity": 0.6
        },
        {
            "id": 59235,
            "original_name": "Dil Ki Nazar Se Khoobsurat",
            "popularity": 0.6
        },
        {
            "id": 99792,
            "original_name": "Unraveled | Absurdly Comprehensive Game Lore",
            "popularity": 0.6
        },
        {
            "id": 101836,
            "original_name": "Absurd Planet",
            "popularity": 18.654
        },
        {
            "id": 113249,
            "original_name": "La ciencia de lo absurdo",
            "popularity": 0.918
        },
        {
            "id": 113253,
            "original_name": "Ci\u00eancia do Absurdo",
            "popularity": 0.6
        },
        {
            "id": 138059,
            "original_name": "Carangas Absurdas",
            "popularity": 7.471
        }
    ]
}