{
    "data": [
        {
            "id": 243,
            "original_name": "Penn & Teller: Bullshit!",
            "popularity": 14.454
        },
        {
            "id": 538,
            "original_name": "Bulls & Bears",
            "popularity": 0.6
        },
        {
            "id": 1674,
            "original_name": "Bullseye",
            "popularity": 1.366
        },
        {
            "id": 3613,
            "original_name": "Bullseye",
            "popularity": 0.6
        },
        {
            "id": 5078,
            "original_name": "Bullseye",
            "popularity": 0.6
        },
        {
            "id": 9316,
            "original_name": "The Bullshitters: Roll Out The Gunbarrel",
            "popularity": 0.6
        },
        {
            "id": 31537,
            "original_name": "Pit Bulls and Parolees",
            "popularity": 4.395
        },
        {
            "id": 55542,
            "original_name": "R\u00fcttens Bullshit Universum",
            "popularity": 0.6
        },
        {
            "id": 55678,
            "original_name": "You Know What's Bullshit?!",
            "popularity": 1.213
        },
        {
            "id": 62538,
            "original_name": "Bullseye",
            "popularity": 0.649
        },
        {
            "id": 116836,
            "original_name": "Bullsprit",
            "popularity": 0.606
        },
        {
            "id": 120326,
            "original_name": "RTL Darts: Bullseye",
            "popularity": 4.287
        },
        {
            "id": 130538,
            "original_name": "Bullshit",
            "popularity": 0.6
        }
    ],
    "relations": [],
    "top20": [
        {
            "id": 243,
            "original_name": "Penn & Teller: Bullshit!",
            "popularity": 14.454
        },
        {
            "id": 538,
            "original_name": "Bulls & Bears",
            "popularity": 0.6
        },
        {
            "id": 1674,
            "original_name": "Bullseye",
            "popularity": 1.366
        },
        {
            "id": 3613,
            "original_name": "Bullseye",
            "popularity": 0.6
        },
        {
            "id": 5078,
            "original_name": "Bullseye",
            "popularity": 0.6
        },
        {
            "id": 9316,
            "original_name": "The Bullshitters: Roll Out The Gunbarrel",
            "popularity": 0.6
        },
        {
            "id": 31537,
            "original_name": "Pit Bulls and Parolees",
            "popularity": 4.395
        },
        {
            "id": 55542,
            "original_name": "R\u00fcttens Bullshit Universum",
            "popularity": 0.6
        },
        {
            "id": 55678,
            "original_name": "You Know What's Bullshit?!",
            "popularity": 1.213
        },
        {
            "id": 62538,
            "original_name": "Bullseye",
            "popularity": 0.649
        },
        {
            "id": 116836,
            "original_name": "Bullsprit",
            "popularity": 0.606
        },
        {
            "id": 120326,
            "original_name": "RTL Darts: Bullseye",
            "popularity": 4.287
        },
        {
            "id": 130538,
            "original_name": "Bullshit",
            "popularity": 0.6
        }
    ]
}