{
    "data": [
        {
            "id": 24396,
            "original_name": "Buzzy Wuzzy",
            "popularity": 0.84
        }
    ],
    "relations": [],
    "top20": [
        {
            "id": 24396,
            "original_name": "Buzzy Wuzzy",
            "popularity": 0.84
        }
    ]
}