{
    "data": [
        {
            "id": 7788,
            "original_name": "Cachureos",
            "popularity": 0.6
        },
        {
            "id": 26914,
            "original_name": "Cachito De Mi Corazon",
            "popularity": 0.6
        },
        {
            "id": 28448,
            "original_name": "Cactus Jim",
            "popularity": 0.6
        },
        {
            "id": 32054,
            "original_name": "Romantic Delicacies",
            "popularity": 0.6
        },
        {
            "id": 40486,
            "original_name": "Cach\u00fan cach\u00fan ra ra!",
            "popularity": 0.6
        },
        {
            "id": 40653,
            "original_name": "Caccia al Re \u2013 La narcotici",
            "popularity": 0.6
        },
        {
            "id": 48313,
            "original_name": "Can\u0131m Kocac\u0131m",
            "popularity": 0.6
        },
        {
            "id": 54613,
            "original_name": "Cachito de Cielo: Divino amor",
            "popularity": 2.68
        },
        {
            "id": 59234,
            "original_name": "Escola pra Cachorro",
            "popularity": 0.6
        },
        {
            "id": 62521,
            "original_name": "Acacias 38",
            "popularity": 6.996
        },
        {
            "id": 66398,
            "original_name": "Diomedes, el Cacique de La Junta",
            "popularity": 78.681
        },
        {
            "id": 71635,
            "original_name": "Cachitos de hierro y cromo",
            "popularity": 3.179
        },
        {
            "id": 74349,
            "original_name": "Le Grand Cactus",
            "popularity": 0.838
        },
        {
            "id": 78064,
            "original_name": "Il Cacciatore",
            "popularity": 8.366
        },
        {
            "id": 80806,
            "original_name": "La cacica",
            "popularity": 14.509
        },
        {
            "id": 81944,
            "original_name": "La Caceria",
            "popularity": 0.6
        },
        {
            "id": 82544,
            "original_name": "Super-h\u00e9ros, la face cach\u00e9e",
            "popularity": 0.6
        },
        {
            "id": 83037,
            "original_name": "La cacer\u00eda: Las ni\u00f1as de Alto Hospicio",
            "popularity": 2.559
        },
        {
            "id": 84801,
            "original_name": "Las vacaciones de los Reyes",
            "popularity": 0.6
        },
        {
            "id": 98875,
            "original_name": "Mais o\u00f9 se cache Carmen Sandiego ?",
            "popularity": 0.681
        },
        {
            "id": 100425,
            "original_name": "Celebrity Hunted: Caccia all'uomo",
            "popularity": 10.355
        },
        {
            "id": 106837,
            "original_name": "La coste\u00f1a y el cachaco",
            "popularity": 3.582
        },
        {
            "id": 123359,
            "original_name": "Cachemire - Un podcast morbidissimo",
            "popularity": 1.39
        },
        {
            "id": 127957,
            "original_name": "Vice cach\u00e9",
            "popularity": 0.6
        },
        {
            "id": 133487,
            "original_name": "La Face cach\u00e9e...",
            "popularity": 0.6
        },
        {
            "id": 134984,
            "original_name": "El hijo del Cacique",
            "popularity": 1.8
        }
    ],
    "relations": [
        {
            "character": "cach"
        },
        {
            "character": "cact"
        },
        {
            "character": "caci"
        },
        {
            "character": "cacc"
        },
        {
            "character": "cace"
        }
    ],
    "top20": [
        {
            "id": 66398,
            "original_name": "Diomedes, el Cacique de La Junta",
            "popularity": 78.681
        },
        {
            "id": 80806,
            "original_name": "La cacica",
            "popularity": 14.509
        },
        {
            "id": 100425,
            "original_name": "Celebrity Hunted: Caccia all'uomo",
            "popularity": 10.355
        },
        {
            "id": 78064,
            "original_name": "Il Cacciatore",
            "popularity": 8.366
        },
        {
            "id": 62521,
            "original_name": "Acacias 38",
            "popularity": 6.996
        },
        {
            "id": 106837,
            "original_name": "La coste\u00f1a y el cachaco",
            "popularity": 3.582
        },
        {
            "id": 71635,
            "original_name": "Cachitos de hierro y cromo",
            "popularity": 3.179
        },
        {
            "id": 54613,
            "original_name": "Cachito de Cielo: Divino amor",
            "popularity": 2.68
        },
        {
            "id": 83037,
            "original_name": "La cacer\u00eda: Las ni\u00f1as de Alto Hospicio",
            "popularity": 2.559
        },
        {
            "id": 134984,
            "original_name": "El hijo del Cacique",
            "popularity": 1.8
        },
        {
            "id": 123359,
            "original_name": "Cachemire - Un podcast morbidissimo",
            "popularity": 1.39
        },
        {
            "id": 74349,
            "original_name": "Le Grand Cactus",
            "popularity": 0.838
        },
        {
            "id": 98875,
            "original_name": "Mais o\u00f9 se cache Carmen Sandiego ?",
            "popularity": 0.681
        },
        {
            "id": 28448,
            "original_name": "Cactus Jim",
            "popularity": 0.6
        },
        {
            "id": 32054,
            "original_name": "Romantic Delicacies",
            "popularity": 0.6
        },
        {
            "id": 40486,
            "original_name": "Cach\u00fan cach\u00fan ra ra!",
            "popularity": 0.6
        },
        {
            "id": 26914,
            "original_name": "Cachito De Mi Corazon",
            "popularity": 0.6
        },
        {
            "id": 40653,
            "original_name": "Caccia al Re \u2013 La narcotici",
            "popularity": 0.6
        },
        {
            "id": 7788,
            "original_name": "Cachureos",
            "popularity": 0.6
        },
        {
            "id": 48313,
            "original_name": "Can\u0131m Kocac\u0131m",
            "popularity": 0.6
        }
    ]
}