{
    "data": [
        {
            "id": 7788,
            "original_name": "Cachureos",
            "popularity": 0.6
        },
        {
            "id": 26914,
            "original_name": "Cachito De Mi Corazon",
            "popularity": 0.6
        },
        {
            "id": 40486,
            "original_name": "Cach\u00fan cach\u00fan ra ra!",
            "popularity": 0.6
        },
        {
            "id": 54613,
            "original_name": "Cachito de Cielo: Divino amor",
            "popularity": 2.68
        },
        {
            "id": 59234,
            "original_name": "Escola pra Cachorro",
            "popularity": 0.6
        },
        {
            "id": 71635,
            "original_name": "Cachitos de hierro y cromo",
            "popularity": 3.179
        },
        {
            "id": 82544,
            "original_name": "Super-h\u00e9ros, la face cach\u00e9e",
            "popularity": 0.6
        },
        {
            "id": 98875,
            "original_name": "Mais o\u00f9 se cache Carmen Sandiego ?",
            "popularity": 0.681
        },
        {
            "id": 106837,
            "original_name": "La coste\u00f1a y el cachaco",
            "popularity": 3.582
        },
        {
            "id": 123359,
            "original_name": "Cachemire - Un podcast morbidissimo",
            "popularity": 1.39
        },
        {
            "id": 127957,
            "original_name": "Vice cach\u00e9",
            "popularity": 0.6
        },
        {
            "id": 133487,
            "original_name": "La Face cach\u00e9e...",
            "popularity": 0.6
        }
    ],
    "relations": [],
    "top20": [
        {
            "id": 7788,
            "original_name": "Cachureos",
            "popularity": 0.6
        },
        {
            "id": 26914,
            "original_name": "Cachito De Mi Corazon",
            "popularity": 0.6
        },
        {
            "id": 40486,
            "original_name": "Cach\u00fan cach\u00fan ra ra!",
            "popularity": 0.6
        },
        {
            "id": 54613,
            "original_name": "Cachito de Cielo: Divino amor",
            "popularity": 2.68
        },
        {
            "id": 59234,
            "original_name": "Escola pra Cachorro",
            "popularity": 0.6
        },
        {
            "id": 71635,
            "original_name": "Cachitos de hierro y cromo",
            "popularity": 3.179
        },
        {
            "id": 82544,
            "original_name": "Super-h\u00e9ros, la face cach\u00e9e",
            "popularity": 0.6
        },
        {
            "id": 98875,
            "original_name": "Mais o\u00f9 se cache Carmen Sandiego ?",
            "popularity": 0.681
        },
        {
            "id": 106837,
            "original_name": "La coste\u00f1a y el cachaco",
            "popularity": 3.582
        },
        {
            "id": 123359,
            "original_name": "Cachemire - Un podcast morbidissimo",
            "popularity": 1.39
        },
        {
            "id": 127957,
            "original_name": "Vice cach\u00e9",
            "popularity": 0.6
        },
        {
            "id": 133487,
            "original_name": "La Face cach\u00e9e...",
            "popularity": 0.6
        }
    ]
}