{
    "data": [
        {
            "id": 73365,
            "original_name": "Arrive en campagne",
            "popularity": 0.6
        },
        {
            "id": 77843,
            "original_name": "Napol\u00e9on: La Campagne de Russie",
            "popularity": 1.132
        },
        {
            "id": 92927,
            "original_name": "Bonaparte, la campagne d'Egypte",
            "popularity": 1.4
        },
        {
            "id": 115858,
            "original_name": "\u00c9lys\u00e9e 2012, la vraie campagne",
            "popularity": 0.6
        },
        {
            "id": 134334,
            "original_name": "C\u00e9cilia, m\u00e9decin de campagne",
            "popularity": 0.6
        }
    ],
    "relations": [],
    "top20": [
        {
            "id": 73365,
            "original_name": "Arrive en campagne",
            "popularity": 0.6
        },
        {
            "id": 77843,
            "original_name": "Napol\u00e9on: La Campagne de Russie",
            "popularity": 1.132
        },
        {
            "id": 92927,
            "original_name": "Bonaparte, la campagne d'Egypte",
            "popularity": 1.4
        },
        {
            "id": 115858,
            "original_name": "\u00c9lys\u00e9e 2012, la vraie campagne",
            "popularity": 0.6
        },
        {
            "id": 134334,
            "original_name": "C\u00e9cilia, m\u00e9decin de campagne",
            "popularity": 0.6
        }
    ]
}