{
    "data": [
        {
            "id": 59605,
            "original_name": "Escandalo TV",
            "popularity": 0.6
        },
        {
            "id": 77522,
            "original_name": "Scandalous",
            "popularity": 0.6
        },
        {
            "id": 98008,
            "original_name": "Scandalous Overtures",
            "popularity": 0.6
        },
        {
            "id": 117562,
            "original_name": "The 1990s: Totally Scandalous",
            "popularity": 0.6
        },
        {
            "id": 131123,
            "original_name": "The Boleyns: A Scandalous Family",
            "popularity": 4.387
        }
    ],
    "relations": [],
    "top20": [
        {
            "id": 59605,
            "original_name": "Escandalo TV",
            "popularity": 0.6
        },
        {
            "id": 77522,
            "original_name": "Scandalous",
            "popularity": 0.6
        },
        {
            "id": 98008,
            "original_name": "Scandalous Overtures",
            "popularity": 0.6
        },
        {
            "id": 117562,
            "original_name": "The 1990s: Totally Scandalous",
            "popularity": 0.6
        },
        {
            "id": 131123,
            "original_name": "The Boleyns: A Scandalous Family",
            "popularity": 4.387
        }
    ]
}