{
    "data": [
        {
            "id": 5867,
            "original_name": "Stolen Women: Captured Hearts",
            "popularity": 1.09
        },
        {
            "id": 22648,
            "original_name": "Captured",
            "popularity": 0.6
        },
        {
            "id": 25867,
            "original_name": "Cash Or Capture",
            "popularity": 0.6
        },
        {
            "id": 28599,
            "original_name": "The Capture of the Green River Killer",
            "popularity": 3.966
        },
        {
            "id": 47188,
            "original_name": "The Man Who Captured Eichmann",
            "popularity": 0.6
        },
        {
            "id": 52515,
            "original_name": "CAPTURE",
            "popularity": 0.6
        },
        {
            "id": 57274,
            "original_name": "Capture",
            "popularity": 0.6
        },
        {
            "id": 93166,
            "original_name": "The Capture",
            "popularity": 12.893
        },
        {
            "id": 104415,
            "original_name": "Pentangle Captured Live",
            "popularity": 0.6
        },
        {
            "id": 105231,
            "original_name": "Capture Lover",
            "popularity": 1.141
        },
        {
            "id": 114169,
            "original_name": "Manhunt: Kill or Capture",
            "popularity": 0.6
        },
        {
            "id": 120927,
            "original_name": "Paranormal Captured",
            "popularity": 0.6
        },
        {
            "id": 124637,
            "original_name": "Capturing Big Mouth",
            "popularity": 0.6
        }
    ],
    "relations": [],
    "top20": [
        {
            "id": 5867,
            "original_name": "Stolen Women: Captured Hearts",
            "popularity": 1.09
        },
        {
            "id": 22648,
            "original_name": "Captured",
            "popularity": 0.6
        },
        {
            "id": 25867,
            "original_name": "Cash Or Capture",
            "popularity": 0.6
        },
        {
            "id": 28599,
            "original_name": "The Capture of the Green River Killer",
            "popularity": 3.966
        },
        {
            "id": 47188,
            "original_name": "The Man Who Captured Eichmann",
            "popularity": 0.6
        },
        {
            "id": 52515,
            "original_name": "CAPTURE",
            "popularity": 0.6
        },
        {
            "id": 57274,
            "original_name": "Capture",
            "popularity": 0.6
        },
        {
            "id": 93166,
            "original_name": "The Capture",
            "popularity": 12.893
        },
        {
            "id": 104415,
            "original_name": "Pentangle Captured Live",
            "popularity": 0.6
        },
        {
            "id": 105231,
            "original_name": "Capture Lover",
            "popularity": 1.141
        },
        {
            "id": 114169,
            "original_name": "Manhunt: Kill or Capture",
            "popularity": 0.6
        },
        {
            "id": 120927,
            "original_name": "Paranormal Captured",
            "popularity": 0.6
        },
        {
            "id": 124637,
            "original_name": "Capturing Big Mouth",
            "popularity": 0.6
        }
    ]
}