{
    "data": [
        {
            "id": 5983,
            "original_name": "Johnny Staccato",
            "popularity": 8.717
        },
        {
            "id": 25156,
            "original_name": "The Locator",
            "popularity": 0.843
        },
        {
            "id": 36153,
            "original_name": "Mercator",
            "popularity": 0.6
        },
        {
            "id": 36510,
            "original_name": "Americatown",
            "popularity": 0.6
        },
        {
            "id": 41532,
            "original_name": "Il supermercato",
            "popularity": 0.6
        },
        {
            "id": 41607,
            "original_name": "Il peccato e la vergogna",
            "popularity": 1.139
        },
        {
            "id": 41655,
            "original_name": "L'avvocato Porta",
            "popularity": 0.6
        },
        {
            "id": 41677,
            "original_name": "L'avvocato delle donne",
            "popularity": 1.882
        },
        {
            "id": 64276,
            "original_name": "Cato Isaksen",
            "popularity": 0.6
        },
        {
            "id": 74982,
            "original_name": "Ionna, The Moldovan Hammer - An Educator to the Stars",
            "popularity": 1.4
        },
        {
            "id": 89500,
            "original_name": "sesso: il peccato originale",
            "popularity": 0.6
        },
        {
            "id": 89600,
            "original_name": "Educators",
            "popularity": 1.4
        },
        {
            "id": 95806,
            "original_name": "Nella scatola nera",
            "popularity": 1.616
        },
        {
            "id": 115941,
            "original_name": "Mord in Genua \u2013 Ein Fall f\u00fcr Petra Delicato",
            "popularity": 0.84
        },
        {
            "id": 125945,
            "original_name": "The Vindicators",
            "popularity": 0.6
        }
    ],
    "relations": [],
    "top20": [
        {
            "id": 5983,
            "original_name": "Johnny Staccato",
            "popularity": 8.717
        },
        {
            "id": 25156,
            "original_name": "The Locator",
            "popularity": 0.843
        },
        {
            "id": 36153,
            "original_name": "Mercator",
            "popularity": 0.6
        },
        {
            "id": 36510,
            "original_name": "Americatown",
            "popularity": 0.6
        },
        {
            "id": 41532,
            "original_name": "Il supermercato",
            "popularity": 0.6
        },
        {
            "id": 41607,
            "original_name": "Il peccato e la vergogna",
            "popularity": 1.139
        },
        {
            "id": 41655,
            "original_name": "L'avvocato Porta",
            "popularity": 0.6
        },
        {
            "id": 41677,
            "original_name": "L'avvocato delle donne",
            "popularity": 1.882
        },
        {
            "id": 64276,
            "original_name": "Cato Isaksen",
            "popularity": 0.6
        },
        {
            "id": 74982,
            "original_name": "Ionna, The Moldovan Hammer - An Educator to the Stars",
            "popularity": 1.4
        },
        {
            "id": 89500,
            "original_name": "sesso: il peccato originale",
            "popularity": 0.6
        },
        {
            "id": 89600,
            "original_name": "Educators",
            "popularity": 1.4
        },
        {
            "id": 95806,
            "original_name": "Nella scatola nera",
            "popularity": 1.616
        },
        {
            "id": 115941,
            "original_name": "Mord in Genua \u2013 Ein Fall f\u00fcr Petra Delicato",
            "popularity": 0.84
        },
        {
            "id": 125945,
            "original_name": "The Vindicators",
            "popularity": 0.6
        }
    ]
}