{
    "data": [
        {
            "id": 43771,
            "original_name": "CBTV",
            "popularity": 0.6
        },
        {
            "id": 60146,
            "original_name": "CBT Nuggets",
            "popularity": 0.6
        }
    ],
    "relations": [],
    "top20": [
        {
            "id": 43771,
            "original_name": "CBTV",
            "popularity": 0.6
        },
        {
            "id": 60146,
            "original_name": "CBT Nuggets",
            "popularity": 0.6
        }
    ]
}