{
    "data": [
        {
            "id": 3395,
            "original_name": "Acceptable.TV",
            "popularity": 0.6
        },
        {
            "id": 23985,
            "original_name": "Acceptable TV",
            "popularity": 1.096
        },
        {
            "id": 75019,
            "original_name": "Acceptable Risk",
            "popularity": 1.944
        },
        {
            "id": 122146,
            "original_name": "Offre accept\u00e9e",
            "popularity": 0.6
        }
    ],
    "relations": [],
    "top20": [
        {
            "id": 3395,
            "original_name": "Acceptable.TV",
            "popularity": 0.6
        },
        {
            "id": 23985,
            "original_name": "Acceptable TV",
            "popularity": 1.096
        },
        {
            "id": 75019,
            "original_name": "Acceptable Risk",
            "popularity": 1.944
        },
        {
            "id": 122146,
            "original_name": "Offre accept\u00e9e",
            "popularity": 0.6
        }
    ]
}