{
    "data": [
        {
            "id": 62623,
            "original_name": "Murder in Successville",
            "popularity": 2.871
        }
    ],
    "relations": [],
    "top20": [
        {
            "id": 62623,
            "original_name": "Murder in Successville",
            "popularity": 2.871
        }
    ]
}