{
    "data": [
        {
            "id": 301,
            "original_name": "Access Hollywood",
            "popularity": 1.913
        },
        {
            "id": 1209,
            "original_name": "Trimming Success",
            "popularity": 0.6
        },
        {
            "id": 7659,
            "original_name": "Your Business Success",
            "popularity": 0.6
        },
        {
            "id": 9545,
            "original_name": "Secret Access: Air Force One",
            "popularity": 0.6
        },
        {
            "id": 10742,
            "original_name": "VH1: All Access",
            "popularity": 1.245
        },
        {
            "id": 10849,
            "original_name": "NBA Access with Ahmad Rashad",
            "popularity": 0.6
        },
        {
            "id": 11937,
            "original_name": "Recipe for Success",
            "popularity": 0.6
        },
        {
            "id": 14806,
            "original_name": "Access Granted",
            "popularity": 1.385
        },
        {
            "id": 17624,
            "original_name": "Making It! Minority Success Stories",
            "popularity": 0.6
        },
        {
            "id": 19987,
            "original_name": "All Access Pass",
            "popularity": 0.6
        },
        {
            "id": 21074,
            "original_name": "Operation Success",
            "popularity": 0.6
        },
        {
            "id": 23827,
            "original_name": "Succes verzekerd",
            "popularity": 0.656
        },
        {
            "id": 24182,
            "original_name": "Recipe for Success (UK)",
            "popularity": 0.6
        },
        {
            "id": 26708,
            "original_name": "Total Access 24/7",
            "popularity": 1.09
        },
        {
            "id": 27041,
            "original_name": "Access America",
            "popularity": 0.6
        },
        {
            "id": 30196,
            "original_name": "Access 1974",
            "popularity": 0.6
        },
        {
            "id": 30572,
            "original_name": "Open Access",
            "popularity": 3.096
        },
        {
            "id": 33170,
            "original_name": "Access",
            "popularity": 0.6
        },
        {
            "id": 34817,
            "original_name": "UFC All Access",
            "popularity": 0.6
        },
        {
            "id": 42040,
            "original_name": "Project Accessory",
            "popularity": 0.6
        },
        {
            "id": 55432,
            "original_name": "All Access Weekly",
            "popularity": 0.6
        },
        {
            "id": 55569,
            "original_name": "Access 360 World Heritage",
            "popularity": 0.6
        },
        {
            "id": 58976,
            "original_name": "The Chris Gethard Show: Public Access",
            "popularity": 2.397
        },
        {
            "id": 62623,
            "original_name": "Murder in Successville",
            "popularity": 2.871
        },
        {
            "id": 71900,
            "original_name": "All Access: Quest for the Stanley Cup",
            "popularity": 0.6
        },
        {
            "id": 76197,
            "original_name": "Success",
            "popularity": 0.6
        },
        {
            "id": 76331,
            "original_name": "Succession",
            "popularity": 106.789
        },
        {
            "id": 76430,
            "original_name": "Relative Success with Tabatha",
            "popularity": 0.6
        },
        {
            "id": 76729,
            "original_name": "The Secrets of Lake Success",
            "popularity": 1.718
        },
        {
            "id": 78226,
            "original_name": "Just for Laughs: All-Access",
            "popularity": 0.6
        },
        {
            "id": 83802,
            "original_name": "365 Dage Til Succes",
            "popularity": 0.6
        },
        {
            "id": 83826,
            "original_name": "Access",
            "popularity": 0.887
        },
        {
            "id": 85608,
            "original_name": "HBO Access",
            "popularity": 0.6
        },
        {
            "id": 86683,
            "original_name": "Mission accessible",
            "popularity": 0.6
        },
        {
            "id": 88376,
            "original_name": "Lake Success",
            "popularity": 5.375
        },
        {
            "id": 91642,
            "original_name": "Secrets of the Zoo: All Access",
            "popularity": 0.6
        },
        {
            "id": 92686,
            "original_name": "Success Stories Lee Kuan Yew",
            "popularity": 0.6
        },
        {
            "id": 93274,
            "original_name": "British Airways 24/7: Access All Areas",
            "popularity": 0.6
        },
        {
            "id": 93528,
            "original_name": "N\u00f8glen til succes",
            "popularity": 0.6
        },
        {
            "id": 102555,
            "original_name": "Successful People",
            "popularity": 0.903
        },
        {
            "id": 104156,
            "original_name": "Cadets All Access 2006",
            "popularity": 0.6
        },
        {
            "id": 107180,
            "original_name": "All Access: Mayweather vs. McGregor",
            "popularity": 0.6
        },
        {
            "id": 110342,
            "original_name": "KCON:TACT ALL-ACCESS",
            "popularity": 2.398
        },
        {
            "id": 113643,
            "original_name": "Daft Punk | Random Access Memories | The Collaborators",
            "popularity": 0.6
        },
        {
            "id": 113998,
            "original_name": "Building Success",
            "popularity": 0.6
        },
        {
            "id": 116950,
            "original_name": "The Sky is the Limit: Rijk en Succesvol",
            "popularity": 0.6
        },
        {
            "id": 117408,
            "original_name": "Celebrity MasterChef: A Recipe for Success",
            "popularity": 0.96
        },
        {
            "id": 118593,
            "original_name": "Succes mod alle odds",
            "popularity": 0.6
        },
        {
            "id": 120276,
            "original_name": "Het succes van de kringloopwinkel",
            "popularity": 0.811
        },
        {
            "id": 131163,
            "original_name": "All Access",
            "popularity": 0.6
        }
    ],
    "relations": [
        {
            "character": "ccess"
        },
        {
            "character": "ccesv"
        }
    ],
    "top20": [
        {
            "id": 76331,
            "original_name": "Succession",
            "popularity": 106.789
        },
        {
            "id": 88376,
            "original_name": "Lake Success",
            "popularity": 5.375
        },
        {
            "id": 30572,
            "original_name": "Open Access",
            "popularity": 3.096
        },
        {
            "id": 62623,
            "original_name": "Murder in Successville",
            "popularity": 2.871
        },
        {
            "id": 110342,
            "original_name": "KCON:TACT ALL-ACCESS",
            "popularity": 2.398
        },
        {
            "id": 58976,
            "original_name": "The Chris Gethard Show: Public Access",
            "popularity": 2.397
        },
        {
            "id": 301,
            "original_name": "Access Hollywood",
            "popularity": 1.913
        },
        {
            "id": 76729,
            "original_name": "The Secrets of Lake Success",
            "popularity": 1.718
        },
        {
            "id": 14806,
            "original_name": "Access Granted",
            "popularity": 1.385
        },
        {
            "id": 10742,
            "original_name": "VH1: All Access",
            "popularity": 1.245
        },
        {
            "id": 26708,
            "original_name": "Total Access 24/7",
            "popularity": 1.09
        },
        {
            "id": 117408,
            "original_name": "Celebrity MasterChef: A Recipe for Success",
            "popularity": 0.96
        },
        {
            "id": 102555,
            "original_name": "Successful People",
            "popularity": 0.903
        },
        {
            "id": 83826,
            "original_name": "Access",
            "popularity": 0.887
        },
        {
            "id": 120276,
            "original_name": "Het succes van de kringloopwinkel",
            "popularity": 0.811
        },
        {
            "id": 23827,
            "original_name": "Succes verzekerd",
            "popularity": 0.656
        },
        {
            "id": 10849,
            "original_name": "NBA Access with Ahmad Rashad",
            "popularity": 0.6
        },
        {
            "id": 7659,
            "original_name": "Your Business Success",
            "popularity": 0.6
        },
        {
            "id": 9545,
            "original_name": "Secret Access: Air Force One",
            "popularity": 0.6
        },
        {
            "id": 1209,
            "original_name": "Trimming Success",
            "popularity": 0.6
        }
    ]
}