{
    "data": [
        {
            "id": 282,
            "original_name": "Ocean Girl",
            "popularity": 4.632
        },
        {
            "id": 702,
            "original_name": "8th & Ocean",
            "popularity": 0.879
        },
        {
            "id": 2623,
            "original_name": "Ocean",
            "popularity": 0.6
        },
        {
            "id": 6681,
            "original_name": "Ocean of Fear",
            "popularity": 0.635
        },
        {
            "id": 8524,
            "original_name": "Oceans",
            "popularity": 0.628
        },
        {
            "id": 9811,
            "original_name": "One Ocean View",
            "popularity": 0.842
        },
        {
            "id": 10812,
            "original_name": "Ocean Ave.",
            "popularity": 2.061
        },
        {
            "id": 16757,
            "original_name": "Ocean Star",
            "popularity": 0.844
        },
        {
            "id": 17731,
            "original_name": "Ocean's Deadliest",
            "popularity": 0.6
        },
        {
            "id": 23710,
            "original_name": "Great Ocean Adventure",
            "popularity": 0.6
        },
        {
            "id": 24180,
            "original_name": "Ocean Force",
            "popularity": 0.6
        },
        {
            "id": 24473,
            "original_name": "Ocean Force: Huntington Beach, O.C.",
            "popularity": 0.6
        },
        {
            "id": 24917,
            "original_name": "The New Adventures Of Ocean Girl",
            "popularity": 1.341
        },
        {
            "id": 27764,
            "original_name": "Oceanquest",
            "popularity": 0.6
        },
        {
            "id": 32508,
            "original_name": "Ocean Force",
            "popularity": 0.6
        },
        {
            "id": 37097,
            "original_name": "Oceans Blue",
            "popularity": 0.6
        },
        {
            "id": 37158,
            "original_name": "Drain the Oceans",
            "popularity": 6.355
        },
        {
            "id": 38437,
            "original_name": "One Ocean",
            "popularity": 0.6
        },
        {
            "id": 42706,
            "original_name": "Indian Ocean with Simon Reeve",
            "popularity": 0.624
        },
        {
            "id": 43213,
            "original_name": "Ocean Mysteries with Jeff Corwin",
            "popularity": 1.188
        },
        {
            "id": 44069,
            "original_name": "Saving the Ocean: Shark Reef & the Sacred Island",
            "popularity": 0.6
        },
        {
            "id": 45422,
            "original_name": "Life of Oceans",
            "popularity": 0.6
        },
        {
            "id": 53055,
            "original_name": "Jean-Michel Cousteau's Ocean Adventures",
            "popularity": 0.6
        },
        {
            "id": 55109,
            "original_name": "P\u00e5 togt med Troels Kl\u00f8vedal - Nordkaperen i det indiske ocean",
            "popularity": 0.6
        },
        {
            "id": 57123,
            "original_name": "Discover Planet Ocean",
            "popularity": 0.874
        },
        {
            "id": 58172,
            "original_name": "The Ocean Room",
            "popularity": 0.6
        },
        {
            "id": 59263,
            "original_name": "Ocean Odyssey",
            "popularity": 0.6
        },
        {
            "id": 60160,
            "original_name": "Ocean Odyssey: The Blue Realm",
            "popularity": 1.38
        },
        {
            "id": 64583,
            "original_name": "Ocean Giants",
            "popularity": 1.002
        },
        {
            "id": 69944,
            "original_name": "Lawless Oceans",
            "popularity": 0.827
        },
        {
            "id": 71270,
            "original_name": "Atlantic: The Wildest Ocean on Earth",
            "popularity": 0.693
        },
        {
            "id": 74257,
            "original_name": "Oceano",
            "popularity": 1.928
        },
        {
            "id": 76423,
            "original_name": "Ocean Vet",
            "popularity": 0.606
        },
        {
            "id": 77317,
            "original_name": "An Ocean Apart",
            "popularity": 0.6
        },
        {
            "id": 77840,
            "original_name": "Curious Minds: Oceans",
            "popularity": 0.6
        },
        {
            "id": 77894,
            "original_name": "Creating An Ocean",
            "popularity": 0.6
        },
        {
            "id": 77908,
            "original_name": "Ocean Stories",
            "popularity": 0.6
        },
        {
            "id": 80310,
            "original_name": "Ocean Bounty",
            "popularity": 0.6
        },
        {
            "id": 98303,
            "original_name": "Drain The Oceans: Deep Dive",
            "popularity": 1.702
        },
        {
            "id": 100270,
            "original_name": "Ancient Oceans",
            "popularity": 0.6
        },
        {
            "id": 102932,
            "original_name": "Deep Ocean",
            "popularity": 0.95
        },
        {
            "id": 103728,
            "original_name": "Ocean Parks",
            "popularity": 0.6
        },
        {
            "id": 103938,
            "original_name": "Jacques Cousteau's Ocean Tales",
            "popularity": 0.657
        },
        {
            "id": 105006,
            "original_name": "Australia's Ocean Odyssey: A journey down the East Australian Current",
            "popularity": 0.677
        },
        {
            "id": 114542,
            "original_name": "Chasing Ocean Giants",
            "popularity": 0.6
        },
        {
            "id": 114776,
            "original_name": "Ocean Warriors",
            "popularity": 0.6
        },
        {
            "id": 116510,
            "original_name": "Ocean Predators",
            "popularity": 0.6
        },
        {
            "id": 118477,
            "original_name": "Oceanxplorers",
            "popularity": 0.6
        },
        {
            "id": 120737,
            "original_name": "Wonders of the Ocean",
            "popularity": 0.6
        },
        {
            "id": 122364,
            "original_name": "Expedition Deep Ocean",
            "popularity": 0.84
        },
        {
            "id": 122674,
            "original_name": "Ocean Wild",
            "popularity": 0.6
        },
        {
            "id": 130005,
            "original_name": "Oceans Apart: Art and the Pacific with James Fox",
            "popularity": 0.6
        },
        {
            "id": 137056,
            "original_name": "Ocean Wreck Investigation",
            "popularity": 0.684
        }
    ],
    "relations": [
        {
            "character": "ceans"
        },
        {
            "character": "ceanq"
        },
        {
            "character": "ceano"
        },
        {
            "character": "ceanx"
        }
    ],
    "top20": [
        {
            "id": 37158,
            "original_name": "Drain the Oceans",
            "popularity": 6.355
        },
        {
            "id": 282,
            "original_name": "Ocean Girl",
            "popularity": 4.632
        },
        {
            "id": 10812,
            "original_name": "Ocean Ave.",
            "popularity": 2.061
        },
        {
            "id": 74257,
            "original_name": "Oceano",
            "popularity": 1.928
        },
        {
            "id": 98303,
            "original_name": "Drain The Oceans: Deep Dive",
            "popularity": 1.702
        },
        {
            "id": 60160,
            "original_name": "Ocean Odyssey: The Blue Realm",
            "popularity": 1.38
        },
        {
            "id": 24917,
            "original_name": "The New Adventures Of Ocean Girl",
            "popularity": 1.341
        },
        {
            "id": 43213,
            "original_name": "Ocean Mysteries with Jeff Corwin",
            "popularity": 1.188
        },
        {
            "id": 64583,
            "original_name": "Ocean Giants",
            "popularity": 1.002
        },
        {
            "id": 102932,
            "original_name": "Deep Ocean",
            "popularity": 0.95
        },
        {
            "id": 702,
            "original_name": "8th & Ocean",
            "popularity": 0.879
        },
        {
            "id": 57123,
            "original_name": "Discover Planet Ocean",
            "popularity": 0.874
        },
        {
            "id": 16757,
            "original_name": "Ocean Star",
            "popularity": 0.844
        },
        {
            "id": 9811,
            "original_name": "One Ocean View",
            "popularity": 0.842
        },
        {
            "id": 122364,
            "original_name": "Expedition Deep Ocean",
            "popularity": 0.84
        },
        {
            "id": 69944,
            "original_name": "Lawless Oceans",
            "popularity": 0.827
        },
        {
            "id": 71270,
            "original_name": "Atlantic: The Wildest Ocean on Earth",
            "popularity": 0.693
        },
        {
            "id": 137056,
            "original_name": "Ocean Wreck Investigation",
            "popularity": 0.684
        },
        {
            "id": 105006,
            "original_name": "Australia's Ocean Odyssey: A journey down the East Australian Current",
            "popularity": 0.677
        },
        {
            "id": 103938,
            "original_name": "Jacques Cousteau's Ocean Tales",
            "popularity": 0.657
        }
    ]
}