{
    "data": [
        {
            "id": 35286,
            "original_name": "La Cenicienta",
            "popularity": 1.381
        },
        {
            "id": 37324,
            "original_name": "Odwr\u00f3ceni",
            "popularity": 0.792
        },
        {
            "id": 45763,
            "original_name": "Scenic Wonders of America",
            "popularity": 0.6
        },
        {
            "id": 50501,
            "original_name": "Gecenin \u00d6teki Y\u00fcz\u00fc",
            "popularity": 0.6
        },
        {
            "id": 68348,
            "original_name": "Gecenin Krali\u00e7esi",
            "popularity": 1.337
        },
        {
            "id": 86007,
            "original_name": "Odwr\u00f3ceni. Ojcowie i c\u00f3rki",
            "popularity": 1.727
        },
        {
            "id": 97630,
            "original_name": "World's Most Scenic Railway Journeys",
            "popularity": 3.193
        },
        {
            "id": 112228,
            "original_name": "Scotland's Scenic Railways",
            "popularity": 0.665
        },
        {
            "id": 117240,
            "original_name": "Great American Scenic Railroads",
            "popularity": 0.6
        },
        {
            "id": 117243,
            "original_name": "Great Scenic Railway Journeys",
            "popularity": 0.6
        },
        {
            "id": 122647,
            "original_name": "World's Most Scenic River Journeys",
            "popularity": 0.84
        },
        {
            "id": 137914,
            "original_name": "Britain\u2019s Scenic Railways",
            "popularity": 1.994
        }
    ],
    "relations": [],
    "top20": [
        {
            "id": 35286,
            "original_name": "La Cenicienta",
            "popularity": 1.381
        },
        {
            "id": 37324,
            "original_name": "Odwr\u00f3ceni",
            "popularity": 0.792
        },
        {
            "id": 45763,
            "original_name": "Scenic Wonders of America",
            "popularity": 0.6
        },
        {
            "id": 50501,
            "original_name": "Gecenin \u00d6teki Y\u00fcz\u00fc",
            "popularity": 0.6
        },
        {
            "id": 68348,
            "original_name": "Gecenin Krali\u00e7esi",
            "popularity": 1.337
        },
        {
            "id": 86007,
            "original_name": "Odwr\u00f3ceni. Ojcowie i c\u00f3rki",
            "popularity": 1.727
        },
        {
            "id": 97630,
            "original_name": "World's Most Scenic Railway Journeys",
            "popularity": 3.193
        },
        {
            "id": 112228,
            "original_name": "Scotland's Scenic Railways",
            "popularity": 0.665
        },
        {
            "id": 117240,
            "original_name": "Great American Scenic Railroads",
            "popularity": 0.6
        },
        {
            "id": 117243,
            "original_name": "Great Scenic Railway Journeys",
            "popularity": 0.6
        },
        {
            "id": 122647,
            "original_name": "World's Most Scenic River Journeys",
            "popularity": 0.84
        },
        {
            "id": 137914,
            "original_name": "Britain\u2019s Scenic Railways",
            "popularity": 1.994
        }
    ]
}