{
    "data": [
        {
            "id": 53430,
            "original_name": "Ceplas-Ceplos",
            "popularity": 0.6
        }
    ],
    "relations": [],
    "top20": [
        {
            "id": 53430,
            "original_name": "Ceplas-Ceplos",
            "popularity": 0.6
        }
    ]
}