{
    "data": [
        {
            "id": 281,
            "original_name": "NASCAR Racers",
            "popularity": 3.356
        },
        {
            "id": 2158,
            "original_name": "Dinosaucers",
            "popularity": 4.655
        },
        {
            "id": 6029,
            "original_name": "Hot Wheels AcceleRacers",
            "popularity": 2.412
        },
        {
            "id": 8504,
            "original_name": "Ballet Chancers",
            "popularity": 0.6
        },
        {
            "id": 11229,
            "original_name": "10-8: Officers on Duty",
            "popularity": 6.709
        },
        {
            "id": 13639,
            "original_name": "Alien Racers",
            "popularity": 0.688
        },
        {
            "id": 14668,
            "original_name": "Producers' Showcase",
            "popularity": 2.664
        },
        {
            "id": 14904,
            "original_name": "Tales of the 77th Bengal Lancers",
            "popularity": 2.997
        },
        {
            "id": 22805,
            "original_name": "Girl Racers",
            "popularity": 0.6
        },
        {
            "id": 23459,
            "original_name": "The Last Chancers",
            "popularity": 1.165
        },
        {
            "id": 25231,
            "original_name": "Dream Racers",
            "popularity": 0.6
        },
        {
            "id": 33676,
            "original_name": "Producers' Workshop",
            "popularity": 0.6
        },
        {
            "id": 34466,
            "original_name": "The Legion of Extraordinary Dancers",
            "popularity": 5.863
        },
        {
            "id": 42321,
            "original_name": "Law Enforcers",
            "popularity": 0.6
        },
        {
            "id": 55660,
            "original_name": "Millionaire Boy Racers",
            "popularity": 0.6
        },
        {
            "id": 59590,
            "original_name": "The Last Chancers",
            "popularity": 0.6
        },
        {
            "id": 62310,
            "original_name": "Space Racers",
            "popularity": 1.156
        },
        {
            "id": 68713,
            "original_name": "Formula E: Street Racers",
            "popularity": 0.849
        },
        {
            "id": 70823,
            "original_name": "Mickey and the Roadster Racers",
            "popularity": 13.447
        },
        {
            "id": 72388,
            "original_name": "Nature's Greatest Dancers",
            "popularity": 0.6
        },
        {
            "id": 92879,
            "original_name": "Sky Dancers",
            "popularity": 0.988
        },
        {
            "id": 95179,
            "original_name": "Bouncers 24/7",
            "popularity": 0.6
        },
        {
            "id": 95181,
            "original_name": "Bouncers",
            "popularity": 0.6
        },
        {
            "id": 95594,
            "original_name": "Fast & Furious Spy Racers",
            "popularity": 55.346
        },
        {
            "id": 95876,
            "original_name": "Dinner With Racers",
            "popularity": 0.6
        },
        {
            "id": 98424,
            "original_name": "Motos Cafe Racers",
            "popularity": 0.6
        },
        {
            "id": 114217,
            "original_name": "Freelancers",
            "popularity": 1.249
        },
        {
            "id": 115532,
            "original_name": "The Influencers",
            "popularity": 1.01
        },
        {
            "id": 118125,
            "original_name": "#Influencers: The Series",
            "popularity": 0.676
        },
        {
            "id": 122964,
            "original_name": "Influencers",
            "popularity": 0.6
        },
        {
            "id": 128896,
            "original_name": "Ghostfacers",
            "popularity": 0.6
        },
        {
            "id": 130082,
            "original_name": "Galaxy Racers",
            "popularity": 0.6
        }
    ],
    "relations": [],
    "top20": [
        {
            "id": 95594,
            "original_name": "Fast & Furious Spy Racers",
            "popularity": 55.346
        },
        {
            "id": 70823,
            "original_name": "Mickey and the Roadster Racers",
            "popularity": 13.447
        },
        {
            "id": 11229,
            "original_name": "10-8: Officers on Duty",
            "popularity": 6.709
        },
        {
            "id": 34466,
            "original_name": "The Legion of Extraordinary Dancers",
            "popularity": 5.863
        },
        {
            "id": 2158,
            "original_name": "Dinosaucers",
            "popularity": 4.655
        },
        {
            "id": 281,
            "original_name": "NASCAR Racers",
            "popularity": 3.356
        },
        {
            "id": 14904,
            "original_name": "Tales of the 77th Bengal Lancers",
            "popularity": 2.997
        },
        {
            "id": 14668,
            "original_name": "Producers' Showcase",
            "popularity": 2.664
        },
        {
            "id": 6029,
            "original_name": "Hot Wheels AcceleRacers",
            "popularity": 2.412
        },
        {
            "id": 114217,
            "original_name": "Freelancers",
            "popularity": 1.249
        },
        {
            "id": 23459,
            "original_name": "The Last Chancers",
            "popularity": 1.165
        },
        {
            "id": 62310,
            "original_name": "Space Racers",
            "popularity": 1.156
        },
        {
            "id": 115532,
            "original_name": "The Influencers",
            "popularity": 1.01
        },
        {
            "id": 92879,
            "original_name": "Sky Dancers",
            "popularity": 0.988
        },
        {
            "id": 68713,
            "original_name": "Formula E: Street Racers",
            "popularity": 0.849
        },
        {
            "id": 13639,
            "original_name": "Alien Racers",
            "popularity": 0.688
        },
        {
            "id": 118125,
            "original_name": "#Influencers: The Series",
            "popularity": 0.676
        },
        {
            "id": 22805,
            "original_name": "Girl Racers",
            "popularity": 0.6
        },
        {
            "id": 8504,
            "original_name": "Ballet Chancers",
            "popularity": 0.6
        },
        {
            "id": 25231,
            "original_name": "Dream Racers",
            "popularity": 0.6
        }
    ]
}