{
    "data": [
        {
            "id": 19484,
            "original_name": "The Hunchback of Notre Dame",
            "popularity": 1.547
        },
        {
            "id": 41479,
            "original_name": "Wenn das die Nachbarn w\u00fc\u00dften",
            "popularity": 1.246
        },
        {
            "id": 56513,
            "original_name": "The Hunchback of Notre Dame Festival of Fun Musical Spectacular",
            "popularity": 0.6
        },
        {
            "id": 60938,
            "original_name": "Haifischbar",
            "popularity": 1.212
        },
        {
            "id": 63471,
            "original_name": "Matchball",
            "popularity": 0.986
        },
        {
            "id": 63768,
            "original_name": "Lauter nette Nachbarn",
            "popularity": 1.982
        },
        {
            "id": 80178,
            "original_name": "Der Wunschbaum",
            "popularity": 0.6
        },
        {
            "id": 82105,
            "original_name": "H\u00f6llische Nachbarn",
            "popularity": 1.514
        },
        {
            "id": 83094,
            "original_name": "Die Magermilchbande",
            "popularity": 1.164
        },
        {
            "id": 104053,
            "original_name": "Aeschbacher",
            "popularity": 1.294
        }
    ],
    "relations": [],
    "top20": [
        {
            "id": 19484,
            "original_name": "The Hunchback of Notre Dame",
            "popularity": 1.547
        },
        {
            "id": 41479,
            "original_name": "Wenn das die Nachbarn w\u00fc\u00dften",
            "popularity": 1.246
        },
        {
            "id": 56513,
            "original_name": "The Hunchback of Notre Dame Festival of Fun Musical Spectacular",
            "popularity": 0.6
        },
        {
            "id": 60938,
            "original_name": "Haifischbar",
            "popularity": 1.212
        },
        {
            "id": 63471,
            "original_name": "Matchball",
            "popularity": 0.986
        },
        {
            "id": 63768,
            "original_name": "Lauter nette Nachbarn",
            "popularity": 1.982
        },
        {
            "id": 80178,
            "original_name": "Der Wunschbaum",
            "popularity": 0.6
        },
        {
            "id": 82105,
            "original_name": "H\u00f6llische Nachbarn",
            "popularity": 1.514
        },
        {
            "id": 83094,
            "original_name": "Die Magermilchbande",
            "popularity": 1.164
        },
        {
            "id": 104053,
            "original_name": "Aeschbacher",
            "popularity": 1.294
        }
    ]
}