{
    "data": [
        {
            "id": 12092,
            "original_name": "The World of Chemistry",
            "popularity": 0.6
        },
        {
            "id": 31911,
            "original_name": "\u92fc\u306e\u932c\u91d1\u8853\u5e2b FULLMETAL ALCHEMIST",
            "popularity": 71.71
        },
        {
            "id": 34042,
            "original_name": "Chemistry",
            "popularity": 0.6
        },
        {
            "id": 41875,
            "original_name": "Chemistry",
            "popularity": 4.956
        },
        {
            "id": 47486,
            "original_name": "Chemistry: A Volatile History",
            "popularity": 0.635
        },
        {
            "id": 51048,
            "original_name": "Crash Course Chemistry",
            "popularity": 0.938
        },
        {
            "id": 57268,
            "original_name": "Kitchen Chemistry with Heston Blumenthal",
            "popularity": 0.6
        },
        {
            "id": 117303,
            "original_name": "Lessons In Chemistry",
            "popularity": 0.84
        },
        {
            "id": 122627,
            "original_name": "BBC RICL 2012 The Modern Alchemist",
            "popularity": 0.6
        },
        {
            "id": 128891,
            "original_name": "Crash Course Organic Chemistry",
            "popularity": 2.12
        },
        {
            "id": 130748,
            "original_name": "Elements of Chemistry",
            "popularity": 0.6
        },
        {
            "id": 134361,
            "original_name": "Fullmetal Alchemist: 4-Koma Theater",
            "popularity": 2.324
        }
    ],
    "relations": [],
    "top20": [
        {
            "id": 12092,
            "original_name": "The World of Chemistry",
            "popularity": 0.6
        },
        {
            "id": 31911,
            "original_name": "\u92fc\u306e\u932c\u91d1\u8853\u5e2b FULLMETAL ALCHEMIST",
            "popularity": 71.71
        },
        {
            "id": 34042,
            "original_name": "Chemistry",
            "popularity": 0.6
        },
        {
            "id": 41875,
            "original_name": "Chemistry",
            "popularity": 4.956
        },
        {
            "id": 47486,
            "original_name": "Chemistry: A Volatile History",
            "popularity": 0.635
        },
        {
            "id": 51048,
            "original_name": "Crash Course Chemistry",
            "popularity": 0.938
        },
        {
            "id": 57268,
            "original_name": "Kitchen Chemistry with Heston Blumenthal",
            "popularity": 0.6
        },
        {
            "id": 117303,
            "original_name": "Lessons In Chemistry",
            "popularity": 0.84
        },
        {
            "id": 122627,
            "original_name": "BBC RICL 2012 The Modern Alchemist",
            "popularity": 0.6
        },
        {
            "id": 128891,
            "original_name": "Crash Course Organic Chemistry",
            "popularity": 2.12
        },
        {
            "id": 130748,
            "original_name": "Elements of Chemistry",
            "popularity": 0.6
        },
        {
            "id": 134361,
            "original_name": "Fullmetal Alchemist: 4-Koma Theater",
            "popularity": 2.324
        }
    ]
}