{
    "data": [
        {
            "id": 813,
            "original_name": "Hell's Kitchen",
            "popularity": 3.766
        },
        {
            "id": 2178,
            "original_name": "Ramsay's Kitchen Nightmares",
            "popularity": 3.894
        },
        {
            "id": 2370,
            "original_name": "Hell's Kitchen",
            "popularity": 26.008
        },
        {
            "id": 4591,
            "original_name": "America's Test Kitchen",
            "popularity": 4.111
        },
        {
            "id": 4838,
            "original_name": "Kitchen Equipped",
            "popularity": 0.6
        },
        {
            "id": 5384,
            "original_name": "Intergalactic Kitchen",
            "popularity": 0.6
        },
        {
            "id": 7559,
            "original_name": "Kan-Cheong Kitchen",
            "popularity": 0.6
        },
        {
            "id": 9162,
            "original_name": "Schulm\u00e4dchen",
            "popularity": 2.125
        },
        {
            "id": 9518,
            "original_name": "Caribou Kitchen",
            "popularity": 0.6
        },
        {
            "id": 9625,
            "original_name": "Post Punk Kitchen",
            "popularity": 0.6
        },
        {
            "id": 11294,
            "original_name": "Kitchen Nightmares",
            "popularity": 12.042
        },
        {
            "id": 11863,
            "original_name": "Aktenzeichen XY \u2026 ungel\u00f6st",
            "popularity": 53.257
        },
        {
            "id": 12589,
            "original_name": "Unser Sandm\u00e4nnchen",
            "popularity": 1.4
        },
        {
            "id": 12746,
            "original_name": "Kitchen Accomplished",
            "popularity": 0.6
        },
        {
            "id": 12858,
            "original_name": "Jamie's Kitchen Australia",
            "popularity": 1.416
        },
        {
            "id": 13752,
            "original_name": "Saturday Kitchen",
            "popularity": 2.784
        },
        {
            "id": 13834,
            "original_name": "Raumpatrouille \u2013 Die phantastischen Abenteuer des Raumschiffes Orion",
            "popularity": 5.847
        },
        {
            "id": 14744,
            "original_name": "Kitchen Criminals",
            "popularity": 1.092
        },
        {
            "id": 14747,
            "original_name": "Jamie's Kitchen",
            "popularity": 0.6
        },
        {
            "id": 15123,
            "original_name": "Kitchen Confidential",
            "popularity": 6.615
        },
        {
            "id": 15358,
            "original_name": "Die ProSieben M\u00e4rchenstunde",
            "popularity": 4.324
        },
        {
            "id": 19890,
            "original_name": "Die Deutschen",
            "popularity": 0.6
        },
        {
            "id": 20181,
            "original_name": "Farmhouse Kitchen",
            "popularity": 0.6
        },
        {
            "id": 20457,
            "original_name": "Spice Up My Kitchen",
            "popularity": 0.879
        },
        {
            "id": 20690,
            "original_name": "The Victorian Kitchen Garden",
            "popularity": 0.726
        },
        {
            "id": 20715,
            "original_name": "Die Wochenshow",
            "popularity": 0.929
        },
        {
            "id": 21071,
            "original_name": "In the Kelvinator Kitchen",
            "popularity": 0.6
        },
        {
            "id": 21850,
            "original_name": "Lachend het jaar in",
            "popularity": 0.6
        },
        {
            "id": 22977,
            "original_name": "Lachen om Home Video's",
            "popularity": 0.6
        },
        {
            "id": 23160,
            "original_name": "Rosemary: Queen of the Kitchen",
            "popularity": 0.84
        },
        {
            "id": 23439,
            "original_name": "Market Kitchen",
            "popularity": 0.6
        },
        {
            "id": 23824,
            "original_name": "Kitchen Zero to Superhero",
            "popularity": 0.6
        },
        {
            "id": 24644,
            "original_name": "I Want That! Kitchens",
            "popularity": 1.417
        },
        {
            "id": 25272,
            "original_name": "The Naughty Kitchen",
            "popularity": 0.6
        },
        {
            "id": 25480,
            "original_name": "Lachende Scheerkwast, De",
            "popularity": 0.6
        },
        {
            "id": 27701,
            "original_name": "Laat ze maar Lachen",
            "popularity": 0.6
        },
        {
            "id": 27843,
            "original_name": "Nigella's Christmas Kitchen",
            "popularity": 1.343
        },
        {
            "id": 28063,
            "original_name": "Build an Outdoor Kitchen",
            "popularity": 0.6
        },
        {
            "id": 28510,
            "original_name": "Lachend de lente in",
            "popularity": 0.6
        },
        {
            "id": 28658,
            "original_name": "King's Kitchen",
            "popularity": 0.6
        },
        {
            "id": 29263,
            "original_name": "Kitchen Renovations",
            "popularity": 0.6
        },
        {
            "id": 29845,
            "original_name": "Bitte Lachen",
            "popularity": 0.6
        },
        {
            "id": 29966,
            "original_name": "Kitchen Crimes",
            "popularity": 0.6
        },
        {
            "id": 30058,
            "original_name": "Kitchen Trends",
            "popularity": 0.6
        },
        {
            "id": 30244,
            "original_name": "A Lyon In The Kitchen",
            "popularity": 0.6
        },
        {
            "id": 30670,
            "original_name": "All Star Kitchen Makeover",
            "popularity": 1.09
        },
        {
            "id": 30745,
            "original_name": "My Kitchen Rules",
            "popularity": 6.396
        },
        {
            "id": 30909,
            "original_name": "The Naughty Kitchen with Chef Blythe Beck",
            "popularity": 0.6
        },
        {
            "id": 31551,
            "original_name": "Conviction Kitchen",
            "popularity": 0.6
        },
        {
            "id": 31589,
            "original_name": "Mallika-E-Kitchen",
            "popularity": 0.6
        },
        {
            "id": 32308,
            "original_name": "Marco's Kitchen Burnout",
            "popularity": 0.6
        },
        {
            "id": 32831,
            "original_name": "Market Kitchen",
            "popularity": 0.882
        },
        {
            "id": 33353,
            "original_name": "Hans in the Kitchen",
            "popularity": 0.6
        },
        {
            "id": 33937,
            "original_name": "Judie Byrd's Kitchen",
            "popularity": 0.6
        },
        {
            "id": 33972,
            "original_name": "Jingwu Yingxiong Chen Zhen",
            "popularity": 0.6
        },
        {
            "id": 34952,
            "original_name": "Fei Cheng Wu Rao",
            "popularity": 0.6
        },
        {
            "id": 35059,
            "original_name": "Huey's Kitchen",
            "popularity": 0.6
        },
        {
            "id": 35346,
            "original_name": "Kitchen Boss",
            "popularity": 0.695
        },
        {
            "id": 35422,
            "original_name": "18 - Allein unter M\u00e4dchen",
            "popularity": 3.336
        },
        {
            "id": 35765,
            "original_name": "10 Killer Kitchen Projects",
            "popularity": 0.6
        },
        {
            "id": 35945,
            "original_name": "Die Kirschenk\u00f6nigin",
            "popularity": 1.893
        },
        {
            "id": 36218,
            "original_name": "Der F\u00fcrst und das M\u00e4dchen",
            "popularity": 4.138
        },
        {
            "id": 36773,
            "original_name": "Double Kitchen",
            "popularity": 0.6
        },
        {
            "id": 37038,
            "original_name": "Poh's Kitchen",
            "popularity": 1.644
        },
        {
            "id": 37093,
            "original_name": "Kitchen Impossible",
            "popularity": 0.6
        },
        {
            "id": 37131,
            "original_name": "Im Angesicht des Verbrechens",
            "popularity": 2.695
        },
        {
            "id": 37179,
            "original_name": "Nigella Kitchen",
            "popularity": 1.123
        },
        {
            "id": 37205,
            "original_name": "Raymond Blanc's Kitchen Secrets",
            "popularity": 0.6
        },
        {
            "id": 37576,
            "original_name": "Kitchen",
            "popularity": 0.6
        },
        {
            "id": 37871,
            "original_name": "Countrywise Kitchen",
            "popularity": 0.6
        },
        {
            "id": 37973,
            "original_name": "Laat me niet lachen",
            "popularity": 0.6
        },
        {
            "id": 38329,
            "original_name": "Lachen op zaterdag",
            "popularity": 0.6
        },
        {
            "id": 38924,
            "original_name": "Marcel's Quantum Kitchen",
            "popularity": 0.6
        },
        {
            "id": 39092,
            "original_name": "Kitchen Superstar",
            "popularity": 0.6
        },
        {
            "id": 40404,
            "original_name": "The Kitchen Musical",
            "popularity": 0.6
        },
        {
            "id": 40587,
            "original_name": "Die Unverbesserlichen",
            "popularity": 2.921
        },
        {
            "id": 40658,
            "original_name": "B\u00f6se M\u00e4dchen",
            "popularity": 0.707
        },
        {
            "id": 40673,
            "original_name": "Nesth\u00e4kchen",
            "popularity": 1.761
        },
        {
            "id": 40760,
            "original_name": "Die Verbrechen des Professor Capellari",
            "popularity": 3.622
        },
        {
            "id": 40845,
            "original_name": "KTI \u2013 Menschen l\u00fcgen, Beweise nicht",
            "popularity": 0.6
        },
        {
            "id": 40974,
            "original_name": "Nesthocker \u2013 Familie zu verschenken",
            "popularity": 2.328
        },
        {
            "id": 40987,
            "original_name": "Feuerdrachen",
            "popularity": 0.6
        },
        {
            "id": 41000,
            "original_name": "M\u00e4rchen der V\u00f6lker",
            "popularity": 0.6
        },
        {
            "id": 41017,
            "original_name": "Wir Deutschen",
            "popularity": 0.6
        },
        {
            "id": 41130,
            "original_name": "Giraffe, Erdm\u00e4nnchen & Co.",
            "popularity": 1.44
        },
        {
            "id": 41140,
            "original_name": "M\u00fcnchen 7",
            "popularity": 4.39
        },
        {
            "id": 41284,
            "original_name": "M\u00e4rchen der Welt \u2013 Puppenspiel der kleinen B\u00fchne",
            "popularity": 0.96
        },
        {
            "id": 41290,
            "original_name": "M\u00fcnchener Freiheit",
            "popularity": 0.6
        },
        {
            "id": 41365,
            "original_name": "Conviction Kitchen (Australia)",
            "popularity": 0.6
        },
        {
            "id": 41474,
            "original_name": "I Hate My Kitchen",
            "popularity": 0.6
        },
        {
            "id": 41623,
            "original_name": "Tschuschen:power",
            "popularity": 0.6
        },
        {
            "id": 42139,
            "original_name": "Nadia G's Bitchin' Kitchen",
            "popularity": 0.926
        },
        {
            "id": 42235,
            "original_name": "My Drunk Kitchen",
            "popularity": 0.845
        },
        {
            "id": 42387,
            "original_name": "Kitchen Whiz",
            "popularity": 0.6
        },
        {
            "id": 42744,
            "original_name": "Fix This Kitchen",
            "popularity": 0.6
        },
        {
            "id": 43257,
            "original_name": "Kaboul Kitchen",
            "popularity": 3.179
        },
        {
            "id": 43999,
            "original_name": "Br\u00fccke zwischen gestern und morgen",
            "popularity": 0.6
        },
        {
            "id": 44332,
            "original_name": "Caprial and John's Kitchen",
            "popularity": 0.622
        },
        {
            "id": 45099,
            "original_name": "Kuchenne rewolucje",
            "popularity": 5.684
        },
        {
            "id": 45684,
            "original_name": "In Julia's Kitchen with Master Chefs",
            "popularity": 1.34
        },
        {
            "id": 45992,
            "original_name": "Sommerm\u00e4dchen 2009",
            "popularity": 0.6
        },
        {
            "id": 46034,
            "original_name": "Die K\u00fcchenschlacht",
            "popularity": 0.6
        },
        {
            "id": 48190,
            "original_name": "Wu Cheng'en and Journey to the West",
            "popularity": 0.6
        },
        {
            "id": 49045,
            "original_name": "Wo Yao Pien Cheng Ying Shih Tzu",
            "popularity": 0.6
        },
        {
            "id": 49955,
            "original_name": "Heiter bis t\u00f6dlich - Zwischen den Zeilen",
            "popularity": 2.435
        },
        {
            "id": 50765,
            "original_name": "James Michener's Dynasty",
            "popularity": 0.6
        },
        {
            "id": 51875,
            "original_name": "Trisha's Southern Kitchen",
            "popularity": 1.116
        },
        {
            "id": 52066,
            "original_name": "Your Japanese Kitchen",
            "popularity": 0.6
        },
        {
            "id": 53160,
            "original_name": "Annabels Kitchen",
            "popularity": 0.642
        },
        {
            "id": 54058,
            "original_name": "The Legend of LianCheng",
            "popularity": 0.6
        },
        {
            "id": 55410,
            "original_name": "Kitchen Cousins",
            "popularity": 0.6
        },
        {
            "id": 55772,
            "original_name": "In the Kitchen with Stefano Faita",
            "popularity": 0.6
        },
        {
            "id": 55841,
            "original_name": "VERBRECHEN nach Ferdinand von Schirach",
            "popularity": 3.857
        },
        {
            "id": 56091,
            "original_name": "Mythen - Sagen des klassischen Altertums",
            "popularity": 0.6
        },
        {
            "id": 56784,
            "original_name": "WTF?! - Wissen - Testen - Forschen",
            "popularity": 0.6
        },
        {
            "id": 57022,
            "original_name": "Cutthroat Kitchen",
            "popularity": 7.06
        },
        {
            "id": 57268,
            "original_name": "Kitchen Chemistry with Heston Blumenthal",
            "popularity": 0.6
        },
        {
            "id": 57306,
            "original_name": "Feng Chen Wu Die",
            "popularity": 0.6
        },
        {
            "id": 57363,
            "original_name": "Chef Michael's Kitchen",
            "popularity": 0.6
        },
        {
            "id": 57520,
            "original_name": "Taiwan Ah Cheng",
            "popularity": 0.6
        },
        {
            "id": 57625,
            "original_name": "Tim's Kitchen Tips",
            "popularity": 0.685
        },
        {
            "id": 57634,
            "original_name": "Sachie\u2019s Kitchen",
            "popularity": 0.6
        },
        {
            "id": 57843,
            "original_name": "Conviction Kitchen",
            "popularity": 0.6
        },
        {
            "id": 57916,
            "original_name": "Show Oksany Marchenko",
            "popularity": 0.6
        },
        {
            "id": 58062,
            "original_name": "Kitchen Cabinet",
            "popularity": 0.985
        },
        {
            "id": 58570,
            "original_name": "The Cowboys' Kitchen",
            "popularity": 0.6
        },
        {
            "id": 61109,
            "original_name": "Tiere und Menschen",
            "popularity": 2.395
        },
        {
            "id": 61368,
            "original_name": "Gernstl in Griechenland",
            "popularity": 0.6
        },
        {
            "id": 61638,
            "original_name": "Lerchenberg",
            "popularity": 0.84
        },
        {
            "id": 62128,
            "original_name": "The Kitchen",
            "popularity": 2.015
        },
        {
            "id": 62161,
            "original_name": "In and Out of the Kitchen",
            "popularity": 1.163
        },
        {
            "id": 62702,
            "original_name": "Benjamin Bl\u00fcmchen",
            "popularity": 1.782
        },
        {
            "id": 62796,
            "original_name": "Alfredissimo! - Kochen mit Bio",
            "popularity": 8.73
        },
        {
            "id": 62880,
            "original_name": "Operation Phoenix - J\u00e4ger zwischen den Welten",
            "popularity": 1.712
        },
        {
            "id": 62968,
            "original_name": "Ein unverge\u00dfliches Wochenende",
            "popularity": 1.25
        },
        {
            "id": 62978,
            "original_name": "Kikaninchen",
            "popularity": 0.622
        },
        {
            "id": 63233,
            "original_name": "Zwischen den Fl\u00fcgen",
            "popularity": 0.905
        },
        {
            "id": 63240,
            "original_name": "Talia in the Kitchen",
            "popularity": 1.078
        },
        {
            "id": 63386,
            "original_name": "Hauptbahnhof M\u00fcnchen",
            "popularity": 0.6
        },
        {
            "id": 63487,
            "original_name": "Mordshunger - Verbrechen und andere Delikatessen",
            "popularity": 1.605
        },
        {
            "id": 63916,
            "original_name": "Zwischen Tag und Nacht",
            "popularity": 0.84
        },
        {
            "id": 64159,
            "original_name": "Menschen bei Maischberger",
            "popularity": 10.353
        },
        {
            "id": 64246,
            "original_name": "Menschen & M\u00e4chte",
            "popularity": 0.847
        },
        {
            "id": 64703,
            "original_name": "Das M\u00e4dchen mit dem indischen Smaragd",
            "popularity": 1.24
        },
        {
            "id": 64772,
            "original_name": "Die unsterblichen Methoden des Franz Josef Wanninger",
            "popularity": 2.6
        },
        {
            "id": 65285,
            "original_name": "Die unwahrscheinlichen Ereignisse im Leben von ...",
            "popularity": 1.54
        },
        {
            "id": 65659,
            "original_name": "Kitchen Impossible",
            "popularity": 2.98
        },
        {
            "id": 66740,
            "original_name": "Wir Menschen",
            "popularity": 0.6
        },
        {
            "id": 67295,
            "original_name": "Nicht nachmachen!",
            "popularity": 1.185
        },
        {
            "id": 68065,
            "original_name": "Karena and Kasey's Kitchen Diplomacy",
            "popularity": 0.6
        },
        {
            "id": 68896,
            "original_name": "Das M\u00e4dchen St\u00f6rtebeker",
            "popularity": 0.6
        },
        {
            "id": 68972,
            "original_name": "Das Lachen der anderen - Comedy im Grenzbereich",
            "popularity": 0.6
        },
        {
            "id": 69318,
            "original_name": "Die Deutschen und die Polen",
            "popularity": 0.6
        },
        {
            "id": 69403,
            "original_name": "My Kitchen Rules",
            "popularity": 0.629
        },
        {
            "id": 69813,
            "original_name": "Alliierte Kriegsverbrechen - Vergessene Kriegsgr\u00e4uel im Zweiten Weltkrieg",
            "popularity": 0.6
        },
        {
            "id": 70129,
            "original_name": "Skandal! Die politischen und gro\u00dfen Aff\u00e4ren in Deutschland",
            "popularity": 0.6
        },
        {
            "id": 71410,
            "original_name": "Gottlos \u2013 Warum Menschen t\u00f6ten",
            "popularity": 0.847
        },
        {
            "id": 72018,
            "original_name": "Die Kanarischen Inseln",
            "popularity": 0.6
        },
        {
            "id": 73179,
            "original_name": "Suchen Sie Dr. Suk!",
            "popularity": 4.726
        },
        {
            "id": 73836,
            "original_name": "L\u00f6wenz\u00e4hnchen",
            "popularity": 0.786
        },
        {
            "id": 74437,
            "original_name": "My Kitchen Rules New Zealand",
            "popularity": 2.047
        },
        {
            "id": 74446,
            "original_name": "My Kitchen Rules",
            "popularity": 0.883
        },
        {
            "id": 74790,
            "original_name": "Sekai Meisaku Douwa: Wow! Maerchen Oukoku",
            "popularity": 1.1
        },
        {
            "id": 74923,
            "original_name": "L\u00e4nder - Menschen - Abenteuer",
            "popularity": 0.6
        },
        {
            "id": 75103,
            "original_name": "Chef vs Science: The Ultimate Kitchen Challenge",
            "popularity": 0.6
        },
        {
            "id": 78453,
            "original_name": "M\u00fcnchen Grill",
            "popularity": 0.644
        },
        {
            "id": 79046,
            "original_name": "All-in Kitchen",
            "popularity": 0.629
        },
        {
            "id": 80284,
            "original_name": "Kennzeichen Rosa Nelke",
            "popularity": 0.84
        },
        {
            "id": 80415,
            "original_name": "Die lieben Mitmenschen",
            "popularity": 0.6
        },
        {
            "id": 80515,
            "original_name": "The Reichen Show",
            "popularity": 11.238
        },
        {
            "id": 80989,
            "original_name": "Alle machen Musik",
            "popularity": 0.6
        },
        {
            "id": 81250,
            "original_name": "Die diebischen Zwillinge",
            "popularity": 0.84
        },
        {
            "id": 81263,
            "original_name": "Das bin ich - Wiener Schicksale aus den 30er Jahren: \u00d6sterreich zwischen Demokratie und Diktatur",
            "popularity": 0.6
        },
        {
            "id": 81463,
            "original_name": "Erlesene Verbrechen und makellose Morde",
            "popularity": 1.147
        },
        {
            "id": 81866,
            "original_name": "Heimatrauschen",
            "popularity": 0.6
        },
        {
            "id": 82207,
            "original_name": "Zwischen Himmel und H\u00f6lle",
            "popularity": 2.159
        },
        {
            "id": 82308,
            "original_name": "Jochen und Inge",
            "popularity": 0.6
        },
        {
            "id": 82647,
            "original_name": "Kriminalf\u00e4lle \u2013 Schweizer Verbrechen im Visier",
            "popularity": 0.6
        },
        {
            "id": 82662,
            "original_name": "Die K\u00fcchenchefs",
            "popularity": 0.6
        },
        {
            "id": 83068,
            "original_name": "Das M\u00e4dchen Kr\u00fcmel",
            "popularity": 0.848
        },
        {
            "id": 83499,
            "original_name": "Mr. Carlis und seine abenteuerlichen Geschichten",
            "popularity": 0.875
        },
        {
            "id": 84180,
            "original_name": "Spurred On: NZ At Passchendaele",
            "popularity": 0.6
        },
        {
            "id": 84420,
            "original_name": "Epochen der Musikgeschichte",
            "popularity": 0.6
        },
        {
            "id": 85017,
            "original_name": "Die Priwalowschen Millionen",
            "popularity": 0.6
        },
        {
            "id": 85245,
            "original_name": "Hell's Kitchen \u0411\u044a\u043b\u0433\u0430\u0440\u0438\u044f",
            "popularity": 1.67
        },
        {
            "id": 85260,
            "original_name": "WWE Kitchen SmackDown!",
            "popularity": 0.606
        },
        {
            "id": 85865,
            "original_name": "Kuchenne Rewolucje. Powroty",
            "popularity": 0.811
        },
        {
            "id": 85870,
            "original_name": "Hell\u2019s Kitchen. Piekielna kuchnia",
            "popularity": 0.653
        },
        {
            "id": 86424,
            "original_name": "Hell's Kitchen Australia",
            "popularity": 0.6
        },
        {
            "id": 86485,
            "original_name": "Sammy & Bella's Kitchen Rescue",
            "popularity": 0.6
        },
        {
            "id": 86488,
            "original_name": "Tod eines M\u00e4dchens",
            "popularity": 1.246
        },
        {
            "id": 86726,
            "original_name": "Tamme Hanken \u2013 Der Knochenbrecher on Tour",
            "popularity": 0.6
        },
        {
            "id": 87043,
            "original_name": "Fearless in the Kitchen",
            "popularity": 0.6
        },
        {
            "id": 89034,
            "original_name": "Heimatlos - Menschen auf der Flucht",
            "popularity": 0.6
        },
        {
            "id": 89737,
            "original_name": "Ost-Berlin - Hauptstadt der Deutschen Demokratischen Republik",
            "popularity": 0.6
        },
        {
            "id": 90629,
            "original_name": "Was tut sich - im deutschen Film?",
            "popularity": 1.998
        },
        {
            "id": 91031,
            "original_name": "Hirschhausens Quiz des Menschen",
            "popularity": 2.519
        },
        {
            "id": 91578,
            "original_name": "Die Balearischen Inseln",
            "popularity": 0.6
        },
        {
            "id": 91582,
            "original_name": "Die Au\u00dferirdischen",
            "popularity": 0.6
        },
        {
            "id": 91703,
            "original_name": "Ein Fall f\u00fcr die Erdm\u00e4nnchen",
            "popularity": 1.272
        },
        {
            "id": 91851,
            "original_name": "Last Chance Kitchen",
            "popularity": 2.195
        },
        {
            "id": 92234,
            "original_name": "Kitchen Takeover",
            "popularity": 0.6
        },
        {
            "id": 94410,
            "original_name": "Verbrechen, die Geschichte machten",
            "popularity": 1.607
        },
        {
            "id": 94567,
            "original_name": "Menschen der Woche",
            "popularity": 14.194
        },
        {
            "id": 95053,
            "original_name": "Das Tanzb\u00e4renm\u00e4rchen",
            "popularity": 0.6
        },
        {
            "id": 97032,
            "original_name": "New British Kitchen",
            "popularity": 0.6
        },
        {
            "id": 97304,
            "original_name": "Das M\u00e4dchen am Strand",
            "popularity": 1.758
        },
        {
            "id": 98004,
            "original_name": "Christy's Kitchen Throwback",
            "popularity": 1.905
        },
        {
            "id": 99396,
            "original_name": "Griechenland: Von den Gipfeln bis ans Meer",
            "popularity": 0.848
        },
        {
            "id": 99944,
            "original_name": "Anthropoz\u00e4n \u2013 Das Zeitalter des Menschen",
            "popularity": 0.6
        },
        {
            "id": 100197,
            "original_name": "Saturday Kitchen Best Bites",
            "popularity": 0.6
        },
        {
            "id": 100439,
            "original_name": "Colonia Dignidad - Aus dem Innern einer deutschen Sekte",
            "popularity": 4.833
        },
        {
            "id": 100736,
            "original_name": "Zwischen T\u00fcll und Tr\u00e4nen",
            "popularity": 0.6
        },
        {
            "id": 100912,
            "original_name": "Wischen ist Macht",
            "popularity": 1.47
        },
        {
            "id": 101203,
            "original_name": "Elles p\u00eachent",
            "popularity": 0.6
        },
        {
            "id": 101917,
            "original_name": "Helen's Kitchen",
            "popularity": 0.6
        },
        {
            "id": 101938,
            "original_name": "Recipes from Hell's Kitchen",
            "popularity": 1.4
        },
        {
            "id": 103062,
            "original_name": "The Victorian Kitchen",
            "popularity": 0.6
        },
        {
            "id": 103063,
            "original_name": "The Wartime Kitchen and Garden",
            "popularity": 0.6
        },
        {
            "id": 103083,
            "original_name": "The Little Paris Kitchen: Cooking with Rachel Khoo",
            "popularity": 0.6
        },
        {
            "id": 103531,
            "original_name": "Mary's Kitchen Crush",
            "popularity": 0.6
        },
        {
            "id": 103690,
            "original_name": "Le temps des chenilles",
            "popularity": 0.6
        },
        {
            "id": 104465,
            "original_name": "John and Lisa's Weekend Kitchen",
            "popularity": 0.608
        },
        {
            "id": 104648,
            "original_name": "Wan Jie Chen Qiu",
            "popularity": 0.6
        },
        {
            "id": 104785,
            "original_name": "Menschen",
            "popularity": 3.96
        },
        {
            "id": 104832,
            "original_name": "Zeichen der Zeit",
            "popularity": 1.166
        },
        {
            "id": 104863,
            "original_name": "Augsburger Puppenkiste - Drachen hat nicht jeder",
            "popularity": 0.6
        },
        {
            "id": 104965,
            "original_name": "5 Star Kitchen",
            "popularity": 0.6
        },
        {
            "id": 105253,
            "original_name": "Lass dich \u00fcberwachen! Die PRISM IS A DANCER Show",
            "popularity": 0.6
        },
        {
            "id": 105371,
            "original_name": "Lammerts Leichen",
            "popularity": 0.6
        },
        {
            "id": 105807,
            "original_name": "Tag des deutschen Schlagers",
            "popularity": 2.022
        },
        {
            "id": 106075,
            "original_name": "Zwischenmahlzeit",
            "popularity": 2.991
        },
        {
            "id": 106304,
            "original_name": "Menschen, Bilder, Emotionen",
            "popularity": 0.6
        },
        {
            "id": 107298,
            "original_name": "Genoeg gelachen, nu humor!",
            "popularity": 0.6
        },
        {
            "id": 108286,
            "original_name": "Hell's Kitchen",
            "popularity": 0.6
        },
        {
            "id": 108435,
            "original_name": "Papa L\u00f6we und seine gl\u00fccklichen Kinder",
            "popularity": 0.841
        },
        {
            "id": 110548,
            "original_name": "Unvergesslich - Unser Chor f\u00fcr Menschen mit Demenz",
            "popularity": 0.84
        },
        {
            "id": 111722,
            "original_name": "Das Weltreich der Deutschen",
            "popularity": 0.6
        },
        {
            "id": 114669,
            "original_name": "Peter Kuruvita's Coastal Kitchen",
            "popularity": 0.6
        },
        {
            "id": 114965,
            "original_name": "Life \u2013 Menschen, Momente, Geschichten",
            "popularity": 1.799
        },
        {
            "id": 115119,
            "original_name": "Die kulinarischen Abenteuer der Sarah Wiener in Asien",
            "popularity": 0.6
        },
        {
            "id": 115988,
            "original_name": "Universum: Wildes Griechenland",
            "popularity": 0.6
        },
        {
            "id": 117076,
            "original_name": "Kitchen Crash",
            "popularity": 0.6
        },
        {
            "id": 117349,
            "original_name": "Die Mythen der Griechen",
            "popularity": 0.6
        },
        {
            "id": 117451,
            "original_name": "Tregaye's Way in the Kitchen",
            "popularity": 7.11
        },
        {
            "id": 117631,
            "original_name": "Mary Higgins Clark - Mysteri\u00f6se Verbrechen",
            "popularity": 0.664
        },
        {
            "id": 117747,
            "original_name": "Gef\u00fchls-Sachen",
            "popularity": 1.378
        },
        {
            "id": 117905,
            "original_name": "Hensslers Countdown \u2013 Kochen am Limit",
            "popularity": 0.6
        },
        {
            "id": 118344,
            "original_name": "Zwischenstation",
            "popularity": 1.093
        },
        {
            "id": 118397,
            "original_name": "Lachen tut gut - Comedy f\u00fcr Unicef",
            "popularity": 0.683
        },
        {
            "id": 118912,
            "original_name": "K\u00fcchenk\u00f6nigin",
            "popularity": 0.6
        },
        {
            "id": 119572,
            "original_name": "Die gl\u00fccklichen Vier",
            "popularity": 0.6
        },
        {
            "id": 119695,
            "original_name": "Universum: Die Kanarischen Inseln",
            "popularity": 0.6
        },
        {
            "id": 119809,
            "original_name": "Guy's Ranch Kitchen",
            "popularity": 37.074
        },
        {
            "id": 120495,
            "original_name": "Kwoklyn's Chinese Takeaway Kitchen",
            "popularity": 0.652
        },
        {
            "id": 120709,
            "original_name": "Hell's Kitchen Portugal",
            "popularity": 1.063
        },
        {
            "id": 121037,
            "original_name": "M\u00fcnchen Mord",
            "popularity": 3.16
        },
        {
            "id": 121353,
            "original_name": "My World Kitchen",
            "popularity": 0.6
        },
        {
            "id": 121379,
            "original_name": "ErmittlungsAKTE \u2013 Dem Verbrechen auf der Spur",
            "popularity": 0.631
        },
        {
            "id": 121859,
            "original_name": "Au Chenal-du-Moine",
            "popularity": 0.6
        },
        {
            "id": 122114,
            "original_name": "Parveen's Indian Kitchen",
            "popularity": 0.6
        },
        {
            "id": 122120,
            "original_name": "Auf der Leseb\u00fchne der Literarischen Illustrierten",
            "popularity": 0.6
        },
        {
            "id": 122849,
            "original_name": "Geliebte Feinde \u2013 Die Deutschen und die Franzosen",
            "popularity": 0.6
        },
        {
            "id": 123291,
            "original_name": "Leute sind auch Menschen",
            "popularity": 0.6
        },
        {
            "id": 124264,
            "original_name": "Throw In The Kitchen Sink",
            "popularity": 0.6
        },
        {
            "id": 124492,
            "original_name": "Dream Kitchens & Bathrooms with Mark Millar",
            "popularity": 1.058
        },
        {
            "id": 125318,
            "original_name": "Crime Scene Kitchen",
            "popularity": 1.084
        },
        {
            "id": 127478,
            "original_name": "Mythen - Michael K\u00f6hlmeier erz\u00e4hlt Sagen des klassischen Altertums",
            "popularity": 0.6
        },
        {
            "id": 127645,
            "original_name": "Nadia's Comfort Kitchen",
            "popularity": 0.6
        },
        {
            "id": 129052,
            "original_name": "Liebesg'schichten und Heiratssachen",
            "popularity": 0.6
        },
        {
            "id": 129551,
            "original_name": "Amoklauf M\u00fcnchen: Eine Stadt in Angst",
            "popularity": 0.6
        },
        {
            "id": 129930,
            "original_name": "Kochen mit der Maus",
            "popularity": 0.6
        },
        {
            "id": 130047,
            "original_name": "Julie Taboulie's Lebanese Kitchen",
            "popularity": 0.6
        },
        {
            "id": 130263,
            "original_name": "Verbrechen von nebenan",
            "popularity": 0.6
        },
        {
            "id": 130390,
            "original_name": "For The Love of Kitchens",
            "popularity": 0.6
        },
        {
            "id": 130968,
            "original_name": "The Artisan's Kitchen",
            "popularity": 1.646
        },
        {
            "id": 131325,
            "original_name": "Boomerang M\u00e4rchenstunde",
            "popularity": 0.6
        },
        {
            "id": 132143,
            "original_name": "The Lost Kitchen",
            "popularity": 5.23
        },
        {
            "id": 132888,
            "original_name": "Die Deutschen im Zweiten Weltkrieg",
            "popularity": 0.6
        },
        {
            "id": 133694,
            "original_name": "Anw\u00e4lte der Toten \u2013 Verbrechen, die Deutschland bewegten",
            "popularity": 0.6
        },
        {
            "id": 134051,
            "original_name": "Ainsley's Caribbean Kitchen",
            "popularity": 0.6
        },
        {
            "id": 134248,
            "original_name": "Meng Duan Zi Jin Cheng",
            "popularity": 0.6
        },
        {
            "id": 135201,
            "original_name": "Das Kinderm\u00e4dchen",
            "popularity": 0.6
        },
        {
            "id": 135696,
            "original_name": "SINNLICH KOCHEN - EINE HOMMAGE ANS LEBEN",
            "popularity": 0.815
        },
        {
            "id": 136713,
            "original_name": "Die Geschichte der Deutschen Wehrmacht",
            "popularity": 0.6
        },
        {
            "id": 137126,
            "original_name": "Rolling Kitchen Brasil",
            "popularity": 14.89
        },
        {
            "id": 138187,
            "original_name": "Knights of the Kitchen Table",
            "popularity": 0.6
        },
        {
            "id": 138373,
            "original_name": "Tatsachen und Legenden",
            "popularity": 0.6
        },
        {
            "id": 139570,
            "original_name": "Rachel Khoo's Kitchen Notebook: Cosmopolitan Cook",
            "popularity": 0.6
        },
        {
            "id": 139572,
            "original_name": "Rachel Khoo's Kitchen Notebook: London",
            "popularity": 0.6
        },
        {
            "id": 139573,
            "original_name": "Rachel Khoo's Kitchen Notebook: Melbourne",
            "popularity": 0.6
        },
        {
            "id": 152498,
            "original_name": "Tiere machen Leute",
            "popularity": 1.15
        },
        {
            "id": 152572,
            "original_name": "The Ornamental Kitchen Garden",
            "popularity": 0.6
        }
    ],
    "relations": [
        {
            "character": "chens"
        },
        {
            "character": "chend"
        },
        {
            "character": "cheng"
        },
        {
            "character": "chenk"
        },
        {
            "character": "chene"
        },
        {
            "character": "chenn"
        },
        {
            "character": "chenl"
        },
        {
            "character": "chenb"
        },
        {
            "character": "chen!"
        },
        {
            "character": "chenc"
        },
        {
            "character": "chen."
        },
        {
            "character": "chent"
        },
        {
            "character": "cheni"
        },
        {
            "character": "chenm"
        },
        {
            "character": "chena"
        }
    ],
    "top20": [
        {
            "id": 11863,
            "original_name": "Aktenzeichen XY \u2026 ungel\u00f6st",
            "popularity": 53.257
        },
        {
            "id": 119809,
            "original_name": "Guy's Ranch Kitchen",
            "popularity": 37.074
        },
        {
            "id": 2370,
            "original_name": "Hell's Kitchen",
            "popularity": 26.008
        },
        {
            "id": 137126,
            "original_name": "Rolling Kitchen Brasil",
            "popularity": 14.89
        },
        {
            "id": 94567,
            "original_name": "Menschen der Woche",
            "popularity": 14.194
        },
        {
            "id": 11294,
            "original_name": "Kitchen Nightmares",
            "popularity": 12.042
        },
        {
            "id": 80515,
            "original_name": "The Reichen Show",
            "popularity": 11.238
        },
        {
            "id": 64159,
            "original_name": "Menschen bei Maischberger",
            "popularity": 10.353
        },
        {
            "id": 62796,
            "original_name": "Alfredissimo! - Kochen mit Bio",
            "popularity": 8.73
        },
        {
            "id": 117451,
            "original_name": "Tregaye's Way in the Kitchen",
            "popularity": 7.11
        },
        {
            "id": 57022,
            "original_name": "Cutthroat Kitchen",
            "popularity": 7.06
        },
        {
            "id": 15123,
            "original_name": "Kitchen Confidential",
            "popularity": 6.615
        },
        {
            "id": 30745,
            "original_name": "My Kitchen Rules",
            "popularity": 6.396
        },
        {
            "id": 13834,
            "original_name": "Raumpatrouille \u2013 Die phantastischen Abenteuer des Raumschiffes Orion",
            "popularity": 5.847
        },
        {
            "id": 45099,
            "original_name": "Kuchenne rewolucje",
            "popularity": 5.684
        },
        {
            "id": 132143,
            "original_name": "The Lost Kitchen",
            "popularity": 5.23
        },
        {
            "id": 100439,
            "original_name": "Colonia Dignidad - Aus dem Innern einer deutschen Sekte",
            "popularity": 4.833
        },
        {
            "id": 73179,
            "original_name": "Suchen Sie Dr. Suk!",
            "popularity": 4.726
        },
        {
            "id": 41140,
            "original_name": "M\u00fcnchen 7",
            "popularity": 4.39
        },
        {
            "id": 15358,
            "original_name": "Die ProSieben M\u00e4rchenstunde",
            "popularity": 4.324
        }
    ]
}