{
    "data": [
        {
            "id": 10566,
            "original_name": "For Richer...For Poorer",
            "popularity": 0.6
        },
        {
            "id": 49695,
            "original_name": "Cher... and Other Fantasies",
            "popularity": 0.6
        },
        {
            "id": 56506,
            "original_name": "Cher... at the Mirage",
            "popularity": 0.6
        },
        {
            "id": 72836,
            "original_name": "Das Sacher. In bester Gesellschaft",
            "popularity": 3.293
        }
    ],
    "relations": [],
    "top20": [
        {
            "id": 10566,
            "original_name": "For Richer...For Poorer",
            "popularity": 0.6
        },
        {
            "id": 49695,
            "original_name": "Cher... and Other Fantasies",
            "popularity": 0.6
        },
        {
            "id": 56506,
            "original_name": "Cher... at the Mirage",
            "popularity": 0.6
        },
        {
            "id": 72836,
            "original_name": "Das Sacher. In bester Gesellschaft",
            "popularity": 3.293
        }
    ]
}