{
    "data": [
        {
            "id": 99304,
            "original_name": "Especiales de Nochevieja de Jos\u00e9 Mota",
            "popularity": 0.63
        },
        {
            "id": 100071,
            "original_name": "La maison des Rocheville",
            "popularity": 3.194
        }
    ],
    "relations": [],
    "top20": [
        {
            "id": 99304,
            "original_name": "Especiales de Nochevieja de Jos\u00e9 Mota",
            "popularity": 0.63
        },
        {
            "id": 100071,
            "original_name": "La maison des Rocheville",
            "popularity": 3.194
        }
    ]
}