{
    "data": [
        {
            "id": 116941,
            "original_name": "De wereld van de Chinezen",
            "popularity": 7.273
        }
    ],
    "relations": [],
    "top20": [
        {
            "id": 116941,
            "original_name": "De wereld van de Chinezen",
            "popularity": 7.273
        }
    ]
}