{
    "data": [
        {
            "id": 10711,
            "original_name": "Technical Knockout",
            "popularity": 0.6
        },
        {
            "id": 16717,
            "original_name": "We're Experiencing Technical Difficulties",
            "popularity": 0.6
        },
        {
            "id": 23446,
            "original_name": "Technically Funny",
            "popularity": 0.6
        },
        {
            "id": 57635,
            "original_name": "Tools of the Trade Videos: Inside the Technician\u2019s Toolbox",
            "popularity": 0.6
        },
        {
            "id": 118305,
            "original_name": "Schnick-Schnack",
            "popularity": 1.425
        },
        {
            "id": 121254,
            "original_name": "Red Hat Satellite Technical Overview (RH053)",
            "popularity": 0.82
        },
        {
            "id": 134169,
            "original_name": "Technically Single",
            "popularity": 0.6
        }
    ],
    "relations": [],
    "top20": [
        {
            "id": 10711,
            "original_name": "Technical Knockout",
            "popularity": 0.6
        },
        {
            "id": 16717,
            "original_name": "We're Experiencing Technical Difficulties",
            "popularity": 0.6
        },
        {
            "id": 23446,
            "original_name": "Technically Funny",
            "popularity": 0.6
        },
        {
            "id": 57635,
            "original_name": "Tools of the Trade Videos: Inside the Technician\u2019s Toolbox",
            "popularity": 0.6
        },
        {
            "id": 118305,
            "original_name": "Schnick-Schnack",
            "popularity": 1.425
        },
        {
            "id": 121254,
            "original_name": "Red Hat Satellite Technical Overview (RH053)",
            "popularity": 0.82
        },
        {
            "id": 134169,
            "original_name": "Technically Single",
            "popularity": 0.6
        }
    ]
}