{
    "data": [
        {
            "id": 33116,
            "original_name": "Ochocinco: The Ultimate Catch",
            "popularity": 0.6
        }
    ],
    "relations": [],
    "top20": [
        {
            "id": 33116,
            "original_name": "Ochocinco: The Ultimate Catch",
            "popularity": 0.6
        }
    ]
}