{
    "data": [
        {
            "id": 113304,
            "original_name": "Pocoyo & Christimas",
            "popularity": 1.646
        }
    ],
    "relations": [],
    "top20": [
        {
            "id": 113304,
            "original_name": "Pocoyo & Christimas",
            "popularity": 1.646
        }
    ]
}