{
    "data": [
        {
            "id": 60,
            "original_name": "Hardball with Chris Matthews",
            "popularity": 5.265
        },
        {
            "id": 145,
            "original_name": "Chris & John to the Rescue!",
            "popularity": 0.6
        },
        {
            "id": 252,
            "original_name": "Everybody Hates Chris",
            "popularity": 20.196
        },
        {
            "id": 514,
            "original_name": "Brides of Christ",
            "popularity": 1.361
        },
        {
            "id": 790,
            "original_name": "Agatha Christie's Poirot",
            "popularity": 54.647
        },
        {
            "id": 2374,
            "original_name": "Chris & John's Road Trip!",
            "popularity": 0.6
        },
        {
            "id": 2870,
            "original_name": "Unscripted with Chris Connelly",
            "popularity": 0.6
        },
        {
            "id": 3173,
            "original_name": "The Chris Isaak Show",
            "popularity": 6.679
        },
        {
            "id": 4085,
            "original_name": "Christmas with the Dickinsons",
            "popularity": 0.6
        },
        {
            "id": 4402,
            "original_name": "The New Adventures of Old Christine",
            "popularity": 13.771
        },
        {
            "id": 4675,
            "original_name": "Christy",
            "popularity": 3.47
        },
        {
            "id": 5803,
            "original_name": "The Great American Christmas",
            "popularity": 0.6
        },
        {
            "id": 6127,
            "original_name": "Agatha Christie's Marple",
            "popularity": 37.056
        },
        {
            "id": 6610,
            "original_name": "Agatha Christie: A Life in Pictures",
            "popularity": 0.6
        },
        {
            "id": 6767,
            "original_name": "The Chris Rock Show",
            "popularity": 3.046
        },
        {
            "id": 7774,
            "original_name": "Britain's Got the Pop Factor... and Possibly a New Celebrity Jesus Christ Soapstar Superstar Strictly on Ice",
            "popularity": 1.171
        },
        {
            "id": 8164,
            "original_name": "Disney Channel Christmas Events",
            "popularity": 0.6
        },
        {
            "id": 8373,
            "original_name": "A Miser Brothers' Christmas",
            "popularity": 0.6
        },
        {
            "id": 8411,
            "original_name": "A Colbert Christmas: The Greatest Gift of All!",
            "popularity": 0.6
        },
        {
            "id": 8988,
            "original_name": "Huset p\u00e5 Christianshavn",
            "popularity": 3.008
        },
        {
            "id": 9084,
            "original_name": "Christopher Crocodile",
            "popularity": 0.6
        },
        {
            "id": 9261,
            "original_name": "Christmas in Kabul",
            "popularity": 0.6
        },
        {
            "id": 9476,
            "original_name": "An American Idol Christmas",
            "popularity": 0.6
        },
        {
            "id": 9615,
            "original_name": "Christian Community Television",
            "popularity": 0.6
        },
        {
            "id": 10244,
            "original_name": "The Chris Matthews Show",
            "popularity": 0.6
        },
        {
            "id": 12865,
            "original_name": "Christine Cushing Live",
            "popularity": 0.6
        },
        {
            "id": 13496,
            "original_name": "Charlie Brown's Christmas Tales",
            "popularity": 0.6
        },
        {
            "id": 13611,
            "original_name": "100 Greatest Christmas Moments",
            "popularity": 0.6
        },
        {
            "id": 13736,
            "original_name": "Christmas Lights",
            "popularity": 0.6
        },
        {
            "id": 13948,
            "original_name": "Christmas at the Riviera",
            "popularity": 0.6
        },
        {
            "id": 13963,
            "original_name": "Royal Institution Christmas Lectures",
            "popularity": 2.507
        },
        {
            "id": 14143,
            "original_name": "A Flintstone Family Christmas",
            "popularity": 0.6
        },
        {
            "id": 14297,
            "original_name": "Live With Chris Moyles",
            "popularity": 0.6
        },
        {
            "id": 14439,
            "original_name": "Chris Tarrant's Great Pretender",
            "popularity": 0.6
        },
        {
            "id": 14777,
            "original_name": "Agatha Christie's Partners in Crime",
            "popularity": 4.593
        },
        {
            "id": 14906,
            "original_name": "Chris Rock: Big Ass Jokes",
            "popularity": 0.6
        },
        {
            "id": 15027,
            "original_name": "Steven and Chris",
            "popularity": 0.6
        },
        {
            "id": 15403,
            "original_name": "Aboriginal Christian Television System",
            "popularity": 0.6
        },
        {
            "id": 15791,
            "original_name": "The Country Mouse and the City Mouse: A Christmas Tale",
            "popularity": 0.6
        },
        {
            "id": 16170,
            "original_name": "Mr. Krueger's Christmas",
            "popularity": 1.34
        },
        {
            "id": 16172,
            "original_name": "Chris Cross",
            "popularity": 0.972
        },
        {
            "id": 16277,
            "original_name": "A Christmas Calendar",
            "popularity": 0.6
        },
        {
            "id": 16606,
            "original_name": "Hans Christian Andersen: My Life as a Fairytale",
            "popularity": 1.548
        },
        {
            "id": 16790,
            "original_name": "Christmas Two Step",
            "popularity": 0.6
        },
        {
            "id": 16914,
            "original_name": "Holidaze: The Christmas That Almost Didn't Happen",
            "popularity": 0.6
        },
        {
            "id": 16990,
            "original_name": "Hunting Chris Ryan",
            "popularity": 0.841
        },
        {
            "id": 16991,
            "original_name": "The First Christmas: The Story of the First Christmas Snow",
            "popularity": 0.84
        },
        {
            "id": 17131,
            "original_name": "Father Christmas",
            "popularity": 0.84
        },
        {
            "id": 17162,
            "original_name": "Larry the Cable Guy's Christmas Spectacular",
            "popularity": 0.6
        },
        {
            "id": 17222,
            "original_name": "Finding John Christmas",
            "popularity": 0.6
        },
        {
            "id": 17435,
            "original_name": "A Ghost Story for Christmas",
            "popularity": 2.959
        },
        {
            "id": 17899,
            "original_name": "Yogi's First Christmas",
            "popularity": 0.6
        },
        {
            "id": 18206,
            "original_name": "Chris Moyles' Quiz Night",
            "popularity": 4.069
        },
        {
            "id": 18607,
            "original_name": "Yogi Bear's All Star Comedy Christmas Caper",
            "popularity": 0.6
        },
        {
            "id": 18883,
            "original_name": "Edith Ann's Christmas",
            "popularity": 0.6
        },
        {
            "id": 19001,
            "original_name": "Perry Como's Christmas in Austria",
            "popularity": 0.6
        },
        {
            "id": 19519,
            "original_name": "The Christmas Special Christmas Special",
            "popularity": 0.6
        },
        {
            "id": 19772,
            "original_name": "The Bear Who Slept Through Christmas",
            "popularity": 0.6
        },
        {
            "id": 19800,
            "original_name": "'Twas the Night Before Christmas",
            "popularity": 0.906
        },
        {
            "id": 20221,
            "original_name": "IWA Christmas in Puerto Rico",
            "popularity": 0.6
        },
        {
            "id": 20273,
            "original_name": "Chris Colorado",
            "popularity": 1.091
        },
        {
            "id": 21261,
            "original_name": "Inspector Gadget Saves Christmas",
            "popularity": 0.6
        },
        {
            "id": 22243,
            "original_name": "Coleen's Christmas At Alder Hey",
            "popularity": 0.6
        },
        {
            "id": 22549,
            "original_name": "Britain Sings Christmas",
            "popularity": 0.6
        },
        {
            "id": 22587,
            "original_name": "Christine Cromwell",
            "popularity": 1.427
        },
        {
            "id": 23154,
            "original_name": "Hey, Remember Christmas?",
            "popularity": 0.6
        },
        {
            "id": 23317,
            "original_name": "The Christophers",
            "popularity": 0.6
        },
        {
            "id": 24068,
            "original_name": "Toy Mountain Christmas Special",
            "popularity": 0.6
        },
        {
            "id": 24251,
            "original_name": "Get Christie Love!",
            "popularity": 1.449
        },
        {
            "id": 24516,
            "original_name": "Television's Christmas Party",
            "popularity": 0.6
        },
        {
            "id": 25401,
            "original_name": "The Christine Hamilton Show",
            "popularity": 0.6
        },
        {
            "id": 25473,
            "original_name": "Doctor Christian",
            "popularity": 0.6
        },
        {
            "id": 25639,
            "original_name": "Christian O'Connell's Sunday Service",
            "popularity": 0.842
        },
        {
            "id": 26244,
            "original_name": "Million Dollar Christmas",
            "popularity": 0.6
        },
        {
            "id": 26262,
            "original_name": "Christine's Garden",
            "popularity": 0.6
        },
        {
            "id": 26433,
            "original_name": "Christmas in Washington",
            "popularity": 3.101
        },
        {
            "id": 27422,
            "original_name": "The True Adventures of Christopher Columbus",
            "popularity": 0.832
        },
        {
            "id": 27773,
            "original_name": "White House Christmas",
            "popularity": 0.6
        },
        {
            "id": 27843,
            "original_name": "Nigella's Christmas Kitchen",
            "popularity": 1.343
        },
        {
            "id": 27958,
            "original_name": "The Wish That Changed Christmas",
            "popularity": 0.6
        },
        {
            "id": 28007,
            "original_name": "The Agatha Christie Hour",
            "popularity": 6.045
        },
        {
            "id": 29505,
            "original_name": "It's Christopher Lowell",
            "popularity": 2.377
        },
        {
            "id": 30544,
            "original_name": "The New Movie Show with Chris Gore",
            "popularity": 0.6
        },
        {
            "id": 31032,
            "original_name": "Eloise at Christmastime",
            "popularity": 0.6
        },
        {
            "id": 31409,
            "original_name": "The Chris Isaak Hour",
            "popularity": 0.6
        },
        {
            "id": 31468,
            "original_name": "Victoria Wood's Mid-Life Christmas",
            "popularity": 0.6
        },
        {
            "id": 31802,
            "original_name": "The New Movie Show with Chris Gore",
            "popularity": 0.6
        },
        {
            "id": 32592,
            "original_name": "Christmas Comes to Pac-Land",
            "popularity": 0.6
        },
        {
            "id": 34120,
            "original_name": "Christina's Court",
            "popularity": 0.6
        },
        {
            "id": 35434,
            "original_name": "Christmas Do-Over",
            "popularity": 0.6
        },
        {
            "id": 36137,
            "original_name": "Ant and Dec's Christmas Show",
            "popularity": 0.843
        },
        {
            "id": 37287,
            "original_name": "Christianity: A History",
            "popularity": 0.6
        },
        {
            "id": 37387,
            "original_name": "A History Of Christianity",
            "popularity": 0.6
        },
        {
            "id": 37582,
            "original_name": "Christmas In Rockefeller Center",
            "popularity": 2.443
        },
        {
            "id": 38126,
            "original_name": "Christmas with Gordon",
            "popularity": 0.6
        },
        {
            "id": 38271,
            "original_name": "Hollywood Christmas Parade",
            "popularity": 0.6
        },
        {
            "id": 38357,
            "original_name": "Jamie's Best Christmas Bits",
            "popularity": 0.923
        },
        {
            "id": 38546,
            "original_name": "Rick Stein's Cornish Christmas",
            "popularity": 0.843
        },
        {
            "id": 38769,
            "original_name": "Kirstie and Phil's Perfect Christmas",
            "popularity": 0.6
        },
        {
            "id": 39972,
            "original_name": "The National Christmas Tree Lighting",
            "popularity": 0.6
        },
        {
            "id": 40134,
            "original_name": "The Flight Before Christmas",
            "popularity": 0.6
        },
        {
            "id": 40963,
            "original_name": "2000 Jahre Christentum",
            "popularity": 0.992
        },
        {
            "id": 41834,
            "original_name": "My Christmas Special",
            "popularity": 0.6
        },
        {
            "id": 42185,
            "original_name": "Karroll's Christmas",
            "popularity": 0.6
        },
        {
            "id": 42374,
            "original_name": "Girls' Generation\u2019s Christmas Fairy Tale",
            "popularity": 0.6
        },
        {
            "id": 42487,
            "original_name": "Christmas Night with the Stars",
            "popularity": 0.6
        },
        {
            "id": 42959,
            "original_name": "Montana Christmas Skies",
            "popularity": 0.6
        },
        {
            "id": 42988,
            "original_name": "Christmas I Svingen",
            "popularity": 0.6
        },
        {
            "id": 43205,
            "original_name": "Jesus Christ Superstar: 2000",
            "popularity": 0.6
        },
        {
            "id": 43582,
            "original_name": "Bing Crosby's White Christmas USO All Star Show",
            "popularity": 0.6
        },
        {
            "id": 44481,
            "original_name": "Christopher Closeup",
            "popularity": 0.6
        },
        {
            "id": 45358,
            "original_name": "Walt Disney World Christmas Day Parade",
            "popularity": 0.6
        },
        {
            "id": 45400,
            "original_name": "The Living Christ Series",
            "popularity": 0.6
        },
        {
            "id": 45420,
            "original_name": "Jamie's Christmas Lock-In",
            "popularity": 0.843
        },
        {
            "id": 45554,
            "original_name": "Christmas and the Civil War",
            "popularity": 0.6
        },
        {
            "id": 45623,
            "original_name": "Christmas On Division Street",
            "popularity": 0.6
        },
        {
            "id": 45625,
            "original_name": "Interior Motives with Christopher Lowell",
            "popularity": 0.6
        },
        {
            "id": 45656,
            "original_name": "The Kid Who Loved Christmas",
            "popularity": 0.6
        },
        {
            "id": 45689,
            "original_name": "Walt Disney World Very Merry Christmas Parade",
            "popularity": 0.6
        },
        {
            "id": 45894,
            "original_name": "Festival Pass with Chris Gore",
            "popularity": 0.6
        },
        {
            "id": 46415,
            "original_name": "A Moody Christmas",
            "popularity": 1.738
        },
        {
            "id": 46490,
            "original_name": "Chris Rock: Bigger and Blacker",
            "popularity": 0.6
        },
        {
            "id": 46864,
            "original_name": "Journey to Christmas",
            "popularity": 0.6
        },
        {
            "id": 47003,
            "original_name": "Christopher Reeve: Courageous Steps",
            "popularity": 0.6
        },
        {
            "id": 47105,
            "original_name": "The Making of 'A Charlie Brown Christmas'",
            "popularity": 0.6
        },
        {
            "id": 47237,
            "original_name": "David Foster's Christmas Album",
            "popularity": 0.6
        },
        {
            "id": 47238,
            "original_name": "Bob Hope's Bag Full of Christmas Memories",
            "popularity": 0.6
        },
        {
            "id": 47296,
            "original_name": "Disney Christmas Fantasy on Ice",
            "popularity": 0.6
        },
        {
            "id": 47337,
            "original_name": "The Christmas Card",
            "popularity": 0.6
        },
        {
            "id": 47493,
            "original_name": "Christmas at Pee Wee's Playhouse",
            "popularity": 0.6
        },
        {
            "id": 47526,
            "original_name": "John Denver's Christmas in Aspen",
            "popularity": 0.6
        },
        {
            "id": 47759,
            "original_name": "Bob Hope's USO Christmas from the Persian Gulf: Around the World in Eight Days",
            "popularity": 0.6
        },
        {
            "id": 47787,
            "original_name": "Christmas Snow",
            "popularity": 0.6
        },
        {
            "id": 48119,
            "original_name": "Christmas Box",
            "popularity": 0.6
        },
        {
            "id": 48320,
            "original_name": "The Night They Saved Christmas",
            "popularity": 0.6
        },
        {
            "id": 48332,
            "original_name": "Christopher Columbus",
            "popularity": 2.931
        },
        {
            "id": 48511,
            "original_name": "Perry Como's Christmas in England",
            "popularity": 0.6
        },
        {
            "id": 48555,
            "original_name": "The Best Christmas Pageant Ever",
            "popularity": 0.6
        },
        {
            "id": 48687,
            "original_name": "Perry Como's Christmas in New York",
            "popularity": 0.6
        },
        {
            "id": 48817,
            "original_name": "Perry Como's Christmas in Paris",
            "popularity": 0.6
        },
        {
            "id": 48983,
            "original_name": "Andy Williams' Early New England Christmas",
            "popularity": 0.6
        },
        {
            "id": 49329,
            "original_name": "Perry Como's Christmas in the Holy Land",
            "popularity": 0.6
        },
        {
            "id": 49549,
            "original_name": "Bob Hope's Overseas Christmas Tours: Around the World with the Troops - 1941-1972",
            "popularity": 0.6
        },
        {
            "id": 49629,
            "original_name": "Perry Como's Christmas in New Mexico",
            "popularity": 0.6
        },
        {
            "id": 49663,
            "original_name": "The John Davidson Christmas Show",
            "popularity": 0.6
        },
        {
            "id": 49676,
            "original_name": "Early American Christmas",
            "popularity": 0.6
        },
        {
            "id": 49825,
            "original_name": "Rocky Mountain Christmas",
            "popularity": 0.6
        },
        {
            "id": 50096,
            "original_name": "Britain's Greatest Machines With Chris Barrie",
            "popularity": 0.6
        },
        {
            "id": 51144,
            "original_name": "Chris p\u00e5 Chokoladefabrikken",
            "popularity": 0.6
        },
        {
            "id": 51145,
            "original_name": "Chris p\u00e5 Skoleb\u00e6nken",
            "popularity": 0.6
        },
        {
            "id": 51146,
            "original_name": "Chris p\u00e5 V\u00e6gten",
            "popularity": 0.6
        },
        {
            "id": 51463,
            "original_name": "Hvem var Christmas M\u00f8ller?",
            "popularity": 0.6
        },
        {
            "id": 54265,
            "original_name": "Ahmad and Christina",
            "popularity": 0.6
        },
        {
            "id": 54457,
            "original_name": "Chris Tarrant: Extreme Railways",
            "popularity": 2.156
        },
        {
            "id": 55608,
            "original_name": "Chris Hardwick's All Star Celebrity Bowling",
            "popularity": 0.6
        },
        {
            "id": 55626,
            "original_name": "Coca Cola Christmas In The Park",
            "popularity": 0.6
        },
        {
            "id": 55629,
            "original_name": "Nigel Slater's 12 Tastes of Christmas",
            "popularity": 0.6
        },
        {
            "id": 56571,
            "original_name": "Emmet Otter's Jug Band Christmas",
            "popularity": 1.4
        },
        {
            "id": 56628,
            "original_name": "A Christmas To Remember",
            "popularity": 0.6
        },
        {
            "id": 56788,
            "original_name": "Aussie Christmas Lights",
            "popularity": 0.6
        },
        {
            "id": 57271,
            "original_name": "Kenny & Dolly: A Christmas to Remember",
            "popularity": 0.6
        },
        {
            "id": 57465,
            "original_name": "Gordon Ramsay Cooks Christmas Dinner",
            "popularity": 0.6
        },
        {
            "id": 57978,
            "original_name": "The Chris Gethard Show",
            "popularity": 2.121
        },
        {
            "id": 58845,
            "original_name": "The Christmas Choir",
            "popularity": 0.6
        },
        {
            "id": 58879,
            "original_name": "Noel's Christmas Presents",
            "popularity": 0.6
        },
        {
            "id": 58976,
            "original_name": "The Chris Gethard Show: Public Access",
            "popularity": 2.397
        },
        {
            "id": 59501,
            "original_name": "Christine Cushing: Cook With Me",
            "popularity": 0.6
        },
        {
            "id": 59589,
            "original_name": "Chris & Wes: Let's Do This",
            "popularity": 0.6
        },
        {
            "id": 59917,
            "original_name": "My Song is My Gift: A George Canyon Christmas",
            "popularity": 0.6
        },
        {
            "id": 60333,
            "original_name": "Gospel Christmas Celebration",
            "popularity": 0.6
        },
        {
            "id": 61073,
            "original_name": "Ich, Christian Hahn",
            "popularity": 0.6
        },
        {
            "id": 61431,
            "original_name": "Les Petits Meurtres d'Agatha Christie",
            "popularity": 14.99
        },
        {
            "id": 61997,
            "original_name": "Christian und Christiane",
            "popularity": 1.188
        },
        {
            "id": 62012,
            "original_name": "Christina Milian Turned Up",
            "popularity": 0.6
        },
        {
            "id": 62807,
            "original_name": "Chrisley Knows Best",
            "popularity": 20.667
        },
        {
            "id": 64193,
            "original_name": "Sabine Christiansen",
            "popularity": 10.417
        },
        {
            "id": 64449,
            "original_name": "Christine. Perfekt war gestern!",
            "popularity": 1.96
        },
        {
            "id": 64691,
            "original_name": "Christmas Through the Decades",
            "popularity": 1.197
        },
        {
            "id": 65031,
            "original_name": "Chrissy & Mr. Jones",
            "popularity": 0.6
        },
        {
            "id": 65899,
            "original_name": "The Edge and Christian Show That Totally Reeks of Awesomeness",
            "popularity": 3.604
        },
        {
            "id": 67072,
            "original_name": "Chris Harris on Cars",
            "popularity": 0.6
        },
        {
            "id": 67258,
            "original_name": "Des Christoffel von Grimmelshausen abenteuerlicher Simplizissimus",
            "popularity": 2.679
        },
        {
            "id": 67266,
            "original_name": "Real Christian Talk Show",
            "popularity": 0.6
        },
        {
            "id": 67749,
            "original_name": "Killer Instinct with Chris Hansen",
            "popularity": 1.76
        },
        {
            "id": 67836,
            "original_name": "Jim & Chrissy: Vow or Never",
            "popularity": 0.6
        },
        {
            "id": 69174,
            "original_name": "Terry Crews Saves Christmas",
            "popularity": 0.717
        },
        {
            "id": 69347,
            "original_name": "Ottomans Versus Christians: Battle for Europe",
            "popularity": 0.6
        },
        {
            "id": 69971,
            "original_name": "Corpus Christi",
            "popularity": 0.841
        },
        {
            "id": 69985,
            "original_name": "L'Origine du Christianisme",
            "popularity": 0.631
        },
        {
            "id": 70345,
            "original_name": "All In with Chris Hayes",
            "popularity": 2.483
        },
        {
            "id": 72278,
            "original_name": "Jamie's Family Christmas",
            "popularity": 0.6
        },
        {
            "id": 72578,
            "original_name": "ITV Christmas Comedy",
            "popularity": 3.093
        },
        {
            "id": 73605,
            "original_name": "The Lost Honour of Christopher Jefferies",
            "popularity": 2.911
        },
        {
            "id": 74289,
            "original_name": "According to Chrisley",
            "popularity": 0.6
        },
        {
            "id": 75112,
            "original_name": "The Legend Of ... with Chris Jericho",
            "popularity": 0.6
        },
        {
            "id": 75497,
            "original_name": "Christmas Cookie Challenge",
            "popularity": 17.499
        },
        {
            "id": 75534,
            "original_name": "The Great Christmas Light Fight",
            "popularity": 6.546
        },
        {
            "id": 75786,
            "original_name": "Christmas battle : Les illumin\u00e9s de No\u00ebl",
            "popularity": 0.6
        },
        {
            "id": 75836,
            "original_name": "Christmas Comedy Shorts",
            "popularity": 0.6
        },
        {
            "id": 76929,
            "original_name": "Chris & Josh",
            "popularity": 0.6
        },
        {
            "id": 77097,
            "original_name": "Christabel",
            "popularity": 0.6
        },
        {
            "id": 77205,
            "original_name": "Christy: Choices of the Heart",
            "popularity": 0.6
        },
        {
            "id": 77306,
            "original_name": "Christianity: The First 1000 Years",
            "popularity": 0.6
        },
        {
            "id": 77307,
            "original_name": "Christianity: The Second Millennium",
            "popularity": 0.681
        },
        {
            "id": 78112,
            "original_name": "Christiane Amanpour: Sex & Love Around the World",
            "popularity": 2.534
        },
        {
            "id": 79336,
            "original_name": "Victorian Farm Christmas",
            "popularity": 0.6
        },
        {
            "id": 81284,
            "original_name": "The Curious Creations of Christine McConnell",
            "popularity": 4.036
        },
        {
            "id": 83106,
            "original_name": "A Christmas Miracle: The Making of a Charlie Brown Christmas",
            "popularity": 0.823
        },
        {
            "id": 83966,
            "original_name": "Ruth Mott's Country Christmas",
            "popularity": 0.6
        },
        {
            "id": 84458,
            "original_name": "A Legendary Christmas with John and Chrissy",
            "popularity": 0.6
        },
        {
            "id": 84459,
            "original_name": "Chris Webber's Full Court Pranks",
            "popularity": 2.327
        },
        {
            "id": 84628,
            "original_name": "Christmas with the Mormon Tabernacle Choir",
            "popularity": 1.77
        },
        {
            "id": 84841,
            "original_name": "CBeebies Christmas Panto",
            "popularity": 0.6
        },
        {
            "id": 85634,
            "original_name": "Back in Time for Christmas",
            "popularity": 0.6
        },
        {
            "id": 85750,
            "original_name": "Dr Christian Will See You Now",
            "popularity": 0.869
        },
        {
            "id": 87589,
            "original_name": "Chris Barrie's Massive Engines",
            "popularity": 0.6
        },
        {
            "id": 88145,
            "original_name": "Growing Up Chrisley",
            "popularity": 1.207
        },
        {
            "id": 89687,
            "original_name": "Chrissy's Court",
            "popularity": 0.743
        },
        {
            "id": 89739,
            "original_name": "Zeitreise - Die Welt im Jahr 1000 vor Christus",
            "popularity": 0.6
        },
        {
            "id": 89866,
            "original_name": "Christina on the Coast",
            "popularity": 1.96
        },
        {
            "id": 90028,
            "original_name": "Marie-Christine Lavoie : ma maison, mon design",
            "popularity": 0.6
        },
        {
            "id": 91589,
            "original_name": "Ancient Roads from Christ to Constantine",
            "popularity": 2.385
        },
        {
            "id": 91847,
            "original_name": "The Great War Tour with Norm Christie",
            "popularity": 0.6
        },
        {
            "id": 91965,
            "original_name": "Chris Gethard Presents",
            "popularity": 0.741
        },
        {
            "id": 93645,
            "original_name": "Christopher Kimball's Milk Street Television",
            "popularity": 2.872
        },
        {
            "id": 93981,
            "original_name": "Ottomans vs Christians",
            "popularity": 0.6
        },
        {
            "id": 94963,
            "original_name": "Christmas Cookie Matchup",
            "popularity": 0.675
        },
        {
            "id": 95953,
            "original_name": "Sugar Rush Christmas",
            "popularity": 1.387
        },
        {
            "id": 96142,
            "original_name": "Jean-Christophe",
            "popularity": 0.6
        },
        {
            "id": 96259,
            "original_name": "It's Not the Robbie Williams Christmas Show",
            "popularity": 0.818
        },
        {
            "id": 96294,
            "original_name": "Buy It Now for Christmas",
            "popularity": 0.6
        },
        {
            "id": 96585,
            "original_name": "Sound of Christmas",
            "popularity": 0.6
        },
        {
            "id": 96717,
            "original_name": "12 Dates of Christmas",
            "popularity": 6.994
        },
        {
            "id": 96928,
            "original_name": "The Trial of Christine Keeler",
            "popularity": 5.831
        },
        {
            "id": 97450,
            "original_name": "The Magic of Christmas",
            "popularity": 0.6
        },
        {
            "id": 98004,
            "original_name": "Christy's Kitchen Throwback",
            "popularity": 1.905
        },
        {
            "id": 99744,
            "original_name": "4 Reasons Why I Hate Christmas",
            "popularity": 0.6
        },
        {
            "id": 100079,
            "original_name": "Queen of New York: Backstage at 'King Kong' with Christiani Pitts",
            "popularity": 7.96
        },
        {
            "id": 100644,
            "original_name": "Best Christmas Ever with Alexander Armstrong",
            "popularity": 0.688
        },
        {
            "id": 101308,
            "original_name": "Dream Jobs With Chris Hoy",
            "popularity": 0.619
        },
        {
            "id": 101943,
            "original_name": "Royal Misfits: Backstage at Anastasia with Christy Altomare",
            "popularity": 0.631
        },
        {
            "id": 102167,
            "original_name": "Secrets of Christianity",
            "popularity": 0.6
        },
        {
            "id": 104295,
            "original_name": "Chris Barrie's Massive Machines",
            "popularity": 0.6
        },
        {
            "id": 105940,
            "original_name": "Delia Smith's Christmas",
            "popularity": 0.6
        },
        {
            "id": 105942,
            "original_name": "Fanny Cradock Cooks for Christmas",
            "popularity": 0.6
        },
        {
            "id": 105946,
            "original_name": "What's Cooking With Julie Chrisley",
            "popularity": 0.6
        },
        {
            "id": 106542,
            "original_name": "Rick Stein's Spanish Christmas",
            "popularity": 0.6
        },
        {
            "id": 107622,
            "original_name": "White Christmas",
            "popularity": 0.6
        },
        {
            "id": 109384,
            "original_name": "Johnny Christ",
            "popularity": 0.6
        },
        {
            "id": 112716,
            "original_name": "Morecambe & Wise: Christmas Specials",
            "popularity": 0.84
        },
        {
            "id": 112789,
            "original_name": "Buddy vs. Christmas",
            "popularity": 0.726
        },
        {
            "id": 112869,
            "original_name": "Holiday Home Makeover with Mr. Christmas",
            "popularity": 4.967
        },
        {
            "id": 113304,
            "original_name": "Pocoyo & Christimas",
            "popularity": 1.646
        },
        {
            "id": 113675,
            "original_name": "The Whole Christ",
            "popularity": 0.6
        },
        {
            "id": 113981,
            "original_name": "Biggest Little Christmas Showdown",
            "popularity": 0.6
        },
        {
            "id": 114649,
            "original_name": "How To Ruin Christmas: The Wedding",
            "popularity": 4.031
        },
        {
            "id": 114878,
            "original_name": "A Very Country Christmas",
            "popularity": 0.6
        },
        {
            "id": 115165,
            "original_name": "Joe Bob Saves Christmas",
            "popularity": 0.908
        },
        {
            "id": 115270,
            "original_name": "Queens Christmas Broadcast 2020",
            "popularity": 0.6
        },
        {
            "id": 115476,
            "original_name": "Bwyd Epic Chris",
            "popularity": 0.6
        },
        {
            "id": 115701,
            "original_name": "Christmas at Belmont 2019",
            "popularity": 0.6
        },
        {
            "id": 115702,
            "original_name": "Ella Wishes You a Swinging Christmas with Vanessa Williams",
            "popularity": 1.261
        },
        {
            "id": 115996,
            "original_name": "Limitless with Chris Hemsworth",
            "popularity": 5.165
        },
        {
            "id": 116056,
            "original_name": "A Very Belgian Christmas Treat",
            "popularity": 0.84
        },
        {
            "id": 116333,
            "original_name": "The Story of Europe With Historian Dr. Christopher Clark",
            "popularity": 0.6
        },
        {
            "id": 116786,
            "original_name": "The Railways That Built Britain with Chris Tarrant",
            "popularity": 0.6
        },
        {
            "id": 117453,
            "original_name": "Christina: Stronger by Design",
            "popularity": 0.653
        },
        {
            "id": 118029,
            "original_name": "Giver det mening if\u00f8lge Torben Chris",
            "popularity": 0.6
        },
        {
            "id": 118075,
            "original_name": "Carry On Christmas Specials",
            "popularity": 0.656
        },
        {
            "id": 118372,
            "original_name": "Torben Chris rydder op",
            "popularity": 0.6
        },
        {
            "id": 119150,
            "original_name": "Chris Packham's Animal Einsteins",
            "popularity": 1.563
        },
        {
            "id": 119492,
            "original_name": "Talking with Chris Hardwick",
            "popularity": 0.664
        },
        {
            "id": 120222,
            "original_name": "Wir warten auf\u2019s Christkind",
            "popularity": 0.6
        },
        {
            "id": 121873,
            "original_name": "Great British Christmas Menu (2020)",
            "popularity": 0.6
        },
        {
            "id": 123329,
            "original_name": "Darf er das? \u2013 Die Chris Tall Show",
            "popularity": 0.6
        },
        {
            "id": 128256,
            "original_name": "Agatha Christie's Hjerson",
            "popularity": 4.997
        },
        {
            "id": 130843,
            "original_name": "Inside Evil with Chris Cuomo",
            "popularity": 0.6
        },
        {
            "id": 131439,
            "original_name": "Mary Berry's Absolute Christmas Favourites",
            "popularity": 0.6
        },
        {
            "id": 131759,
            "original_name": "Jamie: Keep Cooking at Christmas",
            "popularity": 0.84
        },
        {
            "id": 131761,
            "original_name": "Jamie's Cracking Christmas",
            "popularity": 0.6
        },
        {
            "id": 131863,
            "original_name": "\u2018For a Certainty God Made Him Lord and Christ\u2019",
            "popularity": 0.6
        },
        {
            "id": 133113,
            "original_name": "Ghost Stories for Christmas",
            "popularity": 0.6
        },
        {
            "id": 133218,
            "original_name": "The Queen's Christmas Broadcast",
            "popularity": 0.6
        },
        {
            "id": 134113,
            "original_name": "Christmas Under The Stars",
            "popularity": 0.6
        },
        {
            "id": 134631,
            "original_name": "Christoffel Ko Hummus",
            "popularity": 0.6
        },
        {
            "id": 134850,
            "original_name": "Peter & Paul and the Christian Revolution",
            "popularity": 0.6
        },
        {
            "id": 134874,
            "original_name": "Chris and Meg's Wild Summer",
            "popularity": 4.551
        },
        {
            "id": 135206,
            "original_name": "Christa",
            "popularity": 0.6
        },
        {
            "id": 135435,
            "original_name": "The Chris Ramsey Show",
            "popularity": 0.6
        },
        {
            "id": 135799,
            "original_name": "Christmas Flow",
            "popularity": 22.693
        },
        {
            "id": 136101,
            "original_name": "Blown Away: Christmas",
            "popularity": 7.433
        },
        {
            "id": 136652,
            "original_name": "Kirstie's Handmade Christmas",
            "popularity": 0.6
        },
        {
            "id": 136865,
            "original_name": "Les Dawson's Christmas Box",
            "popularity": 0.6
        },
        {
            "id": 137660,
            "original_name": "Mary Berry's Absolute Christmas Favourites",
            "popularity": 0.6
        },
        {
            "id": 137933,
            "original_name": "A Christmas Carol",
            "popularity": 3.695
        },
        {
            "id": 137983,
            "original_name": "Dr Christian: Special clinics",
            "popularity": 0.6
        },
        {
            "id": 138366,
            "original_name": "Christianity: The First Two Thousand Years",
            "popularity": 0.6
        },
        {
            "id": 139411,
            "original_name": "Home Comforts at Christmas",
            "popularity": 0.6
        },
        {
            "id": 152546,
            "original_name": "Hallmark Countdown to Christmas",
            "popularity": 1.4
        },
        {
            "id": 152566,
            "original_name": "Paddy and Christine McGuinness: Our Family and Autism",
            "popularity": 1.4
        },
        {
            "id": 152618,
            "original_name": "Christmas City",
            "popularity": 0.6
        }
    ],
    "relations": [
        {
            "character": "christ"
        },
        {
            "character": "chrisl"
        },
        {
            "character": "chriss"
        }
    ],
    "top20": [
        {
            "id": 790,
            "original_name": "Agatha Christie's Poirot",
            "popularity": 54.647
        },
        {
            "id": 6127,
            "original_name": "Agatha Christie's Marple",
            "popularity": 37.056
        },
        {
            "id": 135799,
            "original_name": "Christmas Flow",
            "popularity": 22.693
        },
        {
            "id": 62807,
            "original_name": "Chrisley Knows Best",
            "popularity": 20.667
        },
        {
            "id": 252,
            "original_name": "Everybody Hates Chris",
            "popularity": 20.196
        },
        {
            "id": 75497,
            "original_name": "Christmas Cookie Challenge",
            "popularity": 17.499
        },
        {
            "id": 61431,
            "original_name": "Les Petits Meurtres d'Agatha Christie",
            "popularity": 14.99
        },
        {
            "id": 4402,
            "original_name": "The New Adventures of Old Christine",
            "popularity": 13.771
        },
        {
            "id": 64193,
            "original_name": "Sabine Christiansen",
            "popularity": 10.417
        },
        {
            "id": 100079,
            "original_name": "Queen of New York: Backstage at 'King Kong' with Christiani Pitts",
            "popularity": 7.96
        },
        {
            "id": 136101,
            "original_name": "Blown Away: Christmas",
            "popularity": 7.433
        },
        {
            "id": 96717,
            "original_name": "12 Dates of Christmas",
            "popularity": 6.994
        },
        {
            "id": 3173,
            "original_name": "The Chris Isaak Show",
            "popularity": 6.679
        },
        {
            "id": 75534,
            "original_name": "The Great Christmas Light Fight",
            "popularity": 6.546
        },
        {
            "id": 28007,
            "original_name": "The Agatha Christie Hour",
            "popularity": 6.045
        },
        {
            "id": 96928,
            "original_name": "The Trial of Christine Keeler",
            "popularity": 5.831
        },
        {
            "id": 60,
            "original_name": "Hardball with Chris Matthews",
            "popularity": 5.265
        },
        {
            "id": 115996,
            "original_name": "Limitless with Chris Hemsworth",
            "popularity": 5.165
        },
        {
            "id": 128256,
            "original_name": "Agatha Christie's Hjerson",
            "popularity": 4.997
        },
        {
            "id": 112869,
            "original_name": "Holiday Home Makeover with Mr. Christmas",
            "popularity": 4.967
        }
    ]
}