{
    "data": [
        {
            "id": 69082,
            "original_name": "Wigald & Fritz - Die Geschichtsj\u00e4ger",
            "popularity": 0.6
        }
    ],
    "relations": [],
    "top20": [
        {
            "id": 69082,
            "original_name": "Wigald & Fritz - Die Geschichtsj\u00e4ger",
            "popularity": 0.6
        }
    ]
}