{
    "data": [
        {
            "id": 63174,
            "original_name": "Lucifer",
            "popularity": 822.867
        }
    ],
    "relations": [],
    "top20": [
        {
            "id": 63174,
            "original_name": "Lucifer",
            "popularity": 822.867
        }
    ]
}