{
    "data": [
        {
            "id": 42734,
            "original_name": "M\u00e9decins des hommes",
            "popularity": 0.6
        },
        {
            "id": 65969,
            "original_name": "M\u00e9decins de nuit",
            "popularity": 1.453
        },
        {
            "id": 121355,
            "original_name": "M\u00e9decins de demain",
            "popularity": 0.6
        }
    ],
    "relations": [],
    "top20": [
        {
            "id": 42734,
            "original_name": "M\u00e9decins des hommes",
            "popularity": 0.6
        },
        {
            "id": 65969,
            "original_name": "M\u00e9decins de nuit",
            "popularity": 1.453
        },
        {
            "id": 121355,
            "original_name": "M\u00e9decins de demain",
            "popularity": 0.6
        }
    ]
}