{
    "data": [
        {
            "id": 1171,
            "original_name": "Tenacious D",
            "popularity": 4.275
        },
        {
            "id": 1753,
            "original_name": "Goodness Gracious Me",
            "popularity": 1.469
        },
        {
            "id": 2659,
            "original_name": "Maggie and the Ferocious Beast",
            "popularity": 2.216
        },
        {
            "id": 21385,
            "original_name": "Caution: Precious Cargo.",
            "popularity": 0.6
        },
        {
            "id": 24316,
            "original_name": "The Ferocious Mr Fixit",
            "popularity": 0.6
        },
        {
            "id": 27068,
            "original_name": "In Suspicious Circumstances",
            "popularity": 0.867
        },
        {
            "id": 30622,
            "original_name": "Stylelicious",
            "popularity": 0.6
        },
        {
            "id": 31122,
            "original_name": "Daddylicious",
            "popularity": 0.6
        },
        {
            "id": 31960,
            "original_name": "Delicious Gakuin",
            "popularity": 0.928
        },
        {
            "id": 32484,
            "original_name": "Wrestlicious",
            "popularity": 0.842
        },
        {
            "id": 33984,
            "original_name": "Jerseylicious",
            "popularity": 1.48
        },
        {
            "id": 35390,
            "original_name": "Sun, Sex and Suspicious Parents",
            "popularity": 0.919
        },
        {
            "id": 40435,
            "original_name": "Precious Hearts Romances Presents",
            "popularity": 0.6
        },
        {
            "id": 42323,
            "original_name": "Gellicious",
            "popularity": 0.6
        },
        {
            "id": 44366,
            "original_name": "Maggie and the Ferocious Beast: Puzzles and Picnics",
            "popularity": 0.6
        },
        {
            "id": 45147,
            "original_name": "Chicagolicious",
            "popularity": 0.961
        },
        {
            "id": 47039,
            "original_name": "Vicious",
            "popularity": 4.739
        },
        {
            "id": 47633,
            "original_name": "The Precious Blood",
            "popularity": 0.6
        },
        {
            "id": 48050,
            "original_name": "The Pugnacious Pacifist",
            "popularity": 0.6
        },
        {
            "id": 48959,
            "original_name": "80 Gracious Years",
            "popularity": 0.6
        },
        {
            "id": 53456,
            "original_name": "Delicious Academy",
            "popularity": 0.6
        },
        {
            "id": 55643,
            "original_name": "Precious Places",
            "popularity": 0.6
        },
        {
            "id": 62793,
            "original_name": "Festivals, Sex and Suspicious Parents",
            "popularity": 0.6
        },
        {
            "id": 62991,
            "original_name": "Bizarre Foods: Delicious Destinations",
            "popularity": 3.121
        },
        {
            "id": 67733,
            "original_name": "F*ck That's Delicious",
            "popularity": 1.73
        },
        {
            "id": 68610,
            "original_name": "Sweet/Vicious",
            "popularity": 3.434
        },
        {
            "id": 69370,
            "original_name": "Delicious",
            "popularity": 3.481
        },
        {
            "id": 77379,
            "original_name": "Pinkalicious & Peterrific",
            "popularity": 0.6
        },
        {
            "id": 77416,
            "original_name": "Ugly Delicious",
            "popularity": 2.755
        },
        {
            "id": 77836,
            "original_name": "Curious Minds: Consciousness",
            "popularity": 0.6
        },
        {
            "id": 86302,
            "original_name": "The Delicious Miss Dahl",
            "popularity": 0.6
        },
        {
            "id": 91226,
            "original_name": "Extremely Delicious",
            "popularity": 1.227
        },
        {
            "id": 91591,
            "original_name": "Delicious Miss Brown",
            "popularity": 5.839
        },
        {
            "id": 99906,
            "original_name": "Body Groove Delicious Dance 1-3",
            "popularity": 0.6
        },
        {
            "id": 102699,
            "original_name": "Delicious Food en Isra\u00ebl",
            "popularity": 0.6
        },
        {
            "id": 105125,
            "original_name": "Crazy Delicious",
            "popularity": 1.377
        },
        {
            "id": 111473,
            "original_name": "Suspicious Minds",
            "popularity": 0.6
        },
        {
            "id": 114627,
            "original_name": "Deliciousness",
            "popularity": 3.735
        },
        {
            "id": 139640,
            "original_name": "Delicious Romance",
            "popularity": 12.125
        }
    ],
    "relations": [
        {
            "character": "cious"
        }
    ],
    "top20": [
        {
            "id": 139640,
            "original_name": "Delicious Romance",
            "popularity": 12.125
        },
        {
            "id": 91591,
            "original_name": "Delicious Miss Brown",
            "popularity": 5.839
        },
        {
            "id": 47039,
            "original_name": "Vicious",
            "popularity": 4.739
        },
        {
            "id": 1171,
            "original_name": "Tenacious D",
            "popularity": 4.275
        },
        {
            "id": 114627,
            "original_name": "Deliciousness",
            "popularity": 3.735
        },
        {
            "id": 69370,
            "original_name": "Delicious",
            "popularity": 3.481
        },
        {
            "id": 68610,
            "original_name": "Sweet/Vicious",
            "popularity": 3.434
        },
        {
            "id": 62991,
            "original_name": "Bizarre Foods: Delicious Destinations",
            "popularity": 3.121
        },
        {
            "id": 77416,
            "original_name": "Ugly Delicious",
            "popularity": 2.755
        },
        {
            "id": 2659,
            "original_name": "Maggie and the Ferocious Beast",
            "popularity": 2.216
        },
        {
            "id": 67733,
            "original_name": "F*ck That's Delicious",
            "popularity": 1.73
        },
        {
            "id": 33984,
            "original_name": "Jerseylicious",
            "popularity": 1.48
        },
        {
            "id": 1753,
            "original_name": "Goodness Gracious Me",
            "popularity": 1.469
        },
        {
            "id": 105125,
            "original_name": "Crazy Delicious",
            "popularity": 1.377
        },
        {
            "id": 91226,
            "original_name": "Extremely Delicious",
            "popularity": 1.227
        },
        {
            "id": 45147,
            "original_name": "Chicagolicious",
            "popularity": 0.961
        },
        {
            "id": 31960,
            "original_name": "Delicious Gakuin",
            "popularity": 0.928
        },
        {
            "id": 35390,
            "original_name": "Sun, Sex and Suspicious Parents",
            "popularity": 0.919
        },
        {
            "id": 27068,
            "original_name": "In Suspicious Circumstances",
            "popularity": 0.867
        },
        {
            "id": 32484,
            "original_name": "Wrestlicious",
            "popularity": 0.842
        }
    ]
}