{
    "data": [
        {
            "id": 3516,
            "original_name": "Black20",
            "popularity": 0.6
        },
        {
            "id": 30630,
            "original_name": "Kick2Kick",
            "popularity": 0.6
        }
    ],
    "relations": [],
    "top20": [
        {
            "id": 3516,
            "original_name": "Black20",
            "popularity": 0.6
        },
        {
            "id": 30630,
            "original_name": "Kick2Kick",
            "popularity": 0.6
        }
    ]
}