{
    "data": [
        {
            "id": 427,
            "original_name": "Clean Sweep",
            "popularity": 1.505
        },
        {
            "id": 7547,
            "original_name": "The Cleaner",
            "popularity": 4.71
        },
        {
            "id": 7679,
            "original_name": "Nuclear Secrets",
            "popularity": 1.489
        },
        {
            "id": 11234,
            "original_name": "War and Peace in the Nuclear Age",
            "popularity": 1.098
        },
        {
            "id": 11768,
            "original_name": "The Clear Horizon",
            "popularity": 5.399
        },
        {
            "id": 13723,
            "original_name": "How Clean Is Your House?",
            "popularity": 2.847
        },
        {
            "id": 14689,
            "original_name": "Clean House",
            "popularity": 7.458
        },
        {
            "id": 16711,
            "original_name": "With Nicola McLean",
            "popularity": 0.6
        },
        {
            "id": 17095,
            "original_name": "Living Clean",
            "popularity": 0.6
        },
        {
            "id": 18953,
            "original_name": "Broken Arrow: Can a Nuclear Weapons Accident Happen Here?",
            "popularity": 0.6
        },
        {
            "id": 26790,
            "original_name": "The McLean Stevenson Show",
            "popularity": 0.867
        },
        {
            "id": 28714,
            "original_name": "How Clean Is Your House? (US)",
            "popularity": 0.6
        },
        {
            "id": 29930,
            "original_name": "The Bob McLean Show",
            "popularity": 0.6
        },
        {
            "id": 30175,
            "original_name": "Clean House Comes Clean",
            "popularity": 0.6
        },
        {
            "id": 31045,
            "original_name": "Windscale: Britain\u2019s Biggest Nuclear Disaster",
            "popularity": 0.6
        },
        {
            "id": 35014,
            "original_name": "The Bob McLean Show",
            "popularity": 0.6
        },
        {
            "id": 38611,
            "original_name": "Ultimate Cleaners",
            "popularity": 0.6
        },
        {
            "id": 45634,
            "original_name": "Clean Break",
            "popularity": 1.386
        },
        {
            "id": 47922,
            "original_name": "Philby, Burgess and Maclean",
            "popularity": 0.6
        },
        {
            "id": 49956,
            "original_name": "Obsessive Compulsive Cleaners",
            "popularity": 1.22
        },
        {
            "id": 54202,
            "original_name": "Dorkbeer Clear Rak",
            "popularity": 0.6
        },
        {
            "id": 57442,
            "original_name": "Midsummer Clear Day",
            "popularity": 0.6
        },
        {
            "id": 59664,
            "original_name": "Clean House New York",
            "popularity": 0.6
        },
        {
            "id": 61437,
            "original_name": "Cleaners",
            "popularity": 6.33
        },
        {
            "id": 76495,
            "original_name": "Alistair MacLean's Air Force One Is Down",
            "popularity": 5.296
        },
        {
            "id": 85334,
            "original_name": "Nuclear Sharks - Cold War Submarine Adventures",
            "popularity": 0.6
        },
        {
            "id": 85699,
            "original_name": "Cleaning Up",
            "popularity": 3.712
        },
        {
            "id": 97232,
            "original_name": "Nuclear Test Films",
            "popularity": 0.6
        },
        {
            "id": 108317,
            "original_name": "Call the Cleaners",
            "popularity": 0.6
        },
        {
            "id": 116254,
            "original_name": "Nuclear Family",
            "popularity": 0.6
        },
        {
            "id": 120649,
            "original_name": "Kristal Clear",
            "popularity": 0.6
        },
        {
            "id": 122282,
            "original_name": "Clear History",
            "popularity": 0.6
        },
        {
            "id": 125282,
            "original_name": "The Cleaning Lady",
            "popularity": 6.38
        },
        {
            "id": 127165,
            "original_name": "Building Britain's Biggest Nuclear Power Station",
            "popularity": 1.063
        },
        {
            "id": 129434,
            "original_name": "Obsessive Compulsive Country House Cleaners",
            "popularity": 0.6
        },
        {
            "id": 129525,
            "original_name": "Dirty Rotten Cleaners",
            "popularity": 4.362
        },
        {
            "id": 131419,
            "original_name": "Clear Lakes 44",
            "popularity": 0.6
        },
        {
            "id": 132076,
            "original_name": "Nuclear Family",
            "popularity": 4.589
        },
        {
            "id": 132156,
            "original_name": "The Cleaner",
            "popularity": 7.589
        },
        {
            "id": 132357,
            "original_name": "True Grime: Crime Scene Cleanup",
            "popularity": 0.6
        },
        {
            "id": 134054,
            "original_name": "Nick Knowles' Big House Clearout",
            "popularity": 0.958
        },
        {
            "id": 138232,
            "original_name": "Clean It, Fix It",
            "popularity": 2.225
        }
    ],
    "relations": [
        {
            "character": "clean"
        },
        {
            "character": "clear"
        }
    ],
    "top20": [
        {
            "id": 132156,
            "original_name": "The Cleaner",
            "popularity": 7.589
        },
        {
            "id": 14689,
            "original_name": "Clean House",
            "popularity": 7.458
        },
        {
            "id": 125282,
            "original_name": "The Cleaning Lady",
            "popularity": 6.38
        },
        {
            "id": 61437,
            "original_name": "Cleaners",
            "popularity": 6.33
        },
        {
            "id": 11768,
            "original_name": "The Clear Horizon",
            "popularity": 5.399
        },
        {
            "id": 76495,
            "original_name": "Alistair MacLean's Air Force One Is Down",
            "popularity": 5.296
        },
        {
            "id": 7547,
            "original_name": "The Cleaner",
            "popularity": 4.71
        },
        {
            "id": 132076,
            "original_name": "Nuclear Family",
            "popularity": 4.589
        },
        {
            "id": 129525,
            "original_name": "Dirty Rotten Cleaners",
            "popularity": 4.362
        },
        {
            "id": 85699,
            "original_name": "Cleaning Up",
            "popularity": 3.712
        },
        {
            "id": 13723,
            "original_name": "How Clean Is Your House?",
            "popularity": 2.847
        },
        {
            "id": 138232,
            "original_name": "Clean It, Fix It",
            "popularity": 2.225
        },
        {
            "id": 427,
            "original_name": "Clean Sweep",
            "popularity": 1.505
        },
        {
            "id": 7679,
            "original_name": "Nuclear Secrets",
            "popularity": 1.489
        },
        {
            "id": 45634,
            "original_name": "Clean Break",
            "popularity": 1.386
        },
        {
            "id": 49956,
            "original_name": "Obsessive Compulsive Cleaners",
            "popularity": 1.22
        },
        {
            "id": 11234,
            "original_name": "War and Peace in the Nuclear Age",
            "popularity": 1.098
        },
        {
            "id": 127165,
            "original_name": "Building Britain's Biggest Nuclear Power Station",
            "popularity": 1.063
        },
        {
            "id": 134054,
            "original_name": "Nick Knowles' Big House Clearout",
            "popularity": 0.958
        },
        {
            "id": 26790,
            "original_name": "The McLean Stevenson Show",
            "popularity": 0.867
        }
    ]
}