{
    "data": [
        {
            "id": 37443,
            "original_name": "La l\u00e9gende des 3 clefs",
            "popularity": 1.96
        },
        {
            "id": 62850,
            "original_name": "La Clef des Champs",
            "popularity": 0.6
        },
        {
            "id": 104723,
            "original_name": "Witch of Briarcleft",
            "popularity": 0.6
        }
    ],
    "relations": [],
    "top20": [
        {
            "id": 37443,
            "original_name": "La l\u00e9gende des 3 clefs",
            "popularity": 1.96
        },
        {
            "id": 62850,
            "original_name": "La Clef des Champs",
            "popularity": 0.6
        },
        {
            "id": 104723,
            "original_name": "Witch of Briarcleft",
            "popularity": 0.6
        }
    ]
}