{
    "data": [
        {
            "id": 51058,
            "original_name": "Ugen med Clement",
            "popularity": 0.6
        },
        {
            "id": 51089,
            "original_name": "Clement direkte med Clement Kjersgaard",
            "popularity": 0.6
        },
        {
            "id": 51100,
            "original_name": "Clement s\u00f8ndag",
            "popularity": 0.6
        },
        {
            "id": 51109,
            "original_name": "Clement nyt\u00e5r",
            "popularity": 0.6
        },
        {
            "id": 51114,
            "original_name": "Clement kontra",
            "popularity": 0.6
        },
        {
            "id": 59595,
            "original_name": "Clem and Lachlan's Adventures",
            "popularity": 0.6
        },
        {
            "id": 62824,
            "original_name": "Clem",
            "popularity": 10.234
        },
        {
            "id": 117130,
            "original_name": "Clement kalder Jorden",
            "popularity": 0.6
        }
    ],
    "relations": [],
    "top20": [
        {
            "id": 51058,
            "original_name": "Ugen med Clement",
            "popularity": 0.6
        },
        {
            "id": 51089,
            "original_name": "Clement direkte med Clement Kjersgaard",
            "popularity": 0.6
        },
        {
            "id": 51100,
            "original_name": "Clement s\u00f8ndag",
            "popularity": 0.6
        },
        {
            "id": 51109,
            "original_name": "Clement nyt\u00e5r",
            "popularity": 0.6
        },
        {
            "id": 51114,
            "original_name": "Clement kontra",
            "popularity": 0.6
        },
        {
            "id": 59595,
            "original_name": "Clem and Lachlan's Adventures",
            "popularity": 0.6
        },
        {
            "id": 62824,
            "original_name": "Clem",
            "popularity": 10.234
        },
        {
            "id": 117130,
            "original_name": "Clement kalder Jorden",
            "popularity": 0.6
        }
    ]
}