{
    "data": [
        {
            "id": 16526,
            "original_name": "Clinton: His Struggle with Dirt",
            "popularity": 0.6
        },
        {
            "id": 25866,
            "original_name": "Vegas Live! with Clint Holmes & Sheena Easton",
            "popularity": 1.34
        },
        {
            "id": 29797,
            "original_name": "Freakin' Fabulous With Clinton Kelly",
            "popularity": 0.6
        },
        {
            "id": 40307,
            "original_name": "The Adventures of Clint and Mac",
            "popularity": 0.6
        },
        {
            "id": 44502,
            "original_name": "Clinton Anderson Downunder Horsemanship - Gaining Respect and Control on the Ground",
            "popularity": 0.6
        },
        {
            "id": 44503,
            "original_name": "Clinton Anderson Downunder Horsemanship - Riding with Confidence",
            "popularity": 0.6
        },
        {
            "id": 44504,
            "original_name": "Clinton Anderson Downunder Horsemanship - Round Penning",
            "popularity": 0.6
        },
        {
            "id": 47596,
            "original_name": "The Clintons: A Marriage of Power",
            "popularity": 0.6
        },
        {
            "id": 49016,
            "original_name": "Trading with the Enemy: How the Clinton Administration Armed China",
            "popularity": 0.6
        },
        {
            "id": 84197,
            "original_name": "The Clinton Affair",
            "popularity": 1.936
        },
        {
            "id": 116899,
            "original_name": "Restoration Road With Clint Harp",
            "popularity": 1.96
        }
    ],
    "relations": [],
    "top20": [
        {
            "id": 16526,
            "original_name": "Clinton: His Struggle with Dirt",
            "popularity": 0.6
        },
        {
            "id": 25866,
            "original_name": "Vegas Live! with Clint Holmes & Sheena Easton",
            "popularity": 1.34
        },
        {
            "id": 29797,
            "original_name": "Freakin' Fabulous With Clinton Kelly",
            "popularity": 0.6
        },
        {
            "id": 40307,
            "original_name": "The Adventures of Clint and Mac",
            "popularity": 0.6
        },
        {
            "id": 44502,
            "original_name": "Clinton Anderson Downunder Horsemanship - Gaining Respect and Control on the Ground",
            "popularity": 0.6
        },
        {
            "id": 44503,
            "original_name": "Clinton Anderson Downunder Horsemanship - Riding with Confidence",
            "popularity": 0.6
        },
        {
            "id": 44504,
            "original_name": "Clinton Anderson Downunder Horsemanship - Round Penning",
            "popularity": 0.6
        },
        {
            "id": 47596,
            "original_name": "The Clintons: A Marriage of Power",
            "popularity": 0.6
        },
        {
            "id": 49016,
            "original_name": "Trading with the Enemy: How the Clinton Administration Armed China",
            "popularity": 0.6
        },
        {
            "id": 84197,
            "original_name": "The Clinton Affair",
            "popularity": 1.936
        },
        {
            "id": 116899,
            "original_name": "Restoration Road With Clint Harp",
            "popularity": 1.96
        }
    ]
}