{
    "data": [
        {
            "id": 6528,
            "original_name": "Two in Clover",
            "popularity": 0.6
        },
        {
            "id": 82652,
            "original_name": "Astrid Clover",
            "popularity": 6.456
        },
        {
            "id": 84867,
            "original_name": "Clovis",
            "popularity": 0.6
        },
        {
            "id": 133433,
            "original_name": "Black Clover: Jump Festa 2018 Special",
            "popularity": 20.318
        },
        {
            "id": 133434,
            "original_name": "Black Clover: Jump Festa 2016 Special",
            "popularity": 38.657
        }
    ],
    "relations": [],
    "top20": [
        {
            "id": 6528,
            "original_name": "Two in Clover",
            "popularity": 0.6
        },
        {
            "id": 82652,
            "original_name": "Astrid Clover",
            "popularity": 6.456
        },
        {
            "id": 84867,
            "original_name": "Clovis",
            "popularity": 0.6
        },
        {
            "id": 133433,
            "original_name": "Black Clover: Jump Festa 2018 Special",
            "popularity": 20.318
        },
        {
            "id": 133434,
            "original_name": "Black Clover: Jump Festa 2016 Special",
            "popularity": 38.657
        }
    ]
}