{
    "data": [
        {
            "id": 15419,
            "original_name": "Coal House",
            "popularity": 0.843
        },
        {
            "id": 19556,
            "original_name": "The Price of Coal",
            "popularity": 0.6
        },
        {
            "id": 22297,
            "original_name": "Charcoal Chefs",
            "popularity": 0.6
        },
        {
            "id": 29722,
            "original_name": "The Coal Hole Club",
            "popularity": 0.6
        },
        {
            "id": 33501,
            "original_name": "Charcoal Chefs",
            "popularity": 0.6
        },
        {
            "id": 41983,
            "original_name": "Coal",
            "popularity": 0.6
        },
        {
            "id": 91865,
            "original_name": "Mundo Ripilica: As Aventuras de Lilica, a Coala",
            "popularity": 0.84
        }
    ],
    "relations": [],
    "top20": [
        {
            "id": 15419,
            "original_name": "Coal House",
            "popularity": 0.843
        },
        {
            "id": 19556,
            "original_name": "The Price of Coal",
            "popularity": 0.6
        },
        {
            "id": 22297,
            "original_name": "Charcoal Chefs",
            "popularity": 0.6
        },
        {
            "id": 29722,
            "original_name": "The Coal Hole Club",
            "popularity": 0.6
        },
        {
            "id": 33501,
            "original_name": "Charcoal Chefs",
            "popularity": 0.6
        },
        {
            "id": 41983,
            "original_name": "Coal",
            "popularity": 0.6
        },
        {
            "id": 91865,
            "original_name": "Mundo Ripilica: As Aventuras de Lilica, a Coala",
            "popularity": 0.84
        }
    ]
}