{
    "data": [
        {
            "id": 34992,
            "original_name": "Brad Meltzer's Decoded",
            "popularity": 0.842
        },
        {
            "id": 42805,
            "original_name": "Celebrity Nightmares Decoded",
            "popularity": 0.6
        },
        {
            "id": 55726,
            "original_name": "Mankind Decoded",
            "popularity": 1.144
        },
        {
            "id": 74930,
            "original_name": "Superheroes Decoded",
            "popularity": 0.919
        },
        {
            "id": 78513,
            "original_name": "Hollywood Decoded",
            "popularity": 0.6
        },
        {
            "id": 85155,
            "original_name": "Treasures Decoded",
            "popularity": 0.661
        },
        {
            "id": 88446,
            "original_name": "Murder Decoded",
            "popularity": 0.6
        },
        {
            "id": 92294,
            "original_name": "Mysteries Decoded",
            "popularity": 1.4
        },
        {
            "id": 98426,
            "original_name": "Miracles Decoded",
            "popularity": 0.6
        },
        {
            "id": 112991,
            "original_name": "Animals Decoded",
            "popularity": 0.6
        },
        {
            "id": 114207,
            "original_name": "Conspiracies Decoded",
            "popularity": 0.6
        },
        {
            "id": 131958,
            "original_name": "Danger Decoded",
            "popularity": 0.6
        },
        {
            "id": 135247,
            "original_name": "Decoded",
            "popularity": 0.6
        }
    ],
    "relations": [],
    "top20": [
        {
            "id": 34992,
            "original_name": "Brad Meltzer's Decoded",
            "popularity": 0.842
        },
        {
            "id": 42805,
            "original_name": "Celebrity Nightmares Decoded",
            "popularity": 0.6
        },
        {
            "id": 55726,
            "original_name": "Mankind Decoded",
            "popularity": 1.144
        },
        {
            "id": 74930,
            "original_name": "Superheroes Decoded",
            "popularity": 0.919
        },
        {
            "id": 78513,
            "original_name": "Hollywood Decoded",
            "popularity": 0.6
        },
        {
            "id": 85155,
            "original_name": "Treasures Decoded",
            "popularity": 0.661
        },
        {
            "id": 88446,
            "original_name": "Murder Decoded",
            "popularity": 0.6
        },
        {
            "id": 92294,
            "original_name": "Mysteries Decoded",
            "popularity": 1.4
        },
        {
            "id": 98426,
            "original_name": "Miracles Decoded",
            "popularity": 0.6
        },
        {
            "id": 112991,
            "original_name": "Animals Decoded",
            "popularity": 0.6
        },
        {
            "id": 114207,
            "original_name": "Conspiracies Decoded",
            "popularity": 0.6
        },
        {
            "id": 131958,
            "original_name": "Danger Decoded",
            "popularity": 0.6
        },
        {
            "id": 135247,
            "original_name": "Decoded",
            "popularity": 0.6
        }
    ]
}