{
    "data": [
        {
            "id": 135385,
            "original_name": "Mil Colmillos",
            "popularity": 219.404
        },
        {
            "id": 2004,
            "original_name": "Malcolm in the Middle",
            "popularity": 208.625
        },
        {
            "id": 118169,
            "original_name": "Colin in Black & White",
            "popularity": 199.398
        },
        {
            "id": 134373,
            "original_name": "The Sex Lives of College Girls",
            "popularity": 79.043
        },
        {
            "id": 21510,
            "original_name": "White Collar",
            "popularity": 67.651
        },
        {
            "id": 873,
            "original_name": "Columbo",
            "popularity": 54.221
        },
        {
            "id": 63770,
            "original_name": "The Late Show with Stephen Colbert",
            "popularity": 49.552
        },
        {
            "id": 62858,
            "original_name": "Colony",
            "popularity": 34.943
        },
        {
            "id": 2171,
            "original_name": "Cold Case",
            "popularity": 34.252
        },
        {
            "id": 13023,
            "original_name": "El Chapul\u00edn Colorado",
            "popularity": 29.612
        },
        {
            "id": 4385,
            "original_name": "The Colbert Report",
            "popularity": 28.816
        },
        {
            "id": 87820,
            "original_name": "Historia de un crimen: Colosio",
            "popularity": 15.069
        },
        {
            "id": 5885,
            "original_name": "The Colour of Magic",
            "popularity": 14.598
        },
        {
            "id": 95272,
            "original_name": "Lincoln Rhyme: Hunt for the Bone Collector",
            "popularity": 14.099
        },
        {
            "id": 139401,
            "original_name": "Coming Out Colton",
            "popularity": 13.597
        },
        {
            "id": 60632,
            "original_name": "El color de la pasi\u00f3n",
            "popularity": 13.274
        },
        {
            "id": 76796,
            "original_name": "Collateral",
            "popularity": 12.79
        },
        {
            "id": 4415,
            "original_name": "In Living Color",
            "popularity": 12.226
        },
        {
            "id": 1048,
            "original_name": "The Colgate Comedy Hour",
            "popularity": 12.039
        },
        {
            "id": 42154,
            "original_name": "World War II in Colour",
            "popularity": 11.4
        },
        {
            "id": 58818,
            "original_name": "Cold Justice",
            "popularity": 11.398
        },
        {
            "id": 74024,
            "original_name": "Velvet Colecci\u00f3n",
            "popularity": 11.343
        },
        {
            "id": 904,
            "original_name": "Lincoln Heights",
            "popularity": 11.133
        },
        {
            "id": 124122,
            "original_name": "Miracolous Secrets",
            "popularity": 10.096
        },
        {
            "id": 107700,
            "original_name": "Shark Tank Colombia",
            "popularity": 10.061
        },
        {
            "id": 597,
            "original_name": "Cold Squad",
            "popularity": 9.716
        },
        {
            "id": 137584,
            "original_name": "School of Chocolate",
            "popularity": 9.123
        },
        {
            "id": 71890,
            "original_name": "Friends from College",
            "popularity": 9.1
        },
        {
            "id": 21009,
            "original_name": "Colditz",
            "popularity": 8.946
        },
        {
            "id": 127917,
            "original_name": "Capital One College Bowl",
            "popularity": 8.317
        },
        {
            "id": 133367,
            "original_name": "Sonic Colors: Rise of the Wisps",
            "popularity": 8.248
        },
        {
            "id": 4424,
            "original_name": "The Colbys",
            "popularity": 8.094
        },
        {
            "id": 71,
            "original_name": "Malcolm & Eddie",
            "popularity": 8.015
        },
        {
            "id": 1644,
            "original_name": "The Collector",
            "popularity": 7.856
        },
        {
            "id": 91253,
            "original_name": "Il Miracolo",
            "popularity": 7.795
        },
        {
            "id": 89008,
            "original_name": "Historia de un crimen: Colmenares",
            "popularity": 7.473
        },
        {
            "id": 95801,
            "original_name": "College Behind Bars",
            "popularity": 7.179
        },
        {
            "id": 749,
            "original_name": "Cold Feet",
            "popularity": 7.037
        },
        {
            "id": 91724,
            "original_name": "Greatest Events of World War II in Colour",
            "popularity": 6.924
        },
        {
            "id": 2014,
            "original_name": "Saved by the Bell: The College Years",
            "popularity": 6.716
        },
        {
            "id": 110818,
            "original_name": "Earth at Night in Color",
            "popularity": 6.699
        },
        {
            "id": 87822,
            "original_name": "Charlie's Colorforms City",
            "popularity": 6.559
        },
        {
            "id": 116730,
            "original_name": "La Colombiana",
            "popularity": 6.514
        },
        {
            "id": 102970,
            "original_name": "Cold Courage",
            "popularity": 6.507
        },
        {
            "id": 90290,
            "original_name": "O Escolhido",
            "popularity": 6.135
        },
        {
            "id": 12238,
            "original_name": "The Pepsi-Cola Playhouse",
            "popularity": 5.873
        },
        {
            "id": 100478,
            "original_name": "Chapul\u00edn Colorado",
            "popularity": 5.677
        },
        {
            "id": 67169,
            "original_name": "The Collection",
            "popularity": 5.651
        },
        {
            "id": 523,
            "original_name": "Pensacola: Wings of Gold",
            "popularity": 5.621
        },
        {
            "id": 138521,
            "original_name": "Cold Case Killers",
            "popularity": 5.576
        },
        {
            "id": 18863,
            "original_name": "L'ispettore Coliandro",
            "popularity": 5.562
        },
        {
            "id": 12258,
            "original_name": "Cold Case Files",
            "popularity": 5.286
        },
        {
            "id": 138993,
            "original_name": "Hard Knocks In Season: The Indianapolis Colts",
            "popularity": 5.282
        },
        {
            "id": 1623,
            "original_name": "Tough Crowd with Colin Quinn",
            "popularity": 5.155
        },
        {
            "id": 29853,
            "original_name": "In Cold Blood",
            "popularity": 5.081
        },
        {
            "id": 100439,
            "original_name": "Colonia Dignidad - Aus dem Innern einer deutschen Sekte",
            "popularity": 4.833
        },
        {
            "id": 119815,
            "original_name": "Attenborough's Life in Colour",
            "popularity": 4.642
        },
        {
            "id": 546,
            "original_name": "Colditz",
            "popularity": 4.579
        },
        {
            "id": 1007,
            "original_name": "Mrs. Columbo",
            "popularity": 4.445
        },
        {
            "id": 10278,
            "original_name": "Live from Lincoln Center",
            "popularity": 4.339
        },
        {
            "id": 3130,
            "original_name": "True Colors",
            "popularity": 4.252
        },
        {
            "id": 2154,
            "original_name": "White Collar Blue",
            "popularity": 4.138
        },
        {
            "id": 84150,
            "original_name": "College Romance",
            "popularity": 3.805
        },
        {
            "id": 79363,
            "original_name": "In Ice Cold Blood",
            "popularity": 3.79
        },
        {
            "id": 64503,
            "original_name": "Vai Que Cola",
            "popularity": 3.75
        },
        {
            "id": 146173,
            "original_name": "In From the Cold",
            "popularity": 3.634
        },
        {
            "id": 90686,
            "original_name": "Cold Case Files",
            "popularity": 3.619
        },
        {
            "id": 108479,
            "original_name": "Cold Hawaii",
            "popularity": 3.529
        },
        {
            "id": 98762,
            "original_name": "Who Killed Malcolm X?",
            "popularity": 3.468
        },
        {
            "id": 17674,
            "original_name": "Chocolate com Pimenta",
            "popularity": 3.402
        },
        {
            "id": 8344,
            "original_name": "Collision",
            "popularity": 3.392
        },
        {
            "id": 117842,
            "original_name": "Tutta colpa di Freud",
            "popularity": 3.334
        },
        {
            "id": 127881,
            "original_name": "Masterchef Celebrity Colombia",
            "popularity": 3.255
        },
        {
            "id": 68387,
            "original_name": "Estocolmo",
            "popularity": 3.182
        },
        {
            "id": 67696,
            "original_name": "Loosely Exactly Nicole",
            "popularity": 3.136
        },
        {
            "id": 15958,
            "original_name": "Zombie College",
            "popularity": 3.079
        },
        {
            "id": 3349,
            "original_name": "Cold Lazarus",
            "popularity": 3.014
        },
        {
            "id": 48332,
            "original_name": "Christopher Columbus",
            "popularity": 2.931
        },
        {
            "id": 13505,
            "original_name": "Cold War",
            "popularity": 2.909
        },
        {
            "id": 68340,
            "original_name": "El Chapul\u00edn Colorado animado",
            "popularity": 2.894
        },
        {
            "id": 44812,
            "original_name": "Love in a Cold Climate",
            "popularity": 2.836
        },
        {
            "id": 97591,
            "original_name": "D\u00e9colonisations",
            "popularity": 2.818
        },
        {
            "id": 1236,
            "original_name": "Life in Cold Blood",
            "popularity": 2.805
        },
        {
            "id": 66222,
            "original_name": "Le Petit Nicolas",
            "popularity": 2.797
        },
        {
            "id": 21150,
            "original_name": "Colonel March of Scotland Yard",
            "popularity": 2.733
        },
        {
            "id": 114479,
            "original_name": "The Acolyte",
            "popularity": 2.686
        },
        {
            "id": 55163,
            "original_name": "Nicolas Le Floch",
            "popularity": 2.642
        },
        {
            "id": 133089,
            "original_name": "Colonia Dignidad: Una secta alemana en Chile",
            "popularity": 2.621
        },
        {
            "id": 4231,
            "original_name": "Walt Disney's Wonderful World of Color",
            "popularity": 2.586
        },
        {
            "id": 10947,
            "original_name": "The Anna Nicole Show",
            "popularity": 2.58
        },
        {
            "id": 31014,
            "original_name": "Sandburg's Lincoln",
            "popularity": 2.56
        },
        {
            "id": 32456,
            "original_name": "Justin Lee Collins: Good Times",
            "popularity": 2.508
        },
        {
            "id": 72249,
            "original_name": "\u30b9\u30b1\u30c3\u30c1\u30d6\u30c3\u30af \uff5efull color'S\uff5e",
            "popularity": 2.469
        },
        {
            "id": 11041,
            "original_name": "Pecola",
            "popularity": 2.441
        },
        {
            "id": 81197,
            "original_name": "Cold Case",
            "popularity": 2.419
        },
        {
            "id": 4813,
            "original_name": "Dame Chocolate",
            "popularity": 2.409
        },
        {
            "id": 13258,
            "original_name": "Matt Lincoln",
            "popularity": 2.359
        },
        {
            "id": 497,
            "original_name": "Lipstick on Your Collar",
            "popularity": 2.325
        },
        {
            "id": 15706,
            "original_name": "Weirdsister College",
            "popularity": 2.301
        },
        {
            "id": 7739,
            "original_name": "Chocolate News",
            "popularity": 2.296
        },
        {
            "id": 53726,
            "original_name": "\u307e\u3057\u308d\u8272\u30b7\u30f3\u30d5\u30a9\u30cb\u30fc -The color of lovers-",
            "popularity": 2.236
        },
        {
            "id": 24782,
            "original_name": "The Colin Quinn Show",
            "popularity": 2.192
        },
        {
            "id": 86930,
            "original_name": "Cristoforo Colombo",
            "popularity": 2.06
        },
        {
            "id": 80745,
            "original_name": "Colegas",
            "popularity": 1.96
        },
        {
            "id": 113150,
            "original_name": "Dancing with the Stars - Mindenki t\u00e1ncol",
            "popularity": 1.96
        },
        {
            "id": 17364,
            "original_name": "Lincoln",
            "popularity": 1.923
        },
        {
            "id": 1742,
            "original_name": "Cold Pizza",
            "popularity": 1.922
        },
        {
            "id": 82734,
            "original_name": "Colorina",
            "popularity": 1.895
        },
        {
            "id": 18061,
            "original_name": "The Justin Lee Collins Show",
            "popularity": 1.795
        },
        {
            "id": 1658,
            "original_name": "Blue Collar TV",
            "popularity": 1.784
        },
        {
            "id": 68635,
            "original_name": "Cold",
            "popularity": 1.78
        },
        {
            "id": 77132,
            "original_name": "America Beyond the Color Line",
            "popularity": 1.771
        },
        {
            "id": 5975,
            "original_name": "Colonel Humphrey Flack",
            "popularity": 1.766
        },
        {
            "id": 532,
            "original_name": "Watercolour Challenge",
            "popularity": 1.765
        },
        {
            "id": 125732,
            "original_name": "Catfish Colombia",
            "popularity": 1.717
        },
        {
            "id": 22325,
            "original_name": "Love in a Cold Climate",
            "popularity": 1.715
        },
        {
            "id": 66073,
            "original_name": "Stone Cold Podcast",
            "popularity": 1.699
        },
        {
            "id": 63017,
            "original_name": "Cold Justice: Sex Crimes",
            "popularity": 1.694
        },
        {
            "id": 76953,
            "original_name": "Il falco e la colomba",
            "popularity": 1.646
        },
        {
            "id": 152375,
            "original_name": "MasterChef Celebrity Colombia",
            "popularity": 1.646
        },
        {
            "id": 70333,
            "original_name": "Espa\u00f1a dividida: la Guerra Civil en color",
            "popularity": 1.573
        },
        {
            "id": 106284,
            "original_name": "NarcoLeap",
            "popularity": 1.553
        },
        {
            "id": 6175,
            "original_name": "McKeever and the Colonel",
            "popularity": 1.525
        },
        {
            "id": 16855,
            "original_name": "Mrs Merton and Malcolm",
            "popularity": 1.516
        },
        {
            "id": 101820,
            "original_name": "L'\u00e9cole \u00e0 la maison",
            "popularity": 1.503
        },
        {
            "id": 26127,
            "original_name": "Cold Blood",
            "popularity": 1.475
        },
        {
            "id": 4494,
            "original_name": "Nelson's Column",
            "popularity": 1.471
        },
        {
            "id": 128138,
            "original_name": "Col\u00f4nia",
            "popularity": 1.461
        },
        {
            "id": 97283,
            "original_name": "Collaricocoshow",
            "popularity": 1.436
        },
        {
            "id": 71589,
            "original_name": "Brigada Cola",
            "popularity": 1.42
        },
        {
            "id": 44103,
            "original_name": "La collection Cousteau",
            "popularity": 1.419
        },
        {
            "id": 20377,
            "original_name": "Chocolate with Jacques Torres",
            "popularity": 1.4
        },
        {
            "id": 27099,
            "original_name": "Colin and Justin on the Estate",
            "popularity": 1.4
        },
        {
            "id": 41223,
            "original_name": "College",
            "popularity": 1.4
        },
        {
            "id": 96911,
            "original_name": "Alcolirykoz, una deuda con la historia",
            "popularity": 1.4
        },
        {
            "id": 101664,
            "original_name": "La Segunda Guerra Mundial en color",
            "popularity": 1.4
        },
        {
            "id": 133110,
            "original_name": "Colpo grosso",
            "popularity": 1.4
        },
        {
            "id": 169557,
            "original_name": "Cold War - The Tech Race",
            "popularity": 1.4
        },
        {
            "id": 169563,
            "original_name": "Fullmetal Alchemist: Premium Collection",
            "popularity": 1.4
        },
        {
            "id": 171390,
            "original_name": "Tom & Jerry - Golden Collection",
            "popularity": 1.4
        },
        {
            "id": 98708,
            "original_name": "Cook Like An Italian With Silvia Colloca",
            "popularity": 1.382
        },
        {
            "id": 13909,
            "original_name": "Colt .45",
            "popularity": 1.376
        },
        {
            "id": 56004,
            "original_name": "Chocolate 5 Reudoo",
            "popularity": 1.376
        },
        {
            "id": 67604,
            "original_name": "\u00c7a d\u00e9colle",
            "popularity": 1.373
        },
        {
            "id": 21678,
            "original_name": "The Colony",
            "popularity": 1.372
        },
        {
            "id": 129445,
            "original_name": "Great Chocolate Showdown",
            "popularity": 1.367
        },
        {
            "id": 72709,
            "original_name": "America in Color",
            "popularity": 1.36
        },
        {
            "id": 136751,
            "original_name": "Malcolm and Barbara: Love's Farewell",
            "popularity": 1.342
        },
        {
            "id": 101022,
            "original_name": "Anthelme Collet ou le brigand gentilhomme",
            "popularity": 1.34
        },
        {
            "id": 93204,
            "original_name": "Coldd Lassi Aur Chicken Masala",
            "popularity": 1.314
        },
        {
            "id": 83828,
            "original_name": "Escolinha do Professor Raimundo Nova Gera\u00e7\u00e3o",
            "popularity": 1.294
        },
        {
            "id": 95469,
            "original_name": "Cold Call",
            "popularity": 1.294
        },
        {
            "id": 54410,
            "original_name": "Ice Cold Gold",
            "popularity": 1.291
        },
        {
            "id": 103472,
            "original_name": "Blanco, Color de Amor",
            "popularity": 1.267
        },
        {
            "id": 110898,
            "original_name": "L'\u00e9cole des fans",
            "popularity": 1.259
        },
        {
            "id": 120377,
            "original_name": "Bugs Bunny 80th Anniversary Collection",
            "popularity": 1.259
        },
        {
            "id": 3588,
            "original_name": "Hannity & Colmes",
            "popularity": 1.256
        },
        {
            "id": 97297,
            "original_name": "Collaro Show",
            "popularity": 1.24
        },
        {
            "id": 2763,
            "original_name": "The Gary Coleman Show",
            "popularity": 1.217
        },
        {
            "id": 102313,
            "original_name": "Colpo di coda",
            "popularity": 1.216
        },
        {
            "id": 64319,
            "original_name": "Ein Sommer mit Nicole",
            "popularity": 1.192
        },
        {
            "id": 10001,
            "original_name": "Colin's Sandwich",
            "popularity": 1.176
        },
        {
            "id": 111165,
            "original_name": "D\u00e9colonisations : du sang et des larmes",
            "popularity": 1.176
        },
        {
            "id": 113870,
            "original_name": "Colgar las alas",
            "popularity": 1.173
        },
        {
            "id": 93979,
            "original_name": "Rick Steves' Europe - The Complete Collection",
            "popularity": 1.164
        },
        {
            "id": 71557,
            "original_name": "T'choupi \u00e0 l'\u00e9cole",
            "popularity": 1.143
        },
        {
            "id": 16179,
            "original_name": "L'\u00e9cole des fans",
            "popularity": 1.142
        },
        {
            "id": 31791,
            "original_name": "A Escolinha do Golias",
            "popularity": 1.135
        },
        {
            "id": 81982,
            "original_name": "Mafia Killers With Colin McLaren",
            "popularity": 1.105
        },
        {
            "id": 129458,
            "original_name": "Kevin Hart: Cold As Balls",
            "popularity": 1.105
        },
        {
            "id": 76860,
            "original_name": "Nutritiously Nicola",
            "popularity": 1.103
        },
        {
            "id": 38691,
            "original_name": "World War 1 in Colour",
            "popularity": 1.102
        },
        {
            "id": 5082,
            "original_name": "College Hill",
            "popularity": 1.093
        },
        {
            "id": 20273,
            "original_name": "Chris Colorado",
            "popularity": 1.091
        },
        {
            "id": 24978,
            "original_name": "Your All American College Show",
            "popularity": 1.091
        },
        {
            "id": 27507,
            "original_name": "The Nat King Cole Show",
            "popularity": 1.091
        },
        {
            "id": 79262,
            "original_name": "Mister Rogers' Neighborhood: It's a Beautiful Day Collection",
            "popularity": 1.091
        },
        {
            "id": 79944,
            "original_name": "Colegio Mayor",
            "popularity": 1.091
        },
        {
            "id": 59602,
            "original_name": "AFI's Master Class: The Art of Collaboration",
            "popularity": 1.09
        },
        {
            "id": 100084,
            "original_name": "The Trouble with Maggie Cole",
            "popularity": 1.064
        },
        {
            "id": 35407,
            "original_name": "Les Aventures de Colargol",
            "popularity": 1.047
        },
        {
            "id": 200686,
            "original_name": "Escola Fant\u00e1stica",
            "popularity": 1.042
        },
        {
            "id": 77100,
            "original_name": "Cold Comfort Farm",
            "popularity": 0.978
        },
        {
            "id": 116799,
            "original_name": "Lincoln Lawyer",
            "popularity": 0.978
        },
        {
            "id": 126942,
            "original_name": "Rachel Khoos Chocolate",
            "popularity": 0.974
        },
        {
            "id": 67108,
            "original_name": "Collider Heroes",
            "popularity": 0.971
        },
        {
            "id": 106331,
            "original_name": "Occupation Double pr\u00e9sente Colocs... en amour!",
            "popularity": 0.965
        },
        {
            "id": 133784,
            "original_name": "Rhythm + Flow : Nouvelle \u00c9cole",
            "popularity": 0.964
        },
        {
            "id": 14032,
            "original_name": "De Collega's",
            "popularity": 0.956
        },
        {
            "id": 70433,
            "original_name": "Ice Cold Killers",
            "popularity": 0.952
        },
        {
            "id": 94465,
            "original_name": "The Scold's Bridle",
            "popularity": 0.933
        },
        {
            "id": 4687,
            "original_name": "Collectors",
            "popularity": 0.927
        },
        {
            "id": 91751,
            "original_name": "60 Days In: Narcoland",
            "popularity": 0.922
        },
        {
            "id": 101209,
            "original_name": "L'\u00e9cole du pouvoir",
            "popularity": 0.917
        },
        {
            "id": 95655,
            "original_name": "Il collegio",
            "popularity": 0.91
        },
        {
            "id": 103325,
            "original_name": "ASKIP, le coll\u00e8ge se la raconte",
            "popularity": 0.908
        },
        {
            "id": 83496,
            "original_name": "Online - Connessioni pericolose",
            "popularity": 0.901
        },
        {
            "id": 131987,
            "original_name": "Cold Blooded Alaska",
            "popularity": 0.888
        },
        {
            "id": 135710,
            "original_name": "Colonisation, une histoire fran\u00e7aise",
            "popularity": 0.88
        },
        {
            "id": 74623,
            "original_name": "Ernest et C\u00e9lestine, La Collection",
            "popularity": 0.877
        },
        {
            "id": 88257,
            "original_name": "Collector's Call",
            "popularity": 0.858
        },
        {
            "id": 1978,
            "original_name": "Keyshia Cole: The Way It Is",
            "popularity": 0.856
        },
        {
            "id": 123210,
            "original_name": "L'\u00c9cole de la vie",
            "popularity": 0.856
        },
        {
            "id": 63016,
            "original_name": "Candidly Nicole",
            "popularity": 0.847
        },
        {
            "id": 76377,
            "original_name": "Colour: The Spectrum of Science",
            "popularity": 0.847
        },
        {
            "id": 83243,
            "original_name": "La Voz Kid Colombia",
            "popularity": 0.846
        },
        {
            "id": 98065,
            "original_name": "Before 1776: Life in the American Colonies",
            "popularity": 0.844
        },
        {
            "id": 38048,
            "original_name": "Color TV",
            "popularity": 0.843
        },
        {
            "id": 105216,
            "original_name": "Aleixo na Escola",
            "popularity": 0.842
        },
        {
            "id": 8319,
            "original_name": "Mrs. G. Goes to College",
            "popularity": 0.841
        },
        {
            "id": 30867,
            "original_name": "Full Color Football: The History of the American Football League",
            "popularity": 0.84
        },
        {
            "id": 36829,
            "original_name": "Cold Blood",
            "popularity": 0.84
        },
        {
            "id": 58149,
            "original_name": "Michael Waddell's Bone Collector",
            "popularity": 0.84
        },
        {
            "id": 73672,
            "original_name": "Wild Colombia",
            "popularity": 0.84
        },
        {
            "id": 82332,
            "original_name": "Pink Collar",
            "popularity": 0.84
        },
        {
            "id": 109224,
            "original_name": "Inconsciente colectivo",
            "popularity": 0.84
        },
        {
            "id": 130591,
            "original_name": "True Colours",
            "popularity": 0.84
        },
        {
            "id": 132521,
            "original_name": "Thirties in Colour: Countdown to War",
            "popularity": 0.84
        },
        {
            "id": 132850,
            "original_name": "Korean Cold Noodle Rhapsody",
            "popularity": 0.84
        },
        {
            "id": 136827,
            "original_name": "Chocolate Meltdown: Hershey\u2019s After Dark",
            "popularity": 0.84
        },
        {
            "id": 27422,
            "original_name": "The True Adventures of Christopher Columbus",
            "popularity": 0.832
        },
        {
            "id": 30492,
            "original_name": "Agujetas de Color de Rosa",
            "popularity": 0.82
        },
        {
            "id": 55378,
            "original_name": "American Colony Meet the Hutterites",
            "popularity": 0.806
        },
        {
            "id": 93069,
            "original_name": "Arcole ou la terre promise",
            "popularity": 0.804
        },
        {
            "id": 116911,
            "original_name": "Belle Collective",
            "popularity": 0.794
        },
        {
            "id": 117018,
            "original_name": "Colorado Experience",
            "popularity": 0.788
        },
        {
            "id": 118766,
            "original_name": "Lincoln: Divided We Stand",
            "popularity": 0.787
        },
        {
            "id": 126989,
            "original_name": "Cold War: The Tech Race",
            "popularity": 0.775
        },
        {
            "id": 81780,
            "original_name": "De Columbus",
            "popularity": 0.728
        },
        {
            "id": 20762,
            "original_name": "Willie's Wonky Chocolate Factory",
            "popularity": 0.7
        },
        {
            "id": 89958,
            "original_name": "Espa\u00f1a despu\u00e9s de la guerra: el franquismo en color",
            "popularity": 0.699
        },
        {
            "id": 83276,
            "original_name": "L'\u00e9cole de la vraie vie",
            "popularity": 0.691
        },
        {
            "id": 124505,
            "original_name": "Showcolade",
            "popularity": 0.687
        },
        {
            "id": 39404,
            "original_name": "Haunted Collector",
            "popularity": 0.685
        },
        {
            "id": 62042,
            "original_name": "The Perilous Fight: America's World War II in Color",
            "popularity": 0.685
        },
        {
            "id": 124666,
            "original_name": "Ice Cold Murders Rocco Schiavone",
            "popularity": 0.685
        },
        {
            "id": 89628,
            "original_name": "The Pacific War in Color",
            "popularity": 0.684
        },
        {
            "id": 72247,
            "original_name": "Vive la colo !",
            "popularity": 0.678
        },
        {
            "id": 38301,
            "original_name": "Big Cat Week Collection",
            "popularity": 0.674
        },
        {
            "id": 35145,
            "original_name": "The Dave Gorman Collection",
            "popularity": 0.672
        },
        {
            "id": 105976,
            "original_name": "Escape from Colditz",
            "popularity": 0.665
        },
        {
            "id": 83341,
            "original_name": "Exatl\u00f3n Colombia",
            "popularity": 0.662
        },
        {
            "id": 111791,
            "original_name": "Patati-Patat\u00e1 O Melhor da Pr\u00e9-Escola (2018)",
            "popularity": 0.662
        },
        {
            "id": 15088,
            "original_name": "Colonial House",
            "popularity": 0.655
        },
        {
            "id": 16248,
            "original_name": "The CollegeHumor Show",
            "popularity": 0.653
        },
        {
            "id": 54390,
            "original_name": "Sandglass of Summer Colors",
            "popularity": 0.651
        },
        {
            "id": 115833,
            "original_name": "Occupation Double pr\u00e9sente Colocs... en amour: Sp\u00e9cial No\u00ebl",
            "popularity": 0.642
        },
        {
            "id": 45325,
            "original_name": "Coltrane's Planes and Automobiles",
            "popularity": 0.639
        },
        {
            "id": 59608,
            "original_name": "Deon Cole's Black Box",
            "popularity": 0.629
        },
        {
            "id": 13362,
            "original_name": "Rock Goes to College",
            "popularity": 0.626
        },
        {
            "id": 70839,
            "original_name": "coldmirror",
            "popularity": 0.626
        },
        {
            "id": 92851,
            "original_name": "Colocs!",
            "popularity": 0.624
        },
        {
            "id": 100115,
            "original_name": "Le Coll\u00e8ge des c\u0153urs bris\u00e9s",
            "popularity": 0.624
        },
        {
            "id": 3453,
            "original_name": "Tommy Lee Goes to College",
            "popularity": 0.622
        },
        {
            "id": 134946,
            "original_name": "The Hairy Bikers Chocolate Challenge",
            "popularity": 0.618
        },
        {
            "id": 127575,
            "original_name": "Mighty Little Bheem: Festival of Colors",
            "popularity": 0.616
        },
        {
            "id": 108164,
            "original_name": "A Student's Guide To Your First Year Of College",
            "popularity": 0.615
        },
        {
            "id": 103535,
            "original_name": "The Spying Game: Tales from the Cold War",
            "popularity": 0.609
        },
        {
            "id": 122611,
            "original_name": "WWE Worlds Collide",
            "popularity": 0.608
        },
        {
            "id": 82806,
            "original_name": "Tutta colpa di Einstein",
            "popularity": 0.607
        },
        {
            "id": 115255,
            "original_name": "What If Collab",
            "popularity": 0.607
        },
        {
            "id": 75332,
            "original_name": "Cold Blooded: The Clutter Family Murders",
            "popularity": 0.601
        },
        {
            "id": 686,
            "original_name": "Sex, Toys & Chocolate",
            "popularity": 0.6
        },
        {
            "id": 865,
            "original_name": "GE College Bowl",
            "popularity": 0.6
        },
        {
            "id": 1261,
            "original_name": "College GameNight",
            "popularity": 0.6
        },
        {
            "id": 2162,
            "original_name": "College University",
            "popularity": 0.6
        },
        {
            "id": 3054,
            "original_name": "Multi-Coloured Swap Shop",
            "popularity": 0.6
        },
        {
            "id": 3094,
            "original_name": "College Scoreboard",
            "popularity": 0.6
        },
        {
            "id": 3252,
            "original_name": "ESPN College Football Thursday Primetime",
            "popularity": 0.6
        },
        {
            "id": 3347,
            "original_name": "College Girls",
            "popularity": 0.6
        },
        {
            "id": 3571,
            "original_name": "Calvin and the Colonel",
            "popularity": 0.6
        },
        {
            "id": 3977,
            "original_name": "ESPN College Football Saturday Primetime",
            "popularity": 0.6
        },
        {
            "id": 5025,
            "original_name": "Colby's Clubhouse",
            "popularity": 0.6
        },
        {
            "id": 5094,
            "original_name": "College GameDay",
            "popularity": 0.6
        },
        {
            "id": 5318,
            "original_name": "ESPN2 College Football Saturday Primetime",
            "popularity": 0.6
        },
        {
            "id": 5549,
            "original_name": "ESPN2 College Football Friday Primetime",
            "popularity": 0.6
        },
        {
            "id": 5621,
            "original_name": "College Bowl",
            "popularity": 0.6
        },
        {
            "id": 5775,
            "original_name": "Foley and McColl: This Way Up",
            "popularity": 0.6
        },
        {
            "id": 6418,
            "original_name": "Dream of Colours",
            "popularity": 0.6
        },
        {
            "id": 6435,
            "original_name": "The Collectors",
            "popularity": 0.6
        },
        {
            "id": 6984,
            "original_name": "Noticias Caracol",
            "popularity": 0.6
        },
        {
            "id": 7616,
            "original_name": "Colosseum: Rome's Arena of Death",
            "popularity": 0.6
        },
        {
            "id": 7713,
            "original_name": "Colgate Theatre",
            "popularity": 0.6
        },
        {
            "id": 7896,
            "original_name": "King Cole's Birthday Party",
            "popularity": 0.6
        },
        {
            "id": 8219,
            "original_name": "TV Patrol Bicol",
            "popularity": 0.6
        },
        {
            "id": 8398,
            "original_name": "Colm and Jim-Jim's Home Run",
            "popularity": 0.6
        },
        {
            "id": 8411,
            "original_name": "A Colbert Christmas: The Greatest Gift of All!",
            "popularity": 0.6
        },
        {
            "id": 9541,
            "original_name": "Artist Collection",
            "popularity": 0.6
        },
        {
            "id": 9544,
            "original_name": "The Colour of Money",
            "popularity": 0.6
        },
        {
            "id": 10256,
            "original_name": "The Clay Cole Show",
            "popularity": 0.6
        },
        {
            "id": 10613,
            "original_name": "Comedy Colosseum",
            "popularity": 0.6
        },
        {
            "id": 11964,
            "original_name": "The American Collection",
            "popularity": 0.6
        },
        {
            "id": 12280,
            "original_name": "TV Colosso",
            "popularity": 0.6
        },
        {
            "id": 13181,
            "original_name": "Cold Feet",
            "popularity": 0.6
        },
        {
            "id": 13183,
            "original_name": "College World Series on CBS",
            "popularity": 0.6
        },
        {
            "id": 13447,
            "original_name": "Color of War",
            "popularity": 0.6
        },
        {
            "id": 13457,
            "original_name": "Colonel Bleep",
            "popularity": 0.6
        },
        {
            "id": 13584,
            "original_name": "ColorSounds",
            "popularity": 0.6
        },
        {
            "id": 13668,
            "original_name": "Antakshari Intercollegiate Championship",
            "popularity": 0.6
        },
        {
            "id": 14174,
            "original_name": "The Collector",
            "popularity": 0.6
        },
        {
            "id": 14292,
            "original_name": "The Collaborators",
            "popularity": 0.6
        },
        {
            "id": 14341,
            "original_name": "College Football Now",
            "popularity": 0.6
        },
        {
            "id": 14682,
            "original_name": "L'Agence Labricole",
            "popularity": 0.6
        },
        {
            "id": 16486,
            "original_name": "Color Me a Rainbow",
            "popularity": 0.6
        },
        {
            "id": 16633,
            "original_name": "Collectors Lot",
            "popularity": 0.6
        },
        {
            "id": 16687,
            "original_name": "Color Splash",
            "popularity": 0.6
        },
        {
            "id": 16711,
            "original_name": "With Nicola McLean",
            "popularity": 0.6
        },
        {
            "id": 17833,
            "original_name": "Cold Turkey II",
            "popularity": 0.6
        },
        {
            "id": 17917,
            "original_name": "Colour Me Pop",
            "popularity": 0.6
        },
        {
            "id": 18388,
            "original_name": "Hard Drinkin' Lincoln",
            "popularity": 0.6
        },
        {
            "id": 18551,
            "original_name": "AAA When Worlds Collide",
            "popularity": 0.6
        },
        {
            "id": 18729,
            "original_name": "College News Conference",
            "popularity": 0.6
        },
        {
            "id": 18730,
            "original_name": "Lincoln Presents:  Leonard Bernstein and the New York Philharmonic",
            "popularity": 0.6
        },
        {
            "id": 18753,
            "original_name": "Surviving Columbus",
            "popularity": 0.6
        },
        {
            "id": 18927,
            "original_name": "The Second World War in Colour",
            "popularity": 0.6
        },
        {
            "id": 18970,
            "original_name": "The American Short Story Collection",
            "popularity": 0.6
        },
        {
            "id": 18996,
            "original_name": "Primary Colors, An Artist on the Campaign Trail",
            "popularity": 0.6
        },
        {
            "id": 19155,
            "original_name": "College Hill South Beach",
            "popularity": 0.6
        },
        {
            "id": 19161,
            "original_name": "Jeffery & Cole Casserole",
            "popularity": 0.6
        },
        {
            "id": 19206,
            "original_name": "Ultimate Collectors",
            "popularity": 0.6
        },
        {
            "id": 19269,
            "original_name": "Hot Cars, Cold Cash",
            "popularity": 0.6
        },
        {
            "id": 19281,
            "original_name": "Cold Blood Warm Heart",
            "popularity": 0.6
        },
        {
            "id": 19294,
            "original_name": "The Alan Colmes Show",
            "popularity": 0.6
        },
        {
            "id": 20093,
            "original_name": "7-Color Mask",
            "popularity": 0.6
        },
        {
            "id": 20160,
            "original_name": "Color Me Barbra",
            "popularity": 0.6
        },
        {
            "id": 21783,
            "original_name": "Teatro Popular Caracol",
            "popularity": 0.6
        },
        {
            "id": 22243,
            "original_name": "Coleen's Christmas At Alder Hey",
            "popularity": 0.6
        },
        {
            "id": 22467,
            "original_name": "Cold Turkey",
            "popularity": 0.6
        },
        {
            "id": 22534,
            "original_name": "Get Color!",
            "popularity": 0.6
        },
        {
            "id": 22804,
            "original_name": "Colombo Quotes",
            "popularity": 0.6
        },
        {
            "id": 22829,
            "original_name": "Coca Cola RTR",
            "popularity": 0.6
        },
        {
            "id": 22919,
            "original_name": "Lucky Colour Blue",
            "popularity": 0.6
        },
        {
            "id": 23476,
            "original_name": "Going Cold Turkey",
            "popularity": 0.6
        },
        {
            "id": 23562,
            "original_name": "The Crowther Collection",
            "popularity": 0.6
        },
        {
            "id": 23689,
            "original_name": "The Col Joye Show",
            "popularity": 0.6
        },
        {
            "id": 23786,
            "original_name": "The Col'n Carpenter Show",
            "popularity": 0.6
        },
        {
            "id": 23886,
            "original_name": "Coles $6,000 Question",
            "popularity": 0.6
        },
        {
            "id": 23963,
            "original_name": "Colour In The Creek",
            "popularity": 0.6
        },
        {
            "id": 24482,
            "original_name": "Canada's War in Colour",
            "popularity": 0.6
        },
        {
            "id": 24624,
            "original_name": "Colin and Justin's Wedding Belles",
            "popularity": 0.6
        },
        {
            "id": 24892,
            "original_name": "Sadie, It's Cold Outside",
            "popularity": 0.6
        },
        {
            "id": 25294,
            "original_name": "The Colony",
            "popularity": 0.6
        },
        {
            "id": 25374,
            "original_name": "The Thirties In Colour",
            "popularity": 0.6
        },
        {
            "id": 25490,
            "original_name": "College Life",
            "popularity": 0.6
        },
        {
            "id": 25754,
            "original_name": "The Twenties In Colour",
            "popularity": 0.6
        },
        {
            "id": 26080,
            "original_name": "Colonel Trumper's Private War",
            "popularity": 0.6
        },
        {
            "id": 26159,
            "original_name": "The College Bowl",
            "popularity": 0.6
        },
        {
            "id": 26181,
            "original_name": "Oh In Colour",
            "popularity": 0.6
        },
        {
            "id": 26911,
            "original_name": "College Tour",
            "popularity": 0.6
        },
        {
            "id": 27004,
            "original_name": "Colin & Justin's Home Heist",
            "popularity": 0.6
        },
        {
            "id": 27079,
            "original_name": "Color Correction",
            "popularity": 0.6
        },
        {
            "id": 27191,
            "original_name": "Het Ei van Columbus",
            "popularity": 0.6
        },
        {
            "id": 27965,
            "original_name": "Robbie Coltrane: B Road Britain",
            "popularity": 0.6
        },
        {
            "id": 27994,
            "original_name": "Cosmic Collisions",
            "popularity": 0.6
        },
        {
            "id": 28834,
            "original_name": "One Night In Lincoln",
            "popularity": 0.6
        },
        {
            "id": 29237,
            "original_name": "Howard The Mild Colonial Boy",
            "popularity": 0.6
        },
        {
            "id": 29364,
            "original_name": "Collectible Treasures",
            "popularity": 0.6
        },
        {
            "id": 29466,
            "original_name": "Collector Inspector",
            "popularity": 0.6
        },
        {
            "id": 29490,
            "original_name": "Una voce particolare",
            "popularity": 0.6
        },
        {
            "id": 29689,
            "original_name": "The #1 College Sports Show",
            "popularity": 0.6
        },
        {
            "id": 29776,
            "original_name": "Ecoluxe",
            "popularity": 0.6
        },
        {
            "id": 30374,
            "original_name": "Jackie Collins Presents",
            "popularity": 0.6
        },
        {
            "id": 30594,
            "original_name": "Jerry Coleman",
            "popularity": 0.6
        },
        {
            "id": 31540,
            "original_name": "Cheryl Cole's Night In",
            "popularity": 0.6
        },
        {
            "id": 32000,
            "original_name": "Collar De Esmeraldas",
            "popularity": 0.6
        },
        {
            "id": 32069,
            "original_name": "Little Chocolatiers",
            "popularity": 0.6
        },
        {
            "id": 32486,
            "original_name": "Color of Love",
            "popularity": 0.6
        },
        {
            "id": 34146,
            "original_name": "Coleen's Real Women",
            "popularity": 0.6
        },
        {
            "id": 34264,
            "original_name": "Colombo Quotes",
            "popularity": 0.6
        },
        {
            "id": 34525,
            "original_name": "The Cool Stuff Collective",
            "popularity": 0.6
        },
        {
            "id": 34672,
            "original_name": "Pink Collar",
            "popularity": 0.6
        },
        {
            "id": 35122,
            "original_name": "G\u00fclcan und Collien ziehen aufs Land",
            "popularity": 0.6
        },
        {
            "id": 36958,
            "original_name": "Colossal construction",
            "popularity": 0.6
        },
        {
            "id": 37434,
            "original_name": "History Cold Case",
            "popularity": 0.6
        },
        {
            "id": 38001,
            "original_name": "Cold Diggers",
            "popularity": 0.6
        },
        {
            "id": 38555,
            "original_name": "Blue-Collar Dogs",
            "popularity": 0.6
        },
        {
            "id": 39473,
            "original_name": "Edici\u00f3n especial coleccionista",
            "popularity": 0.6
        },
        {
            "id": 41127,
            "original_name": "L'\u00c9cole des stars",
            "popularity": 0.6
        },
        {
            "id": 42848,
            "original_name": "A.B. Normal College",
            "popularity": 0.6
        },
        {
            "id": 42851,
            "original_name": "White Collar Brawler",
            "popularity": 0.6
        },
        {
            "id": 42934,
            "original_name": "Columbus and the Age of Discovery",
            "popularity": 0.6
        },
        {
            "id": 43784,
            "original_name": "Lion Books Collection",
            "popularity": 0.6
        },
        {
            "id": 44421,
            "original_name": "Martin & Lewis: Colgate Comedy Classics",
            "popularity": 0.6
        },
        {
            "id": 45682,
            "original_name": "Eagle Scout: The Story of Henry Nicols",
            "popularity": 0.6
        },
        {
            "id": 46456,
            "original_name": "Descolados",
            "popularity": 0.6
        },
        {
            "id": 46610,
            "original_name": "The Living Bible Collection",
            "popularity": 0.6
        },
        {
            "id": 46721,
            "original_name": "Global National-Global National - Elliot Lake Mall Collapse",
            "popularity": 0.6
        },
        {
            "id": 46722,
            "original_name": "Colorado Shooting",
            "popularity": 0.6
        },
        {
            "id": 47142,
            "original_name": "Colin Quinn: Long Story Short",
            "popularity": 0.6
        },
        {
            "id": 47529,
            "original_name": "The Unforgettable Nat 'King' Cole",
            "popularity": 0.6
        },
        {
            "id": 47552,
            "original_name": "Britain At War In Colour",
            "popularity": 0.6
        },
        {
            "id": 47586,
            "original_name": "Malcolm and Barbara: A Love Story",
            "popularity": 0.6
        },
        {
            "id": 48118,
            "original_name": "Cracking the Colour Code",
            "popularity": 0.6
        },
        {
            "id": 48151,
            "original_name": "Detective Columbus",
            "popularity": 0.6
        },
        {
            "id": 48816,
            "original_name": "Nicole Kidman: An American Cinematheque Tribute",
            "popularity": 0.6
        },
        {
            "id": 48868,
            "original_name": "Colours of Love",
            "popularity": 0.6
        },
        {
            "id": 49081,
            "original_name": "Non-stop Color",
            "popularity": 0.6
        },
        {
            "id": 49131,
            "original_name": "Marva Collins: Excellence in Education",
            "popularity": 0.6
        },
        {
            "id": 49531,
            "original_name": "CollegeHumor Originals",
            "popularity": 0.6
        },
        {
            "id": 49705,
            "original_name": "The Sentry Collection Presents Ben Vereen: His Roots",
            "popularity": 0.6
        },
        {
            "id": 50232,
            "original_name": "Catch Me a Colobus",
            "popularity": 0.6
        },
        {
            "id": 50860,
            "original_name": "The Last of Mrs. Lincoln",
            "popularity": 0.6
        },
        {
            "id": 51010,
            "original_name": "Carmen og Colombo",
            "popularity": 0.6
        },
        {
            "id": 51531,
            "original_name": "A History of Art in Three Colours",
            "popularity": 0.6
        },
        {
            "id": 51939,
            "original_name": "The Mind of a Leader I Based on Niccol\u00f2 Machiavelli's 'The Prince'",
            "popularity": 0.6
        },
        {
            "id": 52030,
            "original_name": "Croc College",
            "popularity": 0.6
        },
        {
            "id": 52451,
            "original_name": "MadWalk by Coca-Cola Light: The Fashion Music Project",
            "popularity": 0.6
        },
        {
            "id": 52512,
            "original_name": "Hooked Up with Tom Colicchio",
            "popularity": 0.6
        },
        {
            "id": 53143,
            "original_name": "The Krzysztof Kieslowski Collection",
            "popularity": 0.6
        },
        {
            "id": 53837,
            "original_name": "Fred Dibnah's Building Collection",
            "popularity": 0.6
        },
        {
            "id": 54878,
            "original_name": "Julie and Carol at Lincoln Center",
            "popularity": 0.6
        },
        {
            "id": 54914,
            "original_name": "They've Killed President Lincoln!",
            "popularity": 0.6
        },
        {
            "id": 54980,
            "original_name": "Ewan McGregor: Cold Chain Mission",
            "popularity": 0.6
        },
        {
            "id": 55189,
            "original_name": "British Transport Films Collection",
            "popularity": 0.6
        },
        {
            "id": 55390,
            "original_name": "laSexta Columna",
            "popularity": 0.6
        },
        {
            "id": 55626,
            "original_name": "Coca Cola Christmas In The Park",
            "popularity": 0.6
        },
        {
            "id": 55650,
            "original_name": "Crash Course Ecology",
            "popularity": 0.6
        },
        {
            "id": 56020,
            "original_name": "Japanese Anime Classic Collection",
            "popularity": 0.6
        },
        {
            "id": 56047,
            "original_name": "Lincoln His life a legacy",
            "popularity": 0.6
        },
        {
            "id": 56068,
            "original_name": "Abraham Lincoln: His Life and Legacy",
            "popularity": 0.6
        },
        {
            "id": 56135,
            "original_name": "Lincoln Center/Stage 5",
            "popularity": 0.6
        },
        {
            "id": 56362,
            "original_name": "The Color of Friendship",
            "popularity": 0.6
        },
        {
            "id": 56502,
            "original_name": "The Color Of Love: Jacey's Story",
            "popularity": 0.6
        },
        {
            "id": 56689,
            "original_name": "Felix De Cola Show",
            "popularity": 0.6
        },
        {
            "id": 56822,
            "original_name": "MAX Masters: Coldplay",
            "popularity": 0.6
        },
        {
            "id": 57017,
            "original_name": "Countdown to Collision",
            "popularity": 0.6
        },
        {
            "id": 57061,
            "original_name": "Bought with Love: The Secret History of British Art Collections",
            "popularity": 0.6
        },
        {
            "id": 57085,
            "original_name": "White Collar Poet",
            "popularity": 0.6
        },
        {
            "id": 57157,
            "original_name": "Cracking Crime - The Cold Cases",
            "popularity": 0.6
        },
        {
            "id": 57505,
            "original_name": "WWII: The Lost Color Archives",
            "popularity": 0.6
        },
        {
            "id": 57515,
            "original_name": "The woman is colored",
            "popularity": 0.6
        },
        {
            "id": 57547,
            "original_name": "Colin & Graham's Excellent Adventures",
            "popularity": 0.6
        },
        {
            "id": 57600,
            "original_name": "La segunda guerra mundial en color",
            "popularity": 0.6
        },
        {
            "id": 57804,
            "original_name": "Chemi Colis Daqalebi",
            "popularity": 0.6
        },
        {
            "id": 57838,
            "original_name": "Meltdown: The Secret History of the Global Collapse",
            "popularity": 0.6
        },
        {
            "id": 58281,
            "original_name": "Oh In Colour",
            "popularity": 0.6
        },
        {
            "id": 58288,
            "original_name": "Hitler's Rise: The Colour Films",
            "popularity": 0.6
        },
        {
            "id": 58353,
            "original_name": "The Jim Coleman Show",
            "popularity": 0.6
        },
        {
            "id": 59210,
            "original_name": "The College Game",
            "popularity": 0.6
        },
        {
            "id": 59234,
            "original_name": "Escola pra Cachorro",
            "popularity": 0.6
        },
        {
            "id": 59989,
            "original_name": "Huajai Chocolate",
            "popularity": 0.6
        },
        {
            "id": 60107,
            "original_name": "The Upchat Collection",
            "popularity": 0.6
        },
        {
            "id": 60124,
            "original_name": "Colts: The Complete History",
            "popularity": 0.6
        },
        {
            "id": 60315,
            "original_name": "Worlds Collide: The Saga of Herschel Island",
            "popularity": 0.6
        },
        {
            "id": 60323,
            "original_name": "Mississippi Cold Case",
            "popularity": 0.6
        },
        {
            "id": 61962,
            "original_name": "Lily Cole's Art Matters",
            "popularity": 0.6
        },
        {
            "id": 62253,
            "original_name": "Keyshia Cole: All In",
            "popularity": 0.6
        },
        {
            "id": 62441,
            "original_name": "Vacanta Mare: Spectacole",
            "popularity": 0.6
        },
        {
            "id": 62673,
            "original_name": "White Collar Convicts: Life on the Inside",
            "popularity": 0.6
        },
        {
            "id": 65092,
            "original_name": "Collectaholics",
            "popularity": 0.6
        },
        {
            "id": 66010,
            "original_name": "Nicole & Jionni's Shore Flip",
            "popularity": 0.6
        },
        {
            "id": 66412,
            "original_name": "Blue Collar Millionaires",
            "popularity": 0.6
        },
        {
            "id": 66470,
            "original_name": "Colorado",
            "popularity": 0.6
        },
        {
            "id": 67585,
            "original_name": "Blue Collar Backers",
            "popularity": 0.6
        },
        {
            "id": 69445,
            "original_name": "Made in Italy with Silvia Colloca",
            "popularity": 0.6
        },
        {
            "id": 69580,
            "original_name": "Colombia's Next Top Model",
            "popularity": 0.6
        },
        {
            "id": 70369,
            "original_name": "Escolinha do Professor Raimundo",
            "popularity": 0.6
        },
        {
            "id": 70803,
            "original_name": "Collision Course",
            "popularity": 0.6
        },
        {
            "id": 71341,
            "original_name": "Cold Water Cowboys",
            "popularity": 0.6
        },
        {
            "id": 74406,
            "original_name": "Economia en colors",
            "popularity": 0.6
        },
        {
            "id": 74590,
            "original_name": "Nova: Cold case JFK",
            "popularity": 0.6
        },
        {
            "id": 74735,
            "original_name": "Enrico Brignano: Sono romano ma non \u00e8 colpa mia",
            "popularity": 0.6
        },
        {
            "id": 75369,
            "original_name": "Savitri Devi College & Hospital",
            "popularity": 0.6
        },
        {
            "id": 75507,
            "original_name": "Les Colliers de l'Espoir",
            "popularity": 0.6
        },
        {
            "id": 76056,
            "original_name": "Kinderen van de collaboratie",
            "popularity": 0.6
        },
        {
            "id": 76071,
            "original_name": "De Chocolade Show",
            "popularity": 0.6
        },
        {
            "id": 76952,
            "original_name": "Il falco e la colomba",
            "popularity": 0.6
        },
        {
            "id": 77102,
            "original_name": "Colour Blind",
            "popularity": 0.6
        },
        {
            "id": 77712,
            "original_name": "The color of war",
            "popularity": 0.6
        },
        {
            "id": 78415,
            "original_name": "The Cities: Skylines Collection",
            "popularity": 0.6
        },
        {
            "id": 78527,
            "original_name": "Blood and Glory: The Civil War in Color",
            "popularity": 0.6
        },
        {
            "id": 78575,
            "original_name": "L\u00e9gionnaires \u00e0 l\u2019\u00e9cole du courage",
            "popularity": 0.6
        },
        {
            "id": 78720,
            "original_name": "La revolucion Rusa en color",
            "popularity": 0.6
        },
        {
            "id": 79294,
            "original_name": "Tytgat Chocolat",
            "popularity": 0.6
        },
        {
            "id": 80582,
            "original_name": "Il pi\u00f9 grande spettacolo dopo il weekend",
            "popularity": 0.6
        },
        {
            "id": 80995,
            "original_name": "El loco de la colina",
            "popularity": 0.6
        },
        {
            "id": 81226,
            "original_name": "Pink Collar Crimes",
            "popularity": 0.6
        },
        {
            "id": 83160,
            "original_name": "Tutta colpa di Galileo",
            "popularity": 0.6
        },
        {
            "id": 83299,
            "original_name": "Tutta colpa di Darwin",
            "popularity": 0.6
        },
        {
            "id": 83766,
            "original_name": "The Disappearance of Phoenix Coldon",
            "popularity": 0.6
        },
        {
            "id": 83945,
            "original_name": "Blood Runs Cold",
            "popularity": 0.6
        },
        {
            "id": 84143,
            "original_name": "Strange Days: Cold War Britain",
            "popularity": 0.6
        },
        {
            "id": 84283,
            "original_name": "MAO IN COLOUR: A STUDY IN TYRANNY",
            "popularity": 0.6
        },
        {
            "id": 85334,
            "original_name": "Nuclear Sharks - Cold War Submarine Adventures",
            "popularity": 0.6
        },
        {
            "id": 87169,
            "original_name": "Colgados",
            "popularity": 0.6
        },
        {
            "id": 87383,
            "original_name": "Colosseum: The Whole Story",
            "popularity": 0.6
        },
        {
            "id": 88434,
            "original_name": "Rai Pipol - Lo spettacolo siete noi",
            "popularity": 0.6
        },
        {
            "id": 88656,
            "original_name": "Col bleu",
            "popularity": 0.6
        },
        {
            "id": 89228,
            "original_name": "Women of Rock Oral History Project at the Sophia Smith Collection, Smith College",
            "popularity": 0.6
        },
        {
            "id": 90036,
            "original_name": "La guerra civil en color: La Mirada De Los Historiadores",
            "popularity": 0.6
        },
        {
            "id": 92483,
            "original_name": "Les colocataires",
            "popularity": 0.6
        },
        {
            "id": 93962,
            "original_name": "24/7 College Football",
            "popularity": 0.6
        },
        {
            "id": 94213,
            "original_name": "Big Brother Columbus",
            "popularity": 0.6
        },
        {
            "id": 94339,
            "original_name": "L'ecole des orangs-outans",
            "popularity": 0.6
        },
        {
            "id": 94420,
            "original_name": "Beau of the Fifth Column",
            "popularity": 0.6
        },
        {
            "id": 96439,
            "original_name": "Britain In Color",
            "popularity": 0.6
        },
        {
            "id": 96485,
            "original_name": "1491: The Untold Story of the Americas Before Columbus",
            "popularity": 0.6
        },
        {
            "id": 96524,
            "original_name": "Sister Wendy's American Collection",
            "popularity": 0.6
        },
        {
            "id": 96758,
            "original_name": "Chocolate Covered",
            "popularity": 0.6
        },
        {
            "id": 97142,
            "original_name": "Arnhem 1944 A Bridge Too Far Collection",
            "popularity": 0.6
        },
        {
            "id": 97167,
            "original_name": "Broken Arrows: The Lost Bombs of the Cold War",
            "popularity": 0.6
        },
        {
            "id": 97181,
            "original_name": "Doug Jones Travelogue Collection",
            "popularity": 0.6
        },
        {
            "id": 97229,
            "original_name": "Modern Warfare: Wars in the Middle East Collection",
            "popularity": 0.6
        },
        {
            "id": 97460,
            "original_name": "The Vietnam War Collection",
            "popularity": 0.6
        },
        {
            "id": 98379,
            "original_name": "L'\u00e9cole des b\u00e9b\u00e9s animaux",
            "popularity": 0.6
        },
        {
            "id": 98847,
            "original_name": "Colombo - Episodi Speciali",
            "popularity": 0.6
        },
        {
            "id": 100819,
            "original_name": "Escolinha do Professor Raimundo",
            "popularity": 0.6
        },
        {
            "id": 100950,
            "original_name": "Stand up colombia",
            "popularity": 0.6
        },
        {
            "id": 101016,
            "original_name": "Coluche 1 faux",
            "popularity": 0.6
        },
        {
            "id": 101207,
            "original_name": "L'\u00c9cole des passions",
            "popularity": 0.6
        },
        {
            "id": 101676,
            "original_name": "Les Colonnes du ciel",
            "popularity": 0.6
        },
        {
            "id": 101799,
            "original_name": "Agujetas de color de rosa",
            "popularity": 0.6
        },
        {
            "id": 101876,
            "original_name": "Stalemate: The Cold War",
            "popularity": 0.6
        },
        {
            "id": 102330,
            "original_name": "Indien Collection",
            "popularity": 0.6
        },
        {
            "id": 102802,
            "original_name": "Cold War, Hot Jets",
            "popularity": 0.6
        },
        {
            "id": 103171,
            "original_name": "Lincoln",
            "popularity": 0.6
        },
        {
            "id": 103331,
            "original_name": "Highlight Collection",
            "popularity": 0.6
        },
        {
            "id": 103444,
            "original_name": "Fred Dibnah's Railway Collection",
            "popularity": 0.6
        },
        {
            "id": 104093,
            "original_name": "Nazi Collaborators",
            "popularity": 0.6
        },
        {
            "id": 105230,
            "original_name": "La Sexta columna",
            "popularity": 0.6
        },
        {
            "id": 105639,
            "original_name": "Escola de G\u00eanios",
            "popularity": 0.6
        },
        {
            "id": 105842,
            "original_name": "Great Escapes with Colin and Justin",
            "popularity": 0.6
        },
        {
            "id": 106358,
            "original_name": "Korea: The Forgotten War in Colour",
            "popularity": 0.6
        },
        {
            "id": 106827,
            "original_name": "Collective Intelligence",
            "popularity": 0.6
        },
        {
            "id": 107131,
            "original_name": "Colombia Rie",
            "popularity": 0.6
        },
        {
            "id": 107150,
            "original_name": "El alma no tiene color",
            "popularity": 0.6
        },
        {
            "id": 107483,
            "original_name": "The Coronation Street Character Collection",
            "popularity": 0.6
        },
        {
            "id": 108554,
            "original_name": "D\u00e9coloniser l\u2019histoire",
            "popularity": 0.6
        },
        {
            "id": 108686,
            "original_name": "1111 - La m\u00e9lancolite",
            "popularity": 0.6
        },
        {
            "id": 108823,
            "original_name": "Auschwitz Untold in Color",
            "popularity": 0.6
        },
        {
            "id": 108887,
            "original_name": "Collector's Quest",
            "popularity": 0.6
        },
        {
            "id": 111856,
            "original_name": "Australia in Colour",
            "popularity": 0.6
        },
        {
            "id": 112312,
            "original_name": "Journey of an African Colony",
            "popularity": 0.6
        },
        {
            "id": 113302,
            "original_name": "Os Chocolix",
            "popularity": 0.6
        },
        {
            "id": 113535,
            "original_name": "25 ans de l'\u00c9cole nationale de l'humour",
            "popularity": 0.6
        },
        {
            "id": 113643,
            "original_name": "Daft Punk | Random Access Memories | The Collaborators",
            "popularity": 0.6
        },
        {
            "id": 113648,
            "original_name": "Into the Wild: Colombia",
            "popularity": 0.6
        },
        {
            "id": 113677,
            "original_name": "The History Channel Ultimate Collections: World War II",
            "popularity": 0.6
        },
        {
            "id": 113703,
            "original_name": "Misdaad college",
            "popularity": 0.6
        },
        {
            "id": 114089,
            "original_name": "Colgate Theatre",
            "popularity": 0.6
        },
        {
            "id": 115380,
            "original_name": "Inside Hotel Chocolat",
            "popularity": 0.6
        },
        {
            "id": 117838,
            "original_name": "Nicolette \u2013 Unzensiert und ungeniert!",
            "popularity": 0.6
        },
        {
            "id": 118543,
            "original_name": "Bottomless Brunch at Colman's",
            "popularity": 0.6
        },
        {
            "id": 119216,
            "original_name": "90 Day Lovers' Collection",
            "popularity": 0.6
        },
        {
            "id": 119599,
            "original_name": "Building The Dream Colorado",
            "popularity": 0.6
        },
        {
            "id": 120681,
            "original_name": "Art, Passion & Power: The Story of the Royal Collection",
            "popularity": 0.6
        },
        {
            "id": 121418,
            "original_name": "La petite \u00e9cole d'H\u00e9l\u00e8ne",
            "popularity": 0.6
        },
        {
            "id": 122503,
            "original_name": "The Spy Who Came in from the Cold",
            "popularity": 0.6
        },
        {
            "id": 122705,
            "original_name": "Indagine critica sulla parapsicologia",
            "popularity": 0.6
        },
        {
            "id": 123089,
            "original_name": "The British Empire in Color",
            "popularity": 0.6
        },
        {
            "id": 125354,
            "original_name": "No fue mi culpa Colombia",
            "popularity": 0.6
        },
        {
            "id": 126081,
            "original_name": "Tripula\u00e7\u00e3o de Cor - Colorida Desenhos Animados",
            "popularity": 0.6
        },
        {
            "id": 126086,
            "original_name": "Cold Feet: The New Years",
            "popularity": 0.6
        },
        {
            "id": 126267,
            "original_name": "Biography: \"Stone Cold\" Steve Austin",
            "popularity": 0.6
        },
        {
            "id": 126302,
            "original_name": "Socios y colegas: documentos de la vida laboral",
            "popularity": 0.6
        },
        {
            "id": 128895,
            "original_name": "Auto/Biography: Cold Cases",
            "popularity": 0.6
        },
        {
            "id": 129813,
            "original_name": "Chibi Maruko-chan: Classic Collection",
            "popularity": 0.6
        },
        {
            "id": 131823,
            "original_name": "Edwardian Britain in Colour",
            "popularity": 0.6
        },
        {
            "id": 132299,
            "original_name": "Butterfly Collectors",
            "popularity": 0.6
        },
        {
            "id": 132345,
            "original_name": "The Colors Of Our Time",
            "popularity": 0.6
        },
        {
            "id": 132529,
            "original_name": "Cold Haven",
            "popularity": 0.6
        },
        {
            "id": 133027,
            "original_name": "United Colors of Jean-Luc",
            "popularity": 0.6
        },
        {
            "id": 133142,
            "original_name": "Heart of the World: Colorado's National Parks",
            "popularity": 0.6
        },
        {
            "id": 133532,
            "original_name": "The Herd with Colin Cowherd",
            "popularity": 0.6
        },
        {
            "id": 134327,
            "original_name": "Piccoli cani guida crescono",
            "popularity": 0.6
        },
        {
            "id": 134862,
            "original_name": "Lincoln",
            "popularity": 0.6
        },
        {
            "id": 136027,
            "original_name": "2015 College Football Playoff National Championship",
            "popularity": 0.6
        },
        {
            "id": 136127,
            "original_name": "Cold Nights",
            "popularity": 0.6
        },
        {
            "id": 137629,
            "original_name": "Colleen Stan, la fille dans la bo\u00eete",
            "popularity": 0.6
        },
        {
            "id": 138327,
            "original_name": "Kinshasa Collection",
            "popularity": 0.6
        },
        {
            "id": 139252,
            "original_name": "IZ*ONE \u2032COLOR*IZ\u2032 \uc1fc-\ucf58",
            "popularity": 0.6
        },
        {
            "id": 139389,
            "original_name": "My Ireland with Colin",
            "popularity": 0.6
        },
        {
            "id": 139468,
            "original_name": "Fascism In Colour",
            "popularity": 0.6
        },
        {
            "id": 139805,
            "original_name": "The Twilight Zone Collection of Various Twilight Zone episodes",
            "popularity": 0.6
        },
        {
            "id": 152373,
            "original_name": "Masterchef Celebrity Colombia 2018",
            "popularity": 0.6
        }
    ],
    "relations": [
        {
            "character": "colm"
        },
        {
            "character": "coll"
        },
        {
            "character": "cola"
        },
        {
            "character": "colo"
        },
        {
            "character": "cold"
        },
        {
            "character": "colu"
        },
        {
            "character": "coln"
        },
        {
            "character": "colg"
        },
        {
            "character": "coli"
        },
        {
            "character": "cole"
        },
        {
            "character": "colb"
        },
        {
            "character": "colt"
        },
        {
            "character": "cols"
        },
        {
            "character": "colp"
        },
        {
            "character": "colh"
        },
        {
            "character": "coly"
        }
    ],
    "top20": [
        {
            "id": 135385,
            "original_name": "Mil Colmillos",
            "popularity": 219.404
        },
        {
            "id": 2004,
            "original_name": "Malcolm in the Middle",
            "popularity": 208.625
        },
        {
            "id": 118169,
            "original_name": "Colin in Black & White",
            "popularity": 199.398
        },
        {
            "id": 134373,
            "original_name": "The Sex Lives of College Girls",
            "popularity": 79.043
        },
        {
            "id": 21510,
            "original_name": "White Collar",
            "popularity": 67.651
        },
        {
            "id": 873,
            "original_name": "Columbo",
            "popularity": 54.221
        },
        {
            "id": 63770,
            "original_name": "The Late Show with Stephen Colbert",
            "popularity": 49.552
        },
        {
            "id": 62858,
            "original_name": "Colony",
            "popularity": 34.943
        },
        {
            "id": 2171,
            "original_name": "Cold Case",
            "popularity": 34.252
        },
        {
            "id": 13023,
            "original_name": "El Chapul\u00edn Colorado",
            "popularity": 29.612
        },
        {
            "id": 4385,
            "original_name": "The Colbert Report",
            "popularity": 28.816
        },
        {
            "id": 87820,
            "original_name": "Historia de un crimen: Colosio",
            "popularity": 15.069
        },
        {
            "id": 5885,
            "original_name": "The Colour of Magic",
            "popularity": 14.598
        },
        {
            "id": 95272,
            "original_name": "Lincoln Rhyme: Hunt for the Bone Collector",
            "popularity": 14.099
        },
        {
            "id": 139401,
            "original_name": "Coming Out Colton",
            "popularity": 13.597
        },
        {
            "id": 60632,
            "original_name": "El color de la pasi\u00f3n",
            "popularity": 13.274
        },
        {
            "id": 76796,
            "original_name": "Collateral",
            "popularity": 12.79
        },
        {
            "id": 4415,
            "original_name": "In Living Color",
            "popularity": 12.226
        },
        {
            "id": 1048,
            "original_name": "The Colgate Comedy Hour",
            "popularity": 12.039
        },
        {
            "id": 42154,
            "original_name": "World War II in Colour",
            "popularity": 11.4
        }
    ]
}