{
    "data": [
        {
            "id": 3054,
            "original_name": "Multi-Coloured Swap Shop",
            "popularity": 0.6
        }
    ],
    "relations": [],
    "top20": [
        {
            "id": 3054,
            "original_name": "Multi-Coloured Swap Shop",
            "popularity": 0.6
        }
    ]
}