{
    "data": [
        {
            "id": 2766,
            "original_name": "Inconceivable",
            "popularity": 1.649
        },
        {
            "id": 67382,
            "original_name": "Inconceivable",
            "popularity": 1.173
        }
    ],
    "relations": [],
    "top20": [
        {
            "id": 2766,
            "original_name": "Inconceivable",
            "popularity": 1.649
        },
        {
            "id": 67382,
            "original_name": "Inconceivable",
            "popularity": 1.173
        }
    ]
}