{
    "data": [
        {
            "id": 48773,
            "original_name": "The Concerto",
            "popularity": 0.843
        }
    ],
    "relations": [],
    "top20": [
        {
            "id": 48773,
            "original_name": "The Concerto",
            "popularity": 0.843
        }
    ]
}