{
    "data": [
        {
            "id": 10825,
            "original_name": "Contraption",
            "popularity": 0.6
        },
        {
            "id": 80616,
            "original_name": "Wallace & Gromit's Cracking Contraptions",
            "popularity": 3.702
        }
    ],
    "relations": [],
    "top20": [
        {
            "id": 10825,
            "original_name": "Contraption",
            "popularity": 0.6
        },
        {
            "id": 80616,
            "original_name": "Wallace & Gromit's Cracking Contraptions",
            "popularity": 3.702
        }
    ]
}