{
    "data": [
        {
            "id": 6173,
            "original_name": "My Coolest Years",
            "popularity": 2.104
        },
        {
            "id": 36306,
            "original_name": "Cooler Kings",
            "popularity": 0.6
        },
        {
            "id": 49133,
            "original_name": "Cooler",
            "popularity": 0.6
        },
        {
            "id": 56503,
            "original_name": "A Cooler Climate",
            "popularity": 0.6
        },
        {
            "id": 106428,
            "original_name": "The Coolest Places on Earth",
            "popularity": 0.6
        },
        {
            "id": 111874,
            "original_name": "Rudy Coby: The Coolest Magician on Earth",
            "popularity": 0.6
        }
    ],
    "relations": [],
    "top20": [
        {
            "id": 6173,
            "original_name": "My Coolest Years",
            "popularity": 2.104
        },
        {
            "id": 36306,
            "original_name": "Cooler Kings",
            "popularity": 0.6
        },
        {
            "id": 49133,
            "original_name": "Cooler",
            "popularity": 0.6
        },
        {
            "id": 56503,
            "original_name": "A Cooler Climate",
            "popularity": 0.6
        },
        {
            "id": 106428,
            "original_name": "The Coolest Places on Earth",
            "popularity": 0.6
        },
        {
            "id": 111874,
            "original_name": "Rudy Coby: The Coolest Magician on Earth",
            "popularity": 0.6
        }
    ]
}