{
    "data": [
        {
            "id": 96284,
            "original_name": "La Librairie francophone",
            "popularity": 0.6
        },
        {
            "id": 113257,
            "original_name": "Coup de coeur francophone",
            "popularity": 0.6
        },
        {
            "id": 121776,
            "original_name": "L'accent francophone",
            "popularity": 0.6
        }
    ],
    "relations": [],
    "top20": [
        {
            "id": 96284,
            "original_name": "La Librairie francophone",
            "popularity": 0.6
        },
        {
            "id": 113257,
            "original_name": "Coup de coeur francophone",
            "popularity": 0.6
        },
        {
            "id": 121776,
            "original_name": "L'accent francophone",
            "popularity": 0.6
        }
    ]
}