{
    "data": [
        {
            "id": 13772,
            "original_name": "Ricki & Copper",
            "popularity": 0.6
        },
        {
            "id": 17836,
            "original_name": "David Copperfield",
            "popularity": 6.817
        },
        {
            "id": 21809,
            "original_name": "David Copperfield",
            "popularity": 1.979
        },
        {
            "id": 23403,
            "original_name": "David Copperfield",
            "popularity": 1.128
        },
        {
            "id": 23593,
            "original_name": "David Copperfield",
            "popularity": 0.6
        },
        {
            "id": 26745,
            "original_name": "Coppers And Co!",
            "popularity": 0.6
        },
        {
            "id": 27036,
            "original_name": "Lift Off! With Coppers And Co!",
            "popularity": 0.6
        },
        {
            "id": 28381,
            "original_name": "He Kills Coppers",
            "popularity": 0.88
        },
        {
            "id": 28736,
            "original_name": "Coppers End",
            "popularity": 0.84
        },
        {
            "id": 33146,
            "original_name": "David Copperfield",
            "popularity": 1.288
        },
        {
            "id": 34547,
            "original_name": "Coppers",
            "popularity": 0.6
        },
        {
            "id": 44983,
            "original_name": "Copper",
            "popularity": 9.441
        },
        {
            "id": 47203,
            "original_name": "The Magic Of David Copperfield XVI: Unexplained Forces",
            "popularity": 0.6
        },
        {
            "id": 47258,
            "original_name": "David Copperfield: 15 Years of Magic",
            "popularity": 0.6
        },
        {
            "id": 47283,
            "original_name": "The Magic of David Copperfield XV: Fires of Passion",
            "popularity": 0.6
        },
        {
            "id": 47485,
            "original_name": "The Magic of David Copperfield XI: The Explosive Encounter",
            "popularity": 0.6
        },
        {
            "id": 47546,
            "original_name": "The Magic of David Copperfield XIII: Mystery on the Orient Express",
            "popularity": 0.6
        },
        {
            "id": 47812,
            "original_name": "The Magic of David Copperfield IX: Escape from Alcatraz",
            "popularity": 0.6
        },
        {
            "id": 48073,
            "original_name": "The Magic of David Copperfield VIII: Walking Through the Great Wall of China",
            "popularity": 0.6
        },
        {
            "id": 48171,
            "original_name": "The World of Coppard",
            "popularity": 0.6
        },
        {
            "id": 48574,
            "original_name": "The Magic of David Copperfield VI: Floating Over the Grand Canyon",
            "popularity": 0.6
        },
        {
            "id": 48823,
            "original_name": "The Magic of David Copperfield X: The Bermuda Triangle",
            "popularity": 0.6
        },
        {
            "id": 49111,
            "original_name": "The Magic of David Copperfield IV: The Vanishing Airplane",
            "popularity": 0.6
        },
        {
            "id": 49231,
            "original_name": "The Magic of David Copperfield III: Levitating Ferrari",
            "popularity": 0.6
        },
        {
            "id": 49491,
            "original_name": "The Magic of David Copperfield II",
            "popularity": 0.6
        },
        {
            "id": 56542,
            "original_name": "The Magic of David Copperfield",
            "popularity": 0.681
        },
        {
            "id": 63677,
            "original_name": "Top Coppers",
            "popularity": 1.157
        },
        {
            "id": 64141,
            "original_name": "Het Lichaam van Coppens",
            "popularity": 1.25
        },
        {
            "id": 65460,
            "original_name": "Coppers",
            "popularity": 1.564
        },
        {
            "id": 78529,
            "original_name": "David Copperfield",
            "popularity": 0.654
        },
        {
            "id": 92456,
            "original_name": "La strana coppia",
            "popularity": 0.638
        },
        {
            "id": 95995,
            "original_name": "Code van Coppens",
            "popularity": 7.996
        },
        {
            "id": 115916,
            "original_name": "Code van Coppens: de wraak van de Belgen",
            "popularity": 1.4
        },
        {
            "id": 116955,
            "original_name": "Camping Coppens",
            "popularity": 0.983
        },
        {
            "id": 123343,
            "original_name": "Bent Coppers: Crossing the Line of Duty",
            "popularity": 0.6
        },
        {
            "id": 128330,
            "original_name": "Coppola, el representante",
            "popularity": 0.6
        }
    ],
    "relations": [
        {
            "character": "coppe"
        },
        {
            "character": "coppa"
        },
        {
            "character": "coppi"
        },
        {
            "character": "coppo"
        }
    ],
    "top20": [
        {
            "id": 44983,
            "original_name": "Copper",
            "popularity": 9.441
        },
        {
            "id": 95995,
            "original_name": "Code van Coppens",
            "popularity": 7.996
        },
        {
            "id": 17836,
            "original_name": "David Copperfield",
            "popularity": 6.817
        },
        {
            "id": 21809,
            "original_name": "David Copperfield",
            "popularity": 1.979
        },
        {
            "id": 65460,
            "original_name": "Coppers",
            "popularity": 1.564
        },
        {
            "id": 115916,
            "original_name": "Code van Coppens: de wraak van de Belgen",
            "popularity": 1.4
        },
        {
            "id": 33146,
            "original_name": "David Copperfield",
            "popularity": 1.288
        },
        {
            "id": 64141,
            "original_name": "Het Lichaam van Coppens",
            "popularity": 1.25
        },
        {
            "id": 63677,
            "original_name": "Top Coppers",
            "popularity": 1.157
        },
        {
            "id": 23403,
            "original_name": "David Copperfield",
            "popularity": 1.128
        },
        {
            "id": 116955,
            "original_name": "Camping Coppens",
            "popularity": 0.983
        },
        {
            "id": 28381,
            "original_name": "He Kills Coppers",
            "popularity": 0.88
        },
        {
            "id": 28736,
            "original_name": "Coppers End",
            "popularity": 0.84
        },
        {
            "id": 56542,
            "original_name": "The Magic of David Copperfield",
            "popularity": 0.681
        },
        {
            "id": 78529,
            "original_name": "David Copperfield",
            "popularity": 0.654
        },
        {
            "id": 92456,
            "original_name": "La strana coppia",
            "popularity": 0.638
        },
        {
            "id": 13772,
            "original_name": "Ricki & Copper",
            "popularity": 0.6
        },
        {
            "id": 23593,
            "original_name": "David Copperfield",
            "popularity": 0.6
        },
        {
            "id": 27036,
            "original_name": "Lift Off! With Coppers And Co!",
            "popularity": 0.6
        },
        {
            "id": 26745,
            "original_name": "Coppers And Co!",
            "popularity": 0.6
        }
    ]
}