{
    "data": [
        {
            "id": 5612,
            "original_name": "Cosmetic Surgery Live",
            "popularity": 0.6
        }
    ],
    "relations": [],
    "top20": [
        {
            "id": 5612,
            "original_name": "Cosmetic Surgery Live",
            "popularity": 0.6
        }
    ]
}