{
    "data": [
        {
            "id": 9331,
            "original_name": "On the Record with Bob Costas",
            "popularity": 1.224
        },
        {
            "id": 20948,
            "original_name": "Costas Now",
            "popularity": 1.216
        },
        {
            "id": 25958,
            "original_name": "Costa!",
            "popularity": 4.936
        },
        {
            "id": 26258,
            "original_name": "Later with Bob Costas",
            "popularity": 3.939
        },
        {
            "id": 37535,
            "original_name": "Costa's Garden Odyssey",
            "popularity": 0.6
        },
        {
            "id": 38345,
            "original_name": "Dokters aan de costa",
            "popularity": 0.6
        },
        {
            "id": 42457,
            "original_name": "Ma\u00eetre Da Costa",
            "popularity": 0.621
        },
        {
            "id": 63280,
            "original_name": "Ramsay's Costa del Nightmares",
            "popularity": 2.732
        },
        {
            "id": 66425,
            "original_name": "Maurizio Costanzo Show",
            "popularity": 0.6
        },
        {
            "id": 76150,
            "original_name": "Costa Del Celebrity",
            "popularity": 0.6
        },
        {
            "id": 89171,
            "original_name": "Brigada Costa del Sol",
            "popularity": 3.713
        },
        {
            "id": 116149,
            "original_name": "Costa Belgica",
            "popularity": 0.6
        },
        {
            "id": 120033,
            "original_name": "Costa del Kongsvik",
            "popularity": 0.6
        },
        {
            "id": 120265,
            "original_name": "Narcostaat",
            "popularity": 1.433
        },
        {
            "id": 123384,
            "original_name": "Costa del Linse",
            "popularity": 0.6
        },
        {
            "id": 124207,
            "original_name": "Back on the Record with Bob Costas",
            "popularity": 5.979
        },
        {
            "id": 125906,
            "original_name": "Stacey Dooley: Costa del Narcos",
            "popularity": 6.237
        },
        {
            "id": 131209,
            "original_name": "Costa Del Crime",
            "popularity": 1.401
        }
    ],
    "relations": [],
    "top20": [
        {
            "id": 9331,
            "original_name": "On the Record with Bob Costas",
            "popularity": 1.224
        },
        {
            "id": 20948,
            "original_name": "Costas Now",
            "popularity": 1.216
        },
        {
            "id": 25958,
            "original_name": "Costa!",
            "popularity": 4.936
        },
        {
            "id": 26258,
            "original_name": "Later with Bob Costas",
            "popularity": 3.939
        },
        {
            "id": 37535,
            "original_name": "Costa's Garden Odyssey",
            "popularity": 0.6
        },
        {
            "id": 38345,
            "original_name": "Dokters aan de costa",
            "popularity": 0.6
        },
        {
            "id": 42457,
            "original_name": "Ma\u00eetre Da Costa",
            "popularity": 0.621
        },
        {
            "id": 63280,
            "original_name": "Ramsay's Costa del Nightmares",
            "popularity": 2.732
        },
        {
            "id": 66425,
            "original_name": "Maurizio Costanzo Show",
            "popularity": 0.6
        },
        {
            "id": 76150,
            "original_name": "Costa Del Celebrity",
            "popularity": 0.6
        },
        {
            "id": 89171,
            "original_name": "Brigada Costa del Sol",
            "popularity": 3.713
        },
        {
            "id": 116149,
            "original_name": "Costa Belgica",
            "popularity": 0.6
        },
        {
            "id": 120033,
            "original_name": "Costa del Kongsvik",
            "popularity": 0.6
        },
        {
            "id": 120265,
            "original_name": "Narcostaat",
            "popularity": 1.433
        },
        {
            "id": 123384,
            "original_name": "Costa del Linse",
            "popularity": 0.6
        },
        {
            "id": 124207,
            "original_name": "Back on the Record with Bob Costas",
            "popularity": 5.979
        },
        {
            "id": 125906,
            "original_name": "Stacey Dooley: Costa del Narcos",
            "popularity": 6.237
        },
        {
            "id": 131209,
            "original_name": "Costa Del Crime",
            "popularity": 1.401
        }
    ]
}