{
    "data": [
        {
            "id": 6510,
            "original_name": "Cousin Skeeter",
            "popularity": 3.961
        },
        {
            "id": 16584,
            "original_name": "Cousins",
            "popularity": 0.6
        },
        {
            "id": 21343,
            "original_name": "Cousteau: Amazon",
            "popularity": 0.6
        },
        {
            "id": 23982,
            "original_name": "My Cousin Rachel",
            "popularity": 2.548
        },
        {
            "id": 24339,
            "original_name": "Billy Boone and Cousin Kib",
            "popularity": 0.6
        },
        {
            "id": 42214,
            "original_name": "Desperate Scousewives",
            "popularity": 0.6
        },
        {
            "id": 44103,
            "original_name": "La collection Cousteau",
            "popularity": 1.419
        },
        {
            "id": 49338,
            "original_name": "The Cousteau Odyssey",
            "popularity": 1.171
        },
        {
            "id": 49892,
            "original_name": "Cousteau: Oasis in Space",
            "popularity": 0.6
        },
        {
            "id": 53055,
            "original_name": "Jean-Michel Cousteau's Ocean Adventures",
            "popularity": 0.6
        },
        {
            "id": 55410,
            "original_name": "Kitchen Cousins",
            "popularity": 0.6
        },
        {
            "id": 56022,
            "original_name": "Jacques Cousteau Rediscover the World",
            "popularity": 0.6
        },
        {
            "id": 57711,
            "original_name": "Jacques Cousteau - River Explorations",
            "popularity": 0.6
        },
        {
            "id": 58734,
            "original_name": "Such Is Life: The Troubled Times of Ben Cousins",
            "popularity": 0.6
        },
        {
            "id": 60997,
            "original_name": "Cousins Undercover",
            "popularity": 0.6
        },
        {
            "id": 65446,
            "original_name": "Royal Cousins at War",
            "popularity": 1.422
        },
        {
            "id": 74264,
            "original_name": "Cousin Bette",
            "popularity": 1.012
        },
        {
            "id": 76004,
            "original_name": "Care Bears and Cousins",
            "popularity": 1.491
        },
        {
            "id": 77095,
            "original_name": "Les As de la Jungle \u00e0 la rescousse!",
            "popularity": 2.171
        },
        {
            "id": 84385,
            "original_name": "Cousins for Life",
            "popularity": 1.058
        },
        {
            "id": 101031,
            "original_name": "Los Cousins Webisodios",
            "popularity": 0.6
        },
        {
            "id": 103938,
            "original_name": "Jacques Cousteau's Ocean Tales",
            "popularity": 0.657
        },
        {
            "id": 118432,
            "original_name": "Les Cousins de la Constance",
            "popularity": 0.6
        },
        {
            "id": 127736,
            "original_name": "Les Aventures Fantastiques du Commandant Cousteau",
            "popularity": 0.841
        },
        {
            "id": 146395,
            "original_name": "Acoustic Home",
            "popularity": 10.543
        }
    ],
    "relations": [
        {
            "character": "cousi"
        },
        {
            "character": "coust"
        },
        {
            "character": "couse"
        },
        {
            "character": "couss"
        }
    ],
    "top20": [
        {
            "id": 146395,
            "original_name": "Acoustic Home",
            "popularity": 10.543
        },
        {
            "id": 6510,
            "original_name": "Cousin Skeeter",
            "popularity": 3.961
        },
        {
            "id": 23982,
            "original_name": "My Cousin Rachel",
            "popularity": 2.548
        },
        {
            "id": 77095,
            "original_name": "Les As de la Jungle \u00e0 la rescousse!",
            "popularity": 2.171
        },
        {
            "id": 76004,
            "original_name": "Care Bears and Cousins",
            "popularity": 1.491
        },
        {
            "id": 65446,
            "original_name": "Royal Cousins at War",
            "popularity": 1.422
        },
        {
            "id": 44103,
            "original_name": "La collection Cousteau",
            "popularity": 1.419
        },
        {
            "id": 49338,
            "original_name": "The Cousteau Odyssey",
            "popularity": 1.171
        },
        {
            "id": 84385,
            "original_name": "Cousins for Life",
            "popularity": 1.058
        },
        {
            "id": 74264,
            "original_name": "Cousin Bette",
            "popularity": 1.012
        },
        {
            "id": 127736,
            "original_name": "Les Aventures Fantastiques du Commandant Cousteau",
            "popularity": 0.841
        },
        {
            "id": 103938,
            "original_name": "Jacques Cousteau's Ocean Tales",
            "popularity": 0.657
        },
        {
            "id": 49892,
            "original_name": "Cousteau: Oasis in Space",
            "popularity": 0.6
        },
        {
            "id": 53055,
            "original_name": "Jean-Michel Cousteau's Ocean Adventures",
            "popularity": 0.6
        },
        {
            "id": 56022,
            "original_name": "Jacques Cousteau Rediscover the World",
            "popularity": 0.6
        },
        {
            "id": 16584,
            "original_name": "Cousins",
            "popularity": 0.6
        },
        {
            "id": 42214,
            "original_name": "Desperate Scousewives",
            "popularity": 0.6
        },
        {
            "id": 24339,
            "original_name": "Billy Boone and Cousin Kib",
            "popularity": 0.6
        },
        {
            "id": 55410,
            "original_name": "Kitchen Cousins",
            "popularity": 0.6
        },
        {
            "id": 21343,
            "original_name": "Cousteau: Amazon",
            "popularity": 0.6
        }
    ]
}