{
    "data": [
        {
            "id": 35,
            "original_name": "Cracker",
            "popularity": 13.152
        },
        {
            "id": 7982,
            "original_name": "Cracked",
            "popularity": 0.6
        },
        {
            "id": 10063,
            "original_name": "Cracking Up",
            "popularity": 3.543
        },
        {
            "id": 10641,
            "original_name": "Cracker",
            "popularity": 5.477
        },
        {
            "id": 10681,
            "original_name": "Wisecrack",
            "popularity": 0.686
        },
        {
            "id": 10963,
            "original_name": "Animal Crack-Ups",
            "popularity": 0.6
        },
        {
            "id": 11335,
            "original_name": "Animal Crackers",
            "popularity": 2.104
        },
        {
            "id": 12098,
            "original_name": "Liocracy",
            "popularity": 1.428
        },
        {
            "id": 14503,
            "original_name": "Crackerjack",
            "popularity": 0.991
        },
        {
            "id": 15172,
            "original_name": "Time Cracks",
            "popularity": 0.6
        },
        {
            "id": 27030,
            "original_name": "Fire Crackers",
            "popularity": 0.6
        },
        {
            "id": 28010,
            "original_name": "Wax Cracks Cannes",
            "popularity": 0.6
        },
        {
            "id": 28117,
            "original_name": "Wax Cracks Hollywood",
            "popularity": 0.6
        },
        {
            "id": 30487,
            "original_name": "O.K. Crackerby",
            "popularity": 1.399
        },
        {
            "id": 30548,
            "original_name": "Nutcracker: Money, Madness & Murder",
            "popularity": 1.434
        },
        {
            "id": 30675,
            "original_name": "Crackerjack!",
            "popularity": 0.6
        },
        {
            "id": 31732,
            "original_name": "Democracy Now!",
            "popularity": 1.379
        },
        {
            "id": 33680,
            "original_name": "Comedy Crackers",
            "popularity": 0.6
        },
        {
            "id": 34924,
            "original_name": "Little Crackers",
            "popularity": 4.396
        },
        {
            "id": 37130,
            "original_name": "Cracking Antiques",
            "popularity": 0.6
        },
        {
            "id": 43122,
            "original_name": "Agents of Cracked",
            "popularity": 0.844
        },
        {
            "id": 43575,
            "original_name": "A Crack in the Crystal",
            "popularity": 0.6
        },
        {
            "id": 43717,
            "original_name": "Cracked",
            "popularity": 6.15
        },
        {
            "id": 43759,
            "original_name": "Athens The Truth about Democracy",
            "popularity": 0.6
        },
        {
            "id": 44792,
            "original_name": "The Alexis de Tocqueville Tour: Exploring Democracy in America",
            "popularity": 0.6
        },
        {
            "id": 45479,
            "original_name": "Satacracy 88",
            "popularity": 0.6
        },
        {
            "id": 48118,
            "original_name": "Cracking the Colour Code",
            "popularity": 0.6
        },
        {
            "id": 49832,
            "original_name": "The Nutcracker (American Ballet Theatre)",
            "popularity": 0.6
        },
        {
            "id": 52053,
            "original_name": "Andre Van Duins Animal Crackers",
            "popularity": 0.6
        },
        {
            "id": 57157,
            "original_name": "Cracking Crime - The Cold Cases",
            "popularity": 0.6
        },
        {
            "id": 57331,
            "original_name": "World's Toughest Expeditions with James Cracknell",
            "popularity": 0.624
        },
        {
            "id": 57474,
            "original_name": "Cracker Comedy Night",
            "popularity": 0.6
        },
        {
            "id": 57552,
            "original_name": "Motives & Murders: Cracking The Case",
            "popularity": 0.6
        },
        {
            "id": 58979,
            "original_name": "The Secret of the Nutcracker",
            "popularity": 0.6
        },
        {
            "id": 59142,
            "original_name": "Crack\u00f2via",
            "popularity": 1.287
        },
        {
            "id": 59653,
            "original_name": "Cracker Night",
            "popularity": 0.6
        },
        {
            "id": 59855,
            "original_name": "Kath and Kim -- Crack the Code",
            "popularity": 0.6
        },
        {
            "id": 60382,
            "original_name": "Cryer's Crackers",
            "popularity": 0.6
        },
        {
            "id": 61274,
            "original_name": "The Safecrackers",
            "popularity": 0.625
        },
        {
            "id": 62494,
            "original_name": "El crac",
            "popularity": 1.528
        },
        {
            "id": 64885,
            "original_name": "Break in Britain: The Crackdown",
            "popularity": 0.6
        },
        {
            "id": 71689,
            "original_name": "Mimi Cracra",
            "popularity": 0.6
        },
        {
            "id": 79783,
            "original_name": "Crac Crac",
            "popularity": 1.232
        },
        {
            "id": 80616,
            "original_name": "Wallace & Gromit's Cracking Contraptions",
            "popularity": 3.702
        },
        {
            "id": 91610,
            "original_name": "Crackanory",
            "popularity": 1.329
        },
        {
            "id": 108533,
            "original_name": "40 a\u00f1os de democracia",
            "popularity": 0.6
        },
        {
            "id": 110249,
            "original_name": "Crackdown",
            "popularity": 1.288
        },
        {
            "id": 115817,
            "original_name": "Teocracia em Vertigem",
            "popularity": 0.6
        },
        {
            "id": 118084,
            "original_name": "Ronnie's Animal Crackers",
            "popularity": 0.6
        },
        {
            "id": 122382,
            "original_name": "Mimi Cracra, c'est une copine",
            "popularity": 1.202
        },
        {
            "id": 122721,
            "original_name": "Animal crackers",
            "popularity": 0.6
        },
        {
            "id": 131761,
            "original_name": "Jamie's Cracking Christmas",
            "popularity": 0.6
        }
    ],
    "relations": [
        {
            "character": "crack"
        },
        {
            "character": "cracy"
        },
        {
            "character": "cracr"
        },
        {
            "character": "craci"
        }
    ],
    "top20": [
        {
            "id": 35,
            "original_name": "Cracker",
            "popularity": 13.152
        },
        {
            "id": 43717,
            "original_name": "Cracked",
            "popularity": 6.15
        },
        {
            "id": 10641,
            "original_name": "Cracker",
            "popularity": 5.477
        },
        {
            "id": 34924,
            "original_name": "Little Crackers",
            "popularity": 4.396
        },
        {
            "id": 80616,
            "original_name": "Wallace & Gromit's Cracking Contraptions",
            "popularity": 3.702
        },
        {
            "id": 10063,
            "original_name": "Cracking Up",
            "popularity": 3.543
        },
        {
            "id": 11335,
            "original_name": "Animal Crackers",
            "popularity": 2.104
        },
        {
            "id": 62494,
            "original_name": "El crac",
            "popularity": 1.528
        },
        {
            "id": 30548,
            "original_name": "Nutcracker: Money, Madness & Murder",
            "popularity": 1.434
        },
        {
            "id": 12098,
            "original_name": "Liocracy",
            "popularity": 1.428
        },
        {
            "id": 30487,
            "original_name": "O.K. Crackerby",
            "popularity": 1.399
        },
        {
            "id": 31732,
            "original_name": "Democracy Now!",
            "popularity": 1.379
        },
        {
            "id": 91610,
            "original_name": "Crackanory",
            "popularity": 1.329
        },
        {
            "id": 110249,
            "original_name": "Crackdown",
            "popularity": 1.288
        },
        {
            "id": 59142,
            "original_name": "Crack\u00f2via",
            "popularity": 1.287
        },
        {
            "id": 79783,
            "original_name": "Crac Crac",
            "popularity": 1.232
        },
        {
            "id": 122382,
            "original_name": "Mimi Cracra, c'est une copine",
            "popularity": 1.202
        },
        {
            "id": 14503,
            "original_name": "Crackerjack",
            "popularity": 0.991
        },
        {
            "id": 43122,
            "original_name": "Agents of Cracked",
            "popularity": 0.844
        },
        {
            "id": 10681,
            "original_name": "Wisecrack",
            "popularity": 0.686
        }
    ]
}