{
    "data": [
        {
            "id": 28071,
            "original_name": "Debiteuren Crediteuren",
            "popularity": 0.6
        },
        {
            "id": 122165,
            "original_name": "Extra Credits",
            "popularity": 2.289
        }
    ],
    "relations": [],
    "top20": [
        {
            "id": 28071,
            "original_name": "Debiteuren Crediteuren",
            "popularity": 0.6
        },
        {
            "id": 122165,
            "original_name": "Extra Credits",
            "popularity": 2.289
        }
    ]
}