{
    "data": [
        {
            "id": 75433,
            "original_name": "Secretul Mariei",
            "popularity": 1.51
        }
    ],
    "relations": [],
    "top20": [
        {
            "id": 75433,
            "original_name": "Secretul Mariei",
            "popularity": 1.51
        }
    ]
}