{
    "data": [
        {
            "id": 9417,
            "original_name": "Crisis Command",
            "popularity": 0.6
        },
        {
            "id": 14247,
            "original_name": "Lifestories: Families in Crisis",
            "popularity": 1.49
        },
        {
            "id": 18251,
            "original_name": "World in Crisis",
            "popularity": 0.6
        },
        {
            "id": 18751,
            "original_name": "The Turned On Crisis",
            "popularity": 0.6
        },
        {
            "id": 19044,
            "original_name": "Years of Crisis",
            "popularity": 0.6
        },
        {
            "id": 21228,
            "original_name": "Crisis Control",
            "popularity": 0.6
        },
        {
            "id": 21404,
            "original_name": "The Darfur Crisis",
            "popularity": 0.6
        },
        {
            "id": 24008,
            "original_name": "How to Survive the Property Crisis",
            "popularity": 0.6
        },
        {
            "id": 24274,
            "original_name": "Live Earth: A Concert for a Climate in Crisis",
            "popularity": 1.988
        },
        {
            "id": 25281,
            "original_name": "Crisis Center",
            "popularity": 1.872
        },
        {
            "id": 28495,
            "original_name": "Crisis Point",
            "popularity": 0.6
        },
        {
            "id": 29570,
            "original_name": "Midlife Crisis",
            "popularity": 0.6
        },
        {
            "id": 30505,
            "original_name": "Man in Crisis",
            "popularity": 0.6
        },
        {
            "id": 35585,
            "original_name": "Indian Summer: The Oka Crisis",
            "popularity": 0.855
        },
        {
            "id": 47383,
            "original_name": "Crisis at Central High",
            "popularity": 0.6
        },
        {
            "id": 47696,
            "original_name": "The World Since 1945: The Cuban Missile Crisis",
            "popularity": 0.6
        },
        {
            "id": 48205,
            "original_name": "ITN Coverage Of The Lebanon Crisis",
            "popularity": 0.6
        },
        {
            "id": 50558,
            "original_name": "Crisis",
            "popularity": 9.682
        },
        {
            "id": 56285,
            "original_name": "America's Crisis: Trouble in the Family",
            "popularity": 0.6
        },
        {
            "id": 67186,
            "original_name": "YidLife Crisis",
            "popularity": 0.6
        },
        {
            "id": 67443,
            "original_name": "Crisis in Six Scenes",
            "popularity": 7.045
        },
        {
            "id": 71233,
            "original_name": "CRISIS \u516c\u5b89\u6a5f\u52d5\u635c\u67fb\u968a\u7279\u635c\u73ed",
            "popularity": 1.647
        },
        {
            "id": 81554,
            "original_name": "Crisis Jung",
            "popularity": 1.55
        },
        {
            "id": 98069,
            "original_name": "Crisis Aftermath",
            "popularity": 7.125
        },
        {
            "id": 105607,
            "original_name": "Love Crisis",
            "popularity": 0.621
        },
        {
            "id": 106575,
            "original_name": "MEGA CRISIS \u5de8\u5927\u5371\u6a5f",
            "popularity": 0.6
        },
        {
            "id": 112797,
            "original_name": "Crisis in de Tent",
            "popularity": 0.6
        },
        {
            "id": 137530,
            "original_name": "911 Crisis Center",
            "popularity": 17.512
        },
        {
            "id": 138271,
            "original_name": "Inside the Care Crisis with Ed Balls",
            "popularity": 1.266
        }
    ],
    "relations": [
        {
            "character": "crisis"
        }
    ],
    "top20": [
        {
            "id": 137530,
            "original_name": "911 Crisis Center",
            "popularity": 17.512
        },
        {
            "id": 50558,
            "original_name": "Crisis",
            "popularity": 9.682
        },
        {
            "id": 98069,
            "original_name": "Crisis Aftermath",
            "popularity": 7.125
        },
        {
            "id": 67443,
            "original_name": "Crisis in Six Scenes",
            "popularity": 7.045
        },
        {
            "id": 24274,
            "original_name": "Live Earth: A Concert for a Climate in Crisis",
            "popularity": 1.988
        },
        {
            "id": 25281,
            "original_name": "Crisis Center",
            "popularity": 1.872
        },
        {
            "id": 71233,
            "original_name": "CRISIS \u516c\u5b89\u6a5f\u52d5\u635c\u67fb\u968a\u7279\u635c\u73ed",
            "popularity": 1.647
        },
        {
            "id": 81554,
            "original_name": "Crisis Jung",
            "popularity": 1.55
        },
        {
            "id": 14247,
            "original_name": "Lifestories: Families in Crisis",
            "popularity": 1.49
        },
        {
            "id": 138271,
            "original_name": "Inside the Care Crisis with Ed Balls",
            "popularity": 1.266
        },
        {
            "id": 35585,
            "original_name": "Indian Summer: The Oka Crisis",
            "popularity": 0.855
        },
        {
            "id": 105607,
            "original_name": "Love Crisis",
            "popularity": 0.621
        },
        {
            "id": 28495,
            "original_name": "Crisis Point",
            "popularity": 0.6
        },
        {
            "id": 9417,
            "original_name": "Crisis Command",
            "popularity": 0.6
        },
        {
            "id": 21228,
            "original_name": "Crisis Control",
            "popularity": 0.6
        },
        {
            "id": 18251,
            "original_name": "World in Crisis",
            "popularity": 0.6
        },
        {
            "id": 21404,
            "original_name": "The Darfur Crisis",
            "popularity": 0.6
        },
        {
            "id": 19044,
            "original_name": "Years of Crisis",
            "popularity": 0.6
        },
        {
            "id": 24008,
            "original_name": "How to Survive the Property Crisis",
            "popularity": 0.6
        },
        {
            "id": 18751,
            "original_name": "The Turned On Crisis",
            "popularity": 0.6
        }
    ]
}