{
    "data": [
        {
            "id": 16187,
            "original_name": "Cristal",
            "popularity": 0.6
        },
        {
            "id": 35398,
            "original_name": "Imperio de Cristal",
            "popularity": 4.438
        },
        {
            "id": 42675,
            "original_name": "La Bola de Cristal",
            "popularity": 0.683
        },
        {
            "id": 126915,
            "original_name": "Ilha de Cristal",
            "popularity": 0.6
        }
    ],
    "relations": [],
    "top20": [
        {
            "id": 16187,
            "original_name": "Cristal",
            "popularity": 0.6
        },
        {
            "id": 35398,
            "original_name": "Imperio de Cristal",
            "popularity": 4.438
        },
        {
            "id": 42675,
            "original_name": "La Bola de Cristal",
            "popularity": 0.683
        },
        {
            "id": 126915,
            "original_name": "Ilha de Cristal",
            "popularity": 0.6
        }
    ]
}