{
    "data": [
        {
            "id": 86825,
            "original_name": "La frecuencia Kirlian",
            "popularity": 4.864
        },
        {
            "id": 100030,
            "original_name": "Frecuencia .04",
            "popularity": 0.7
        }
    ],
    "relations": [],
    "top20": [
        {
            "id": 86825,
            "original_name": "La frecuencia Kirlian",
            "popularity": 4.864
        },
        {
            "id": 100030,
            "original_name": "Frecuencia .04",
            "popularity": 0.7
        }
    ]
}