{
    "data": [
        {
            "id": 2702,
            "original_name": "Cybill",
            "popularity": 15.472
        },
        {
            "id": 118773,
            "original_name": "Sposob na Alcybiadesa",
            "popularity": 0.84
        }
    ],
    "relations": [],
    "top20": [
        {
            "id": 2702,
            "original_name": "Cybill",
            "popularity": 15.472
        },
        {
            "id": 118773,
            "original_name": "Sposob na Alcybiadesa",
            "popularity": 0.84
        }
    ]
}