{
    "data": [
        {
            "id": 1574,
            "original_name": "Czterej pancerni i pies",
            "popularity": 6.087
        },
        {
            "id": 30860,
            "original_name": "Czterdziestolatek",
            "popularity": 1.438
        },
        {
            "id": 84465,
            "original_name": "Czterdziestolatek. Dwadzie\u015bcia lat p\u00f3\u017aniej",
            "popularity": 1.09
        },
        {
            "id": 102242,
            "original_name": "Cztery poziomo",
            "popularity": 0.6
        }
    ],
    "relations": [],
    "top20": [
        {
            "id": 1574,
            "original_name": "Czterej pancerni i pies",
            "popularity": 6.087
        },
        {
            "id": 30860,
            "original_name": "Czterdziestolatek",
            "popularity": 1.438
        },
        {
            "id": 84465,
            "original_name": "Czterdziestolatek. Dwadzie\u015bcia lat p\u00f3\u017aniej",
            "popularity": 1.09
        },
        {
            "id": 102242,
            "original_name": "Cztery poziomo",
            "popularity": 0.6
        }
    ]
}