{
    "data": [
        {
            "id": 30227,
            "original_name": "Dziewczyna i ch\u0142opak",
            "popularity": 0.6
        },
        {
            "id": 81939,
            "original_name": "1000 z\u0142ych uczynk\u00f3w",
            "popularity": 0.6
        },
        {
            "id": 85249,
            "original_name": "Dziewczyny ze Lwowa",
            "popularity": 1.762
        },
        {
            "id": 88362,
            "original_name": "Wojenne dziewczyny",
            "popularity": 11.026
        },
        {
            "id": 118693,
            "original_name": "Dziewczyna z Mazur",
            "popularity": 0.6
        },
        {
            "id": 132211,
            "original_name": "Paj\u0119czyna",
            "popularity": 4.175
        }
    ],
    "relations": [],
    "top20": [
        {
            "id": 30227,
            "original_name": "Dziewczyna i ch\u0142opak",
            "popularity": 0.6
        },
        {
            "id": 81939,
            "original_name": "1000 z\u0142ych uczynk\u00f3w",
            "popularity": 0.6
        },
        {
            "id": 85249,
            "original_name": "Dziewczyny ze Lwowa",
            "popularity": 1.762
        },
        {
            "id": 88362,
            "original_name": "Wojenne dziewczyny",
            "popularity": 11.026
        },
        {
            "id": 118693,
            "original_name": "Dziewczyna z Mazur",
            "popularity": 0.6
        },
        {
            "id": 132211,
            "original_name": "Paj\u0119czyna",
            "popularity": 4.175
        }
    ]
}