{
    "data": [
        {
            "id": 29158,
            "original_name": "No Cloak - No Dagger",
            "popularity": 0.6
        },
        {
            "id": 66190,
            "original_name": "Marvel's Cloak & Dagger",
            "popularity": 25.191
        },
        {
            "id": 75932,
            "original_name": "Dagger Kiss",
            "popularity": 0.718
        },
        {
            "id": 117198,
            "original_name": "Mission Frontline with Rana Daggubati",
            "popularity": 0.84
        }
    ],
    "relations": [],
    "top20": [
        {
            "id": 29158,
            "original_name": "No Cloak - No Dagger",
            "popularity": 0.6
        },
        {
            "id": 66190,
            "original_name": "Marvel's Cloak & Dagger",
            "popularity": 25.191
        },
        {
            "id": 75932,
            "original_name": "Dagger Kiss",
            "popularity": 0.718
        },
        {
            "id": 117198,
            "original_name": "Mission Frontline with Rana Daggubati",
            "popularity": 0.84
        }
    ]
}