{
    "data": [
        {
            "id": 36188,
            "original_name": "Stinkend Rijk & Dakloos",
            "popularity": 0.6
        },
        {
            "id": 38485,
            "original_name": "Stinkend, Beroemd & Dakloos",
            "popularity": 0.6
        },
        {
            "id": 115037,
            "original_name": "Beau & de daklozen",
            "popularity": 0.6
        }
    ],
    "relations": [],
    "top20": [
        {
            "id": 36188,
            "original_name": "Stinkend Rijk & Dakloos",
            "popularity": 0.6
        },
        {
            "id": 38485,
            "original_name": "Stinkend, Beroemd & Dakloos",
            "popularity": 0.6
        },
        {
            "id": 115037,
            "original_name": "Beau & de daklozen",
            "popularity": 0.6
        }
    ]
}