{
    "data": [
        {
            "id": 49355,
            "original_name": "\u00d6l\u00fcm\u00fcne Sevdalar",
            "popularity": 0.6
        },
        {
            "id": 51661,
            "original_name": "Semlons gr\u00f6na dalar",
            "popularity": 1.4
        }
    ],
    "relations": [],
    "top20": [
        {
            "id": 49355,
            "original_name": "\u00d6l\u00fcm\u00fcne Sevdalar",
            "popularity": 0.6
        },
        {
            "id": 51661,
            "original_name": "Semlons gr\u00f6na dalar",
            "popularity": 1.4
        }
    ]
}