{
    "data": [
        {
            "id": 95887,
            "original_name": "Cheongdamdong Scandal",
            "popularity": 1.176
        }
    ],
    "relations": [],
    "top20": [
        {
            "id": 95887,
            "original_name": "Cheongdamdong Scandal",
            "popularity": 1.176
        }
    ]
}