{
    "data": [
        {
            "id": 101355,
            "original_name": "Balk\u00e1nem nahoru a dol\u016f s Adamem Ondrou",
            "popularity": 0.878
        }
    ],
    "relations": [],
    "top20": [
        {
            "id": 101355,
            "original_name": "Balk\u00e1nem nahoru a dol\u016f s Adamem Ondrou",
            "popularity": 0.878
        }
    ]
}