{
    "data": [
        {
            "id": 17310,
            "original_name": "Dangerfield",
            "popularity": 4.573
        }
    ],
    "relations": [],
    "top20": [
        {
            "id": 17310,
            "original_name": "Dangerfield",
            "popularity": 4.573
        }
    ]
}