{
    "data": [
        {
            "id": 33029,
            "original_name": "Feedback",
            "popularity": 0.6
        },
        {
            "id": 40881,
            "original_name": "Wildbach",
            "popularity": 2.776
        },
        {
            "id": 137978,
            "original_name": "Feedback",
            "popularity": 0.6
        }
    ],
    "relations": [],
    "top20": [
        {
            "id": 33029,
            "original_name": "Feedback",
            "popularity": 0.6
        },
        {
            "id": 40881,
            "original_name": "Wildbach",
            "popularity": 2.776
        },
        {
            "id": 137978,
            "original_name": "Feedback",
            "popularity": 0.6
        }
    ]
}