{
    "data": [
        {
            "id": 6637,
            "original_name": "Headbangers Ball",
            "popularity": 0.6
        },
        {
            "id": 41061,
            "original_name": "Das R\u00e4tsel der Sandbank",
            "popularity": 0.961
        },
        {
            "id": 99613,
            "original_name": "Harry Redknapp's Sandbanks Summer",
            "popularity": 0.6
        },
        {
            "id": 114966,
            "original_name": "Herdbanger",
            "popularity": 0.6
        },
        {
            "id": 120782,
            "original_name": "Hovedbaneg\u00e5rden",
            "popularity": 0.6
        }
    ],
    "relations": [],
    "top20": [
        {
            "id": 6637,
            "original_name": "Headbangers Ball",
            "popularity": 0.6
        },
        {
            "id": 41061,
            "original_name": "Das R\u00e4tsel der Sandbank",
            "popularity": 0.961
        },
        {
            "id": 99613,
            "original_name": "Harry Redknapp's Sandbanks Summer",
            "popularity": 0.6
        },
        {
            "id": 114966,
            "original_name": "Herdbanger",
            "popularity": 0.6
        },
        {
            "id": 120782,
            "original_name": "Hovedbaneg\u00e5rden",
            "popularity": 0.6
        }
    ]
}