{
    "data": [
        {
            "id": 6577,
            "original_name": "Big Ideas for a Small Planet",
            "popularity": 0.6
        },
        {
            "id": 8048,
            "original_name": "James May's Big Ideas",
            "popularity": 0.872
        },
        {
            "id": 12053,
            "original_name": "Big Ideas",
            "popularity": 0.6
        },
        {
            "id": 21387,
            "original_name": "Bill Moyers' World of Ideas.",
            "popularity": 0.6
        },
        {
            "id": 29879,
            "original_name": "25 Great Holiday Ideas",
            "popularity": 0.6
        },
        {
            "id": 30249,
            "original_name": "Lofty Ideas",
            "popularity": 0.6
        },
        {
            "id": 42621,
            "original_name": "60 Second Movie Ideas",
            "popularity": 0.6
        },
        {
            "id": 43805,
            "original_name": "Big Ideas That Changed The World",
            "popularity": 0.6
        },
        {
            "id": 56774,
            "original_name": "Bright Ideas",
            "popularity": 0.6
        },
        {
            "id": 82101,
            "original_name": "Brilliant Ideas",
            "popularity": 0.6
        },
        {
            "id": 91049,
            "original_name": "Breakthrough: The Ideas That Changed the World",
            "popularity": 0.754
        },
        {
            "id": 99266,
            "original_name": "Bad Ideas",
            "popularity": 0.6
        },
        {
            "id": 105843,
            "original_name": "Bad Ideas with Adam Devine",
            "popularity": 0.6
        }
    ],
    "relations": [],
    "top20": [
        {
            "id": 6577,
            "original_name": "Big Ideas for a Small Planet",
            "popularity": 0.6
        },
        {
            "id": 8048,
            "original_name": "James May's Big Ideas",
            "popularity": 0.872
        },
        {
            "id": 12053,
            "original_name": "Big Ideas",
            "popularity": 0.6
        },
        {
            "id": 21387,
            "original_name": "Bill Moyers' World of Ideas.",
            "popularity": 0.6
        },
        {
            "id": 29879,
            "original_name": "25 Great Holiday Ideas",
            "popularity": 0.6
        },
        {
            "id": 30249,
            "original_name": "Lofty Ideas",
            "popularity": 0.6
        },
        {
            "id": 42621,
            "original_name": "60 Second Movie Ideas",
            "popularity": 0.6
        },
        {
            "id": 43805,
            "original_name": "Big Ideas That Changed The World",
            "popularity": 0.6
        },
        {
            "id": 56774,
            "original_name": "Bright Ideas",
            "popularity": 0.6
        },
        {
            "id": 82101,
            "original_name": "Brilliant Ideas",
            "popularity": 0.6
        },
        {
            "id": 91049,
            "original_name": "Breakthrough: The Ideas That Changed the World",
            "popularity": 0.754
        },
        {
            "id": 99266,
            "original_name": "Bad Ideas",
            "popularity": 0.6
        },
        {
            "id": 105843,
            "original_name": "Bad Ideas with Adam Devine",
            "popularity": 0.6
        }
    ]
}