{
    "data": [
        {
            "id": 983,
            "original_name": "Department S",
            "popularity": 8.403
        },
        {
            "id": 8040,
            "original_name": "Departures",
            "popularity": 4.732
        },
        {
            "id": 9667,
            "original_name": "Ritmo Deportivo",
            "popularity": 0.6
        },
        {
            "id": 11199,
            "original_name": "Independent Network News",
            "popularity": 0.6
        },
        {
            "id": 12460,
            "original_name": "Not My Department",
            "popularity": 0.6
        },
        {
            "id": 13778,
            "original_name": "The Deputy",
            "popularity": 17.9
        },
        {
            "id": 14976,
            "original_name": "Independent Lens",
            "popularity": 9.947
        },
        {
            "id": 16083,
            "original_name": "Departure Lounge",
            "popularity": 0.6
        },
        {
            "id": 16571,
            "original_name": "Contacto Deportivo",
            "popularity": 0.6
        },
        {
            "id": 17622,
            "original_name": "Independent Wrestling Federation",
            "popularity": 0.6
        },
        {
            "id": 19984,
            "original_name": "Depression: Out of the Shadows",
            "popularity": 0.6
        },
        {
            "id": 20390,
            "original_name": "Calucci's Department",
            "popularity": 0.64
        },
        {
            "id": 22717,
            "original_name": "The Pet Department",
            "popularity": 0.6
        },
        {
            "id": 23467,
            "original_name": "Nearly Departed",
            "popularity": 1.723
        },
        {
            "id": 24096,
            "original_name": "The Department Store",
            "popularity": 0.6
        },
        {
            "id": 24403,
            "original_name": "renegadepress.com",
            "popularity": 1.358
        },
        {
            "id": 25878,
            "original_name": "The Style Dept.",
            "popularity": 0.6
        },
        {
            "id": 31236,
            "original_name": "Deputy Seraph",
            "popularity": 0.6
        },
        {
            "id": 33078,
            "original_name": "Rep\u00fablica Deportiva",
            "popularity": 0.6
        },
        {
            "id": 35160,
            "original_name": "Stephen Fry: The Secret Life of the Manic Depressive",
            "popularity": 0.652
        },
        {
            "id": 35932,
            "original_name": "Deputy Dawg",
            "popularity": 0.6
        },
        {
            "id": 37048,
            "original_name": "Intervention In Depth: One Man Rehab",
            "popularity": 0.6
        },
        {
            "id": 37994,
            "original_name": "Deputized",
            "popularity": 0.6
        },
        {
            "id": 38835,
            "original_name": "Hundepatruljen",
            "popularity": 0.6
        },
        {
            "id": 40220,
            "original_name": "Departed Heroes",
            "popularity": 0.6
        },
        {
            "id": 43486,
            "original_name": "A Woman of Independent Means",
            "popularity": 0.6
        },
        {
            "id": 43681,
            "original_name": "An Independent Man",
            "popularity": 0.6
        },
        {
            "id": 43989,
            "original_name": "The Girl's Guide to Depravity",
            "popularity": 3.062
        },
        {
            "id": 44239,
            "original_name": "Telling Stories with Tomie dePaola",
            "popularity": 0.6
        },
        {
            "id": 45051,
            "original_name": "In Depth",
            "popularity": 0.6
        },
        {
            "id": 47373,
            "original_name": "When Parents Are Deployed",
            "popularity": 0.6
        },
        {
            "id": 47865,
            "original_name": "Independence",
            "popularity": 0.6
        },
        {
            "id": 55261,
            "original_name": "Der Hundeprofi",
            "popularity": 0.6
        },
        {
            "id": 56086,
            "original_name": "Departure from Oil - Energy for the Future",
            "popularity": 0.6
        },
        {
            "id": 56941,
            "original_name": "Independent Heroes",
            "popularity": 0.6
        },
        {
            "id": 57180,
            "original_name": "The Great Depression",
            "popularity": 0.6
        },
        {
            "id": 57316,
            "original_name": "Destino Deporte",
            "popularity": 0.6
        },
        {
            "id": 57364,
            "original_name": "L.A.P.D.: Lekanopedio Attikis Police Department",
            "popularity": 0.963
        },
        {
            "id": 68552,
            "original_name": "Der Hundeprofi unterwegs",
            "popularity": 0.6
        },
        {
            "id": 71779,
            "original_name": "Independent Focus",
            "popularity": 3.143
        },
        {
            "id": 75965,
            "original_name": "Sem Fazer Planos Do Que Vir\u00e1 Depois",
            "popularity": 0.6
        },
        {
            "id": 77795,
            "original_name": "Masters Of Time: Independent Watchmakers",
            "popularity": 0.6
        },
        {
            "id": 81762,
            "original_name": "Deportes y eventos n\u00e1uticos - Espa\u00f1a",
            "popularity": 0.6
        },
        {
            "id": 82711,
            "original_name": "Bondeparet",
            "popularity": 0.6
        },
        {
            "id": 82852,
            "original_name": "#jesuisdepri",
            "popularity": 0.6
        },
        {
            "id": 85476,
            "original_name": "Deportes Xtremos",
            "popularity": 0.6
        },
        {
            "id": 89498,
            "original_name": "Deputy",
            "popularity": 14.313
        },
        {
            "id": 90481,
            "original_name": "Amar Depois de Amar",
            "popularity": 0.61
        },
        {
            "id": 91552,
            "original_name": "Departure",
            "popularity": 12.232
        },
        {
            "id": 98028,
            "original_name": "Russell Peters: Deported",
            "popularity": 1.4
        },
        {
            "id": 101100,
            "original_name": "Wendepunkte des Zweiten Weltkriegs",
            "popularity": 0.6
        },
        {
            "id": 104880,
            "original_name": "Hawks and Doves: The Crown and Ireland's War of Independence",
            "popularity": 0.84
        },
        {
            "id": 114206,
            "original_name": "The Train Now Departing",
            "popularity": 0.6
        },
        {
            "id": 114640,
            "original_name": "Hundepatruljen Oslo",
            "popularity": 1.4
        },
        {
            "id": 120624,
            "original_name": "S\u00faperdeportivos",
            "popularity": 0.6
        },
        {
            "id": 121270,
            "original_name": "La Red Deportes",
            "popularity": 1.485
        },
        {
            "id": 124451,
            "original_name": "A Vida Depois do Tombo",
            "popularity": 1.941
        },
        {
            "id": 127126,
            "original_name": "Depois do Crime",
            "popularity": 0.6
        },
        {
            "id": 129390,
            "original_name": "Fairy Tale Police Department",
            "popularity": 0.6
        },
        {
            "id": 131409,
            "original_name": "Het Scheldepeloton",
            "popularity": 0.6
        },
        {
            "id": 132984,
            "original_name": "The Complaints Department",
            "popularity": 4.262
        },
        {
            "id": 136237,
            "original_name": "La Independecia",
            "popularity": 1.4
        },
        {
            "id": 138056,
            "original_name": "Miss Independent Ji Eun 2",
            "popularity": 0.6
        },
        {
            "id": 152665,
            "original_name": "The American Revolution: One Nation's Rise to Independence",
            "popularity": 0.0
        }
    ],
    "relations": [
        {
            "character": "depa"
        },
        {
            "character": "depo"
        },
        {
            "character": "depe"
        },
        {
            "character": "depu"
        },
        {
            "character": "depr"
        },
        {
            "character": "dept"
        },
        {
            "character": "depl"
        }
    ],
    "top20": [
        {
            "id": 13778,
            "original_name": "The Deputy",
            "popularity": 17.9
        },
        {
            "id": 89498,
            "original_name": "Deputy",
            "popularity": 14.313
        },
        {
            "id": 91552,
            "original_name": "Departure",
            "popularity": 12.232
        },
        {
            "id": 14976,
            "original_name": "Independent Lens",
            "popularity": 9.947
        },
        {
            "id": 983,
            "original_name": "Department S",
            "popularity": 8.403
        },
        {
            "id": 8040,
            "original_name": "Departures",
            "popularity": 4.732
        },
        {
            "id": 132984,
            "original_name": "The Complaints Department",
            "popularity": 4.262
        },
        {
            "id": 71779,
            "original_name": "Independent Focus",
            "popularity": 3.143
        },
        {
            "id": 43989,
            "original_name": "The Girl's Guide to Depravity",
            "popularity": 3.062
        },
        {
            "id": 124451,
            "original_name": "A Vida Depois do Tombo",
            "popularity": 1.941
        },
        {
            "id": 23467,
            "original_name": "Nearly Departed",
            "popularity": 1.723
        },
        {
            "id": 121270,
            "original_name": "La Red Deportes",
            "popularity": 1.485
        },
        {
            "id": 98028,
            "original_name": "Russell Peters: Deported",
            "popularity": 1.4
        },
        {
            "id": 114640,
            "original_name": "Hundepatruljen Oslo",
            "popularity": 1.4
        },
        {
            "id": 136237,
            "original_name": "La Independecia",
            "popularity": 1.4
        },
        {
            "id": 24403,
            "original_name": "renegadepress.com",
            "popularity": 1.358
        },
        {
            "id": 57364,
            "original_name": "L.A.P.D.: Lekanopedio Attikis Police Department",
            "popularity": 0.963
        },
        {
            "id": 104880,
            "original_name": "Hawks and Doves: The Crown and Ireland's War of Independence",
            "popularity": 0.84
        },
        {
            "id": 35160,
            "original_name": "Stephen Fry: The Secret Life of the Manic Depressive",
            "popularity": 0.652
        },
        {
            "id": 20390,
            "original_name": "Calucci's Department",
            "popularity": 0.64
        }
    ]
}