{
    "data": [
        {
            "id": 983,
            "original_name": "Department S",
            "popularity": 8.403
        },
        {
            "id": 8040,
            "original_name": "Departures",
            "popularity": 4.732
        },
        {
            "id": 12460,
            "original_name": "Not My Department",
            "popularity": 0.6
        },
        {
            "id": 16083,
            "original_name": "Departure Lounge",
            "popularity": 0.6
        },
        {
            "id": 20390,
            "original_name": "Calucci's Department",
            "popularity": 0.64
        },
        {
            "id": 22717,
            "original_name": "The Pet Department",
            "popularity": 0.6
        },
        {
            "id": 23467,
            "original_name": "Nearly Departed",
            "popularity": 1.723
        },
        {
            "id": 24096,
            "original_name": "The Department Store",
            "popularity": 0.6
        },
        {
            "id": 38835,
            "original_name": "Hundepatruljen",
            "popularity": 0.6
        },
        {
            "id": 40220,
            "original_name": "Departed Heroes",
            "popularity": 0.6
        },
        {
            "id": 44239,
            "original_name": "Telling Stories with Tomie dePaola",
            "popularity": 0.6
        },
        {
            "id": 56086,
            "original_name": "Departure from Oil - Energy for the Future",
            "popularity": 0.6
        },
        {
            "id": 57364,
            "original_name": "L.A.P.D.: Lekanopedio Attikis Police Department",
            "popularity": 0.963
        },
        {
            "id": 82711,
            "original_name": "Bondeparet",
            "popularity": 0.6
        },
        {
            "id": 91552,
            "original_name": "Departure",
            "popularity": 12.232
        },
        {
            "id": 114206,
            "original_name": "The Train Now Departing",
            "popularity": 0.6
        },
        {
            "id": 114640,
            "original_name": "Hundepatruljen Oslo",
            "popularity": 1.4
        },
        {
            "id": 129390,
            "original_name": "Fairy Tale Police Department",
            "popularity": 0.6
        },
        {
            "id": 132984,
            "original_name": "The Complaints Department",
            "popularity": 4.262
        }
    ],
    "relations": [],
    "top20": [
        {
            "id": 983,
            "original_name": "Department S",
            "popularity": 8.403
        },
        {
            "id": 8040,
            "original_name": "Departures",
            "popularity": 4.732
        },
        {
            "id": 12460,
            "original_name": "Not My Department",
            "popularity": 0.6
        },
        {
            "id": 16083,
            "original_name": "Departure Lounge",
            "popularity": 0.6
        },
        {
            "id": 20390,
            "original_name": "Calucci's Department",
            "popularity": 0.64
        },
        {
            "id": 22717,
            "original_name": "The Pet Department",
            "popularity": 0.6
        },
        {
            "id": 23467,
            "original_name": "Nearly Departed",
            "popularity": 1.723
        },
        {
            "id": 24096,
            "original_name": "The Department Store",
            "popularity": 0.6
        },
        {
            "id": 38835,
            "original_name": "Hundepatruljen",
            "popularity": 0.6
        },
        {
            "id": 40220,
            "original_name": "Departed Heroes",
            "popularity": 0.6
        },
        {
            "id": 44239,
            "original_name": "Telling Stories with Tomie dePaola",
            "popularity": 0.6
        },
        {
            "id": 56086,
            "original_name": "Departure from Oil - Energy for the Future",
            "popularity": 0.6
        },
        {
            "id": 57364,
            "original_name": "L.A.P.D.: Lekanopedio Attikis Police Department",
            "popularity": 0.963
        },
        {
            "id": 82711,
            "original_name": "Bondeparet",
            "popularity": 0.6
        },
        {
            "id": 91552,
            "original_name": "Departure",
            "popularity": 12.232
        },
        {
            "id": 114206,
            "original_name": "The Train Now Departing",
            "popularity": 0.6
        },
        {
            "id": 114640,
            "original_name": "Hundepatruljen Oslo",
            "popularity": 1.4
        },
        {
            "id": 129390,
            "original_name": "Fairy Tale Police Department",
            "popularity": 0.6
        },
        {
            "id": 132984,
            "original_name": "The Complaints Department",
            "popularity": 4.262
        }
    ]
}