{
    "data": [
        {
            "id": 4218,
            "original_name": "Engaged and Underage",
            "popularity": 0.872
        },
        {
            "id": 26442,
            "original_name": "Underage and Pregnant",
            "popularity": 0.918
        }
    ],
    "relations": [],
    "top20": [
        {
            "id": 4218,
            "original_name": "Engaged and Underage",
            "popularity": 0.872
        },
        {
            "id": 26442,
            "original_name": "Underage and Pregnant",
            "popularity": 0.918
        }
    ]
}