{
    "data": [
        {
            "id": 1851,
            "original_name": "The Underground",
            "popularity": 0.924
        },
        {
            "id": 3732,
            "original_name": "Bunker, or Learning Underground",
            "popularity": 0.6
        },
        {
            "id": 3900,
            "original_name": "Underground Ernie",
            "popularity": 0.638
        },
        {
            "id": 11409,
            "original_name": "TCM Underground",
            "popularity": 0.6
        },
        {
            "id": 18507,
            "original_name": "G4 Underground",
            "popularity": 0.6
        },
        {
            "id": 20992,
            "original_name": "Sonic Underground",
            "popularity": 10.511
        },
        {
            "id": 21130,
            "original_name": "Movie Underground",
            "popularity": 0.6
        },
        {
            "id": 29726,
            "original_name": "London Underground",
            "popularity": 0.6
        },
        {
            "id": 36976,
            "original_name": "Underground War",
            "popularity": 0.6
        },
        {
            "id": 37563,
            "original_name": "Major League Wrestling: Underground TV",
            "popularity": 0.6
        },
        {
            "id": 42683,
            "original_name": "S.O.U.L. - Sounds of Underground London",
            "popularity": 0.6
        },
        {
            "id": 55568,
            "original_name": "Swampy s Underground Adventures",
            "popularity": 0.6
        },
        {
            "id": 58059,
            "original_name": "Underground",
            "popularity": 0.6
        },
        {
            "id": 61058,
            "original_name": "The Underground Kings",
            "popularity": 0.932
        },
        {
            "id": 61657,
            "original_name": "Bluegrass Underground",
            "popularity": 2.49
        },
        {
            "id": 61928,
            "original_name": "Lucha Underground",
            "popularity": 5.249
        },
        {
            "id": 64150,
            "original_name": "Underground",
            "popularity": 8.744
        },
        {
            "id": 64964,
            "original_name": "Comedy Underground with Dave Attell",
            "popularity": 0.6
        },
        {
            "id": 65045,
            "original_name": "Chrome Underground",
            "popularity": 0.6
        },
        {
            "id": 70258,
            "original_name": "Secrets of the Underground",
            "popularity": 0.675
        },
        {
            "id": 70970,
            "original_name": "Inside the Tube: Going Underground",
            "popularity": 0.6
        },
        {
            "id": 73760,
            "original_name": "Monsters Underground",
            "popularity": 0.626
        },
        {
            "id": 77796,
            "original_name": "Secret Life Underground",
            "popularity": 0.6
        },
        {
            "id": 80039,
            "original_name": "The Underground Railroad",
            "popularity": 9.097
        },
        {
            "id": 83157,
            "original_name": "The Tube: Going Underground",
            "popularity": 0.725
        },
        {
            "id": 84697,
            "original_name": "The Under Undergrounds",
            "popularity": 0.6
        },
        {
            "id": 94186,
            "original_name": "Underground Marvels",
            "popularity": 2.327
        },
        {
            "id": 108862,
            "original_name": "Where's My Water?: Swampy's Underground Adventures",
            "popularity": 1.14
        },
        {
            "id": 113223,
            "original_name": "Rap Trip: Underground Scenes Uncovered",
            "popularity": 0.6
        },
        {
            "id": 119241,
            "original_name": "The Underground World",
            "popularity": 0.6
        },
        {
            "id": 119776,
            "original_name": "The Great Underground War",
            "popularity": 0.6
        },
        {
            "id": 123457,
            "original_name": "Secrets of the London Underground",
            "popularity": 8.539
        },
        {
            "id": 129764,
            "original_name": "Underground Britain",
            "popularity": 0.6
        },
        {
            "id": 134734,
            "original_name": "Underground Worlds",
            "popularity": 0.6
        },
        {
            "id": 146161,
            "original_name": "The Secrets of Underground Britain",
            "popularity": 0.6
        }
    ],
    "relations": [
        {
            "character": "dergrounds"
        }
    ],
    "top20": [
        {
            "id": 20992,
            "original_name": "Sonic Underground",
            "popularity": 10.511
        },
        {
            "id": 80039,
            "original_name": "The Underground Railroad",
            "popularity": 9.097
        },
        {
            "id": 64150,
            "original_name": "Underground",
            "popularity": 8.744
        },
        {
            "id": 123457,
            "original_name": "Secrets of the London Underground",
            "popularity": 8.539
        },
        {
            "id": 61928,
            "original_name": "Lucha Underground",
            "popularity": 5.249
        },
        {
            "id": 61657,
            "original_name": "Bluegrass Underground",
            "popularity": 2.49
        },
        {
            "id": 94186,
            "original_name": "Underground Marvels",
            "popularity": 2.327
        },
        {
            "id": 108862,
            "original_name": "Where's My Water?: Swampy's Underground Adventures",
            "popularity": 1.14
        },
        {
            "id": 61058,
            "original_name": "The Underground Kings",
            "popularity": 0.932
        },
        {
            "id": 1851,
            "original_name": "The Underground",
            "popularity": 0.924
        },
        {
            "id": 83157,
            "original_name": "The Tube: Going Underground",
            "popularity": 0.725
        },
        {
            "id": 70258,
            "original_name": "Secrets of the Underground",
            "popularity": 0.675
        },
        {
            "id": 3900,
            "original_name": "Underground Ernie",
            "popularity": 0.638
        },
        {
            "id": 73760,
            "original_name": "Monsters Underground",
            "popularity": 0.626
        },
        {
            "id": 29726,
            "original_name": "London Underground",
            "popularity": 0.6
        },
        {
            "id": 3732,
            "original_name": "Bunker, or Learning Underground",
            "popularity": 0.6
        },
        {
            "id": 11409,
            "original_name": "TCM Underground",
            "popularity": 0.6
        },
        {
            "id": 21130,
            "original_name": "Movie Underground",
            "popularity": 0.6
        },
        {
            "id": 36976,
            "original_name": "Underground War",
            "popularity": 0.6
        },
        {
            "id": 18507,
            "original_name": "G4 Underground",
            "popularity": 0.6
        }
    ]
}