{
    "data": [
        {
            "id": 86964,
            "original_name": "Supernatural GenderSWAP",
            "popularity": 0.6
        },
        {
            "id": 115219,
            "original_name": "Grenzlichter - Kontakt zur Anderswelt",
            "popularity": 0.6
        }
    ],
    "relations": [],
    "top20": [
        {
            "id": 86964,
            "original_name": "Supernatural GenderSWAP",
            "popularity": 0.6
        },
        {
            "id": 115219,
            "original_name": "Grenzlichter - Kontakt zur Anderswelt",
            "popularity": 0.6
        }
    ]
}