{
    "data": [
        {
            "id": 16143,
            "original_name": "El Desprecio",
            "popularity": 0.6
        },
        {
            "id": 121079,
            "original_name": "Pierre Desproges, les bons conseils du Professeur Corbiniou",
            "popularity": 0.6
        }
    ],
    "relations": [],
    "top20": [
        {
            "id": 16143,
            "original_name": "El Desprecio",
            "popularity": 0.6
        },
        {
            "id": 121079,
            "original_name": "Pierre Desproges, les bons conseils du Professeur Corbiniou",
            "popularity": 0.6
        }
    ]
}