{
    "data": [
        {
            "id": 4706,
            "original_name": "Destination Truth",
            "popularity": 3.207
        },
        {
            "id": 16203,
            "original_name": "Dream Destinations",
            "popularity": 0.6
        },
        {
            "id": 16362,
            "original_name": "Bikini Destinations",
            "popularity": 1.282
        },
        {
            "id": 16662,
            "original_name": "Destination New Zealand",
            "popularity": 0.6
        },
        {
            "id": 24836,
            "original_name": "Destination 25",
            "popularity": 0.6
        },
        {
            "id": 26061,
            "original_name": "Destination Stardom",
            "popularity": 0.627
        },
        {
            "id": 28402,
            "original_name": "Destination Tennis",
            "popularity": 0.6
        },
        {
            "id": 43383,
            "original_name": "Destination America",
            "popularity": 0.6
        },
        {
            "id": 53440,
            "original_name": "Destination Flavour",
            "popularity": 0.6
        },
        {
            "id": 57801,
            "original_name": "Destination Polaris",
            "popularity": 0.6
        },
        {
            "id": 58777,
            "original_name": "Destination Fear",
            "popularity": 8.618
        },
        {
            "id": 59995,
            "original_name": "Destination Flavour Japan",
            "popularity": 0.6
        },
        {
            "id": 62991,
            "original_name": "Bizarre Foods: Delicious Destinations",
            "popularity": 3.121
        },
        {
            "id": 66086,
            "original_name": "Destination Flavour Scandinavia",
            "popularity": 0.6
        },
        {
            "id": 69585,
            "original_name": "Destination Flavour Singapore",
            "popularity": 0.6
        },
        {
            "id": 75272,
            "original_name": "D\u00e9fil\u00e9 du P\u00e8re-No\u00ebl - Destination Centre-ville",
            "popularity": 0.6
        },
        {
            "id": 77761,
            "original_name": "Destination: Jupiter",
            "popularity": 0.6
        },
        {
            "id": 77807,
            "original_name": "Destination Mars",
            "popularity": 0.6
        },
        {
            "id": 77874,
            "original_name": "Destination: Pluto",
            "popularity": 0.6
        },
        {
            "id": 77915,
            "original_name": "Destination: Moon",
            "popularity": 0.6
        },
        {
            "id": 88875,
            "original_name": "Destination jardin avec Guillaume",
            "popularity": 0.6
        },
        {
            "id": 89006,
            "original_name": "Destination cauchemar",
            "popularity": 0.6
        },
        {
            "id": 99421,
            "original_name": "Classical Destinations",
            "popularity": 1.4
        },
        {
            "id": 106077,
            "original_name": "Dark Destinations",
            "popularity": 0.6
        },
        {
            "id": 106146,
            "original_name": "Destination World",
            "popularity": 0.604
        },
        {
            "id": 113203,
            "original_name": "Destination Extreme",
            "popularity": 0.6
        },
        {
            "id": 117778,
            "original_name": "Destination Flavour Down Under",
            "popularity": 0.6
        },
        {
            "id": 127172,
            "original_name": "The 48 Hour Destination",
            "popularity": 0.6
        },
        {
            "id": 130529,
            "original_name": "Australia's Deadliest Destinations",
            "popularity": 0.6
        },
        {
            "id": 131793,
            "original_name": "Krolop & Gerst - Destination",
            "popularity": 0.6
        },
        {
            "id": 136442,
            "original_name": "Destination Wild : Hawa\u00ef a l'\u00e9tat sauvage",
            "popularity": 0.6
        },
        {
            "id": 136565,
            "original_name": "Fiskedestination",
            "popularity": 0.6
        },
        {
            "id": 138386,
            "original_name": "Beverley and Jordan: Destination Wedding",
            "popularity": 1.401
        }
    ],
    "relations": [
        {
            "character": "destinatio"
        }
    ],
    "top20": [
        {
            "id": 58777,
            "original_name": "Destination Fear",
            "popularity": 8.618
        },
        {
            "id": 4706,
            "original_name": "Destination Truth",
            "popularity": 3.207
        },
        {
            "id": 62991,
            "original_name": "Bizarre Foods: Delicious Destinations",
            "popularity": 3.121
        },
        {
            "id": 138386,
            "original_name": "Beverley and Jordan: Destination Wedding",
            "popularity": 1.401
        },
        {
            "id": 99421,
            "original_name": "Classical Destinations",
            "popularity": 1.4
        },
        {
            "id": 16362,
            "original_name": "Bikini Destinations",
            "popularity": 1.282
        },
        {
            "id": 26061,
            "original_name": "Destination Stardom",
            "popularity": 0.627
        },
        {
            "id": 106146,
            "original_name": "Destination World",
            "popularity": 0.604
        },
        {
            "id": 24836,
            "original_name": "Destination 25",
            "popularity": 0.6
        },
        {
            "id": 16662,
            "original_name": "Destination New Zealand",
            "popularity": 0.6
        },
        {
            "id": 75272,
            "original_name": "D\u00e9fil\u00e9 du P\u00e8re-No\u00ebl - Destination Centre-ville",
            "popularity": 0.6
        },
        {
            "id": 43383,
            "original_name": "Destination America",
            "popularity": 0.6
        },
        {
            "id": 57801,
            "original_name": "Destination Polaris",
            "popularity": 0.6
        },
        {
            "id": 28402,
            "original_name": "Destination Tennis",
            "popularity": 0.6
        },
        {
            "id": 69585,
            "original_name": "Destination Flavour Singapore",
            "popularity": 0.6
        },
        {
            "id": 77761,
            "original_name": "Destination: Jupiter",
            "popularity": 0.6
        },
        {
            "id": 66086,
            "original_name": "Destination Flavour Scandinavia",
            "popularity": 0.6
        },
        {
            "id": 59995,
            "original_name": "Destination Flavour Japan",
            "popularity": 0.6
        },
        {
            "id": 16203,
            "original_name": "Dream Destinations",
            "popularity": 0.6
        },
        {
            "id": 53440,
            "original_name": "Destination Flavour",
            "popularity": 0.6
        }
    ]
}