{
    "data": [
        {
            "id": 23624,
            "original_name": "Celebrity Daredevils",
            "popularity": 0.997
        },
        {
            "id": 30037,
            "original_name": "The Old Devils",
            "popularity": 0.6
        },
        {
            "id": 35124,
            "original_name": "Daredevils",
            "popularity": 0.6
        },
        {
            "id": 72419,
            "original_name": "The Devils Ride",
            "popularity": 0.6
        },
        {
            "id": 99741,
            "original_name": "Devils",
            "popularity": 16.758
        },
        {
            "id": 131913,
            "original_name": "Devilsdorp",
            "popularity": 0.6
        }
    ],
    "relations": [],
    "top20": [
        {
            "id": 23624,
            "original_name": "Celebrity Daredevils",
            "popularity": 0.997
        },
        {
            "id": 30037,
            "original_name": "The Old Devils",
            "popularity": 0.6
        },
        {
            "id": 35124,
            "original_name": "Daredevils",
            "popularity": 0.6
        },
        {
            "id": 72419,
            "original_name": "The Devils Ride",
            "popularity": 0.6
        },
        {
            "id": 99741,
            "original_name": "Devils",
            "popularity": 16.758
        },
        {
            "id": 131913,
            "original_name": "Devilsdorp",
            "popularity": 0.6
        }
    ]
}