{
    "data": [
        {
            "id": 38954,
            "original_name": "Navya..Naye Dhadkan Naye Sawaal",
            "popularity": 0.6
        },
        {
            "id": 57762,
            "original_name": "Dhadkan",
            "popularity": 1.09
        },
        {
            "id": 99228,
            "original_name": "Dil Jaise Dhadke... Dhadakne Do",
            "popularity": 1.4
        }
    ],
    "relations": [],
    "top20": [
        {
            "id": 38954,
            "original_name": "Navya..Naye Dhadkan Naye Sawaal",
            "popularity": 0.6
        },
        {
            "id": 57762,
            "original_name": "Dhadkan",
            "popularity": 1.09
        },
        {
            "id": 99228,
            "original_name": "Dil Jaise Dhadke... Dhadakne Do",
            "popularity": 1.4
        }
    ]
}