{
    "data": [
        {
            "id": 29529,
            "original_name": "Redhanded",
            "popularity": 0.6
        },
        {
            "id": 99351,
            "original_name": "Kaale Dhande",
            "popularity": 1.848
        }
    ],
    "relations": [],
    "top20": [
        {
            "id": 29529,
            "original_name": "Redhanded",
            "popularity": 0.6
        },
        {
            "id": 99351,
            "original_name": "Kaale Dhande",
            "popularity": 1.848
        }
    ]
}