{
    "data": [
        {
            "id": 5570,
            "original_name": "Ek Se Badhkar Ek",
            "popularity": 0.6
        }
    ],
    "relations": [],
    "top20": [
        {
            "id": 5570,
            "original_name": "Ek Se Badhkar Ek",
            "popularity": 0.6
        }
    ]
}