{
    "data": [
        {
            "id": 50920,
            "original_name": "Folytassa, Claudia!",
            "popularity": 0.6
        }
    ],
    "relations": [],
    "top20": [
        {
            "id": 50920,
            "original_name": "Folytassa, Claudia!",
            "popularity": 0.6
        }
    ]
}