{
    "data": [
        {
            "id": 15489,
            "original_name": "Al diablo con los guapos",
            "popularity": 9.647
        },
        {
            "id": 15838,
            "original_name": "\u00bfPor Qu\u00e9 Diablos?",
            "popularity": 0.6
        },
        {
            "id": 17008,
            "original_name": "\u00bfPor qu\u00e9 diablos?",
            "popularity": 0.6
        },
        {
            "id": 17638,
            "original_name": "M\u00e1s Sabe el Diablo",
            "popularity": 7.972
        },
        {
            "id": 32585,
            "original_name": "Pobre Diabla",
            "popularity": 1.765
        },
        {
            "id": 39486,
            "original_name": "Pobre Diabla",
            "popularity": 2.069
        },
        {
            "id": 58347,
            "original_name": "Diablo Guardi\u00e1n",
            "popularity": 21.89
        },
        {
            "id": 58931,
            "original_name": "Santa Diabla",
            "popularity": 5.364
        },
        {
            "id": 70323,
            "original_name": "Le lot du diable",
            "popularity": 0.694
        },
        {
            "id": 83300,
            "original_name": "Diablero",
            "popularity": 12.829
        },
        {
            "id": 98778,
            "original_name": "Gorri le diable",
            "popularity": 0.605
        },
        {
            "id": 99186,
            "original_name": "Ce diable d'homme",
            "popularity": 1.471
        },
        {
            "id": 102082,
            "original_name": "Les P'tits Diables",
            "popularity": 0.6
        },
        {
            "id": 102691,
            "original_name": "L'Or du diable",
            "popularity": 0.6
        },
        {
            "id": 105801,
            "original_name": "La Esquina Del Diablo",
            "popularity": 4.256
        },
        {
            "id": 106759,
            "original_name": "Un diablo con \u00e1ngel",
            "popularity": 2.861
        },
        {
            "id": 133009,
            "original_name": "Face au Diable",
            "popularity": 0.6
        }
    ],
    "relations": [],
    "top20": [
        {
            "id": 15489,
            "original_name": "Al diablo con los guapos",
            "popularity": 9.647
        },
        {
            "id": 15838,
            "original_name": "\u00bfPor Qu\u00e9 Diablos?",
            "popularity": 0.6
        },
        {
            "id": 17008,
            "original_name": "\u00bfPor qu\u00e9 diablos?",
            "popularity": 0.6
        },
        {
            "id": 17638,
            "original_name": "M\u00e1s Sabe el Diablo",
            "popularity": 7.972
        },
        {
            "id": 32585,
            "original_name": "Pobre Diabla",
            "popularity": 1.765
        },
        {
            "id": 39486,
            "original_name": "Pobre Diabla",
            "popularity": 2.069
        },
        {
            "id": 58347,
            "original_name": "Diablo Guardi\u00e1n",
            "popularity": 21.89
        },
        {
            "id": 58931,
            "original_name": "Santa Diabla",
            "popularity": 5.364
        },
        {
            "id": 70323,
            "original_name": "Le lot du diable",
            "popularity": 0.694
        },
        {
            "id": 83300,
            "original_name": "Diablero",
            "popularity": 12.829
        },
        {
            "id": 98778,
            "original_name": "Gorri le diable",
            "popularity": 0.605
        },
        {
            "id": 99186,
            "original_name": "Ce diable d'homme",
            "popularity": 1.471
        },
        {
            "id": 102082,
            "original_name": "Les P'tits Diables",
            "popularity": 0.6
        },
        {
            "id": 102691,
            "original_name": "L'Or du diable",
            "popularity": 0.6
        },
        {
            "id": 105801,
            "original_name": "La Esquina Del Diablo",
            "popularity": 4.256
        },
        {
            "id": 106759,
            "original_name": "Un diablo con \u00e1ngel",
            "popularity": 2.861
        },
        {
            "id": 133009,
            "original_name": "Face au Diable",
            "popularity": 0.6
        }
    ]
}