{
    "data": [
        {
            "id": 16242,
            "original_name": "Bandidas",
            "popularity": 0.6
        },
        {
            "id": 58742,
            "original_name": "Las Bandidas",
            "popularity": 0.6
        },
        {
            "id": 60003,
            "original_name": "Almas Perdidas",
            "popularity": 1.544
        },
        {
            "id": 75359,
            "original_name": "Im\u00e1genes perdidas",
            "popularity": 0.6
        },
        {
            "id": 92285,
            "original_name": "Las bombas perdidas de la Guerra Fr\u00eda",
            "popularity": 0.6
        },
        {
            "id": 95006,
            "original_name": "Las Ilusiones Perdidas",
            "popularity": 0.628
        },
        {
            "id": 103956,
            "original_name": "Olimpiadas a escondidas",
            "popularity": 0.6
        },
        {
            "id": 107537,
            "original_name": "Balas perdidas",
            "popularity": 1.172
        },
        {
            "id": 120700,
            "original_name": "Las pir\u00e1mides perdidas de los aztecas",
            "popularity": 0.6
        }
    ],
    "relations": [],
    "top20": [
        {
            "id": 16242,
            "original_name": "Bandidas",
            "popularity": 0.6
        },
        {
            "id": 58742,
            "original_name": "Las Bandidas",
            "popularity": 0.6
        },
        {
            "id": 60003,
            "original_name": "Almas Perdidas",
            "popularity": 1.544
        },
        {
            "id": 75359,
            "original_name": "Im\u00e1genes perdidas",
            "popularity": 0.6
        },
        {
            "id": 92285,
            "original_name": "Las bombas perdidas de la Guerra Fr\u00eda",
            "popularity": 0.6
        },
        {
            "id": 95006,
            "original_name": "Las Ilusiones Perdidas",
            "popularity": 0.628
        },
        {
            "id": 103956,
            "original_name": "Olimpiadas a escondidas",
            "popularity": 0.6
        },
        {
            "id": 107537,
            "original_name": "Balas perdidas",
            "popularity": 1.172
        },
        {
            "id": 120700,
            "original_name": "Las pir\u00e1mides perdidas de los aztecas",
            "popularity": 0.6
        }
    ]
}