{
    "data": [
        {
            "id": 41142,
            "original_name": "Nicht von dieser Welt",
            "popularity": 0.6
        },
        {
            "id": 41201,
            "original_name": "Diese Drombuschs",
            "popularity": 3.824
        },
        {
            "id": 60777,
            "original_name": "Oh, dieser Vater",
            "popularity": 0.626
        },
        {
            "id": 63320,
            "original_name": "Alles Gl\u00fcck dieser Erde",
            "popularity": 0.963
        },
        {
            "id": 63936,
            "original_name": "Liebt diese Erde",
            "popularity": 0.6
        },
        {
            "id": 64528,
            "original_name": "Das Gl\u00fcck dieser Erde",
            "popularity": 0.77
        },
        {
            "id": 65623,
            "original_name": "Diesel Brothers",
            "popularity": 3.258
        },
        {
            "id": 69636,
            "original_name": "Die neuen Paradiese",
            "popularity": 0.6
        },
        {
            "id": 70373,
            "original_name": "Dieselr\u00e5ttor och Sj\u00f6mansm\u00f6ss",
            "popularity": 0.728
        },
        {
            "id": 88655,
            "original_name": "Sel et diesel",
            "popularity": 0.621
        },
        {
            "id": 91207,
            "original_name": "Naturparadiese mit Zukunft",
            "popularity": 0.6
        },
        {
            "id": 99068,
            "original_name": "Paradise Now - Der Kampf um unsere letzten Paradiese",
            "popularity": 0.6
        },
        {
            "id": 118666,
            "original_name": "Diese Kaminskis",
            "popularity": 0.6
        }
    ],
    "relations": [],
    "top20": [
        {
            "id": 41142,
            "original_name": "Nicht von dieser Welt",
            "popularity": 0.6
        },
        {
            "id": 41201,
            "original_name": "Diese Drombuschs",
            "popularity": 3.824
        },
        {
            "id": 60777,
            "original_name": "Oh, dieser Vater",
            "popularity": 0.626
        },
        {
            "id": 63320,
            "original_name": "Alles Gl\u00fcck dieser Erde",
            "popularity": 0.963
        },
        {
            "id": 63936,
            "original_name": "Liebt diese Erde",
            "popularity": 0.6
        },
        {
            "id": 64528,
            "original_name": "Das Gl\u00fcck dieser Erde",
            "popularity": 0.77
        },
        {
            "id": 65623,
            "original_name": "Diesel Brothers",
            "popularity": 3.258
        },
        {
            "id": 69636,
            "original_name": "Die neuen Paradiese",
            "popularity": 0.6
        },
        {
            "id": 70373,
            "original_name": "Dieselr\u00e5ttor och Sj\u00f6mansm\u00f6ss",
            "popularity": 0.728
        },
        {
            "id": 88655,
            "original_name": "Sel et diesel",
            "popularity": 0.621
        },
        {
            "id": 91207,
            "original_name": "Naturparadiese mit Zukunft",
            "popularity": 0.6
        },
        {
            "id": 99068,
            "original_name": "Paradise Now - Der Kampf um unsere letzten Paradiese",
            "popularity": 0.6
        },
        {
            "id": 118666,
            "original_name": "Diese Kaminskis",
            "popularity": 0.6
        }
    ]
}