{
    "data": [
        {
            "id": 30564,
            "original_name": "Piccadilly Palace",
            "popularity": 0.6
        },
        {
            "id": 55004,
            "original_name": "Piccadilly Circus",
            "popularity": 0.6
        }
    ],
    "relations": [],
    "top20": [
        {
            "id": 30564,
            "original_name": "Piccadilly Palace",
            "popularity": 0.6
        },
        {
            "id": 55004,
            "original_name": "Piccadilly Circus",
            "popularity": 0.6
        }
    ]
}