{
    "data": [
        {
            "id": 121511,
            "original_name": "Beni Kendimden Koru",
            "popularity": 0.6
        }
    ],
    "relations": [],
    "top20": [
        {
            "id": 121511,
            "original_name": "Beni Kendimden Koru",
            "popularity": 0.6
        }
    ]
}