{
    "data": [
        {
            "id": 122004,
            "original_name": "Cronache dal Medioevo",
            "popularity": 0.6
        }
    ],
    "relations": [],
    "top20": [
        {
            "id": 122004,
            "original_name": "Cronache dal Medioevo",
            "popularity": 0.6
        }
    ]
}