{
    "data": [
        {
            "id": 88560,
            "original_name": "Carandiru, Outras Hist\u00f3rias",
            "popularity": 0.878
        }
    ],
    "relations": [],
    "top20": [
        {
            "id": 88560,
            "original_name": "Carandiru, Outras Hist\u00f3rias",
            "popularity": 0.878
        }
    ]
}