{
    "data": [
        {
            "id": 11207,
            "original_name": "Medivac",
            "popularity": 1.876
        },
        {
            "id": 101883,
            "original_name": "Hermanos y Enemigos (Petrovic y Divac)",
            "popularity": 0.6
        }
    ],
    "relations": [],
    "top20": [
        {
            "id": 11207,
            "original_name": "Medivac",
            "popularity": 1.876
        },
        {
            "id": 101883,
            "original_name": "Hermanos y Enemigos (Petrovic y Divac)",
            "popularity": 0.6
        }
    ]
}