{
    "data": [
        {
            "id": 83838,
            "original_name": "Kr\u00f3l przedmie\u015bcia",
            "popularity": 0.6
        },
        {
            "id": 83839,
            "original_name": "Kr\u00f3l przedmie\u015bcia",
            "popularity": 0.6
        },
        {
            "id": 119048,
            "original_name": "Kr\u00f3lowie \u015br\u00f3dmie\u015bcia",
            "popularity": 0.6
        }
    ],
    "relations": [],
    "top20": [
        {
            "id": 83838,
            "original_name": "Kr\u00f3l przedmie\u015bcia",
            "popularity": 0.6
        },
        {
            "id": 83839,
            "original_name": "Kr\u00f3l przedmie\u015bcia",
            "popularity": 0.6
        },
        {
            "id": 119048,
            "original_name": "Kr\u00f3lowie \u015br\u00f3dmie\u015bcia",
            "popularity": 0.6
        }
    ]
}