{
    "data": [
        {
            "id": 1753,
            "original_name": "Goodness Gracious Me",
            "popularity": 1.469
        },
        {
            "id": 2993,
            "original_name": "Wednesday Night Hoops",
            "popularity": 0.6
        },
        {
            "id": 4247,
            "original_name": "Midnight Money Madness",
            "popularity": 1.342
        },
        {
            "id": 4664,
            "original_name": "Wednesday Night Baseball",
            "popularity": 0.6
        },
        {
            "id": 9036,
            "original_name": "Motor Madness",
            "popularity": 0.6
        },
        {
            "id": 10855,
            "original_name": "NBA Wednesday",
            "popularity": 0.6
        },
        {
            "id": 11303,
            "original_name": "The Wednesday Play",
            "popularity": 11.37
        },
        {
            "id": 12321,
            "original_name": "Wednesday 9:30 (8:30 Central)",
            "popularity": 2.359
        },
        {
            "id": 14863,
            "original_name": "Dick Clark's LIVE Wednesday",
            "popularity": 0.6
        },
        {
            "id": 21814,
            "original_name": "Ad Madness",
            "popularity": 0.6
        },
        {
            "id": 23518,
            "original_name": "Chip and Pepper's Cartoon Madness",
            "popularity": 0.6
        },
        {
            "id": 26720,
            "original_name": "Relative Madness",
            "popularity": 0.6
        },
        {
            "id": 27249,
            "original_name": "The Wednesday Thriller",
            "popularity": 0.6
        },
        {
            "id": 30509,
            "original_name": "The Madness of Modern Families",
            "popularity": 0.655
        },
        {
            "id": 30548,
            "original_name": "Nutcracker: Money, Madness & Murder",
            "popularity": 1.434
        },
        {
            "id": 31206,
            "original_name": "Cinemassacre's Monster Madness",
            "popularity": 1.4
        },
        {
            "id": 38730,
            "original_name": "Madness in the White City",
            "popularity": 0.6
        },
        {
            "id": 40003,
            "original_name": "Seduced by Madness",
            "popularity": 0.6
        },
        {
            "id": 48098,
            "original_name": "A Little Madness",
            "popularity": 0.6
        },
        {
            "id": 54470,
            "original_name": "Acorn Madness Fanon: Ultimate Unleashed",
            "popularity": 0.6
        },
        {
            "id": 59339,
            "original_name": "Wednesday's Child",
            "popularity": 0.6
        },
        {
            "id": 65009,
            "original_name": "Shear Madness",
            "popularity": 0.6
        },
        {
            "id": 65530,
            "original_name": "Gonzaga: The March to Madness",
            "popularity": 0.6
        },
        {
            "id": 67330,
            "original_name": "Any Given Wednesday with Bill Simmons",
            "popularity": 1.036
        },
        {
            "id": 70707,
            "original_name": "Bunkers Brutalism and Bloodymindedness",
            "popularity": 0.6
        },
        {
            "id": 82253,
            "original_name": "Madness",
            "popularity": 0.665
        },
        {
            "id": 83990,
            "original_name": "The Kindness Diaries",
            "popularity": 0.6
        },
        {
            "id": 88917,
            "original_name": "Cosentino: The Magic, The Mystery, The Madness",
            "popularity": 0.6
        },
        {
            "id": 91754,
            "original_name": "Dnes v jednom dom\u011b",
            "popularity": 0.716
        },
        {
            "id": 92552,
            "original_name": "Adult Wednesday",
            "popularity": 0.695
        },
        {
            "id": 101018,
            "original_name": "Wednesday Addiction",
            "popularity": 0.6
        },
        {
            "id": 107281,
            "original_name": "Midnight Madness",
            "popularity": 0.62
        },
        {
            "id": 119051,
            "original_name": "Wednesday",
            "popularity": 3.384
        },
        {
            "id": 120895,
            "original_name": "Dnes uv\u00e1d\u00ed...",
            "popularity": 0.6
        },
        {
            "id": 124042,
            "original_name": "Before We Was We: Madness by Madness",
            "popularity": 0.84
        },
        {
            "id": 125991,
            "original_name": "Hello, Jack! The Kindness Show",
            "popularity": 12.963
        },
        {
            "id": 129354,
            "original_name": "UConn: The March to Madness",
            "popularity": 0.6
        },
        {
            "id": 137512,
            "original_name": "Bunkers, Brutalism and Bloodymindedness: Concrete Poetry with Jonathan Meades",
            "popularity": 0.6
        }
    ],
    "relations": [
        {
            "character": "dness"
        },
        {
            "character": "dnesd"
        }
    ],
    "top20": [
        {
            "id": 125991,
            "original_name": "Hello, Jack! The Kindness Show",
            "popularity": 12.963
        },
        {
            "id": 11303,
            "original_name": "The Wednesday Play",
            "popularity": 11.37
        },
        {
            "id": 119051,
            "original_name": "Wednesday",
            "popularity": 3.384
        },
        {
            "id": 12321,
            "original_name": "Wednesday 9:30 (8:30 Central)",
            "popularity": 2.359
        },
        {
            "id": 1753,
            "original_name": "Goodness Gracious Me",
            "popularity": 1.469
        },
        {
            "id": 30548,
            "original_name": "Nutcracker: Money, Madness & Murder",
            "popularity": 1.434
        },
        {
            "id": 31206,
            "original_name": "Cinemassacre's Monster Madness",
            "popularity": 1.4
        },
        {
            "id": 4247,
            "original_name": "Midnight Money Madness",
            "popularity": 1.342
        },
        {
            "id": 67330,
            "original_name": "Any Given Wednesday with Bill Simmons",
            "popularity": 1.036
        },
        {
            "id": 124042,
            "original_name": "Before We Was We: Madness by Madness",
            "popularity": 0.84
        },
        {
            "id": 91754,
            "original_name": "Dnes v jednom dom\u011b",
            "popularity": 0.716
        },
        {
            "id": 92552,
            "original_name": "Adult Wednesday",
            "popularity": 0.695
        },
        {
            "id": 82253,
            "original_name": "Madness",
            "popularity": 0.665
        },
        {
            "id": 30509,
            "original_name": "The Madness of Modern Families",
            "popularity": 0.655
        },
        {
            "id": 107281,
            "original_name": "Midnight Madness",
            "popularity": 0.62
        },
        {
            "id": 2993,
            "original_name": "Wednesday Night Hoops",
            "popularity": 0.6
        },
        {
            "id": 10855,
            "original_name": "NBA Wednesday",
            "popularity": 0.6
        },
        {
            "id": 9036,
            "original_name": "Motor Madness",
            "popularity": 0.6
        },
        {
            "id": 14863,
            "original_name": "Dick Clark's LIVE Wednesday",
            "popularity": 0.6
        },
        {
            "id": 4664,
            "original_name": "Wednesday Night Baseball",
            "popularity": 0.6
        }
    ]
}