{
    "data": [
        {
            "id": 130074,
            "original_name": "Dr. Death: The Undoctored Story",
            "popularity": 1.822
        }
    ],
    "relations": [],
    "top20": [
        {
            "id": 130074,
            "original_name": "Dr. Death: The Undoctored Story",
            "popularity": 1.822
        }
    ]
}