{
    "data": [
        {
            "id": 93723,
            "original_name": "Living Undocumented",
            "popularity": 2.106
        }
    ],
    "relations": [],
    "top20": [
        {
            "id": 93723,
            "original_name": "Living Undocumented",
            "popularity": 2.106
        }
    ]
}