{
    "data": [
        {
            "id": 54081,
            "original_name": "Naar  w Dokhan",
            "popularity": 0.6
        },
        {
            "id": 60063,
            "original_name": "Paridokht",
            "popularity": 0.6
        },
        {
            "id": 99097,
            "original_name": "Dokhtare Safir",
            "popularity": 0.6
        }
    ],
    "relations": [],
    "top20": [
        {
            "id": 54081,
            "original_name": "Naar  w Dokhan",
            "popularity": 0.6
        },
        {
            "id": 60063,
            "original_name": "Paridokht",
            "popularity": 0.6
        },
        {
            "id": 99097,
            "original_name": "Dokhtare Safir",
            "popularity": 0.6
        }
    ]
}