{
    "data": [
        {
            "id": 99662,
            "original_name": "L'oeuvre d'un homme...qu'ossa donne?",
            "popularity": 0.6
        }
    ],
    "relations": [],
    "top20": [
        {
            "id": 99662,
            "original_name": "L'oeuvre d'un homme...qu'ossa donne?",
            "popularity": 0.6
        }
    ]
}