{
    "data": [
        {
            "id": 88884,
            "original_name": "Dossiers OVNI - Secrets & R\u00e9alit\u00e9s",
            "popularity": 0.841
        },
        {
            "id": 96194,
            "original_name": "Les dossiers de J\u00e9r\u00f4me Randax",
            "popularity": 0.6
        },
        {
            "id": 98781,
            "original_name": "Les dossiers secrets du nazisme",
            "popularity": 0.6
        },
        {
            "id": 101681,
            "original_name": "Les Dossiers de Maitre Robineau",
            "popularity": 0.6
        },
        {
            "id": 103131,
            "original_name": "Dossiers Criminels",
            "popularity": 1.334
        },
        {
            "id": 103815,
            "original_name": "Dossiers Surnaturels",
            "popularity": 0.6
        },
        {
            "id": 104916,
            "original_name": "Les Dossiers de l'inspecteur Lavardin",
            "popularity": 0.84
        },
        {
            "id": 107457,
            "original_name": "Les faits Karl Z\u00e9ro-Les dossiers Karl Z\u00e9ro",
            "popularity": 2.856
        },
        {
            "id": 111646,
            "original_name": "Dossiers Bigfoot",
            "popularity": 0.6
        },
        {
            "id": 117718,
            "original_name": "Les Dossiers de l'Agence O",
            "popularity": 1.21
        },
        {
            "id": 119704,
            "original_name": "Les dossiers secrets du Vatican",
            "popularity": 0.6
        }
    ],
    "relations": [],
    "top20": [
        {
            "id": 88884,
            "original_name": "Dossiers OVNI - Secrets & R\u00e9alit\u00e9s",
            "popularity": 0.841
        },
        {
            "id": 96194,
            "original_name": "Les dossiers de J\u00e9r\u00f4me Randax",
            "popularity": 0.6
        },
        {
            "id": 98781,
            "original_name": "Les dossiers secrets du nazisme",
            "popularity": 0.6
        },
        {
            "id": 101681,
            "original_name": "Les Dossiers de Maitre Robineau",
            "popularity": 0.6
        },
        {
            "id": 103131,
            "original_name": "Dossiers Criminels",
            "popularity": 1.334
        },
        {
            "id": 103815,
            "original_name": "Dossiers Surnaturels",
            "popularity": 0.6
        },
        {
            "id": 104916,
            "original_name": "Les Dossiers de l'inspecteur Lavardin",
            "popularity": 0.84
        },
        {
            "id": 107457,
            "original_name": "Les faits Karl Z\u00e9ro-Les dossiers Karl Z\u00e9ro",
            "popularity": 2.856
        },
        {
            "id": 111646,
            "original_name": "Dossiers Bigfoot",
            "popularity": 0.6
        },
        {
            "id": 117718,
            "original_name": "Les Dossiers de l'Agence O",
            "popularity": 1.21
        },
        {
            "id": 119704,
            "original_name": "Les dossiers secrets du Vatican",
            "popularity": 0.6
        }
    ]
}