{
    "data": [
        {
            "id": 18896,
            "original_name": "Body Doubles: The Twin Experience",
            "popularity": 0.6
        },
        {
            "id": 28943,
            "original_name": "Comedy Doubles",
            "popularity": 0.6
        },
        {
            "id": 35303,
            "original_name": "Dance India Dance Doubles",
            "popularity": 0.6
        },
        {
            "id": 37958,
            "original_name": "Doubles Poker Championship",
            "popularity": 0.6
        },
        {
            "id": 88281,
            "original_name": "Agents doubles",
            "popularity": 0.6
        }
    ],
    "relations": [],
    "top20": [
        {
            "id": 18896,
            "original_name": "Body Doubles: The Twin Experience",
            "popularity": 0.6
        },
        {
            "id": 28943,
            "original_name": "Comedy Doubles",
            "popularity": 0.6
        },
        {
            "id": 35303,
            "original_name": "Dance India Dance Doubles",
            "popularity": 0.6
        },
        {
            "id": 37958,
            "original_name": "Doubles Poker Championship",
            "popularity": 0.6
        },
        {
            "id": 88281,
            "original_name": "Agents doubles",
            "popularity": 0.6
        }
    ]
}