{
    "data": [
        {
            "id": 20020,
            "original_name": "Doubletake",
            "popularity": 0.6
        }
    ],
    "relations": [],
    "top20": [
        {
            "id": 20020,
            "original_name": "Doubletake",
            "popularity": 0.6
        }
    ]
}