{
    "data": [
        {
            "id": 2845,
            "original_name": "Shadows",
            "popularity": 0.6
        },
        {
            "id": 2883,
            "original_name": "Dark Shadows",
            "popularity": 37.884
        },
        {
            "id": 3361,
            "original_name": "Widows",
            "popularity": 5.791
        },
        {
            "id": 9528,
            "original_name": "Shadows",
            "popularity": 1.719
        },
        {
            "id": 14742,
            "original_name": "Stained Glass Windows",
            "popularity": 0.6
        },
        {
            "id": 16434,
            "original_name": "Magic Shadows",
            "popularity": 0.6
        },
        {
            "id": 16934,
            "original_name": "Dark Shadows",
            "popularity": 5.014
        },
        {
            "id": 19984,
            "original_name": "Depression: Out of the Shadows",
            "popularity": 0.6
        },
        {
            "id": 20349,
            "original_name": "Golden Windows",
            "popularity": 1.082
        },
        {
            "id": 24185,
            "original_name": "Windows",
            "popularity": 0.903
        },
        {
            "id": 26269,
            "original_name": "Winning Widows",
            "popularity": 0.6
        },
        {
            "id": 28670,
            "original_name": "Shadows of Fear",
            "popularity": 1.055
        },
        {
            "id": 29563,
            "original_name": "Floors, Doors & Windows",
            "popularity": 0.6
        },
        {
            "id": 33280,
            "original_name": "Picture Windows",
            "popularity": 0.6
        },
        {
            "id": 60343,
            "original_name": "Spruce Meadows: BMO Nations' Cup",
            "popularity": 0.6
        },
        {
            "id": 61299,
            "original_name": "Chasing Shadows",
            "popularity": 3.704
        },
        {
            "id": 64538,
            "original_name": "Shadows of the Heart",
            "popularity": 0.6
        },
        {
            "id": 68681,
            "original_name": "Black Widows",
            "popularity": 5.017
        },
        {
            "id": 75577,
            "original_name": "Life with Judy Garland: Me and My Shadows",
            "popularity": 4.722
        },
        {
            "id": 83631,
            "original_name": "What We Do in the Shadows",
            "popularity": 33.94
        },
        {
            "id": 92129,
            "original_name": "The Shadows of Death",
            "popularity": 0.611
        },
        {
            "id": 93453,
            "original_name": "Dark Shadows: Reincarnation",
            "popularity": 1.34
        },
        {
            "id": 100996,
            "original_name": "Windows Server 2016 course",
            "popularity": 0.618
        },
        {
            "id": 105521,
            "original_name": "Breathe: Into the Shadows",
            "popularity": 4.632
        },
        {
            "id": 112535,
            "original_name": "Evil Lives Here: Shadows Of Death",
            "popularity": 1.96
        },
        {
            "id": 114766,
            "original_name": "Black Widows",
            "popularity": 6.835
        },
        {
            "id": 132185,
            "original_name": "Monster in the Shadows",
            "popularity": 0.6
        }
    ],
    "relations": [],
    "top20": [
        {
            "id": 2883,
            "original_name": "Dark Shadows",
            "popularity": 37.884
        },
        {
            "id": 83631,
            "original_name": "What We Do in the Shadows",
            "popularity": 33.94
        },
        {
            "id": 114766,
            "original_name": "Black Widows",
            "popularity": 6.835
        },
        {
            "id": 3361,
            "original_name": "Widows",
            "popularity": 5.791
        },
        {
            "id": 68681,
            "original_name": "Black Widows",
            "popularity": 5.017
        },
        {
            "id": 16934,
            "original_name": "Dark Shadows",
            "popularity": 5.014
        },
        {
            "id": 75577,
            "original_name": "Life with Judy Garland: Me and My Shadows",
            "popularity": 4.722
        },
        {
            "id": 105521,
            "original_name": "Breathe: Into the Shadows",
            "popularity": 4.632
        },
        {
            "id": 61299,
            "original_name": "Chasing Shadows",
            "popularity": 3.704
        },
        {
            "id": 112535,
            "original_name": "Evil Lives Here: Shadows Of Death",
            "popularity": 1.96
        },
        {
            "id": 9528,
            "original_name": "Shadows",
            "popularity": 1.719
        },
        {
            "id": 93453,
            "original_name": "Dark Shadows: Reincarnation",
            "popularity": 1.34
        },
        {
            "id": 20349,
            "original_name": "Golden Windows",
            "popularity": 1.082
        },
        {
            "id": 28670,
            "original_name": "Shadows of Fear",
            "popularity": 1.055
        },
        {
            "id": 24185,
            "original_name": "Windows",
            "popularity": 0.903
        },
        {
            "id": 100996,
            "original_name": "Windows Server 2016 course",
            "popularity": 0.618
        },
        {
            "id": 92129,
            "original_name": "The Shadows of Death",
            "popularity": 0.611
        },
        {
            "id": 14742,
            "original_name": "Stained Glass Windows",
            "popularity": 0.6
        },
        {
            "id": 16434,
            "original_name": "Magic Shadows",
            "popularity": 0.6
        },
        {
            "id": 2845,
            "original_name": "Shadows",
            "popularity": 0.6
        }
    ]
}