{
    "data": [
        {
            "id": 100946,
            "original_name": "\u00a1Qu\u00e9 madre, tan padre!",
            "popularity": 0.6
        }
    ],
    "relations": [],
    "top20": [
        {
            "id": 100946,
            "original_name": "\u00a1Qu\u00e9 madre, tan padre!",
            "popularity": 0.6
        }
    ]
}