{
    "data": [
        {
            "id": 27111,
            "original_name": "The National Lottery Dreamworld",
            "popularity": 1.091
        },
        {
            "id": 44305,
            "original_name": "DreamWorks Dragons",
            "popularity": 49.912
        },
        {
            "id": 103598,
            "original_name": "Dreamwrecks",
            "popularity": 0.6
        },
        {
            "id": 105102,
            "original_name": "Dreamworks Spooky Stories",
            "popularity": 0.641
        },
        {
            "id": 120280,
            "original_name": "DreamWorks Spooky Stories Volume 2",
            "popularity": 1.379
        }
    ],
    "relations": [],
    "top20": [
        {
            "id": 27111,
            "original_name": "The National Lottery Dreamworld",
            "popularity": 1.091
        },
        {
            "id": 44305,
            "original_name": "DreamWorks Dragons",
            "popularity": 49.912
        },
        {
            "id": 103598,
            "original_name": "Dreamwrecks",
            "popularity": 0.6
        },
        {
            "id": 105102,
            "original_name": "Dreamworks Spooky Stories",
            "popularity": 0.641
        },
        {
            "id": 120280,
            "original_name": "DreamWorks Spooky Stories Volume 2",
            "popularity": 1.379
        }
    ]
}