{
    "data": [
        {
            "id": 108401,
            "original_name": "Stadtgespr\u00e4ch",
            "popularity": 0.881
        },
        {
            "id": 121305,
            "original_name": "Stadtgespr\u00e4ch",
            "popularity": 0.6
        }
    ],
    "relations": [],
    "top20": [
        {
            "id": 108401,
            "original_name": "Stadtgespr\u00e4ch",
            "popularity": 0.881
        },
        {
            "id": 121305,
            "original_name": "Stadtgespr\u00e4ch",
            "popularity": 0.6
        }
    ]
}