{
    "data": [
        {
            "id": 5682,
            "original_name": "Roadtrip Nation",
            "popularity": 0.874
        },
        {
            "id": 27576,
            "original_name": "RV Roadtrips",
            "popularity": 0.6
        },
        {
            "id": 27586,
            "original_name": "On Record: The Soundtrack of Our Lives",
            "popularity": 0.6
        },
        {
            "id": 40758,
            "original_name": "Gro\u00dfstadtrevier",
            "popularity": 28.044
        },
        {
            "id": 55602,
            "original_name": "Heiter bis t\u00f6dlich - Hauptstadtrevier",
            "popularity": 2.801
        },
        {
            "id": 56281,
            "original_name": "Sadtroo Koo Kwan",
            "popularity": 0.6
        },
        {
            "id": 71204,
            "original_name": "Soundtracks: Songs That Defined History",
            "popularity": 2.142
        },
        {
            "id": 96095,
            "original_name": "Soundtrack",
            "popularity": 7.429
        },
        {
            "id": 104712,
            "original_name": "Men in Kilts: A Roadtrip with Sam and Graham",
            "popularity": 3.859
        },
        {
            "id": 112862,
            "original_name": "Foodtruck gezocht",
            "popularity": 0.6
        },
        {
            "id": 114167,
            "original_name": "Roadtrippers",
            "popularity": 0.783
        },
        {
            "id": 127281,
            "original_name": "DR2 Soundtrack",
            "popularity": 0.6
        },
        {
            "id": 137524,
            "original_name": "Roadtrip Cura\u00e7ao",
            "popularity": 2.318
        }
    ],
    "relations": [],
    "top20": [
        {
            "id": 5682,
            "original_name": "Roadtrip Nation",
            "popularity": 0.874
        },
        {
            "id": 27576,
            "original_name": "RV Roadtrips",
            "popularity": 0.6
        },
        {
            "id": 27586,
            "original_name": "On Record: The Soundtrack of Our Lives",
            "popularity": 0.6
        },
        {
            "id": 40758,
            "original_name": "Gro\u00dfstadtrevier",
            "popularity": 28.044
        },
        {
            "id": 55602,
            "original_name": "Heiter bis t\u00f6dlich - Hauptstadtrevier",
            "popularity": 2.801
        },
        {
            "id": 56281,
            "original_name": "Sadtroo Koo Kwan",
            "popularity": 0.6
        },
        {
            "id": 71204,
            "original_name": "Soundtracks: Songs That Defined History",
            "popularity": 2.142
        },
        {
            "id": 96095,
            "original_name": "Soundtrack",
            "popularity": 7.429
        },
        {
            "id": 104712,
            "original_name": "Men in Kilts: A Roadtrip with Sam and Graham",
            "popularity": 3.859
        },
        {
            "id": 112862,
            "original_name": "Foodtruck gezocht",
            "popularity": 0.6
        },
        {
            "id": 114167,
            "original_name": "Roadtrippers",
            "popularity": 0.783
        },
        {
            "id": 127281,
            "original_name": "DR2 Soundtrack",
            "popularity": 0.6
        },
        {
            "id": 137524,
            "original_name": "Roadtrip Cura\u00e7ao",
            "popularity": 2.318
        }
    ]
}