{
    "data": [
        {
            "id": 720,
            "original_name": "DuckTales",
            "popularity": 33.731
        },
        {
            "id": 72350,
            "original_name": "DuckTales",
            "popularity": 26.043
        }
    ],
    "relations": [],
    "top20": [
        {
            "id": 720,
            "original_name": "DuckTales",
            "popularity": 33.731
        },
        {
            "id": 72350,
            "original_name": "DuckTales",
            "popularity": 26.043
        }
    ]
}