{
    "data": [
        {
            "id": 1491,
            "original_name": "Dumbo's Circus",
            "popularity": 3.552
        },
        {
            "id": 2169,
            "original_name": "Dumber & Dumberest",
            "popularity": 0.6
        },
        {
            "id": 5195,
            "original_name": "DumbLand",
            "popularity": 3.786
        },
        {
            "id": 7651,
            "original_name": "World's Dumbest...",
            "popularity": 0.84
        },
        {
            "id": 7972,
            "original_name": "Dumb and Dumber",
            "popularity": 4.158
        },
        {
            "id": 12411,
            "original_name": "America's Dumbest Criminals",
            "popularity": 0.68
        },
        {
            "id": 25681,
            "original_name": "40 Dumbest Celebrity Quotes... Ever",
            "popularity": 0.6
        },
        {
            "id": 27804,
            "original_name": "Dumb Bunnies",
            "popularity": 0.6
        },
        {
            "id": 28622,
            "original_name": "Young, Dumb And Living Off Mum",
            "popularity": 0.6
        },
        {
            "id": 34459,
            "original_name": "Young, Dumb and Living Off Mum",
            "popularity": 0.6
        },
        {
            "id": 55393,
            "original_name": "Dumb, Drunk & Racist",
            "popularity": 0.6
        },
        {
            "id": 72479,
            "original_name": "Zombie Dumb",
            "popularity": 1.487
        },
        {
            "id": 72867,
            "original_name": "Dumbest Stuff on Wheels",
            "popularity": 1.238
        },
        {
            "id": 92491,
            "original_name": "Young Dumb and Banged Up in the Sun",
            "popularity": 0.6
        },
        {
            "id": 94591,
            "original_name": "Dumbotz",
            "popularity": 0.6
        },
        {
            "id": 95138,
            "original_name": "wonderdumb",
            "popularity": 0.6
        }
    ],
    "relations": [],
    "top20": [
        {
            "id": 1491,
            "original_name": "Dumbo's Circus",
            "popularity": 3.552
        },
        {
            "id": 2169,
            "original_name": "Dumber & Dumberest",
            "popularity": 0.6
        },
        {
            "id": 5195,
            "original_name": "DumbLand",
            "popularity": 3.786
        },
        {
            "id": 7651,
            "original_name": "World's Dumbest...",
            "popularity": 0.84
        },
        {
            "id": 7972,
            "original_name": "Dumb and Dumber",
            "popularity": 4.158
        },
        {
            "id": 12411,
            "original_name": "America's Dumbest Criminals",
            "popularity": 0.68
        },
        {
            "id": 25681,
            "original_name": "40 Dumbest Celebrity Quotes... Ever",
            "popularity": 0.6
        },
        {
            "id": 27804,
            "original_name": "Dumb Bunnies",
            "popularity": 0.6
        },
        {
            "id": 28622,
            "original_name": "Young, Dumb And Living Off Mum",
            "popularity": 0.6
        },
        {
            "id": 34459,
            "original_name": "Young, Dumb and Living Off Mum",
            "popularity": 0.6
        },
        {
            "id": 55393,
            "original_name": "Dumb, Drunk & Racist",
            "popularity": 0.6
        },
        {
            "id": 72479,
            "original_name": "Zombie Dumb",
            "popularity": 1.487
        },
        {
            "id": 72867,
            "original_name": "Dumbest Stuff on Wheels",
            "popularity": 1.238
        },
        {
            "id": 92491,
            "original_name": "Young Dumb and Banged Up in the Sun",
            "popularity": 0.6
        },
        {
            "id": 94591,
            "original_name": "Dumbotz",
            "popularity": 0.6
        },
        {
            "id": 95138,
            "original_name": "wonderdumb",
            "popularity": 0.6
        }
    ]
}