{
    "data": [
        {
            "id": 122047,
            "original_name": "Opa Popa Dupa",
            "popularity": 0.6
        }
    ],
    "relations": [],
    "top20": [
        {
            "id": 122047,
            "original_name": "Opa Popa Dupa",
            "popularity": 0.6
        }
    ]
}