{
    "data": [
        {
            "id": 18021,
            "original_name": "The DuPont Show with June Allyson",
            "popularity": 5.482
        },
        {
            "id": 18899,
            "original_name": "The DuPont Show of the Week",
            "popularity": 0.852
        },
        {
            "id": 21309,
            "original_name": "DuPont Show of the Month",
            "popularity": 1.745
        },
        {
            "id": 124784,
            "original_name": "Dupont de Ligonn\u00e8s, la s\u00e9rie",
            "popularity": 1.4
        }
    ],
    "relations": [],
    "top20": [
        {
            "id": 18021,
            "original_name": "The DuPont Show with June Allyson",
            "popularity": 5.482
        },
        {
            "id": 18899,
            "original_name": "The DuPont Show of the Week",
            "popularity": 0.852
        },
        {
            "id": 21309,
            "original_name": "DuPont Show of the Month",
            "popularity": 1.745
        },
        {
            "id": 124784,
            "original_name": "Dupont de Ligonn\u00e8s, la s\u00e9rie",
            "popularity": 1.4
        }
    ]
}