{
    "data": [
        {
            "id": 36608,
            "original_name": "Ab Durch die Wand",
            "popularity": 0.6
        },
        {
            "id": 36811,
            "original_name": "Stefanie \u2013 Eine Frau startet durch",
            "popularity": 1.099
        },
        {
            "id": 40906,
            "original_name": "Durch die Nacht mit \u2026",
            "popularity": 6.508
        },
        {
            "id": 60965,
            "original_name": "Durchreise \u2013 Die Geschichte einer Firma",
            "popularity": 1.44
        },
        {
            "id": 67582,
            "original_name": "Durch die Wildnis \u2013 Das Abenteuer Deines Lebens",
            "popularity": 0.6
        },
        {
            "id": 81441,
            "original_name": "Mit dem Zug durch ...",
            "popularity": 1.296
        },
        {
            "id": 81812,
            "original_name": "Halt durch, Paul",
            "popularity": 1.102
        },
        {
            "id": 95669,
            "original_name": "Eye TV - der durchgeknallte Puppensender",
            "popularity": 0.6
        },
        {
            "id": 99067,
            "original_name": "Barfu\u00df durch die H\u00f6lle",
            "popularity": 0.6
        },
        {
            "id": 106007,
            "original_name": "Quer... durch die Woche",
            "popularity": 1.82
        },
        {
            "id": 109596,
            "original_name": "Mit Arved Fuchs durch den Nordatlantik",
            "popularity": 0.6
        },
        {
            "id": 114710,
            "original_name": "Knallhart Durchgenommen",
            "popularity": 0.6
        },
        {
            "id": 116262,
            "original_name": "Mit Bock durchs Land",
            "popularity": 1.48
        },
        {
            "id": 116519,
            "original_name": "Die Yottas! \u2013 Mit Vollgas durch Amerika",
            "popularity": 0.6
        },
        {
            "id": 118902,
            "original_name": "Mit dem Zug quer durch Australien",
            "popularity": 0.6
        },
        {
            "id": 118911,
            "original_name": "Auf schmaler Spur durch Indien",
            "popularity": 0.6
        }
    ],
    "relations": [],
    "top20": [
        {
            "id": 36608,
            "original_name": "Ab Durch die Wand",
            "popularity": 0.6
        },
        {
            "id": 36811,
            "original_name": "Stefanie \u2013 Eine Frau startet durch",
            "popularity": 1.099
        },
        {
            "id": 40906,
            "original_name": "Durch die Nacht mit \u2026",
            "popularity": 6.508
        },
        {
            "id": 60965,
            "original_name": "Durchreise \u2013 Die Geschichte einer Firma",
            "popularity": 1.44
        },
        {
            "id": 67582,
            "original_name": "Durch die Wildnis \u2013 Das Abenteuer Deines Lebens",
            "popularity": 0.6
        },
        {
            "id": 81441,
            "original_name": "Mit dem Zug durch ...",
            "popularity": 1.296
        },
        {
            "id": 81812,
            "original_name": "Halt durch, Paul",
            "popularity": 1.102
        },
        {
            "id": 95669,
            "original_name": "Eye TV - der durchgeknallte Puppensender",
            "popularity": 0.6
        },
        {
            "id": 99067,
            "original_name": "Barfu\u00df durch die H\u00f6lle",
            "popularity": 0.6
        },
        {
            "id": 106007,
            "original_name": "Quer... durch die Woche",
            "popularity": 1.82
        },
        {
            "id": 109596,
            "original_name": "Mit Arved Fuchs durch den Nordatlantik",
            "popularity": 0.6
        },
        {
            "id": 114710,
            "original_name": "Knallhart Durchgenommen",
            "popularity": 0.6
        },
        {
            "id": 116262,
            "original_name": "Mit Bock durchs Land",
            "popularity": 1.48
        },
        {
            "id": 116519,
            "original_name": "Die Yottas! \u2013 Mit Vollgas durch Amerika",
            "popularity": 0.6
        },
        {
            "id": 118902,
            "original_name": "Mit dem Zug quer durch Australien",
            "popularity": 0.6
        },
        {
            "id": 118911,
            "original_name": "Auf schmaler Spur durch Indien",
            "popularity": 0.6
        }
    ]
}