{
    "data": [
        {
            "id": 101065,
            "original_name": "Durmiendo con mi Jefe",
            "popularity": 0.6
        }
    ],
    "relations": [],
    "top20": [
        {
            "id": 101065,
            "original_name": "Durmiendo con mi Jefe",
            "popularity": 0.6
        }
    ]
}