{
    "data": [
        {
            "id": 60626,
            "original_name": "From Dusk Till Dawn: The Series",
            "popularity": 23.156
        },
        {
            "id": 124011,
            "original_name": "Dawn to dusk",
            "popularity": 0.6
        }
    ],
    "relations": [],
    "top20": [
        {
            "id": 60626,
            "original_name": "From Dusk Till Dawn: The Series",
            "popularity": 23.156
        },
        {
            "id": 124011,
            "original_name": "Dawn to dusk",
            "popularity": 0.6
        }
    ]
}