{
    "data": [
        {
            "id": 17414,
            "original_name": "DVD_TV",
            "popularity": 0.6
        },
        {
            "id": 17752,
            "original_name": "DVD on TV",
            "popularity": 0.6
        },
        {
            "id": 20292,
            "original_name": "DVD Show",
            "popularity": 0.6
        },
        {
            "id": 65311,
            "original_name": "\ud551\ud06c\ud401 \ub3d9\uc694\u00b7\ub3d9\ud654 DVD",
            "popularity": 0.6
        },
        {
            "id": 84623,
            "original_name": "Hofi T\u00fckre (DVD)",
            "popularity": 0.6
        },
        {
            "id": 87622,
            "original_name": "DVD Lunnis",
            "popularity": 0.6
        },
        {
            "id": 90975,
            "original_name": "MOTIVE DVD",
            "popularity": 0.6
        },
        {
            "id": 134042,
            "original_name": "\u6b66\u5a9a\u5a18\u4f20\u5947\uff08DVD\u7248\uff09",
            "popularity": 0.6
        },
        {
            "id": 137680,
            "original_name": "\u4e8c\u5341\u4e0d\u60d1\uff08DVD\u7248\uff09",
            "popularity": 0.6
        },
        {
            "id": 137792,
            "original_name": "\u7b11\u50b2\u6c5f\u6e56\uff082013.DVD\u7248-42\u96c6\uff09",
            "popularity": 1.4
        },
        {
            "id": 138522,
            "original_name": "\u8fde\u57ce\u8bc0\uff08DVD\u7248-33\u96c6\uff09",
            "popularity": 0.6
        }
    ],
    "relations": [],
    "top20": [
        {
            "id": 17414,
            "original_name": "DVD_TV",
            "popularity": 0.6
        },
        {
            "id": 17752,
            "original_name": "DVD on TV",
            "popularity": 0.6
        },
        {
            "id": 20292,
            "original_name": "DVD Show",
            "popularity": 0.6
        },
        {
            "id": 65311,
            "original_name": "\ud551\ud06c\ud401 \ub3d9\uc694\u00b7\ub3d9\ud654 DVD",
            "popularity": 0.6
        },
        {
            "id": 84623,
            "original_name": "Hofi T\u00fckre (DVD)",
            "popularity": 0.6
        },
        {
            "id": 87622,
            "original_name": "DVD Lunnis",
            "popularity": 0.6
        },
        {
            "id": 90975,
            "original_name": "MOTIVE DVD",
            "popularity": 0.6
        },
        {
            "id": 134042,
            "original_name": "\u6b66\u5a9a\u5a18\u4f20\u5947\uff08DVD\u7248\uff09",
            "popularity": 0.6
        },
        {
            "id": 137680,
            "original_name": "\u4e8c\u5341\u4e0d\u60d1\uff08DVD\u7248\uff09",
            "popularity": 0.6
        },
        {
            "id": 137792,
            "original_name": "\u7b11\u50b2\u6c5f\u6e56\uff082013.DVD\u7248-42\u96c6\uff09",
            "popularity": 1.4
        },
        {
            "id": 138522,
            "original_name": "\u8fde\u57ce\u8bc0\uff08DVD\u7248-33\u96c6\uff09",
            "popularity": 0.6
        }
    ]
}