{
    "data": [
        {
            "id": 132651,
            "original_name": "Hoodvlogs",
            "popularity": 0.649
        }
    ],
    "relations": [],
    "top20": [
        {
            "id": 132651,
            "original_name": "Hoodvlogs",
            "popularity": 0.649
        }
    ]
}