{
    "data": [
        {
            "id": 105040,
            "original_name": "Odysso - Wissen entdecken",
            "popularity": 1.493
        }
    ],
    "relations": [],
    "top20": [
        {
            "id": 105040,
            "original_name": "Odysso - Wissen entdecken",
            "popularity": 1.493
        }
    ]
}