{
    "data": [
        {
            "id": 10981,
            "original_name": "Stoppit and Tidyup",
            "popularity": 0.6
        }
    ],
    "relations": [],
    "top20": [
        {
            "id": 10981,
            "original_name": "Stoppit and Tidyup",
            "popularity": 0.6
        }
    ]
}