{
    "data": [
        {
            "id": 47879,
            "original_name": "Samochodzik i templariusze",
            "popularity": 1.966
        },
        {
            "id": 48085,
            "original_name": "Dziki 2: Pojedynek",
            "popularity": 0.6
        },
        {
            "id": 48506,
            "original_name": "Dziki",
            "popularity": 0.6
        },
        {
            "id": 95155,
            "original_name": "Pan Samochodzik i Templariusze",
            "popularity": 0.6
        }
    ],
    "relations": [],
    "top20": [
        {
            "id": 47879,
            "original_name": "Samochodzik i templariusze",
            "popularity": 1.966
        },
        {
            "id": 48085,
            "original_name": "Dziki 2: Pojedynek",
            "popularity": 0.6
        },
        {
            "id": 48506,
            "original_name": "Dziki",
            "popularity": 0.6
        },
        {
            "id": 95155,
            "original_name": "Pan Samochodzik i Templariusze",
            "popularity": 0.6
        }
    ]
}