{
    "data": [
        {
            "id": 71267,
            "original_name": "\u306f\u3074\u307e\u308a\u301cHappy Marriage!?\u301c",
            "popularity": 1.122
        }
    ],
    "relations": [],
    "top20": [
        {
            "id": 71267,
            "original_name": "\u306f\u3074\u307e\u308a\u301cHappy Marriage!?\u301c",
            "popularity": 1.122
        }
    ]
}