{
    "data": [
        {
            "id": 68225,
            "original_name": "Bajillion Dollar Propertie$",
            "popularity": 2.92
        },
        {
            "id": 14678,
            "original_name": "Amne$ia",
            "popularity": 1.176
        },
        {
            "id": 99284,
            "original_name": "Nikki Fre$h",
            "popularity": 1.164
        },
        {
            "id": 156560,
            "original_name": "FRANGINE$",
            "popularity": 0.0
        }
    ],
    "relations": [],
    "top20": [
        {
            "id": 68225,
            "original_name": "Bajillion Dollar Propertie$",
            "popularity": 2.92
        },
        {
            "id": 14678,
            "original_name": "Amne$ia",
            "popularity": 1.176
        },
        {
            "id": 99284,
            "original_name": "Nikki Fre$h",
            "popularity": 1.164
        },
        {
            "id": 156560,
            "original_name": "FRANGINE$",
            "popularity": 0.0
        }
    ]
}