{
    "data": [
        {
            "id": 2612,
            "original_name": "Deadliest Catch",
            "popularity": 19.297
        },
        {
            "id": 16721,
            "original_name": "Danny Dyer's Deadliest Men",
            "popularity": 1.202
        },
        {
            "id": 17731,
            "original_name": "Ocean's Deadliest",
            "popularity": 0.6
        },
        {
            "id": 18545,
            "original_name": "Deadliest Warrior",
            "popularity": 2.895
        },
        {
            "id": 22874,
            "original_name": "America's Deadliest Season",
            "popularity": 0.6
        },
        {
            "id": 35729,
            "original_name": "IRT Deadliest Roads",
            "popularity": 1.4
        },
        {
            "id": 36196,
            "original_name": "World's Deadliest",
            "popularity": 0.6
        },
        {
            "id": 38572,
            "original_name": "World's Deadliest Towns",
            "popularity": 0.6
        },
        {
            "id": 55672,
            "original_name": "Deadliest Tech",
            "popularity": 0.6
        },
        {
            "id": 55674,
            "original_name": "Deadliest Space Weather",
            "popularity": 0.84
        },
        {
            "id": 58196,
            "original_name": "Deadliest Sea",
            "popularity": 0.6
        },
        {
            "id": 60916,
            "original_name": "Deadliest Catch: On Deck",
            "popularity": 0.843
        },
        {
            "id": 60963,
            "original_name": "Deadliest Catch: The Bait",
            "popularity": 0.6
        },
        {
            "id": 61478,
            "original_name": "Africa's Deadliest",
            "popularity": 1.481
        },
        {
            "id": 65913,
            "original_name": "Deadliest Job Interview",
            "popularity": 0.6
        },
        {
            "id": 67469,
            "original_name": "Deadliest Catch Dungeon Cove",
            "popularity": 1.401
        },
        {
            "id": 69056,
            "original_name": "The 1980s: The Deadliest Decade",
            "popularity": 1.805
        },
        {
            "id": 93236,
            "original_name": "Deadliest Journeys",
            "popularity": 0.6
        },
        {
            "id": 94171,
            "original_name": "The World's Deadliest Weather",
            "popularity": 0.6
        },
        {
            "id": 101872,
            "original_name": "Deadliest Catch: Bloodline",
            "popularity": 1.415
        },
        {
            "id": 105776,
            "original_name": "The 1990s: The Deadliest Decade",
            "popularity": 0.682
        },
        {
            "id": 113008,
            "original_name": "Top Ten Deadliest Beasts",
            "popularity": 0.6
        },
        {
            "id": 113061,
            "original_name": "Britain's Deadliest Kids",
            "popularity": 0.6
        },
        {
            "id": 115835,
            "original_name": "Alaska's Deadliest",
            "popularity": 0.6
        },
        {
            "id": 117659,
            "original_name": "Britain's Deadliest Lovers",
            "popularity": 0.6
        },
        {
            "id": 120804,
            "original_name": "World's Deadliest Animals",
            "popularity": 0.6
        },
        {
            "id": 126931,
            "original_name": "Drugs Inc.: World\u2019s Deadliest Drugs",
            "popularity": 0.6
        },
        {
            "id": 130026,
            "original_name": "Deadliest Pests Down Under",
            "popularity": 0.6
        },
        {
            "id": 130529,
            "original_name": "Australia's Deadliest Destinations",
            "popularity": 0.6
        },
        {
            "id": 131658,
            "original_name": "World's Deadliest: Jaws & Sins",
            "popularity": 0.6
        },
        {
            "id": 134097,
            "original_name": "World's Deadliest Snakes",
            "popularity": 0.6
        },
        {
            "id": 137037,
            "original_name": "Asia's Deadliest Snakes",
            "popularity": 0.6
        }
    ],
    "relations": [
        {
            "character": "eadliest"
        }
    ],
    "top20": [
        {
            "id": 2612,
            "original_name": "Deadliest Catch",
            "popularity": 19.297
        },
        {
            "id": 18545,
            "original_name": "Deadliest Warrior",
            "popularity": 2.895
        },
        {
            "id": 69056,
            "original_name": "The 1980s: The Deadliest Decade",
            "popularity": 1.805
        },
        {
            "id": 61478,
            "original_name": "Africa's Deadliest",
            "popularity": 1.481
        },
        {
            "id": 101872,
            "original_name": "Deadliest Catch: Bloodline",
            "popularity": 1.415
        },
        {
            "id": 67469,
            "original_name": "Deadliest Catch Dungeon Cove",
            "popularity": 1.401
        },
        {
            "id": 35729,
            "original_name": "IRT Deadliest Roads",
            "popularity": 1.4
        },
        {
            "id": 16721,
            "original_name": "Danny Dyer's Deadliest Men",
            "popularity": 1.202
        },
        {
            "id": 60916,
            "original_name": "Deadliest Catch: On Deck",
            "popularity": 0.843
        },
        {
            "id": 55674,
            "original_name": "Deadliest Space Weather",
            "popularity": 0.84
        },
        {
            "id": 105776,
            "original_name": "The 1990s: The Deadliest Decade",
            "popularity": 0.682
        },
        {
            "id": 22874,
            "original_name": "America's Deadliest Season",
            "popularity": 0.6
        },
        {
            "id": 93236,
            "original_name": "Deadliest Journeys",
            "popularity": 0.6
        },
        {
            "id": 60963,
            "original_name": "Deadliest Catch: The Bait",
            "popularity": 0.6
        },
        {
            "id": 58196,
            "original_name": "Deadliest Sea",
            "popularity": 0.6
        },
        {
            "id": 17731,
            "original_name": "Ocean's Deadliest",
            "popularity": 0.6
        },
        {
            "id": 38572,
            "original_name": "World's Deadliest Towns",
            "popularity": 0.6
        },
        {
            "id": 36196,
            "original_name": "World's Deadliest",
            "popularity": 0.6
        },
        {
            "id": 55672,
            "original_name": "Deadliest Tech",
            "popularity": 0.6
        },
        {
            "id": 65913,
            "original_name": "Deadliest Job Interview",
            "popularity": 0.6
        }
    ]
}