{
    "data": [
        {
            "id": 783,
            "original_name": "Breakfast Time",
            "popularity": 0.6
        },
        {
            "id": 806,
            "original_name": "The Late, Late Breakfast Show",
            "popularity": 1.807
        },
        {
            "id": 2535,
            "original_name": "BBC Breakfast",
            "popularity": 0.6
        },
        {
            "id": 7870,
            "original_name": "ABC News Breakfast",
            "popularity": 0.849
        },
        {
            "id": 7927,
            "original_name": "Breakfast",
            "popularity": 0.6
        },
        {
            "id": 8141,
            "original_name": "Channel M Breakfast",
            "popularity": 0.6
        },
        {
            "id": 9538,
            "original_name": "Pig's Breakfast",
            "popularity": 1.467
        },
        {
            "id": 10324,
            "original_name": "Breakfast with Bear",
            "popularity": 0.6
        },
        {
            "id": 10618,
            "original_name": "Breakfast Television",
            "popularity": 0.6
        },
        {
            "id": 10737,
            "original_name": "The Big Breakfast",
            "popularity": 2.562
        },
        {
            "id": 11176,
            "original_name": "The Big Breakfast",
            "popularity": 0.6
        },
        {
            "id": 11416,
            "original_name": "Dressing for Breakfast",
            "popularity": 0.65
        },
        {
            "id": 12528,
            "original_name": "Victoria Wood's All Day Breakfast",
            "popularity": 0.6
        },
        {
            "id": 13174,
            "original_name": "Breakfast with the Arts",
            "popularity": 0.6
        },
        {
            "id": 14245,
            "original_name": "Money for Breakfast",
            "popularity": 0.6
        },
        {
            "id": 14728,
            "original_name": "Fredd Bear's Breakfast-A-Go-Go",
            "popularity": 0.6
        },
        {
            "id": 15236,
            "original_name": "Breakfast with Frost",
            "popularity": 0.6
        },
        {
            "id": 15274,
            "original_name": "Breakfast",
            "popularity": 0.6
        },
        {
            "id": 15883,
            "original_name": "Breakfast News",
            "popularity": 0.6
        },
        {
            "id": 18107,
            "original_name": "CP24 Breakfast",
            "popularity": 0.6
        },
        {
            "id": 18633,
            "original_name": "Badger and Emma @ Breakfast",
            "popularity": 0.6
        },
        {
            "id": 22515,
            "original_name": "Breakfast Time (US)",
            "popularity": 0.6
        },
        {
            "id": 24158,
            "original_name": "Fox After Breakfast",
            "popularity": 0.6
        },
        {
            "id": 30721,
            "original_name": "Business Breakfast",
            "popularity": 0.6
        },
        {
            "id": 34646,
            "original_name": "Breakfast at Dawn",
            "popularity": 0.6
        },
        {
            "id": 37057,
            "original_name": "CITV Breakfast",
            "popularity": 2.019
        },
        {
            "id": 40813,
            "original_name": "Breakfast",
            "popularity": 0.6
        },
        {
            "id": 41539,
            "original_name": "Saturday Breakfast",
            "popularity": 0.6
        },
        {
            "id": 42152,
            "original_name": "Weekend Breakfast",
            "popularity": 0.6
        },
        {
            "id": 43420,
            "original_name": "Breakfast Burrito News",
            "popularity": 0.6
        },
        {
            "id": 44164,
            "original_name": "Breakfast",
            "popularity": 0.84
        },
        {
            "id": 58705,
            "original_name": "The Big Breakfast",
            "popularity": 0.6
        },
        {
            "id": 72209,
            "original_name": "Late Night Big Breakfast",
            "popularity": 1.194
        },
        {
            "id": 92919,
            "original_name": "Ben & Breakfast",
            "popularity": 0.6
        },
        {
            "id": 94611,
            "original_name": "Breakfast, Lunch & Dinner",
            "popularity": 2.966
        },
        {
            "id": 95362,
            "original_name": "Pancake Breakfast Critic with Joe Pera",
            "popularity": 0.6
        },
        {
            "id": 95598,
            "original_name": "Breakfast",
            "popularity": 0.616
        },
        {
            "id": 121975,
            "original_name": "Breakfast with Champions",
            "popularity": 0.6
        },
        {
            "id": 126907,
            "original_name": "Bad & Breakfast",
            "popularity": 0.6
        },
        {
            "id": 127066,
            "original_name": "Bed & Breakfast",
            "popularity": 10.654
        },
        {
            "id": 129906,
            "original_name": "BBC One Breakfast",
            "popularity": 0.6
        },
        {
            "id": 134676,
            "original_name": "Breakfast With Tiffany",
            "popularity": 0.6
        }
    ],
    "relations": [
        {
            "character": "eakfast"
        }
    ],
    "top20": [
        {
            "id": 127066,
            "original_name": "Bed & Breakfast",
            "popularity": 10.654
        },
        {
            "id": 94611,
            "original_name": "Breakfast, Lunch & Dinner",
            "popularity": 2.966
        },
        {
            "id": 10737,
            "original_name": "The Big Breakfast",
            "popularity": 2.562
        },
        {
            "id": 37057,
            "original_name": "CITV Breakfast",
            "popularity": 2.019
        },
        {
            "id": 806,
            "original_name": "The Late, Late Breakfast Show",
            "popularity": 1.807
        },
        {
            "id": 9538,
            "original_name": "Pig's Breakfast",
            "popularity": 1.467
        },
        {
            "id": 72209,
            "original_name": "Late Night Big Breakfast",
            "popularity": 1.194
        },
        {
            "id": 7870,
            "original_name": "ABC News Breakfast",
            "popularity": 0.849
        },
        {
            "id": 44164,
            "original_name": "Breakfast",
            "popularity": 0.84
        },
        {
            "id": 11416,
            "original_name": "Dressing for Breakfast",
            "popularity": 0.65
        },
        {
            "id": 95598,
            "original_name": "Breakfast",
            "popularity": 0.616
        },
        {
            "id": 783,
            "original_name": "Breakfast Time",
            "popularity": 0.6
        },
        {
            "id": 12528,
            "original_name": "Victoria Wood's All Day Breakfast",
            "popularity": 0.6
        },
        {
            "id": 2535,
            "original_name": "BBC Breakfast",
            "popularity": 0.6
        },
        {
            "id": 7927,
            "original_name": "Breakfast",
            "popularity": 0.6
        },
        {
            "id": 10324,
            "original_name": "Breakfast with Bear",
            "popularity": 0.6
        },
        {
            "id": 8141,
            "original_name": "Channel M Breakfast",
            "popularity": 0.6
        },
        {
            "id": 11176,
            "original_name": "The Big Breakfast",
            "popularity": 0.6
        },
        {
            "id": 13174,
            "original_name": "Breakfast with the Arts",
            "popularity": 0.6
        },
        {
            "id": 10618,
            "original_name": "Breakfast Television",
            "popularity": 0.6
        }
    ]
}