{
    "data": [
        {
            "id": 8047,
            "original_name": "Tuulepealne maa",
            "popularity": 0.6
        }
    ],
    "relations": [],
    "top20": [
        {
            "id": 8047,
            "original_name": "Tuulepealne maa",
            "popularity": 0.6
        }
    ]
}