{
    "data": [
        {
            "id": 21053,
            "original_name": "Scream! If You Want to Get Off",
            "popularity": 0.6
        },
        {
            "id": 32767,
            "original_name": "Scream! If You Know the Answer",
            "popularity": 0.6
        },
        {
            "id": 69236,
            "original_name": "BanG Dream!",
            "popularity": 15.045
        },
        {
            "id": 101561,
            "original_name": "\u30a2\u30eb\u30b4\u30ca\u30d3\u30b9 from BanG Dream!",
            "popularity": 0.6
        }
    ],
    "relations": [],
    "top20": [
        {
            "id": 21053,
            "original_name": "Scream! If You Want to Get Off",
            "popularity": 0.6
        },
        {
            "id": 32767,
            "original_name": "Scream! If You Know the Answer",
            "popularity": 0.6
        },
        {
            "id": 69236,
            "original_name": "BanG Dream!",
            "popularity": 15.045
        },
        {
            "id": 101561,
            "original_name": "\u30a2\u30eb\u30b4\u30ca\u30d3\u30b9 from BanG Dream!",
            "popularity": 0.6
        }
    ]
}