{
    "data": [
        {
            "id": 25420,
            "original_name": "Dreamhome",
            "popularity": 0.6
        },
        {
            "id": 61838,
            "original_name": "Barbie: Life in the Dreamhouse",
            "popularity": 22.876
        },
        {
            "id": 89092,
            "original_name": "Barbie: Dreamhouse Adventures",
            "popularity": 18.47
        },
        {
            "id": 133104,
            "original_name": "The Dreamhouse",
            "popularity": 0.6
        }
    ],
    "relations": [],
    "top20": [
        {
            "id": 25420,
            "original_name": "Dreamhome",
            "popularity": 0.6
        },
        {
            "id": 61838,
            "original_name": "Barbie: Life in the Dreamhouse",
            "popularity": 22.876
        },
        {
            "id": 89092,
            "original_name": "Barbie: Dreamhouse Adventures",
            "popularity": 18.47
        },
        {
            "id": 133104,
            "original_name": "The Dreamhouse",
            "popularity": 0.6
        }
    ]
}