{
    "data": [
        {
            "id": 117,
            "original_name": "The Dreamstone",
            "popularity": 2.478
        },
        {
            "id": 132187,
            "original_name": "GoGoBus and TeamSteam",
            "popularity": 0.6
        }
    ],
    "relations": [],
    "top20": [
        {
            "id": 117,
            "original_name": "The Dreamstone",
            "popularity": 2.478
        },
        {
            "id": 132187,
            "original_name": "GoGoBus and TeamSteam",
            "popularity": 0.6
        }
    ]
}