{
    "data": [
        {
            "id": 47885,
            "original_name": "Leapfrog",
            "popularity": 0.6
        }
    ],
    "relations": [],
    "top20": [
        {
            "id": 47885,
            "original_name": "Leapfrog",
            "popularity": 0.6
        }
    ]
}