{
    "data": [
        {
            "id": 750,
            "original_name": "Where the Heart Is",
            "popularity": 4.847
        },
        {
            "id": 1044,
            "original_name": "Planet Earth",
            "popularity": 19.739
        },
        {
            "id": 1092,
            "original_name": "Down to Earth",
            "popularity": 2.585
        },
        {
            "id": 1193,
            "original_name": "Wild at Heart",
            "popularity": 3.649
        },
        {
            "id": 1473,
            "original_name": "Earth 2",
            "popularity": 8.37
        },
        {
            "id": 1545,
            "original_name": "Affairs of the Heart",
            "popularity": 0.895
        },
        {
            "id": 1794,
            "original_name": "Defenders of the Earth",
            "popularity": 5.924
        },
        {
            "id": 2028,
            "original_name": "Scariest Places on Earth",
            "popularity": 2.188
        },
        {
            "id": 2585,
            "original_name": "Heartbeat",
            "popularity": 13.033
        },
        {
            "id": 2733,
            "original_name": "In a Heartbeat",
            "popularity": 3.034
        },
        {
            "id": 2756,
            "original_name": "Heartland",
            "popularity": 3.643
        },
        {
            "id": 2779,
            "original_name": "Hearts Afire",
            "popularity": 3.779
        },
        {
            "id": 2840,
            "original_name": "Earth: Final Conflict",
            "popularity": 33.152
        },
        {
            "id": 3115,
            "original_name": "Blade Heart",
            "popularity": 0.6
        },
        {
            "id": 3556,
            "original_name": "From the Earth to the Moon",
            "popularity": 10.684
        },
        {
            "id": 3676,
            "original_name": "Hearts and Bones",
            "popularity": 3.986
        },
        {
            "id": 3680,
            "original_name": "Linus the Lionhearted",
            "popularity": 1.755
        },
        {
            "id": 3754,
            "original_name": "Party Line with The Hearty Boys",
            "popularity": 0.6
        },
        {
            "id": 3945,
            "original_name": "Where on Earth is Carmen Sandiego?",
            "popularity": 10.487
        },
        {
            "id": 3971,
            "original_name": "Beating Heart",
            "popularity": 0.903
        },
        {
            "id": 4700,
            "original_name": "Earth Warp",
            "popularity": 0.6
        },
        {
            "id": 4839,
            "original_name": "Disney's The Princesses of Heart",
            "popularity": 0.6
        },
        {
            "id": 5262,
            "original_name": "Sunrise Earth",
            "popularity": 1.632
        },
        {
            "id": 5632,
            "original_name": "Goodnight Sweetheart",
            "popularity": 3.851
        },
        {
            "id": 5867,
            "original_name": "Stolen Women: Captured Hearts",
            "popularity": 1.09
        },
        {
            "id": 5950,
            "original_name": "Iditarod: Toughest Race on Earth",
            "popularity": 0.842
        },
        {
            "id": 6082,
            "original_name": "Earth Star Voyager",
            "popularity": 1.733
        },
        {
            "id": 6556,
            "original_name": "Sunshine Heartbeat",
            "popularity": 0.6
        },
        {
            "id": 6592,
            "original_name": "Earthworm Jim",
            "popularity": 5.727
        },
        {
            "id": 7071,
            "original_name": "Earth Revealed: Introductory Geology",
            "popularity": 0.6
        },
        {
            "id": 7398,
            "original_name": "When We Left Earth: The NASA Missions",
            "popularity": 2.211
        },
        {
            "id": 7672,
            "original_name": "Project Earth",
            "popularity": 0.6
        },
        {
            "id": 7931,
            "original_name": "The Greatest Show on Earth",
            "popularity": 5.267
        },
        {
            "id": 8075,
            "original_name": "Love to Love: Young At Heart",
            "popularity": 0.6
        },
        {
            "id": 8442,
            "original_name": "Earth Focus",
            "popularity": 0.6
        },
        {
            "id": 8499,
            "original_name": "Heart of Claudine",
            "popularity": 0.6
        },
        {
            "id": 8760,
            "original_name": "Battleground Earth",
            "popularity": 0.6
        },
        {
            "id": 8798,
            "original_name": "Earth to America",
            "popularity": 0.6
        },
        {
            "id": 9737,
            "original_name": "Heartland with John Kasich",
            "popularity": 0.6
        },
        {
            "id": 10136,
            "original_name": "Where the Heart Is",
            "popularity": 8.831
        },
        {
            "id": 10175,
            "original_name": "Sweethearts",
            "popularity": 0.6
        },
        {
            "id": 10346,
            "original_name": "Change of Heart",
            "popularity": 0.6
        },
        {
            "id": 11457,
            "original_name": "Sweethearts",
            "popularity": 0.6
        },
        {
            "id": 12508,
            "original_name": "Foolish Heart",
            "popularity": 1.091
        },
        {
            "id": 12917,
            "original_name": "Heartlanders",
            "popularity": 0.6
        },
        {
            "id": 12998,
            "original_name": "Heartbreak High",
            "popularity": 7.477
        },
        {
            "id": 13278,
            "original_name": "Legend of Earthsea",
            "popularity": 4.528
        },
        {
            "id": 13388,
            "original_name": "Invasion: Earth",
            "popularity": 2.254
        },
        {
            "id": 13492,
            "original_name": "Down to Earth",
            "popularity": 1.4
        },
        {
            "id": 13556,
            "original_name": "Journey to the Center of the Earth",
            "popularity": 0.6
        },
        {
            "id": 14252,
            "original_name": "Heart of the City",
            "popularity": 2.87
        },
        {
            "id": 14604,
            "original_name": "Earthfasts",
            "popularity": 0.6
        },
        {
            "id": 14929,
            "original_name": "Heartland",
            "popularity": 47.562
        },
        {
            "id": 15117,
            "original_name": "Life on Earth",
            "popularity": 3.678
        },
        {
            "id": 15221,
            "original_name": "Heartburn Hotel",
            "popularity": 1.167
        },
        {
            "id": 15708,
            "original_name": "Watt on Earth",
            "popularity": 0.905
        },
        {
            "id": 15723,
            "original_name": "Hard Time on Planet Earth",
            "popularity": 3.849
        },
        {
            "id": 15977,
            "original_name": "Action Earth",
            "popularity": 0.6
        },
        {
            "id": 16053,
            "original_name": "The Lionhearts",
            "popularity": 0.6
        },
        {
            "id": 16296,
            "original_name": "The Heaven and Earth Show",
            "popularity": 6.304
        },
        {
            "id": 16534,
            "original_name": "Rebel Heart",
            "popularity": 1.755
        },
        {
            "id": 16838,
            "original_name": "Are We Changing Planet Earth?",
            "popularity": 1.139
        },
        {
            "id": 17041,
            "original_name": "The Song of the Earth",
            "popularity": 0.6
        },
        {
            "id": 17143,
            "original_name": "The Man Who Fell to Earth",
            "popularity": 0.6
        },
        {
            "id": 17208,
            "original_name": "50 Simple Things Kids Can Do to Save the Earth",
            "popularity": 0.6
        },
        {
            "id": 17760,
            "original_name": "The Last Place on Earth",
            "popularity": 3.202
        },
        {
            "id": 17795,
            "original_name": "Heartland",
            "popularity": 1.931
        },
        {
            "id": 17846,
            "original_name": "Focus Earth with Bob Woodruff",
            "popularity": 0.6
        },
        {
            "id": 18418,
            "original_name": "Forever in My Heart",
            "popularity": 0.6
        },
        {
            "id": 18592,
            "original_name": "Twin Hearts",
            "popularity": 0.6
        },
        {
            "id": 18613,
            "original_name": "Forecast Earth",
            "popularity": 0.6
        },
        {
            "id": 18901,
            "original_name": "Shot Through the Heart",
            "popularity": 0.6
        },
        {
            "id": 18907,
            "original_name": "The Restless Earth",
            "popularity": 0.6
        },
        {
            "id": 18973,
            "original_name": "Hearts and Minds: Teens and Mental Illness",
            "popularity": 0.6
        },
        {
            "id": 19281,
            "original_name": "Cold Blood Warm Heart",
            "popularity": 0.6
        },
        {
            "id": 19407,
            "original_name": "Last Days on Earth",
            "popularity": 0.6
        },
        {
            "id": 20058,
            "original_name": "Sichuan Earthquake Coverage",
            "popularity": 0.6
        },
        {
            "id": 20428,
            "original_name": "Queen of Hearts",
            "popularity": 0.6
        },
        {
            "id": 20476,
            "original_name": "Strange Days on Planet Earth",
            "popularity": 0.632
        },
        {
            "id": 20618,
            "original_name": "Planet Earth: The Future",
            "popularity": 1.501
        },
        {
            "id": 20811,
            "original_name": "Saving Planet Earth",
            "popularity": 0.846
        },
        {
            "id": 20865,
            "original_name": "Pig Heart Boy",
            "popularity": 0.6
        },
        {
            "id": 20963,
            "original_name": "Kokoro: The Heart Within",
            "popularity": 0.6
        },
        {
            "id": 20966,
            "original_name": "Unearthed",
            "popularity": 0.704
        },
        {
            "id": 20980,
            "original_name": "Hearts and Minds",
            "popularity": 0.6
        },
        {
            "id": 21340,
            "original_name": "'89 San Francisco Earthquake.",
            "popularity": 0.6
        },
        {
            "id": 21345,
            "original_name": "Heartsounds",
            "popularity": 0.6
        },
        {
            "id": 21521,
            "original_name": "EarthBound Saga",
            "popularity": 0.6
        },
        {
            "id": 21614,
            "original_name": "Earth Agenda",
            "popularity": 0.6
        },
        {
            "id": 21685,
            "original_name": "Lost on Earth",
            "popularity": 0.6
        },
        {
            "id": 22119,
            "original_name": "Heartland",
            "popularity": 1.525
        },
        {
            "id": 22180,
            "original_name": "Down to Earth",
            "popularity": 0.84
        },
        {
            "id": 22619,
            "original_name": "The Greatest Man On Earth",
            "popularity": 0.6
        },
        {
            "id": 23277,
            "original_name": "Have a Heart",
            "popularity": 0.6
        },
        {
            "id": 23551,
            "original_name": "Richard the Lionheart",
            "popularity": 0.877
        },
        {
            "id": 23582,
            "original_name": "Earthwatch",
            "popularity": 0.6
        },
        {
            "id": 23698,
            "original_name": "The Fragile Heart",
            "popularity": 1.4
        },
        {
            "id": 23988,
            "original_name": "Tender Hearts",
            "popularity": 1.749
        },
        {
            "id": 24037,
            "original_name": "The Fainthearted Feminist",
            "popularity": 0.6
        },
        {
            "id": 24274,
            "original_name": "Live Earth: A Concert for a Climate in Crisis",
            "popularity": 1.988
        },
        {
            "id": 24504,
            "original_name": "Your Cheatin' Heart",
            "popularity": 0.612
        },
        {
            "id": 24714,
            "original_name": "HeartBeat",
            "popularity": 1.071
        },
        {
            "id": 24903,
            "original_name": "The Seeking Heart",
            "popularity": 0.6
        },
        {
            "id": 25131,
            "original_name": "Fascinate My Heart",
            "popularity": 0.6
        },
        {
            "id": 25394,
            "original_name": "How the Earth Was Made",
            "popularity": 0.751
        },
        {
            "id": 25517,
            "original_name": "The Lonelyhearts Kid",
            "popularity": 0.6
        },
        {
            "id": 25559,
            "original_name": "Mysterious Human Heart",
            "popularity": 0.6
        },
        {
            "id": 25974,
            "original_name": "Journey to Planet Earth",
            "popularity": 0.6
        },
        {
            "id": 26652,
            "original_name": "Dear Heart",
            "popularity": 0.6
        },
        {
            "id": 26664,
            "original_name": "Guystars - Fractions of The Earth",
            "popularity": 0.6
        },
        {
            "id": 26754,
            "original_name": "Follow Your Heart",
            "popularity": 0.6
        },
        {
            "id": 26829,
            "original_name": "Jack of Hearts",
            "popularity": 0.6
        },
        {
            "id": 27282,
            "original_name": "UFO's Over Earth",
            "popularity": 0.6
        },
        {
            "id": 27339,
            "original_name": "Heartline",
            "popularity": 0.6
        },
        {
            "id": 27346,
            "original_name": "ToHeart",
            "popularity": 3.13
        },
        {
            "id": 27432,
            "original_name": "Heart of the Country",
            "popularity": 0.923
        },
        {
            "id": 27438,
            "original_name": "ToHeart2",
            "popularity": 1.739
        },
        {
            "id": 27555,
            "original_name": "Moulded in Earth",
            "popularity": 0.6
        },
        {
            "id": 27661,
            "original_name": "Pure Heart",
            "popularity": 0.6
        },
        {
            "id": 27816,
            "original_name": "Wind -a breath of heart-",
            "popularity": 0.875
        },
        {
            "id": 28384,
            "original_name": "Naked Earth",
            "popularity": 0.6
        },
        {
            "id": 28685,
            "original_name": "Hearts Are Wild",
            "popularity": 0.628
        },
        {
            "id": 28808,
            "original_name": "Earth Report",
            "popularity": 0.6
        },
        {
            "id": 28877,
            "original_name": "Earth: The Power of the Planet",
            "popularity": 1.961
        },
        {
            "id": 29334,
            "original_name": "Who Gets the Heart?",
            "popularity": 0.6
        },
        {
            "id": 29413,
            "original_name": "Heart and Soul",
            "popularity": 0.6
        },
        {
            "id": 29710,
            "original_name": "Stars with Hearts",
            "popularity": 0.6
        },
        {
            "id": 29779,
            "original_name": "Ruffian Hearts",
            "popularity": 0.6
        },
        {
            "id": 29997,
            "original_name": "Blackhearts in Battersea",
            "popularity": 0.6
        },
        {
            "id": 30042,
            "original_name": "Sweetheart",
            "popularity": 0.6
        },
        {
            "id": 30119,
            "original_name": "The Violent Earth",
            "popularity": 0.618
        },
        {
            "id": 30199,
            "original_name": "Young at Heart",
            "popularity": 0.6
        },
        {
            "id": 30632,
            "original_name": "EarthPulse",
            "popularity": 0.6
        },
        {
            "id": 30698,
            "original_name": "Earth Trek",
            "popularity": 0.6
        },
        {
            "id": 31031,
            "original_name": "Deep in My Heart",
            "popularity": 0.6
        },
        {
            "id": 31151,
            "original_name": "Somewhere in My Heart",
            "popularity": 0.6
        },
        {
            "id": 31379,
            "original_name": "My Cheating Heart",
            "popularity": 0.6
        },
        {
            "id": 31600,
            "original_name": "Man on Earth",
            "popularity": 1.355
        },
        {
            "id": 31930,
            "original_name": "Kell on Earth",
            "popularity": 0.6
        },
        {
            "id": 31944,
            "original_name": "Where the Heart Is",
            "popularity": 0.6
        },
        {
            "id": 32061,
            "original_name": "Lion.Hearts",
            "popularity": 0.6
        },
        {
            "id": 32341,
            "original_name": "I Heart Vampires",
            "popularity": 0.6
        },
        {
            "id": 32383,
            "original_name": "Life Beyond Earth",
            "popularity": 0.6
        },
        {
            "id": 32752,
            "original_name": "Eagleheart",
            "popularity": 5.446
        },
        {
            "id": 32808,
            "original_name": "Have a Heart",
            "popularity": 0.6
        },
        {
            "id": 33234,
            "original_name": "The Pillars of the Earth",
            "popularity": 17.132
        },
        {
            "id": 33344,
            "original_name": "Exchange of Hearts",
            "popularity": 0.6
        },
        {
            "id": 33483,
            "original_name": "Earthbound",
            "popularity": 0.6
        },
        {
            "id": 33530,
            "original_name": "The Great Rift: Africa's Wild Heart",
            "popularity": 1.57
        },
        {
            "id": 33623,
            "original_name": "The Avengers: Earth's Mightiest Heroes",
            "popularity": 42.15
        },
        {
            "id": 33751,
            "original_name": "Journeys to the Ends of the Earth",
            "popularity": 0.6
        },
        {
            "id": 33805,
            "original_name": "Planet Earth",
            "popularity": 0.6
        },
        {
            "id": 33862,
            "original_name": "To the Ends of the Earth",
            "popularity": 4.862
        },
        {
            "id": 34603,
            "original_name": "Any Human Heart",
            "popularity": 2.902
        },
        {
            "id": 34643,
            "original_name": "I Heart You, Pare!",
            "popularity": 0.6
        },
        {
            "id": 34756,
            "original_name": "Future Earth",
            "popularity": 0.6
        },
        {
            "id": 34990,
            "original_name": "Miss Indonesia Earth",
            "popularity": 0.6
        },
        {
            "id": 35548,
            "original_name": "Before We Ruled the Earth",
            "popularity": 0.693
        },
        {
            "id": 35962,
            "original_name": "Aftershock: Earthquake in New York",
            "popularity": 4.379
        },
        {
            "id": 36579,
            "original_name": "Heartland Thunder",
            "popularity": 0.6
        },
        {
            "id": 36720,
            "original_name": "Exodus Earth",
            "popularity": 0.6
        },
        {
            "id": 36892,
            "original_name": "Unearthing Ancient Secrets",
            "popularity": 1.094
        },
        {
            "id": 36896,
            "original_name": "Planet Earth Extremes",
            "popularity": 0.6
        },
        {
            "id": 36903,
            "original_name": "Earth Wonders",
            "popularity": 0.6
        },
        {
            "id": 37253,
            "original_name": "What on Earth?",
            "popularity": 0.6
        },
        {
            "id": 37289,
            "original_name": "Kylie Kwong: Heart and Soul",
            "popularity": 0.6
        },
        {
            "id": 37438,
            "original_name": "Heart of a Poet",
            "popularity": 1.092
        },
        {
            "id": 37656,
            "original_name": "1066: The Battle for Middle Earth",
            "popularity": 2.864
        },
        {
            "id": 37756,
            "original_name": "Ben Elton Live from Planet Earth",
            "popularity": 0.6
        },
        {
            "id": 38725,
            "original_name": "Inside Planet Earth",
            "popularity": 0.6
        },
        {
            "id": 39086,
            "original_name": "Tween Hearts",
            "popularity": 0.6
        },
        {
            "id": 39413,
            "original_name": "Heartland Poker Tour",
            "popularity": 0.6
        },
        {
            "id": 39437,
            "original_name": "Element: Action on Earth",
            "popularity": 0.6
        },
        {
            "id": 39780,
            "original_name": "Wild West Comedy Show: 30 Days & 30 Nights - Hollywood to the Heartland",
            "popularity": 0.6
        },
        {
            "id": 40207,
            "original_name": "The Flockhearts",
            "popularity": 0.6
        },
        {
            "id": 40208,
            "original_name": "The Greatest Tune on Earth",
            "popularity": 0.6
        },
        {
            "id": 40435,
            "original_name": "Precious Hearts Romances Presents",
            "popularity": 0.6
        },
        {
            "id": 41616,
            "original_name": "America's Heartland",
            "popularity": 0.6
        },
        {
            "id": 41821,
            "original_name": "The Heart, She Holler",
            "popularity": 2.237
        },
        {
            "id": 42317,
            "original_name": "Rain in the Heart",
            "popularity": 0.6
        },
        {
            "id": 42602,
            "original_name": "15 Seconds to Heartbreak",
            "popularity": 0.6
        },
        {
            "id": 42922,
            "original_name": "Heartbeat: Moments",
            "popularity": 0.6
        },
        {
            "id": 43147,
            "original_name": "Planet Earth Live",
            "popularity": 1.399
        },
        {
            "id": 43172,
            "original_name": "Burnt Hearts",
            "popularity": 0.6
        },
        {
            "id": 43388,
            "original_name": "Earthflight",
            "popularity": 1.487
        },
        {
            "id": 43649,
            "original_name": "Amazing Earth",
            "popularity": 1.4
        },
        {
            "id": 43689,
            "original_name": "Be Careful With My Heart",
            "popularity": 3.129
        },
        {
            "id": 43890,
            "original_name": "Earth Story",
            "popularity": 0.845
        },
        {
            "id": 44275,
            "original_name": "Earthian",
            "popularity": 0.651
        },
        {
            "id": 44548,
            "original_name": "Project Blue Earth SOS",
            "popularity": 0.6
        },
        {
            "id": 44724,
            "original_name": "Orbit: Earth's Extraordinary Journey",
            "popularity": 1.454
        },
        {
            "id": 44823,
            "original_name": "Hearts of Gold",
            "popularity": 0.6
        },
        {
            "id": 44902,
            "original_name": "What on Earth",
            "popularity": 0.6
        },
        {
            "id": 45302,
            "original_name": "Stargazing Live Back To Earth",
            "popularity": 0.6
        },
        {
            "id": 45491,
            "original_name": "\u304c\u3041\u30fc\u3067\u3043\u3042\u3093Hearts",
            "popularity": 1.163
        },
        {
            "id": 45492,
            "original_name": "\u304c\u3041\u30fc\u3067\u3043\u3042\u3093Hearts \u3071\u308f\u30fc\u3042\u3063\u3077!",
            "popularity": 0.6
        },
        {
            "id": 46310,
            "original_name": "Savage Earth",
            "popularity": 0.6
        },
        {
            "id": 46459,
            "original_name": "Journey to the Center of the Earth",
            "popularity": 4.682
        },
        {
            "id": 46735,
            "original_name": "From the Heart",
            "popularity": 0.6
        },
        {
            "id": 46817,
            "original_name": "America Unearthed",
            "popularity": 1.445
        },
        {
            "id": 47153,
            "original_name": "Alien Earths",
            "popularity": 0.6
        },
        {
            "id": 47217,
            "original_name": "Murder in the Heartland",
            "popularity": 2.244
        },
        {
            "id": 47253,
            "original_name": "Words By Heart",
            "popularity": 0.6
        },
        {
            "id": 47356,
            "original_name": "Earth to Kids: A Guide to Products for a Healthy Planet",
            "popularity": 0.6
        },
        {
            "id": 47448,
            "original_name": "From the Heart... The First International Very Special Arts Festival",
            "popularity": 0.6
        },
        {
            "id": 47544,
            "original_name": "Rain in my Heart",
            "popularity": 0.6
        },
        {
            "id": 47599,
            "original_name": "Undercover Heart",
            "popularity": 1.34
        },
        {
            "id": 47773,
            "original_name": "The Heart of the Dragon",
            "popularity": 0.6
        },
        {
            "id": 47822,
            "original_name": "Village Earth",
            "popularity": 0.6
        },
        {
            "id": 48667,
            "original_name": "Runaway Sweetheart",
            "popularity": 0.6
        },
        {
            "id": 48714,
            "original_name": "Earth and the American Dream",
            "popularity": 0.6
        },
        {
            "id": 50160,
            "original_name": "Stories from the Dark Earth: Meet the Ancestors Revisited",
            "popularity": 0.6
        },
        {
            "id": 50212,
            "original_name": "Heart Series",
            "popularity": 0.6
        },
        {
            "id": 51235,
            "original_name": "Serial Killer Earth",
            "popularity": 0.674
        },
        {
            "id": 51483,
            "original_name": "MinuteEarth",
            "popularity": 0.761
        },
        {
            "id": 51576,
            "original_name": "Every Heart Beats True: The Jim Stynes Story",
            "popularity": 0.6
        },
        {
            "id": 51847,
            "original_name": "Addie and the King of Hearts",
            "popularity": 0.6
        },
        {
            "id": 52509,
            "original_name": "Rainbow Sweetheart",
            "popularity": 0.6
        },
        {
            "id": 52909,
            "original_name": "Alive in our Hearts",
            "popularity": 0.6
        },
        {
            "id": 53010,
            "original_name": "Supersized Earth",
            "popularity": 0.6
        },
        {
            "id": 53176,
            "original_name": "Sky and Earth",
            "popularity": 0.6
        },
        {
            "id": 53455,
            "original_name": "Antique Heart",
            "popularity": 0.6
        },
        {
            "id": 54382,
            "original_name": "Earth Shocks",
            "popularity": 0.6
        },
        {
            "id": 54465,
            "original_name": "I Have Seen the Earth Change",
            "popularity": 0.6
        },
        {
            "id": 54746,
            "original_name": "fazh heart White",
            "popularity": 0.6
        },
        {
            "id": 55195,
            "original_name": "The Science Channel Unearthing Ancient Secrets",
            "popularity": 0.6
        },
        {
            "id": 55665,
            "original_name": "Speed Dreams: The Fastest Place on Earth",
            "popularity": 0.806
        },
        {
            "id": 55668,
            "original_name": "DayZ Hell On Earth",
            "popularity": 0.6
        },
        {
            "id": 55744,
            "original_name": "Fierce Earth",
            "popularity": 0.6
        },
        {
            "id": 56816,
            "original_name": "The Heart of Woman",
            "popularity": 0.6
        },
        {
            "id": 57141,
            "original_name": "Spring in the Heart",
            "popularity": 0.6
        },
        {
            "id": 57403,
            "original_name": "Strangest Weather on Earth",
            "popularity": 0.6
        },
        {
            "id": 57523,
            "original_name": "Sky and Earth Has Affection",
            "popularity": 0.6
        },
        {
            "id": 57641,
            "original_name": "Heartland Bowhunter",
            "popularity": 0.6
        },
        {
            "id": 57969,
            "original_name": "Ancient Greece: The Greatest Show on Earth",
            "popularity": 0.6
        },
        {
            "id": 58096,
            "original_name": "Scotties Tournament of Hearts",
            "popularity": 0.6
        },
        {
            "id": 58256,
            "original_name": "Heart of the Matter",
            "popularity": 0.6
        },
        {
            "id": 58268,
            "original_name": "Planet Earth Live",
            "popularity": 0.6
        },
        {
            "id": 58530,
            "original_name": "Young at Heart",
            "popularity": 0.6
        },
        {
            "id": 58659,
            "original_name": "The Heartland Hero",
            "popularity": 4.54
        },
        {
            "id": 60413,
            "original_name": "Journey to the Heart of the World",
            "popularity": 0.6
        },
        {
            "id": 61865,
            "original_name": "When Calls the Heart",
            "popularity": 25.033
        },
        {
            "id": 61888,
            "original_name": "The Last Man on Earth",
            "popularity": 32.021
        },
        {
            "id": 62041,
            "original_name": "Alaska: Earth's Frozen Kingdom",
            "popularity": 1.008
        },
        {
            "id": 62089,
            "original_name": "Earth: A New Wild",
            "popularity": 0.6
        },
        {
            "id": 62288,
            "original_name": "Heartless",
            "popularity": 4.613
        },
        {
            "id": 62289,
            "original_name": "I (Heart) Nick Carter",
            "popularity": 0.929
        },
        {
            "id": 63501,
            "original_name": "Flying to the Ends of the Earth",
            "popularity": 0.6
        },
        {
            "id": 64029,
            "original_name": "Open Heart",
            "popularity": 2.167
        },
        {
            "id": 64538,
            "original_name": "Shadows of the Heart",
            "popularity": 0.6
        },
        {
            "id": 64574,
            "original_name": "How Earth Made Us",
            "popularity": 1.119
        },
        {
            "id": 65938,
            "original_name": "Heartbeat",
            "popularity": 8.624
        },
        {
            "id": 66138,
            "original_name": "iHeartRadio Music Awards",
            "popularity": 0.6
        },
        {
            "id": 66148,
            "original_name": "How The Earth Works",
            "popularity": 1.23
        },
        {
            "id": 66923,
            "original_name": "Life Inside Jail: Hell On Earth",
            "popularity": 1.61
        },
        {
            "id": 67173,
            "original_name": "New Zealand: Earth's Mythical Islands",
            "popularity": 2.04
        },
        {
            "id": 67513,
            "original_name": "Secrets of the Earth",
            "popularity": 0.931
        },
        {
            "id": 67831,
            "original_name": "People of Earth",
            "popularity": 7.116
        },
        {
            "id": 68595,
            "original_name": "Planet Earth II",
            "popularity": 23.807
        },
        {
            "id": 69693,
            "original_name": "Patagonia: Earth's Secret Paradise",
            "popularity": 1.539
        },
        {
            "id": 70189,
            "original_name": "What on Earth?",
            "popularity": 9.664
        },
        {
            "id": 70607,
            "original_name": "Flowering Heart (\ud50c\ub77c\uc6cc\ub9c1 \ud558\ud2b8)",
            "popularity": 0.62
        },
        {
            "id": 70644,
            "original_name": "Highlands: Scotland's Wild Heart",
            "popularity": 0.6
        },
        {
            "id": 70808,
            "original_name": "Hearts and Minds",
            "popularity": 0.925
        },
        {
            "id": 71270,
            "original_name": "Atlantic: The Wildest Ocean on Earth",
            "popularity": 0.693
        },
        {
            "id": 71845,
            "original_name": "Unearthed",
            "popularity": 1.122
        },
        {
            "id": 72293,
            "original_name": "Mexico: Earth's Festival of Life",
            "popularity": 0.6
        },
        {
            "id": 72383,
            "original_name": "Earth's Seasonal Secrets",
            "popularity": 6.578
        },
        {
            "id": 72385,
            "original_name": "Earth's Wildest Waters: The Big Fish",
            "popularity": 0.6
        },
        {
            "id": 72700,
            "original_name": "Earth's Greatest Spectacles",
            "popularity": 1.4
        },
        {
            "id": 74528,
            "original_name": "Xploration Earth 2050",
            "popularity": 0.84
        },
        {
            "id": 74568,
            "original_name": "Dangerous Earth",
            "popularity": 0.6
        },
        {
            "id": 74803,
            "original_name": "Mission Backup Earth",
            "popularity": 0.6
        },
        {
            "id": 75121,
            "original_name": "Alien Planet Earths",
            "popularity": 0.6
        },
        {
            "id": 75704,
            "original_name": "Vikings Unearthed",
            "popularity": 0.6
        },
        {
            "id": 76413,
            "original_name": "Earth to Luna!",
            "popularity": 1.697
        },
        {
            "id": 76865,
            "original_name": "After Braveheart",
            "popularity": 0.6
        },
        {
            "id": 76965,
            "original_name": "Faces of Earth",
            "popularity": 0.6
        },
        {
            "id": 77205,
            "original_name": "Christy: Choices of the Heart",
            "popularity": 0.6
        },
        {
            "id": 77314,
            "original_name": "Thailand: Earth's Tropical Paradise",
            "popularity": 0.956
        },
        {
            "id": 77800,
            "original_name": "Big Picture Earth (Natural sound)",
            "popularity": 0.6
        },
        {
            "id": 77869,
            "original_name": "Big Picture Earth (Music)",
            "popularity": 0.6
        },
        {
            "id": 77996,
            "original_name": "Blue Earth",
            "popularity": 0.6
        },
        {
            "id": 78611,
            "original_name": "Chinese New Year: The Biggest Celebration on Earth",
            "popularity": 0.6
        },
        {
            "id": 78615,
            "original_name": "Japan: Earth's Enchanted Islands",
            "popularity": 0.943
        },
        {
            "id": 79098,
            "original_name": "Teenage Mutant Ninja Turtles: Earth's Last Stand",
            "popularity": 0.6
        },
        {
            "id": 80334,
            "original_name": "Ti Amo Sweetheart 100 Hari",
            "popularity": 1.996
        },
        {
            "id": 80345,
            "original_name": "Evacuate Earth",
            "popularity": 0.6
        },
        {
            "id": 81143,
            "original_name": "Earth Signs From Above",
            "popularity": 0.6
        },
        {
            "id": 82209,
            "original_name": "Black Earth Rising",
            "popularity": 7.669
        },
        {
            "id": 83635,
            "original_name": "Dark Heart",
            "popularity": 3.091
        },
        {
            "id": 84504,
            "original_name": "Expedition New Earth",
            "popularity": 0.684
        },
        {
            "id": 84588,
            "original_name": "Ancient Earth",
            "popularity": 0.651
        },
        {
            "id": 85041,
            "original_name": "Murder in the Heartland",
            "popularity": 0.957
        },
        {
            "id": 85379,
            "original_name": "Earth's Natural Wonders",
            "popularity": 0.986
        },
        {
            "id": 85428,
            "original_name": "Earth's Great Rivers",
            "popularity": 0.672
        },
        {
            "id": 85883,
            "original_name": "Journeys from the Centre of the Earth",
            "popularity": 0.6
        },
        {
            "id": 85947,
            "original_name": "Earth: The Climate Wars",
            "popularity": 0.84
        },
        {
            "id": 86456,
            "original_name": "Dolly Parton's Heartstrings",
            "popularity": 9.66
        },
        {
            "id": 87852,
            "original_name": "\u7d76\u5bfe\u885d\u6fc0 ~PLATONIC HEART~",
            "popularity": 1.743
        },
        {
            "id": 88307,
            "original_name": "Earth from Space",
            "popularity": 1.314
        },
        {
            "id": 88979,
            "original_name": "Heartbreak Island",
            "popularity": 0.6
        },
        {
            "id": 90868,
            "original_name": "Hell in the Heartland: What Happened to Ashley and Lauria",
            "popularity": 0.6
        },
        {
            "id": 91017,
            "original_name": "Heartbreak Hotel",
            "popularity": 0.6
        },
        {
            "id": 91246,
            "original_name": "Mao Mao: Heroes of Pure Heart",
            "popularity": 14.048
        },
        {
            "id": 91749,
            "original_name": "Animal Babies: First Year On Earth",
            "popularity": 0.65
        },
        {
            "id": 92166,
            "original_name": "Search for Second Earth",
            "popularity": 0.993
        },
        {
            "id": 92461,
            "original_name": "Bob Hearts Abishola",
            "popularity": 32.525
        },
        {
            "id": 92684,
            "original_name": "The Last Kids on Earth",
            "popularity": 8.676
        },
        {
            "id": 94241,
            "original_name": "iHeartRadio Music Festival",
            "popularity": 0.6
        },
        {
            "id": 94880,
            "original_name": "The Bible Unearthed",
            "popularity": 0.6
        },
        {
            "id": 94883,
            "original_name": "Earth to Ned",
            "popularity": 2.161
        },
        {
            "id": 95064,
            "original_name": "The Most Amazing Woman on Earth. Miss Multiverse",
            "popularity": 0.6
        },
        {
            "id": 95119,
            "original_name": "Pets: Wild at Heart",
            "popularity": 0.6
        },
        {
            "id": 95359,
            "original_name": "The Life of Earth",
            "popularity": 0.689
        },
        {
            "id": 95919,
            "original_name": "\u307e\u307b\u3089\u3070 ~Heartful days~",
            "popularity": 0.6
        },
        {
            "id": 97099,
            "original_name": "Earth's Tropical Islands",
            "popularity": 1.4
        },
        {
            "id": 97123,
            "original_name": "Wildes Mexiko (BBC Earth)",
            "popularity": 0.6
        },
        {
            "id": 97238,
            "original_name": "Scorched Earth WWII",
            "popularity": 0.6
        },
        {
            "id": 97424,
            "original_name": "Heart Series",
            "popularity": 1.4
        },
        {
            "id": 97861,
            "original_name": "Night on Earth",
            "popularity": 13.727
        },
        {
            "id": 97949,
            "original_name": "The Uninhabitable Earth",
            "popularity": 0.954
        },
        {
            "id": 98983,
            "original_name": "Heartland Docs, DVM",
            "popularity": 2.229
        },
        {
            "id": 99101,
            "original_name": "Saving Planet Earth UK",
            "popularity": 1.882
        },
        {
            "id": 99222,
            "original_name": "For Glowing Hearts",
            "popularity": 1.4
        },
        {
            "id": 99668,
            "original_name": "Haunting in the Heartland",
            "popularity": 0.6
        },
        {
            "id": 100107,
            "original_name": "Saving Sirga: Journey into the Heart of a Lion",
            "popularity": 0.659
        },
        {
            "id": 100597,
            "original_name": "Earth Shocks",
            "popularity": 0.6
        },
        {
            "id": 101150,
            "original_name": "Earth's Sacred Wonders",
            "popularity": 0.6
        },
        {
            "id": 101853,
            "original_name": "The Bachelor Presents: Listen to Your Heart",
            "popularity": 0.652
        },
        {
            "id": 101957,
            "original_name": "A Soldier's Heart",
            "popularity": 1.939
        },
        {
            "id": 102165,
            "original_name": "Invasion Earth",
            "popularity": 0.876
        },
        {
            "id": 102593,
            "original_name": "Club Friday The Series Season 5: Secret of a Heart That Doesn't Exist",
            "popularity": 0.6
        },
        {
            "id": 103102,
            "original_name": "X-Ray Earth",
            "popularity": 0.724
        },
        {
            "id": 103477,
            "original_name": "Hearts of Darkness: A Filmmaker's Apocalypse",
            "popularity": 0.6
        },
        {
            "id": 104074,
            "original_name": "Terra Formars: Earth-hen",
            "popularity": 1.4
        },
        {
            "id": 105020,
            "original_name": "Earthscapes",
            "popularity": 0.6
        },
        {
            "id": 105270,
            "original_name": "Rogue Earth",
            "popularity": 1.359
        },
        {
            "id": 105288,
            "original_name": "Down to Earth with Zac Efron",
            "popularity": 17.694
        },
        {
            "id": 105861,
            "original_name": "Apocalypse Earth",
            "popularity": 0.923
        },
        {
            "id": 106428,
            "original_name": "The Coolest Places on Earth",
            "popularity": 0.6
        },
        {
            "id": 107106,
            "original_name": "Close To My Heartbeats",
            "popularity": 0.6
        },
        {
            "id": 107873,
            "original_name": "Heart Of Darkness",
            "popularity": 0.6
        },
        {
            "id": 110818,
            "original_name": "Earth at Night in Color",
            "popularity": 6.699
        },
        {
            "id": 111874,
            "original_name": "Rudy Coby: The Coolest Magician on Earth",
            "popularity": 0.6
        },
        {
            "id": 112552,
            "original_name": "Black Hearts in Battersea",
            "popularity": 0.6
        },
        {
            "id": 113255,
            "original_name": "Tomorrow's Worlds: The Unearthly History of Science Fiction",
            "popularity": 0.6
        },
        {
            "id": 114471,
            "original_name": "Ironheart",
            "popularity": 3.925
        },
        {
            "id": 115446,
            "original_name": "Last Woman on Earth with Sara Pascoe",
            "popularity": 1.016
        },
        {
            "id": 116156,
            "original_name": "Planet Earth III",
            "popularity": 0.936
        },
        {
            "id": 116279,
            "original_name": "Camille Rowe Asks What On Earth Is Wellness?",
            "popularity": 0.6
        },
        {
            "id": 116977,
            "original_name": "Win Jaime's Heart",
            "popularity": 0.6
        },
        {
            "id": 117146,
            "original_name": "Race to the Center of the Earth",
            "popularity": 2.801
        },
        {
            "id": 117487,
            "original_name": "A Wild Year On Earth",
            "popularity": 0.958
        },
        {
            "id": 117629,
            "original_name": "The Year The Earth Went Wild",
            "popularity": 0.6
        },
        {
            "id": 117682,
            "original_name": "Transformers: War for Cybertron: Earthrise",
            "popularity": 10.058
        },
        {
            "id": 117960,
            "original_name": "The Second City Presents: The Last Show Left on Earth",
            "popularity": 0.6
        },
        {
            "id": 118663,
            "original_name": "The Man Who Fell to Earth",
            "popularity": 1.146
        },
        {
            "id": 119376,
            "original_name": "Mindful Earth",
            "popularity": 0.66
        },
        {
            "id": 120123,
            "original_name": "Ancient Egypt Unearthed",
            "popularity": 0.6
        },
        {
            "id": 120140,
            "original_name": "Elliott from Earth",
            "popularity": 10.859
        },
        {
            "id": 120220,
            "original_name": "Earth: The Biography",
            "popularity": 1.4
        },
        {
            "id": 120907,
            "original_name": "Earth Moods",
            "popularity": 1.255
        },
        {
            "id": 122261,
            "original_name": "Strange Heart",
            "popularity": 0.6
        },
        {
            "id": 122525,
            "original_name": "Loud Hearts",
            "popularity": 0.6
        },
        {
            "id": 122895,
            "original_name": "HeartBreak Mountain",
            "popularity": 0.6
        },
        {
            "id": 123594,
            "original_name": "I Heart Arlo",
            "popularity": 6.763
        },
        {
            "id": 123715,
            "original_name": "The Burren: Heart of Stone",
            "popularity": 0.6
        },
        {
            "id": 124834,
            "original_name": "Heartstopper",
            "popularity": 0.88
        },
        {
            "id": 124969,
            "original_name": "Thunder in My Heart",
            "popularity": 2.883
        },
        {
            "id": 125160,
            "original_name": "iHeartRadio Music Awards (2021)",
            "popularity": 0.936
        },
        {
            "id": 126417,
            "original_name": "Beyond Our Earth",
            "popularity": 0.6
        },
        {
            "id": 126912,
            "original_name": "Earth Cycle",
            "popularity": 0.608
        },
        {
            "id": 127700,
            "original_name": "Welcome to Earth",
            "popularity": 33.155
        },
        {
            "id": 128005,
            "original_name": "Target Earth",
            "popularity": 0.6
        },
        {
            "id": 128243,
            "original_name": "Hottest Place on Earth",
            "popularity": 0.6
        },
        {
            "id": 129767,
            "original_name": "Volatile Earth",
            "popularity": 0.6
        },
        {
            "id": 129915,
            "original_name": "Hart to Heart",
            "popularity": 6.402
        },
        {
            "id": 131435,
            "original_name": "The 7 Toughest Days on Earth",
            "popularity": 0.6
        },
        {
            "id": 131788,
            "original_name": "PhilJie's Heart",
            "popularity": 0.6
        },
        {
            "id": 132243,
            "original_name": "The Heart Surgeon",
            "popularity": 0.6
        },
        {
            "id": 133142,
            "original_name": "Heart of the World: Colorado's National Parks",
            "popularity": 0.6
        },
        {
            "id": 133308,
            "original_name": "Stories From The Heart: Loving Miss Bridgette",
            "popularity": 1.738
        },
        {
            "id": 133428,
            "original_name": "Stories From The Heart: Never Say Goodbye",
            "popularity": 0.6
        },
        {
            "id": 133895,
            "original_name": "Heartbreak Holiday",
            "popularity": 0.6
        },
        {
            "id": 134317,
            "original_name": "Earth Odyssey with Dylan Dreyer",
            "popularity": 1.752
        },
        {
            "id": 134959,
            "original_name": "Richard the Lionheart and Saladin: Holy Warriors",
            "popularity": 0.6
        },
        {
            "id": 135888,
            "original_name": "Restoring the Earth: The Age of Nature",
            "popularity": 0.927
        },
        {
            "id": 136051,
            "original_name": "The Earthshot Prize: Repairing Our Planet",
            "popularity": 0.996
        },
        {
            "id": 136121,
            "original_name": "Hello, Heart",
            "popularity": 4.348
        },
        {
            "id": 138494,
            "original_name": "Little Hearts",
            "popularity": 0.6
        },
        {
            "id": 139253,
            "original_name": "HEART TO",
            "popularity": 0.6
        },
        {
            "id": 139539,
            "original_name": "The Origin of Old-Earth Geology",
            "popularity": 0.6
        },
        {
            "id": 139635,
            "original_name": "Stranger Hearts",
            "popularity": 0.6
        },
        {
            "id": 139649,
            "original_name": "Scorched Earth",
            "popularity": 0.6
        },
        {
            "id": 146202,
            "original_name": "Heartlands",
            "popularity": 0.6
        }
    ],
    "relations": [
        {
            "character": "earth"
        },
        {
            "character": "eartb"
        },
        {
            "character": "eartl"
        },
        {
            "character": "earts"
        },
        {
            "character": "earte"
        },
        {
            "character": "earty"
        },
        {
            "character": "eart2"
        },
        {
            "character": "eart?"
        },
        {
            "character": "eart."
        },
        {
            "character": "eartr"
        },
        {
            "character": "eartf"
        }
    ],
    "top20": [
        {
            "id": 14929,
            "original_name": "Heartland",
            "popularity": 47.562
        },
        {
            "id": 33623,
            "original_name": "The Avengers: Earth's Mightiest Heroes",
            "popularity": 42.15
        },
        {
            "id": 127700,
            "original_name": "Welcome to Earth",
            "popularity": 33.155
        },
        {
            "id": 2840,
            "original_name": "Earth: Final Conflict",
            "popularity": 33.152
        },
        {
            "id": 92461,
            "original_name": "Bob Hearts Abishola",
            "popularity": 32.525
        },
        {
            "id": 61888,
            "original_name": "The Last Man on Earth",
            "popularity": 32.021
        },
        {
            "id": 61865,
            "original_name": "When Calls the Heart",
            "popularity": 25.033
        },
        {
            "id": 68595,
            "original_name": "Planet Earth II",
            "popularity": 23.807
        },
        {
            "id": 1044,
            "original_name": "Planet Earth",
            "popularity": 19.739
        },
        {
            "id": 105288,
            "original_name": "Down to Earth with Zac Efron",
            "popularity": 17.694
        },
        {
            "id": 33234,
            "original_name": "The Pillars of the Earth",
            "popularity": 17.132
        },
        {
            "id": 91246,
            "original_name": "Mao Mao: Heroes of Pure Heart",
            "popularity": 14.048
        },
        {
            "id": 97861,
            "original_name": "Night on Earth",
            "popularity": 13.727
        },
        {
            "id": 2585,
            "original_name": "Heartbeat",
            "popularity": 13.033
        },
        {
            "id": 120140,
            "original_name": "Elliott from Earth",
            "popularity": 10.859
        },
        {
            "id": 3556,
            "original_name": "From the Earth to the Moon",
            "popularity": 10.684
        },
        {
            "id": 3945,
            "original_name": "Where on Earth is Carmen Sandiego?",
            "popularity": 10.487
        },
        {
            "id": 117682,
            "original_name": "Transformers: War for Cybertron: Earthrise",
            "popularity": 10.058
        },
        {
            "id": 70189,
            "original_name": "What on Earth?",
            "popularity": 9.664
        },
        {
            "id": 86456,
            "original_name": "Dolly Parton's Heartstrings",
            "popularity": 9.66
        }
    ]
}