{
    "data": [
        {
            "id": 810,
            "original_name": "Armchair Theatre",
            "popularity": 0.6
        },
        {
            "id": 1602,
            "original_name": "Science Fiction Theatre",
            "popularity": 5.887
        },
        {
            "id": 1627,
            "original_name": "Kraft Suspense Theatre",
            "popularity": 9.166
        },
        {
            "id": 4603,
            "original_name": "Faerie Tale Theatre",
            "popularity": 10.331
        },
        {
            "id": 5155,
            "original_name": "TheatreGames LIVE",
            "popularity": 0.6
        },
        {
            "id": 7713,
            "original_name": "Colgate Theatre",
            "popularity": 0.6
        },
        {
            "id": 7809,
            "original_name": "Goodyear Theatre",
            "popularity": 0.929
        },
        {
            "id": 8401,
            "original_name": "The Bigelow Theatre",
            "popularity": 0.6
        },
        {
            "id": 8708,
            "original_name": "Nightmare Theatre",
            "popularity": 0.6
        },
        {
            "id": 9454,
            "original_name": "Cameo Theatre",
            "popularity": 1.512
        },
        {
            "id": 10560,
            "original_name": "Disasterpiece Theatre",
            "popularity": 0.6
        },
        {
            "id": 10643,
            "original_name": "Ford Theatre",
            "popularity": 7.029
        },
        {
            "id": 10962,
            "original_name": "Kraft Television Theatre",
            "popularity": 1.228
        },
        {
            "id": 11290,
            "original_name": "Theatre 625",
            "popularity": 0.6
        },
        {
            "id": 11477,
            "original_name": "Alcoa Theatre",
            "popularity": 3.789
        },
        {
            "id": 11576,
            "original_name": "Bob Hope Presents the Chrysler Theatre",
            "popularity": 21.449
        },
        {
            "id": 11706,
            "original_name": "Armstrong Circle Theatre",
            "popularity": 5.332
        },
        {
            "id": 11785,
            "original_name": "New Wave Theatre",
            "popularity": 0.6
        },
        {
            "id": 12277,
            "original_name": "Lux Video Theatre",
            "popularity": 23.702
        },
        {
            "id": 12674,
            "original_name": "Teatrimundo",
            "popularity": 0.6
        },
        {
            "id": 14080,
            "original_name": "Crawford Mystery Theatre",
            "popularity": 0.6
        },
        {
            "id": 14871,
            "original_name": "Audubon Wildlife Theatre",
            "popularity": 0.6
        },
        {
            "id": 14921,
            "original_name": "General Motors Theatre",
            "popularity": 0.6
        },
        {
            "id": 16331,
            "original_name": "Cosmopolitan Theatre",
            "popularity": 0.6
        },
        {
            "id": 16531,
            "original_name": "Danger Theatre",
            "popularity": 2.602
        },
        {
            "id": 18581,
            "original_name": "Hollywood Television Theatre",
            "popularity": 0.6
        },
        {
            "id": 18700,
            "original_name": "Celanese Theatre",
            "popularity": 0.6
        },
        {
            "id": 18709,
            "original_name": "NBC Television Opera Theatre",
            "popularity": 0.6
        },
        {
            "id": 18911,
            "original_name": "NBC Children's Theatre",
            "popularity": 0.6
        },
        {
            "id": 18934,
            "original_name": "Theatre in America",
            "popularity": 0.6
        },
        {
            "id": 19093,
            "original_name": "The Chevrolet Tele-Theatre",
            "popularity": 2.547
        },
        {
            "id": 19402,
            "original_name": "The Beatrice Arthur Special",
            "popularity": 0.6
        },
        {
            "id": 21132,
            "original_name": "Theatre Parade",
            "popularity": 0.6
        },
        {
            "id": 21190,
            "original_name": "The Silver Theatre",
            "popularity": 0.6
        },
        {
            "id": 21245,
            "original_name": "Chiller Theatre",
            "popularity": 0.6
        },
        {
            "id": 21503,
            "original_name": "Sunday Night Theatre",
            "popularity": 1.735
        },
        {
            "id": 21689,
            "original_name": "Frontier Theatre",
            "popularity": 0.6
        },
        {
            "id": 21783,
            "original_name": "Teatro Popular Caracol",
            "popularity": 0.6
        },
        {
            "id": 22066,
            "original_name": "The Eddie Cantor Comedy Theatre",
            "popularity": 0.6
        },
        {
            "id": 22217,
            "original_name": "Orient Theatre",
            "popularity": 0.841
        },
        {
            "id": 22744,
            "original_name": "Crown Theatre with Gloria Swanson",
            "popularity": 0.6
        },
        {
            "id": 22846,
            "original_name": "Nash Airflyte Theatre",
            "popularity": 1.36
        },
        {
            "id": 22946,
            "original_name": "Somerset Maugham Theatre",
            "popularity": 1.4
        },
        {
            "id": 24451,
            "original_name": "Hollywood Theatre Time",
            "popularity": 0.6
        },
        {
            "id": 24641,
            "original_name": "Hollywood Summer Theatre",
            "popularity": 0.6
        },
        {
            "id": 24944,
            "original_name": "Faith Baldwin Romance Theatre",
            "popularity": 0.6
        },
        {
            "id": 25527,
            "original_name": "The National Theatre Of Brent Presents...",
            "popularity": 0.627
        },
        {
            "id": 25914,
            "original_name": "Revlon Mirror Theatre",
            "popularity": 0.841
        },
        {
            "id": 26106,
            "original_name": "Shoestring Theatre",
            "popularity": 0.6
        },
        {
            "id": 26124,
            "original_name": "Medallion Theatre",
            "popularity": 2.198
        },
        {
            "id": 27750,
            "original_name": "Starlight Theatre",
            "popularity": 1.134
        },
        {
            "id": 27751,
            "original_name": "Academy Theatre",
            "popularity": 0.6
        },
        {
            "id": 27871,
            "original_name": "Mark Saber Mystery Theatre",
            "popularity": 0.6
        },
        {
            "id": 28571,
            "original_name": "Kraft Mystery Theatre",
            "popularity": 3.454
        },
        {
            "id": 29265,
            "original_name": "Broadway Television Theatre",
            "popularity": 0.6
        },
        {
            "id": 29917,
            "original_name": "Thirty-Minute Theatre",
            "popularity": 15.728
        },
        {
            "id": 31062,
            "original_name": "Bell System Family Theatre",
            "popularity": 0.6
        },
        {
            "id": 31063,
            "original_name": "ABC Theatre",
            "popularity": 0.6
        },
        {
            "id": 33308,
            "original_name": "A Midsummer Theatre",
            "popularity": 0.6
        },
        {
            "id": 33780,
            "original_name": "Theatre Canada",
            "popularity": 0.6
        },
        {
            "id": 36191,
            "original_name": "Beatrix 30 jaar Koningin",
            "popularity": 0.6
        },
        {
            "id": 38248,
            "original_name": "Theatre Night",
            "popularity": 1.865
        },
        {
            "id": 39181,
            "original_name": "Academy Theatre",
            "popularity": 0.6
        },
        {
            "id": 39988,
            "original_name": "Saturday Night Theatre",
            "popularity": 0.6
        },
        {
            "id": 42082,
            "original_name": "Footlight Theatre",
            "popularity": 0.6
        },
        {
            "id": 42535,
            "original_name": "Great West End Theatres",
            "popularity": 0.6
        },
        {
            "id": 43225,
            "original_name": "George Schaefer Showcase Theatre",
            "popularity": 0.6
        },
        {
            "id": 43804,
            "original_name": "Beatrix, Oranje onder vuur",
            "popularity": 0.6
        },
        {
            "id": 44255,
            "original_name": "The Errol Flynn Theatre",
            "popularity": 0.6
        },
        {
            "id": 44930,
            "original_name": "Your Story Theatre",
            "popularity": 0.6
        },
        {
            "id": 45111,
            "original_name": "Family Theatre",
            "popularity": 0.6
        },
        {
            "id": 47825,
            "original_name": "The Tale of Beatrix Potter",
            "popularity": 0.677
        },
        {
            "id": 47876,
            "original_name": "Teatr telewizji",
            "popularity": 1.564
        },
        {
            "id": 48070,
            "original_name": "ITV Sunday Night Theatre",
            "popularity": 0.896
        },
        {
            "id": 48127,
            "original_name": "Thursday Theatre",
            "popularity": 0.6
        },
        {
            "id": 48147,
            "original_name": "American Ballet Theatre's \"Romeo and Juliet\" Live",
            "popularity": 0.6
        },
        {
            "id": 48689,
            "original_name": "Armchair Mystery Theatre",
            "popularity": 0.6
        },
        {
            "id": 49832,
            "original_name": "The Nutcracker (American Ballet Theatre)",
            "popularity": 0.6
        },
        {
            "id": 51354,
            "original_name": "Madame Mod Theatre",
            "popularity": 0.6
        },
        {
            "id": 55625,
            "original_name": "SockPuppet Theatre",
            "popularity": 0.6
        },
        {
            "id": 56399,
            "original_name": "Theatre '62",
            "popularity": 0.6
        },
        {
            "id": 56623,
            "original_name": "Uptown: A Tribute to the Apollo Theatre",
            "popularity": 0.6
        },
        {
            "id": 58844,
            "original_name": "Ethel Barrymore Theatre",
            "popularity": 0.6
        },
        {
            "id": 58900,
            "original_name": "Celanese Theatre",
            "popularity": 0.6
        },
        {
            "id": 59261,
            "original_name": "Chiller Theatre",
            "popularity": 0.6
        },
        {
            "id": 78291,
            "original_name": "Nite Owl Theatre",
            "popularity": 0.6
        },
        {
            "id": 87125,
            "original_name": "Larga vida al teatro",
            "popularity": 0.6
        },
        {
            "id": 87369,
            "original_name": "Sex Drugs & Theatre",
            "popularity": 2.161
        },
        {
            "id": 94072,
            "original_name": "Aesop's Theatre",
            "popularity": 0.6
        },
        {
            "id": 94799,
            "original_name": "Beatrix Potter : Les Contes de Pierre Lapin et ses amis",
            "popularity": 0.627
        },
        {
            "id": 94832,
            "original_name": "Inside the Operating Theatre",
            "popularity": 0.6
        },
        {
            "id": 102390,
            "original_name": "Teatro en Chilevisi\u00f3n",
            "popularity": 1.485
        },
        {
            "id": 111487,
            "original_name": "O Teatro das Tesouras",
            "popularity": 0.6
        },
        {
            "id": 114089,
            "original_name": "Colgate Theatre",
            "popularity": 0.6
        },
        {
            "id": 122461,
            "original_name": "The Ford Television Theatre",
            "popularity": 0.841
        },
        {
            "id": 126291,
            "original_name": "Nuestro teatro",
            "popularity": 1.345
        },
        {
            "id": 126818,
            "original_name": "Richard Herring's Leicester Square Theatre Podcast",
            "popularity": 29.278
        },
        {
            "id": 126822,
            "original_name": "Theatre Macabre",
            "popularity": 0.6
        },
        {
            "id": 127467,
            "original_name": "Lilli Palmer Theatre",
            "popularity": 1.553
        },
        {
            "id": 127909,
            "original_name": "The Theatre Channel",
            "popularity": 0.6
        },
        {
            "id": 129362,
            "original_name": "Great British Theatre",
            "popularity": 0.84
        },
        {
            "id": 134908,
            "original_name": "Theatre Box",
            "popularity": 0.6
        },
        {
            "id": 137984,
            "original_name": "Hist\u00f3ria do Teatro de Revista em Portugal",
            "popularity": 0.6
        },
        {
            "id": 138495,
            "original_name": "Soho Theatre Live",
            "popularity": 0.6
        }
    ],
    "relations": [
        {
            "character": "eatre"
        },
        {
            "character": "eatri"
        },
        {
            "character": "eatro"
        }
    ],
    "top20": [
        {
            "id": 126818,
            "original_name": "Richard Herring's Leicester Square Theatre Podcast",
            "popularity": 29.278
        },
        {
            "id": 12277,
            "original_name": "Lux Video Theatre",
            "popularity": 23.702
        },
        {
            "id": 11576,
            "original_name": "Bob Hope Presents the Chrysler Theatre",
            "popularity": 21.449
        },
        {
            "id": 29917,
            "original_name": "Thirty-Minute Theatre",
            "popularity": 15.728
        },
        {
            "id": 4603,
            "original_name": "Faerie Tale Theatre",
            "popularity": 10.331
        },
        {
            "id": 1627,
            "original_name": "Kraft Suspense Theatre",
            "popularity": 9.166
        },
        {
            "id": 10643,
            "original_name": "Ford Theatre",
            "popularity": 7.029
        },
        {
            "id": 1602,
            "original_name": "Science Fiction Theatre",
            "popularity": 5.887
        },
        {
            "id": 11706,
            "original_name": "Armstrong Circle Theatre",
            "popularity": 5.332
        },
        {
            "id": 11477,
            "original_name": "Alcoa Theatre",
            "popularity": 3.789
        },
        {
            "id": 28571,
            "original_name": "Kraft Mystery Theatre",
            "popularity": 3.454
        },
        {
            "id": 16531,
            "original_name": "Danger Theatre",
            "popularity": 2.602
        },
        {
            "id": 19093,
            "original_name": "The Chevrolet Tele-Theatre",
            "popularity": 2.547
        },
        {
            "id": 26124,
            "original_name": "Medallion Theatre",
            "popularity": 2.198
        },
        {
            "id": 87369,
            "original_name": "Sex Drugs & Theatre",
            "popularity": 2.161
        },
        {
            "id": 38248,
            "original_name": "Theatre Night",
            "popularity": 1.865
        },
        {
            "id": 21503,
            "original_name": "Sunday Night Theatre",
            "popularity": 1.735
        },
        {
            "id": 47876,
            "original_name": "Teatr telewizji",
            "popularity": 1.564
        },
        {
            "id": 127467,
            "original_name": "Lilli Palmer Theatre",
            "popularity": 1.553
        },
        {
            "id": 9454,
            "original_name": "Cameo Theatre",
            "popularity": 1.512
        }
    ]
}