{
    "data": [
        {
            "id": 802,
            "original_name": "TV Heaven, Telly Hell",
            "popularity": 1.489
        },
        {
            "id": 2440,
            "original_name": "Highway to Heaven",
            "popularity": 25.265
        },
        {
            "id": 3579,
            "original_name": "The Angry Beavers",
            "popularity": 19.407
        },
        {
            "id": 4550,
            "original_name": "7th Heaven",
            "popularity": 12.494
        },
        {
            "id": 4759,
            "original_name": "The New Leave It to Beaver",
            "popularity": 5.418
        },
        {
            "id": 5133,
            "original_name": "Leave It to Beaver",
            "popularity": 19.065
        },
        {
            "id": 6771,
            "original_name": "All Dogs Go To Heaven: The Series",
            "popularity": 4.176
        },
        {
            "id": 11337,
            "original_name": "Take It or Leave It",
            "popularity": 0.849
        },
        {
            "id": 12210,
            "original_name": "Weavers Green",
            "popularity": 0.6
        },
        {
            "id": 13373,
            "original_name": "Good Heavens",
            "popularity": 3.332
        },
        {
            "id": 13466,
            "original_name": "Pennies from Heaven",
            "popularity": 2.825
        },
        {
            "id": 13711,
            "original_name": "The Last Voices From Heaven",
            "popularity": 0.6
        },
        {
            "id": 13821,
            "original_name": "The Crow: Stairway to Heaven",
            "popularity": 13.643
        },
        {
            "id": 14304,
            "original_name": "Three Steps to Heaven",
            "popularity": 0.6
        },
        {
            "id": 16296,
            "original_name": "The Heaven and Earth Show",
            "popularity": 6.304
        },
        {
            "id": 16657,
            "original_name": "TV Heaven",
            "popularity": 0.6
        },
        {
            "id": 16745,
            "original_name": "World Cup Heaven and Hell",
            "popularity": 0.6
        },
        {
            "id": 18670,
            "original_name": "Blue Heaven",
            "popularity": 0.6
        },
        {
            "id": 18841,
            "original_name": "Stairway to Heaven",
            "popularity": 1.34
        },
        {
            "id": 19246,
            "original_name": "Blue Heaven",
            "popularity": 1.846
        },
        {
            "id": 19307,
            "original_name": "Tek It Or Leave It",
            "popularity": 0.6
        },
        {
            "id": 20343,
            "original_name": "Leave Us Kids Alone",
            "popularity": 0.6
        },
        {
            "id": 20807,
            "original_name": "California Heaven",
            "popularity": 0.6
        },
        {
            "id": 21188,
            "original_name": "Leave It to the Girls",
            "popularity": 0.6
        },
        {
            "id": 22074,
            "original_name": "Made in Heaven",
            "popularity": 0.6
        },
        {
            "id": 22388,
            "original_name": "Leave It To Charlie",
            "popularity": 1.4
        },
        {
            "id": 22900,
            "original_name": "AWOL - Absent WithOut Leave",
            "popularity": 1.322
        },
        {
            "id": 23711,
            "original_name": "Heaven's Fate",
            "popularity": 1.259
        },
        {
            "id": 24060,
            "original_name": "Leave It To The Girls",
            "popularity": 0.6
        },
        {
            "id": 24582,
            "original_name": "Loser Leaves Town",
            "popularity": 0.6
        },
        {
            "id": 25047,
            "original_name": "A Match Made In Heaven",
            "popularity": 0.6
        },
        {
            "id": 25516,
            "original_name": "Kindly Leave The Kerb",
            "popularity": 0.626
        },
        {
            "id": 26502,
            "original_name": "Food Heavens",
            "popularity": 0.6
        },
        {
            "id": 26549,
            "original_name": "Leave It To Pastry",
            "popularity": 0.6
        },
        {
            "id": 27501,
            "original_name": "Heaven Help Us",
            "popularity": 1.347
        },
        {
            "id": 27679,
            "original_name": "Leave It to Larry",
            "popularity": 0.6
        },
        {
            "id": 28373,
            "original_name": "Heaven for Betsy",
            "popularity": 0.6
        },
        {
            "id": 29823,
            "original_name": "Kindly Leave The Stage",
            "popularity": 0.6
        },
        {
            "id": 30323,
            "original_name": "The Hills of Heaven",
            "popularity": 0.6
        },
        {
            "id": 31181,
            "original_name": "Leave It to Lamas",
            "popularity": 0.6
        },
        {
            "id": 31459,
            "original_name": "No Leave, No Life",
            "popularity": 0.6
        },
        {
            "id": 32272,
            "original_name": "Charley Weaver's Hobby Lobby",
            "popularity": 0.664
        },
        {
            "id": 33096,
            "original_name": "101 Ways to Leave a Gameshow",
            "popularity": 1.343
        },
        {
            "id": 34368,
            "original_name": "A Weaver on the Horizon",
            "popularity": 0.6
        },
        {
            "id": 38510,
            "original_name": "Leave It to Todhunter",
            "popularity": 0.6
        },
        {
            "id": 38716,
            "original_name": "Heaven's Gate The Definitive Story",
            "popularity": 0.6
        },
        {
            "id": 38875,
            "original_name": "100 Days to Heaven",
            "popularity": 0.6
        },
        {
            "id": 39734,
            "original_name": "101 Ways to Leave a Game Show",
            "popularity": 0.6
        },
        {
            "id": 40107,
            "original_name": "Beaver Falls",
            "popularity": 4.764
        },
        {
            "id": 41732,
            "original_name": "Heaven's Flower The Legend of Arcana",
            "popularity": 0.6
        },
        {
            "id": 41922,
            "original_name": "The Heaven Sword and Dragon Saber",
            "popularity": 0.6
        },
        {
            "id": 44182,
            "original_name": "Leave It to Bryan",
            "popularity": 0.749
        },
        {
            "id": 44644,
            "original_name": "Leave It to Mrs O'Brien",
            "popularity": 0.6
        },
        {
            "id": 47545,
            "original_name": "Ellen MacArthur: Sailing Through Heaven And Hell",
            "popularity": 0.6
        },
        {
            "id": 48284,
            "original_name": "Dead End Heaven",
            "popularity": 0.6
        },
        {
            "id": 49048,
            "original_name": "The Kid from Heaven",
            "popularity": 0.6
        },
        {
            "id": 50709,
            "original_name": "The Leaves of Time",
            "popularity": 0.6
        },
        {
            "id": 53712,
            "original_name": "Our Heaven",
            "popularity": 0.6
        },
        {
            "id": 56327,
            "original_name": "A Little Piece of Heaven",
            "popularity": 0.6
        },
        {
            "id": 60070,
            "original_name": "Dying to Leave",
            "popularity": 0.6
        },
        {
            "id": 60303,
            "original_name": "Vimy Ridge: Heaven To Hell",
            "popularity": 0.6
        },
        {
            "id": 69677,
            "original_name": "Leave It to Stevie",
            "popularity": 1.438
        },
        {
            "id": 87407,
            "original_name": "Made in Heaven",
            "popularity": 4.308
        },
        {
            "id": 88728,
            "original_name": "I Think You Should Leave with Tim Robinson",
            "popularity": 13.265
        },
        {
            "id": 90988,
            "original_name": "Heaven\uff1f\uff5e\u3054\u82e6\u697d\u30ec\u30b9\u30c8\u30e9\u30f3\uff5e",
            "popularity": 1.943
        },
        {
            "id": 92445,
            "original_name": "The Beaverton",
            "popularity": 0.661
        },
        {
            "id": 93026,
            "original_name": "Heaven's Feel",
            "popularity": 0.84
        },
        {
            "id": 94635,
            "original_name": "Leavenworth",
            "popularity": 1.223
        },
        {
            "id": 95233,
            "original_name": "Two Steps from Heaven",
            "popularity": 2.315
        },
        {
            "id": 98168,
            "original_name": "Trial of Leaves",
            "popularity": 0.6
        },
        {
            "id": 105792,
            "original_name": "Maid in Heaven",
            "popularity": 0.733
        },
        {
            "id": 113678,
            "original_name": "Heaven's Gate: The Cult of Cults",
            "popularity": 2.261
        },
        {
            "id": 114155,
            "original_name": "Temptation Island Love or Leave",
            "popularity": 2.145
        },
        {
            "id": 119838,
            "original_name": "For Heaven's Sake",
            "popularity": 8.397
        },
        {
            "id": 120503,
            "original_name": "Leave No Trace",
            "popularity": 0.6
        },
        {
            "id": 123971,
            "original_name": "Edge of Heaven",
            "popularity": 0.6
        },
        {
            "id": 125325,
            "original_name": "Another Heaven",
            "popularity": 0.841
        },
        {
            "id": 127192,
            "original_name": "The Scars Our Parents Leave",
            "popularity": 0.84
        },
        {
            "id": 128095,
            "original_name": "Under the Banner of Heaven",
            "popularity": 7.022
        },
        {
            "id": 129314,
            "original_name": "\u738b\u30c9\u30ed\u30dc\u30a6 Jing in Seventh Heaven",
            "popularity": 0.738
        },
        {
            "id": 130195,
            "original_name": "Match Made In Heaven Returns",
            "popularity": 0.6
        },
        {
            "id": 138452,
            "original_name": "Battle Through The Heavens 3 Year Agreement",
            "popularity": 7.891
        }
    ],
    "relations": [
        {
            "character": "eaven"
        },
        {
            "character": "eaver"
        },
        {
            "character": "eaves"
        }
    ],
    "top20": [
        {
            "id": 2440,
            "original_name": "Highway to Heaven",
            "popularity": 25.265
        },
        {
            "id": 3579,
            "original_name": "The Angry Beavers",
            "popularity": 19.407
        },
        {
            "id": 5133,
            "original_name": "Leave It to Beaver",
            "popularity": 19.065
        },
        {
            "id": 13821,
            "original_name": "The Crow: Stairway to Heaven",
            "popularity": 13.643
        },
        {
            "id": 88728,
            "original_name": "I Think You Should Leave with Tim Robinson",
            "popularity": 13.265
        },
        {
            "id": 4550,
            "original_name": "7th Heaven",
            "popularity": 12.494
        },
        {
            "id": 119838,
            "original_name": "For Heaven's Sake",
            "popularity": 8.397
        },
        {
            "id": 138452,
            "original_name": "Battle Through The Heavens 3 Year Agreement",
            "popularity": 7.891
        },
        {
            "id": 128095,
            "original_name": "Under the Banner of Heaven",
            "popularity": 7.022
        },
        {
            "id": 16296,
            "original_name": "The Heaven and Earth Show",
            "popularity": 6.304
        },
        {
            "id": 4759,
            "original_name": "The New Leave It to Beaver",
            "popularity": 5.418
        },
        {
            "id": 40107,
            "original_name": "Beaver Falls",
            "popularity": 4.764
        },
        {
            "id": 87407,
            "original_name": "Made in Heaven",
            "popularity": 4.308
        },
        {
            "id": 6771,
            "original_name": "All Dogs Go To Heaven: The Series",
            "popularity": 4.176
        },
        {
            "id": 13373,
            "original_name": "Good Heavens",
            "popularity": 3.332
        },
        {
            "id": 13466,
            "original_name": "Pennies from Heaven",
            "popularity": 2.825
        },
        {
            "id": 95233,
            "original_name": "Two Steps from Heaven",
            "popularity": 2.315
        },
        {
            "id": 113678,
            "original_name": "Heaven's Gate: The Cult of Cults",
            "popularity": 2.261
        },
        {
            "id": 114155,
            "original_name": "Temptation Island Love or Leave",
            "popularity": 2.145
        },
        {
            "id": 90988,
            "original_name": "Heaven\uff1f\uff5e\u3054\u82e6\u697d\u30ec\u30b9\u30c8\u30e9\u30f3\uff5e",
            "popularity": 1.943
        }
    ]
}