{
    "data": [
        {
            "id": 16478,
            "original_name": "Dechrau Canu, Dechrau Canmol",
            "popularity": 0.6
        }
    ],
    "relations": [],
    "top20": [
        {
            "id": 16478,
            "original_name": "Dechrau Canu, Dechrau Canmol",
            "popularity": 0.6
        }
    ]
}