{
    "data": [
        {
            "id": 459,
            "original_name": "Becky and Barnaby Bear",
            "popularity": 0.6
        },
        {
            "id": 77430,
            "original_name": "The Bagel And Becky Show",
            "popularity": 0.6
        }
    ],
    "relations": [],
    "top20": [
        {
            "id": 459,
            "original_name": "Becky and Barnaby Bear",
            "popularity": 0.6
        },
        {
            "id": 77430,
            "original_name": "The Bagel And Becky Show",
            "popularity": 0.6
        }
    ]
}