{
    "data": [
        {
            "id": 71,
            "original_name": "Malcolm & Eddie",
            "popularity": 8.015
        },
        {
            "id": 204,
            "original_name": "Freddie",
            "popularity": 5.165
        },
        {
            "id": 606,
            "original_name": "Ed, Edd n Eddy",
            "popularity": 39.042
        },
        {
            "id": 1359,
            "original_name": "The Real Wedding Crashers",
            "popularity": 1.826
        },
        {
            "id": 1721,
            "original_name": "Keen Eddie",
            "popularity": 4.801
        },
        {
            "id": 1740,
            "original_name": "The Wedding Album",
            "popularity": 0.6
        },
        {
            "id": 2168,
            "original_name": "The Adventures of Teddy Ruxpin",
            "popularity": 2.572
        },
        {
            "id": 4346,
            "original_name": "Freddy's Nightmares",
            "popularity": 12.901
        },
        {
            "id": 4992,
            "original_name": "The Wedding Bells",
            "popularity": 3.627
        },
        {
            "id": 5260,
            "original_name": "A Wedding Story",
            "popularity": 0.6
        },
        {
            "id": 5530,
            "original_name": "Wedding SOS",
            "popularity": 0.6
        },
        {
            "id": 6137,
            "original_name": "The Courtship of Eddie's Father",
            "popularity": 4.847
        },
        {
            "id": 6518,
            "original_name": "100 Deeds for Eddie McDowd",
            "popularity": 3.381
        },
        {
            "id": 7060,
            "original_name": "My Big Redneck Wedding",
            "popularity": 1.656
        },
        {
            "id": 7433,
            "original_name": "Reviewmageddon",
            "popularity": 0.6
        },
        {
            "id": 7506,
            "original_name": "Wedding Central",
            "popularity": 0.6
        },
        {
            "id": 8383,
            "original_name": "Gay Weddings",
            "popularity": 0.6
        },
        {
            "id": 8414,
            "original_name": "The Cases of Eddie Drake",
            "popularity": 0.6
        },
        {
            "id": 8435,
            "original_name": "Freddie Starr",
            "popularity": 0.654
        },
        {
            "id": 8534,
            "original_name": "The Eddy Arnold Show",
            "popularity": 0.6
        },
        {
            "id": 8547,
            "original_name": "Eddy Arnold Time",
            "popularity": 0.6
        },
        {
            "id": 9451,
            "original_name": "The Wedding",
            "popularity": 0.6
        },
        {
            "id": 10221,
            "original_name": "The Chicago Teddy Bears",
            "popularity": 1.673
        },
        {
            "id": 10590,
            "original_name": "Platinum Weddings",
            "popularity": 1.161
        },
        {
            "id": 10987,
            "original_name": "The Redd Foxx Show",
            "popularity": 1.941
        },
        {
            "id": 11444,
            "original_name": "Coke Time with Eddie Fisher",
            "popularity": 0.627
        },
        {
            "id": 12340,
            "original_name": "The Famous Teddy Z",
            "popularity": 1.973
        },
        {
            "id": 12519,
            "original_name": "The Ruff and Reddy Show",
            "popularity": 3.746
        },
        {
            "id": 12767,
            "original_name": "The Wedding",
            "popularity": 1.095
        },
        {
            "id": 13068,
            "original_name": "My Fabulous Gay Wedding",
            "popularity": 0.6
        },
        {
            "id": 13467,
            "original_name": "Teddy Edward",
            "popularity": 0.6
        },
        {
            "id": 14728,
            "original_name": "Fredd Bear's Breakfast-A-Go-Go",
            "popularity": 0.6
        },
        {
            "id": 14821,
            "original_name": "Whose Wedding Is It Anyway?",
            "popularity": 1.472
        },
        {
            "id": 15696,
            "original_name": "Rod, Jane and Freddy",
            "popularity": 2.083
        },
        {
            "id": 17527,
            "original_name": "Animal Armageddon",
            "popularity": 0.6
        },
        {
            "id": 18893,
            "original_name": "The Eddie Files",
            "popularity": 0.6
        },
        {
            "id": 19571,
            "original_name": "Amazing Wedding Cakes",
            "popularity": 0.806
        },
        {
            "id": 22066,
            "original_name": "The Eddie Cantor Comedy Theatre",
            "popularity": 0.6
        },
        {
            "id": 22440,
            "original_name": "Eddie Retractorhead",
            "popularity": 0.6
        },
        {
            "id": 22604,
            "original_name": "Nice Guy Eddie",
            "popularity": 1.4
        },
        {
            "id": 22611,
            "original_name": "Freddie Starr's Variety Madhouse",
            "popularity": 0.667
        },
        {
            "id": 22976,
            "original_name": "Four Weddings",
            "popularity": 2.454
        },
        {
            "id": 23073,
            "original_name": "The Eddie Fisher Show",
            "popularity": 0.6
        },
        {
            "id": 23528,
            "original_name": "America's Trashiest Weddings",
            "popularity": 0.6
        },
        {
            "id": 23554,
            "original_name": "Wedding Stories",
            "popularity": 0.6
        },
        {
            "id": 23990,
            "original_name": "OH!MY WEDDING",
            "popularity": 0.6
        },
        {
            "id": 24624,
            "original_name": "Colin and Justin's Wedding Belles",
            "popularity": 0.6
        },
        {
            "id": 25167,
            "original_name": "Eddie Griffin: Going For Broke",
            "popularity": 0.6
        },
        {
            "id": 25324,
            "original_name": "The Helen Reddy Show",
            "popularity": 0.829
        },
        {
            "id": 26000,
            "original_name": "The Freddie Starr Show",
            "popularity": 0.6
        },
        {
            "id": 26057,
            "original_name": "Weird Weddings",
            "popularity": 0.6
        },
        {
            "id": 26520,
            "original_name": "Avoiding Armageddon",
            "popularity": 0.6
        },
        {
            "id": 26820,
            "original_name": "Wedding Day",
            "popularity": 0.6
        },
        {
            "id": 26858,
            "original_name": "Redd Foxx",
            "popularity": 0.6
        },
        {
            "id": 27376,
            "original_name": "My Fair Wedding",
            "popularity": 0.6
        },
        {
            "id": 27684,
            "original_name": "Million Dollar Wedding",
            "popularity": 1.129
        },
        {
            "id": 27974,
            "original_name": "Freddie and Max",
            "popularity": 0.699
        },
        {
            "id": 28683,
            "original_name": "The Eddie Capra Mysteries",
            "popularity": 3.979
        },
        {
            "id": 29141,
            "original_name": "Big Eddie",
            "popularity": 1.405
        },
        {
            "id": 29251,
            "original_name": "A Wedding",
            "popularity": 0.6
        },
        {
            "id": 29895,
            "original_name": "Wedded To Perfection",
            "popularity": 0.6
        },
        {
            "id": 29912,
            "original_name": "Eddie Dodd",
            "popularity": 2.038
        },
        {
            "id": 30099,
            "original_name": "Wild Weddings",
            "popularity": 0.6
        },
        {
            "id": 30440,
            "original_name": "The Fabulous Life Presents: My Big Fat Fabulous Wedding",
            "popularity": 0.6
        },
        {
            "id": 31738,
            "original_name": "Wedding Wars",
            "popularity": 0.6
        },
        {
            "id": 33595,
            "original_name": "Shedding for the Wedding",
            "popularity": 0.6
        },
        {
            "id": 33797,
            "original_name": "Four Weddings",
            "popularity": 0.6
        },
        {
            "id": 33896,
            "original_name": "The Life and Times of Eddie Roberts",
            "popularity": 0.6
        },
        {
            "id": 34049,
            "original_name": "Tying the Knot: The Wedding of Melissa Joan Hart",
            "popularity": 0.6
        },
        {
            "id": 34340,
            "original_name": "My Big Friggin' Wedding",
            "popularity": 0.6
        },
        {
            "id": 34564,
            "original_name": "My Big Friggin' Wedding",
            "popularity": 0.6
        },
        {
            "id": 37469,
            "original_name": "Eddie Stobart: Trucks and Trailers",
            "popularity": 1.223
        },
        {
            "id": 37694,
            "original_name": "Big Fat Gypsy Weddings",
            "popularity": 0.968
        },
        {
            "id": 38152,
            "original_name": "STORIbook Weddings",
            "popularity": 0.843
        },
        {
            "id": 38608,
            "original_name": "Freddie Flintoff Versus the World",
            "popularity": 0.6
        },
        {
            "id": 39264,
            "original_name": "Wedding Wars",
            "popularity": 0.6
        },
        {
            "id": 40035,
            "original_name": "La La's Full Court Wedding",
            "popularity": 0.6
        },
        {
            "id": 42658,
            "original_name": "Abusive Teddy Bear",
            "popularity": 0.6
        },
        {
            "id": 43860,
            "original_name": "Wedding Band",
            "popularity": 3.031
        },
        {
            "id": 43998,
            "original_name": "Wedding ring",
            "popularity": 0.6
        },
        {
            "id": 45144,
            "original_name": "On Freddie Roach",
            "popularity": 0.6
        },
        {
            "id": 45498,
            "original_name": "BJ's Teddy Bear Club",
            "popularity": 0.6
        },
        {
            "id": 45589,
            "original_name": "The Member of the Wedding",
            "popularity": 0.6
        },
        {
            "id": 47021,
            "original_name": "Wedding Day",
            "popularity": 0.6
        },
        {
            "id": 47647,
            "original_name": "Pauline Calf's Wedding Video",
            "popularity": 0.6
        },
        {
            "id": 47810,
            "original_name": "BBC Royal Wedding Coverage",
            "popularity": 0.6
        },
        {
            "id": 48188,
            "original_name": "The Royal Wedding",
            "popularity": 0.6
        },
        {
            "id": 48446,
            "original_name": "Im Gespr\u00e4ch mit Teddy Podgorski",
            "popularity": 0.6
        },
        {
            "id": 48809,
            "original_name": "The Indomitable Teddy Roosevelt",
            "popularity": 0.6
        },
        {
            "id": 48982,
            "original_name": "The Eddie Rabbit Special",
            "popularity": 0.6
        },
        {
            "id": 51123,
            "original_name": "Check Point Teddy",
            "popularity": 0.6
        },
        {
            "id": 51583,
            "original_name": "Eddie Izzard's Mandela Marathons",
            "popularity": 0.845
        },
        {
            "id": 51868,
            "original_name": "Edderkoppen",
            "popularity": 0.728
        },
        {
            "id": 52523,
            "original_name": "Dedd AlTayyar",
            "popularity": 0.6
        },
        {
            "id": 54711,
            "original_name": "Laila's Wedding",
            "popularity": 0.6
        },
        {
            "id": 54937,
            "original_name": "Zulu Royal 2: The Wedding",
            "popularity": 0.6
        },
        {
            "id": 55797,
            "original_name": "A Very British Wedding",
            "popularity": 0.6
        },
        {
            "id": 58401,
            "original_name": "Celebrity Wedding Planner",
            "popularity": 0.6
        },
        {
            "id": 59040,
            "original_name": "Spell-Mageddon",
            "popularity": 0.627
        },
        {
            "id": 59241,
            "original_name": "Teddybears",
            "popularity": 0.6
        },
        {
            "id": 59649,
            "original_name": "The Wedding Belles",
            "popularity": 0.6
        },
        {
            "id": 59794,
            "original_name": "I Dream of NeNe: The Wedding",
            "popularity": 0.6
        },
        {
            "id": 60438,
            "original_name": "My Big Fat American Gypsy Wedding",
            "popularity": 1.471
        },
        {
            "id": 60650,
            "original_name": "Cybergeddon",
            "popularity": 3.155
        },
        {
            "id": 65626,
            "original_name": "Sedd\u00fclbahir 32 Saat",
            "popularity": 0.6
        },
        {
            "id": 68924,
            "original_name": "Judge Dredd: Superfiend",
            "popularity": 0.6
        },
        {
            "id": 69188,
            "original_name": "Another Wedding",
            "popularity": 0.6
        },
        {
            "id": 69371,
            "original_name": "Gutes Wedding, schlechtes Wedding",
            "popularity": 0.659
        },
        {
            "id": 71660,
            "original_name": "Judge Dredd: Mega-City One",
            "popularity": 0.6
        },
        {
            "id": 72275,
            "original_name": "FBI redder h\u00f8na",
            "popularity": 0.6
        },
        {
            "id": 72552,
            "original_name": "Five Nights at Freddy's: High School",
            "popularity": 4.593
        },
        {
            "id": 72995,
            "original_name": "Freddy, leven in de brouwerij",
            "popularity": 0.851
        },
        {
            "id": 73469,
            "original_name": "The Redd Foxx Comedy Hour",
            "popularity": 0.6
        },
        {
            "id": 76298,
            "original_name": "Live redder verden. Litt.",
            "popularity": 0.6
        },
        {
            "id": 76508,
            "original_name": "Say Yes: Wedding SOS",
            "popularity": 0.632
        },
        {
            "id": 77527,
            "original_name": "Ramm og T\u00f8rnquist redder Norge",
            "popularity": 0.6
        },
        {
            "id": 79503,
            "original_name": "Royal Wedding Watch",
            "popularity": 1.504
        },
        {
            "id": 79981,
            "original_name": "A Wedding and a Murder",
            "popularity": 0.6
        },
        {
            "id": 80084,
            "original_name": "I Want THAT Wedding",
            "popularity": 0.6
        },
        {
            "id": 81616,
            "original_name": "Frank \u2013 der Weddingplaner",
            "popularity": 0.6
        },
        {
            "id": 81825,
            "original_name": "Harald und Eddi",
            "popularity": 0.84
        },
        {
            "id": 82674,
            "original_name": "Inside Eddie Johnson",
            "popularity": 0.6
        },
        {
            "id": 84282,
            "original_name": "Four Weddings and a Funeral",
            "popularity": 8.552
        },
        {
            "id": 84955,
            "original_name": "Airmageddon",
            "popularity": 0.849
        },
        {
            "id": 85763,
            "original_name": "Crazy Beautiful Weddings",
            "popularity": 0.607
        },
        {
            "id": 86390,
            "original_name": "Eddie Izzard: Marathon Man",
            "popularity": 1.454
        },
        {
            "id": 86540,
            "original_name": "My Great Big Live Wedding with David Tutera",
            "popularity": 0.639
        },
        {
            "id": 86784,
            "original_name": "The Eddy",
            "popularity": 6.921
        },
        {
            "id": 89930,
            "original_name": "Wedding Cake Championship",
            "popularity": 0.684
        },
        {
            "id": 92524,
            "original_name": "Disney's Fairy Tale Weddings",
            "popularity": 2.732
        },
        {
            "id": 94886,
            "original_name": "Spencer, Vogue and Wedding Two",
            "popularity": 0.864
        },
        {
            "id": 95521,
            "original_name": "The Royal Wedding - William & Catherine",
            "popularity": 0.6
        },
        {
            "id": 97183,
            "original_name": "Embedded '45: Shooting War in Germany",
            "popularity": 0.6
        },
        {
            "id": 97261,
            "original_name": "the best man wedding",
            "popularity": 0.6
        },
        {
            "id": 98930,
            "original_name": "Eddie Eats America",
            "popularity": 0.895
        },
        {
            "id": 100200,
            "original_name": "Avkledd",
            "popularity": 0.6
        },
        {
            "id": 101558,
            "original_name": "Rikki y Eddie",
            "popularity": 0.6
        },
        {
            "id": 101615,
            "original_name": "Freddie Down Under",
            "popularity": 0.6
        },
        {
            "id": 102154,
            "original_name": "The Wedding Planners",
            "popularity": 1.884
        },
        {
            "id": 102430,
            "original_name": "El amar akher eddenya",
            "popularity": 0.6
        },
        {
            "id": 105572,
            "original_name": "A Viral Wedding",
            "popularity": 1.52
        },
        {
            "id": 106073,
            "original_name": "Naughty Wedding",
            "popularity": 0.857
        },
        {
            "id": 107526,
            "original_name": "Total Wipeout: Freddie & Paddy Takeover",
            "popularity": 0.91
        },
        {
            "id": 110412,
            "original_name": "Rohwedder",
            "popularity": 7.509
        },
        {
            "id": 110921,
            "original_name": "The Real Housewives of Atlanta: Kandi's Wedding",
            "popularity": 0.6
        },
        {
            "id": 112290,
            "original_name": "Redd Joppe, d\u00f8d eller levende",
            "popularity": 0.6
        },
        {
            "id": 114649,
            "original_name": "How To Ruin Christmas: The Wedding",
            "popularity": 4.031
        },
        {
            "id": 114866,
            "original_name": "\u00c5sted Norge: Hva skjedde med...?",
            "popularity": 0.602
        },
        {
            "id": 114890,
            "original_name": "Redd menig Osen",
            "popularity": 0.6
        },
        {
            "id": 115465,
            "original_name": "Gold Rush: Freddy Dodge\u2019s Mine Rescue",
            "popularity": 2.203
        },
        {
            "id": 117084,
            "original_name": "UFC 257 Embedded",
            "popularity": 0.6
        },
        {
            "id": 118028,
            "original_name": "Dan Cruickshank On The Road To Armageddon",
            "popularity": 0.6
        },
        {
            "id": 118918,
            "original_name": "Mendirman Celaleddin",
            "popularity": 1.787
        },
        {
            "id": 121235,
            "original_name": "Livredderne i Afghanistan",
            "popularity": 0.6
        },
        {
            "id": 122249,
            "original_name": "The Wedding Coach",
            "popularity": 1.341
        },
        {
            "id": 124471,
            "original_name": "Rosa Redder Fr\u00f8erne",
            "popularity": 0.6
        },
        {
            "id": 124607,
            "original_name": "Royal Wedding: A Day to Remember",
            "popularity": 0.6
        },
        {
            "id": 124659,
            "original_name": "Teddy g\u00f6nnt dir!",
            "popularity": 0.641
        },
        {
            "id": 125428,
            "original_name": "De Redders",
            "popularity": 4.414
        },
        {
            "id": 126135,
            "original_name": "Inspirational Real Weddings - Love Stories TV",
            "popularity": 0.6
        },
        {
            "id": 128011,
            "original_name": "Yr Amgueddfa",
            "popularity": 3.544
        },
        {
            "id": 128042,
            "original_name": "The House My Wedding Bought",
            "popularity": 0.6
        },
        {
            "id": 131836,
            "original_name": "Wedding Season",
            "popularity": 0.6
        },
        {
            "id": 136208,
            "original_name": "Guidos Wedding Race",
            "popularity": 0.6
        },
        {
            "id": 136811,
            "original_name": "Tamra's OC Wedding",
            "popularity": 0.6
        },
        {
            "id": 137158,
            "original_name": "Britain's Royal Weddings",
            "popularity": 0.6
        },
        {
            "id": 137543,
            "original_name": "Five Nights at Freddy's (Tony Crynight)",
            "popularity": 1.466
        },
        {
            "id": 138386,
            "original_name": "Beverley and Jordan: Destination Wedding",
            "popularity": 1.401
        }
    ],
    "relations": [
        {
            "character": "eddi"
        },
        {
            "character": "eddy"
        },
        {
            "character": "eddo"
        },
        {
            "character": "edde"
        },
        {
            "character": "eddf"
        }
    ],
    "top20": [
        {
            "id": 606,
            "original_name": "Ed, Edd n Eddy",
            "popularity": 39.042
        },
        {
            "id": 4346,
            "original_name": "Freddy's Nightmares",
            "popularity": 12.901
        },
        {
            "id": 84282,
            "original_name": "Four Weddings and a Funeral",
            "popularity": 8.552
        },
        {
            "id": 71,
            "original_name": "Malcolm & Eddie",
            "popularity": 8.015
        },
        {
            "id": 110412,
            "original_name": "Rohwedder",
            "popularity": 7.509
        },
        {
            "id": 86784,
            "original_name": "The Eddy",
            "popularity": 6.921
        },
        {
            "id": 204,
            "original_name": "Freddie",
            "popularity": 5.165
        },
        {
            "id": 6137,
            "original_name": "The Courtship of Eddie's Father",
            "popularity": 4.847
        },
        {
            "id": 1721,
            "original_name": "Keen Eddie",
            "popularity": 4.801
        },
        {
            "id": 72552,
            "original_name": "Five Nights at Freddy's: High School",
            "popularity": 4.593
        },
        {
            "id": 125428,
            "original_name": "De Redders",
            "popularity": 4.414
        },
        {
            "id": 114649,
            "original_name": "How To Ruin Christmas: The Wedding",
            "popularity": 4.031
        },
        {
            "id": 28683,
            "original_name": "The Eddie Capra Mysteries",
            "popularity": 3.979
        },
        {
            "id": 12519,
            "original_name": "The Ruff and Reddy Show",
            "popularity": 3.746
        },
        {
            "id": 4992,
            "original_name": "The Wedding Bells",
            "popularity": 3.627
        },
        {
            "id": 128011,
            "original_name": "Yr Amgueddfa",
            "popularity": 3.544
        },
        {
            "id": 6518,
            "original_name": "100 Deeds for Eddie McDowd",
            "popularity": 3.381
        },
        {
            "id": 60650,
            "original_name": "Cybergeddon",
            "popularity": 3.155
        },
        {
            "id": 43860,
            "original_name": "Wedding Band",
            "popularity": 3.031
        },
        {
            "id": 92524,
            "original_name": "Disney's Fairy Tale Weddings",
            "popularity": 2.732
        }
    ]
}