{
    "data": [
        {
            "id": 52487,
            "original_name": "DR2 tema: Godnat - og sov s\u00e5 for helvede!",
            "popularity": 0.6
        }
    ],
    "relations": [],
    "top20": [
        {
            "id": 52487,
            "original_name": "DR2 tema: Godnat - og sov s\u00e5 for helvede!",
            "popularity": 0.6
        }
    ]
}