{
    "data": [
        {
            "id": 14280,
            "original_name": "The Mad, Mad, Mad Comedians",
            "popularity": 0.6
        },
        {
            "id": 19051,
            "original_name": "The Comedians",
            "popularity": 2.971
        },
        {
            "id": 24216,
            "original_name": "Comedians of Comedy",
            "popularity": 1.232
        },
        {
            "id": 26886,
            "original_name": "Young Comedians",
            "popularity": 0.6
        },
        {
            "id": 36051,
            "original_name": "Comedians of Chelsea Lately",
            "popularity": 0.6
        },
        {
            "id": 52989,
            "original_name": "The Comedian Thailand",
            "popularity": 0.6
        },
        {
            "id": 55675,
            "original_name": "Comedian vindt werk",
            "popularity": 0.6
        },
        {
            "id": 59717,
            "original_name": "Comedians in Cars Getting Coffee",
            "popularity": 10.669
        },
        {
            "id": 60386,
            "original_name": "Who Wants to Date a Comedian?",
            "popularity": 0.654
        },
        {
            "id": 62180,
            "original_name": "The Comedians",
            "popularity": 3.077
        },
        {
            "id": 68936,
            "original_name": "Comedians in Cars Getting Coffee: Single Shot",
            "popularity": 1.93
        },
        {
            "id": 75913,
            "original_name": "The Comedians",
            "popularity": 0.888
        },
        {
            "id": 75927,
            "original_name": "BadComedian",
            "popularity": 0.903
        },
        {
            "id": 84485,
            "original_name": "Romesh: Talking to Comedians",
            "popularity": 0.854
        },
        {
            "id": 85418,
            "original_name": "COMEDIANS of the world",
            "popularity": 2.269
        },
        {
            "id": 93273,
            "original_name": "Comedians Giving Lectures",
            "popularity": 23.71
        },
        {
            "id": 101034,
            "original_name": "La Fiesta de los Comediantes",
            "popularity": 0.6
        },
        {
            "id": 111431,
            "original_name": "La Peque\u00f1a y La Mediana: Una Historia De Arianas",
            "popularity": 0.6
        },
        {
            "id": 113649,
            "original_name": "Comedians: Home Alone",
            "popularity": 0.6
        },
        {
            "id": 114337,
            "original_name": "Komedianter",
            "popularity": 0.6
        },
        {
            "id": 116367,
            "original_name": "House Hunters Comedians On Couches: Unfiltered",
            "popularity": 0.6
        },
        {
            "id": 126940,
            "original_name": "El prisionero de la medianoche",
            "popularity": 2.044
        }
    ],
    "relations": [
        {
            "character": "edians"
        },
        {
            "character": "edian?"
        },
        {
            "character": "ediant"
        },
        {
            "character": "ediana"
        },
        {
            "character": "ediano"
        }
    ],
    "top20": [
        {
            "id": 93273,
            "original_name": "Comedians Giving Lectures",
            "popularity": 23.71
        },
        {
            "id": 59717,
            "original_name": "Comedians in Cars Getting Coffee",
            "popularity": 10.669
        },
        {
            "id": 62180,
            "original_name": "The Comedians",
            "popularity": 3.077
        },
        {
            "id": 19051,
            "original_name": "The Comedians",
            "popularity": 2.971
        },
        {
            "id": 85418,
            "original_name": "COMEDIANS of the world",
            "popularity": 2.269
        },
        {
            "id": 126940,
            "original_name": "El prisionero de la medianoche",
            "popularity": 2.044
        },
        {
            "id": 68936,
            "original_name": "Comedians in Cars Getting Coffee: Single Shot",
            "popularity": 1.93
        },
        {
            "id": 24216,
            "original_name": "Comedians of Comedy",
            "popularity": 1.232
        },
        {
            "id": 75927,
            "original_name": "BadComedian",
            "popularity": 0.903
        },
        {
            "id": 75913,
            "original_name": "The Comedians",
            "popularity": 0.888
        },
        {
            "id": 84485,
            "original_name": "Romesh: Talking to Comedians",
            "popularity": 0.854
        },
        {
            "id": 60386,
            "original_name": "Who Wants to Date a Comedian?",
            "popularity": 0.654
        },
        {
            "id": 113649,
            "original_name": "Comedians: Home Alone",
            "popularity": 0.6
        },
        {
            "id": 36051,
            "original_name": "Comedians of Chelsea Lately",
            "popularity": 0.6
        },
        {
            "id": 55675,
            "original_name": "Comedian vindt werk",
            "popularity": 0.6
        },
        {
            "id": 14280,
            "original_name": "The Mad, Mad, Mad Comedians",
            "popularity": 0.6
        },
        {
            "id": 52989,
            "original_name": "The Comedian Thailand",
            "popularity": 0.6
        },
        {
            "id": 26886,
            "original_name": "Young Comedians",
            "popularity": 0.6
        },
        {
            "id": 101034,
            "original_name": "La Fiesta de los Comediantes",
            "popularity": 0.6
        },
        {
            "id": 111431,
            "original_name": "La Peque\u00f1a y La Mediana: Una Historia De Arianas",
            "popularity": 0.6
        }
    ]
}