{
    "data": [
        {
            "id": 53820,
            "original_name": "Hayat Devam Ediyor",
            "popularity": 2.387
        },
        {
            "id": 53963,
            "original_name": "Bak Kim Dans Ediyor",
            "popularity": 0.6
        }
    ],
    "relations": [],
    "top20": [
        {
            "id": 53820,
            "original_name": "Hayat Devam Ediyor",
            "popularity": 2.387
        },
        {
            "id": 53963,
            "original_name": "Bak Kim Dans Ediyor",
            "popularity": 0.6
        }
    ]
}