{
    "data": [
        {
            "id": 52254,
            "original_name": "The Hundredth Bride",
            "popularity": 0.6
        }
    ],
    "relations": [],
    "top20": [
        {
            "id": 52254,
            "original_name": "The Hundredth Bride",
            "popularity": 0.6
        }
    ]
}