{
    "data": [
        {
            "id": 6185,
            "original_name": "The Edwardian Country House",
            "popularity": 0.741
        },
        {
            "id": 12209,
            "original_name": "Edward and Mrs Simpson",
            "popularity": 3.08
        },
        {
            "id": 13271,
            "original_name": "Edward the Seventh",
            "popularity": 2.877
        },
        {
            "id": 13467,
            "original_name": "Teddy Edward",
            "popularity": 0.6
        },
        {
            "id": 16301,
            "original_name": "Edward and Friends",
            "popularity": 0.6
        },
        {
            "id": 22155,
            "original_name": "The Cliff Edwards Show",
            "popularity": 0.6
        },
        {
            "id": 25696,
            "original_name": "Crossing Over with John Edward",
            "popularity": 0.6
        },
        {
            "id": 26959,
            "original_name": "Douglas Edwards With The News",
            "popularity": 0.6
        },
        {
            "id": 27860,
            "original_name": "John Edward Cross Country",
            "popularity": 0.628
        },
        {
            "id": 29341,
            "original_name": "The Edwardians",
            "popularity": 3.184
        },
        {
            "id": 30400,
            "original_name": "Charlie Drake And Jack Edwardes",
            "popularity": 0.6
        },
        {
            "id": 32860,
            "original_name": "The Joan Edwards Show",
            "popularity": 0.6
        },
        {
            "id": 33708,
            "original_name": "Jedward: Let Loose",
            "popularity": 0.6
        },
        {
            "id": 34436,
            "original_name": "Edwardian Farm",
            "popularity": 1.782
        },
        {
            "id": 35566,
            "original_name": "The Adventures of Edward the Less",
            "popularity": 1.4
        },
        {
            "id": 48009,
            "original_name": "Finding Out - Edward Lear",
            "popularity": 0.6
        },
        {
            "id": 58284,
            "original_name": "Jedward's Big Adventure",
            "popularity": 0.6
        },
        {
            "id": 79400,
            "original_name": "It Was Him: The Many Murders of Ed Edwards",
            "popularity": 0.639
        },
        {
            "id": 97182,
            "original_name": "Edward VIII: The Traitor King",
            "popularity": 0.6
        },
        {
            "id": 131823,
            "original_name": "Edwardian Britain in Colour",
            "popularity": 0.6
        },
        {
            "id": 137264,
            "original_name": "Gareth Edwards\u2019 Great Welsh Adventure",
            "popularity": 0.6
        }
    ],
    "relations": [
        {
            "character": "edwardi"
        },
        {
            "character": "edwards"
        },
        {
            "character": "edwarde"
        }
    ],
    "top20": [
        {
            "id": 29341,
            "original_name": "The Edwardians",
            "popularity": 3.184
        },
        {
            "id": 12209,
            "original_name": "Edward and Mrs Simpson",
            "popularity": 3.08
        },
        {
            "id": 13271,
            "original_name": "Edward the Seventh",
            "popularity": 2.877
        },
        {
            "id": 34436,
            "original_name": "Edwardian Farm",
            "popularity": 1.782
        },
        {
            "id": 35566,
            "original_name": "The Adventures of Edward the Less",
            "popularity": 1.4
        },
        {
            "id": 6185,
            "original_name": "The Edwardian Country House",
            "popularity": 0.741
        },
        {
            "id": 79400,
            "original_name": "It Was Him: The Many Murders of Ed Edwards",
            "popularity": 0.639
        },
        {
            "id": 27860,
            "original_name": "John Edward Cross Country",
            "popularity": 0.628
        },
        {
            "id": 48009,
            "original_name": "Finding Out - Edward Lear",
            "popularity": 0.6
        },
        {
            "id": 13467,
            "original_name": "Teddy Edward",
            "popularity": 0.6
        },
        {
            "id": 32860,
            "original_name": "The Joan Edwards Show",
            "popularity": 0.6
        },
        {
            "id": 33708,
            "original_name": "Jedward: Let Loose",
            "popularity": 0.6
        },
        {
            "id": 131823,
            "original_name": "Edwardian Britain in Colour",
            "popularity": 0.6
        },
        {
            "id": 25696,
            "original_name": "Crossing Over with John Edward",
            "popularity": 0.6
        },
        {
            "id": 58284,
            "original_name": "Jedward's Big Adventure",
            "popularity": 0.6
        },
        {
            "id": 22155,
            "original_name": "The Cliff Edwards Show",
            "popularity": 0.6
        },
        {
            "id": 16301,
            "original_name": "Edward and Friends",
            "popularity": 0.6
        },
        {
            "id": 97182,
            "original_name": "Edward VIII: The Traitor King",
            "popularity": 0.6
        },
        {
            "id": 26959,
            "original_name": "Douglas Edwards With The News",
            "popularity": 0.6
        },
        {
            "id": 30400,
            "original_name": "Charlie Drake And Jack Edwardes",
            "popularity": 0.6
        }
    ]
}