{
    "data": [
        {
            "id": 118549,
            "original_name": "Leef!",
            "popularity": 0.913
        }
    ],
    "relations": [],
    "top20": [
        {
            "id": 118549,
            "original_name": "Leef!",
            "popularity": 0.913
        }
    ]
}