{
    "data": [
        {
            "id": 13628,
            "original_name": "Weekday cartoon",
            "popularity": 0.6
        }
    ],
    "relations": [],
    "top20": [
        {
            "id": 13628,
            "original_name": "Weekday cartoon",
            "popularity": 0.6
        }
    ]
}