{
    "data": [
        {
            "id": 21247,
            "original_name": "Speaking Freely",
            "popularity": 0.6
        },
        {
            "id": 21546,
            "original_name": "Down Home with the Neelys",
            "popularity": 0.843
        },
        {
            "id": 67083,
            "original_name": "Brad Neely's Harg Nallin Sclopio Peepio",
            "popularity": 0.953
        }
    ],
    "relations": [],
    "top20": [
        {
            "id": 21247,
            "original_name": "Speaking Freely",
            "popularity": 0.6
        },
        {
            "id": 21546,
            "original_name": "Down Home with the Neelys",
            "popularity": 0.843
        },
        {
            "id": 67083,
            "original_name": "Brad Neely's Harg Nallin Sclopio Peepio",
            "popularity": 0.953
        }
    ]
}