{
    "data": [
        {
            "id": 5721,
            "original_name": "The Secret Life of the American Teenager",
            "popularity": 14.684
        },
        {
            "id": 35929,
            "original_name": "The Amish: World's Squarest Teenagers",
            "popularity": 0.6
        },
        {
            "id": 59837,
            "original_name": "ZU@U Teenagers",
            "popularity": 0.6
        },
        {
            "id": 65633,
            "original_name": "Teenagers",
            "popularity": 1.347
        },
        {
            "id": 127291,
            "original_name": "Din teenagers hemmelige liv",
            "popularity": 0.6
        }
    ],
    "relations": [],
    "top20": [
        {
            "id": 5721,
            "original_name": "The Secret Life of the American Teenager",
            "popularity": 14.684
        },
        {
            "id": 35929,
            "original_name": "The Amish: World's Squarest Teenagers",
            "popularity": 0.6
        },
        {
            "id": 59837,
            "original_name": "ZU@U Teenagers",
            "popularity": 0.6
        },
        {
            "id": 65633,
            "original_name": "Teenagers",
            "popularity": 1.347
        },
        {
            "id": 127291,
            "original_name": "Din teenagers hemmelige liv",
            "popularity": 0.6
        }
    ]
}