{
    "data": [
        {
            "id": 160,
            "original_name": "Teenage Mutant Ninja Turtles",
            "popularity": 26.17
        },
        {
            "id": 178,
            "original_name": "My Life as a Teenage Robot",
            "popularity": 13.093
        },
        {
            "id": 605,
            "original_name": "Sabrina, the Teenage Witch",
            "popularity": 69.538
        },
        {
            "id": 1324,
            "original_name": "Help! I'm a Teenage Outlaw",
            "popularity": 1.092
        },
        {
            "id": 2230,
            "original_name": "Tattooed Teenage Alien Fighters from Beverly Hills",
            "popularity": 1.434
        },
        {
            "id": 2284,
            "original_name": "Teenage Mutant Ninja Turtles",
            "popularity": 29.941
        },
        {
            "id": 4241,
            "original_name": "8 Simple Rules... for Dating My Teenage Daughter",
            "popularity": 22.807
        },
        {
            "id": 5721,
            "original_name": "The Secret Life of the American Teenager",
            "popularity": 14.684
        },
        {
            "id": 7187,
            "original_name": "Teenage Kicks",
            "popularity": 1.4
        },
        {
            "id": 18323,
            "original_name": "Teenage Health Freak",
            "popularity": 1.588
        },
        {
            "id": 21181,
            "original_name": "Teenage Book Club",
            "popularity": 0.6
        },
        {
            "id": 25641,
            "original_name": "Sabrina, The Teenage Witch",
            "popularity": 1.513
        },
        {
            "id": 29406,
            "original_name": "Howard Stern: The Teenage Years",
            "popularity": 0.6
        },
        {
            "id": 29955,
            "original_name": "Teenage Mutant Ninja Turtles: SuperMan Legend",
            "popularity": 0.6
        },
        {
            "id": 35929,
            "original_name": "The Amish: World's Squarest Teenagers",
            "popularity": 0.6
        },
        {
            "id": 36870,
            "original_name": "Alan Davies' Teenage Revolution",
            "popularity": 0.843
        },
        {
            "id": 38430,
            "original_name": "When Teenage Meets Old Age",
            "popularity": 0.6
        },
        {
            "id": 39318,
            "original_name": "I Hate My Teenage Daughter",
            "popularity": 3.046
        },
        {
            "id": 46432,
            "original_name": "Sabrina: Secrets of a Teenage Witch",
            "popularity": 2.189
        },
        {
            "id": 51817,
            "original_name": "Teenage Mutant Ninja Turtles",
            "popularity": 36.703
        },
        {
            "id": 59305,
            "original_name": "Teenage Mailbag",
            "popularity": 0.6
        },
        {
            "id": 59837,
            "original_name": "ZU@U Teenagers",
            "popularity": 0.6
        },
        {
            "id": 60351,
            "original_name": "The Teenage Show",
            "popularity": 0.6
        },
        {
            "id": 65633,
            "original_name": "Teenagers",
            "popularity": 1.347
        },
        {
            "id": 66705,
            "original_name": "Teenage Newlyweds",
            "popularity": 0.6
        },
        {
            "id": 79098,
            "original_name": "Teenage Mutant Ninja Turtles: Earth's Last Stand",
            "popularity": 0.6
        },
        {
            "id": 81026,
            "original_name": "Rise of the Teenage Mutant Ninja Turtles",
            "popularity": 10.863
        },
        {
            "id": 86106,
            "original_name": "Teenage Boss",
            "popularity": 0.6
        },
        {
            "id": 90766,
            "original_name": "Teenage Bounty Hunters",
            "popularity": 21.605
        },
        {
            "id": 91349,
            "original_name": "Teenage Fairytale Dropouts",
            "popularity": 0.6
        },
        {
            "id": 110729,
            "original_name": "I Was a Teenage Felon",
            "popularity": 1.794
        },
        {
            "id": 119081,
            "original_name": "Teenage Boss",
            "popularity": 0.661
        },
        {
            "id": 127291,
            "original_name": "Din teenagers hemmelige liv",
            "popularity": 0.6
        },
        {
            "id": 132922,
            "original_name": "Teenage Euthanasia",
            "popularity": 6.434
        }
    ],
    "relations": [
        {
            "character": "eenager"
        }
    ],
    "top20": [
        {
            "id": 605,
            "original_name": "Sabrina, the Teenage Witch",
            "popularity": 69.538
        },
        {
            "id": 51817,
            "original_name": "Teenage Mutant Ninja Turtles",
            "popularity": 36.703
        },
        {
            "id": 2284,
            "original_name": "Teenage Mutant Ninja Turtles",
            "popularity": 29.941
        },
        {
            "id": 160,
            "original_name": "Teenage Mutant Ninja Turtles",
            "popularity": 26.17
        },
        {
            "id": 4241,
            "original_name": "8 Simple Rules... for Dating My Teenage Daughter",
            "popularity": 22.807
        },
        {
            "id": 90766,
            "original_name": "Teenage Bounty Hunters",
            "popularity": 21.605
        },
        {
            "id": 5721,
            "original_name": "The Secret Life of the American Teenager",
            "popularity": 14.684
        },
        {
            "id": 178,
            "original_name": "My Life as a Teenage Robot",
            "popularity": 13.093
        },
        {
            "id": 81026,
            "original_name": "Rise of the Teenage Mutant Ninja Turtles",
            "popularity": 10.863
        },
        {
            "id": 132922,
            "original_name": "Teenage Euthanasia",
            "popularity": 6.434
        },
        {
            "id": 39318,
            "original_name": "I Hate My Teenage Daughter",
            "popularity": 3.046
        },
        {
            "id": 46432,
            "original_name": "Sabrina: Secrets of a Teenage Witch",
            "popularity": 2.189
        },
        {
            "id": 110729,
            "original_name": "I Was a Teenage Felon",
            "popularity": 1.794
        },
        {
            "id": 18323,
            "original_name": "Teenage Health Freak",
            "popularity": 1.588
        },
        {
            "id": 25641,
            "original_name": "Sabrina, The Teenage Witch",
            "popularity": 1.513
        },
        {
            "id": 2230,
            "original_name": "Tattooed Teenage Alien Fighters from Beverly Hills",
            "popularity": 1.434
        },
        {
            "id": 7187,
            "original_name": "Teenage Kicks",
            "popularity": 1.4
        },
        {
            "id": 65633,
            "original_name": "Teenagers",
            "popularity": 1.347
        },
        {
            "id": 1324,
            "original_name": "Help! I'm a Teenage Outlaw",
            "popularity": 1.092
        },
        {
            "id": 36870,
            "original_name": "Alan Davies' Teenage Revolution",
            "popularity": 0.843
        }
    ]
}