{
    "data": [
        {
            "id": 152431,
            "original_name": "Qatil Haseenaon Ke Naam",
            "popularity": 2.744
        }
    ],
    "relations": [],
    "top20": [
        {
            "id": 152431,
            "original_name": "Qatil Haseenaon Ke Naam",
            "popularity": 2.744
        }
    ]
}