{
    "data": [
        {
            "id": 69137,
            "original_name": "Julie's Greenroom",
            "popularity": 1.344
        },
        {
            "id": 84276,
            "original_name": "Steenrijk, Straatarm",
            "popularity": 0.6
        },
        {
            "id": 135442,
            "original_name": "Steenrijk Straatarm",
            "popularity": 1.616
        }
    ],
    "relations": [],
    "top20": [
        {
            "id": 69137,
            "original_name": "Julie's Greenroom",
            "popularity": 1.344
        },
        {
            "id": 84276,
            "original_name": "Steenrijk, Straatarm",
            "popularity": 0.6
        },
        {
            "id": 135442,
            "original_name": "Steenrijk Straatarm",
            "popularity": 1.616
        }
    ]
}