{
    "data": [
        {
            "id": 61972,
            "original_name": "Breaking Greenville",
            "popularity": 0.6
        },
        {
            "id": 105375,
            "original_name": "Andr\u00e9 Van Duin - De Glans van de Eenvoud (In Beeld en Geluid)",
            "popularity": 0.6
        }
    ],
    "relations": [],
    "top20": [
        {
            "id": 61972,
            "original_name": "Breaking Greenville",
            "popularity": 0.6
        },
        {
            "id": 105375,
            "original_name": "Andr\u00e9 Van Duin - De Glans van de Eenvoud (In Beeld en Geluid)",
            "popularity": 0.6
        }
    ]
}