{
    "data": [
        {
            "id": 7169,
            "original_name": "Eesh Safari",
            "popularity": 0.6
        },
        {
            "id": 21350,
            "original_name": "Rajneesh Update",
            "popularity": 0.6
        },
        {
            "id": 39915,
            "original_name": "Dwarkadheesh Bhagwaan Shree Krishn",
            "popularity": 0.6
        },
        {
            "id": 40347,
            "original_name": "Dwarkadheesh \u2013 Bhagwaan Shree Krishn",
            "popularity": 0.6
        },
        {
            "id": 45090,
            "original_name": "Ningalkkum Aakaam Kodeeshwaran",
            "popularity": 0.6
        },
        {
            "id": 52276,
            "original_name": "Alashan Maleesh Gheirak",
            "popularity": 0.6
        },
        {
            "id": 52282,
            "original_name": "Alseera AlAshouria \"AlHarafeesh\"",
            "popularity": 0.6
        },
        {
            "id": 53312,
            "original_name": "Reesh Na'am",
            "popularity": 0.6
        }
    ],
    "relations": [],
    "top20": [
        {
            "id": 7169,
            "original_name": "Eesh Safari",
            "popularity": 0.6
        },
        {
            "id": 21350,
            "original_name": "Rajneesh Update",
            "popularity": 0.6
        },
        {
            "id": 39915,
            "original_name": "Dwarkadheesh Bhagwaan Shree Krishn",
            "popularity": 0.6
        },
        {
            "id": 40347,
            "original_name": "Dwarkadheesh \u2013 Bhagwaan Shree Krishn",
            "popularity": 0.6
        },
        {
            "id": 45090,
            "original_name": "Ningalkkum Aakaam Kodeeshwaran",
            "popularity": 0.6
        },
        {
            "id": 52276,
            "original_name": "Alashan Maleesh Gheirak",
            "popularity": 0.6
        },
        {
            "id": 52282,
            "original_name": "Alseera AlAshouria \"AlHarafeesh\"",
            "popularity": 0.6
        },
        {
            "id": 53312,
            "original_name": "Reesh Na'am",
            "popularity": 0.6
        }
    ]
}