{
    "data": [
        {
            "id": 55141,
            "original_name": "Tweet4tweet",
            "popularity": 0.6
        }
    ],
    "relations": [],
    "top20": [
        {
            "id": 55141,
            "original_name": "Tweet4tweet",
            "popularity": 0.6
        }
    ]
}