{
    "data": [
        {
            "id": 97150,
            "original_name": "Battlezone WWII: Defeating Rommel and The Afrika Korps",
            "popularity": 0.6
        },
        {
            "id": 97236,
            "original_name": "Rommel's Afrika Korps Defeated",
            "popularity": 0.6
        },
        {
            "id": 118261,
            "original_name": "The Undefeated Presents Tiger Woods: America's Son",
            "popularity": 0.6
        }
    ],
    "relations": [],
    "top20": [
        {
            "id": 97150,
            "original_name": "Battlezone WWII: Defeating Rommel and The Afrika Korps",
            "popularity": 0.6
        },
        {
            "id": 97236,
            "original_name": "Rommel's Afrika Korps Defeated",
            "popularity": 0.6
        },
        {
            "id": 118261,
            "original_name": "The Undefeated Presents Tiger Woods: America's Son",
            "popularity": 0.6
        }
    ]
}