{
    "data": [
        {
            "id": 16851,
            "original_name": "Telefios",
            "popularity": 0.6
        },
        {
            "id": 77201,
            "original_name": "Blood and Gold: The Making of Spain with Simon Sebag Montefiore",
            "popularity": 0.627
        }
    ],
    "relations": [],
    "top20": [
        {
            "id": 16851,
            "original_name": "Telefios",
            "popularity": 0.6
        },
        {
            "id": 77201,
            "original_name": "Blood and Gold: The Making of Spain with Simon Sebag Montefiore",
            "popularity": 0.627
        }
    ]
}