{
    "data": [
        {
            "id": 7515,
            "original_name": "Roozegar-e Gharib",
            "popularity": 0.804
        },
        {
            "id": 34272,
            "original_name": "Pegar ou Largar",
            "popularity": 0.6
        },
        {
            "id": 52613,
            "original_name": "Gegar Raya Kampung Pening Lalat",
            "popularity": 0.6
        },
        {
            "id": 59797,
            "original_name": "Rastegaran",
            "popularity": 0.6
        },
        {
            "id": 68643,
            "original_name": "Mari\u00e9s au premier regard",
            "popularity": 0.708
        },
        {
            "id": 69753,
            "original_name": "Gegar Vaganza",
            "popularity": 9.144
        },
        {
            "id": 72013,
            "original_name": "Juste un regard",
            "popularity": 2.434
        },
        {
            "id": 73584,
            "original_name": "Alfred Brehm, un certain regard sur les animaux",
            "popularity": 0.6
        },
        {
            "id": 77223,
            "original_name": "Mauregard",
            "popularity": 1.382
        },
        {
            "id": 77442,
            "original_name": "Regarde-moi un silence pour tout se dire",
            "popularity": 0.6
        },
        {
            "id": 86685,
            "original_name": "\u00c7a me regarde",
            "popularity": 8.632
        },
        {
            "id": 91357,
            "original_name": "Le Regard dans le miroir",
            "popularity": 1.096
        },
        {
            "id": 91729,
            "original_name": "Beauregard",
            "popularity": 1.606
        },
        {
            "id": 98239,
            "original_name": "Mieszkaniec zegara z kurantem",
            "popularity": 0.6
        },
        {
            "id": 98271,
            "original_name": "arte Regards",
            "popularity": 7.035
        },
        {
            "id": 99322,
            "original_name": "Regardless Of",
            "popularity": 0.6
        },
        {
            "id": 101593,
            "original_name": "Roozi Roozegari",
            "popularity": 0.697
        },
        {
            "id": 113402,
            "original_name": "Second regard",
            "popularity": 0.6
        },
        {
            "id": 122140,
            "original_name": "Regards d'enfance",
            "popularity": 0.6
        },
        {
            "id": 127062,
            "original_name": "Chegar a Casa",
            "popularity": 4.518
        }
    ],
    "relations": [],
    "top20": [
        {
            "id": 7515,
            "original_name": "Roozegar-e Gharib",
            "popularity": 0.804
        },
        {
            "id": 34272,
            "original_name": "Pegar ou Largar",
            "popularity": 0.6
        },
        {
            "id": 52613,
            "original_name": "Gegar Raya Kampung Pening Lalat",
            "popularity": 0.6
        },
        {
            "id": 59797,
            "original_name": "Rastegaran",
            "popularity": 0.6
        },
        {
            "id": 68643,
            "original_name": "Mari\u00e9s au premier regard",
            "popularity": 0.708
        },
        {
            "id": 69753,
            "original_name": "Gegar Vaganza",
            "popularity": 9.144
        },
        {
            "id": 72013,
            "original_name": "Juste un regard",
            "popularity": 2.434
        },
        {
            "id": 73584,
            "original_name": "Alfred Brehm, un certain regard sur les animaux",
            "popularity": 0.6
        },
        {
            "id": 77223,
            "original_name": "Mauregard",
            "popularity": 1.382
        },
        {
            "id": 77442,
            "original_name": "Regarde-moi un silence pour tout se dire",
            "popularity": 0.6
        },
        {
            "id": 86685,
            "original_name": "\u00c7a me regarde",
            "popularity": 8.632
        },
        {
            "id": 91357,
            "original_name": "Le Regard dans le miroir",
            "popularity": 1.096
        },
        {
            "id": 91729,
            "original_name": "Beauregard",
            "popularity": 1.606
        },
        {
            "id": 98239,
            "original_name": "Mieszkaniec zegara z kurantem",
            "popularity": 0.6
        },
        {
            "id": 98271,
            "original_name": "arte Regards",
            "popularity": 7.035
        },
        {
            "id": 99322,
            "original_name": "Regardless Of",
            "popularity": 0.6
        },
        {
            "id": 101593,
            "original_name": "Roozi Roozegari",
            "popularity": 0.697
        },
        {
            "id": 113402,
            "original_name": "Second regard",
            "popularity": 0.6
        },
        {
            "id": 122140,
            "original_name": "Regards d'enfance",
            "popularity": 0.6
        },
        {
            "id": 127062,
            "original_name": "Chegar a Casa",
            "popularity": 4.518
        }
    ]
}