{
    "data": [
        {
            "id": 564,
            "original_name": "Moody and Pegg",
            "popularity": 0.6
        },
        {
            "id": 3584,
            "original_name": "Eggheads",
            "popularity": 0.725
        },
        {
            "id": 3958,
            "original_name": "Beggar My Neighbour",
            "popularity": 1.4
        },
        {
            "id": 5024,
            "original_name": "VeggieTales",
            "popularity": 6.597
        },
        {
            "id": 5989,
            "original_name": "Are You an Egghead?",
            "popularity": 0.886
        },
        {
            "id": 9067,
            "original_name": "The Egg-pire Strikes Back",
            "popularity": 0.6
        },
        {
            "id": 9288,
            "original_name": "Cheggers Plays Pop",
            "popularity": 1.125
        },
        {
            "id": 11554,
            "original_name": "Allan Gregg in Conversation with...",
            "popularity": 0.6
        },
        {
            "id": 12061,
            "original_name": "EGG, the Arts Show",
            "popularity": 0.6
        },
        {
            "id": 12856,
            "original_name": "Beggars and Choosers",
            "popularity": 5.078
        },
        {
            "id": 13483,
            "original_name": "Eggs 'n' Baker",
            "popularity": 1.201
        },
        {
            "id": 15769,
            "original_name": "The Beggar Bride",
            "popularity": 1.4
        },
        {
            "id": 16257,
            "original_name": "Reggie Perrin",
            "popularity": 1.32
        },
        {
            "id": 16319,
            "original_name": "How Do You Like Your Eggs?",
            "popularity": 0.6
        },
        {
            "id": 18356,
            "original_name": "The Eggs",
            "popularity": 0.6
        },
        {
            "id": 20607,
            "original_name": "The Great Egg Race",
            "popularity": 0.6
        },
        {
            "id": 23768,
            "original_name": "The Eggheads",
            "popularity": 0.6
        },
        {
            "id": 23785,
            "original_name": "Eggshells",
            "popularity": 1.178
        },
        {
            "id": 24908,
            "original_name": "Strawberry Eggs",
            "popularity": 0.896
        },
        {
            "id": 25716,
            "original_name": "Reggie Little at Large",
            "popularity": 0.6
        },
        {
            "id": 27850,
            "original_name": "Chegger's Challenge",
            "popularity": 0.841
        },
        {
            "id": 29427,
            "original_name": "Elephant's Eggs In A Rhubarb Tree",
            "popularity": 0.6
        },
        {
            "id": 29731,
            "original_name": "The Egg And I",
            "popularity": 2.268
        },
        {
            "id": 29734,
            "original_name": "Reggie",
            "popularity": 1.186
        },
        {
            "id": 35452,
            "original_name": "Egg Man",
            "popularity": 0.6
        },
        {
            "id": 37634,
            "original_name": "Back to the Egg",
            "popularity": 0.6
        },
        {
            "id": 42944,
            "original_name": "The World of GOLDEN EGGS",
            "popularity": 1.134
        },
        {
            "id": 43506,
            "original_name": "A Reggae Session",
            "popularity": 0.6
        },
        {
            "id": 44207,
            "original_name": "South Asian Veggie Table",
            "popularity": 0.6
        },
        {
            "id": 49296,
            "original_name": "Greggs: More Than Meats the Pie",
            "popularity": 0.6
        },
        {
            "id": 50555,
            "original_name": "Peggy Fleming Visits the Soviet Union",
            "popularity": 1.09
        },
        {
            "id": 51645,
            "original_name": "To hroma tou feggariou",
            "popularity": 0.6
        },
        {
            "id": 51695,
            "original_name": "An Egg's Guide To Minecraft",
            "popularity": 0.6
        },
        {
            "id": 54901,
            "original_name": "Timex Presents Peggy Fleming at Sun Valley",
            "popularity": 1.09
        },
        {
            "id": 58597,
            "original_name": "The Peggy Neville Show",
            "popularity": 0.6
        },
        {
            "id": 60359,
            "original_name": "Gregg Ritz's Primitive Instinct",
            "popularity": 0.6
        },
        {
            "id": 62520,
            "original_name": "Reggie Yates' Extreme Russia",
            "popularity": 0.678
        },
        {
            "id": 66907,
            "original_name": "The Insider: Reggie Yates In",
            "popularity": 0.6
        },
        {
            "id": 66908,
            "original_name": "The Insider: Reggie Yates In",
            "popularity": 0.6
        },
        {
            "id": 66909,
            "original_name": "The Insider: Reggie Yates In",
            "popularity": 0.6
        },
        {
            "id": 68104,
            "original_name": "Hairy Bikers: Chicken & Egg",
            "popularity": 0.6
        },
        {
            "id": 71986,
            "original_name": "Danger & Eggs",
            "popularity": 1.301
        },
        {
            "id": 72486,
            "original_name": "VeggieTales in the House",
            "popularity": 3.241
        },
        {
            "id": 73479,
            "original_name": "VeggieTales in the City",
            "popularity": 2.508
        },
        {
            "id": 80597,
            "original_name": "La leggenda del bandito e del campione",
            "popularity": 0.6
        },
        {
            "id": 84568,
            "original_name": "\"Fake Homeless\": Who's Begging on the Streets?",
            "popularity": 0.6
        },
        {
            "id": 85657,
            "original_name": "Dr. Reggaeton",
            "popularity": 0.6
        },
        {
            "id": 85765,
            "original_name": "Hoe zullen we het zeggen?",
            "popularity": 7.771
        },
        {
            "id": 86954,
            "original_name": "Fresh Eggs",
            "popularity": 1.199
        },
        {
            "id": 86957,
            "original_name": "Green Eggs and Ham",
            "popularity": 7.604
        },
        {
            "id": 89394,
            "original_name": "Reggae Shark Adventures",
            "popularity": 0.6
        },
        {
            "id": 90689,
            "original_name": "Tones, Drones and Arpeggios: The Magic of Minimalism",
            "popularity": 0.6
        },
        {
            "id": 96031,
            "original_name": "Reggie Yates: Outside Man",
            "popularity": 0.6
        },
        {
            "id": 96616,
            "original_name": "Reggie In China",
            "popularity": 0.6
        },
        {
            "id": 99899,
            "original_name": "The VeggieTales Show",
            "popularity": 1.878
        },
        {
            "id": 103682,
            "original_name": "VeggieTales Remix",
            "popularity": 0.6
        },
        {
            "id": 107956,
            "original_name": "Passeggeri notturni",
            "popularity": 0.6
        },
        {
            "id": 109491,
            "original_name": "Rodolfo Valentino - La leggenda",
            "popularity": 0.661
        },
        {
            "id": 116126,
            "original_name": "South Africa With Gregg Wallace",
            "popularity": 0.731
        },
        {
            "id": 116353,
            "original_name": "WegGef\u00e4hrten",
            "popularity": 3.711
        },
        {
            "id": 118975,
            "original_name": "Big Weekends Away: with Gregg Wallace",
            "popularity": 0.6
        },
        {
            "id": 120620,
            "original_name": "Ylvis m\u00f8ter veggen",
            "popularity": 0.6
        },
        {
            "id": 128555,
            "original_name": "Kriminell. Weggesperrt. Entlassen.",
            "popularity": 0.6
        },
        {
            "id": 128858,
            "original_name": "Los Lopeggs",
            "popularity": 6.678
        },
        {
            "id": 134063,
            "original_name": "The Eggplant",
            "popularity": 0.6
        },
        {
            "id": 136060,
            "original_name": "Ze zeggen dat",
            "popularity": 15.406
        },
        {
            "id": 136438,
            "original_name": "Lui \u00e8 peggio di me",
            "popularity": 1.244
        }
    ],
    "relations": [
        {
            "character": "eggh"
        },
        {
            "character": "egga"
        },
        {
            "character": "eggi"
        },
        {
            "character": "egge"
        },
        {
            "character": "eggs"
        },
        {
            "character": "eggy"
        },
        {
            "character": "eggp"
        }
    ],
    "top20": [
        {
            "id": 136060,
            "original_name": "Ze zeggen dat",
            "popularity": 15.406
        },
        {
            "id": 85765,
            "original_name": "Hoe zullen we het zeggen?",
            "popularity": 7.771
        },
        {
            "id": 86957,
            "original_name": "Green Eggs and Ham",
            "popularity": 7.604
        },
        {
            "id": 128858,
            "original_name": "Los Lopeggs",
            "popularity": 6.678
        },
        {
            "id": 5024,
            "original_name": "VeggieTales",
            "popularity": 6.597
        },
        {
            "id": 12856,
            "original_name": "Beggars and Choosers",
            "popularity": 5.078
        },
        {
            "id": 116353,
            "original_name": "WegGef\u00e4hrten",
            "popularity": 3.711
        },
        {
            "id": 72486,
            "original_name": "VeggieTales in the House",
            "popularity": 3.241
        },
        {
            "id": 73479,
            "original_name": "VeggieTales in the City",
            "popularity": 2.508
        },
        {
            "id": 29731,
            "original_name": "The Egg And I",
            "popularity": 2.268
        },
        {
            "id": 99899,
            "original_name": "The VeggieTales Show",
            "popularity": 1.878
        },
        {
            "id": 15769,
            "original_name": "The Beggar Bride",
            "popularity": 1.4
        },
        {
            "id": 3958,
            "original_name": "Beggar My Neighbour",
            "popularity": 1.4
        },
        {
            "id": 16257,
            "original_name": "Reggie Perrin",
            "popularity": 1.32
        },
        {
            "id": 71986,
            "original_name": "Danger & Eggs",
            "popularity": 1.301
        },
        {
            "id": 136438,
            "original_name": "Lui \u00e8 peggio di me",
            "popularity": 1.244
        },
        {
            "id": 13483,
            "original_name": "Eggs 'n' Baker",
            "popularity": 1.201
        },
        {
            "id": 86954,
            "original_name": "Fresh Eggs",
            "popularity": 1.199
        },
        {
            "id": 29734,
            "original_name": "Reggie",
            "popularity": 1.186
        },
        {
            "id": 23785,
            "original_name": "Eggshells",
            "popularity": 1.178
        }
    ]
}