{
    "data": [
        {
            "id": 122968,
            "original_name": "Meester, hij begint weer!",
            "popularity": 0.6
        }
    ],
    "relations": [],
    "top20": [
        {
            "id": 122968,
            "original_name": "Meester, hij begint weer!",
            "popularity": 0.6
        }
    ]
}