{
    "data": [
        {
            "id": 61667,
            "original_name": "Il segno del comando",
            "popularity": 1.331
        },
        {
            "id": 130269,
            "original_name": "Undercut: l'oro di legno",
            "popularity": 0.6
        }
    ],
    "relations": [],
    "top20": [
        {
            "id": 61667,
            "original_name": "Il segno del comando",
            "popularity": 1.331
        },
        {
            "id": 130269,
            "original_name": "Undercut: l'oro di legno",
            "popularity": 0.6
        }
    ]
}