{
    "data": [
        {
            "id": 173,
            "original_name": "Degrassi Junior High",
            "popularity": 3.715
        },
        {
            "id": 995,
            "original_name": "The Kids of Degrassi Street",
            "popularity": 1.354
        },
        {
            "id": 1471,
            "original_name": "Degrassi Talks",
            "popularity": 0.62
        },
        {
            "id": 1948,
            "original_name": "Degrassi",
            "popularity": 27.948
        },
        {
            "id": 2594,
            "original_name": "Degrassi Unscripted",
            "popularity": 1.423
        },
        {
            "id": 4457,
            "original_name": "Degrassi High",
            "popularity": 0.844
        },
        {
            "id": 20386,
            "original_name": "Bluegrass & Backroads",
            "popularity": 0.6
        },
        {
            "id": 22143,
            "original_name": "Degrassi's 40 Most Go There-est Moments",
            "popularity": 0.6
        },
        {
            "id": 26295,
            "original_name": "Degrassi Tells All",
            "popularity": 0.6
        },
        {
            "id": 61657,
            "original_name": "Bluegrass Underground",
            "popularity": 2.49
        },
        {
            "id": 64711,
            "original_name": "StarTalk with Neil deGrasse Tyson",
            "popularity": 4.934
        },
        {
            "id": 65152,
            "original_name": "Degrassi: Next Class",
            "popularity": 11.692
        }
    ],
    "relations": [],
    "top20": [
        {
            "id": 173,
            "original_name": "Degrassi Junior High",
            "popularity": 3.715
        },
        {
            "id": 995,
            "original_name": "The Kids of Degrassi Street",
            "popularity": 1.354
        },
        {
            "id": 1471,
            "original_name": "Degrassi Talks",
            "popularity": 0.62
        },
        {
            "id": 1948,
            "original_name": "Degrassi",
            "popularity": 27.948
        },
        {
            "id": 2594,
            "original_name": "Degrassi Unscripted",
            "popularity": 1.423
        },
        {
            "id": 4457,
            "original_name": "Degrassi High",
            "popularity": 0.844
        },
        {
            "id": 20386,
            "original_name": "Bluegrass & Backroads",
            "popularity": 0.6
        },
        {
            "id": 22143,
            "original_name": "Degrassi's 40 Most Go There-est Moments",
            "popularity": 0.6
        },
        {
            "id": 26295,
            "original_name": "Degrassi Tells All",
            "popularity": 0.6
        },
        {
            "id": 61657,
            "original_name": "Bluegrass Underground",
            "popularity": 2.49
        },
        {
            "id": 64711,
            "original_name": "StarTalk with Neil deGrasse Tyson",
            "popularity": 4.934
        },
        {
            "id": 65152,
            "original_name": "Degrassi: Next Class",
            "popularity": 11.692
        }
    ]
}