{
    "data": [
        {
            "id": 785,
            "original_name": "Men Behaving Badly",
            "popularity": 5.325
        },
        {
            "id": 1861,
            "original_name": "Ain't Misbehavin'",
            "popularity": 2.08
        },
        {
            "id": 5713,
            "original_name": "Girls Behaving Badly",
            "popularity": 0.6
        },
        {
            "id": 10038,
            "original_name": "Goode Behavior",
            "popularity": 4.342
        },
        {
            "id": 14845,
            "original_name": "Bear Behaving Badly",
            "popularity": 1.4
        },
        {
            "id": 15533,
            "original_name": "Behaving Badly",
            "popularity": 0.945
        },
        {
            "id": 16580,
            "original_name": "Arresting Behavior",
            "popularity": 0.73
        },
        {
            "id": 17289,
            "original_name": "Extreme Expeditions: Model Behavior",
            "popularity": 0.6
        },
        {
            "id": 19975,
            "original_name": "Totally Outrageous Behavior",
            "popularity": 0.6
        },
        {
            "id": 20511,
            "original_name": "Men Behaving Badly",
            "popularity": 3.712
        },
        {
            "id": 21848,
            "original_name": "S.O.B.: Socially Offensive Behavior",
            "popularity": 0.6
        },
        {
            "id": 26023,
            "original_name": "Australia Behaving Badly",
            "popularity": 0.6
        },
        {
            "id": 29648,
            "original_name": "Families Behaving Badly",
            "popularity": 0.6
        },
        {
            "id": 30020,
            "original_name": "Stupid Behavior Caught on Tape",
            "popularity": 0.6
        },
        {
            "id": 31799,
            "original_name": "Model Behaviour",
            "popularity": 0.6
        },
        {
            "id": 32024,
            "original_name": "Ancients Behaving Badly",
            "popularity": 0.71
        },
        {
            "id": 32200,
            "original_name": "Criminal Minds: Suspect Behavior",
            "popularity": 10.232
        },
        {
            "id": 34077,
            "original_name": "Good Behavior",
            "popularity": 0.6
        },
        {
            "id": 40129,
            "original_name": "Ain't Misbehavin'",
            "popularity": 2.21
        },
        {
            "id": 55107,
            "original_name": "The Mystery of Animal Behavior",
            "popularity": 0.6
        },
        {
            "id": 59465,
            "original_name": "Misbehaving Mums To Be",
            "popularity": 0.6
        },
        {
            "id": 64836,
            "original_name": "Good Behavior",
            "popularity": 8.455
        },
        {
            "id": 65962,
            "original_name": "Plants Behaving Badly",
            "popularity": 0.6
        },
        {
            "id": 73015,
            "original_name": "Ill Behaviour",
            "popularity": 0.963
        },
        {
            "id": 85225,
            "original_name": "Animals Behaving Badly",
            "popularity": 0.604
        },
        {
            "id": 85439,
            "original_name": "Discovering Animal Behaviour",
            "popularity": 0.6
        },
        {
            "id": 97530,
            "original_name": "Dogs Behaving (Very) Badly",
            "popularity": 0.6
        }
    ],
    "relations": [
        {
            "character": "ehavin"
        },
        {
            "character": "ehavio"
        }
    ],
    "top20": [
        {
            "id": 32200,
            "original_name": "Criminal Minds: Suspect Behavior",
            "popularity": 10.232
        },
        {
            "id": 64836,
            "original_name": "Good Behavior",
            "popularity": 8.455
        },
        {
            "id": 785,
            "original_name": "Men Behaving Badly",
            "popularity": 5.325
        },
        {
            "id": 10038,
            "original_name": "Goode Behavior",
            "popularity": 4.342
        },
        {
            "id": 20511,
            "original_name": "Men Behaving Badly",
            "popularity": 3.712
        },
        {
            "id": 40129,
            "original_name": "Ain't Misbehavin'",
            "popularity": 2.21
        },
        {
            "id": 1861,
            "original_name": "Ain't Misbehavin'",
            "popularity": 2.08
        },
        {
            "id": 14845,
            "original_name": "Bear Behaving Badly",
            "popularity": 1.4
        },
        {
            "id": 73015,
            "original_name": "Ill Behaviour",
            "popularity": 0.963
        },
        {
            "id": 15533,
            "original_name": "Behaving Badly",
            "popularity": 0.945
        },
        {
            "id": 16580,
            "original_name": "Arresting Behavior",
            "popularity": 0.73
        },
        {
            "id": 32024,
            "original_name": "Ancients Behaving Badly",
            "popularity": 0.71
        },
        {
            "id": 85225,
            "original_name": "Animals Behaving Badly",
            "popularity": 0.604
        },
        {
            "id": 21848,
            "original_name": "S.O.B.: Socially Offensive Behavior",
            "popularity": 0.6
        },
        {
            "id": 5713,
            "original_name": "Girls Behaving Badly",
            "popularity": 0.6
        },
        {
            "id": 29648,
            "original_name": "Families Behaving Badly",
            "popularity": 0.6
        },
        {
            "id": 30020,
            "original_name": "Stupid Behavior Caught on Tape",
            "popularity": 0.6
        },
        {
            "id": 19975,
            "original_name": "Totally Outrageous Behavior",
            "popularity": 0.6
        },
        {
            "id": 17289,
            "original_name": "Extreme Expeditions: Model Behavior",
            "popularity": 0.6
        },
        {
            "id": 26023,
            "original_name": "Australia Behaving Badly",
            "popularity": 0.6
        }
    ]
}