{
    "data": [
        {
            "id": 53285,
            "original_name": "Kesat Al Nehayah",
            "popularity": 0.6
        }
    ],
    "relations": [],
    "top20": [
        {
            "id": 53285,
            "original_name": "Kesat Al Nehayah",
            "popularity": 0.6
        }
    ]
}