{
    "data": [
        {
            "id": 10865,
            "original_name": "Waynehead",
            "popularity": 0.6
        },
        {
            "id": 17344,
            "original_name": "Marblehead Manor",
            "popularity": 1.493
        },
        {
            "id": 27209,
            "original_name": "Bonehead Detectives of the Paleo World",
            "popularity": 0.6
        },
        {
            "id": 29833,
            "original_name": "Rehearsal Call",
            "popularity": 0.6
        },
        {
            "id": 30580,
            "original_name": "Bonehead",
            "popularity": 0.6
        },
        {
            "id": 32752,
            "original_name": "Eagleheart",
            "popularity": 5.446
        },
        {
            "id": 60067,
            "original_name": "Live at the Rehearsal Hall",
            "popularity": 0.6
        },
        {
            "id": 76865,
            "original_name": "After Braveheart",
            "popularity": 0.6
        }
    ],
    "relations": [],
    "top20": [
        {
            "id": 10865,
            "original_name": "Waynehead",
            "popularity": 0.6
        },
        {
            "id": 17344,
            "original_name": "Marblehead Manor",
            "popularity": 1.493
        },
        {
            "id": 27209,
            "original_name": "Bonehead Detectives of the Paleo World",
            "popularity": 0.6
        },
        {
            "id": 29833,
            "original_name": "Rehearsal Call",
            "popularity": 0.6
        },
        {
            "id": 30580,
            "original_name": "Bonehead",
            "popularity": 0.6
        },
        {
            "id": 32752,
            "original_name": "Eagleheart",
            "popularity": 5.446
        },
        {
            "id": 60067,
            "original_name": "Live at the Rehearsal Hall",
            "popularity": 0.6
        },
        {
            "id": 76865,
            "original_name": "After Braveheart",
            "popularity": 0.6
        }
    ]
}