{
    "data": [
        {
            "id": 106751,
            "original_name": "Nezvy\u010dajn\u00e9 pr\u00edbehy na slovenskom s\u00eddlisku",
            "popularity": 0.6
        },
        {
            "id": 107244,
            "original_name": "Pr\u00edbehy z lep\u0161ej spolo\u010dnosti",
            "popularity": 1.137
        },
        {
            "id": 121960,
            "original_name": "Dr\u00f8mmehytta",
            "popularity": 0.6
        },
        {
            "id": 123614,
            "original_name": "Pr\u00edbehy tatransk\u00fdch \u0161t\u00edtov",
            "popularity": 0.6
        },
        {
            "id": 126819,
            "original_name": "Zlat\u00ed chlapci: Pr\u00edbehy slovensk\u00e9ho hokeja",
            "popularity": 0.6
        }
    ],
    "relations": [],
    "top20": [
        {
            "id": 106751,
            "original_name": "Nezvy\u010dajn\u00e9 pr\u00edbehy na slovenskom s\u00eddlisku",
            "popularity": 0.6
        },
        {
            "id": 107244,
            "original_name": "Pr\u00edbehy z lep\u0161ej spolo\u010dnosti",
            "popularity": 1.137
        },
        {
            "id": 121960,
            "original_name": "Dr\u00f8mmehytta",
            "popularity": 0.6
        },
        {
            "id": 123614,
            "original_name": "Pr\u00edbehy tatransk\u00fdch \u0161t\u00edtov",
            "popularity": 0.6
        },
        {
            "id": 126819,
            "original_name": "Zlat\u00ed chlapci: Pr\u00edbehy slovensk\u00e9ho hokeja",
            "popularity": 0.6
        }
    ]
}