{
    "data": [
        {
            "id": 23074,
            "original_name": "Hogs & Heifers",
            "popularity": 0.6
        },
        {
            "id": 39935,
            "original_name": "Alles in Ordnung \u2013 Mit dem Wahnsinn auf Streife",
            "popularity": 1.4
        },
        {
            "id": 40733,
            "original_name": "Funkstreife Isar 12",
            "popularity": 1.594
        },
        {
            "id": 63569,
            "original_name": "Pfeifer",
            "popularity": 0.6
        },
        {
            "id": 63899,
            "original_name": "Zwei Engel auf Streife",
            "popularity": 0.685
        },
        {
            "id": 73455,
            "original_name": "Die Tintenfische \u2013 Unterwasserdetektive greifen ein",
            "popularity": 0.6
        },
        {
            "id": 76357,
            "original_name": "Die Eifelpraxis",
            "popularity": 4.242
        },
        {
            "id": 111552,
            "original_name": "Nachtstreife",
            "popularity": 0.6
        },
        {
            "id": 133912,
            "original_name": "Auf Streife \u2013 Berlin",
            "popularity": 0.6
        }
    ],
    "relations": [],
    "top20": [
        {
            "id": 23074,
            "original_name": "Hogs & Heifers",
            "popularity": 0.6
        },
        {
            "id": 39935,
            "original_name": "Alles in Ordnung \u2013 Mit dem Wahnsinn auf Streife",
            "popularity": 1.4
        },
        {
            "id": 40733,
            "original_name": "Funkstreife Isar 12",
            "popularity": 1.594
        },
        {
            "id": 63569,
            "original_name": "Pfeifer",
            "popularity": 0.6
        },
        {
            "id": 63899,
            "original_name": "Zwei Engel auf Streife",
            "popularity": 0.685
        },
        {
            "id": 73455,
            "original_name": "Die Tintenfische \u2013 Unterwasserdetektive greifen ein",
            "popularity": 0.6
        },
        {
            "id": 76357,
            "original_name": "Die Eifelpraxis",
            "popularity": 4.242
        },
        {
            "id": 111552,
            "original_name": "Nachtstreife",
            "popularity": 0.6
        },
        {
            "id": 133912,
            "original_name": "Auf Streife \u2013 Berlin",
            "popularity": 0.6
        }
    ]
}