{
    "data": [
        {
            "id": 8335,
            "original_name": "O Beijo do Vampiro",
            "popularity": 7.245
        },
        {
            "id": 20191,
            "original_name": "Beija Sapo",
            "popularity": 0.6
        },
        {
            "id": 30149,
            "original_name": "Van Speijk",
            "popularity": 2.907
        },
        {
            "id": 35167,
            "original_name": "Week van Weijers, De",
            "popularity": 0.6
        },
        {
            "id": 37407,
            "original_name": "Hagure Keiji '97",
            "popularity": 0.6
        },
        {
            "id": 37458,
            "original_name": "Hagure Keiji '99",
            "popularity": 0.6
        },
        {
            "id": 38615,
            "original_name": "Raveleijn",
            "popularity": 1.392
        },
        {
            "id": 41920,
            "original_name": "Aquele Beijo",
            "popularity": 4.203
        },
        {
            "id": 45762,
            "original_name": "P\u00e3o P\u00e3o, Beijo Beijo",
            "popularity": 0.6
        },
        {
            "id": 46021,
            "original_name": "Tapas & Beijos",
            "popularity": 3.564
        },
        {
            "id": 46264,
            "original_name": "Keiji Gasahime: Tokumei Kataku sousahan",
            "popularity": 0.6
        },
        {
            "id": 48351,
            "original_name": "Beijing Love Story",
            "popularity": 0.6
        },
        {
            "id": 54268,
            "original_name": "Sisters Rush to Beijing",
            "popularity": 0.6
        },
        {
            "id": 55656,
            "original_name": "Leijonan luola",
            "popularity": 0.6
        },
        {
            "id": 67984,
            "original_name": "Dona Beija",
            "popularity": 1.436
        },
        {
            "id": 70209,
            "original_name": "O Beijo do Escorpi\u00e3o",
            "popularity": 0.626
        },
        {
            "id": 77863,
            "original_name": "Beijing: Biography Of An Imperial Capital",
            "popularity": 0.6
        },
        {
            "id": 88731,
            "original_name": "The Ride London to Beijing",
            "popularity": 0.6
        },
        {
            "id": 93517,
            "original_name": "\u30b5\u30a4\u30b3\u30e1\u30c8\u30e9\u30fcEIJI",
            "popularity": 0.6
        },
        {
            "id": 99787,
            "original_name": "Meiji Gekken: Sword & Gun",
            "popularity": 0.6
        },
        {
            "id": 112761,
            "original_name": "Andy Niet Te Vermeijde",
            "popularity": 0.6
        },
        {
            "id": 123191,
            "original_name": "Keiji Narusawa Ryou \u5211\u4e8b\u30fb\u9cf4\u6ca2\u4e86",
            "popularity": 1.123
        },
        {
            "id": 127756,
            "original_name": "Wo zai Beijing deng ni",
            "popularity": 0.6
        },
        {
            "id": 152401,
            "original_name": "Dona Beija",
            "popularity": 0.6
        }
    ],
    "relations": [
        {
            "character": "eijo"
        },
        {
            "character": "eija"
        },
        {
            "character": "eijk"
        },
        {
            "character": "eije"
        },
        {
            "character": "eiji"
        },
        {
            "character": "eijn"
        },
        {
            "character": "eijd"
        }
    ],
    "top20": [
        {
            "id": 8335,
            "original_name": "O Beijo do Vampiro",
            "popularity": 7.245
        },
        {
            "id": 41920,
            "original_name": "Aquele Beijo",
            "popularity": 4.203
        },
        {
            "id": 46021,
            "original_name": "Tapas & Beijos",
            "popularity": 3.564
        },
        {
            "id": 30149,
            "original_name": "Van Speijk",
            "popularity": 2.907
        },
        {
            "id": 67984,
            "original_name": "Dona Beija",
            "popularity": 1.436
        },
        {
            "id": 38615,
            "original_name": "Raveleijn",
            "popularity": 1.392
        },
        {
            "id": 123191,
            "original_name": "Keiji Narusawa Ryou \u5211\u4e8b\u30fb\u9cf4\u6ca2\u4e86",
            "popularity": 1.123
        },
        {
            "id": 70209,
            "original_name": "O Beijo do Escorpi\u00e3o",
            "popularity": 0.626
        },
        {
            "id": 20191,
            "original_name": "Beija Sapo",
            "popularity": 0.6
        },
        {
            "id": 93517,
            "original_name": "\u30b5\u30a4\u30b3\u30e1\u30c8\u30e9\u30fcEIJI",
            "popularity": 0.6
        },
        {
            "id": 37458,
            "original_name": "Hagure Keiji '99",
            "popularity": 0.6
        },
        {
            "id": 37407,
            "original_name": "Hagure Keiji '97",
            "popularity": 0.6
        },
        {
            "id": 88731,
            "original_name": "The Ride London to Beijing",
            "popularity": 0.6
        },
        {
            "id": 45762,
            "original_name": "P\u00e3o P\u00e3o, Beijo Beijo",
            "popularity": 0.6
        },
        {
            "id": 35167,
            "original_name": "Week van Weijers, De",
            "popularity": 0.6
        },
        {
            "id": 54268,
            "original_name": "Sisters Rush to Beijing",
            "popularity": 0.6
        },
        {
            "id": 55656,
            "original_name": "Leijonan luola",
            "popularity": 0.6
        },
        {
            "id": 48351,
            "original_name": "Beijing Love Story",
            "popularity": 0.6
        },
        {
            "id": 46264,
            "original_name": "Keiji Gasahime: Tokumei Kataku sousahan",
            "popularity": 0.6
        },
        {
            "id": 77863,
            "original_name": "Beijing: Biography Of An Imperial Capital",
            "popularity": 0.6
        }
    ]
}