{
    "data": [
        {
            "id": 490,
            "original_name": "Jo\u00eb chez les abeilles",
            "popularity": 0.655
        },
        {
            "id": 1094,
            "original_name": "The O'Reilly Factor",
            "popularity": 1.085
        },
        {
            "id": 2935,
            "original_name": "Your World with Neil Cavuto",
            "popularity": 0.6
        },
        {
            "id": 3614,
            "original_name": "Starveillance",
            "popularity": 0.6
        },
        {
            "id": 5893,
            "original_name": "Veiled Ambition",
            "popularity": 0.6
        },
        {
            "id": 6833,
            "original_name": "Sous le soleil",
            "popularity": 3.663
        },
        {
            "id": 7922,
            "original_name": "Ffeil",
            "popularity": 0.6
        },
        {
            "id": 10758,
            "original_name": "The Trials of Rosie O'Neill",
            "popularity": 3.406
        },
        {
            "id": 11113,
            "original_name": "Heil Honey I'm Home!",
            "popularity": 0.6
        },
        {
            "id": 12026,
            "original_name": "Reilly, Ace of Spies",
            "popularity": 6.755
        },
        {
            "id": 13405,
            "original_name": "L'\u00eele aux trente cercueils",
            "popularity": 0.848
        },
        {
            "id": 13773,
            "original_name": "The Veil",
            "popularity": 2.404
        },
        {
            "id": 15162,
            "original_name": "Corneil et Bernie",
            "popularity": 1.362
        },
        {
            "id": 18529,
            "original_name": "Homecoming with Rick Reilly",
            "popularity": 0.6
        },
        {
            "id": 18742,
            "original_name": "Katie and Eilish: Siamese Twins",
            "popularity": 0.6
        },
        {
            "id": 19186,
            "original_name": "Macneil and Lehrere Newshour",
            "popularity": 0.6
        },
        {
            "id": 19433,
            "original_name": "Marie-Soleil",
            "popularity": 0.6
        },
        {
            "id": 19928,
            "original_name": "Urheiluruutu",
            "popularity": 0.6
        },
        {
            "id": 21944,
            "original_name": "Neil Morrissey's Risky Business",
            "popularity": 0.6
        },
        {
            "id": 22329,
            "original_name": "Geile Zeit",
            "popularity": 0.6
        },
        {
            "id": 22883,
            "original_name": "La nuit a peur du soleil",
            "popularity": 0.6
        },
        {
            "id": 23181,
            "original_name": "Desperately Seeking Sheila",
            "popularity": 0.6
        },
        {
            "id": 24955,
            "original_name": "Eilbheas",
            "popularity": 0.6
        },
        {
            "id": 27133,
            "original_name": "But Seriously, It's Sheila Hancock",
            "popularity": 0.6
        },
        {
            "id": 30782,
            "original_name": "The Legend of Neil",
            "popularity": 1.474
        },
        {
            "id": 30862,
            "original_name": "My Sister Eileen",
            "popularity": 1.417
        },
        {
            "id": 31047,
            "original_name": "Silent Victory: The Kitty O'Neil Story",
            "popularity": 0.6
        },
        {
            "id": 33591,
            "original_name": "Ceilidh",
            "popularity": 0.6
        },
        {
            "id": 35700,
            "original_name": "Het Eiland",
            "popularity": 0.742
        },
        {
            "id": 37175,
            "original_name": "Under Surveillance Australian Druglords",
            "popularity": 0.6
        },
        {
            "id": 37276,
            "original_name": "Heilsub\u00e6li\u00f0",
            "popularity": 0.6
        },
        {
            "id": 38280,
            "original_name": "Bride Trafficking Unveiled",
            "popularity": 0.6
        },
        {
            "id": 38568,
            "original_name": "Neil Morrissey \u2013 Care Home Kid",
            "popularity": 0.6
        },
        {
            "id": 40618,
            "original_name": "Der Heiland auf dem Eiland",
            "popularity": 1.4
        },
        {
            "id": 41040,
            "original_name": "Die Rote Meile",
            "popularity": 1.719
        },
        {
            "id": 42533,
            "original_name": "Cordell And Coneil",
            "popularity": 1.4
        },
        {
            "id": 43320,
            "original_name": "Cirque du Soleil: Solstrom",
            "popularity": 0.87
        },
        {
            "id": 43525,
            "original_name": "Dr. Andrew Weil's Healthy Aging",
            "popularity": 1.4
        },
        {
            "id": 45709,
            "original_name": "Bloomberg Surveillance",
            "popularity": 0.6
        },
        {
            "id": 46996,
            "original_name": "Cirque du Soleil: Fire Within",
            "popularity": 1.729
        },
        {
            "id": 47175,
            "original_name": "Neil Diamond: Under a Tennessee Moon",
            "popularity": 0.6
        },
        {
            "id": 48182,
            "original_name": "Neil Diamond... Hello Again",
            "popularity": 0.6
        },
        {
            "id": 48409,
            "original_name": "Meili Cungu",
            "popularity": 0.6
        },
        {
            "id": 49955,
            "original_name": "Heiter bis t\u00f6dlich - Zwischen den Zeilen",
            "popularity": 2.435
        },
        {
            "id": 50332,
            "original_name": "Banat Aleila",
            "popularity": 0.6
        },
        {
            "id": 50470,
            "original_name": "Sabah Al Leil",
            "popularity": 0.6
        },
        {
            "id": 51667,
            "original_name": "Neil Sedaka Steppin' Out",
            "popularity": 0.6
        },
        {
            "id": 51670,
            "original_name": "Neil's Puppet Dreams",
            "popularity": 0.6
        },
        {
            "id": 52497,
            "original_name": "Feilong Zaitian",
            "popularity": 0.6
        },
        {
            "id": 52745,
            "original_name": "Eilah Agab",
            "popularity": 0.6
        },
        {
            "id": 53767,
            "original_name": "Alf Leila w Leila",
            "popularity": 0.6
        },
        {
            "id": 54082,
            "original_name": "Alf Leila w Leila",
            "popularity": 0.6
        },
        {
            "id": 54089,
            "original_name": "El-Leil w El-Qamar",
            "popularity": 0.6
        },
        {
            "id": 54120,
            "original_name": "Welad Al-Leil",
            "popularity": 0.6
        },
        {
            "id": 54124,
            "original_name": "Amana Ya Leil",
            "popularity": 0.6
        },
        {
            "id": 54161,
            "original_name": "Helm El-Leil w El-Nahar",
            "popularity": 0.6
        },
        {
            "id": 54568,
            "original_name": "Prwino Kokteil",
            "popularity": 0.6
        },
        {
            "id": 54697,
            "original_name": "Fatat Al Leil",
            "popularity": 0.6
        },
        {
            "id": 54739,
            "original_name": "Alf Leila Wa Leila",
            "popularity": 0.6
        },
        {
            "id": 55157,
            "original_name": "Alf Leila Wa Leila",
            "popularity": 0.6
        },
        {
            "id": 56461,
            "original_name": "Awlad Al-Leil",
            "popularity": 0.6
        },
        {
            "id": 56950,
            "original_name": "Neil Perry: Rockpool Sessions",
            "popularity": 0.6
        },
        {
            "id": 58334,
            "original_name": "The O'Neills",
            "popularity": 0.6
        },
        {
            "id": 58428,
            "original_name": "Being Eileen",
            "popularity": 0.884
        },
        {
            "id": 58622,
            "original_name": "Leila's Home Delivery",
            "popularity": 0.6
        },
        {
            "id": 58995,
            "original_name": "Surveillance Oz",
            "popularity": 0.6
        },
        {
            "id": 61661,
            "original_name": "Duel au soleil",
            "popularity": 0.84
        },
        {
            "id": 62159,
            "original_name": "Manoel dans l'\u00eele des merveilles",
            "popularity": 0.71
        },
        {
            "id": 63933,
            "original_name": "Best Time Ever with Neil Patrick Harris",
            "popularity": 1.654
        },
        {
            "id": 64711,
            "original_name": "StarTalk with Neil deGrasse Tyson",
            "popularity": 4.934
        },
        {
            "id": 65243,
            "original_name": "All Hail the Veil",
            "popularity": 0.6
        },
        {
            "id": 65431,
            "original_name": "Les Peuples du Soleil",
            "popularity": 0.6
        },
        {
            "id": 65466,
            "original_name": "Marseille",
            "popularity": 9.858
        },
        {
            "id": 66314,
            "original_name": "Famille d'accueil",
            "popularity": 1.465
        },
        {
            "id": 66612,
            "original_name": "Neil Gaiman's Likely Stories",
            "popularity": 2.431
        },
        {
            "id": 66639,
            "original_name": "The Celts: Blood Iron & Sacrifice with Alice Roberts and Neil Oliver",
            "popularity": 1.282
        },
        {
            "id": 66687,
            "original_name": "Dans l'oeil du dragon",
            "popularity": 3.116
        },
        {
            "id": 66996,
            "original_name": "Die Germanen - Meilensteine der Fr\u00fchgeschichte Europas",
            "popularity": 0.6
        },
        {
            "id": 67470,
            "original_name": "Sous le soleil de Saint-Tropez",
            "popularity": 0.845
        },
        {
            "id": 67978,
            "original_name": "Les Marseillais et Les Ch'tis vs Le reste du monde",
            "popularity": 1.362
        },
        {
            "id": 68699,
            "original_name": "Les Marseillais",
            "popularity": 1.773
        },
        {
            "id": 70833,
            "original_name": "Les Marseillais South America",
            "popularity": 0.841
        },
        {
            "id": 72260,
            "original_name": "Hva feiler det deg?",
            "popularity": 22.835
        },
        {
            "id": 72889,
            "original_name": "Les Bons conseils de C\u00e9lestin : Vivre ensemble",
            "popularity": 1.96
        },
        {
            "id": 73675,
            "original_name": "Meil\u0117 gydo",
            "popularity": 0.6
        },
        {
            "id": 74271,
            "original_name": "Die Pfeiler der Macht",
            "popularity": 0.662
        },
        {
            "id": 74544,
            "original_name": "Le meilleur p\u00e2tissier",
            "popularity": 7.823
        },
        {
            "id": 74838,
            "original_name": "Vieillir dans la nature",
            "popularity": 0.6
        },
        {
            "id": 75025,
            "original_name": "Le miel et les abeilles",
            "popularity": 1.755
        },
        {
            "id": 75563,
            "original_name": "Les Chevaux du soleil",
            "popularity": 0.877
        },
        {
            "id": 75812,
            "original_name": "Meilleur que le chef!",
            "popularity": 0.852
        },
        {
            "id": 78051,
            "original_name": "Le meilleur p\u00e2tissier - Sp\u00e9ciale c\u00e9l\u00e9brit\u00e9s",
            "popularity": 0.764
        },
        {
            "id": 79591,
            "original_name": "La fille dans le cercueil",
            "popularity": 0.6
        },
        {
            "id": 80955,
            "original_name": "Die Heiland: Wir sind Anwalt",
            "popularity": 25.645
        },
        {
            "id": 81066,
            "original_name": "Anton Keil, der Specialkommiss\u00e4r",
            "popularity": 2.065
        },
        {
            "id": 81329,
            "original_name": "Un si grand soleil",
            "popularity": 49.176
        },
        {
            "id": 82006,
            "original_name": "Les Marseillais vs le Reste du monde",
            "popularity": 2.358
        },
        {
            "id": 82218,
            "original_name": "Unsere heile Welt",
            "popularity": 1.386
        },
        {
            "id": 82613,
            "original_name": "Kommissarin Seiler ermittelt",
            "popularity": 1.39
        },
        {
            "id": 83183,
            "original_name": "Heilig, Rein & Sauber - Die Kulturgeschichte der Hygiene",
            "popularity": 0.6
        },
        {
            "id": 83504,
            "original_name": "Pour devenir Meilleur que le Chef!",
            "popularity": 0.6
        },
        {
            "id": 83967,
            "original_name": "Conseils de famille",
            "popularity": 2.446
        },
        {
            "id": 85998,
            "original_name": "Die Seilt\u00e4nzer",
            "popularity": 0.84
        },
        {
            "id": 86680,
            "original_name": "Pareil pas pareil",
            "popularity": 0.849
        },
        {
            "id": 86708,
            "original_name": "De veiligheid van het land",
            "popularity": 0.607
        },
        {
            "id": 86932,
            "original_name": "Les Marseillais : Asian Tour",
            "popularity": 0.6
        },
        {
            "id": 87173,
            "original_name": "Stray Kids Unveil Tour in Thailand",
            "popularity": 0.6
        },
        {
            "id": 89545,
            "original_name": "Leila",
            "popularity": 2.508
        },
        {
            "id": 90082,
            "original_name": "Mon meilleur ami",
            "popularity": 1.346
        },
        {
            "id": 92804,
            "original_name": "Alix et les merveilleux",
            "popularity": 1648.144
        },
        {
            "id": 93334,
            "original_name": "Mon oeil !",
            "popularity": 0.848
        },
        {
            "id": 94471,
            "original_name": "Chateau Meiland",
            "popularity": 1.485
        },
        {
            "id": 95058,
            "original_name": "De Kust is Veilig",
            "popularity": 0.6
        },
        {
            "id": 95875,
            "original_name": "La minute vieille",
            "popularity": 0.6
        },
        {
            "id": 96012,
            "original_name": "Conseils d'amis",
            "popularity": 1.146
        },
        {
            "id": 96633,
            "original_name": "First Flights with Neil Armstrong",
            "popularity": 1.347
        },
        {
            "id": 97295,
            "original_name": "Kerst op Chateau Meiland",
            "popularity": 0.6
        },
        {
            "id": 98260,
            "original_name": "Les ma\u00eetres des abeilles",
            "popularity": 0.6
        },
        {
            "id": 98511,
            "original_name": "Merveilles Nordiques",
            "popularity": 0.6
        },
        {
            "id": 98516,
            "original_name": "Sous le Soleil du Mexique",
            "popularity": 0.6
        },
        {
            "id": 98606,
            "original_name": "L'Europe en Bouteilles",
            "popularity": 0.6
        },
        {
            "id": 99197,
            "original_name": "Merveilles d\u2019Afrique",
            "popularity": 0.6
        },
        {
            "id": 99527,
            "original_name": "Les Marseillais aux Cara\u00efbes",
            "popularity": 0.6
        },
        {
            "id": 100164,
            "original_name": "Un ch\u00e2teau au soleil",
            "popularity": 2.309
        },
        {
            "id": 100551,
            "original_name": "Les reportages de Martin Weill",
            "popularity": 2.053
        },
        {
            "id": 100559,
            "original_name": "Le soleil se l\u00e8ve \u00e0 l'est",
            "popularity": 0.6
        },
        {
            "id": 101360,
            "original_name": "Le Meilleur de Nulle Part Ailleurs",
            "popularity": 0.6
        },
        {
            "id": 102338,
            "original_name": "Babylon Unveiled",
            "popularity": 0.6
        },
        {
            "id": 103028,
            "original_name": "Panique dans l'oreillette",
            "popularity": 2.324
        },
        {
            "id": 103771,
            "original_name": "L'oeil et la main",
            "popularity": 0.6
        },
        {
            "id": 105133,
            "original_name": "Zeil um Zehn",
            "popularity": 2.864
        },
        {
            "id": 108615,
            "original_name": "Meilleur avant",
            "popularity": 0.872
        },
        {
            "id": 110600,
            "original_name": "Mano meil\u0117 karantinas",
            "popularity": 1.498
        },
        {
            "id": 112829,
            "original_name": "L'oeil du cyclone",
            "popularity": 1.075
        },
        {
            "id": 113732,
            "original_name": "La nuit o\u00f9 Laurier Gaudreault s'est r\u00e9veill\u00e9",
            "popularity": 2.772
        },
        {
            "id": 114727,
            "original_name": "The Sound of TV with Neil Brand",
            "popularity": 1.012
        },
        {
            "id": 115324,
            "original_name": "Le meilleur p\u00e2tissier - Les professionnels",
            "popularity": 1.235
        },
        {
            "id": 115518,
            "original_name": "Kerst met de familie Meiland",
            "popularity": 1.143
        },
        {
            "id": 117813,
            "original_name": "Das Schlagzeilenquiz",
            "popularity": 1.864
        },
        {
            "id": 118459,
            "original_name": "Sound of Musicals with Neil Brand",
            "popularity": 0.6
        },
        {
            "id": 119350,
            "original_name": "Les Marseillais \u00e0 Duba\u00ef",
            "popularity": 0.6
        },
        {
            "id": 119857,
            "original_name": "La meilleure boulangerie de France",
            "popularity": 1.042
        },
        {
            "id": 119914,
            "original_name": "L'industrie de la vieillesse",
            "popularity": 0.6
        },
        {
            "id": 120723,
            "original_name": "Merveilles du syst\u00e8me solaire",
            "popularity": 0.6
        },
        {
            "id": 121079,
            "original_name": "Pierre Desproges, les bons conseils du Professeur Corbiniou",
            "popularity": 0.6
        },
        {
            "id": 121326,
            "original_name": "Un chef \u00e0 l'oreille",
            "popularity": 0.6
        },
        {
            "id": 123388,
            "original_name": "Versailles, les d\u00e9fis du roi Soleil",
            "popularity": 0.6
        },
        {
            "id": 124230,
            "original_name": "Pour le meilleur ou pour le pire",
            "popularity": 0.6
        },
        {
            "id": 124554,
            "original_name": "Merveilles de l'UNESCO",
            "popularity": 0.6
        },
        {
            "id": 124642,
            "original_name": "'Lifting the Veil'",
            "popularity": 0.6
        },
        {
            "id": 124779,
            "original_name": "Mon g\u00e2teau est le meilleur de France",
            "popularity": 0.6
        },
        {
            "id": 124871,
            "original_name": "America's Surveillance State",
            "popularity": 0.6
        },
        {
            "id": 126857,
            "original_name": "Die Gegenteilshow",
            "popularity": 0.6
        },
        {
            "id": 127400,
            "original_name": "Le meilleur p\u00e2tissier du Qu\u00e9bec",
            "popularity": 0.6
        },
        {
            "id": 129235,
            "original_name": "Operaatio Interheil",
            "popularity": 0.607
        },
        {
            "id": 129939,
            "original_name": "Familles nombreuses : La vie au soleil",
            "popularity": 0.802
        },
        {
            "id": 130253,
            "original_name": "L'\u00e2ge vermeil",
            "popularity": 0.6
        },
        {
            "id": 131117,
            "original_name": "Le monde merveilleux des b\u00e9b\u00e9s animaux",
            "popularity": 0.6
        },
        {
            "id": 131120,
            "original_name": "Des jours meilleurs",
            "popularity": 0.6
        },
        {
            "id": 131203,
            "original_name": "Montr\u00e9al sous surveillance",
            "popularity": 1.386
        },
        {
            "id": 131255,
            "original_name": "\u00catre famille d'accueil",
            "popularity": 20.061
        },
        {
            "id": 131944,
            "original_name": "Robots, le meilleur des mondes?",
            "popularity": 0.6
        },
        {
            "id": 133391,
            "original_name": "La sant\u00e9 de l'oeil",
            "popularity": 0.618
        },
        {
            "id": 135123,
            "original_name": "Les 100 Merveilles du Monde",
            "popularity": 0.6
        },
        {
            "id": 136269,
            "original_name": "Cool pareil",
            "popularity": 0.6
        },
        {
            "id": 137150,
            "original_name": "Surveillance Dashcam",
            "popularity": 0.604
        },
        {
            "id": 138753,
            "original_name": "La meilleure version de moi-m\u00eame",
            "popularity": 28.309
        },
        {
            "id": 139626,
            "original_name": "Veta Unveiled",
            "popularity": 0.943
        },
        {
            "id": 147047,
            "original_name": "Raymond Goethals: Magie in Marseille",
            "popularity": 2.925
        }
    ],
    "relations": [
        {
            "character": "eill"
        },
        {
            "character": "eile"
        },
        {
            "character": "eils"
        },
        {
            "character": "eili"
        },
        {
            "character": "eilu"
        },
        {
            "character": "eila"
        },
        {
            "character": "eilb"
        },
        {
            "character": "eilo"
        },
        {
            "character": "eilt"
        }
    ],
    "top20": [
        {
            "id": 92804,
            "original_name": "Alix et les merveilleux",
            "popularity": 1648.144
        },
        {
            "id": 81329,
            "original_name": "Un si grand soleil",
            "popularity": 49.176
        },
        {
            "id": 138753,
            "original_name": "La meilleure version de moi-m\u00eame",
            "popularity": 28.309
        },
        {
            "id": 80955,
            "original_name": "Die Heiland: Wir sind Anwalt",
            "popularity": 25.645
        },
        {
            "id": 72260,
            "original_name": "Hva feiler det deg?",
            "popularity": 22.835
        },
        {
            "id": 131255,
            "original_name": "\u00catre famille d'accueil",
            "popularity": 20.061
        },
        {
            "id": 65466,
            "original_name": "Marseille",
            "popularity": 9.858
        },
        {
            "id": 74544,
            "original_name": "Le meilleur p\u00e2tissier",
            "popularity": 7.823
        },
        {
            "id": 12026,
            "original_name": "Reilly, Ace of Spies",
            "popularity": 6.755
        },
        {
            "id": 64711,
            "original_name": "StarTalk with Neil deGrasse Tyson",
            "popularity": 4.934
        },
        {
            "id": 6833,
            "original_name": "Sous le soleil",
            "popularity": 3.663
        },
        {
            "id": 10758,
            "original_name": "The Trials of Rosie O'Neill",
            "popularity": 3.406
        },
        {
            "id": 66687,
            "original_name": "Dans l'oeil du dragon",
            "popularity": 3.116
        },
        {
            "id": 147047,
            "original_name": "Raymond Goethals: Magie in Marseille",
            "popularity": 2.925
        },
        {
            "id": 105133,
            "original_name": "Zeil um Zehn",
            "popularity": 2.864
        },
        {
            "id": 113732,
            "original_name": "La nuit o\u00f9 Laurier Gaudreault s'est r\u00e9veill\u00e9",
            "popularity": 2.772
        },
        {
            "id": 89545,
            "original_name": "Leila",
            "popularity": 2.508
        },
        {
            "id": 83967,
            "original_name": "Conseils de famille",
            "popularity": 2.446
        },
        {
            "id": 49955,
            "original_name": "Heiter bis t\u00f6dlich - Zwischen den Zeilen",
            "popularity": 2.435
        },
        {
            "id": 66612,
            "original_name": "Neil Gaiman's Likely Stories",
            "popularity": 2.431
        }
    ]
}