{
    "data": [
        {
            "id": 22885,
            "original_name": "Wolfseinde",
            "popularity": 0.664
        },
        {
            "id": 37765,
            "original_name": "Romuald the Reindeer",
            "popularity": 3.111
        },
        {
            "id": 65482,
            "original_name": "Gemeinder\u00e4tin Schumann",
            "popularity": 0.6
        },
        {
            "id": 65685,
            "original_name": "Floortje naar het einde van de wereld",
            "popularity": 2.066
        },
        {
            "id": 73452,
            "original_name": "Helemaal het Einde!",
            "popularity": 0.604
        },
        {
            "id": 101980,
            "original_name": "Unter Feinden",
            "popularity": 2.345
        },
        {
            "id": 106176,
            "original_name": "Barrie Barista en het einde der tijden",
            "popularity": 0.659
        },
        {
            "id": 106933,
            "original_name": "Mein Gemeindebau",
            "popularity": 0.6
        },
        {
            "id": 115123,
            "original_name": "Floortje Terug naar het einde van de wereld",
            "popularity": 0.6
        },
        {
            "id": 122455,
            "original_name": "Rudolph the Red-Nosed Reindeer: The Series",
            "popularity": 0.6
        },
        {
            "id": 122849,
            "original_name": "Geliebte Feinde \u2013 Die Deutschen und die Franzosen",
            "popularity": 0.6
        }
    ],
    "relations": [],
    "top20": [
        {
            "id": 22885,
            "original_name": "Wolfseinde",
            "popularity": 0.664
        },
        {
            "id": 37765,
            "original_name": "Romuald the Reindeer",
            "popularity": 3.111
        },
        {
            "id": 65482,
            "original_name": "Gemeinder\u00e4tin Schumann",
            "popularity": 0.6
        },
        {
            "id": 65685,
            "original_name": "Floortje naar het einde van de wereld",
            "popularity": 2.066
        },
        {
            "id": 73452,
            "original_name": "Helemaal het Einde!",
            "popularity": 0.604
        },
        {
            "id": 101980,
            "original_name": "Unter Feinden",
            "popularity": 2.345
        },
        {
            "id": 106176,
            "original_name": "Barrie Barista en het einde der tijden",
            "popularity": 0.659
        },
        {
            "id": 106933,
            "original_name": "Mein Gemeindebau",
            "popularity": 0.6
        },
        {
            "id": 115123,
            "original_name": "Floortje Terug naar het einde van de wereld",
            "popularity": 0.6
        },
        {
            "id": 122455,
            "original_name": "Rudolph the Red-Nosed Reindeer: The Series",
            "popularity": 0.6
        },
        {
            "id": 122849,
            "original_name": "Geliebte Feinde \u2013 Die Deutschen und die Franzosen",
            "popularity": 0.6
        }
    ]
}