{
    "data": [
        {
            "id": 104842,
            "original_name": "Vereinsheim Schwabing",
            "popularity": 2.052
        }
    ],
    "relations": [],
    "top20": [
        {
            "id": 104842,
            "original_name": "Vereinsheim Schwabing",
            "popularity": 2.052
        }
    ]
}