{
    "data": [
        {
            "id": 19758,
            "original_name": "SOKO Leipzig",
            "popularity": 38.761
        },
        {
            "id": 43774,
            "original_name": "Web Of Deceipt",
            "popularity": 0.6
        },
        {
            "id": 70032,
            "original_name": "Veipatruljen",
            "popularity": 0.6
        },
        {
            "id": 115451,
            "original_name": "Stratmanns - Jupps Kneipentheater im Pott",
            "popularity": 2.141
        },
        {
            "id": 116118,
            "original_name": "Koko Suomi leipoo",
            "popularity": 0.659
        }
    ],
    "relations": [],
    "top20": [
        {
            "id": 19758,
            "original_name": "SOKO Leipzig",
            "popularity": 38.761
        },
        {
            "id": 43774,
            "original_name": "Web Of Deceipt",
            "popularity": 0.6
        },
        {
            "id": 70032,
            "original_name": "Veipatruljen",
            "popularity": 0.6
        },
        {
            "id": 115451,
            "original_name": "Stratmanns - Jupps Kneipentheater im Pott",
            "popularity": 2.141
        },
        {
            "id": 116118,
            "original_name": "Koko Suomi leipoo",
            "popularity": 0.659
        }
    ]
}