{
    "data": [
        {
            "id": 12562,
            "original_name": "Conversations with Michael Eisner",
            "popularity": 1.203
        }
    ],
    "relations": [],
    "top20": [
        {
            "id": 12562,
            "original_name": "Conversations with Michael Eisner",
            "popularity": 1.203
        }
    ]
}