{
    "data": [
        {
            "id": 97432,
            "original_name": "Il-Kristu Tal-Kerrejja",
            "popularity": 0.6
        }
    ],
    "relations": [],
    "top20": [
        {
            "id": 97432,
            "original_name": "Il-Kristu Tal-Kerrejja",
            "popularity": 0.6
        }
    ]
}