{
    "data": [
        {
            "id": 5416,
            "original_name": "Neken\u010diu reklamos",
            "popularity": 0.727
        },
        {
            "id": 22348,
            "original_name": "Uit de school geklapt",
            "popularity": 0.6
        },
        {
            "id": 52408,
            "original_name": "Mekla",
            "popularity": 0.6
        },
        {
            "id": 63099,
            "original_name": "Kl\u00e4ger und Beklagte",
            "popularity": 0.88
        },
        {
            "id": 78266,
            "original_name": "Smartare \u00e4n en femteklassare?",
            "popularity": 1.518
        },
        {
            "id": 99442,
            "original_name": "Super\u0161\u00e9f: 24 hodin do pekla a zp\u011bt",
            "popularity": 1.4
        },
        {
            "id": 103424,
            "original_name": "Kaffeeklatsch",
            "popularity": 0.6
        }
    ],
    "relations": [],
    "top20": [
        {
            "id": 5416,
            "original_name": "Neken\u010diu reklamos",
            "popularity": 0.727
        },
        {
            "id": 22348,
            "original_name": "Uit de school geklapt",
            "popularity": 0.6
        },
        {
            "id": 52408,
            "original_name": "Mekla",
            "popularity": 0.6
        },
        {
            "id": 63099,
            "original_name": "Kl\u00e4ger und Beklagte",
            "popularity": 0.88
        },
        {
            "id": 78266,
            "original_name": "Smartare \u00e4n en femteklassare?",
            "popularity": 1.518
        },
        {
            "id": 99442,
            "original_name": "Super\u0161\u00e9f: 24 hodin do pekla a zp\u011bt",
            "popularity": 1.4
        },
        {
            "id": 103424,
            "original_name": "Kaffeeklatsch",
            "popularity": 0.6
        }
    ]
}