{
    "data": [
        {
            "id": 1571,
            "original_name": "The Legend of Zelda",
            "popularity": 4.991
        },
        {
            "id": 50613,
            "original_name": "O'rs Eldam",
            "popularity": 0.6
        },
        {
            "id": 60637,
            "original_name": "Griselda Blanco: La viuda negra",
            "popularity": 42.748
        },
        {
            "id": 93535,
            "original_name": "Zeldamotion: A Link To The Past",
            "popularity": 0.6
        },
        {
            "id": 111425,
            "original_name": "Imelda & Ferdinand Marcos: Exile in Hawaii",
            "popularity": 0.859
        },
        {
            "id": 119402,
            "original_name": "The Making of The Legend of Zelda: Breath of the Wild",
            "popularity": 1.4
        },
        {
            "id": 137720,
            "original_name": "Frankeldas Book of Spooks",
            "popularity": 47.971
        },
        {
            "id": 137893,
            "original_name": "Griselda",
            "popularity": 0.6
        }
    ],
    "relations": [],
    "top20": [
        {
            "id": 1571,
            "original_name": "The Legend of Zelda",
            "popularity": 4.991
        },
        {
            "id": 50613,
            "original_name": "O'rs Eldam",
            "popularity": 0.6
        },
        {
            "id": 60637,
            "original_name": "Griselda Blanco: La viuda negra",
            "popularity": 42.748
        },
        {
            "id": 93535,
            "original_name": "Zeldamotion: A Link To The Past",
            "popularity": 0.6
        },
        {
            "id": 111425,
            "original_name": "Imelda & Ferdinand Marcos: Exile in Hawaii",
            "popularity": 0.859
        },
        {
            "id": 119402,
            "original_name": "The Making of The Legend of Zelda: Breath of the Wild",
            "popularity": 1.4
        },
        {
            "id": 137720,
            "original_name": "Frankeldas Book of Spooks",
            "popularity": 47.971
        },
        {
            "id": 137893,
            "original_name": "Griselda",
            "popularity": 0.6
        }
    ]
}