{
    "data": [
        {
            "id": 12021,
            "original_name": "Telemiracle",
            "popularity": 0.6
        }
    ],
    "relations": [],
    "top20": [
        {
            "id": 12021,
            "original_name": "Telemiracle",
            "popularity": 0.6
        }
    ]
}