{
    "data": [
        {
            "id": 43140,
            "original_name": "Kronjuvelerna",
            "popularity": 0.6
        },
        {
            "id": 81460,
            "original_name": "Erben will gelernt sein",
            "popularity": 0.617
        }
    ],
    "relations": [],
    "top20": [
        {
            "id": 43140,
            "original_name": "Kronjuvelerna",
            "popularity": 0.6
        },
        {
            "id": 81460,
            "original_name": "Erben will gelernt sein",
            "popularity": 0.617
        }
    ]
}