{
    "data": [
        {
            "id": 948,
            "original_name": "Liquid Television",
            "popularity": 0.6
        },
        {
            "id": 1245,
            "original_name": "Harry Enfield's Television Programme",
            "popularity": 1.8
        },
        {
            "id": 1496,
            "original_name": "The Way of the Master Television Show",
            "popularity": 0.6
        },
        {
            "id": 2011,
            "original_name": "Doggy Fizzle Televizzle",
            "popularity": 0.684
        },
        {
            "id": 2053,
            "original_name": "...on Television",
            "popularity": 0.6
        },
        {
            "id": 2548,
            "original_name": "Second City Television",
            "popularity": 6.826
        },
        {
            "id": 3264,
            "original_name": "Turkey Television",
            "popularity": 0.6
        },
        {
            "id": 3607,
            "original_name": "You Can't Do That on Television",
            "popularity": 4.437
        },
        {
            "id": 4063,
            "original_name": "Square One Television",
            "popularity": 3.786
        },
        {
            "id": 4728,
            "original_name": "CBS Television Quiz",
            "popularity": 0.6
        },
        {
            "id": 5064,
            "original_name": "Karaoke Television",
            "popularity": 0.6
        },
        {
            "id": 5271,
            "original_name": "Eleventh Hour",
            "popularity": 1.54
        },
        {
            "id": 5831,
            "original_name": "Spirit of Television",
            "popularity": 0.6
        },
        {
            "id": 6089,
            "original_name": "Back of the Y Masterpiece Television",
            "popularity": 0.6
        },
        {
            "id": 6910,
            "original_name": "The Jon Dore Television Show",
            "popularity": 1.177
        },
        {
            "id": 7145,
            "original_name": "Source One Television",
            "popularity": 0.6
        },
        {
            "id": 7525,
            "original_name": "Eleventh Hour",
            "popularity": 14.072
        },
        {
            "id": 7531,
            "original_name": "Static Television",
            "popularity": 0.6
        },
        {
            "id": 7731,
            "original_name": "Junior Television Club",
            "popularity": 0.6
        },
        {
            "id": 8615,
            "original_name": "The Eleventh Hour",
            "popularity": 6.77
        },
        {
            "id": 8711,
            "original_name": "Illegally Downloaded Television",
            "popularity": 0.6
        },
        {
            "id": 9046,
            "original_name": "The Television Ghost",
            "popularity": 0.6
        },
        {
            "id": 9069,
            "original_name": "Makeover reality television series",
            "popularity": 0.6
        },
        {
            "id": 9306,
            "original_name": "Rutland Weekend Television",
            "popularity": 1.285
        },
        {
            "id": 9615,
            "original_name": "Christian Community Television",
            "popularity": 0.6
        },
        {
            "id": 9645,
            "original_name": "Flux Television",
            "popularity": 0.6
        },
        {
            "id": 9682,
            "original_name": "Television Newsreel",
            "popularity": 0.6
        },
        {
            "id": 10417,
            "original_name": "On the Television",
            "popularity": 0.6
        },
        {
            "id": 10618,
            "original_name": "Breakfast Television",
            "popularity": 0.6
        },
        {
            "id": 10809,
            "original_name": "The Philco Television Playhouse",
            "popularity": 15.039
        },
        {
            "id": 10893,
            "original_name": "FashionTelevision",
            "popularity": 0.6
        },
        {
            "id": 10962,
            "original_name": "Kraft Television Theatre",
            "popularity": 1.228
        },
        {
            "id": 11448,
            "original_name": "Goodyear Television Playhouse",
            "popularity": 9.43
        },
        {
            "id": 11673,
            "original_name": "Television Parts",
            "popularity": 0.6
        },
        {
            "id": 11778,
            "original_name": "The Eleventh Hour",
            "popularity": 2.419
        },
        {
            "id": 12219,
            "original_name": "Car And Driver Television",
            "popularity": 0.6
        },
        {
            "id": 12496,
            "original_name": "MediaTelevision",
            "popularity": 0.6
        },
        {
            "id": 12792,
            "original_name": "QT: QueerTelevision",
            "popularity": 0.6
        },
        {
            "id": 12860,
            "original_name": "Off-Centre Television",
            "popularity": 0.6
        },
        {
            "id": 13738,
            "original_name": "Educational Television",
            "popularity": 0.6
        },
        {
            "id": 14238,
            "original_name": "United States Football League on television",
            "popularity": 0.6
        },
        {
            "id": 14516,
            "original_name": "ABC Television Players",
            "popularity": 0.6
        },
        {
            "id": 14959,
            "original_name": "CBS Television Workshop",
            "popularity": 0.6
        },
        {
            "id": 15064,
            "original_name": "CBC Television local newscasts",
            "popularity": 0.6
        },
        {
            "id": 15250,
            "original_name": "Borat's Television Programme",
            "popularity": 1.4
        },
        {
            "id": 15403,
            "original_name": "Aboriginal Christian Television System",
            "popularity": 0.6
        },
        {
            "id": 15997,
            "original_name": "Out and About Television",
            "popularity": 0.6
        },
        {
            "id": 16524,
            "original_name": "Three Seven Eleven",
            "popularity": 0.6
        },
        {
            "id": 16664,
            "original_name": "Kids' WB Television Programming",
            "popularity": 0.6
        },
        {
            "id": 16702,
            "original_name": "Five to Eleven",
            "popularity": 0.6
        },
        {
            "id": 17047,
            "original_name": "50 Years of Television: A Golden Celebration",
            "popularity": 0.6
        },
        {
            "id": 17144,
            "original_name": "Hollywood On Television",
            "popularity": 0.6
        },
        {
            "id": 18222,
            "original_name": "BBC Television Shakespeare",
            "popularity": 8.213
        },
        {
            "id": 18261,
            "original_name": "Verdict for Tomorrow: The Eichmann Trial on Television",
            "popularity": 0.6
        },
        {
            "id": 18577,
            "original_name": "NBC Experiment in Television",
            "popularity": 0.928
        },
        {
            "id": 18581,
            "original_name": "Hollywood Television Theatre",
            "popularity": 0.6
        },
        {
            "id": 18708,
            "original_name": "Television Playhouse",
            "popularity": 0.6
        },
        {
            "id": 18709,
            "original_name": "NBC Television Opera Theatre",
            "popularity": 0.6
        },
        {
            "id": 19073,
            "original_name": "Animal Attractions Television",
            "popularity": 0.6
        },
        {
            "id": 19368,
            "original_name": "Special Events Television Network",
            "popularity": 0.6
        },
        {
            "id": 19895,
            "original_name": "Planet X Television",
            "popularity": 0.6
        },
        {
            "id": 20243,
            "original_name": "Saturday Nick Television",
            "popularity": 0.6
        },
        {
            "id": 20399,
            "original_name": "Passaic: Birthplace of Television and the DuMont Story",
            "popularity": 0.6
        },
        {
            "id": 20586,
            "original_name": "Royals Sports Television Network",
            "popularity": 0.6
        },
        {
            "id": 20636,
            "original_name": "TNT television",
            "popularity": 0.6
        },
        {
            "id": 21066,
            "original_name": "Television Screen Magazine",
            "popularity": 0.6
        },
        {
            "id": 21156,
            "original_name": "Miss U.S. Television",
            "popularity": 0.6
        },
        {
            "id": 21335,
            "original_name": "Vietnam: A Television History",
            "popularity": 1.095
        },
        {
            "id": 21697,
            "original_name": "One Day in the Life of Television",
            "popularity": 0.804
        },
        {
            "id": 22741,
            "original_name": "50 Years Of BBC Television News",
            "popularity": 0.6
        },
        {
            "id": 23382,
            "original_name": "Krankies Television",
            "popularity": 0.6
        },
        {
            "id": 23845,
            "original_name": "Townsend Television",
            "popularity": 0.6
        },
        {
            "id": 24516,
            "original_name": "Television's Christmas Party",
            "popularity": 0.6
        },
        {
            "id": 25947,
            "original_name": "That's What I Call Television",
            "popularity": 1.247
        },
        {
            "id": 26177,
            "original_name": "At the Eleventh Hour",
            "popularity": 0.841
        },
        {
            "id": 26419,
            "original_name": "Televideo Theater",
            "popularity": 0.6
        },
        {
            "id": 26715,
            "original_name": "Het Gouden Televizier-Ring Gala",
            "popularity": 1.016
        },
        {
            "id": 27818,
            "original_name": "The Kenny Everett Television Show",
            "popularity": 4.687
        },
        {
            "id": 28120,
            "original_name": "The Eleventh Hour (AU)",
            "popularity": 0.6
        },
        {
            "id": 29265,
            "original_name": "Broadway Television Theatre",
            "popularity": 0.6
        },
        {
            "id": 29770,
            "original_name": "Pioneers of Television",
            "popularity": 1.642
        },
        {
            "id": 29834,
            "original_name": "Television Top Of The Form",
            "popularity": 0.6
        },
        {
            "id": 30439,
            "original_name": "The Eleventh Hour (UK)",
            "popularity": 2.036
        },
        {
            "id": 31310,
            "original_name": "Mister Eleven",
            "popularity": 1.722
        },
        {
            "id": 31982,
            "original_name": "Citynet Television News",
            "popularity": 0.6
        },
        {
            "id": 33717,
            "original_name": "Commonwealth Televiews",
            "popularity": 0.6
        },
        {
            "id": 35031,
            "original_name": "Transylvania Television",
            "popularity": 0.6
        },
        {
            "id": 37005,
            "original_name": "The National Television Awards Backstage Live",
            "popularity": 0.742
        },
        {
            "id": 37587,
            "original_name": "Balance: Television for Living Well",
            "popularity": 0.6
        },
        {
            "id": 37592,
            "original_name": "The Motorola Television Hour",
            "popularity": 1.392
        },
        {
            "id": 37714,
            "original_name": "Leading television in Pakistan",
            "popularity": 0.6
        },
        {
            "id": 38335,
            "original_name": "Alaska Outdoors Television",
            "popularity": 0.6
        },
        {
            "id": 38595,
            "original_name": "Fly Fishing Television with Kelly Galloup",
            "popularity": 0.6
        },
        {
            "id": 39154,
            "original_name": "Vatican Television Center",
            "popularity": 0.6
        },
        {
            "id": 39440,
            "original_name": "The 6th Annual Irish Film and Television Awards",
            "popularity": 0.6
        },
        {
            "id": 39445,
            "original_name": "The 7th Annual Irish Film and Television Awards",
            "popularity": 0.6
        },
        {
            "id": 39651,
            "original_name": "Mario Puzo's The Godfather: The Complete Novel for Television",
            "popularity": 9.441
        },
        {
            "id": 41632,
            "original_name": "Emisija Koja Ide na Televiziju Pone\u0111eljkom oko 9 uve\u010de",
            "popularity": 0.6
        },
        {
            "id": 43692,
            "original_name": "Seven at Eleven",
            "popularity": 0.6
        },
        {
            "id": 43961,
            "original_name": "The Sarah Millican Television Programme",
            "popularity": 1.4
        },
        {
            "id": 44293,
            "original_name": "Redneck Adventures Television Show: Bass Hawgin' & Snapper Chummin'",
            "popularity": 0.6
        },
        {
            "id": 44391,
            "original_name": "Great Cars: The Television Series",
            "popularity": 1.755
        },
        {
            "id": 45352,
            "original_name": "Make:Television",
            "popularity": 0.6
        },
        {
            "id": 46212,
            "original_name": "FNS 27HRS Television 26",
            "popularity": 0.6
        },
        {
            "id": 47718,
            "original_name": "Clive James on Television",
            "popularity": 0.6
        },
        {
            "id": 47790,
            "original_name": "The Revolution Will Be Televised",
            "popularity": 0.6
        },
        {
            "id": 47819,
            "original_name": "Ireland: A Television History",
            "popularity": 0.6
        },
        {
            "id": 47938,
            "original_name": "Television Club",
            "popularity": 0.6
        },
        {
            "id": 48039,
            "original_name": "The First Television Pictures From The Moon",
            "popularity": 0.6
        },
        {
            "id": 48120,
            "original_name": "Stanley Baxter on Television",
            "popularity": 0.6
        },
        {
            "id": 48568,
            "original_name": "Here's Television Entertainment",
            "popularity": 0.6
        },
        {
            "id": 48895,
            "original_name": "Eleven Men Against Eleven",
            "popularity": 0.6
        },
        {
            "id": 49521,
            "original_name": "Elevation 2001: Live from Boston",
            "popularity": 0.6
        },
        {
            "id": 49687,
            "original_name": "The Television Annual: 1978/1979",
            "popularity": 0.6
        },
        {
            "id": 50698,
            "original_name": "Televizyon Makinas\u0131",
            "popularity": 0.6
        },
        {
            "id": 50700,
            "original_name": "Televizyon \u00c7ocu\u011fu",
            "popularity": 0.6
        },
        {
            "id": 51073,
            "original_name": "Eleva20ren",
            "popularity": 0.6
        },
        {
            "id": 51584,
            "original_name": "The United States of Television: America in Primetime",
            "popularity": 0.6
        },
        {
            "id": 52073,
            "original_name": "Texaco Presents: A Quarter Century of Bob Hope on Television",
            "popularity": 0.6
        },
        {
            "id": 52196,
            "original_name": "TELEVIDER",
            "popularity": 0.6
        },
        {
            "id": 53107,
            "original_name": "Manchester Orchestra's Mean Everything to Nothing: A Visual Journey in Eleven Acts",
            "popularity": 0.6
        },
        {
            "id": 53248,
            "original_name": "Thames Television The Life and Times of Lord Mountbatten",
            "popularity": 0.6
        },
        {
            "id": 55976,
            "original_name": "Vladimir Horowitz: A Television Concert at Carnegie Hall",
            "popularity": 0.805
        },
        {
            "id": 56088,
            "original_name": "The Fairport Beach School - Television Series",
            "popularity": 0.6
        },
        {
            "id": 56875,
            "original_name": "Hollywood Television Theater",
            "popularity": 0.6
        },
        {
            "id": 58161,
            "original_name": "Liquid Television 2013",
            "popularity": 0.6
        },
        {
            "id": 58623,
            "original_name": "Campbell Television Soundstage",
            "popularity": 0.6
        },
        {
            "id": 59024,
            "original_name": "New Music Television",
            "popularity": 0.6
        },
        {
            "id": 59030,
            "original_name": "Townsend Television",
            "popularity": 0.6
        },
        {
            "id": 59217,
            "original_name": "Stir television show",
            "popularity": 0.6
        },
        {
            "id": 69603,
            "original_name": "Eleven Little Roosters",
            "popularity": 1.186
        },
        {
            "id": 74216,
            "original_name": "Ryan Hansen Solves Crimes on Television",
            "popularity": 4.286
        },
        {
            "id": 74580,
            "original_name": "The Eleven",
            "popularity": 0.6
        },
        {
            "id": 77986,
            "original_name": "Televizn\u00ed tane\u010dn\u00ed",
            "popularity": 0.6
        },
        {
            "id": 80338,
            "original_name": "The Horne Section Television Programme",
            "popularity": 0.6
        },
        {
            "id": 81557,
            "original_name": "The Art of Television: les r\u00e9alisateurs de s\u00e9ries",
            "popularity": 1.25
        },
        {
            "id": 86293,
            "original_name": "Un A\u00f1o Sin Televisi\u00f3n",
            "popularity": 0.6
        },
        {
            "id": 88907,
            "original_name": "La Melevisione",
            "popularity": 1.96
        },
        {
            "id": 90972,
            "original_name": "Station Eleven",
            "popularity": 16.612
        },
        {
            "id": 93645,
            "original_name": "Christopher Kimball's Milk Street Television",
            "popularity": 2.872
        },
        {
            "id": 97363,
            "original_name": "Visible: Out On Television",
            "popularity": 9.534
        },
        {
            "id": 107502,
            "original_name": "Feti\u0161e telev\u00edzie",
            "popularity": 0.6
        },
        {
            "id": 111977,
            "original_name": "Pop. Una historia de m\u00fasica y televisi\u00f3n",
            "popularity": 0.6
        },
        {
            "id": 114576,
            "original_name": "The Revolution Televised",
            "popularity": 0.892
        },
        {
            "id": 115529,
            "original_name": "Elevr\u00e5det",
            "popularity": 0.84
        },
        {
            "id": 117099,
            "original_name": "Baby Geniuses Television Series",
            "popularity": 1.749
        },
        {
            "id": 120516,
            "original_name": "The Greatest Event in Television History",
            "popularity": 2.915
        },
        {
            "id": 120691,
            "original_name": "AEW Dark: Elevation",
            "popularity": 11.433
        },
        {
            "id": 122461,
            "original_name": "The Ford Television Theatre",
            "popularity": 0.841
        },
        {
            "id": 123280,
            "original_name": "Indian Television Academy Awards",
            "popularity": 0.6
        },
        {
            "id": 130031,
            "original_name": "Watching Ourselves: 60 Years of Television in Scotland",
            "popularity": 0.6
        },
        {
            "id": 130377,
            "original_name": "Key's My Little Television",
            "popularity": 0.6
        },
        {
            "id": 131215,
            "original_name": "The Musky Hunter Television Show",
            "popularity": 0.6
        },
        {
            "id": 135405,
            "original_name": "El Universo (serie de televisi\u00f3n) (2007)",
            "popularity": 0.84
        },
        {
            "id": 137805,
            "original_name": "Desliga a Televis\u00e3o",
            "popularity": 0.6
        },
        {
            "id": 138737,
            "original_name": "The Back Side of Television",
            "popularity": 1.57
        }
    ],
    "relations": [
        {
            "character": "elevi"
        },
        {
            "character": "eleve"
        },
        {
            "character": "eleva"
        },
        {
            "character": "elevr"
        }
    ],
    "top20": [
        {
            "id": 90972,
            "original_name": "Station Eleven",
            "popularity": 16.612
        },
        {
            "id": 10809,
            "original_name": "The Philco Television Playhouse",
            "popularity": 15.039
        },
        {
            "id": 7525,
            "original_name": "Eleventh Hour",
            "popularity": 14.072
        },
        {
            "id": 120691,
            "original_name": "AEW Dark: Elevation",
            "popularity": 11.433
        },
        {
            "id": 97363,
            "original_name": "Visible: Out On Television",
            "popularity": 9.534
        },
        {
            "id": 39651,
            "original_name": "Mario Puzo's The Godfather: The Complete Novel for Television",
            "popularity": 9.441
        },
        {
            "id": 11448,
            "original_name": "Goodyear Television Playhouse",
            "popularity": 9.43
        },
        {
            "id": 18222,
            "original_name": "BBC Television Shakespeare",
            "popularity": 8.213
        },
        {
            "id": 2548,
            "original_name": "Second City Television",
            "popularity": 6.826
        },
        {
            "id": 8615,
            "original_name": "The Eleventh Hour",
            "popularity": 6.77
        },
        {
            "id": 27818,
            "original_name": "The Kenny Everett Television Show",
            "popularity": 4.687
        },
        {
            "id": 3607,
            "original_name": "You Can't Do That on Television",
            "popularity": 4.437
        },
        {
            "id": 74216,
            "original_name": "Ryan Hansen Solves Crimes on Television",
            "popularity": 4.286
        },
        {
            "id": 4063,
            "original_name": "Square One Television",
            "popularity": 3.786
        },
        {
            "id": 120516,
            "original_name": "The Greatest Event in Television History",
            "popularity": 2.915
        },
        {
            "id": 93645,
            "original_name": "Christopher Kimball's Milk Street Television",
            "popularity": 2.872
        },
        {
            "id": 11778,
            "original_name": "The Eleventh Hour",
            "popularity": 2.419
        },
        {
            "id": 30439,
            "original_name": "The Eleventh Hour (UK)",
            "popularity": 2.036
        },
        {
            "id": 88907,
            "original_name": "La Melevisione",
            "popularity": 1.96
        },
        {
            "id": 1245,
            "original_name": "Harry Enfield's Television Programme",
            "popularity": 1.8
        }
    ]
}