{
    "data": [
        {
            "id": 13048,
            "original_name": "Mga Mata ni Anghelita",
            "popularity": 0.6
        },
        {
            "id": 51777,
            "original_name": "Jelita",
            "popularity": 0.6
        },
        {
            "id": 66252,
            "original_name": "La\u017ee\u0161, Melita",
            "popularity": 1.754
        },
        {
            "id": 91060,
            "original_name": "La Escuelita VIP",
            "popularity": 4.228
        }
    ],
    "relations": [],
    "top20": [
        {
            "id": 13048,
            "original_name": "Mga Mata ni Anghelita",
            "popularity": 0.6
        },
        {
            "id": 51777,
            "original_name": "Jelita",
            "popularity": 0.6
        },
        {
            "id": 66252,
            "original_name": "La\u017ee\u0161, Melita",
            "popularity": 1.754
        },
        {
            "id": 91060,
            "original_name": "La Escuelita VIP",
            "popularity": 4.228
        }
    ]
}