{
    "data": [
        {
            "id": 94775,
            "original_name": "Elitn\u00ed komanda zbl\u00edzka",
            "popularity": 0.6
        }
    ],
    "relations": [],
    "top20": [
        {
            "id": 94775,
            "original_name": "Elitn\u00ed komanda zbl\u00edzka",
            "popularity": 0.6
        }
    ]
}