{
    "data": [
        {
            "id": 13113,
            "original_name": "Spellz",
            "popularity": 0.6
        }
    ],
    "relations": [],
    "top20": [
        {
            "id": 13113,
            "original_name": "Spellz",
            "popularity": 0.6
        }
    ]
}