{
    "data": [
        {
            "id": 28182,
            "original_name": "Suomen Unelmien poikamies",
            "popularity": 0.6
        },
        {
            "id": 42091,
            "original_name": "Wilhelmina",
            "popularity": 0.627
        },
        {
            "id": 53769,
            "original_name": "Layali El-Helmia",
            "popularity": 0.6
        },
        {
            "id": 54562,
            "original_name": "Velmi k\u0159ehk\u00e9 vztahy",
            "popularity": 0.958
        },
        {
            "id": 103479,
            "original_name": "Velmi k\u0159ehk\u00e9 v\u011btve",
            "popularity": 1.441
        },
        {
            "id": 127309,
            "original_name": "Wilhelmina",
            "popularity": 0.6
        }
    ],
    "relations": [],
    "top20": [
        {
            "id": 28182,
            "original_name": "Suomen Unelmien poikamies",
            "popularity": 0.6
        },
        {
            "id": 42091,
            "original_name": "Wilhelmina",
            "popularity": 0.627
        },
        {
            "id": 53769,
            "original_name": "Layali El-Helmia",
            "popularity": 0.6
        },
        {
            "id": 54562,
            "original_name": "Velmi k\u0159ehk\u00e9 vztahy",
            "popularity": 0.958
        },
        {
            "id": 103479,
            "original_name": "Velmi k\u0159ehk\u00e9 v\u011btve",
            "popularity": 1.441
        },
        {
            "id": 127309,
            "original_name": "Wilhelmina",
            "popularity": 0.6
        }
    ]
}