{
    "data": [
        {
            "id": 10846,
            "original_name": "Felony Squad",
            "popularity": 12.023
        },
        {
            "id": 35180,
            "original_name": "Felony Review",
            "popularity": 0.6
        }
    ],
    "relations": [],
    "top20": [
        {
            "id": 10846,
            "original_name": "Felony Squad",
            "popularity": 12.023
        },
        {
            "id": 35180,
            "original_name": "Felony Review",
            "popularity": 0.6
        }
    ]
}