{
    "data": [
        {
            "id": 49135,
            "original_name": "Advice to the Lovelorn",
            "popularity": 0.6
        }
    ],
    "relations": [],
    "top20": [
        {
            "id": 49135,
            "original_name": "Advice to the Lovelorn",
            "popularity": 0.6
        }
    ]
}