{
    "data": [
        {
            "id": 56833,
            "original_name": "Potemayo",
            "popularity": 0.6
        }
    ],
    "relations": [],
    "top20": [
        {
            "id": 56833,
            "original_name": "Potemayo",
            "popularity": 0.6
        }
    ]
}