{
    "data": [
        {
            "id": 589,
            "original_name": "Remington Steele",
            "popularity": 14.794
        },
        {
            "id": 857,
            "original_name": "Michael Palin's Hemingway Adventure",
            "popularity": 1.4
        },
        {
            "id": 7723,
            "original_name": "Yemin",
            "popularity": 6.974
        },
        {
            "id": 13831,
            "original_name": "Gemini Man",
            "popularity": 5.981
        },
        {
            "id": 14775,
            "original_name": "450, Chemin du Golf",
            "popularity": 2.982
        },
        {
            "id": 15530,
            "original_name": "Gemini Division",
            "popularity": 13.766
        },
        {
            "id": 20333,
            "original_name": "Feminine Masculinity",
            "popularity": 0.6
        },
        {
            "id": 24037,
            "original_name": "The Fainthearted Feminist",
            "popularity": 0.6
        },
        {
            "id": 24520,
            "original_name": "Al Oeming - Man Of The North",
            "popularity": 0.6
        },
        {
            "id": 31002,
            "original_name": "Hemingway",
            "popularity": 1.972
        },
        {
            "id": 33269,
            "original_name": "Al Oeming \u2013 Man of the North",
            "popularity": 0.6
        },
        {
            "id": 38005,
            "original_name": "L'Affaire Villemin",
            "popularity": 1.092
        },
        {
            "id": 41931,
            "original_name": "Xinhai Geming",
            "popularity": 0.6
        },
        {
            "id": 48659,
            "original_name": "Alemin K\u0131ral\u0131",
            "popularity": 0.6
        },
        {
            "id": 49408,
            "original_name": "Yasemince",
            "popularity": 0.6
        },
        {
            "id": 50555,
            "original_name": "Peggy Fleming Visits the Soviet Union",
            "popularity": 1.09
        },
        {
            "id": 54901,
            "original_name": "Timex Presents Peggy Fleming at Sun Valley",
            "popularity": 1.09
        },
        {
            "id": 56050,
            "original_name": "A Shocking Reminder",
            "popularity": 0.6
        },
        {
            "id": 59048,
            "original_name": "2008 Gemini Awards",
            "popularity": 0.6
        },
        {
            "id": 59952,
            "original_name": "2007 Gemini Awards",
            "popularity": 0.6
        },
        {
            "id": 60321,
            "original_name": "21st Annual Gemini Awards",
            "popularity": 0.6
        },
        {
            "id": 60602,
            "original_name": "Fleming",
            "popularity": 10.259
        },
        {
            "id": 63001,
            "original_name": "Leah Remini: It's All Relative",
            "popularity": 0.901
        },
        {
            "id": 66574,
            "original_name": "Faemino y Cansado: El orgullo del tercer mundo",
            "popularity": 1.12
        },
        {
            "id": 68901,
            "original_name": "Leah Remini: Scientology and the Aftermath",
            "popularity": 6.262
        },
        {
            "id": 74419,
            "original_name": "Geminus",
            "popularity": 0.895
        },
        {
            "id": 76803,
            "original_name": "Kockakademin",
            "popularity": 0.6
        },
        {
            "id": 78147,
            "original_name": "Sally Hemings: An American Scandal",
            "popularity": 0.6
        },
        {
            "id": 93264,
            "original_name": "Creation Seminar",
            "popularity": 0.6
        },
        {
            "id": 98342,
            "original_name": "Les Chemins de l'\u00e9quitable",
            "popularity": 0.6
        },
        {
            "id": 100667,
            "original_name": "The Gemini Factor",
            "popularity": 0.6
        },
        {
            "id": 105506,
            "original_name": "Yemin-SUB",
            "popularity": 2.018
        },
        {
            "id": 111592,
            "original_name": "Hemingway",
            "popularity": 1.906
        },
        {
            "id": 116228,
            "original_name": "Les chemins de l'histoire",
            "popularity": 0.6
        },
        {
            "id": 122691,
            "original_name": "Les chemins du sacr\u00e9",
            "popularity": 0.84
        },
        {
            "id": 129739,
            "original_name": "\u300cD-cumentary : TAEMIN\u300d",
            "popularity": 0.6
        },
        {
            "id": 135458,
            "original_name": "Sul-Americano de V\u00f4lei Feminino",
            "popularity": 0.6
        }
    ],
    "relations": [
        {
            "character": "eming"
        },
        {
            "character": "emini"
        },
        {
            "character": "eminc"
        },
        {
            "character": "emind"
        },
        {
            "character": "emino"
        },
        {
            "character": "eminu"
        },
        {
            "character": "emina"
        },
        {
            "character": "emins"
        }
    ],
    "top20": [
        {
            "id": 589,
            "original_name": "Remington Steele",
            "popularity": 14.794
        },
        {
            "id": 15530,
            "original_name": "Gemini Division",
            "popularity": 13.766
        },
        {
            "id": 60602,
            "original_name": "Fleming",
            "popularity": 10.259
        },
        {
            "id": 7723,
            "original_name": "Yemin",
            "popularity": 6.974
        },
        {
            "id": 68901,
            "original_name": "Leah Remini: Scientology and the Aftermath",
            "popularity": 6.262
        },
        {
            "id": 13831,
            "original_name": "Gemini Man",
            "popularity": 5.981
        },
        {
            "id": 14775,
            "original_name": "450, Chemin du Golf",
            "popularity": 2.982
        },
        {
            "id": 105506,
            "original_name": "Yemin-SUB",
            "popularity": 2.018
        },
        {
            "id": 31002,
            "original_name": "Hemingway",
            "popularity": 1.972
        },
        {
            "id": 111592,
            "original_name": "Hemingway",
            "popularity": 1.906
        },
        {
            "id": 857,
            "original_name": "Michael Palin's Hemingway Adventure",
            "popularity": 1.4
        },
        {
            "id": 66574,
            "original_name": "Faemino y Cansado: El orgullo del tercer mundo",
            "popularity": 1.12
        },
        {
            "id": 38005,
            "original_name": "L'Affaire Villemin",
            "popularity": 1.092
        },
        {
            "id": 50555,
            "original_name": "Peggy Fleming Visits the Soviet Union",
            "popularity": 1.09
        },
        {
            "id": 54901,
            "original_name": "Timex Presents Peggy Fleming at Sun Valley",
            "popularity": 1.09
        },
        {
            "id": 63001,
            "original_name": "Leah Remini: It's All Relative",
            "popularity": 0.901
        },
        {
            "id": 74419,
            "original_name": "Geminus",
            "popularity": 0.895
        },
        {
            "id": 122691,
            "original_name": "Les chemins du sacr\u00e9",
            "popularity": 0.84
        },
        {
            "id": 24037,
            "original_name": "The Fainthearted Feminist",
            "popularity": 0.6
        },
        {
            "id": 20333,
            "original_name": "Feminine Masculinity",
            "popularity": 0.6
        }
    ]
}