{
    "data": [
        {
            "id": 124912,
            "original_name": "Kjempemaskiner",
            "popularity": 0.93
        }
    ],
    "relations": [],
    "top20": [
        {
            "id": 124912,
            "original_name": "Kjempemaskiner",
            "popularity": 0.93
        }
    ]
}