{
    "data": [
        {
            "id": 32320,
            "original_name": "Close-up Gendai",
            "popularity": 0.6
        },
        {
            "id": 83991,
            "original_name": "Les L\u00e9gendaires",
            "popularity": 0.6
        },
        {
            "id": 124199,
            "original_name": "Sendai Girls on GAORA TV",
            "popularity": 0.6
        }
    ],
    "relations": [],
    "top20": [
        {
            "id": 32320,
            "original_name": "Close-up Gendai",
            "popularity": 0.6
        },
        {
            "id": 83991,
            "original_name": "Les L\u00e9gendaires",
            "popularity": 0.6
        },
        {
            "id": 124199,
            "original_name": "Sendai Girls on GAORA TV",
            "popularity": 0.6
        }
    ]
}