{
    "data": [
        {
            "id": 6348,
            "original_name": "The Henderson Kids",
            "popularity": 0.68
        },
        {
            "id": 10755,
            "original_name": "Harry and the Hendersons",
            "popularity": 7.085
        },
        {
            "id": 23151,
            "original_name": "The Florence Henderson Show",
            "popularity": 0.6
        },
        {
            "id": 23890,
            "original_name": "The Henderson Kids II",
            "popularity": 0.876
        },
        {
            "id": 26543,
            "original_name": "The Dickie Henderson Show",
            "popularity": 0.6
        },
        {
            "id": 26653,
            "original_name": "The Dickie Henderson Half-Hour",
            "popularity": 0.6
        },
        {
            "id": 26746,
            "original_name": "The Dickie Henderson Show",
            "popularity": 0.6
        },
        {
            "id": 91100,
            "original_name": "Hanging with the Hendersons",
            "popularity": 0.6
        }
    ],
    "relations": [],
    "top20": [
        {
            "id": 6348,
            "original_name": "The Henderson Kids",
            "popularity": 0.68
        },
        {
            "id": 10755,
            "original_name": "Harry and the Hendersons",
            "popularity": 7.085
        },
        {
            "id": 23151,
            "original_name": "The Florence Henderson Show",
            "popularity": 0.6
        },
        {
            "id": 23890,
            "original_name": "The Henderson Kids II",
            "popularity": 0.876
        },
        {
            "id": 26543,
            "original_name": "The Dickie Henderson Show",
            "popularity": 0.6
        },
        {
            "id": 26653,
            "original_name": "The Dickie Henderson Half-Hour",
            "popularity": 0.6
        },
        {
            "id": 26746,
            "original_name": "The Dickie Henderson Show",
            "popularity": 0.6
        },
        {
            "id": 91100,
            "original_name": "Hanging with the Hendersons",
            "popularity": 0.6
        }
    ]
}