{
    "data": [
        {
            "id": 7144,
            "original_name": "La Energ\u00eda de Sonric'slandia",
            "popularity": 0.6
        },
        {
            "id": 26415,
            "original_name": "Home Energy Savings",
            "popularity": 0.6
        },
        {
            "id": 56086,
            "original_name": "Departure from Oil - Energy for the Future",
            "popularity": 0.6
        },
        {
            "id": 97054,
            "original_name": "Power: Engineering Energy and Speed",
            "popularity": 0.6
        },
        {
            "id": 107336,
            "original_name": "Power Trip: The Story of Energy",
            "popularity": 0.6
        },
        {
            "id": 117907,
            "original_name": "Big Trick Energy",
            "popularity": 0.852
        },
        {
            "id": 131523,
            "original_name": "O Enigma da Energia Escura",
            "popularity": 0.6
        },
        {
            "id": 136710,
            "original_name": "Positive Energy",
            "popularity": 0.601
        }
    ],
    "relations": [],
    "top20": [
        {
            "id": 7144,
            "original_name": "La Energ\u00eda de Sonric'slandia",
            "popularity": 0.6
        },
        {
            "id": 26415,
            "original_name": "Home Energy Savings",
            "popularity": 0.6
        },
        {
            "id": 56086,
            "original_name": "Departure from Oil - Energy for the Future",
            "popularity": 0.6
        },
        {
            "id": 97054,
            "original_name": "Power: Engineering Energy and Speed",
            "popularity": 0.6
        },
        {
            "id": 107336,
            "original_name": "Power Trip: The Story of Energy",
            "popularity": 0.6
        },
        {
            "id": 117907,
            "original_name": "Big Trick Energy",
            "popularity": 0.852
        },
        {
            "id": 131523,
            "original_name": "O Enigma da Energia Escura",
            "popularity": 0.6
        },
        {
            "id": 136710,
            "original_name": "Positive Energy",
            "popularity": 0.601
        }
    ]
}