{
    "data": [
        {
            "id": 27805,
            "original_name": "The Captain and Tennille",
            "popularity": 3.792
        },
        {
            "id": 54987,
            "original_name": "The Captain & Tennille Special",
            "popularity": 0.6
        }
    ],
    "relations": [],
    "top20": [
        {
            "id": 27805,
            "original_name": "The Captain and Tennille",
            "popularity": 3.792
        },
        {
            "id": 54987,
            "original_name": "The Captain & Tennille Special",
            "popularity": 0.6
        }
    ]
}