{
    "data": [
        {
            "id": 3705,
            "original_name": "Phenom",
            "popularity": 2.356
        },
        {
            "id": 7692,
            "original_name": "Future Phenoms",
            "popularity": 0.6
        },
        {
            "id": 14248,
            "original_name": "Phenomenon",
            "popularity": 0.6
        },
        {
            "id": 17019,
            "original_name": "Venom ER",
            "popularity": 2.409
        },
        {
            "id": 24130,
            "original_name": "Wild Arms - Twilight Venom",
            "popularity": 3.695
        },
        {
            "id": 46744,
            "original_name": "The Common Denominator",
            "popularity": 0.6
        },
        {
            "id": 52623,
            "original_name": "Konsert Fenomena Siti Nurhaliza & Saiful Apek",
            "popularity": 0.6
        },
        {
            "id": 59871,
            "original_name": "Fenomen med Uri Geller",
            "popularity": 0.6
        },
        {
            "id": 65765,
            "original_name": "Venom Hunters",
            "popularity": 0.775
        },
        {
            "id": 70250,
            "original_name": "Phenomenon: The Lost Archives",
            "popularity": 0.976
        },
        {
            "id": 79773,
            "original_name": "Phenoms",
            "popularity": 0.6
        },
        {
            "id": 91937,
            "original_name": "Genombrottet",
            "popularity": 0.722
        },
        {
            "id": 96680,
            "original_name": "Dynamic Genomes",
            "popularity": 0.6
        },
        {
            "id": 104422,
            "original_name": "Phenoms",
            "popularity": 0.6
        },
        {
            "id": 114710,
            "original_name": "Knallhart Durchgenommen",
            "popularity": 0.6
        },
        {
            "id": 137962,
            "original_name": "Genome's Romance",
            "popularity": 0.6
        }
    ],
    "relations": [],
    "top20": [
        {
            "id": 3705,
            "original_name": "Phenom",
            "popularity": 2.356
        },
        {
            "id": 7692,
            "original_name": "Future Phenoms",
            "popularity": 0.6
        },
        {
            "id": 14248,
            "original_name": "Phenomenon",
            "popularity": 0.6
        },
        {
            "id": 17019,
            "original_name": "Venom ER",
            "popularity": 2.409
        },
        {
            "id": 24130,
            "original_name": "Wild Arms - Twilight Venom",
            "popularity": 3.695
        },
        {
            "id": 46744,
            "original_name": "The Common Denominator",
            "popularity": 0.6
        },
        {
            "id": 52623,
            "original_name": "Konsert Fenomena Siti Nurhaliza & Saiful Apek",
            "popularity": 0.6
        },
        {
            "id": 59871,
            "original_name": "Fenomen med Uri Geller",
            "popularity": 0.6
        },
        {
            "id": 65765,
            "original_name": "Venom Hunters",
            "popularity": 0.775
        },
        {
            "id": 70250,
            "original_name": "Phenomenon: The Lost Archives",
            "popularity": 0.976
        },
        {
            "id": 79773,
            "original_name": "Phenoms",
            "popularity": 0.6
        },
        {
            "id": 91937,
            "original_name": "Genombrottet",
            "popularity": 0.722
        },
        {
            "id": 96680,
            "original_name": "Dynamic Genomes",
            "popularity": 0.6
        },
        {
            "id": 104422,
            "original_name": "Phenoms",
            "popularity": 0.6
        },
        {
            "id": 114710,
            "original_name": "Knallhart Durchgenommen",
            "popularity": 0.6
        },
        {
            "id": 137962,
            "original_name": "Genome's Romance",
            "popularity": 0.6
        }
    ]
}