{
    "data": [
        {
            "id": 33228,
            "original_name": "Kraj Dinastije Obrenovi\u0107",
            "popularity": 0.6
        }
    ],
    "relations": [],
    "top20": [
        {
            "id": 33228,
            "original_name": "Kraj Dinastije Obrenovi\u0107",
            "popularity": 0.6
        }
    ]
}