{
    "data": [
        {
            "id": 104492,
            "original_name": "Drenger\u00f8v i verdensklasse",
            "popularity": 0.6
        }
    ],
    "relations": [],
    "top20": [
        {
            "id": 104492,
            "original_name": "Drenger\u00f8v i verdensklasse",
            "popularity": 0.6
        }
    ]
}