{
    "data": [
        {
            "id": 60934,
            "original_name": "Die Powenzbande",
            "popularity": 0.6
        },
        {
            "id": 68972,
            "original_name": "Das Lachen der anderen - Comedy im Grenzbereich",
            "popularity": 0.6
        }
    ],
    "relations": [],
    "top20": [
        {
            "id": 60934,
            "original_name": "Die Powenzbande",
            "popularity": 0.6
        },
        {
            "id": 68972,
            "original_name": "Das Lachen der anderen - Comedy im Grenzbereich",
            "popularity": 0.6
        }
    ]
}