{
    "data": [
        {
            "id": 129381,
            "original_name": "Ddeoss-da! Pae-mil-li",
            "popularity": 0.6
        }
    ],
    "relations": [],
    "top20": [
        {
            "id": 129381,
            "original_name": "Ddeoss-da! Pae-mil-li",
            "popularity": 0.6
        }
    ]
}