{
    "data": [
        {
            "id": 379,
            "original_name": "The Sports Reporters",
            "popularity": 0.84
        },
        {
            "id": 1552,
            "original_name": "Reporter's Notebook",
            "popularity": 0.6
        },
        {
            "id": 9971,
            "original_name": "The Reporters",
            "popularity": 0.6
        },
        {
            "id": 10238,
            "original_name": "Texas Country Reporter",
            "popularity": 0.6
        },
        {
            "id": 16233,
            "original_name": "The Reporter",
            "popularity": 1.091
        },
        {
            "id": 22302,
            "original_name": "Barney Blake, Police Reporter",
            "popularity": 1.34
        },
        {
            "id": 24432,
            "original_name": "The Reporters (AU)",
            "popularity": 0.6
        },
        {
            "id": 33734,
            "original_name": "MIT Science Reporter",
            "popularity": 0.6
        },
        {
            "id": 35190,
            "original_name": "KRO Reporter International",
            "popularity": 0.6
        },
        {
            "id": 37892,
            "original_name": "Reporters",
            "popularity": 1.4
        },
        {
            "id": 38421,
            "original_name": "KRO Reporter",
            "popularity": 0.6
        },
        {
            "id": 45003,
            "original_name": "Reporter Blues",
            "popularity": 1.21
        },
        {
            "id": 58108,
            "original_name": "TSN The Reporters with Dave Hodge",
            "popularity": 0.6
        },
        {
            "id": 58752,
            "original_name": "Reporters",
            "popularity": 0.6
        },
        {
            "id": 61153,
            "original_name": "Profiss\u00e3o Reporter",
            "popularity": 0.6
        },
        {
            "id": 63255,
            "original_name": "Reporter",
            "popularity": 1.11
        },
        {
            "id": 63371,
            "original_name": "Die Gerichtsreporterin",
            "popularity": 1.316
        },
        {
            "id": 63498,
            "original_name": "Close Up with The Hollywood Reporter",
            "popularity": 16.88
        },
        {
            "id": 63504,
            "original_name": "Der rasende Lokalreporter",
            "popularity": 0.762
        },
        {
            "id": 80083,
            "original_name": "Nela Ma\u0142a Reporterka",
            "popularity": 1.928
        },
        {
            "id": 81569,
            "original_name": "Flash \u2013 Der Fotoreporter",
            "popularity": 0.997
        },
        {
            "id": 86947,
            "original_name": "Team Wallraff \u2013 Reporter undercover",
            "popularity": 0.799
        },
        {
            "id": 90853,
            "original_name": "Reportera X",
            "popularity": 1.141
        },
        {
            "id": 98261,
            "original_name": "Sport Reporter",
            "popularity": 0.6
        },
        {
            "id": 98539,
            "original_name": "Fear Trip, Reporter de l'extr\u00eame",
            "popularity": 0.6
        },
        {
            "id": 99601,
            "original_name": "Mets-y le paquet : Le reporter",
            "popularity": 0.6
        },
        {
            "id": 99971,
            "original_name": "Panorama - die Reporter",
            "popularity": 0.6
        },
        {
            "id": 100039,
            "original_name": "Reporterzy. Z \u017cycia wzi\u0119te",
            "popularity": 0.656
        },
        {
            "id": 133200,
            "original_name": "Sprawa dla reportera",
            "popularity": 0.6
        }
    ],
    "relations": [
        {
            "character": "eporters"
        },
        {
            "character": "eporteri"
        },
        {
            "character": "eporterk"
        },
        {
            "character": "eportera"
        },
        {
            "character": "eporterz"
        }
    ],
    "top20": [
        {
            "id": 63498,
            "original_name": "Close Up with The Hollywood Reporter",
            "popularity": 16.88
        },
        {
            "id": 80083,
            "original_name": "Nela Ma\u0142a Reporterka",
            "popularity": 1.928
        },
        {
            "id": 37892,
            "original_name": "Reporters",
            "popularity": 1.4
        },
        {
            "id": 22302,
            "original_name": "Barney Blake, Police Reporter",
            "popularity": 1.34
        },
        {
            "id": 63371,
            "original_name": "Die Gerichtsreporterin",
            "popularity": 1.316
        },
        {
            "id": 45003,
            "original_name": "Reporter Blues",
            "popularity": 1.21
        },
        {
            "id": 90853,
            "original_name": "Reportera X",
            "popularity": 1.141
        },
        {
            "id": 63255,
            "original_name": "Reporter",
            "popularity": 1.11
        },
        {
            "id": 16233,
            "original_name": "The Reporter",
            "popularity": 1.091
        },
        {
            "id": 81569,
            "original_name": "Flash \u2013 Der Fotoreporter",
            "popularity": 0.997
        },
        {
            "id": 379,
            "original_name": "The Sports Reporters",
            "popularity": 0.84
        },
        {
            "id": 86947,
            "original_name": "Team Wallraff \u2013 Reporter undercover",
            "popularity": 0.799
        },
        {
            "id": 63504,
            "original_name": "Der rasende Lokalreporter",
            "popularity": 0.762
        },
        {
            "id": 100039,
            "original_name": "Reporterzy. Z \u017cycia wzi\u0119te",
            "popularity": 0.656
        },
        {
            "id": 35190,
            "original_name": "KRO Reporter International",
            "popularity": 0.6
        },
        {
            "id": 10238,
            "original_name": "Texas Country Reporter",
            "popularity": 0.6
        },
        {
            "id": 33734,
            "original_name": "MIT Science Reporter",
            "popularity": 0.6
        },
        {
            "id": 9971,
            "original_name": "The Reporters",
            "popularity": 0.6
        },
        {
            "id": 1552,
            "original_name": "Reporter's Notebook",
            "popularity": 0.6
        },
        {
            "id": 24432,
            "original_name": "The Reporters (AU)",
            "popularity": 0.6
        }
    ]
}