{
    "data": [
        {
            "id": 6245,
            "original_name": "Rip-Off Republic",
            "popularity": 0.6
        },
        {
            "id": 12951,
            "original_name": "Games Republic",
            "popularity": 0.6
        },
        {
            "id": 31389,
            "original_name": "Republic of Doyle",
            "popularity": 5.391
        },
        {
            "id": 32395,
            "original_name": "Republic of Telly",
            "popularity": 0.65
        },
        {
            "id": 67509,
            "original_name": "The People's Republic of Capitalism",
            "popularity": 0.917
        },
        {
            "id": 111567,
            "original_name": "H\u00e9roes de la republica",
            "popularity": 0.6
        },
        {
            "id": 114162,
            "original_name": "The Republic of Sarah",
            "popularity": 15.698
        },
        {
            "id": 114462,
            "original_name": "Rangers of the New Republic",
            "popularity": 3.647
        },
        {
            "id": 123348,
            "original_name": "Wild Republic",
            "popularity": 8.318
        },
        {
            "id": 132061,
            "original_name": "Republic City Hustle",
            "popularity": 0.6
        }
    ],
    "relations": [],
    "top20": [
        {
            "id": 6245,
            "original_name": "Rip-Off Republic",
            "popularity": 0.6
        },
        {
            "id": 12951,
            "original_name": "Games Republic",
            "popularity": 0.6
        },
        {
            "id": 31389,
            "original_name": "Republic of Doyle",
            "popularity": 5.391
        },
        {
            "id": 32395,
            "original_name": "Republic of Telly",
            "popularity": 0.65
        },
        {
            "id": 67509,
            "original_name": "The People's Republic of Capitalism",
            "popularity": 0.917
        },
        {
            "id": 111567,
            "original_name": "H\u00e9roes de la republica",
            "popularity": 0.6
        },
        {
            "id": 114162,
            "original_name": "The Republic of Sarah",
            "popularity": 15.698
        },
        {
            "id": 114462,
            "original_name": "Rangers of the New Republic",
            "popularity": 3.647
        },
        {
            "id": 123348,
            "original_name": "Wild Republic",
            "popularity": 8.318
        },
        {
            "id": 132061,
            "original_name": "Republic City Hustle",
            "popularity": 0.6
        }
    ]
}