{
    "data": [
        {
            "id": 31060,
            "original_name": "Equitable's American Heritage",
            "popularity": 0.6
        },
        {
            "id": 45077,
            "original_name": "Equitrekking",
            "popularity": 0.6
        },
        {
            "id": 45771,
            "original_name": "Sweat Equity",
            "popularity": 0.6
        }
    ],
    "relations": [],
    "top20": [
        {
            "id": 31060,
            "original_name": "Equitable's American Heritage",
            "popularity": 0.6
        },
        {
            "id": 45077,
            "original_name": "Equitrekking",
            "popularity": 0.6
        },
        {
            "id": 45771,
            "original_name": "Sweat Equity",
            "popularity": 0.6
        }
    ]
}