{
    "data": [
        {
            "id": 25282,
            "original_name": "Erasmus Microman",
            "popularity": 1.426
        }
    ],
    "relations": [],
    "top20": [
        {
            "id": 25282,
            "original_name": "Erasmus Microman",
            "popularity": 1.426
        }
    ]
}