{
    "data": [
        {
            "id": 52620,
            "original_name": "Teratak Siti Nurhaliza",
            "popularity": 0.6
        },
        {
            "id": 130564,
            "original_name": "Disperatamente Giulia",
            "popularity": 1.298
        }
    ],
    "relations": [],
    "top20": [
        {
            "id": 52620,
            "original_name": "Teratak Siti Nurhaliza",
            "popularity": 0.6
        },
        {
            "id": 130564,
            "original_name": "Disperatamente Giulia",
            "popularity": 1.298
        }
    ]
}