{
    "data": [
        {
            "id": 24503,
            "original_name": "The Gingerbread Man",
            "popularity": 0.6
        },
        {
            "id": 24595,
            "original_name": "The Gingerbread Girl",
            "popularity": 0.6
        },
        {
            "id": 30658,
            "original_name": "The Mayor of Casterbridge",
            "popularity": 1.722
        },
        {
            "id": 37131,
            "original_name": "Im Angesicht des Verbrechens",
            "popularity": 2.695
        },
        {
            "id": 40760,
            "original_name": "Die Verbrechen des Professor Capellari",
            "popularity": 3.622
        },
        {
            "id": 45380,
            "original_name": "Jul p\u00e5 Vesterbro",
            "popularity": 1.988
        },
        {
            "id": 55841,
            "original_name": "VERBRECHEN nach Ferdinand von Schirach",
            "popularity": 3.857
        },
        {
            "id": 63487,
            "original_name": "Mordshunger - Verbrechen und andere Delikatessen",
            "popularity": 1.605
        },
        {
            "id": 66959,
            "original_name": "Vorsicht, Verbraucherfalle!",
            "popularity": 0.6
        },
        {
            "id": 67501,
            "original_name": "Le 16 \u00e0 Kerbriant",
            "popularity": 0.6
        },
        {
            "id": 69813,
            "original_name": "Alliierte Kriegsverbrechen - Vergessene Kriegsgr\u00e4uel im Zweiten Weltkrieg",
            "popularity": 0.6
        },
        {
            "id": 74646,
            "original_name": "Super.Markt \u2013 Neues f\u00fcr Verbraucher",
            "popularity": 0.6
        },
        {
            "id": 81463,
            "original_name": "Erlesene Verbrechen und makellose Morde",
            "popularity": 1.147
        },
        {
            "id": 82647,
            "original_name": "Kriminalf\u00e4lle \u2013 Schweizer Verbrechen im Visier",
            "popularity": 0.6
        },
        {
            "id": 93984,
            "original_name": "Haunted Gingerbread Showdown",
            "popularity": 1.25
        },
        {
            "id": 94158,
            "original_name": "De Kolderbrigade",
            "popularity": 0.6
        },
        {
            "id": 94410,
            "original_name": "Verbrechen, die Geschichte machten",
            "popularity": 1.607
        },
        {
            "id": 96271,
            "original_name": "Holiday Gingerbread Showdown",
            "popularity": 0.6
        },
        {
            "id": 100621,
            "original_name": "Seriemordene p\u00e5 \u00d8sterbro",
            "popularity": 0.6
        },
        {
            "id": 117631,
            "original_name": "Mary Higgins Clark - Mysteri\u00f6se Verbrechen",
            "popularity": 0.664
        },
        {
            "id": 119836,
            "original_name": "Im Kopf des Verbrechers",
            "popularity": 0.63
        },
        {
            "id": 121379,
            "original_name": "ErmittlungsAKTE \u2013 Dem Verbrechen auf der Spur",
            "popularity": 0.631
        },
        {
            "id": 130263,
            "original_name": "Verbrechen von nebenan",
            "popularity": 0.6
        },
        {
            "id": 133694,
            "original_name": "Anw\u00e4lte der Toten \u2013 Verbrechen, die Deutschland bewegten",
            "popularity": 0.6
        },
        {
            "id": 138780,
            "original_name": "Holiday Baking Championship: Gingerbread Showdown",
            "popularity": 8.179
        }
    ],
    "relations": [
        {
            "character": "erbre"
        },
        {
            "character": "erbri"
        },
        {
            "character": "erbro"
        },
        {
            "character": "erbra"
        }
    ],
    "top20": [
        {
            "id": 138780,
            "original_name": "Holiday Baking Championship: Gingerbread Showdown",
            "popularity": 8.179
        },
        {
            "id": 55841,
            "original_name": "VERBRECHEN nach Ferdinand von Schirach",
            "popularity": 3.857
        },
        {
            "id": 40760,
            "original_name": "Die Verbrechen des Professor Capellari",
            "popularity": 3.622
        },
        {
            "id": 37131,
            "original_name": "Im Angesicht des Verbrechens",
            "popularity": 2.695
        },
        {
            "id": 45380,
            "original_name": "Jul p\u00e5 Vesterbro",
            "popularity": 1.988
        },
        {
            "id": 30658,
            "original_name": "The Mayor of Casterbridge",
            "popularity": 1.722
        },
        {
            "id": 94410,
            "original_name": "Verbrechen, die Geschichte machten",
            "popularity": 1.607
        },
        {
            "id": 63487,
            "original_name": "Mordshunger - Verbrechen und andere Delikatessen",
            "popularity": 1.605
        },
        {
            "id": 93984,
            "original_name": "Haunted Gingerbread Showdown",
            "popularity": 1.25
        },
        {
            "id": 81463,
            "original_name": "Erlesene Verbrechen und makellose Morde",
            "popularity": 1.147
        },
        {
            "id": 117631,
            "original_name": "Mary Higgins Clark - Mysteri\u00f6se Verbrechen",
            "popularity": 0.664
        },
        {
            "id": 121379,
            "original_name": "ErmittlungsAKTE \u2013 Dem Verbrechen auf der Spur",
            "popularity": 0.631
        },
        {
            "id": 119836,
            "original_name": "Im Kopf des Verbrechers",
            "popularity": 0.63
        },
        {
            "id": 74646,
            "original_name": "Super.Markt \u2013 Neues f\u00fcr Verbraucher",
            "popularity": 0.6
        },
        {
            "id": 24595,
            "original_name": "The Gingerbread Girl",
            "popularity": 0.6
        },
        {
            "id": 24503,
            "original_name": "The Gingerbread Man",
            "popularity": 0.6
        },
        {
            "id": 82647,
            "original_name": "Kriminalf\u00e4lle \u2013 Schweizer Verbrechen im Visier",
            "popularity": 0.6
        },
        {
            "id": 69813,
            "original_name": "Alliierte Kriegsverbrechen - Vergessene Kriegsgr\u00e4uel im Zweiten Weltkrieg",
            "popularity": 0.6
        },
        {
            "id": 67501,
            "original_name": "Le 16 \u00e0 Kerbriant",
            "popularity": 0.6
        },
        {
            "id": 66959,
            "original_name": "Vorsicht, Verbraucherfalle!",
            "popularity": 0.6
        }
    ]
}