{
    "data": [
        {
            "id": 551,
            "original_name": "Supercar",
            "popularity": 1.481
        },
        {
            "id": 7139,
            "original_name": "SuperCars Exposed",
            "popularity": 0.6
        },
        {
            "id": 13214,
            "original_name": "Supercarrier",
            "popularity": 3.398
        },
        {
            "id": 22973,
            "original_name": "Zomercarroussel",
            "popularity": 0.6
        },
        {
            "id": 34221,
            "original_name": "Battle of the SuperCars",
            "popularity": 0.6
        },
        {
            "id": 58335,
            "original_name": "Shannons Supercar Showdown",
            "popularity": 0.6
        },
        {
            "id": 62165,
            "original_name": "Supercar Superbuild",
            "popularity": 0.6
        },
        {
            "id": 76267,
            "original_name": "Yianni: Supercar Customiser",
            "popularity": 0.6
        },
        {
            "id": 81117,
            "original_name": "Supercar Gattiger",
            "popularity": 0.6
        },
        {
            "id": 84751,
            "original_name": "Supercar Megabuild",
            "popularity": 1.838
        },
        {
            "id": 93997,
            "original_name": "Rise of the Supercarrier",
            "popularity": 0.6
        },
        {
            "id": 94233,
            "original_name": "Scrapyard Supercar",
            "popularity": 1.201
        },
        {
            "id": 105722,
            "original_name": "Car Crews With Supercar Blondie",
            "popularity": 0.6
        },
        {
            "id": 115259,
            "original_name": "Ultimate Supercar",
            "popularity": 0.6
        },
        {
            "id": 117086,
            "original_name": "Supercar, Superfam",
            "popularity": 0.6
        },
        {
            "id": 130553,
            "original_name": "Supercars",
            "popularity": 0.6
        }
    ],
    "relations": [],
    "top20": [
        {
            "id": 551,
            "original_name": "Supercar",
            "popularity": 1.481
        },
        {
            "id": 7139,
            "original_name": "SuperCars Exposed",
            "popularity": 0.6
        },
        {
            "id": 13214,
            "original_name": "Supercarrier",
            "popularity": 3.398
        },
        {
            "id": 22973,
            "original_name": "Zomercarroussel",
            "popularity": 0.6
        },
        {
            "id": 34221,
            "original_name": "Battle of the SuperCars",
            "popularity": 0.6
        },
        {
            "id": 58335,
            "original_name": "Shannons Supercar Showdown",
            "popularity": 0.6
        },
        {
            "id": 62165,
            "original_name": "Supercar Superbuild",
            "popularity": 0.6
        },
        {
            "id": 76267,
            "original_name": "Yianni: Supercar Customiser",
            "popularity": 0.6
        },
        {
            "id": 81117,
            "original_name": "Supercar Gattiger",
            "popularity": 0.6
        },
        {
            "id": 84751,
            "original_name": "Supercar Megabuild",
            "popularity": 1.838
        },
        {
            "id": 93997,
            "original_name": "Rise of the Supercarrier",
            "popularity": 0.6
        },
        {
            "id": 94233,
            "original_name": "Scrapyard Supercar",
            "popularity": 1.201
        },
        {
            "id": 105722,
            "original_name": "Car Crews With Supercar Blondie",
            "popularity": 0.6
        },
        {
            "id": 115259,
            "original_name": "Ultimate Supercar",
            "popularity": 0.6
        },
        {
            "id": 117086,
            "original_name": "Supercar, Superfam",
            "popularity": 0.6
        },
        {
            "id": 130553,
            "original_name": "Supercars",
            "popularity": 0.6
        }
    ]
}