{
    "data": [
        {
            "id": 2567,
            "original_name": "Hercules",
            "popularity": 17.993
        },
        {
            "id": 3578,
            "original_name": "The Herculoids",
            "popularity": 3.649
        },
        {
            "id": 4615,
            "original_name": "Hercules: The Legendary Journeys",
            "popularity": 18.176
        },
        {
            "id": 5999,
            "original_name": "Young Hercules",
            "popularity": 7.452
        },
        {
            "id": 6059,
            "original_name": "The Mighty Hercules",
            "popularity": 2.002
        },
        {
            "id": 9447,
            "original_name": "The Sons of Hercules",
            "popularity": 0.6
        },
        {
            "id": 32532,
            "original_name": "Hercules: Power of the Gods",
            "popularity": 0.6
        },
        {
            "id": 45608,
            "original_name": "Hercules",
            "popularity": 7.805
        },
        {
            "id": 116835,
            "original_name": "Pif et Hercule",
            "popularity": 1.748
        }
    ],
    "relations": [],
    "top20": [
        {
            "id": 2567,
            "original_name": "Hercules",
            "popularity": 17.993
        },
        {
            "id": 3578,
            "original_name": "The Herculoids",
            "popularity": 3.649
        },
        {
            "id": 4615,
            "original_name": "Hercules: The Legendary Journeys",
            "popularity": 18.176
        },
        {
            "id": 5999,
            "original_name": "Young Hercules",
            "popularity": 7.452
        },
        {
            "id": 6059,
            "original_name": "The Mighty Hercules",
            "popularity": 2.002
        },
        {
            "id": 9447,
            "original_name": "The Sons of Hercules",
            "popularity": 0.6
        },
        {
            "id": 32532,
            "original_name": "Hercules: Power of the Gods",
            "popularity": 0.6
        },
        {
            "id": 45608,
            "original_name": "Hercules",
            "popularity": 7.805
        },
        {
            "id": 116835,
            "original_name": "Pif et Hercule",
            "popularity": 1.748
        }
    ]
}