{
    "data": [
        {
            "id": 6327,
            "original_name": "Superfrank!",
            "popularity": 0.6
        },
        {
            "id": 10213,
            "original_name": "Waterfront",
            "popularity": 3.546
        },
        {
            "id": 16064,
            "original_name": "On the Waterfront",
            "popularity": 0.637
        },
        {
            "id": 21143,
            "original_name": "Herfra til evigheten",
            "popularity": 0.6
        },
        {
            "id": 25599,
            "original_name": "Waterfront",
            "popularity": 0.6
        },
        {
            "id": 27717,
            "original_name": "Waterfront Beat",
            "popularity": 0.6
        },
        {
            "id": 53130,
            "original_name": "Knallerfrauen",
            "popularity": 2.607
        },
        {
            "id": 55309,
            "original_name": "Waterfront Cities of The World",
            "popularity": 0.6
        },
        {
            "id": 84708,
            "original_name": "Aenne Burda - Die Wirtschaftswunderfrau",
            "popularity": 1.34
        },
        {
            "id": 85575,
            "original_name": "Das geheime Leben der Spielerfrauen",
            "popularity": 0.646
        },
        {
            "id": 114598,
            "original_name": "Abenteuer 1927 \u2013 Sommerfrische",
            "popularity": 0.6
        },
        {
            "id": 128290,
            "original_name": "Hammerfrauen",
            "popularity": 0.6
        }
    ],
    "relations": [],
    "top20": [
        {
            "id": 6327,
            "original_name": "Superfrank!",
            "popularity": 0.6
        },
        {
            "id": 10213,
            "original_name": "Waterfront",
            "popularity": 3.546
        },
        {
            "id": 16064,
            "original_name": "On the Waterfront",
            "popularity": 0.637
        },
        {
            "id": 21143,
            "original_name": "Herfra til evigheten",
            "popularity": 0.6
        },
        {
            "id": 25599,
            "original_name": "Waterfront",
            "popularity": 0.6
        },
        {
            "id": 27717,
            "original_name": "Waterfront Beat",
            "popularity": 0.6
        },
        {
            "id": 53130,
            "original_name": "Knallerfrauen",
            "popularity": 2.607
        },
        {
            "id": 55309,
            "original_name": "Waterfront Cities of The World",
            "popularity": 0.6
        },
        {
            "id": 84708,
            "original_name": "Aenne Burda - Die Wirtschaftswunderfrau",
            "popularity": 1.34
        },
        {
            "id": 85575,
            "original_name": "Das geheime Leben der Spielerfrauen",
            "popularity": 0.646
        },
        {
            "id": 114598,
            "original_name": "Abenteuer 1927 \u2013 Sommerfrische",
            "popularity": 0.6
        },
        {
            "id": 128290,
            "original_name": "Hammerfrauen",
            "popularity": 0.6
        }
    ]
}