{
    "data": [
        {
            "id": 62688,
            "original_name": "Supergirl",
            "popularity": 181.488
        },
        {
            "id": 49009,
            "original_name": "The Goldbergs",
            "popularity": 35.079
        },
        {
            "id": 40445,
            "original_name": "Die Bergretter",
            "popularity": 30.738
        },
        {
            "id": 119826,
            "original_name": "Intergalactic",
            "popularity": 25.261
        },
        {
            "id": 121192,
            "original_name": "maischberger. die woche",
            "popularity": 24.935
        },
        {
            "id": 5375,
            "original_name": "Emergency!",
            "popularity": 21.599
        },
        {
            "id": 1596,
            "original_name": "Bergerac",
            "popularity": 20.115
        },
        {
            "id": 39249,
            "original_name": "Wilsberg",
            "popularity": 20.099
        },
        {
            "id": 91962,
            "original_name": "Emergence",
            "popularity": 16.136
        },
        {
            "id": 62957,
            "original_name": "Der Bergdoktor",
            "popularity": 14.049
        },
        {
            "id": 14981,
            "original_name": "The Late Late Show with Craig Ferguson",
            "popularity": 13.614
        },
        {
            "id": 127108,
            "original_name": "On the Verge",
            "popularity": 11.204
        },
        {
            "id": 20992,
            "original_name": "Sonic Underground",
            "popularity": 10.511
        },
        {
            "id": 64159,
            "original_name": "Menschen bei Maischberger",
            "popularity": 10.353
        },
        {
            "id": 7389,
            "original_name": "Nuremberg",
            "popularity": 10.247
        },
        {
            "id": 80039,
            "original_name": "The Underground Railroad",
            "popularity": 9.097
        },
        {
            "id": 64150,
            "original_name": "Underground",
            "popularity": 8.744
        },
        {
            "id": 123457,
            "original_name": "Secrets of the London Underground",
            "popularity": 8.539
        },
        {
            "id": 6202,
            "original_name": "Stromberg",
            "popularity": 7.685
        },
        {
            "id": 3338,
            "original_name": "Medical Emergency",
            "popularity": 7.633
        },
        {
            "id": 40458,
            "original_name": "Der Bergdoktor",
            "popularity": 6.567
        },
        {
            "id": 20777,
            "original_name": "Kommissar Stolberg",
            "popularity": 6.322
        },
        {
            "id": 65330,
            "original_name": "Join or Die with Craig Ferguson",
            "popularity": 6.239
        },
        {
            "id": 11183,
            "original_name": "Poltergeist: The Legacy",
            "popularity": 6.159
        },
        {
            "id": 92878,
            "original_name": "El coraz\u00f3n de Sergio Ramos",
            "popularity": 5.928
        },
        {
            "id": 61928,
            "original_name": "Lucha Underground",
            "popularity": 5.249
        },
        {
            "id": 32942,
            "original_name": "The Hard Times of RJ Berger",
            "popularity": 4.365
        },
        {
            "id": 23365,
            "original_name": "Sergeant Preston of the Yukon",
            "popularity": 4.274
        },
        {
            "id": 129104,
            "original_name": "Hallberg",
            "popularity": 4.017
        },
        {
            "id": 79932,
            "original_name": "13 novembre : Fluctuat nec mergitur",
            "popularity": 3.904
        },
        {
            "id": 13344,
            "original_name": "Emergency \u2013 Ward 10",
            "popularity": 3.83
        },
        {
            "id": 21939,
            "original_name": "Zomergasten",
            "popularity": 3.744
        },
        {
            "id": 90208,
            "original_name": "Wei\u00dfblaue Wintergeschichten",
            "popularity": 3.66
        },
        {
            "id": 84657,
            "original_name": "Plasberg pers\u00f6nlich",
            "popularity": 3.513
        },
        {
            "id": 1784,
            "original_name": "In Case of Emergency",
            "popularity": 3.434
        },
        {
            "id": 40903,
            "original_name": "Emil i L\u00f6nneberga",
            "popularity": 3.374
        },
        {
            "id": 83297,
            "original_name": "Meiberger Im Kopf des T\u00e4ters",
            "popularity": 3.235
        },
        {
            "id": 38584,
            "original_name": "L'Auberge du chien noir",
            "popularity": 3.17
        },
        {
            "id": 60650,
            "original_name": "Cybergeddon",
            "popularity": 3.155
        },
        {
            "id": 8650,
            "original_name": "Life in the Undergrowth",
            "popularity": 3.02
        },
        {
            "id": 44784,
            "original_name": "Sergeant Stripes",
            "popularity": 2.967
        },
        {
            "id": 7415,
            "original_name": "Everglades",
            "popularity": 2.899
        },
        {
            "id": 11977,
            "original_name": "Sit Down Comedy with David Steinberg",
            "popularity": 2.895
        },
        {
            "id": 73079,
            "original_name": "Los Supergenios de la Mesa Cuadrada",
            "popularity": 2.895
        },
        {
            "id": 7357,
            "original_name": "Nuremberg: Nazis on Trial",
            "popularity": 2.836
        },
        {
            "id": 91128,
            "original_name": "Vergi\u00dfmeinnicht",
            "popularity": 2.821
        },
        {
            "id": 113485,
            "original_name": "Landesschau Baden-W\u00fcrttemberg",
            "popularity": 2.812
        },
        {
            "id": 68347,
            "original_name": "Serge le mytho",
            "popularity": 2.771
        },
        {
            "id": 67943,
            "original_name": "Aber Bergen",
            "popularity": 2.686
        },
        {
            "id": 3547,
            "original_name": "Undergrads",
            "popularity": 2.678
        },
        {
            "id": 75275,
            "original_name": "Verg\u00fcenza",
            "popularity": 2.663
        },
        {
            "id": 27010,
            "original_name": "Evergreen",
            "popularity": 2.604
        },
        {
            "id": 17506,
            "original_name": "Monster Allergy",
            "popularity": 2.546
        },
        {
            "id": 5245,
            "original_name": "Cybergirl",
            "popularity": 2.543
        },
        {
            "id": 25556,
            "original_name": "The David Steinberg Show",
            "popularity": 2.542
        },
        {
            "id": 61657,
            "original_name": "Bluegrass Underground",
            "popularity": 2.49
        },
        {
            "id": 52243,
            "original_name": "August Strindberg: Ett liv",
            "popularity": 2.483
        },
        {
            "id": 78194,
            "original_name": "Cybergirl of the Year",
            "popularity": 2.411
        },
        {
            "id": 94186,
            "original_name": "Underground Marvels",
            "popularity": 2.327
        },
        {
            "id": 40997,
            "original_name": "Liebling Kreuzberg",
            "popularity": 2.262
        },
        {
            "id": 59577,
            "original_name": "999: What's Your Emergency?",
            "popularity": 2.196
        },
        {
            "id": 64086,
            "original_name": "Weinberg",
            "popularity": 2.185
        },
        {
            "id": 29665,
            "original_name": "The Gertrude Berg Show",
            "popularity": 2.15
        },
        {
            "id": 85522,
            "original_name": "Daheim in den Bergen",
            "popularity": 2.129
        },
        {
            "id": 136113,
            "original_name": "Bergs superlag",
            "popularity": 2.066
        },
        {
            "id": 82973,
            "original_name": "Losberg",
            "popularity": 2.06
        },
        {
            "id": 118576,
            "original_name": "Die Sch\u00f6neberger Show",
            "popularity": 2.045
        },
        {
            "id": 60945,
            "original_name": "Im Schleudergang",
            "popularity": 1.863
        },
        {
            "id": 81011,
            "original_name": "Die Aubergers",
            "popularity": 1.841
        },
        {
            "id": 10396,
            "original_name": "John Ratzenberger's Made in America",
            "popularity": 1.839
        },
        {
            "id": 122854,
            "original_name": "La leyenda de Sergio Ramos",
            "popularity": 1.814
        },
        {
            "id": 118650,
            "original_name": "Kanzlei Berger",
            "popularity": 1.798
        },
        {
            "id": 74713,
            "original_name": "Geschichten aus den Bergen",
            "popularity": 1.774
        },
        {
            "id": 73062,
            "original_name": "SpangaS: Leergeld",
            "popularity": 1.729
        },
        {
            "id": 91986,
            "original_name": "Paranormal Emergency",
            "popularity": 1.693
        },
        {
            "id": 45445,
            "original_name": "S.O.S. Emerg\u00eancia",
            "popularity": 1.691
        },
        {
            "id": 70031,
            "original_name": "Kuntergrau",
            "popularity": 1.638
        },
        {
            "id": 34094,
            "original_name": "VIRUS -VIRUS BUSTER SERGE-",
            "popularity": 1.562
        },
        {
            "id": 29677,
            "original_name": "Contergan - Eine einzige Tablette",
            "popularity": 1.523
        },
        {
            "id": 11109,
            "original_name": "The Goldbergs",
            "popularity": 1.519
        },
        {
            "id": 90039,
            "original_name": "Les Aventures de Tintin, d'apr\u00e8s Herg\u00e9",
            "popularity": 1.501
        },
        {
            "id": 106353,
            "original_name": "Anneliese Rothenberger gibt sich die Ehre",
            "popularity": 1.496
        },
        {
            "id": 106376,
            "original_name": "Emergency",
            "popularity": 1.484
        },
        {
            "id": 39899,
            "original_name": "Alarm in den Bergen",
            "popularity": 1.478
        },
        {
            "id": 63193,
            "original_name": "Anwalt Martin Berg - Im Auftrag der Gerechtigkeit",
            "popularity": 1.478
        },
        {
            "id": 69807,
            "original_name": "Die Reimanns \u2013 Ein au\u00dfergew\u00f6hnliches Leben",
            "popularity": 1.463
        },
        {
            "id": 81618,
            "original_name": "Frankenberg",
            "popularity": 1.418
        },
        {
            "id": 33105,
            "original_name": "The Ultimate Merger",
            "popularity": 1.4
        },
        {
            "id": 45447,
            "original_name": "Sebastian Bergman",
            "popularity": 1.4
        },
        {
            "id": 64095,
            "original_name": "Bevergem",
            "popularity": 1.4
        },
        {
            "id": 81781,
            "original_name": "Grimmsberg",
            "popularity": 1.4
        },
        {
            "id": 82112,
            "original_name": "Hotel Heidelberg",
            "popularity": 1.4
        },
        {
            "id": 83459,
            "original_name": "Studenternas Underg\u00e5ng",
            "popularity": 1.4
        },
        {
            "id": 85746,
            "original_name": "Eine Schmugglergeschichte - Die Legende des Tabak-Peter",
            "popularity": 1.4
        },
        {
            "id": 99784,
            "original_name": "Craig Ferguson Presents: Hobo Fabulous",
            "popularity": 1.4
        },
        {
            "id": 101237,
            "original_name": "Falkenberg Forever",
            "popularity": 1.4
        },
        {
            "id": 63361,
            "original_name": "Bibi Blocksberg",
            "popularity": 1.391
        },
        {
            "id": 28158,
            "original_name": "Sergeant Cork",
            "popularity": 1.383
        },
        {
            "id": 2031,
            "original_name": "Supergroup",
            "popularity": 1.379
        },
        {
            "id": 40838,
            "original_name": "Rote Bergsteiger",
            "popularity": 1.377
        },
        {
            "id": 64017,
            "original_name": "Sherlock Holmes und die sieben Zwerge",
            "popularity": 1.34
        },
        {
            "id": 77505,
            "original_name": "Emergency",
            "popularity": 1.265
        },
        {
            "id": 62968,
            "original_name": "Ein unverge\u00dfliches Wochenende",
            "popularity": 1.25
        },
        {
            "id": 20217,
            "original_name": "Jul i Skomakergata",
            "popularity": 1.24
        },
        {
            "id": 42929,
            "original_name": "Alfons \u00c5berg",
            "popularity": 1.218
        },
        {
            "id": 28626,
            "original_name": "Merge",
            "popularity": 1.214
        },
        {
            "id": 108862,
            "original_name": "Where's My Water?: Swampy's Underground Adventures",
            "popularity": 1.14
        },
        {
            "id": 41607,
            "original_name": "Il peccato e la vergogna",
            "popularity": 1.139
        },
        {
            "id": 62794,
            "original_name": "Mellom bakkar og berg",
            "popularity": 1.131
        },
        {
            "id": 63048,
            "original_name": "Die Sternbergs - \u00c4rzte, Br\u00fcder, Leidenschaften",
            "popularity": 1.096
        },
        {
            "id": 67028,
            "original_name": "Camilla L\u00e4ckbergs Fj\u00e4llbackamorden",
            "popularity": 1.063
        },
        {
            "id": 118206,
            "original_name": "Berg & Talk",
            "popularity": 1.054
        },
        {
            "id": 123741,
            "original_name": "Stan Lee's Superhero Kindergarten",
            "popularity": 1.035
        },
        {
            "id": 77154,
            "original_name": "St. Josef am Berg",
            "popularity": 1.016
        },
        {
            "id": 123186,
            "original_name": "Greta Thunberg: A Year to Change the World",
            "popularity": 1.012
        },
        {
            "id": 81276,
            "original_name": "Eichbergers besondere F\u00e4lle",
            "popularity": 0.991
        },
        {
            "id": 129107,
            "original_name": "Luuk & Hallberg",
            "popularity": 0.986
        },
        {
            "id": 32674,
            "original_name": "No Time for Sergeants",
            "popularity": 0.984
        },
        {
            "id": 96182,
            "original_name": "Rendez-vous \u00e0 Badenberg",
            "popularity": 0.96
        },
        {
            "id": 62213,
            "original_name": "Sergeant Berry",
            "popularity": 0.946
        },
        {
            "id": 117406,
            "original_name": "3 x Bergman",
            "popularity": 0.937
        },
        {
            "id": 81069,
            "original_name": "Bergheimat",
            "popularity": 0.935
        },
        {
            "id": 61058,
            "original_name": "The Underground Kings",
            "popularity": 0.932
        },
        {
            "id": 120486,
            "original_name": "Zur Sache Baden-W\u00fcrttemberg!",
            "popularity": 0.926
        },
        {
            "id": 1851,
            "original_name": "The Underground",
            "popularity": 0.924
        },
        {
            "id": 35072,
            "original_name": "The Polly Bergen Show",
            "popularity": 0.916
        },
        {
            "id": 108875,
            "original_name": "Emergency Call",
            "popularity": 0.91
        },
        {
            "id": 41320,
            "original_name": "Wallenberg: A Hero's Story",
            "popularity": 0.896
        },
        {
            "id": 81267,
            "original_name": "Dreifacher Rittberger",
            "popularity": 0.89
        },
        {
            "id": 61340,
            "original_name": "Theatergarderobe",
            "popularity": 0.889
        },
        {
            "id": 61060,
            "original_name": "Gintberg p\u00e5 kanten",
            "popularity": 0.872
        },
        {
            "id": 103710,
            "original_name": "Pergilah Air Mata Raya",
            "popularity": 0.863
        },
        {
            "id": 89112,
            "original_name": "On Tour with Asperger's Are Us",
            "popularity": 0.858
        },
        {
            "id": 117907,
            "original_name": "Big Trick Energy",
            "popularity": 0.852
        },
        {
            "id": 57052,
            "original_name": "Concierge: The Series",
            "popularity": 0.843
        },
        {
            "id": 23078,
            "original_name": "Uhhh... Vergeet Je Tandenborstel Niet!",
            "popularity": 0.841
        },
        {
            "id": 25522,
            "original_name": "The Ferguson Theory",
            "popularity": 0.84
        },
        {
            "id": 61638,
            "original_name": "Lerchenberg",
            "popularity": 0.84
        },
        {
            "id": 81758,
            "original_name": "Gespenstergeschichten",
            "popularity": 0.84
        },
        {
            "id": 110548,
            "original_name": "Unvergesslich - Unser Chor f\u00fcr Menschen mit Demenz",
            "popularity": 0.84
        },
        {
            "id": 120179,
            "original_name": "Auf dem Nockherberg",
            "popularity": 0.84
        },
        {
            "id": 130510,
            "original_name": "Lost Women Art - Ein vergessenes St\u00fcck Kunstgeschichte",
            "popularity": 0.84
        },
        {
            "id": 132374,
            "original_name": "Carina Bergfeldt",
            "popularity": 0.84
        },
        {
            "id": 194976,
            "original_name": "BoomerGames",
            "popularity": 0.832
        },
        {
            "id": 83390,
            "original_name": "Kielergata",
            "popularity": 0.831
        },
        {
            "id": 85300,
            "original_name": "Women on the Verge",
            "popularity": 0.745
        },
        {
            "id": 26239,
            "original_name": "Wintergasten",
            "popularity": 0.743
        },
        {
            "id": 24623,
            "original_name": "The Trollenberg Terror",
            "popularity": 0.732
        },
        {
            "id": 83157,
            "original_name": "The Tube: Going Underground",
            "popularity": 0.725
        },
        {
            "id": 48443,
            "original_name": "Bergwelten",
            "popularity": 0.719
        },
        {
            "id": 100411,
            "original_name": "Watergate",
            "popularity": 0.718
        },
        {
            "id": 75653,
            "original_name": "Orkestergraven",
            "popularity": 0.706
        },
        {
            "id": 95183,
            "original_name": "No hay tiempo para la verg\u00fcenza",
            "popularity": 0.688
        },
        {
            "id": 44560,
            "original_name": "Emergency with Angela Griffin",
            "popularity": 0.681
        },
        {
            "id": 70258,
            "original_name": "Secrets of the Underground",
            "popularity": 0.675
        },
        {
            "id": 101927,
            "original_name": "Sinverg\u00fcenzas",
            "popularity": 0.658
        },
        {
            "id": 100699,
            "original_name": "Niall Ferguson's NetWorld",
            "popularity": 0.655
        },
        {
            "id": 4927,
            "original_name": "Sin Verguenza",
            "popularity": 0.654
        },
        {
            "id": 78395,
            "original_name": "Emergency Helicopter Medics",
            "popularity": 0.646
        },
        {
            "id": 83810,
            "original_name": "Watergate",
            "popularity": 0.641
        },
        {
            "id": 3900,
            "original_name": "Underground Ernie",
            "popularity": 0.638
        },
        {
            "id": 40928,
            "original_name": "Familie Bergmann",
            "popularity": 0.638
        },
        {
            "id": 73688,
            "original_name": "V\u00e4rldens Tuffaste Jobb Med Carina Berg",
            "popularity": 0.631
        },
        {
            "id": 122106,
            "original_name": "Gintberg show off",
            "popularity": 0.627
        },
        {
            "id": 63298,
            "original_name": "Mein Bruder - Der Herr Doktor Berger",
            "popularity": 0.626
        },
        {
            "id": 73760,
            "original_name": "Monsters Underground",
            "popularity": 0.626
        },
        {
            "id": 69375,
            "original_name": "Terra X - Deutschlands Supergrabungen",
            "popularity": 0.624
        },
        {
            "id": 8428,
            "original_name": "Frost/Nixon The Watergate Interview",
            "popularity": 0.62
        },
        {
            "id": 94539,
            "original_name": "Sergio & Axel van de Kaart",
            "popularity": 0.614
        },
        {
            "id": 81956,
            "original_name": "Verge Science",
            "popularity": 0.604
        },
        {
            "id": 136710,
            "original_name": "Positive Energy",
            "popularity": 0.601
        },
        {
            "id": 614,
            "original_name": "Rollergirls",
            "popularity": 0.6
        },
        {
            "id": 989,
            "original_name": "Emergency Vets",
            "popularity": 0.6
        },
        {
            "id": 1512,
            "original_name": "Emergency",
            "popularity": 0.6
        },
        {
            "id": 2884,
            "original_name": "Emergency +4",
            "popularity": 0.6
        },
        {
            "id": 3732,
            "original_name": "Bunker, or Learning Underground",
            "popularity": 0.6
        },
        {
            "id": 5384,
            "original_name": "Intergalactic Kitchen",
            "popularity": 0.6
        },
        {
            "id": 7035,
            "original_name": "Animal Emergency",
            "popularity": 0.6
        },
        {
            "id": 7144,
            "original_name": "La Energ\u00eda de Sonric'slandia",
            "popularity": 0.6
        },
        {
            "id": 8846,
            "original_name": "Intergalactic Thanksgiving",
            "popularity": 0.6
        },
        {
            "id": 9145,
            "original_name": "Friday Night! with Ralph Benmergui",
            "popularity": 0.6
        },
        {
            "id": 10011,
            "original_name": "Scattergories",
            "popularity": 0.6
        },
        {
            "id": 11409,
            "original_name": "TCM Underground",
            "popularity": 0.6
        },
        {
            "id": 11800,
            "original_name": "RollerGames",
            "popularity": 0.6
        },
        {
            "id": 12184,
            "original_name": "Emergency",
            "popularity": 0.6
        },
        {
            "id": 12985,
            "original_name": "Benmergui Live",
            "popularity": 0.6
        },
        {
            "id": 13030,
            "original_name": "COVERguy",
            "popularity": 0.6
        },
        {
            "id": 14730,
            "original_name": "Fergus McPhail",
            "popularity": 0.6
        },
        {
            "id": 14993,
            "original_name": "Betsy's Kindergarten Adventures",
            "popularity": 0.6
        },
        {
            "id": 16407,
            "original_name": "\u00d6bergs p\u00e5 Lill\u00f6ga",
            "popularity": 0.6
        },
        {
            "id": 18507,
            "original_name": "G4 Underground",
            "popularity": 0.6
        },
        {
            "id": 19273,
            "original_name": "784 Days That Changed America - From Watergate to Resignation",
            "popularity": 0.6
        },
        {
            "id": 19492,
            "original_name": "Highland Emergency",
            "popularity": 0.6
        },
        {
            "id": 21130,
            "original_name": "Movie Underground",
            "popularity": 0.6
        },
        {
            "id": 21991,
            "original_name": "Scattergood - Friend Of All",
            "popularity": 0.6
        },
        {
            "id": 22539,
            "original_name": "Air Emergency",
            "popularity": 0.6
        },
        {
            "id": 23895,
            "original_name": "2006 Enduro at Erzberg",
            "popularity": 0.6
        },
        {
            "id": 24061,
            "original_name": "EMmergency Line",
            "popularity": 0.6
        },
        {
            "id": 24234,
            "original_name": "Red Serge",
            "popularity": 0.6
        },
        {
            "id": 24480,
            "original_name": "Total Emergency",
            "popularity": 0.6
        },
        {
            "id": 26415,
            "original_name": "Home Energy Savings",
            "popularity": 0.6
        },
        {
            "id": 26454,
            "original_name": "The Whoopi Goldberg Show",
            "popularity": 0.6
        },
        {
            "id": 27640,
            "original_name": "Polterguests",
            "popularity": 0.6
        },
        {
            "id": 28392,
            "original_name": "Herberg De Verandering",
            "popularity": 0.6
        },
        {
            "id": 28615,
            "original_name": "Emergency Heroes",
            "popularity": 0.6
        },
        {
            "id": 28783,
            "original_name": "Combat Sergeant",
            "popularity": 0.6
        },
        {
            "id": 29010,
            "original_name": "Europa in 10 ergernissen",
            "popularity": 0.6
        },
        {
            "id": 29726,
            "original_name": "London Underground",
            "popularity": 0.6
        },
        {
            "id": 31905,
            "original_name": "One Night in Emergency",
            "popularity": 0.6
        },
        {
            "id": 33486,
            "original_name": "Converging Lines",
            "popularity": 0.6
        },
        {
            "id": 34472,
            "original_name": "Annenberg TV News",
            "popularity": 0.6
        },
        {
            "id": 34572,
            "original_name": "Children's Emergency",
            "popularity": 0.6
        },
        {
            "id": 35246,
            "original_name": "Off the Record with Michael Landsberg",
            "popularity": 0.6
        },
        {
            "id": 35939,
            "original_name": "Spielergeschichten",
            "popularity": 0.6
        },
        {
            "id": 36110,
            "original_name": "Emergency Bikers",
            "popularity": 0.6
        },
        {
            "id": 36221,
            "original_name": "Rakt p\u00e5 med K-G Bergstr\u00f6m",
            "popularity": 0.6
        },
        {
            "id": 36578,
            "original_name": "Lotto's Onvergetelijke Zondag",
            "popularity": 0.6
        },
        {
            "id": 36762,
            "original_name": "Svergies historia",
            "popularity": 0.6
        },
        {
            "id": 36976,
            "original_name": "Underground War",
            "popularity": 0.6
        },
        {
            "id": 37007,
            "original_name": "Emergency Sex and Other Desperate Measures",
            "popularity": 0.6
        },
        {
            "id": 37563,
            "original_name": "Major League Wrestling: Underground TV",
            "popularity": 0.6
        },
        {
            "id": 37859,
            "original_name": "Ergens onderweg",
            "popularity": 0.6
        },
        {
            "id": 38516,
            "original_name": "John Sergeant on Tracks of Empire",
            "popularity": 0.6
        },
        {
            "id": 39204,
            "original_name": "Combat Sergeant",
            "popularity": 0.6
        },
        {
            "id": 40021,
            "original_name": "Cyrano de Bergerac",
            "popularity": 0.6
        },
        {
            "id": 40211,
            "original_name": "The Adventures of Massey Ferguson",
            "popularity": 0.6
        },
        {
            "id": 41010,
            "original_name": "Questa casa non \u00e8 un albergo",
            "popularity": 0.6
        },
        {
            "id": 41118,
            "original_name": "N\u00fcrnberger Schnauzen",
            "popularity": 0.6
        },
        {
            "id": 41177,
            "original_name": "K\u00f6nig von Kreuzberg",
            "popularity": 0.6
        },
        {
            "id": 41642,
            "original_name": "Pronto Emergenza",
            "popularity": 0.6
        },
        {
            "id": 41888,
            "original_name": "Emergency Call",
            "popularity": 0.6
        },
        {
            "id": 42264,
            "original_name": "Price og Blomsterberg",
            "popularity": 0.6
        },
        {
            "id": 42358,
            "original_name": "On The Verge",
            "popularity": 0.6
        },
        {
            "id": 42683,
            "original_name": "S.O.U.L. - Sounds of Underground London",
            "popularity": 0.6
        },
        {
            "id": 45702,
            "original_name": "Bloomberg Enterprise",
            "popularity": 0.6
        },
        {
            "id": 45703,
            "original_name": "Bloomberg Bottom Line",
            "popularity": 0.6
        },
        {
            "id": 45707,
            "original_name": "Bloomberg Game Changers",
            "popularity": 0.6
        },
        {
            "id": 45708,
            "original_name": "Bloomberg Risk Takers",
            "popularity": 0.6
        },
        {
            "id": 45709,
            "original_name": "Bloomberg Surveillance",
            "popularity": 0.6
        },
        {
            "id": 45710,
            "original_name": "Bloomberg The Mentor",
            "popularity": 0.6
        },
        {
            "id": 45711,
            "original_name": "Bloomberg West",
            "popularity": 0.6
        },
        {
            "id": 46346,
            "original_name": "H.E.L.P! - Dr. Henry's Emergency Lessons for People",
            "popularity": 0.6
        },
        {
            "id": 48540,
            "original_name": "Undergrads: South",
            "popularity": 0.6
        },
        {
            "id": 49909,
            "original_name": "G\u00fclben Ergen'le S\u00fcrpriz",
            "popularity": 0.6
        },
        {
            "id": 52011,
            "original_name": "Faddergalan",
            "popularity": 0.6
        },
        {
            "id": 52106,
            "original_name": "Daniela Katzenberger \u2013 nat\u00fcrlich blond",
            "popularity": 0.6
        },
        {
            "id": 53537,
            "original_name": "Bill Bergson Lives Dangerously",
            "popularity": 0.6
        },
        {
            "id": 53741,
            "original_name": "Judgment: The Trial of Julius and Ethel Rosenberg",
            "popularity": 0.6
        },
        {
            "id": 54304,
            "original_name": "Lotta p\u00e5 Liseberg",
            "popularity": 0.6
        },
        {
            "id": 54845,
            "original_name": "\u00d8stergaards cirkus variet\u00e9",
            "popularity": 0.6
        },
        {
            "id": 55147,
            "original_name": "Oi ergenides",
            "popularity": 0.6
        },
        {
            "id": 55170,
            "original_name": "Berg flyttar in",
            "popularity": 0.6
        },
        {
            "id": 55568,
            "original_name": "Swampy s Underground Adventures",
            "popularity": 0.6
        },
        {
            "id": 55694,
            "original_name": "De Speld in de Hooiberg",
            "popularity": 0.6
        },
        {
            "id": 56027,
            "original_name": "I Love My Tractor the adventures of Massey Ferguson",
            "popularity": 0.6
        },
        {
            "id": 56086,
            "original_name": "Departure from Oil - Energy for the Future",
            "popularity": 0.6
        },
        {
            "id": 57560,
            "original_name": "John Sergeant on the Tourist Trail",
            "popularity": 0.6
        },
        {
            "id": 58059,
            "original_name": "Underground",
            "popularity": 0.6
        },
        {
            "id": 58235,
            "original_name": "The Grill Sergeants",
            "popularity": 0.6
        },
        {
            "id": 58452,
            "original_name": "The Mark Walberg Show",
            "popularity": 0.6
        },
        {
            "id": 58966,
            "original_name": "Emergency",
            "popularity": 0.6
        },
        {
            "id": 59038,
            "original_name": "Body Remix/Goldberg Variations",
            "popularity": 0.6
        },
        {
            "id": 60111,
            "original_name": "Sint Hubertusberg",
            "popularity": 0.6
        },
        {
            "id": 60898,
            "original_name": "The Mind of David Berglas",
            "popularity": 0.6
        },
        {
            "id": 63746,
            "original_name": "Ferienheim Bergkristall",
            "popularity": 0.6
        },
        {
            "id": 64964,
            "original_name": "Comedy Underground with Dave Attell",
            "popularity": 0.6
        },
        {
            "id": 65045,
            "original_name": "Chrome Underground",
            "popularity": 0.6
        },
        {
            "id": 65792,
            "original_name": "El albergue",
            "popularity": 0.6
        },
        {
            "id": 67179,
            "original_name": "Les berges",
            "popularity": 0.6
        },
        {
            "id": 67540,
            "original_name": "Gouden Bergen",
            "popularity": 0.6
        },
        {
            "id": 67622,
            "original_name": "Ett jobb f\u00f6r Berg",
            "popularity": 0.6
        },
        {
            "id": 68221,
            "original_name": "American Supergroup",
            "popularity": 0.6
        },
        {
            "id": 69546,
            "original_name": "Ebersberg",
            "popularity": 0.6
        },
        {
            "id": 69813,
            "original_name": "Alliierte Kriegsverbrechen - Vergessene Kriegsgr\u00e4uel im Zweiten Weltkrieg",
            "popularity": 0.6
        },
        {
            "id": 70970,
            "original_name": "Inside the Tube: Going Underground",
            "popularity": 0.6
        },
        {
            "id": 73772,
            "original_name": "Bjerga Hotell",
            "popularity": 0.6
        },
        {
            "id": 74819,
            "original_name": "Die drei Klumberger",
            "popularity": 0.6
        },
        {
            "id": 75174,
            "original_name": "Ningu\u00e9m como Tu - Jo\u00e3o e Sergio",
            "popularity": 0.6
        },
        {
            "id": 77796,
            "original_name": "Secret Life Underground",
            "popularity": 0.6
        },
        {
            "id": 78024,
            "original_name": "Den fantastiska historien med Berg och Meltzer",
            "popularity": 0.6
        },
        {
            "id": 80469,
            "original_name": "Kindergarten",
            "popularity": 0.6
        },
        {
            "id": 82365,
            "original_name": "Kalendergeschichten",
            "popularity": 0.6
        },
        {
            "id": 82425,
            "original_name": "Sergio & Rhoda in Israel",
            "popularity": 0.6
        },
        {
            "id": 82955,
            "original_name": "Barncancergalan - Det svenska humorpriset",
            "popularity": 0.6
        },
        {
            "id": 84244,
            "original_name": "Der Zauberberg",
            "popularity": 0.6
        },
        {
            "id": 84599,
            "original_name": "Pfarrer in Kreuzberg",
            "popularity": 0.6
        },
        {
            "id": 84697,
            "original_name": "The Under Undergrounds",
            "popularity": 0.6
        },
        {
            "id": 86491,
            "original_name": "Operation Iceberg",
            "popularity": 0.6
        },
        {
            "id": 86760,
            "original_name": "Voor Ik Het Vergeet",
            "popularity": 0.6
        },
        {
            "id": 87377,
            "original_name": "Hitler: Hitlers Aufstieg und Untergang",
            "popularity": 0.6
        },
        {
            "id": 88160,
            "original_name": "Gipfelst\u00fcrmer - Das Berginternat",
            "popularity": 0.6
        },
        {
            "id": 90236,
            "original_name": "Eine Legende. Unvergessen.",
            "popularity": 0.6
        },
        {
            "id": 90863,
            "original_name": "Shocking Emergency Calls",
            "popularity": 0.6
        },
        {
            "id": 92199,
            "original_name": "Setelah Cinta Itu Pergi",
            "popularity": 0.6
        },
        {
            "id": 93710,
            "original_name": "Live rescue:Emergency response",
            "popularity": 0.6
        },
        {
            "id": 96267,
            "original_name": "Herr Bergmanns Adventskalender",
            "popularity": 0.6
        },
        {
            "id": 96339,
            "original_name": "Juleferg\u00e5",
            "popularity": 0.6
        },
        {
            "id": 96396,
            "original_name": "Weekend p\u00e5 Wallenberg",
            "popularity": 0.6
        },
        {
            "id": 97054,
            "original_name": "Power: Engineering Energy and Speed",
            "popularity": 0.6
        },
        {
            "id": 98565,
            "original_name": "Peter Forsberg: V\u00e4lkommen till Foppaland",
            "popularity": 0.6
        },
        {
            "id": 98720,
            "original_name": "EVERGLOW: \uc5d0\ud53d\ub85c\uadf8",
            "popularity": 0.6
        },
        {
            "id": 99391,
            "original_name": "Countdown zum Untergang",
            "popularity": 0.6
        },
        {
            "id": 99683,
            "original_name": "Australia on Fire: Climate Emergency",
            "popularity": 0.6
        },
        {
            "id": 101607,
            "original_name": "Gr\u00fcnberg und Kuhnt - Kommissare ermitteln",
            "popularity": 0.6
        },
        {
            "id": 102243,
            "original_name": "ExtraVergine",
            "popularity": 0.6
        },
        {
            "id": 102628,
            "original_name": "Les Aventures de Tintin, d'apr\u00e8s Herg\u00e9",
            "popularity": 0.6
        },
        {
            "id": 102975,
            "original_name": "Unser Universum - Geburt und Untergang",
            "popularity": 0.6
        },
        {
            "id": 103746,
            "original_name": "Spritnyt - med Gintberg og Eskelund",
            "popularity": 0.6
        },
        {
            "id": 104128,
            "original_name": "Schladminger Bergwelten",
            "popularity": 0.6
        },
        {
            "id": 104252,
            "original_name": "100 \u00e5rs barndom. 1930-1940: Indl\u00e6ring og sommergl\u00e6der",
            "popularity": 0.6
        },
        {
            "id": 105937,
            "original_name": "WissenschaftsFORUM Petersberg",
            "popularity": 0.6
        },
        {
            "id": 107006,
            "original_name": "Korea \u2013 Der vergessene Krieg",
            "popularity": 0.6
        },
        {
            "id": 107336,
            "original_name": "Power Trip: The Story of Energy",
            "popularity": 0.6
        },
        {
            "id": 109758,
            "original_name": "Emergency Rescue Air, Land & Sea",
            "popularity": 0.6
        },
        {
            "id": 110471,
            "original_name": "R\u00fcbezahl, Herr der Berge",
            "popularity": 0.6
        },
        {
            "id": 111583,
            "original_name": "Gintberg, Eskelund og den dybe tallerken",
            "popularity": 0.6
        },
        {
            "id": 111887,
            "original_name": "Bergs Dr\u00f6mk\u00e5k",
            "popularity": 0.6
        },
        {
            "id": 111935,
            "original_name": "Partiernes skjulte overgreb",
            "popularity": 0.6
        },
        {
            "id": 113223,
            "original_name": "Rap Trip: Underground Scenes Uncovered",
            "popularity": 0.6
        },
        {
            "id": 114120,
            "original_name": "Pendergast",
            "popularity": 0.6
        },
        {
            "id": 114794,
            "original_name": "Kompani Spitsbergen",
            "popularity": 0.6
        },
        {
            "id": 116044,
            "original_name": "Amazonas Vergessene Welt",
            "popularity": 0.6
        },
        {
            "id": 117455,
            "original_name": "Phettbergs nette Leit Show",
            "popularity": 0.6
        },
        {
            "id": 118277,
            "original_name": "Ingmar Bergman Makes a Movie",
            "popularity": 0.6
        },
        {
            "id": 119241,
            "original_name": "The Underground World",
            "popularity": 0.6
        },
        {
            "id": 119776,
            "original_name": "The Great Underground War",
            "popularity": 0.6
        },
        {
            "id": 120598,
            "original_name": "Team Solberg",
            "popularity": 0.6
        },
        {
            "id": 123511,
            "original_name": "De Nuremberg \u00e0 Nuremberg",
            "popularity": 0.6
        },
        {
            "id": 124427,
            "original_name": "Gintberg - De sidste patriarker",
            "popularity": 0.6
        },
        {
            "id": 125592,
            "original_name": "La vierge noire",
            "popularity": 0.6
        },
        {
            "id": 126103,
            "original_name": "Le Syndrome de l'Iceberg",
            "popularity": 0.6
        },
        {
            "id": 128525,
            "original_name": "Anna Blomberg show",
            "popularity": 0.6
        },
        {
            "id": 129764,
            "original_name": "Underground Britain",
            "popularity": 0.6
        },
        {
            "id": 131429,
            "original_name": "Bulgariens Bergwelten",
            "popularity": 0.6
        },
        {
            "id": 131523,
            "original_name": "O Enigma da Energia Escura",
            "popularity": 0.6
        },
        {
            "id": 132854,
            "original_name": "Fergus Fish",
            "popularity": 0.6
        },
        {
            "id": 132877,
            "original_name": "Pasaje de emergencia",
            "popularity": 0.6
        },
        {
            "id": 133038,
            "original_name": "Emergency Rescue Down Under",
            "popularity": 0.6
        },
        {
            "id": 133120,
            "original_name": "Bergen Binnen",
            "popularity": 0.6
        },
        {
            "id": 133468,
            "original_name": "TOKYO MER: Emergency Lifesaving Room That Does Not Run",
            "popularity": 0.6
        },
        {
            "id": 134692,
            "original_name": "Die Waffen SS: Vom Aufstieg bis zum Untergang",
            "popularity": 0.6
        },
        {
            "id": 134734,
            "original_name": "Underground Worlds",
            "popularity": 0.6
        },
        {
            "id": 136130,
            "original_name": "Weee:mergency",
            "popularity": 0.6
        },
        {
            "id": 136856,
            "original_name": "EMERGENCY",
            "popularity": 0.6
        },
        {
            "id": 146161,
            "original_name": "The Secrets of Underground Britain",
            "popularity": 0.6
        },
        {
            "id": 152278,
            "original_name": "Tillbaka till vintergatan",
            "popularity": 0.6
        },
        {
            "id": 152288,
            "original_name": "Satoyama: Japan's Secret Watergarden",
            "popularity": 0.6
        },
        {
            "id": 152382,
            "original_name": "Emergency: LA",
            "popularity": 0.6
        }
    ],
    "relations": [
        {
            "character": "ergi"
        },
        {
            "character": "erge"
        },
        {
            "character": "ergr"
        },
        {
            "character": "ergu"
        },
        {
            "character": "erga"
        },
        {
            "character": "ergl"
        },
        {
            "character": "ergo"
        },
        {
            "character": "ergs"
        },
        {
            "character": "ergy"
        },
        {
            "character": "ergd"
        },
        {
            "character": "ergm"
        },
        {
            "character": "ergw"
        },
        {
            "character": "ergk"
        },
        {
            "character": "ergh"
        },
        {
            "character": "erg!"
        },
        {
            "character": "ergf"
        }
    ],
    "top20": [
        {
            "id": 62688,
            "original_name": "Supergirl",
            "popularity": 181.488
        },
        {
            "id": 49009,
            "original_name": "The Goldbergs",
            "popularity": 35.079
        },
        {
            "id": 40445,
            "original_name": "Die Bergretter",
            "popularity": 30.738
        },
        {
            "id": 119826,
            "original_name": "Intergalactic",
            "popularity": 25.261
        },
        {
            "id": 121192,
            "original_name": "maischberger. die woche",
            "popularity": 24.935
        },
        {
            "id": 5375,
            "original_name": "Emergency!",
            "popularity": 21.599
        },
        {
            "id": 1596,
            "original_name": "Bergerac",
            "popularity": 20.115
        },
        {
            "id": 39249,
            "original_name": "Wilsberg",
            "popularity": 20.099
        },
        {
            "id": 91962,
            "original_name": "Emergence",
            "popularity": 16.136
        },
        {
            "id": 62957,
            "original_name": "Der Bergdoktor",
            "popularity": 14.049
        },
        {
            "id": 14981,
            "original_name": "The Late Late Show with Craig Ferguson",
            "popularity": 13.614
        },
        {
            "id": 127108,
            "original_name": "On the Verge",
            "popularity": 11.204
        },
        {
            "id": 20992,
            "original_name": "Sonic Underground",
            "popularity": 10.511
        },
        {
            "id": 64159,
            "original_name": "Menschen bei Maischberger",
            "popularity": 10.353
        },
        {
            "id": 7389,
            "original_name": "Nuremberg",
            "popularity": 10.247
        },
        {
            "id": 80039,
            "original_name": "The Underground Railroad",
            "popularity": 9.097
        },
        {
            "id": 64150,
            "original_name": "Underground",
            "popularity": 8.744
        },
        {
            "id": 123457,
            "original_name": "Secrets of the London Underground",
            "popularity": 8.539
        },
        {
            "id": 6202,
            "original_name": "Stromberg",
            "popularity": 7.685
        },
        {
            "id": 3338,
            "original_name": "Medical Emergency",
            "popularity": 7.633
        }
    ]
}