{
    "data": [
        {
            "id": 36420,
            "original_name": "Sterke verhalen uit Zoutvloed",
            "popularity": 1.135
        },
        {
            "id": 68683,
            "original_name": "Echte verhalen: De buurtpolitie",
            "popularity": 0.635
        },
        {
            "id": 111784,
            "original_name": "De Anderhalve Metershow",
            "popularity": 0.6
        },
        {
            "id": 115376,
            "original_name": "Echte verhalen: SOS 112",
            "popularity": 0.6
        },
        {
            "id": 119406,
            "original_name": "Musikalische Unterhaltung",
            "popularity": 0.6
        },
        {
            "id": 137865,
            "original_name": "Echte Verhalen: De Kliniek",
            "popularity": 0.6
        }
    ],
    "relations": [],
    "top20": [
        {
            "id": 36420,
            "original_name": "Sterke verhalen uit Zoutvloed",
            "popularity": 1.135
        },
        {
            "id": 68683,
            "original_name": "Echte verhalen: De buurtpolitie",
            "popularity": 0.635
        },
        {
            "id": 111784,
            "original_name": "De Anderhalve Metershow",
            "popularity": 0.6
        },
        {
            "id": 115376,
            "original_name": "Echte verhalen: SOS 112",
            "popularity": 0.6
        },
        {
            "id": 119406,
            "original_name": "Musikalische Unterhaltung",
            "popularity": 0.6
        },
        {
            "id": 137865,
            "original_name": "Echte Verhalen: De Kliniek",
            "popularity": 0.6
        }
    ]
}