{
    "data": [
        {
            "id": 233,
            "original_name": "Who Wants to Be a Superhero?",
            "popularity": 1.265
        },
        {
            "id": 12691,
            "original_name": "Who Wants to Be a Superhero?",
            "popularity": 0.6
        },
        {
            "id": 13848,
            "original_name": "Legends of the Superheroes",
            "popularity": 1.314
        },
        {
            "id": 23824,
            "original_name": "Kitchen Zero to Superhero",
            "popularity": 0.6
        },
        {
            "id": 43848,
            "original_name": "Who Wants to Be a Superhero?",
            "popularity": 1.824
        },
        {
            "id": 60289,
            "original_name": "Superheroes: A Never-Ending Battle",
            "popularity": 2.54
        },
        {
            "id": 74930,
            "original_name": "Superheroes Decoded",
            "popularity": 0.919
        },
        {
            "id": 97132,
            "original_name": "Tsuperhero",
            "popularity": 0.6
        },
        {
            "id": 99837,
            "original_name": "Confessions of a Superhero",
            "popularity": 0.6
        },
        {
            "id": 104325,
            "original_name": "TED-Ed  Superhero Science",
            "popularity": 0.6
        },
        {
            "id": 105965,
            "original_name": "Superheroes",
            "popularity": 0.6
        },
        {
            "id": 123741,
            "original_name": "Stan Lee's Superhero Kindergarten",
            "popularity": 1.035
        },
        {
            "id": 139403,
            "original_name": "DC Superhero Girls",
            "popularity": 0.6
        }
    ],
    "relations": [],
    "top20": [
        {
            "id": 233,
            "original_name": "Who Wants to Be a Superhero?",
            "popularity": 1.265
        },
        {
            "id": 12691,
            "original_name": "Who Wants to Be a Superhero?",
            "popularity": 0.6
        },
        {
            "id": 13848,
            "original_name": "Legends of the Superheroes",
            "popularity": 1.314
        },
        {
            "id": 23824,
            "original_name": "Kitchen Zero to Superhero",
            "popularity": 0.6
        },
        {
            "id": 43848,
            "original_name": "Who Wants to Be a Superhero?",
            "popularity": 1.824
        },
        {
            "id": 60289,
            "original_name": "Superheroes: A Never-Ending Battle",
            "popularity": 2.54
        },
        {
            "id": 74930,
            "original_name": "Superheroes Decoded",
            "popularity": 0.919
        },
        {
            "id": 97132,
            "original_name": "Tsuperhero",
            "popularity": 0.6
        },
        {
            "id": 99837,
            "original_name": "Confessions of a Superhero",
            "popularity": 0.6
        },
        {
            "id": 104325,
            "original_name": "TED-Ed  Superhero Science",
            "popularity": 0.6
        },
        {
            "id": 105965,
            "original_name": "Superheroes",
            "popularity": 0.6
        },
        {
            "id": 123741,
            "original_name": "Stan Lee's Superhero Kindergarten",
            "popularity": 1.035
        },
        {
            "id": 139403,
            "original_name": "DC Superhero Girls",
            "popularity": 0.6
        }
    ]
}