{
    "data": [
        {
            "id": 1622,
            "original_name": "Supernatural",
            "popularity": 308.26
        },
        {
            "id": 1744,
            "original_name": "Science International",
            "popularity": 0.6
        },
        {
            "id": 2353,
            "original_name": "Lovespring International",
            "popularity": 2.039
        },
        {
            "id": 4166,
            "original_name": "The Real Football Factories International",
            "popularity": 1.347
        },
        {
            "id": 6926,
            "original_name": "Supernatural Science",
            "popularity": 3.475
        },
        {
            "id": 7202,
            "original_name": "International Hareport",
            "popularity": 0.6
        },
        {
            "id": 9347,
            "original_name": "Miss Chinese International Pageant",
            "popularity": 0.6
        },
        {
            "id": 10597,
            "original_name": "International Gladiators 2",
            "popularity": 0.6
        },
        {
            "id": 10892,
            "original_name": "Business International",
            "popularity": 0.6
        },
        {
            "id": 10999,
            "original_name": "San Francisco International Airport",
            "popularity": 1.037
        },
        {
            "id": 13836,
            "original_name": "Supernatural",
            "popularity": 2.426
        },
        {
            "id": 14058,
            "original_name": "Ghost Hunters International",
            "popularity": 3.725
        },
        {
            "id": 14875,
            "original_name": "International Mastermind",
            "popularity": 0.6
        },
        {
            "id": 16013,
            "original_name": "Internatet",
            "popularity": 0.6
        },
        {
            "id": 16592,
            "original_name": "Supernatural: Unseen Power of Animals",
            "popularity": 0.6
        },
        {
            "id": 17733,
            "original_name": "Alternative Views",
            "popularity": 0.6
        },
        {
            "id": 17950,
            "original_name": "International Desk",
            "popularity": 0.6
        },
        {
            "id": 18732,
            "original_name": "M.D. International",
            "popularity": 0.6
        },
        {
            "id": 19050,
            "original_name": "Alternative 3",
            "popularity": 0.6
        },
        {
            "id": 19806,
            "original_name": "International Terrorism Since 1945",
            "popularity": 0.6
        },
        {
            "id": 22843,
            "original_name": "International Showtime",
            "popularity": 0.6
        },
        {
            "id": 24726,
            "original_name": "International Detective",
            "popularity": 4.942
        },
        {
            "id": 24923,
            "original_name": "Ryan International",
            "popularity": 0.6
        },
        {
            "id": 25009,
            "original_name": "International Cabaret",
            "popularity": 0.6
        },
        {
            "id": 26841,
            "original_name": "Alternative Medicine: The Evidence",
            "popularity": 0.6
        },
        {
            "id": 28691,
            "original_name": "Alternative Therapies",
            "popularity": 0.6
        },
        {
            "id": 29173,
            "original_name": "House Hunters International",
            "popularity": 7.49
        },
        {
            "id": 30641,
            "original_name": "Voetbal International",
            "popularity": 2.945
        },
        {
            "id": 30809,
            "original_name": "Alternative Nation",
            "popularity": 0.6
        },
        {
            "id": 30880,
            "original_name": "International King of Sports",
            "popularity": 0.6
        },
        {
            "id": 31440,
            "original_name": "International Sexy Ladies",
            "popularity": 0.855
        },
        {
            "id": 32871,
            "original_name": "Supernatural: The Animation",
            "popularity": 10.829
        },
        {
            "id": 33051,
            "original_name": "International Playhouse",
            "popularity": 0.6
        },
        {
            "id": 33614,
            "original_name": "Centennial International",
            "popularity": 0.6
        },
        {
            "id": 33621,
            "original_name": "International Law",
            "popularity": 0.6
        },
        {
            "id": 34062,
            "original_name": "Miss International",
            "popularity": 0.6
        },
        {
            "id": 34257,
            "original_name": "Circus International",
            "popularity": 0.6
        },
        {
            "id": 35190,
            "original_name": "KRO Reporter International",
            "popularity": 0.6
        },
        {
            "id": 36651,
            "original_name": "Kr\u00f6mer - Die internationale Show",
            "popularity": 3.753
        },
        {
            "id": 37238,
            "original_name": "The Next Iron Chef America International",
            "popularity": 0.6
        },
        {
            "id": 38758,
            "original_name": "Zesde zintuig internationaal, Het",
            "popularity": 0.6
        },
        {
            "id": 40083,
            "original_name": "Centre for International Sustainable Development Law",
            "popularity": 0.6
        },
        {
            "id": 40154,
            "original_name": "Channel 4's Alternative Election Night",
            "popularity": 0.6
        },
        {
            "id": 41260,
            "original_name": "Sonderdezernat K1",
            "popularity": 6.285
        },
        {
            "id": 43131,
            "original_name": "Anthony Bourdain's Alternation Universe",
            "popularity": 0.6
        },
        {
            "id": 43250,
            "original_name": "Alternatywy 4",
            "popularity": 2.57
        },
        {
            "id": 43974,
            "original_name": "International Super Spy",
            "popularity": 0.6
        },
        {
            "id": 47448,
            "original_name": "From the Heart... The First International Very Special Arts Festival",
            "popularity": 0.6
        },
        {
            "id": 47808,
            "original_name": "International Snooker",
            "popularity": 0.6
        },
        {
            "id": 48538,
            "original_name": "David Frost Presents: The Fifth International Book of World Records",
            "popularity": 0.6
        },
        {
            "id": 49006,
            "original_name": "David Frost Presents: The Fourth International Guinness Book of World Records",
            "popularity": 0.6
        },
        {
            "id": 55761,
            "original_name": "Kawaii International",
            "popularity": 0.6
        },
        {
            "id": 56339,
            "original_name": "Update with Robert Abernathy",
            "popularity": 0.6
        },
        {
            "id": 56886,
            "original_name": "Football Internationals: Australia v Argentina",
            "popularity": 0.6
        },
        {
            "id": 57361,
            "original_name": "The Mystery of Babylon: An Alternate View",
            "popularity": 0.6
        },
        {
            "id": 57998,
            "original_name": "Hooters International Swimsuit Pageant",
            "popularity": 0.6
        },
        {
            "id": 59249,
            "original_name": "5th Dimension \u2013 Secrets Of The Supernatural",
            "popularity": 0.6
        },
        {
            "id": 59337,
            "original_name": "Storybook International",
            "popularity": 0.6
        },
        {
            "id": 59915,
            "original_name": "International Plan",
            "popularity": 0.6
        },
        {
            "id": 62070,
            "original_name": "\u653b\u6bbb\u6a5f\u52d5\u968a ARISE ALTERNATIVE ARCHITECTURE",
            "popularity": 13.154
        },
        {
            "id": 67086,
            "original_name": "The Supernatural Enthusiasts Club",
            "popularity": 0.84
        },
        {
            "id": 68922,
            "original_name": "Alternatino",
            "popularity": 0.832
        },
        {
            "id": 71600,
            "original_name": "Ronny Chieng: International Student",
            "popularity": 1.545
        },
        {
            "id": 71818,
            "original_name": "Alternative Lifestyle",
            "popularity": 0.6
        },
        {
            "id": 74248,
            "original_name": "Tod im Internat",
            "popularity": 3.303
        },
        {
            "id": 80044,
            "original_name": "Buzzfeed Unsolved: Supernatural",
            "popularity": 4.576
        },
        {
            "id": 81004,
            "original_name": "Alpen-Internat",
            "popularity": 0.6
        },
        {
            "id": 86964,
            "original_name": "Supernatural GenderSWAP",
            "popularity": 0.6
        },
        {
            "id": 88160,
            "original_name": "Gipfelst\u00fcrmer - Das Berginternat",
            "popularity": 0.6
        },
        {
            "id": 90577,
            "original_name": "Alternatino with Arturo Castro",
            "popularity": 1.108
        },
        {
            "id": 90968,
            "original_name": "F4LKENB3RG \u2013 Mord im Internat?",
            "popularity": 1.489
        },
        {
            "id": 95164,
            "original_name": "MTV Cribs International",
            "popularity": 1.184
        },
        {
            "id": 99473,
            "original_name": "International Pathfinder Camporee",
            "popularity": 0.6
        },
        {
            "id": 100758,
            "original_name": "How to Play Chess: Lessons from an International Master",
            "popularity": 0.6
        },
        {
            "id": 102370,
            "original_name": "L'Internat",
            "popularity": 1.093
        },
        {
            "id": 104439,
            "original_name": "International Student Bible Camp",
            "popularity": 0.6
        },
        {
            "id": 105665,
            "original_name": "Pimp My Ride International",
            "popularity": 0.872
        },
        {
            "id": 107655,
            "original_name": "Supernaturel",
            "popularity": 0.959
        },
        {
            "id": 110614,
            "original_name": "Alternate Route",
            "popularity": 0.6
        },
        {
            "id": 112010,
            "original_name": "Muv-Luv Alternative",
            "popularity": 46.818
        },
        {
            "id": 114843,
            "original_name": "Voetbal International LIVE",
            "popularity": 0.613
        },
        {
            "id": 119159,
            "original_name": "Australian International Airshow",
            "popularity": 0.6
        },
        {
            "id": 121658,
            "original_name": "FBI: International",
            "popularity": 102.549
        },
        {
            "id": 122523,
            "original_name": "Het Alternatief",
            "popularity": 0.6
        },
        {
            "id": 123075,
            "original_name": "My Lottery Dream Home International",
            "popularity": 1.039
        },
        {
            "id": 124465,
            "original_name": "Das Internat",
            "popularity": 40.033
        },
        {
            "id": 125532,
            "original_name": "Ex-Yougoslavie - Les proc\u00e8s du Tribunal p\u00e9nal international",
            "popularity": 0.6
        },
        {
            "id": 127942,
            "original_name": "Terapia alternativa",
            "popularity": 14.132
        },
        {
            "id": 132404,
            "original_name": "Supernature",
            "popularity": 0.6
        },
        {
            "id": 136324,
            "original_name": "Fell in Love With Korea - International Couple",
            "popularity": 0.984
        },
        {
            "id": 138118,
            "original_name": "El Hazard: The Alternative World",
            "popularity": 1.354
        }
    ],
    "relations": [
        {
            "character": "ernatu"
        },
        {
            "character": "ernati"
        },
        {
            "character": "ernate"
        },
        {
            "character": "ernaty"
        },
        {
            "character": "ernath"
        },
        {
            "character": "ernat?"
        }
    ],
    "top20": [
        {
            "id": 1622,
            "original_name": "Supernatural",
            "popularity": 308.26
        },
        {
            "id": 121658,
            "original_name": "FBI: International",
            "popularity": 102.549
        },
        {
            "id": 112010,
            "original_name": "Muv-Luv Alternative",
            "popularity": 46.818
        },
        {
            "id": 124465,
            "original_name": "Das Internat",
            "popularity": 40.033
        },
        {
            "id": 127942,
            "original_name": "Terapia alternativa",
            "popularity": 14.132
        },
        {
            "id": 62070,
            "original_name": "\u653b\u6bbb\u6a5f\u52d5\u968a ARISE ALTERNATIVE ARCHITECTURE",
            "popularity": 13.154
        },
        {
            "id": 32871,
            "original_name": "Supernatural: The Animation",
            "popularity": 10.829
        },
        {
            "id": 29173,
            "original_name": "House Hunters International",
            "popularity": 7.49
        },
        {
            "id": 41260,
            "original_name": "Sonderdezernat K1",
            "popularity": 6.285
        },
        {
            "id": 24726,
            "original_name": "International Detective",
            "popularity": 4.942
        },
        {
            "id": 80044,
            "original_name": "Buzzfeed Unsolved: Supernatural",
            "popularity": 4.576
        },
        {
            "id": 36651,
            "original_name": "Kr\u00f6mer - Die internationale Show",
            "popularity": 3.753
        },
        {
            "id": 14058,
            "original_name": "Ghost Hunters International",
            "popularity": 3.725
        },
        {
            "id": 6926,
            "original_name": "Supernatural Science",
            "popularity": 3.475
        },
        {
            "id": 74248,
            "original_name": "Tod im Internat",
            "popularity": 3.303
        },
        {
            "id": 30641,
            "original_name": "Voetbal International",
            "popularity": 2.945
        },
        {
            "id": 43250,
            "original_name": "Alternatywy 4",
            "popularity": 2.57
        },
        {
            "id": 13836,
            "original_name": "Supernatural",
            "popularity": 2.426
        },
        {
            "id": 2353,
            "original_name": "Lovespring International",
            "popularity": 2.039
        },
        {
            "id": 71600,
            "original_name": "Ronny Chieng: International Student",
            "popularity": 1.545
        }
    ]
}