{
    "data": [
        {
            "id": 1622,
            "original_name": "Supernatural",
            "popularity": 308.26
        },
        {
            "id": 6926,
            "original_name": "Supernatural Science",
            "popularity": 3.475
        },
        {
            "id": 13836,
            "original_name": "Supernatural",
            "popularity": 2.426
        },
        {
            "id": 16592,
            "original_name": "Supernatural: Unseen Power of Animals",
            "popularity": 0.6
        },
        {
            "id": 32871,
            "original_name": "Supernatural: The Animation",
            "popularity": 10.829
        },
        {
            "id": 59249,
            "original_name": "5th Dimension \u2013 Secrets Of The Supernatural",
            "popularity": 0.6
        },
        {
            "id": 67086,
            "original_name": "The Supernatural Enthusiasts Club",
            "popularity": 0.84
        },
        {
            "id": 80044,
            "original_name": "Buzzfeed Unsolved: Supernatural",
            "popularity": 4.576
        },
        {
            "id": 86964,
            "original_name": "Supernatural GenderSWAP",
            "popularity": 0.6
        },
        {
            "id": 107655,
            "original_name": "Supernaturel",
            "popularity": 0.959
        },
        {
            "id": 132404,
            "original_name": "Supernature",
            "popularity": 0.6
        }
    ],
    "relations": [],
    "top20": [
        {
            "id": 1622,
            "original_name": "Supernatural",
            "popularity": 308.26
        },
        {
            "id": 6926,
            "original_name": "Supernatural Science",
            "popularity": 3.475
        },
        {
            "id": 13836,
            "original_name": "Supernatural",
            "popularity": 2.426
        },
        {
            "id": 16592,
            "original_name": "Supernatural: Unseen Power of Animals",
            "popularity": 0.6
        },
        {
            "id": 32871,
            "original_name": "Supernatural: The Animation",
            "popularity": 10.829
        },
        {
            "id": 59249,
            "original_name": "5th Dimension \u2013 Secrets Of The Supernatural",
            "popularity": 0.6
        },
        {
            "id": 67086,
            "original_name": "The Supernatural Enthusiasts Club",
            "popularity": 0.84
        },
        {
            "id": 80044,
            "original_name": "Buzzfeed Unsolved: Supernatural",
            "popularity": 4.576
        },
        {
            "id": 86964,
            "original_name": "Supernatural GenderSWAP",
            "popularity": 0.6
        },
        {
            "id": 107655,
            "original_name": "Supernaturel",
            "popularity": 0.959
        },
        {
            "id": 132404,
            "original_name": "Supernature",
            "popularity": 0.6
        }
    ]
}