{
    "data": [
        {
            "id": 1744,
            "original_name": "Science International",
            "popularity": 0.6
        },
        {
            "id": 2353,
            "original_name": "Lovespring International",
            "popularity": 2.039
        },
        {
            "id": 4166,
            "original_name": "The Real Football Factories International",
            "popularity": 1.347
        },
        {
            "id": 7202,
            "original_name": "International Hareport",
            "popularity": 0.6
        },
        {
            "id": 9347,
            "original_name": "Miss Chinese International Pageant",
            "popularity": 0.6
        },
        {
            "id": 10597,
            "original_name": "International Gladiators 2",
            "popularity": 0.6
        },
        {
            "id": 10892,
            "original_name": "Business International",
            "popularity": 0.6
        },
        {
            "id": 10999,
            "original_name": "San Francisco International Airport",
            "popularity": 1.037
        },
        {
            "id": 14058,
            "original_name": "Ghost Hunters International",
            "popularity": 3.725
        },
        {
            "id": 14875,
            "original_name": "International Mastermind",
            "popularity": 0.6
        },
        {
            "id": 17950,
            "original_name": "International Desk",
            "popularity": 0.6
        },
        {
            "id": 18732,
            "original_name": "M.D. International",
            "popularity": 0.6
        },
        {
            "id": 19806,
            "original_name": "International Terrorism Since 1945",
            "popularity": 0.6
        },
        {
            "id": 22843,
            "original_name": "International Showtime",
            "popularity": 0.6
        },
        {
            "id": 24726,
            "original_name": "International Detective",
            "popularity": 4.942
        },
        {
            "id": 24923,
            "original_name": "Ryan International",
            "popularity": 0.6
        },
        {
            "id": 25009,
            "original_name": "International Cabaret",
            "popularity": 0.6
        },
        {
            "id": 29173,
            "original_name": "House Hunters International",
            "popularity": 7.49
        },
        {
            "id": 30641,
            "original_name": "Voetbal International",
            "popularity": 2.945
        },
        {
            "id": 30880,
            "original_name": "International King of Sports",
            "popularity": 0.6
        },
        {
            "id": 31440,
            "original_name": "International Sexy Ladies",
            "popularity": 0.855
        },
        {
            "id": 33051,
            "original_name": "International Playhouse",
            "popularity": 0.6
        },
        {
            "id": 33614,
            "original_name": "Centennial International",
            "popularity": 0.6
        },
        {
            "id": 33621,
            "original_name": "International Law",
            "popularity": 0.6
        },
        {
            "id": 34062,
            "original_name": "Miss International",
            "popularity": 0.6
        },
        {
            "id": 34257,
            "original_name": "Circus International",
            "popularity": 0.6
        },
        {
            "id": 35190,
            "original_name": "KRO Reporter International",
            "popularity": 0.6
        },
        {
            "id": 36651,
            "original_name": "Kr\u00f6mer - Die internationale Show",
            "popularity": 3.753
        },
        {
            "id": 37238,
            "original_name": "The Next Iron Chef America International",
            "popularity": 0.6
        },
        {
            "id": 38758,
            "original_name": "Zesde zintuig internationaal, Het",
            "popularity": 0.6
        },
        {
            "id": 40083,
            "original_name": "Centre for International Sustainable Development Law",
            "popularity": 0.6
        },
        {
            "id": 43131,
            "original_name": "Anthony Bourdain's Alternation Universe",
            "popularity": 0.6
        },
        {
            "id": 43974,
            "original_name": "International Super Spy",
            "popularity": 0.6
        },
        {
            "id": 47448,
            "original_name": "From the Heart... The First International Very Special Arts Festival",
            "popularity": 0.6
        },
        {
            "id": 47808,
            "original_name": "International Snooker",
            "popularity": 0.6
        },
        {
            "id": 48538,
            "original_name": "David Frost Presents: The Fifth International Book of World Records",
            "popularity": 0.6
        },
        {
            "id": 49006,
            "original_name": "David Frost Presents: The Fourth International Guinness Book of World Records",
            "popularity": 0.6
        },
        {
            "id": 55761,
            "original_name": "Kawaii International",
            "popularity": 0.6
        },
        {
            "id": 56886,
            "original_name": "Football Internationals: Australia v Argentina",
            "popularity": 0.6
        },
        {
            "id": 57998,
            "original_name": "Hooters International Swimsuit Pageant",
            "popularity": 0.6
        },
        {
            "id": 59337,
            "original_name": "Storybook International",
            "popularity": 0.6
        },
        {
            "id": 59915,
            "original_name": "International Plan",
            "popularity": 0.6
        },
        {
            "id": 71600,
            "original_name": "Ronny Chieng: International Student",
            "popularity": 1.545
        },
        {
            "id": 95164,
            "original_name": "MTV Cribs International",
            "popularity": 1.184
        },
        {
            "id": 99473,
            "original_name": "International Pathfinder Camporee",
            "popularity": 0.6
        },
        {
            "id": 100758,
            "original_name": "How to Play Chess: Lessons from an International Master",
            "popularity": 0.6
        },
        {
            "id": 104439,
            "original_name": "International Student Bible Camp",
            "popularity": 0.6
        },
        {
            "id": 105665,
            "original_name": "Pimp My Ride International",
            "popularity": 0.872
        },
        {
            "id": 114843,
            "original_name": "Voetbal International LIVE",
            "popularity": 0.613
        },
        {
            "id": 119159,
            "original_name": "Australian International Airshow",
            "popularity": 0.6
        },
        {
            "id": 121658,
            "original_name": "FBI: International",
            "popularity": 102.549
        },
        {
            "id": 123075,
            "original_name": "My Lottery Dream Home International",
            "popularity": 1.039
        },
        {
            "id": 125532,
            "original_name": "Ex-Yougoslavie - Les proc\u00e8s du Tribunal p\u00e9nal international",
            "popularity": 0.6
        },
        {
            "id": 136324,
            "original_name": "Fell in Love With Korea - International Couple",
            "popularity": 0.984
        }
    ],
    "relations": [
        {
            "character": "ernationa"
        }
    ],
    "top20": [
        {
            "id": 121658,
            "original_name": "FBI: International",
            "popularity": 102.549
        },
        {
            "id": 29173,
            "original_name": "House Hunters International",
            "popularity": 7.49
        },
        {
            "id": 24726,
            "original_name": "International Detective",
            "popularity": 4.942
        },
        {
            "id": 36651,
            "original_name": "Kr\u00f6mer - Die internationale Show",
            "popularity": 3.753
        },
        {
            "id": 14058,
            "original_name": "Ghost Hunters International",
            "popularity": 3.725
        },
        {
            "id": 30641,
            "original_name": "Voetbal International",
            "popularity": 2.945
        },
        {
            "id": 2353,
            "original_name": "Lovespring International",
            "popularity": 2.039
        },
        {
            "id": 71600,
            "original_name": "Ronny Chieng: International Student",
            "popularity": 1.545
        },
        {
            "id": 4166,
            "original_name": "The Real Football Factories International",
            "popularity": 1.347
        },
        {
            "id": 95164,
            "original_name": "MTV Cribs International",
            "popularity": 1.184
        },
        {
            "id": 123075,
            "original_name": "My Lottery Dream Home International",
            "popularity": 1.039
        },
        {
            "id": 10999,
            "original_name": "San Francisco International Airport",
            "popularity": 1.037
        },
        {
            "id": 136324,
            "original_name": "Fell in Love With Korea - International Couple",
            "popularity": 0.984
        },
        {
            "id": 105665,
            "original_name": "Pimp My Ride International",
            "popularity": 0.872
        },
        {
            "id": 31440,
            "original_name": "International Sexy Ladies",
            "popularity": 0.855
        },
        {
            "id": 114843,
            "original_name": "Voetbal International LIVE",
            "popularity": 0.613
        },
        {
            "id": 1744,
            "original_name": "Science International",
            "popularity": 0.6
        },
        {
            "id": 10597,
            "original_name": "International Gladiators 2",
            "popularity": 0.6
        },
        {
            "id": 9347,
            "original_name": "Miss Chinese International Pageant",
            "popularity": 0.6
        },
        {
            "id": 7202,
            "original_name": "International Hareport",
            "popularity": 0.6
        }
    ]
}