{
    "data": [
        {
            "id": 44518,
            "original_name": "Razertooth",
            "popularity": 0.6
        }
    ],
    "relations": [],
    "top20": [
        {
            "id": 44518,
            "original_name": "Razertooth",
            "popularity": 0.6
        }
    ]
}