{
    "data": [
        {
            "id": 11222,
            "original_name": "MonsterVision",
            "popularity": 1.395
        },
        {
            "id": 12841,
            "original_name": "Stankervision",
            "popularity": 0.6
        },
        {
            "id": 21126,
            "original_name": "SadlerVision",
            "popularity": 0.6
        },
        {
            "id": 30164,
            "original_name": "NOPI Tunervision",
            "popularity": 0.6
        },
        {
            "id": 42370,
            "original_name": "Unsupervised",
            "popularity": 7.046
        },
        {
            "id": 100050,
            "original_name": "\u56fd\u5bb6\u76d1\u5bdf State Supervision",
            "popularity": 0.6
        },
        {
            "id": 113215,
            "original_name": "Prvi servis",
            "popularity": 0.6
        }
    ],
    "relations": [],
    "top20": [
        {
            "id": 11222,
            "original_name": "MonsterVision",
            "popularity": 1.395
        },
        {
            "id": 12841,
            "original_name": "Stankervision",
            "popularity": 0.6
        },
        {
            "id": 21126,
            "original_name": "SadlerVision",
            "popularity": 0.6
        },
        {
            "id": 30164,
            "original_name": "NOPI Tunervision",
            "popularity": 0.6
        },
        {
            "id": 42370,
            "original_name": "Unsupervised",
            "popularity": 7.046
        },
        {
            "id": 100050,
            "original_name": "\u56fd\u5bb6\u76d1\u5bdf State Supervision",
            "popularity": 0.6
        },
        {
            "id": 113215,
            "original_name": "Prvi servis",
            "popularity": 0.6
        }
    ]
}