{
    "data": [
        {
            "id": 50161,
            "original_name": "Engineering Britain's Superweapons",
            "popularity": 0.6
        },
        {
            "id": 71678,
            "original_name": "The Underwear",
            "popularity": 0.6
        }
    ],
    "relations": [],
    "top20": [
        {
            "id": 50161,
            "original_name": "Engineering Britain's Superweapons",
            "popularity": 0.6
        },
        {
            "id": 71678,
            "original_name": "The Underwear",
            "popularity": 0.6
        }
    ]
}