{
    "data": [
        {
            "id": 59804,
            "original_name": "Moterys meluoja geriau",
            "popularity": 0.6
        },
        {
            "id": 152371,
            "original_name": "Live from Aberystwyth Pier",
            "popularity": 3.842
        }
    ],
    "relations": [],
    "top20": [
        {
            "id": 59804,
            "original_name": "Moterys meluoja geriau",
            "popularity": 0.6
        },
        {
            "id": 152371,
            "original_name": "Live from Aberystwyth Pier",
            "popularity": 3.842
        }
    ]
}