{
    "data": [
        {
            "id": 44098,
            "original_name": "Plaza Sesamo: Copa Sesamo",
            "popularity": 0.6
        },
        {
            "id": 110637,
            "original_name": "Vencer el Desamor",
            "popularity": 7.514
        }
    ],
    "relations": [],
    "top20": [
        {
            "id": 44098,
            "original_name": "Plaza Sesamo: Copa Sesamo",
            "popularity": 0.6
        },
        {
            "id": 110637,
            "original_name": "Vencer el Desamor",
            "popularity": 7.514
        }
    ]
}