{
    "data": [
        {
            "id": 16845,
            "original_name": "Peschardt's People",
            "popularity": 0.6
        },
        {
            "id": 25872,
            "original_name": "Wij zijn de Geschiedenis",
            "popularity": 0.6
        },
        {
            "id": 34480,
            "original_name": "The Fran Drescher Show",
            "popularity": 1.867
        },
        {
            "id": 35939,
            "original_name": "Spielergeschichten",
            "popularity": 0.6
        },
        {
            "id": 40509,
            "original_name": "Bibliothek der Sachgeschichten",
            "popularity": 0.65
        },
        {
            "id": 40525,
            "original_name": "Beschlossen und verk\u00fcndet",
            "popularity": 1.84
        },
        {
            "id": 40580,
            "original_name": "Sylter Geschichten",
            "popularity": 0.89
        },
        {
            "id": 40742,
            "original_name": "Geschichten aus der Heimat",
            "popularity": 1.113
        },
        {
            "id": 40825,
            "original_name": "Kater Mikesch",
            "popularity": 0.6
        },
        {
            "id": 40847,
            "original_name": "Die merkw\u00fcrdige Lebensgeschichte des Friedrich Freiherrn von der Trenck",
            "popularity": 1.4
        },
        {
            "id": 40876,
            "original_name": "Kiezgeschichten",
            "popularity": 0.84
        },
        {
            "id": 41035,
            "original_name": "Geschichten \u00fcbern Gartenzaun",
            "popularity": 0.894
        },
        {
            "id": 41049,
            "original_name": "Wei\u00dfblaue Geschichten",
            "popularity": 3.394
        },
        {
            "id": 41070,
            "original_name": "Mitten in Europa \u2013 Deutsche Geschichte",
            "popularity": 0.6
        },
        {
            "id": 41077,
            "original_name": "Hessische Geschichten",
            "popularity": 1.504
        },
        {
            "id": 41206,
            "original_name": "PS-Geschichten ums Auto",
            "popularity": 0.94
        },
        {
            "id": 49983,
            "original_name": "Leschs Kosmos",
            "popularity": 2.598
        },
        {
            "id": 55315,
            "original_name": "Die Geschichte Mitteldeutschlands",
            "popularity": 1.776
        },
        {
            "id": 55657,
            "original_name": "Rachel & the TreeSchoolers",
            "popularity": 0.6
        },
        {
            "id": 60125,
            "original_name": "Frag den Lesch",
            "popularity": 1.577
        },
        {
            "id": 60784,
            "original_name": "Donaugeschichten",
            "popularity": 1.298
        },
        {
            "id": 60800,
            "original_name": "Evelyn Hamanns Geschichten aus dem Leben",
            "popularity": 2.625
        },
        {
            "id": 60965,
            "original_name": "Durchreise \u2013 Die Geschichte einer Firma",
            "popularity": 1.44
        },
        {
            "id": 61043,
            "original_name": "Alltagsgeschichte",
            "popularity": 0.622
        },
        {
            "id": 61099,
            "original_name": "Sphinx \u2013 Geheimnisse der Geschichte",
            "popularity": 2.853
        },
        {
            "id": 61167,
            "original_name": "Komische Geschichten mit Georg Thomalla",
            "popularity": 1.565
        },
        {
            "id": 63049,
            "original_name": "A.S. Gefahr ist sein Gesch\u00e4ft",
            "popularity": 3.382
        },
        {
            "id": 63059,
            "original_name": "Geschichten aus der Zukunft",
            "popularity": 1.43
        },
        {
            "id": 63303,
            "original_name": "Liebesgeschichten",
            "popularity": 1.033
        },
        {
            "id": 63385,
            "original_name": "Merkw\u00fcrdige Geschichten",
            "popularity": 1.4
        },
        {
            "id": 63693,
            "original_name": "Schaurige Geschichten",
            "popularity": 1.037
        },
        {
            "id": 63796,
            "original_name": "Pariser Geschichten",
            "popularity": 3.018
        },
        {
            "id": 63965,
            "original_name": "M\u00fcnchner Geschichten",
            "popularity": 1.552
        },
        {
            "id": 63973,
            "original_name": "Es geschah an der Grenze",
            "popularity": 1.96
        },
        {
            "id": 64202,
            "original_name": "Interview mit der Geschichte",
            "popularity": 1.509
        },
        {
            "id": 64295,
            "original_name": "Gesch\u00e4ft mit der Sonne",
            "popularity": 0.84
        },
        {
            "id": 66996,
            "original_name": "Die Germanen - Meilensteine der Fr\u00fchgeschichte Europas",
            "popularity": 0.6
        },
        {
            "id": 67250,
            "original_name": "Frauen, die Geschichte machten",
            "popularity": 0.923
        },
        {
            "id": 69082,
            "original_name": "Wigald & Fritz - Die Geschichtsj\u00e4ger",
            "popularity": 0.6
        },
        {
            "id": 69819,
            "original_name": "Leschs Lexikon",
            "popularity": 1.384
        },
        {
            "id": 70174,
            "original_name": "Die Juden - Geschichte eines Volkes",
            "popularity": 0.64
        },
        {
            "id": 70930,
            "original_name": "Het Klokhuis Maakt Geschiedenis",
            "popularity": 0.6
        },
        {
            "id": 71212,
            "original_name": "Unterwegs in der Weltgeschichte",
            "popularity": 0.6
        },
        {
            "id": 71400,
            "original_name": "Eine ganz gew\u00f6hnliche Geschichte",
            "popularity": 0.6
        },
        {
            "id": 71472,
            "original_name": "Hochhausgeschichten",
            "popularity": 0.6
        },
        {
            "id": 73185,
            "original_name": "Ein Tag schreibt Geschichte \u2013 30. April 1945",
            "popularity": 0.6
        },
        {
            "id": 73454,
            "original_name": "Tierparkgeschichten",
            "popularity": 0.6
        },
        {
            "id": 74156,
            "original_name": "Rummelplatzgeschichten",
            "popularity": 1.134
        },
        {
            "id": 74713,
            "original_name": "Geschichten aus den Bergen",
            "popularity": 1.774
        },
        {
            "id": 78675,
            "original_name": "Schw\u00e4bische Geschichten",
            "popularity": 0.6
        },
        {
            "id": 80244,
            "original_name": "J\u00f6rn Drescher - 19 Jahre",
            "popularity": 0.876
        },
        {
            "id": 80649,
            "original_name": "Il Giudice Meschino",
            "popularity": 0.94
        },
        {
            "id": 81064,
            "original_name": "Antjes Fischkoppgeschichten",
            "popularity": 0.6
        },
        {
            "id": 81070,
            "original_name": "Bettkantengeschichten",
            "popularity": 0.6
        },
        {
            "id": 81461,
            "original_name": "Erlebnis Geschichte",
            "popularity": 0.603
        },
        {
            "id": 81552,
            "original_name": "Finkenwerder Geschichten",
            "popularity": 1.4
        },
        {
            "id": 81597,
            "original_name": "Flussgeschichten",
            "popularity": 0.6
        },
        {
            "id": 81754,
            "original_name": "Eine Geschichte aus Soho",
            "popularity": 0.6
        },
        {
            "id": 81755,
            "original_name": "Geschichten hinterm Deich",
            "popularity": 0.6
        },
        {
            "id": 81756,
            "original_name": "Eine geschiedene Frau",
            "popularity": 0.6
        },
        {
            "id": 81758,
            "original_name": "Gespenstergeschichten",
            "popularity": 0.84
        },
        {
            "id": 81763,
            "original_name": "Gl\u00fccklich geschieden",
            "popularity": 0.6
        },
        {
            "id": 81857,
            "original_name": "Heimatgeschichten",
            "popularity": 6.046
        },
        {
            "id": 82106,
            "original_name": "Hoffmanns Geschichten",
            "popularity": 0.6
        },
        {
            "id": 82249,
            "original_name": "Drogen - Eine Weltgeschichte",
            "popularity": 0.6
        },
        {
            "id": 82309,
            "original_name": "Johannes -  Eine Familiengeschichte vor hundert Jahren",
            "popularity": 0.84
        },
        {
            "id": 82365,
            "original_name": "Kalendergeschichten",
            "popularity": 0.6
        },
        {
            "id": 82688,
            "original_name": "Lachgeschichten",
            "popularity": 0.632
        },
        {
            "id": 82897,
            "original_name": "Liebesgeschichten",
            "popularity": 1.519
        },
        {
            "id": 83183,
            "original_name": "Heilig, Rein & Sauber - Die Kulturgeschichte der Hygiene",
            "popularity": 0.6
        },
        {
            "id": 83499,
            "original_name": "Mr. Carlis und seine abenteuerlichen Geschichten",
            "popularity": 0.875
        },
        {
            "id": 83663,
            "original_name": "Moritzgeschichten",
            "popularity": 1.09
        },
        {
            "id": 83917,
            "original_name": "Die Geschichte der RAF",
            "popularity": 0.6
        },
        {
            "id": 84420,
            "original_name": "Epochen der Musikgeschichte",
            "popularity": 0.6
        },
        {
            "id": 84432,
            "original_name": "Paula kommt \u2013 Sex und Gute Nacktgeschichten",
            "popularity": 0.959
        },
        {
            "id": 85075,
            "original_name": "J\u00fcmmer Justizgeschichten",
            "popularity": 0.6
        },
        {
            "id": 85746,
            "original_name": "Eine Schmugglergeschichte - Die Legende des Tabak-Peter",
            "popularity": 1.4
        },
        {
            "id": 85944,
            "original_name": "Sci_Xpert \u2013 Leschs Universum",
            "popularity": 1.092
        },
        {
            "id": 86445,
            "original_name": "Geschichten von \u00fcberall",
            "popularity": 0.6
        },
        {
            "id": 86512,
            "original_name": "Spannende Geschichten",
            "popularity": 0.6
        },
        {
            "id": 87441,
            "original_name": "Mao - Eine chinesische Geschichte (2006)",
            "popularity": 0.6
        },
        {
            "id": 87845,
            "original_name": "Janosch - Die sch\u00f6nsten Geschichten",
            "popularity": 0.6
        },
        {
            "id": 89046,
            "original_name": "Family Guns - Waffen der Geschichte",
            "popularity": 0.6
        },
        {
            "id": 89047,
            "original_name": "Guns - Die Geschichte der Feuerwaffen",
            "popularity": 0.6
        },
        {
            "id": 90208,
            "original_name": "Wei\u00dfblaue Wintergeschichten",
            "popularity": 3.66
        },
        {
            "id": 90899,
            "original_name": "zeit.geschichte",
            "popularity": 1.281
        },
        {
            "id": 94246,
            "original_name": "12 Jahre, 3 Monate, 9 Tage - Die Jahreschronik des Dritten Reichs",
            "popularity": 0.6
        },
        {
            "id": 94410,
            "original_name": "Verbrechen, die Geschichte machten",
            "popularity": 1.607
        },
        {
            "id": 95625,
            "original_name": "Die Geschichte der Fantasy",
            "popularity": 0.6
        },
        {
            "id": 99770,
            "original_name": "H\u00fcttengeschichten",
            "popularity": 0.6
        },
        {
            "id": 99916,
            "original_name": "Klima macht Geschichte",
            "popularity": 0.6
        },
        {
            "id": 100284,
            "original_name": "Superbauten der Geschichte",
            "popularity": 0.6
        },
        {
            "id": 102522,
            "original_name": "Pressesch(l)au",
            "popularity": 0.6
        },
        {
            "id": 103620,
            "original_name": "Die Geschichte des Essens",
            "popularity": 0.6
        },
        {
            "id": 104053,
            "original_name": "Aeschbacher",
            "popularity": 1.294
        },
        {
            "id": 104433,
            "original_name": "Die Geschichte der Hom\u00f6opathie",
            "popularity": 0.6
        },
        {
            "id": 105373,
            "original_name": "Kater Mikesch",
            "popularity": 0.6
        },
        {
            "id": 106336,
            "original_name": "Frauengeschichten",
            "popularity": 0.975
        },
        {
            "id": 106489,
            "original_name": "Von der Keule zur Rakete \u2013 Die Geschichte der Gewalt",
            "popularity": 0.604
        },
        {
            "id": 106974,
            "original_name": "Das Gesch\u00e4ft mit der Liebe - Frauen aus dem Osten",
            "popularity": 0.6
        },
        {
            "id": 107012,
            "original_name": "Vinyl \u2013 Rock & Pop-Geschichten",
            "popularity": 0.6
        },
        {
            "id": 107368,
            "original_name": "Einfach Kathi - Resch & Lieblich",
            "popularity": 2.963
        },
        {
            "id": 109762,
            "original_name": "Geschichte treffen",
            "popularity": 0.6
        },
        {
            "id": 112028,
            "original_name": "Deschide Ochii",
            "popularity": 0.6
        },
        {
            "id": 113012,
            "original_name": "Gro\u00dfe V\u00f6lker der Geschichte",
            "popularity": 0.6
        },
        {
            "id": 113497,
            "original_name": "Les Deschiens",
            "popularity": 1.531
        },
        {
            "id": 114965,
            "original_name": "Life \u2013 Menschen, Momente, Geschichten",
            "popularity": 1.799
        },
        {
            "id": 115309,
            "original_name": "Ein Moment in der Geschichte",
            "popularity": 0.6
        },
        {
            "id": 115638,
            "original_name": "Einmal im Leben - Geschichte eines Eigenheims",
            "popularity": 0.906
        },
        {
            "id": 116638,
            "original_name": "Unsere Geschichte",
            "popularity": 2.174
        },
        {
            "id": 117858,
            "original_name": "Showgeschichten",
            "popularity": 2.953
        },
        {
            "id": 118280,
            "original_name": "Party-Geschichten",
            "popularity": 1.155
        },
        {
            "id": 118898,
            "original_name": "Mythos Geschichte",
            "popularity": 0.86
        },
        {
            "id": 119578,
            "original_name": "Richterin Barbara Salesch",
            "popularity": 0.6
        },
        {
            "id": 119737,
            "original_name": "Lieder, Arien und Geschichten",
            "popularity": 0.628
        },
        {
            "id": 120448,
            "original_name": "Meine Geschichte",
            "popularity": 0.6
        },
        {
            "id": 120504,
            "original_name": "Hitlers Sklaven - Die Geschichte der NS-Zwangsarbeiter",
            "popularity": 0.6
        },
        {
            "id": 120670,
            "original_name": "Aufgedeckt - R\u00e4tsel der Geschichte",
            "popularity": 0.6
        },
        {
            "id": 121248,
            "original_name": "Frauen, die Geschichte machten",
            "popularity": 1.004
        },
        {
            "id": 121454,
            "original_name": "Die Br\u00e4uteschule 1958",
            "popularity": 0.6
        },
        {
            "id": 121480,
            "original_name": "Wirtshausgeschichten aus Bayern",
            "popularity": 0.6
        },
        {
            "id": 123428,
            "original_name": "Hofgeschichten",
            "popularity": 0.6
        },
        {
            "id": 128125,
            "original_name": "Die Geschichte eines Abends",
            "popularity": 0.669
        },
        {
            "id": 128137,
            "original_name": "Filmgeschichte(n) aus \u00d6sterreich",
            "popularity": 0.844
        },
        {
            "id": 128280,
            "original_name": "Der Geschmack Europas",
            "popularity": 0.6
        },
        {
            "id": 129313,
            "original_name": "stark! Kinder erz\u00e4hlen ihre Geschichte",
            "popularity": 0.6
        },
        {
            "id": 129487,
            "original_name": "Geschiedenis mijner jeugd",
            "popularity": 0.6
        },
        {
            "id": 130510,
            "original_name": "Lost Women Art - Ein vergessenes St\u00fcck Kunstgeschichte",
            "popularity": 0.84
        },
        {
            "id": 131364,
            "original_name": "Ready for Preschool",
            "popularity": 0.887
        },
        {
            "id": 133352,
            "original_name": "Die Jahreschronik des Dritten Reichs",
            "popularity": 0.6
        },
        {
            "id": 136713,
            "original_name": "Die Geschichte der Deutschen Wehrmacht",
            "popularity": 0.6
        },
        {
            "id": 137401,
            "original_name": "Wie ein Fremder: Eine deutsche Popmusik-Geschichte",
            "popularity": 0.676
        },
        {
            "id": 137410,
            "original_name": "Geschichte im Ersten",
            "popularity": 0.6
        },
        {
            "id": 139315,
            "original_name": "Rebecca - Was geschah mit unserer Tochter?",
            "popularity": 1.241
        },
        {
            "id": 152281,
            "original_name": "Unheimliche Geschichten",
            "popularity": 0.6
        },
        {
            "id": 152450,
            "original_name": "Es geschah in NRW",
            "popularity": 0.6
        }
    ],
    "relations": [
        {
            "character": "escha"
        },
        {
            "character": "eschi"
        },
        {
            "character": "esche"
        },
        {
            "character": "eschl"
        },
        {
            "character": "eschs"
        },
        {
            "character": "escho"
        },
        {
            "character": "eschr"
        },
        {
            "character": "eschb"
        },
        {
            "character": "eschu"
        },
        {
            "character": "eschm"
        }
    ],
    "top20": [
        {
            "id": 81857,
            "original_name": "Heimatgeschichten",
            "popularity": 6.046
        },
        {
            "id": 90208,
            "original_name": "Wei\u00dfblaue Wintergeschichten",
            "popularity": 3.66
        },
        {
            "id": 41049,
            "original_name": "Wei\u00dfblaue Geschichten",
            "popularity": 3.394
        },
        {
            "id": 63049,
            "original_name": "A.S. Gefahr ist sein Gesch\u00e4ft",
            "popularity": 3.382
        },
        {
            "id": 63796,
            "original_name": "Pariser Geschichten",
            "popularity": 3.018
        },
        {
            "id": 107368,
            "original_name": "Einfach Kathi - Resch & Lieblich",
            "popularity": 2.963
        },
        {
            "id": 117858,
            "original_name": "Showgeschichten",
            "popularity": 2.953
        },
        {
            "id": 61099,
            "original_name": "Sphinx \u2013 Geheimnisse der Geschichte",
            "popularity": 2.853
        },
        {
            "id": 60800,
            "original_name": "Evelyn Hamanns Geschichten aus dem Leben",
            "popularity": 2.625
        },
        {
            "id": 49983,
            "original_name": "Leschs Kosmos",
            "popularity": 2.598
        },
        {
            "id": 116638,
            "original_name": "Unsere Geschichte",
            "popularity": 2.174
        },
        {
            "id": 63973,
            "original_name": "Es geschah an der Grenze",
            "popularity": 1.96
        },
        {
            "id": 34480,
            "original_name": "The Fran Drescher Show",
            "popularity": 1.867
        },
        {
            "id": 40525,
            "original_name": "Beschlossen und verk\u00fcndet",
            "popularity": 1.84
        },
        {
            "id": 114965,
            "original_name": "Life \u2013 Menschen, Momente, Geschichten",
            "popularity": 1.799
        },
        {
            "id": 55315,
            "original_name": "Die Geschichte Mitteldeutschlands",
            "popularity": 1.776
        },
        {
            "id": 74713,
            "original_name": "Geschichten aus den Bergen",
            "popularity": 1.774
        },
        {
            "id": 94410,
            "original_name": "Verbrechen, die Geschichte machten",
            "popularity": 1.607
        },
        {
            "id": 60125,
            "original_name": "Frag den Lesch",
            "popularity": 1.577
        },
        {
            "id": 61167,
            "original_name": "Komische Geschichten mit Georg Thomalla",
            "popularity": 1.565
        }
    ]
}