{
    "data": [
        {
            "id": 2993,
            "original_name": "Wednesday Night Hoops",
            "popularity": 0.6
        },
        {
            "id": 3997,
            "original_name": "Super Tuesday",
            "popularity": 0.6
        },
        {
            "id": 4664,
            "original_name": "Wednesday Night Baseball",
            "popularity": 0.6
        },
        {
            "id": 8787,
            "original_name": "Tuesday Rendezvous",
            "popularity": 0.6
        },
        {
            "id": 9817,
            "original_name": "Tuesday Night Book Club",
            "popularity": 0.6
        },
        {
            "id": 10314,
            "original_name": "Tuesday Night Titans",
            "popularity": 0.6
        },
        {
            "id": 10342,
            "original_name": "USA Tuesday Night Fights",
            "popularity": 0.6
        },
        {
            "id": 10855,
            "original_name": "NBA Wednesday",
            "popularity": 0.6
        },
        {
            "id": 11303,
            "original_name": "The Wednesday Play",
            "popularity": 11.37
        },
        {
            "id": 12321,
            "original_name": "Wednesday 9:30 (8:30 Central)",
            "popularity": 2.359
        },
        {
            "id": 14863,
            "original_name": "Dick Clark's LIVE Wednesday",
            "popularity": 0.6
        },
        {
            "id": 16701,
            "original_name": "Tuesday Night Riot",
            "popularity": 0.6
        },
        {
            "id": 19874,
            "original_name": "First Tuesday",
            "popularity": 0.6
        },
        {
            "id": 20196,
            "original_name": "First Tuesday Book Club",
            "popularity": 1.207
        },
        {
            "id": 27249,
            "original_name": "The Wednesday Thriller",
            "popularity": 0.6
        },
        {
            "id": 39028,
            "original_name": "The CBS Tuesday Movie",
            "popularity": 0.6
        },
        {
            "id": 39624,
            "original_name": "The Snoop Sisters NBC Tuesday Mystery Movie",
            "popularity": 0.6
        },
        {
            "id": 39873,
            "original_name": "Michael: Tuesdays and Thursdays",
            "popularity": 0.915
        },
        {
            "id": 42541,
            "original_name": "Scientific Tuesdays",
            "popularity": 0.6
        },
        {
            "id": 55110,
            "original_name": "First Tuesday",
            "popularity": 0.6
        },
        {
            "id": 55562,
            "original_name": "Tuesday Night Hangouts",
            "popularity": 0.6
        },
        {
            "id": 56693,
            "original_name": "Tuesday Varieties",
            "popularity": 0.6
        },
        {
            "id": 56837,
            "original_name": "The New CBS Tuesday Night Movies",
            "popularity": 0.6
        },
        {
            "id": 59339,
            "original_name": "Wednesday's Child",
            "popularity": 0.6
        },
        {
            "id": 59482,
            "original_name": "The Tuesday Special",
            "popularity": 0.6
        },
        {
            "id": 67330,
            "original_name": "Any Given Wednesday with Bill Simmons",
            "popularity": 1.036
        },
        {
            "id": 72801,
            "original_name": "Dana White's Tuesday Night Contender Series",
            "popularity": 2.267
        },
        {
            "id": 87729,
            "original_name": "Leesdas Lettervos Boekentas",
            "popularity": 0.6
        },
        {
            "id": 92552,
            "original_name": "Adult Wednesday",
            "popularity": 0.695
        },
        {
            "id": 101018,
            "original_name": "Wednesday Addiction",
            "popularity": 0.6
        },
        {
            "id": 105490,
            "original_name": "Frances Tuesday",
            "popularity": 0.6
        },
        {
            "id": 119051,
            "original_name": "Wednesday",
            "popularity": 3.384
        }
    ],
    "relations": [
        {
            "character": "esday"
        },
        {
            "character": "esdas"
        }
    ],
    "top20": [
        {
            "id": 11303,
            "original_name": "The Wednesday Play",
            "popularity": 11.37
        },
        {
            "id": 119051,
            "original_name": "Wednesday",
            "popularity": 3.384
        },
        {
            "id": 12321,
            "original_name": "Wednesday 9:30 (8:30 Central)",
            "popularity": 2.359
        },
        {
            "id": 72801,
            "original_name": "Dana White's Tuesday Night Contender Series",
            "popularity": 2.267
        },
        {
            "id": 20196,
            "original_name": "First Tuesday Book Club",
            "popularity": 1.207
        },
        {
            "id": 67330,
            "original_name": "Any Given Wednesday with Bill Simmons",
            "popularity": 1.036
        },
        {
            "id": 39873,
            "original_name": "Michael: Tuesdays and Thursdays",
            "popularity": 0.915
        },
        {
            "id": 92552,
            "original_name": "Adult Wednesday",
            "popularity": 0.695
        },
        {
            "id": 2993,
            "original_name": "Wednesday Night Hoops",
            "popularity": 0.6
        },
        {
            "id": 10314,
            "original_name": "Tuesday Night Titans",
            "popularity": 0.6
        },
        {
            "id": 19874,
            "original_name": "First Tuesday",
            "popularity": 0.6
        },
        {
            "id": 10342,
            "original_name": "USA Tuesday Night Fights",
            "popularity": 0.6
        },
        {
            "id": 3997,
            "original_name": "Super Tuesday",
            "popularity": 0.6
        },
        {
            "id": 8787,
            "original_name": "Tuesday Rendezvous",
            "popularity": 0.6
        },
        {
            "id": 9817,
            "original_name": "Tuesday Night Book Club",
            "popularity": 0.6
        },
        {
            "id": 16701,
            "original_name": "Tuesday Night Riot",
            "popularity": 0.6
        },
        {
            "id": 10855,
            "original_name": "NBA Wednesday",
            "popularity": 0.6
        },
        {
            "id": 14863,
            "original_name": "Dick Clark's LIVE Wednesday",
            "popularity": 0.6
        },
        {
            "id": 27249,
            "original_name": "The Wednesday Thriller",
            "popularity": 0.6
        },
        {
            "id": 4664,
            "original_name": "Wednesday Night Baseball",
            "popularity": 0.6
        }
    ]
}