{
    "data": [
        {
            "id": 50328,
            "original_name": "Ketika Cinta Bertasbih Spesial Ramadan",
            "popularity": 0.6
        },
        {
            "id": 114545,
            "original_name": "Ambulansen - julespesial",
            "popularity": 0.614
        },
        {
            "id": 114784,
            "original_name": "Insider spesial",
            "popularity": 0.6
        },
        {
            "id": 114931,
            "original_name": "Spesialenheten",
            "popularity": 0.67
        },
        {
            "id": 152338,
            "original_name": "Alle mot alle julespesial",
            "popularity": 5.379
        }
    ],
    "relations": [],
    "top20": [
        {
            "id": 50328,
            "original_name": "Ketika Cinta Bertasbih Spesial Ramadan",
            "popularity": 0.6
        },
        {
            "id": 114545,
            "original_name": "Ambulansen - julespesial",
            "popularity": 0.614
        },
        {
            "id": 114784,
            "original_name": "Insider spesial",
            "popularity": 0.6
        },
        {
            "id": 114931,
            "original_name": "Spesialenheten",
            "popularity": 0.67
        },
        {
            "id": 152338,
            "original_name": "Alle mot alle julespesial",
            "popularity": 5.379
        }
    ]
}