{
    "data": [
        {
            "id": 712,
            "original_name": "Designing Women",
            "popularity": 13.324
        },
        {
            "id": 13512,
            "original_name": "Designing for the Sexes",
            "popularity": 1.827
        },
        {
            "id": 36753,
            "original_name": "Designing The Decades",
            "popularity": 0.6
        },
        {
            "id": 41361,
            "original_name": "Designing Spaces",
            "popularity": 4.327
        },
        {
            "id": 146337,
            "original_name": "Designing Dreams",
            "popularity": 0.955
        }
    ],
    "relations": [],
    "top20": [
        {
            "id": 712,
            "original_name": "Designing Women",
            "popularity": 13.324
        },
        {
            "id": 13512,
            "original_name": "Designing for the Sexes",
            "popularity": 1.827
        },
        {
            "id": 36753,
            "original_name": "Designing The Decades",
            "popularity": 0.6
        },
        {
            "id": 41361,
            "original_name": "Designing Spaces",
            "popularity": 4.327
        },
        {
            "id": 146337,
            "original_name": "Designing Dreams",
            "popularity": 0.955
        }
    ]
}