{
    "data": [
        {
            "id": 112096,
            "original_name": "Esquadr\u00e3o da Moda",
            "popularity": 0.6
        },
        {
            "id": 118713,
            "original_name": "O Esquadr\u00e3o dos Monstros",
            "popularity": 0.6
        },
        {
            "id": 139398,
            "original_name": "Esquadr\u00e3o do Amor",
            "popularity": 0.6
        }
    ],
    "relations": [],
    "top20": [
        {
            "id": 112096,
            "original_name": "Esquadr\u00e3o da Moda",
            "popularity": 0.6
        },
        {
            "id": 118713,
            "original_name": "O Esquadr\u00e3o dos Monstros",
            "popularity": 0.6
        },
        {
            "id": 139398,
            "original_name": "Esquadr\u00e3o do Amor",
            "popularity": 0.6
        }
    ]
}