{
    "data": [
        {
            "id": 86683,
            "original_name": "Mission accessible",
            "popularity": 0.6
        }
    ],
    "relations": [],
    "top20": [
        {
            "id": 86683,
            "original_name": "Mission accessible",
            "popularity": 0.6
        }
    ]
}