{
    "data": [
        {
            "id": 30250,
            "original_name": "The Protestant Revolution",
            "popularity": 0.6
        },
        {
            "id": 46246,
            "original_name": "Le Cose Che Restano",
            "popularity": 0.6
        },
        {
            "id": 49227,
            "original_name": "Kesanli Ali destani",
            "popularity": 0.6
        },
        {
            "id": 49593,
            "original_name": "Ke\u015fanl\u0131 Ali Destan\u0131",
            "popularity": 0.6
        },
        {
            "id": 49744,
            "original_name": "Ke\u015fanl\u0131 Ali Destan\u0131",
            "popularity": 0.6
        },
        {
            "id": 84151,
            "original_name": "Son Destan",
            "popularity": 1.45
        },
        {
            "id": 91423,
            "original_name": "Poste restante",
            "popularity": 3.228
        },
        {
            "id": 105170,
            "original_name": "Shekarestan",
            "popularity": 0.6
        },
        {
            "id": 126710,
            "original_name": "\u00dcber Grenzen - mit Vollgas in den Ruhestand",
            "popularity": 0.6
        },
        {
            "id": 136506,
            "original_name": "Destan",
            "popularity": 5.671
        }
    ],
    "relations": [],
    "top20": [
        {
            "id": 30250,
            "original_name": "The Protestant Revolution",
            "popularity": 0.6
        },
        {
            "id": 46246,
            "original_name": "Le Cose Che Restano",
            "popularity": 0.6
        },
        {
            "id": 49227,
            "original_name": "Kesanli Ali destani",
            "popularity": 0.6
        },
        {
            "id": 49593,
            "original_name": "Ke\u015fanl\u0131 Ali Destan\u0131",
            "popularity": 0.6
        },
        {
            "id": 49744,
            "original_name": "Ke\u015fanl\u0131 Ali Destan\u0131",
            "popularity": 0.6
        },
        {
            "id": 84151,
            "original_name": "Son Destan",
            "popularity": 1.45
        },
        {
            "id": 91423,
            "original_name": "Poste restante",
            "popularity": 3.228
        },
        {
            "id": 105170,
            "original_name": "Shekarestan",
            "popularity": 0.6
        },
        {
            "id": 126710,
            "original_name": "\u00dcber Grenzen - mit Vollgas in den Ruhestand",
            "popularity": 0.6
        },
        {
            "id": 136506,
            "original_name": "Destan",
            "popularity": 5.671
        }
    ]
}