{
    "data": [
        {
            "id": 134316,
            "original_name": "Metalworks!",
            "popularity": 0.6
        }
    ],
    "relations": [],
    "top20": [
        {
            "id": 134316,
            "original_name": "Metalworks!",
            "popularity": 0.6
        }
    ]
}