{
    "data": [
        {
            "id": 478,
            "original_name": "Captain Planet and the Planeteers",
            "popularity": 31.165
        },
        {
            "id": 12977,
            "original_name": "Albert the Fifth Musketeer",
            "popularity": 1.228
        },
        {
            "id": 23028,
            "original_name": "The Further Adventures of the Three Musketeers",
            "popularity": 1.741
        },
        {
            "id": 23559,
            "original_name": "The Nineteenth Hole",
            "popularity": 0.84
        },
        {
            "id": 28418,
            "original_name": "The Three Musketeers",
            "popularity": 1.303
        },
        {
            "id": 28913,
            "original_name": "The Three Musketeers",
            "popularity": 1.751
        },
        {
            "id": 31988,
            "original_name": "The Three Musketeers",
            "popularity": 3.366
        },
        {
            "id": 49682,
            "original_name": "Who Are the DeBolts? And Where Did They Get Nineteen Kids?",
            "popularity": 0.6
        },
        {
            "id": 53589,
            "original_name": "Apimaheuma Maha Setee",
            "popularity": 0.6
        },
        {
            "id": 57736,
            "original_name": "The Musketeers",
            "popularity": 18.981
        },
        {
            "id": 76518,
            "original_name": "La Femme Musketeer",
            "popularity": 3.379
        },
        {
            "id": 84181,
            "original_name": "The Casketeers",
            "popularity": 1.206
        },
        {
            "id": 95543,
            "original_name": "The Rocketeer",
            "popularity": 6.991
        },
        {
            "id": 104858,
            "original_name": "The Basketeers",
            "popularity": 2.641
        }
    ],
    "relations": [],
    "top20": [
        {
            "id": 478,
            "original_name": "Captain Planet and the Planeteers",
            "popularity": 31.165
        },
        {
            "id": 12977,
            "original_name": "Albert the Fifth Musketeer",
            "popularity": 1.228
        },
        {
            "id": 23028,
            "original_name": "The Further Adventures of the Three Musketeers",
            "popularity": 1.741
        },
        {
            "id": 23559,
            "original_name": "The Nineteenth Hole",
            "popularity": 0.84
        },
        {
            "id": 28418,
            "original_name": "The Three Musketeers",
            "popularity": 1.303
        },
        {
            "id": 28913,
            "original_name": "The Three Musketeers",
            "popularity": 1.751
        },
        {
            "id": 31988,
            "original_name": "The Three Musketeers",
            "popularity": 3.366
        },
        {
            "id": 49682,
            "original_name": "Who Are the DeBolts? And Where Did They Get Nineteen Kids?",
            "popularity": 0.6
        },
        {
            "id": 53589,
            "original_name": "Apimaheuma Maha Setee",
            "popularity": 0.6
        },
        {
            "id": 57736,
            "original_name": "The Musketeers",
            "popularity": 18.981
        },
        {
            "id": 76518,
            "original_name": "La Femme Musketeer",
            "popularity": 3.379
        },
        {
            "id": 84181,
            "original_name": "The Casketeers",
            "popularity": 1.206
        },
        {
            "id": 95543,
            "original_name": "The Rocketeer",
            "popularity": 6.991
        },
        {
            "id": 104858,
            "original_name": "The Basketeers",
            "popularity": 2.641
        }
    ]
}