{
    "data": [
        {
            "id": 49147,
            "original_name": "Wildlife Safari In Ethiopia",
            "popularity": 0.6
        }
    ],
    "relations": [],
    "top20": [
        {
            "id": 49147,
            "original_name": "Wildlife Safari In Ethiopia",
            "popularity": 0.6
        }
    ]
}