{
    "data": [
        {
            "id": 5293,
            "original_name": "Vietnam Idol",
            "popularity": 0.6
        },
        {
            "id": 6842,
            "original_name": "Everest Vietnam",
            "popularity": 0.6
        },
        {
            "id": 7660,
            "original_name": "Sweetness in the Salt",
            "popularity": 0.6
        },
        {
            "id": 12243,
            "original_name": "Vietnam Rose",
            "popularity": 0.6
        },
        {
            "id": 14644,
            "original_name": "Vietnam: The Ten Thousand Day War",
            "popularity": 0.9
        },
        {
            "id": 16610,
            "original_name": "NT van Ketnet",
            "popularity": 0.6
        },
        {
            "id": 20894,
            "original_name": "Da li ste pametniji od \u0111aka petaka?",
            "popularity": 0.6
        },
        {
            "id": 21335,
            "original_name": "Vietnam: A Television History",
            "popularity": 1.095
        },
        {
            "id": 21354,
            "original_name": "The Hollow Victory: Vietnam Under Communism",
            "popularity": 0.6
        },
        {
            "id": 21369,
            "original_name": "Vietnam: Ten Years Later",
            "popularity": 0.6
        },
        {
            "id": 35821,
            "original_name": "Luke Nguyen's Vietnam",
            "popularity": 0.6
        },
        {
            "id": 37025,
            "original_name": "\u010cetnick\u00e9 humoresky",
            "popularity": 1.153
        },
        {
            "id": 39695,
            "original_name": "Pod sretnom zvijezdom",
            "popularity": 0.6
        },
        {
            "id": 40238,
            "original_name": "Vietnam",
            "popularity": 2.72
        },
        {
            "id": 41919,
            "original_name": "T\u00ecm ki\u1ebfm t\u00e0i n\u0103ng: Vietnam's Got Talent",
            "popularity": 0.6
        },
        {
            "id": 42799,
            "original_name": "Vietnam in HD",
            "popularity": 2.733
        },
        {
            "id": 46434,
            "original_name": "The Vietnam War",
            "popularity": 9.601
        },
        {
            "id": 47114,
            "original_name": "Vietnam POWs: A Story of Survival",
            "popularity": 0.6
        },
        {
            "id": 47653,
            "original_name": "Dear America: Letters Home from Vietnam",
            "popularity": 0.6
        },
        {
            "id": 50122,
            "original_name": "Vua \u0111\u1ea7u b\u1ebfp: MasterChef Vietnam",
            "popularity": 1.384
        },
        {
            "id": 51577,
            "original_name": "SFRJ za pocetnike",
            "popularity": 0.6
        },
        {
            "id": 55512,
            "original_name": "Anh Does Vietnam",
            "popularity": 0.6
        },
        {
            "id": 59216,
            "original_name": "Viva Vietnam: A White Trash Adventure Tour",
            "popularity": 0.6
        },
        {
            "id": 66625,
            "original_name": "Vietnam: 50 Years Remembered",
            "popularity": 2.132
        },
        {
            "id": 69111,
            "original_name": "Umetni raj",
            "popularity": 0.6
        },
        {
            "id": 69619,
            "original_name": "\u010cetn\u00edci z Luha\u010dovic",
            "popularity": 0.941
        },
        {
            "id": 76584,
            "original_name": "Jedne letnje no\u0107i",
            "popularity": 1.4
        },
        {
            "id": 77255,
            "original_name": "Inside The Vietnam War",
            "popularity": 0.6
        },
        {
            "id": 77478,
            "original_name": "La Guerre du Vietnam - images inconnues",
            "popularity": 1.4
        },
        {
            "id": 87993,
            "original_name": "Kamu ve Vietnamu",
            "popularity": 0.6
        },
        {
            "id": 97460,
            "original_name": "The Vietnam War Collection",
            "popularity": 0.6
        },
        {
            "id": 98891,
            "original_name": "Vietnam - Les deux guerres",
            "popularity": 0.6
        },
        {
            "id": 104116,
            "original_name": "Wings Over Vietnam: The Missions",
            "popularity": 0.6
        },
        {
            "id": 113663,
            "original_name": "Vietnam  America's Conflict",
            "popularity": 0.6
        },
        {
            "id": 115742,
            "original_name": "Vietnam: The War That Made Australia",
            "popularity": 0.6
        },
        {
            "id": 117335,
            "original_name": "Vietnam: On the Frontlines",
            "popularity": 0.6
        },
        {
            "id": 117338,
            "original_name": "Vietnam Combat",
            "popularity": 0.6
        },
        {
            "id": 129666,
            "original_name": "Battlefield: Vietnam",
            "popularity": 0.6
        }
    ],
    "relations": [
        {
            "character": "etna"
        },
        {
            "character": "etne"
        },
        {
            "character": "etni"
        },
        {
            "character": "etno"
        },
        {
            "character": "etnj"
        }
    ],
    "top20": [
        {
            "id": 46434,
            "original_name": "The Vietnam War",
            "popularity": 9.601
        },
        {
            "id": 42799,
            "original_name": "Vietnam in HD",
            "popularity": 2.733
        },
        {
            "id": 40238,
            "original_name": "Vietnam",
            "popularity": 2.72
        },
        {
            "id": 66625,
            "original_name": "Vietnam: 50 Years Remembered",
            "popularity": 2.132
        },
        {
            "id": 77478,
            "original_name": "La Guerre du Vietnam - images inconnues",
            "popularity": 1.4
        },
        {
            "id": 76584,
            "original_name": "Jedne letnje no\u0107i",
            "popularity": 1.4
        },
        {
            "id": 50122,
            "original_name": "Vua \u0111\u1ea7u b\u1ebfp: MasterChef Vietnam",
            "popularity": 1.384
        },
        {
            "id": 37025,
            "original_name": "\u010cetnick\u00e9 humoresky",
            "popularity": 1.153
        },
        {
            "id": 21335,
            "original_name": "Vietnam: A Television History",
            "popularity": 1.095
        },
        {
            "id": 69619,
            "original_name": "\u010cetn\u00edci z Luha\u010dovic",
            "popularity": 0.941
        },
        {
            "id": 14644,
            "original_name": "Vietnam: The Ten Thousand Day War",
            "popularity": 0.9
        },
        {
            "id": 7660,
            "original_name": "Sweetness in the Salt",
            "popularity": 0.6
        },
        {
            "id": 16610,
            "original_name": "NT van Ketnet",
            "popularity": 0.6
        },
        {
            "id": 21354,
            "original_name": "The Hollow Victory: Vietnam Under Communism",
            "popularity": 0.6
        },
        {
            "id": 6842,
            "original_name": "Everest Vietnam",
            "popularity": 0.6
        },
        {
            "id": 21369,
            "original_name": "Vietnam: Ten Years Later",
            "popularity": 0.6
        },
        {
            "id": 20894,
            "original_name": "Da li ste pametniji od \u0111aka petaka?",
            "popularity": 0.6
        },
        {
            "id": 5293,
            "original_name": "Vietnam Idol",
            "popularity": 0.6
        },
        {
            "id": 35821,
            "original_name": "Luke Nguyen's Vietnam",
            "popularity": 0.6
        },
        {
            "id": 12243,
            "original_name": "Vietnam Rose",
            "popularity": 0.6
        }
    ]
}