{
    "data": [
        {
            "id": 11667,
            "original_name": "Petrocelli",
            "popularity": 10.376
        }
    ],
    "relations": [],
    "top20": [
        {
            "id": 11667,
            "original_name": "Petrocelli",
            "popularity": 10.376
        }
    ]
}