{
    "data": [
        {
            "id": 85050,
            "original_name": "Sonneborn rettet die Welt",
            "popularity": 0.6
        },
        {
            "id": 103353,
            "original_name": "Guldfeber \u2013 st\u00f6lderna p\u00e5 Kungliga Myntkabinettet",
            "popularity": 0.62
        },
        {
            "id": 121027,
            "original_name": "Kl\u00e6dt af p\u00e5 nettet",
            "popularity": 0.6
        },
        {
            "id": 123404,
            "original_name": "Mirella Schulze rettet die Welt",
            "popularity": 1.176
        }
    ],
    "relations": [],
    "top20": [
        {
            "id": 85050,
            "original_name": "Sonneborn rettet die Welt",
            "popularity": 0.6
        },
        {
            "id": 103353,
            "original_name": "Guldfeber \u2013 st\u00f6lderna p\u00e5 Kungliga Myntkabinettet",
            "popularity": 0.62
        },
        {
            "id": 121027,
            "original_name": "Kl\u00e6dt af p\u00e5 nettet",
            "popularity": 0.6
        },
        {
            "id": 123404,
            "original_name": "Mirella Schulze rettet die Welt",
            "popularity": 1.176
        }
    ]
}