{
    "data": [
        {
            "id": 2347,
            "original_name": "Gettu betur",
            "popularity": 0.6
        },
        {
            "id": 40753,
            "original_name": "Die Rettungsflieger",
            "popularity": 4.999
        },
        {
            "id": 133971,
            "original_name": "112 \u2013 Rettung in letzter Minute",
            "popularity": 0.6
        }
    ],
    "relations": [],
    "top20": [
        {
            "id": 2347,
            "original_name": "Gettu betur",
            "popularity": 0.6
        },
        {
            "id": 40753,
            "original_name": "Die Rettungsflieger",
            "popularity": 4.999
        },
        {
            "id": 133971,
            "original_name": "112 \u2013 Rettung in letzter Minute",
            "popularity": 0.6
        }
    ]
}