{
    "data": [
        {
            "id": 104553,
            "original_name": "Bolek i Lolek w Europie",
            "popularity": 0.62
        }
    ],
    "relations": [],
    "top20": [
        {
            "id": 104553,
            "original_name": "Bolek i Lolek w Europie",
            "popularity": 0.62
        }
    ]
}