{
    "data": [
        {
            "id": 37088,
            "original_name": "Hjernevask",
            "popularity": 0.6
        },
        {
            "id": 105493,
            "original_name": "Las Nuevas Aventuras De Federrico",
            "popularity": 0.804
        },
        {
            "id": 116597,
            "original_name": "D-1 DEVASTATOR",
            "popularity": 0.6
        }
    ],
    "relations": [],
    "top20": [
        {
            "id": 37088,
            "original_name": "Hjernevask",
            "popularity": 0.6
        },
        {
            "id": 105493,
            "original_name": "Las Nuevas Aventuras De Federrico",
            "popularity": 0.804
        },
        {
            "id": 116597,
            "original_name": "D-1 DEVASTATOR",
            "popularity": 0.6
        }
    ]
}