{
    "data": [
        {
            "id": 71716,
            "original_name": "Reverie",
            "popularity": 13.098
        }
    ],
    "relations": [],
    "top20": [
        {
            "id": 71716,
            "original_name": "Reverie",
            "popularity": 13.098
        }
    ]
}