{
    "data": [
        {
            "id": 444,
            "original_name": "The Evidence",
            "popularity": 2.839
        },
        {
            "id": 10301,
            "original_name": "Haunting Evidence",
            "popularity": 0.6
        },
        {
            "id": 16579,
            "original_name": "Best Evidence",
            "popularity": 0.6
        },
        {
            "id": 18092,
            "original_name": "Extreme Evidence",
            "popularity": 0.6
        },
        {
            "id": 23703,
            "original_name": "Silent Evidence",
            "popularity": 0.6
        },
        {
            "id": 24880,
            "original_name": "Body of Evidence",
            "popularity": 0.923
        },
        {
            "id": 25190,
            "original_name": "Trace Evidence: The Case Files of Dr. Henry Lee",
            "popularity": 0.6
        },
        {
            "id": 26841,
            "original_name": "Alternative Medicine: The Evidence",
            "popularity": 0.6
        },
        {
            "id": 29249,
            "original_name": "Ancient Evidence",
            "popularity": 0.6
        },
        {
            "id": 35666,
            "original_name": "48 Hours: Hard Evidence",
            "popularity": 0.6
        },
        {
            "id": 38195,
            "original_name": "On the Evidence",
            "popularity": 0.6
        },
        {
            "id": 42252,
            "original_name": "Bodies of Evidence",
            "popularity": 3.063
        },
        {
            "id": 60313,
            "original_name": "Tainted Evidence - Forensics on Trial",
            "popularity": 0.6
        },
        {
            "id": 61805,
            "original_name": "UFO: Best Evidence",
            "popularity": 0.6
        },
        {
            "id": 69688,
            "original_name": "Is O.J. Innocent? The Missing Evidence",
            "popularity": 1.436
        },
        {
            "id": 69814,
            "original_name": "Hard Evidence: OJ Is Innocent",
            "popularity": 0.6
        },
        {
            "id": 71357,
            "original_name": "The Missing Evidence",
            "popularity": 0.846
        },
        {
            "id": 72766,
            "original_name": "Amelia Earhart: The Lost Evidence",
            "popularity": 0.669
        },
        {
            "id": 79308,
            "original_name": "The Great Rameses: New Evidence Revealed",
            "popularity": 0.6
        },
        {
            "id": 79500,
            "original_name": "UFOs: The Lost Evidence",
            "popularity": 1.634
        },
        {
            "id": 80011,
            "original_name": "Evidence of Innocence",
            "popularity": 0.6
        },
        {
            "id": 86218,
            "original_name": "Pompeii's Final Hours: New Evidence",
            "popularity": 1.658
        },
        {
            "id": 87738,
            "original_name": "Strange Evidence",
            "popularity": 5.869
        },
        {
            "id": 92171,
            "original_name": "Alien\u00edgenas, la evidencia definitiva",
            "popularity": 1.349
        },
        {
            "id": 117035,
            "original_name": "The Lost Evidence",
            "popularity": 0.6
        }
    ],
    "relations": [
        {
            "character": "evidenc"
        }
    ],
    "top20": [
        {
            "id": 87738,
            "original_name": "Strange Evidence",
            "popularity": 5.869
        },
        {
            "id": 42252,
            "original_name": "Bodies of Evidence",
            "popularity": 3.063
        },
        {
            "id": 444,
            "original_name": "The Evidence",
            "popularity": 2.839
        },
        {
            "id": 86218,
            "original_name": "Pompeii's Final Hours: New Evidence",
            "popularity": 1.658
        },
        {
            "id": 79500,
            "original_name": "UFOs: The Lost Evidence",
            "popularity": 1.634
        },
        {
            "id": 69688,
            "original_name": "Is O.J. Innocent? The Missing Evidence",
            "popularity": 1.436
        },
        {
            "id": 92171,
            "original_name": "Alien\u00edgenas, la evidencia definitiva",
            "popularity": 1.349
        },
        {
            "id": 24880,
            "original_name": "Body of Evidence",
            "popularity": 0.923
        },
        {
            "id": 71357,
            "original_name": "The Missing Evidence",
            "popularity": 0.846
        },
        {
            "id": 72766,
            "original_name": "Amelia Earhart: The Lost Evidence",
            "popularity": 0.669
        },
        {
            "id": 38195,
            "original_name": "On the Evidence",
            "popularity": 0.6
        },
        {
            "id": 26841,
            "original_name": "Alternative Medicine: The Evidence",
            "popularity": 0.6
        },
        {
            "id": 35666,
            "original_name": "48 Hours: Hard Evidence",
            "popularity": 0.6
        },
        {
            "id": 10301,
            "original_name": "Haunting Evidence",
            "popularity": 0.6
        },
        {
            "id": 60313,
            "original_name": "Tainted Evidence - Forensics on Trial",
            "popularity": 0.6
        },
        {
            "id": 18092,
            "original_name": "Extreme Evidence",
            "popularity": 0.6
        },
        {
            "id": 16579,
            "original_name": "Best Evidence",
            "popularity": 0.6
        },
        {
            "id": 29249,
            "original_name": "Ancient Evidence",
            "popularity": 0.6
        },
        {
            "id": 25190,
            "original_name": "Trace Evidence: The Case Files of Dr. Henry Lee",
            "popularity": 0.6
        },
        {
            "id": 23703,
            "original_name": "Silent Evidence",
            "popularity": 0.6
        }
    ]
}