{
    "data": [
        {
            "id": 13601,
            "original_name": "The Root of All Evil?",
            "popularity": 0.988
        },
        {
            "id": 48030,
            "original_name": "The Root of All Evil?",
            "popularity": 0.6
        }
    ],
    "relations": [],
    "top20": [
        {
            "id": 13601,
            "original_name": "The Root of All Evil?",
            "popularity": 0.988
        },
        {
            "id": 48030,
            "original_name": "The Root of All Evil?",
            "popularity": 0.6
        }
    ]
}