{
    "data": [
        {
            "id": 15833,
            "original_name": "Hamari Devrani",
            "popularity": 0.6
        },
        {
            "id": 19093,
            "original_name": "The Chevrolet Tele-Theatre",
            "popularity": 2.547
        },
        {
            "id": 23442,
            "original_name": "Weltevreden op 10: Percy's Place!",
            "popularity": 0.6
        },
        {
            "id": 26055,
            "original_name": "Mevrouw Ten Kate",
            "popularity": 0.6
        },
        {
            "id": 30079,
            "original_name": "Chevrolet On Broadway",
            "popularity": 0.6
        },
        {
            "id": 35663,
            "original_name": "U n\u00e1s v Evrop\u011b",
            "popularity": 0.884
        },
        {
            "id": 47918,
            "original_name": "Lale Devri",
            "popularity": 7.78
        },
        {
            "id": 49699,
            "original_name": "Ta\u015f Devri",
            "popularity": 0.6
        },
        {
            "id": 50979,
            "original_name": "Ha-Chevre Ha-Tovim",
            "popularity": 0.6
        },
        {
            "id": 51430,
            "original_name": "Fosforlu Cevriye",
            "popularity": 0.6
        },
        {
            "id": 60617,
            "original_name": "Na De Bevrijding",
            "popularity": 0.607
        },
        {
            "id": 61767,
            "original_name": "Uzay Evren ve Biz",
            "popularity": 0.75
        },
        {
            "id": 90799,
            "original_name": "Svi cemo se jednog dana kopat' u Evropu",
            "popularity": 0.6
        },
        {
            "id": 92601,
            "original_name": "Lise Devriyesi",
            "popularity": 0.922
        },
        {
            "id": 93733,
            "original_name": "De bevrijding van Vlaanderen",
            "popularity": 0.6
        },
        {
            "id": 97359,
            "original_name": "Barokn\u00ed srdce Evropy",
            "popularity": 1.119
        },
        {
            "id": 108619,
            "original_name": "Geek Evreni Aslanlar\u0131",
            "popularity": 0.84
        },
        {
            "id": 115529,
            "original_name": "Elevr\u00e5det",
            "popularity": 0.84
        },
        {
            "id": 129232,
            "original_name": "Stand-Up Evreni",
            "popularity": 0.84
        },
        {
            "id": 133345,
            "original_name": "Wh@evR!",
            "popularity": 0.84
        }
    ],
    "relations": [],
    "top20": [
        {
            "id": 15833,
            "original_name": "Hamari Devrani",
            "popularity": 0.6
        },
        {
            "id": 19093,
            "original_name": "The Chevrolet Tele-Theatre",
            "popularity": 2.547
        },
        {
            "id": 23442,
            "original_name": "Weltevreden op 10: Percy's Place!",
            "popularity": 0.6
        },
        {
            "id": 26055,
            "original_name": "Mevrouw Ten Kate",
            "popularity": 0.6
        },
        {
            "id": 30079,
            "original_name": "Chevrolet On Broadway",
            "popularity": 0.6
        },
        {
            "id": 35663,
            "original_name": "U n\u00e1s v Evrop\u011b",
            "popularity": 0.884
        },
        {
            "id": 47918,
            "original_name": "Lale Devri",
            "popularity": 7.78
        },
        {
            "id": 49699,
            "original_name": "Ta\u015f Devri",
            "popularity": 0.6
        },
        {
            "id": 50979,
            "original_name": "Ha-Chevre Ha-Tovim",
            "popularity": 0.6
        },
        {
            "id": 51430,
            "original_name": "Fosforlu Cevriye",
            "popularity": 0.6
        },
        {
            "id": 60617,
            "original_name": "Na De Bevrijding",
            "popularity": 0.607
        },
        {
            "id": 61767,
            "original_name": "Uzay Evren ve Biz",
            "popularity": 0.75
        },
        {
            "id": 90799,
            "original_name": "Svi cemo se jednog dana kopat' u Evropu",
            "popularity": 0.6
        },
        {
            "id": 92601,
            "original_name": "Lise Devriyesi",
            "popularity": 0.922
        },
        {
            "id": 93733,
            "original_name": "De bevrijding van Vlaanderen",
            "popularity": 0.6
        },
        {
            "id": 97359,
            "original_name": "Barokn\u00ed srdce Evropy",
            "popularity": 1.119
        },
        {
            "id": 108619,
            "original_name": "Geek Evreni Aslanlar\u0131",
            "popularity": 0.84
        },
        {
            "id": 115529,
            "original_name": "Elevr\u00e5det",
            "popularity": 0.84
        },
        {
            "id": 129232,
            "original_name": "Stand-Up Evreni",
            "popularity": 0.84
        },
        {
            "id": 133345,
            "original_name": "Wh@evR!",
            "popularity": 0.84
        }
    ]
}