{
    "data": [
        {
            "id": 16410,
            "original_name": "Arre Deewano Mujhe Pehchano",
            "popularity": 0.6
        },
        {
            "id": 30765,
            "original_name": "The Heat with Mark McEwan",
            "popularity": 0.6
        },
        {
            "id": 54980,
            "original_name": "Ewan McGregor: Cold Chain Mission",
            "popularity": 0.6
        },
        {
            "id": 55971,
            "original_name": "Wiwa Olaewang",
            "popularity": 0.664
        },
        {
            "id": 58131,
            "original_name": "CBC News Saskatchewan",
            "popularity": 0.6
        },
        {
            "id": 58680,
            "original_name": "Saskatchewan River Delta",
            "popularity": 0.6
        },
        {
            "id": 66115,
            "original_name": "\u5f71\u9c10-KAGEWANI-",
            "popularity": 1.403
        },
        {
            "id": 75278,
            "original_name": "Aisi Deewangi Dekhi Nahi Kahi",
            "popularity": 0.6
        },
        {
            "id": 81673,
            "original_name": "Ye Mera Deewanapan Hai",
            "popularity": 1.784
        },
        {
            "id": 90355,
            "original_name": "Dance Deewane",
            "popularity": 4.108
        },
        {
            "id": 100104,
            "original_name": "Main Dewani",
            "popularity": 0.637
        },
        {
            "id": 100724,
            "original_name": "Deewangi",
            "popularity": 0.6
        },
        {
            "id": 103110,
            "original_name": "Deewangi",
            "popularity": 0.6
        },
        {
            "id": 105728,
            "original_name": "D-Code (Deewangi)",
            "popularity": 1.236
        }
    ],
    "relations": [],
    "top20": [
        {
            "id": 16410,
            "original_name": "Arre Deewano Mujhe Pehchano",
            "popularity": 0.6
        },
        {
            "id": 30765,
            "original_name": "The Heat with Mark McEwan",
            "popularity": 0.6
        },
        {
            "id": 54980,
            "original_name": "Ewan McGregor: Cold Chain Mission",
            "popularity": 0.6
        },
        {
            "id": 55971,
            "original_name": "Wiwa Olaewang",
            "popularity": 0.664
        },
        {
            "id": 58131,
            "original_name": "CBC News Saskatchewan",
            "popularity": 0.6
        },
        {
            "id": 58680,
            "original_name": "Saskatchewan River Delta",
            "popularity": 0.6
        },
        {
            "id": 66115,
            "original_name": "\u5f71\u9c10-KAGEWANI-",
            "popularity": 1.403
        },
        {
            "id": 75278,
            "original_name": "Aisi Deewangi Dekhi Nahi Kahi",
            "popularity": 0.6
        },
        {
            "id": 81673,
            "original_name": "Ye Mera Deewanapan Hai",
            "popularity": 1.784
        },
        {
            "id": 90355,
            "original_name": "Dance Deewane",
            "popularity": 4.108
        },
        {
            "id": 100104,
            "original_name": "Main Dewani",
            "popularity": 0.637
        },
        {
            "id": 100724,
            "original_name": "Deewangi",
            "popularity": 0.6
        },
        {
            "id": 103110,
            "original_name": "Deewangi",
            "popularity": 0.6
        },
        {
            "id": 105728,
            "original_name": "D-Code (Deewangi)",
            "popularity": 1.236
        }
    ]
}