{
    "data": [
        {
            "id": 1746,
            "original_name": "Chewin' the Fat",
            "popularity": 2.04
        },
        {
            "id": 9068,
            "original_name": "American Idol Rewind",
            "popularity": 0.6
        },
        {
            "id": 9953,
            "original_name": "Sewing with Nancy",
            "popularity": 0.6
        },
        {
            "id": 15436,
            "original_name": "80's Rewind",
            "popularity": 0.6
        },
        {
            "id": 19726,
            "original_name": "Rewind",
            "popularity": 0.6
        },
        {
            "id": 22692,
            "original_name": "How to Divorce Without Screwing Up Your Children",
            "popularity": 0.6
        },
        {
            "id": 38037,
            "original_name": "Rewind The 60s",
            "popularity": 1.4
        },
        {
            "id": 42726,
            "original_name": "Kinderen van Dewindt",
            "popularity": 0.6
        },
        {
            "id": 45730,
            "original_name": "Rewind",
            "popularity": 0.6
        },
        {
            "id": 55277,
            "original_name": "Brewing TV",
            "popularity": 0.844
        },
        {
            "id": 59690,
            "original_name": "The Great British Sewing Bee",
            "popularity": 1.543
        },
        {
            "id": 60149,
            "original_name": "Men Brewing Badly",
            "popularity": 0.6
        },
        {
            "id": 64339,
            "original_name": "Chewing Gum",
            "popularity": 5.722
        },
        {
            "id": 64443,
            "original_name": "Einer wird gewinnen",
            "popularity": 4.795
        },
        {
            "id": 74814,
            "original_name": "Beginner gegen Gewinner",
            "popularity": 1.107
        },
        {
            "id": 78119,
            "original_name": "Riley Rewind",
            "popularity": 1.798
        },
        {
            "id": 81836,
            "original_name": "Hauptgewinn: 6",
            "popularity": 1.341
        },
        {
            "id": 91448,
            "original_name": "Rewind with Samina Peerzada",
            "popularity": 1.59
        },
        {
            "id": 94327,
            "original_name": "WWE Wrestlemania Rewind",
            "popularity": 1.216
        },
        {
            "id": 96173,
            "original_name": "Rewind: From The Vault",
            "popularity": 1.716
        },
        {
            "id": 106418,
            "original_name": "Prime Rewind: Inside The Boys",
            "popularity": 2.903
        },
        {
            "id": 107283,
            "original_name": "BB Rewind",
            "popularity": 0.627
        },
        {
            "id": 115734,
            "original_name": "#CoupleChallenge \u2013 Das st\u00e4rkste Team gewinnt",
            "popularity": 1.202
        },
        {
            "id": 117056,
            "original_name": "Die Klimaretter \u2013 Wer spart, gewinnt!",
            "popularity": 0.6
        },
        {
            "id": 117114,
            "original_name": "25 lat niewinno\u015bci. Sprawa Tomka Komendy",
            "popularity": 0.651
        },
        {
            "id": 131299,
            "original_name": "Best of Chewin' the Fat",
            "popularity": 1.109
        },
        {
            "id": 133545,
            "original_name": "NFL Rewind",
            "popularity": 0.6
        },
        {
            "id": 138633,
            "original_name": "Azatokunaito koi wa dekinai Special Viewing Party",
            "popularity": 0.6
        },
        {
            "id": 139310,
            "original_name": "Videoland Viewing Party: De Verraders",
            "popularity": 5.963
        }
    ],
    "relations": [
        {
            "character": "ewind"
        },
        {
            "character": "ewing"
        },
        {
            "character": "ewinn"
        }
    ],
    "top20": [
        {
            "id": 139310,
            "original_name": "Videoland Viewing Party: De Verraders",
            "popularity": 5.963
        },
        {
            "id": 64339,
            "original_name": "Chewing Gum",
            "popularity": 5.722
        },
        {
            "id": 64443,
            "original_name": "Einer wird gewinnen",
            "popularity": 4.795
        },
        {
            "id": 106418,
            "original_name": "Prime Rewind: Inside The Boys",
            "popularity": 2.903
        },
        {
            "id": 1746,
            "original_name": "Chewin' the Fat",
            "popularity": 2.04
        },
        {
            "id": 78119,
            "original_name": "Riley Rewind",
            "popularity": 1.798
        },
        {
            "id": 96173,
            "original_name": "Rewind: From The Vault",
            "popularity": 1.716
        },
        {
            "id": 91448,
            "original_name": "Rewind with Samina Peerzada",
            "popularity": 1.59
        },
        {
            "id": 59690,
            "original_name": "The Great British Sewing Bee",
            "popularity": 1.543
        },
        {
            "id": 38037,
            "original_name": "Rewind The 60s",
            "popularity": 1.4
        },
        {
            "id": 81836,
            "original_name": "Hauptgewinn: 6",
            "popularity": 1.341
        },
        {
            "id": 94327,
            "original_name": "WWE Wrestlemania Rewind",
            "popularity": 1.216
        },
        {
            "id": 115734,
            "original_name": "#CoupleChallenge \u2013 Das st\u00e4rkste Team gewinnt",
            "popularity": 1.202
        },
        {
            "id": 131299,
            "original_name": "Best of Chewin' the Fat",
            "popularity": 1.109
        },
        {
            "id": 74814,
            "original_name": "Beginner gegen Gewinner",
            "popularity": 1.107
        },
        {
            "id": 55277,
            "original_name": "Brewing TV",
            "popularity": 0.844
        },
        {
            "id": 117114,
            "original_name": "25 lat niewinno\u015bci. Sprawa Tomka Komendy",
            "popularity": 0.651
        },
        {
            "id": 107283,
            "original_name": "BB Rewind",
            "popularity": 0.627
        },
        {
            "id": 9953,
            "original_name": "Sewing with Nancy",
            "popularity": 0.6
        },
        {
            "id": 9068,
            "original_name": "American Idol Rewind",
            "popularity": 0.6
        }
    ]
}