{
    "data": [
        {
            "id": 9068,
            "original_name": "American Idol Rewind",
            "popularity": 0.6
        },
        {
            "id": 15436,
            "original_name": "80's Rewind",
            "popularity": 0.6
        },
        {
            "id": 19726,
            "original_name": "Rewind",
            "popularity": 0.6
        },
        {
            "id": 38037,
            "original_name": "Rewind The 60s",
            "popularity": 1.4
        },
        {
            "id": 42726,
            "original_name": "Kinderen van Dewindt",
            "popularity": 0.6
        },
        {
            "id": 45730,
            "original_name": "Rewind",
            "popularity": 0.6
        },
        {
            "id": 78119,
            "original_name": "Riley Rewind",
            "popularity": 1.798
        },
        {
            "id": 91448,
            "original_name": "Rewind with Samina Peerzada",
            "popularity": 1.59
        },
        {
            "id": 94327,
            "original_name": "WWE Wrestlemania Rewind",
            "popularity": 1.216
        },
        {
            "id": 96173,
            "original_name": "Rewind: From The Vault",
            "popularity": 1.716
        },
        {
            "id": 106418,
            "original_name": "Prime Rewind: Inside The Boys",
            "popularity": 2.903
        },
        {
            "id": 107283,
            "original_name": "BB Rewind",
            "popularity": 0.627
        },
        {
            "id": 133545,
            "original_name": "NFL Rewind",
            "popularity": 0.6
        }
    ],
    "relations": [],
    "top20": [
        {
            "id": 9068,
            "original_name": "American Idol Rewind",
            "popularity": 0.6
        },
        {
            "id": 15436,
            "original_name": "80's Rewind",
            "popularity": 0.6
        },
        {
            "id": 19726,
            "original_name": "Rewind",
            "popularity": 0.6
        },
        {
            "id": 38037,
            "original_name": "Rewind The 60s",
            "popularity": 1.4
        },
        {
            "id": 42726,
            "original_name": "Kinderen van Dewindt",
            "popularity": 0.6
        },
        {
            "id": 45730,
            "original_name": "Rewind",
            "popularity": 0.6
        },
        {
            "id": 78119,
            "original_name": "Riley Rewind",
            "popularity": 1.798
        },
        {
            "id": 91448,
            "original_name": "Rewind with Samina Peerzada",
            "popularity": 1.59
        },
        {
            "id": 94327,
            "original_name": "WWE Wrestlemania Rewind",
            "popularity": 1.216
        },
        {
            "id": 96173,
            "original_name": "Rewind: From The Vault",
            "popularity": 1.716
        },
        {
            "id": 106418,
            "original_name": "Prime Rewind: Inside The Boys",
            "popularity": 2.903
        },
        {
            "id": 107283,
            "original_name": "BB Rewind",
            "popularity": 0.627
        },
        {
            "id": 133545,
            "original_name": "NFL Rewind",
            "popularity": 0.6
        }
    ]
}