{
    "data": [
        {
            "id": 693,
            "original_name": "Desperate Housewives",
            "popularity": 125.713
        },
        {
            "id": 10222,
            "original_name": "The Real Housewives of Orange County",
            "popularity": 38.696
        },
        {
            "id": 14808,
            "original_name": "The Real Housewives of New York City",
            "popularity": 25.362
        },
        {
            "id": 17380,
            "original_name": "The Real Housewives of Atlanta",
            "popularity": 33.664
        },
        {
            "id": 17589,
            "original_name": "Housewives' Holiday",
            "popularity": 0.6
        },
        {
            "id": 18204,
            "original_name": "The Real Housewives of New Jersey",
            "popularity": 21.523
        },
        {
            "id": 31493,
            "original_name": "The Real Housewives of D.C.",
            "popularity": 0.6
        },
        {
            "id": 32390,
            "original_name": "The Real Housewives of Beverly Hills",
            "popularity": 31.79
        },
        {
            "id": 34268,
            "original_name": "The Real Housewives of Miami",
            "popularity": 15.113
        },
        {
            "id": 35365,
            "original_name": "The Real Housewives of Athens",
            "popularity": 0.6
        },
        {
            "id": 39283,
            "original_name": "The Real Housewives of Dallas",
            "popularity": 16.054
        },
        {
            "id": 42214,
            "original_name": "Desperate Scousewives",
            "popularity": 0.6
        },
        {
            "id": 53731,
            "original_name": "Modern Housewives",
            "popularity": 1.09
        },
        {
            "id": 59471,
            "original_name": "The Alabang Housewives",
            "popularity": 0.6
        },
        {
            "id": 59556,
            "original_name": "The Real Housewives of Vancouver",
            "popularity": 7.802
        },
        {
            "id": 60014,
            "original_name": "Harlots, Housewives and Heroines: A 17th Century History for Girls",
            "popularity": 0.6
        },
        {
            "id": 61868,
            "original_name": "The Real Housewives of Cheshire",
            "popularity": 28.088
        },
        {
            "id": 62087,
            "original_name": "The Real Housewives of Melbourne",
            "popularity": 20.035
        },
        {
            "id": 65300,
            "original_name": "The Real Housewives of Potomac",
            "popularity": 29.186
        },
        {
            "id": 67480,
            "original_name": "The Real Housewives of Auckland",
            "popularity": 6.909
        },
        {
            "id": 70463,
            "original_name": "The Real Housewives of Sydney",
            "popularity": 7.24
        },
        {
            "id": 70612,
            "original_name": "The Real Housewives of Toronto",
            "popularity": 7.908
        },
        {
            "id": 99401,
            "original_name": "Despot Housewives",
            "popularity": 0.6
        },
        {
            "id": 103747,
            "original_name": "The Real Housewives of Horror",
            "popularity": 0.6
        },
        {
            "id": 104756,
            "original_name": "The Real Housewives of Atlanta: Porsha's Having a Baby",
            "popularity": 0.6
        },
        {
            "id": 110381,
            "original_name": "The Real Housewives of Salt Lake City",
            "popularity": 19.543
        },
        {
            "id": 110921,
            "original_name": "The Real Housewives of Atlanta: Kandi's Wedding",
            "popularity": 0.6
        },
        {
            "id": 113333,
            "original_name": "The Real Housewives of Jersey",
            "popularity": 0.84
        },
        {
            "id": 126149,
            "original_name": "The Real Housewives of Johannesburg",
            "popularity": 1.4
        },
        {
            "id": 131449,
            "original_name": "The Real Housewives of Durban",
            "popularity": 0.6
        },
        {
            "id": 133404,
            "original_name": "The Real Housewives of Durban (2018)",
            "popularity": 0.6
        },
        {
            "id": 136105,
            "original_name": "The Real Housewives: Ultimate Girls Trip",
            "popularity": 21.932
        },
        {
            "id": 139703,
            "original_name": "The Real Housewives of Atlanta: Porsha's Family Matters",
            "popularity": 9.5
        },
        {
            "id": 152438,
            "original_name": "The Real Housewives Di Napoli",
            "popularity": 0.707
        }
    ],
    "relations": [],
    "top20": [
        {
            "id": 693,
            "original_name": "Desperate Housewives",
            "popularity": 125.713
        },
        {
            "id": 10222,
            "original_name": "The Real Housewives of Orange County",
            "popularity": 38.696
        },
        {
            "id": 17380,
            "original_name": "The Real Housewives of Atlanta",
            "popularity": 33.664
        },
        {
            "id": 32390,
            "original_name": "The Real Housewives of Beverly Hills",
            "popularity": 31.79
        },
        {
            "id": 65300,
            "original_name": "The Real Housewives of Potomac",
            "popularity": 29.186
        },
        {
            "id": 61868,
            "original_name": "The Real Housewives of Cheshire",
            "popularity": 28.088
        },
        {
            "id": 14808,
            "original_name": "The Real Housewives of New York City",
            "popularity": 25.362
        },
        {
            "id": 136105,
            "original_name": "The Real Housewives: Ultimate Girls Trip",
            "popularity": 21.932
        },
        {
            "id": 18204,
            "original_name": "The Real Housewives of New Jersey",
            "popularity": 21.523
        },
        {
            "id": 62087,
            "original_name": "The Real Housewives of Melbourne",
            "popularity": 20.035
        },
        {
            "id": 110381,
            "original_name": "The Real Housewives of Salt Lake City",
            "popularity": 19.543
        },
        {
            "id": 39283,
            "original_name": "The Real Housewives of Dallas",
            "popularity": 16.054
        },
        {
            "id": 34268,
            "original_name": "The Real Housewives of Miami",
            "popularity": 15.113
        },
        {
            "id": 139703,
            "original_name": "The Real Housewives of Atlanta: Porsha's Family Matters",
            "popularity": 9.5
        },
        {
            "id": 70612,
            "original_name": "The Real Housewives of Toronto",
            "popularity": 7.908
        },
        {
            "id": 59556,
            "original_name": "The Real Housewives of Vancouver",
            "popularity": 7.802
        },
        {
            "id": 70463,
            "original_name": "The Real Housewives of Sydney",
            "popularity": 7.24
        },
        {
            "id": 67480,
            "original_name": "The Real Housewives of Auckland",
            "popularity": 6.909
        },
        {
            "id": 126149,
            "original_name": "The Real Housewives of Johannesburg",
            "popularity": 1.4
        },
        {
            "id": 53731,
            "original_name": "Modern Housewives",
            "popularity": 1.09
        }
    ]
}