{
    "data": [
        {
            "id": 20516,
            "original_name": "Beyaz Show",
            "popularity": 0.832
        },
        {
            "id": 47973,
            "original_name": "Beyaz Gelincik",
            "popularity": 0.6
        },
        {
            "id": 49882,
            "original_name": "G\u00fclbeyaz",
            "popularity": 0.6
        },
        {
            "id": 49995,
            "original_name": "1st Annual Primetime Beyaz Inci Awards",
            "popularity": 0.6
        },
        {
            "id": 50768,
            "original_name": "Kirli Beyaz",
            "popularity": 0.6
        },
        {
            "id": 52610,
            "original_name": "Sultan-\u0131 Beyaz",
            "popularity": 0.6
        },
        {
            "id": 52611,
            "original_name": "Beyaz\u0131n Sultan\u0131",
            "popularity": 0.6
        },
        {
            "id": 54064,
            "original_name": "Beyaz Futbol",
            "popularity": 0.6
        },
        {
            "id": 76530,
            "original_name": "Siyah Beyaz A\u015fk",
            "popularity": 22.96
        },
        {
            "id": 86320,
            "original_name": "Beyaz Karanfil",
            "popularity": 0.84
        },
        {
            "id": 125645,
            "original_name": "Beyaz Yaka",
            "popularity": 0.6
        },
        {
            "id": 130424,
            "original_name": "Siyah Beyaz A\u015fk",
            "popularity": 0.6
        }
    ],
    "relations": [],
    "top20": [
        {
            "id": 20516,
            "original_name": "Beyaz Show",
            "popularity": 0.832
        },
        {
            "id": 47973,
            "original_name": "Beyaz Gelincik",
            "popularity": 0.6
        },
        {
            "id": 49882,
            "original_name": "G\u00fclbeyaz",
            "popularity": 0.6
        },
        {
            "id": 49995,
            "original_name": "1st Annual Primetime Beyaz Inci Awards",
            "popularity": 0.6
        },
        {
            "id": 50768,
            "original_name": "Kirli Beyaz",
            "popularity": 0.6
        },
        {
            "id": 52610,
            "original_name": "Sultan-\u0131 Beyaz",
            "popularity": 0.6
        },
        {
            "id": 52611,
            "original_name": "Beyaz\u0131n Sultan\u0131",
            "popularity": 0.6
        },
        {
            "id": 54064,
            "original_name": "Beyaz Futbol",
            "popularity": 0.6
        },
        {
            "id": 76530,
            "original_name": "Siyah Beyaz A\u015fk",
            "popularity": 22.96
        },
        {
            "id": 86320,
            "original_name": "Beyaz Karanfil",
            "popularity": 0.84
        },
        {
            "id": 125645,
            "original_name": "Beyaz Yaka",
            "popularity": 0.6
        },
        {
            "id": 130424,
            "original_name": "Siyah Beyaz A\u015fk",
            "popularity": 0.6
        }
    ]
}