{
    "data": [
        {
            "id": 40876,
            "original_name": "Kiezgeschichten",
            "popularity": 0.84
        }
    ],
    "relations": [],
    "top20": [
        {
            "id": 40876,
            "original_name": "Kiezgeschichten",
            "popularity": 0.84
        }
    ]
}