{
    "data": [
        {
            "id": 9983,
            "original_name": "Bridezillas",
            "popularity": 1.875
        },
        {
            "id": 12445,
            "original_name": "Dweezil & Lisa",
            "popularity": 0.6
        },
        {
            "id": 15622,
            "original_name": "Angrezi Mein Kehte Hain",
            "popularity": 0.6
        },
        {
            "id": 20700,
            "original_name": "Freezing",
            "popularity": 1.51
        },
        {
            "id": 36113,
            "original_name": "The Celluloid World Of Dezmond Rezillo",
            "popularity": 0.6
        },
        {
            "id": 39189,
            "original_name": "I.O.B. Spezialauftrag",
            "popularity": 1.376
        },
        {
            "id": 41658,
            "original_name": "WEGA \u2013 Die Spezialeinheit der Polizei",
            "popularity": 0.6
        },
        {
            "id": 50167,
            "original_name": "Marriage Boot Camp: Bridezillas",
            "popularity": 0.6
        },
        {
            "id": 61867,
            "original_name": "Medcezir",
            "popularity": 8.816
        },
        {
            "id": 63253,
            "original_name": "Spezialeinsatz",
            "popularity": 1.225
        },
        {
            "id": 63469,
            "original_name": "Heiteres Bezirksgericht",
            "popularity": 0.6
        },
        {
            "id": 69013,
            "original_name": "Kasperl und Pezi",
            "popularity": 0.6
        },
        {
            "id": 70161,
            "original_name": "Die Spezialisten \u2013 Im Namen der Opfer",
            "popularity": 2.664
        },
        {
            "id": 73020,
            "original_name": "Gr\u00fcezi Schweiz",
            "popularity": 0.6
        },
        {
            "id": 73901,
            "original_name": "Meisje van Plezier",
            "popularity": 1.772
        },
        {
            "id": 75184,
            "original_name": "Sopra i tetti di Venezia (Le avventure di Marco e Gina)",
            "popularity": 0.6
        },
        {
            "id": 76072,
            "original_name": "Het gezin",
            "popularity": 0.853
        },
        {
            "id": 79341,
            "original_name": "Rud\u00ed prezidenti",
            "popularity": 0.6
        },
        {
            "id": 83194,
            "original_name": "ManneZimmer",
            "popularity": 1.4
        },
        {
            "id": 84500,
            "original_name": "Peter Alexander pr\u00e4sentiert Spezialit\u00e4ten",
            "popularity": 2.324
        },
        {
            "id": 84739,
            "original_name": "Zambezi",
            "popularity": 0.6
        },
        {
            "id": 87075,
            "original_name": "Il candidato va alle elezioni",
            "popularity": 0.852
        },
        {
            "id": 87094,
            "original_name": "\u010cty\u0159i u\u0161i na mezi",
            "popularity": 0.6
        },
        {
            "id": 89038,
            "original_name": "Spezialeinheiten im 2. Weltkrieg",
            "popularity": 0.6
        },
        {
            "id": 101269,
            "original_name": "Pelezinho em: Planeta Futebol",
            "popularity": 0.6
        },
        {
            "id": 105548,
            "original_name": "Fred: Het Andere Gezicht",
            "popularity": 0.6
        },
        {
            "id": 106030,
            "original_name": "Preziveti Beograd",
            "popularity": 0.671
        },
        {
            "id": 111780,
            "original_name": "Tardezinha",
            "popularity": 0.84
        },
        {
            "id": 127383,
            "original_name": "RTL Spezial",
            "popularity": 0.6
        },
        {
            "id": 129267,
            "original_name": "ZDF spezial",
            "popularity": 0.6
        },
        {
            "id": 136916,
            "original_name": "Zverinice iz Rezije",
            "popularity": 0.6
        }
    ],
    "relations": [
        {
            "character": "ezil"
        },
        {
            "character": "ezin"
        },
        {
            "character": "ezia"
        },
        {
            "character": "ezir"
        },
        {
            "character": "ezie"
        },
        {
            "character": "ezid"
        },
        {
            "character": "ezim"
        },
        {
            "character": "ezio"
        },
        {
            "character": "ezic"
        },
        {
            "character": "eziv"
        },
        {
            "character": "ezij"
        }
    ],
    "top20": [
        {
            "id": 61867,
            "original_name": "Medcezir",
            "popularity": 8.816
        },
        {
            "id": 70161,
            "original_name": "Die Spezialisten \u2013 Im Namen der Opfer",
            "popularity": 2.664
        },
        {
            "id": 84500,
            "original_name": "Peter Alexander pr\u00e4sentiert Spezialit\u00e4ten",
            "popularity": 2.324
        },
        {
            "id": 9983,
            "original_name": "Bridezillas",
            "popularity": 1.875
        },
        {
            "id": 73901,
            "original_name": "Meisje van Plezier",
            "popularity": 1.772
        },
        {
            "id": 20700,
            "original_name": "Freezing",
            "popularity": 1.51
        },
        {
            "id": 83194,
            "original_name": "ManneZimmer",
            "popularity": 1.4
        },
        {
            "id": 39189,
            "original_name": "I.O.B. Spezialauftrag",
            "popularity": 1.376
        },
        {
            "id": 63253,
            "original_name": "Spezialeinsatz",
            "popularity": 1.225
        },
        {
            "id": 76072,
            "original_name": "Het gezin",
            "popularity": 0.853
        },
        {
            "id": 87075,
            "original_name": "Il candidato va alle elezioni",
            "popularity": 0.852
        },
        {
            "id": 111780,
            "original_name": "Tardezinha",
            "popularity": 0.84
        },
        {
            "id": 106030,
            "original_name": "Preziveti Beograd",
            "popularity": 0.671
        },
        {
            "id": 12445,
            "original_name": "Dweezil & Lisa",
            "popularity": 0.6
        },
        {
            "id": 63469,
            "original_name": "Heiteres Bezirksgericht",
            "popularity": 0.6
        },
        {
            "id": 15622,
            "original_name": "Angrezi Mein Kehte Hain",
            "popularity": 0.6
        },
        {
            "id": 50167,
            "original_name": "Marriage Boot Camp: Bridezillas",
            "popularity": 0.6
        },
        {
            "id": 36113,
            "original_name": "The Celluloid World Of Dezmond Rezillo",
            "popularity": 0.6
        },
        {
            "id": 41658,
            "original_name": "WEGA \u2013 Die Spezialeinheit der Polizei",
            "popularity": 0.6
        },
        {
            "id": 69013,
            "original_name": "Kasperl und Pezi",
            "popularity": 0.6
        }
    ]
}