{
    "data": [
        {
            "id": 41274,
            "original_name": "Der Fahnder",
            "popularity": 11.577
        },
        {
            "id": 63783,
            "original_name": "Gef\u00e4hrliche Fahndung",
            "popularity": 0.84
        },
        {
            "id": 63911,
            "original_name": "Im Visier der Zielfahnder",
            "popularity": 1.211
        },
        {
            "id": 73748,
            "original_name": "Zollfahndung",
            "popularity": 1.218
        }
    ],
    "relations": [],
    "top20": [
        {
            "id": 41274,
            "original_name": "Der Fahnder",
            "popularity": 11.577
        },
        {
            "id": 63783,
            "original_name": "Gef\u00e4hrliche Fahndung",
            "popularity": 0.84
        },
        {
            "id": 63911,
            "original_name": "Im Visier der Zielfahnder",
            "popularity": 1.211
        },
        {
            "id": 73748,
            "original_name": "Zollfahndung",
            "popularity": 1.218
        }
    ]
}