{
    "data": [
        {
            "id": 40661,
            "original_name": "Die Familienanw\u00e4ltin",
            "popularity": 2.864
        },
        {
            "id": 71330,
            "original_name": "Dolles Familienalbum",
            "popularity": 0.664
        },
        {
            "id": 88763,
            "original_name": "Mit Familienanschluss",
            "popularity": 0.6
        }
    ],
    "relations": [],
    "top20": [
        {
            "id": 40661,
            "original_name": "Die Familienanw\u00e4ltin",
            "popularity": 2.864
        },
        {
            "id": 71330,
            "original_name": "Dolles Familienalbum",
            "popularity": 0.664
        },
        {
            "id": 88763,
            "original_name": "Mit Familienanschluss",
            "popularity": 0.6
        }
    ]
}