{
    "data": [
        {
            "id": 127202,
            "original_name": "As Can\u00e7\u00f5es Animadas Do Reino Infantil",
            "popularity": 0.6
        },
        {
            "id": 127312,
            "original_name": "Rondas e Classicos Infantis",
            "popularity": 0.6
        }
    ],
    "relations": [],
    "top20": [
        {
            "id": 127202,
            "original_name": "As Can\u00e7\u00f5es Animadas Do Reino Infantil",
            "popularity": 0.6
        },
        {
            "id": 127312,
            "original_name": "Rondas e Classicos Infantis",
            "popularity": 0.6
        }
    ]
}