{
    "data": [
        {
            "id": 138395,
            "original_name": "Un Professore",
            "popularity": 21.232
        }
    ],
    "relations": [],
    "top20": [
        {
            "id": 138395,
            "original_name": "Un Professore",
            "popularity": 21.232
        }
    ]
}