{
    "data": [
        {
            "id": 2071,
            "original_name": "Harry Hill's Shark Infested Custard",
            "popularity": 0.6
        },
        {
            "id": 3623,
            "original_name": "Nicktoons Film Festival",
            "popularity": 0.6
        },
        {
            "id": 5969,
            "original_name": "FNS Music Festival",
            "popularity": 0.6
        },
        {
            "id": 9915,
            "original_name": "Lifestyles of the Rich and Famous",
            "popularity": 0.6
        },
        {
            "id": 10125,
            "original_name": "CBS Children's Film Festival",
            "popularity": 0.804
        },
        {
            "id": 11140,
            "original_name": "Battle for Ozzfest",
            "popularity": 0.916
        },
        {
            "id": 12642,
            "original_name": "Melodifestivalen",
            "popularity": 13.403
        },
        {
            "id": 13356,
            "original_name": "Lifestories",
            "popularity": 0.966
        },
        {
            "id": 13560,
            "original_name": "The Wayne Manifesto",
            "popularity": 2.163
        },
        {
            "id": 14135,
            "original_name": "Famous Film Festival",
            "popularity": 0.6
        },
        {
            "id": 14247,
            "original_name": "Lifestories: Families in Crisis",
            "popularity": 1.49
        },
        {
            "id": 14267,
            "original_name": "Canned Film Festival",
            "popularity": 0.6
        },
        {
            "id": 16602,
            "original_name": "Azn Lifestyles TV",
            "popularity": 0.6
        },
        {
            "id": 16862,
            "original_name": "Festival da Can\u00e7\u00e3o",
            "popularity": 0.6
        },
        {
            "id": 17063,
            "original_name": "Den store klassefesten",
            "popularity": 0.6
        },
        {
            "id": 17708,
            "original_name": "Holiday Film Festival",
            "popularity": 0.6
        },
        {
            "id": 18758,
            "original_name": "The Timex All-star Swing Festival",
            "popularity": 0.6
        },
        {
            "id": 19259,
            "original_name": "Festival of Family Classics",
            "popularity": 0.6
        },
        {
            "id": 20274,
            "original_name": "Posen Potato Festival",
            "popularity": 0.6
        },
        {
            "id": 21331,
            "original_name": "The CBS Festival of Lively Arts for Young People",
            "popularity": 0.6
        },
        {
            "id": 21875,
            "original_name": "All American Festivals",
            "popularity": 1.378
        },
        {
            "id": 22708,
            "original_name": "Chrysler Festival",
            "popularity": 0.6
        },
        {
            "id": 25587,
            "original_name": "Festival Updates",
            "popularity": 0.6
        },
        {
            "id": 26154,
            "original_name": "Nationaal Songfestival",
            "popularity": 0.6
        },
        {
            "id": 26286,
            "original_name": "The Norman Lindsay Festival",
            "popularity": 0.6
        },
        {
            "id": 27070,
            "original_name": "Comedy Tent at Reading Festival",
            "popularity": 0.6
        },
        {
            "id": 29630,
            "original_name": "Festival",
            "popularity": 0.6
        },
        {
            "id": 29852,
            "original_name": "The Festival",
            "popularity": 0.6
        },
        {
            "id": 30536,
            "original_name": "CMA Music Festival",
            "popularity": 1.122
        },
        {
            "id": 31288,
            "original_name": "The Comedy Festival Presents: Funniest Movies of the Year 2008",
            "popularity": 0.6
        },
        {
            "id": 31597,
            "original_name": "Festive Five: You Decide",
            "popularity": 0.6
        },
        {
            "id": 31787,
            "original_name": "Faith Film Festival",
            "popularity": 0.6
        },
        {
            "id": 33817,
            "original_name": "CBC Film Festival",
            "popularity": 0.6
        },
        {
            "id": 33989,
            "original_name": "Midsummer Rock: The Cincinnati Pop Festival 1970",
            "popularity": 0.6
        },
        {
            "id": 34265,
            "original_name": "Chrysler Festival",
            "popularity": 0.6
        },
        {
            "id": 37259,
            "original_name": "Superfest",
            "popularity": 0.6
        },
        {
            "id": 38093,
            "original_name": "3JS Nationaal Songfestival",
            "popularity": 0.6
        },
        {
            "id": 38166,
            "original_name": "Summer Festival",
            "popularity": 0.6
        },
        {
            "id": 38497,
            "original_name": "Laugh Out Loud Comedy Festival",
            "popularity": 0.6
        },
        {
            "id": 38647,
            "original_name": "Infested",
            "popularity": 0.6
        },
        {
            "id": 39219,
            "original_name": "Lilla Melodifestivalen",
            "popularity": 0.6
        },
        {
            "id": 41452,
            "original_name": "Lifestyle Magazine",
            "popularity": 0.6
        },
        {
            "id": 42033,
            "original_name": "Help Me Anthea, I'm Infested",
            "popularity": 0.6
        },
        {
            "id": 43567,
            "original_name": "Bonnaroo Music Festival 2002",
            "popularity": 0.6
        },
        {
            "id": 43978,
            "original_name": "Ford Festival",
            "popularity": 0.6
        },
        {
            "id": 44935,
            "original_name": "A Night at the Festival Club",
            "popularity": 0.6
        },
        {
            "id": 44937,
            "original_name": "A Night at the Festival Club",
            "popularity": 0.6
        },
        {
            "id": 44994,
            "original_name": "Spike and Mike's Sick & Twisted Festival of Animation",
            "popularity": 0.6
        },
        {
            "id": 45023,
            "original_name": "Sol, Fest och Oroliga F\u00f6r\u00e4ldrar",
            "popularity": 0.6
        },
        {
            "id": 45224,
            "original_name": "CBC Winnipeg Comedy Festival",
            "popularity": 0.6
        },
        {
            "id": 45894,
            "original_name": "Festival Pass with Chris Gore",
            "popularity": 0.6
        },
        {
            "id": 47448,
            "original_name": "From the Heart... The First International Very Special Arts Festival",
            "popularity": 0.6
        },
        {
            "id": 48220,
            "original_name": "Festival Of Remembrance At Cenotaph",
            "popularity": 0.6
        },
        {
            "id": 48950,
            "original_name": "The 39th Annual Pablo Casals Festival",
            "popularity": 0.6
        },
        {
            "id": 48963,
            "original_name": "Pablo Casals Festival",
            "popularity": 0.6
        },
        {
            "id": 48987,
            "original_name": "Sound Festival",
            "popularity": 0.6
        },
        {
            "id": 50226,
            "original_name": "Profile in Music: Beverly Sills Festival",
            "popularity": 0.6
        },
        {
            "id": 52222,
            "original_name": "Jiffest RCTI",
            "popularity": 0.6
        },
        {
            "id": 52390,
            "original_name": "Lifestyle",
            "popularity": 0.6
        },
        {
            "id": 52463,
            "original_name": "Lifestyle",
            "popularity": 0.6
        },
        {
            "id": 52494,
            "original_name": "Bodilfesten 2004",
            "popularity": 0.6
        },
        {
            "id": 54305,
            "original_name": "Melodifestivalen 2005",
            "popularity": 0.6
        },
        {
            "id": 54460,
            "original_name": "Lifestyle",
            "popularity": 0.6
        },
        {
            "id": 54524,
            "original_name": "Melodifestivalen 1979",
            "popularity": 0.6
        },
        {
            "id": 55233,
            "original_name": "Edinburgh Comedy Festival Live",
            "popularity": 0.6
        },
        {
            "id": 55286,
            "original_name": "Net Festival",
            "popularity": 0.6
        },
        {
            "id": 55293,
            "original_name": "The Warehouse Comedy Festival",
            "popularity": 1.028
        },
        {
            "id": 56080,
            "original_name": "Red and White Year-End Song Festival",
            "popularity": 0.6
        },
        {
            "id": 56301,
            "original_name": "Festival of Arts",
            "popularity": 0.6
        },
        {
            "id": 56513,
            "original_name": "The Hunchback of Notre Dame Festival of Fun Musical Spectacular",
            "popularity": 0.6
        },
        {
            "id": 57069,
            "original_name": "Fantastic Festivals of the World",
            "popularity": 0.6
        },
        {
            "id": 57129,
            "original_name": "71\u00b0 nord - Norges t\u00f8ffeste kjendis",
            "popularity": 6.264
        },
        {
            "id": 57816,
            "original_name": "Halifax Comedy Festival",
            "popularity": 0.6
        },
        {
            "id": 60030,
            "original_name": "The Canadian Comedy Awards: Best of the Fest 2007",
            "popularity": 0.6
        },
        {
            "id": 62793,
            "original_name": "Festivals, Sex and Suspicious Parents",
            "popularity": 0.6
        },
        {
            "id": 66550,
            "original_name": "Festival di Sanremo",
            "popularity": 3.039
        },
        {
            "id": 71818,
            "original_name": "Alternative Lifestyle",
            "popularity": 0.6
        },
        {
            "id": 71857,
            "original_name": "3satfestival",
            "popularity": 3.654
        },
        {
            "id": 72293,
            "original_name": "Mexico: Earth's Festival of Life",
            "popularity": 0.6
        },
        {
            "id": 73989,
            "original_name": "Worth It - Lifestyle",
            "popularity": 1.4
        },
        {
            "id": 74390,
            "original_name": "SOS Infestation",
            "popularity": 0.6
        },
        {
            "id": 77321,
            "original_name": "Nix Festes",
            "popularity": 2.486
        },
        {
            "id": 77728,
            "original_name": "Festival Internacional de la Canci\u00f3n de Vi\u00f1a del Mar",
            "popularity": 5.286
        },
        {
            "id": 79696,
            "original_name": "Manifest",
            "popularity": 45.145
        },
        {
            "id": 81547,
            "original_name": "Fest im Sattel",
            "popularity": 0.636
        },
        {
            "id": 81869,
            "original_name": "Heinz Erhardt Festival",
            "popularity": 1.097
        },
        {
            "id": 81909,
            "original_name": "Klassfesten",
            "popularity": 2.795
        },
        {
            "id": 84322,
            "original_name": "FESTA DE PALAVRAS",
            "popularity": 0.603
        },
        {
            "id": 92701,
            "original_name": "Monte-Carlo Film Festival de la Com\u00e9die",
            "popularity": 0.6
        },
        {
            "id": 92730,
            "original_name": "Manifestes en s\u00e9rie",
            "popularity": 0.6
        },
        {
            "id": 92918,
            "original_name": "Tout un festival",
            "popularity": 0.854
        },
        {
            "id": 94002,
            "original_name": "Oktoberfest 1900",
            "popularity": 8.407
        },
        {
            "id": 94029,
            "original_name": "Festival Drugs: Meet The Dealers",
            "popularity": 0.6
        },
        {
            "id": 94241,
            "original_name": "iHeartRadio Music Festival",
            "popularity": 0.6
        },
        {
            "id": 95654,
            "original_name": "CMA Fest",
            "popularity": 0.6
        },
        {
            "id": 98977,
            "original_name": "Fr\u00e8res, fusils, festins",
            "popularity": 0.6
        },
        {
            "id": 101924,
            "original_name": "Glastonbury Festival",
            "popularity": 0.684
        },
        {
            "id": 102530,
            "original_name": "Digital Drag Fest",
            "popularity": 0.6
        },
        {
            "id": 102955,
            "original_name": "Isle of Wight Festival 2019",
            "popularity": 0.6
        },
        {
            "id": 103406,
            "original_name": "Australian Lockdown Comedy Festival",
            "popularity": 0.6
        },
        {
            "id": 103986,
            "original_name": "Lukas Graham live fra Smukfest 2019",
            "popularity": 0.6
        },
        {
            "id": 105388,
            "original_name": "Hele Danmarks Festival",
            "popularity": 0.6
        },
        {
            "id": 105649,
            "original_name": "Musiksommer 2020 Roskilde Festival LIVE",
            "popularity": 0.6
        },
        {
            "id": 105712,
            "original_name": "Die Feste mit Florian Silbereisen",
            "popularity": 8.718
        },
        {
            "id": 106167,
            "original_name": "Musiksommer 2020  Jazz Festival",
            "popularity": 0.6
        },
        {
            "id": 106810,
            "original_name": "Musiksommer 2020 T\u00f8nder Festival",
            "popularity": 0.6
        },
        {
            "id": 106839,
            "original_name": "Takayuki Yamada's Cannes Film Festival",
            "popularity": 7.436
        },
        {
            "id": 107232,
            "original_name": "Musiksommer 2020: Smukfest LIVE",
            "popularity": 0.6
        },
        {
            "id": 107676,
            "original_name": "Das ZDF-Sommerhitfestival",
            "popularity": 1.999
        },
        {
            "id": 107885,
            "original_name": "V Festival",
            "popularity": 0.629
        },
        {
            "id": 108558,
            "original_name": "Manifeste",
            "popularity": 0.6
        },
        {
            "id": 108984,
            "original_name": "TV 8 Kids' Fun Festival",
            "popularity": 0.6
        },
        {
            "id": 110495,
            "original_name": "Skyland - Det forbudte festparadis",
            "popularity": 0.6
        },
        {
            "id": 114449,
            "original_name": "Alphabeat - Da festen forsvandt",
            "popularity": 0.614
        },
        {
            "id": 115038,
            "original_name": "Festivali i K\u00ebng\u00ebs",
            "popularity": 18.477
        },
        {
            "id": 116215,
            "original_name": "Mighty Little Bheem: Kite Festival",
            "popularity": 1.059
        },
        {
            "id": 119413,
            "original_name": "Die Festspiele der Reality Stars",
            "popularity": 1.4
        },
        {
            "id": 120055,
            "original_name": "Norges t\u00f8ffeste",
            "popularity": 0.6
        },
        {
            "id": 120458,
            "original_name": "Funny Festival Live",
            "popularity": 1.176
        },
        {
            "id": 120711,
            "original_name": "Lydia X Norges t\u00f8ffeste",
            "popularity": 0.6
        },
        {
            "id": 121072,
            "original_name": "Festen",
            "popularity": 1.4
        },
        {
            "id": 121245,
            "original_name": "Fest & Flauschig",
            "popularity": 0.6
        },
        {
            "id": 122490,
            "original_name": "Melbourne Comedy Festival 2021",
            "popularity": 0.6
        },
        {
            "id": 123015,
            "original_name": "Best Of The Sydney Comedy Festival 2021",
            "popularity": 0.6
        },
        {
            "id": 124201,
            "original_name": "Festa \u00e9 Festa",
            "popularity": 2.498
        },
        {
            "id": 124355,
            "original_name": "De beste liedjes van het Songfestival",
            "popularity": 0.68
        },
        {
            "id": 124571,
            "original_name": "De Radio 10 Songfestivalquiz",
            "popularity": 1.195
        },
        {
            "id": 124804,
            "original_name": "Eric gegen Stehfest: In Therapie",
            "popularity": 0.84
        },
        {
            "id": 124975,
            "original_name": "Busan One Asia Festival",
            "popularity": 0.6
        },
        {
            "id": 125321,
            "original_name": "CMA Country Music Festival",
            "popularity": 0.918
        },
        {
            "id": 126992,
            "original_name": "Download Festival: RELOADED",
            "popularity": 0.707
        },
        {
            "id": 127278,
            "original_name": "Festival",
            "popularity": 0.929
        },
        {
            "id": 127575,
            "original_name": "Mighty Little Bheem: Festival of Colors",
            "popularity": 0.616
        },
        {
            "id": 127673,
            "original_name": "Festival du film de montagne 2020 (Banff)",
            "popularity": 0.6
        },
        {
            "id": 128039,
            "original_name": "Sommerfest fra Telemark",
            "popularity": 0.6
        },
        {
            "id": 130030,
            "original_name": "The South London Film Festival 2020",
            "popularity": 0.84
        },
        {
            "id": 131642,
            "original_name": "Festivalov\u00e9 vte\u0159iny 2021",
            "popularity": 0.6
        },
        {
            "id": 133433,
            "original_name": "Black Clover: Jump Festa 2018 Special",
            "popularity": 20.318
        },
        {
            "id": 133434,
            "original_name": "Black Clover: Jump Festa 2016 Special",
            "popularity": 38.657
        },
        {
            "id": 133440,
            "original_name": "Spirit of India: The Festivals",
            "popularity": 0.6
        },
        {
            "id": 152342,
            "original_name": "Drama Festival: The Sleeping Witch (2013)",
            "popularity": 1.714
        }
    ],
    "relations": [
        {
            "character": "feste"
        },
        {
            "character": "festi"
        },
        {
            "character": "festy"
        },
        {
            "character": "festo"
        },
        {
            "character": "festa"
        },
        {
            "character": "festp"
        },
        {
            "character": "fests"
        }
    ],
    "top20": [
        {
            "id": 79696,
            "original_name": "Manifest",
            "popularity": 45.145
        },
        {
            "id": 133434,
            "original_name": "Black Clover: Jump Festa 2016 Special",
            "popularity": 38.657
        },
        {
            "id": 133433,
            "original_name": "Black Clover: Jump Festa 2018 Special",
            "popularity": 20.318
        },
        {
            "id": 115038,
            "original_name": "Festivali i K\u00ebng\u00ebs",
            "popularity": 18.477
        },
        {
            "id": 12642,
            "original_name": "Melodifestivalen",
            "popularity": 13.403
        },
        {
            "id": 105712,
            "original_name": "Die Feste mit Florian Silbereisen",
            "popularity": 8.718
        },
        {
            "id": 94002,
            "original_name": "Oktoberfest 1900",
            "popularity": 8.407
        },
        {
            "id": 106839,
            "original_name": "Takayuki Yamada's Cannes Film Festival",
            "popularity": 7.436
        },
        {
            "id": 57129,
            "original_name": "71\u00b0 nord - Norges t\u00f8ffeste kjendis",
            "popularity": 6.264
        },
        {
            "id": 77728,
            "original_name": "Festival Internacional de la Canci\u00f3n de Vi\u00f1a del Mar",
            "popularity": 5.286
        },
        {
            "id": 71857,
            "original_name": "3satfestival",
            "popularity": 3.654
        },
        {
            "id": 66550,
            "original_name": "Festival di Sanremo",
            "popularity": 3.039
        },
        {
            "id": 81909,
            "original_name": "Klassfesten",
            "popularity": 2.795
        },
        {
            "id": 124201,
            "original_name": "Festa \u00e9 Festa",
            "popularity": 2.498
        },
        {
            "id": 77321,
            "original_name": "Nix Festes",
            "popularity": 2.486
        },
        {
            "id": 13560,
            "original_name": "The Wayne Manifesto",
            "popularity": 2.163
        },
        {
            "id": 107676,
            "original_name": "Das ZDF-Sommerhitfestival",
            "popularity": 1.999
        },
        {
            "id": 152342,
            "original_name": "Drama Festival: The Sleeping Witch (2013)",
            "popularity": 1.714
        },
        {
            "id": 14247,
            "original_name": "Lifestories: Families in Crisis",
            "popularity": 1.49
        },
        {
            "id": 73989,
            "original_name": "Worth It - Lifestyle",
            "popularity": 1.4
        }
    ]
}