{
    "data": [
        {
            "id": 110495,
            "original_name": "Skyland - Det forbudte festparadis",
            "popularity": 0.6
        }
    ],
    "relations": [],
    "top20": [
        {
            "id": 110495,
            "original_name": "Skyland - Det forbudte festparadis",
            "popularity": 0.6
        }
    ]
}