{
    "data": [
        {
            "id": 46125,
            "original_name": "O Profeta",
            "popularity": 7.93
        },
        {
            "id": 132837,
            "original_name": "Totalt v\u00e4rdel\u00f6st \u2013 Schl\u00e4ttas fetaste hot rod",
            "popularity": 0.6
        }
    ],
    "relations": [],
    "top20": [
        {
            "id": 46125,
            "original_name": "O Profeta",
            "popularity": 7.93
        },
        {
            "id": 132837,
            "original_name": "Totalt v\u00e4rdel\u00f6st \u2013 Schl\u00e4ttas fetaste hot rod",
            "popularity": 0.6
        }
    ]
}