{
    "data": [
        {
            "id": 1545,
            "original_name": "Affairs of the Heart",
            "popularity": 0.895
        },
        {
            "id": 2965,
            "original_name": "Today's Affairs",
            "popularity": 0.6
        },
        {
            "id": 3091,
            "original_name": "Family Affairs",
            "popularity": 16.087
        },
        {
            "id": 12205,
            "original_name": "ABC News and Current Affairs",
            "popularity": 0.6
        },
        {
            "id": 19114,
            "original_name": "Personal Affairs",
            "popularity": 1.523
        },
        {
            "id": 25804,
            "original_name": "Family Affairs",
            "popularity": 0.916
        },
        {
            "id": 28830,
            "original_name": "Foreign Affairs",
            "popularity": 0.6
        },
        {
            "id": 29518,
            "original_name": "Foreign Affairs",
            "popularity": 0.6
        },
        {
            "id": 30297,
            "original_name": "Men Of Affairs",
            "popularity": 0.92
        },
        {
            "id": 31631,
            "original_name": "Covert Affairs",
            "popularity": 24.847
        },
        {
            "id": 35565,
            "original_name": "Home Affairs",
            "popularity": 0.6
        },
        {
            "id": 47044,
            "original_name": "Deadly Affairs",
            "popularity": 0.934
        },
        {
            "id": 59740,
            "original_name": "Family Affairs",
            "popularity": 0.6
        },
        {
            "id": 60889,
            "original_name": "State of Affairs",
            "popularity": 1.435
        },
        {
            "id": 78878,
            "original_name": "Murderous Affairs",
            "popularity": 1.03
        },
        {
            "id": 105074,
            "original_name": "Love and Affairs",
            "popularity": 0.84
        },
        {
            "id": 152547,
            "original_name": "Deadly Affairs: Betrayed by Love",
            "popularity": 1.4
        }
    ],
    "relations": [],
    "top20": [
        {
            "id": 1545,
            "original_name": "Affairs of the Heart",
            "popularity": 0.895
        },
        {
            "id": 2965,
            "original_name": "Today's Affairs",
            "popularity": 0.6
        },
        {
            "id": 3091,
            "original_name": "Family Affairs",
            "popularity": 16.087
        },
        {
            "id": 12205,
            "original_name": "ABC News and Current Affairs",
            "popularity": 0.6
        },
        {
            "id": 19114,
            "original_name": "Personal Affairs",
            "popularity": 1.523
        },
        {
            "id": 25804,
            "original_name": "Family Affairs",
            "popularity": 0.916
        },
        {
            "id": 28830,
            "original_name": "Foreign Affairs",
            "popularity": 0.6
        },
        {
            "id": 29518,
            "original_name": "Foreign Affairs",
            "popularity": 0.6
        },
        {
            "id": 30297,
            "original_name": "Men Of Affairs",
            "popularity": 0.92
        },
        {
            "id": 31631,
            "original_name": "Covert Affairs",
            "popularity": 24.847
        },
        {
            "id": 35565,
            "original_name": "Home Affairs",
            "popularity": 0.6
        },
        {
            "id": 47044,
            "original_name": "Deadly Affairs",
            "popularity": 0.934
        },
        {
            "id": 59740,
            "original_name": "Family Affairs",
            "popularity": 0.6
        },
        {
            "id": 60889,
            "original_name": "State of Affairs",
            "popularity": 1.435
        },
        {
            "id": 78878,
            "original_name": "Murderous Affairs",
            "popularity": 1.03
        },
        {
            "id": 105074,
            "original_name": "Love and Affairs",
            "popularity": 0.84
        },
        {
            "id": 152547,
            "original_name": "Deadly Affairs: Betrayed by Love",
            "popularity": 1.4
        }
    ]
}