{
    "data": [
        {
            "id": 12561,
            "original_name": "Cliffhangers",
            "popularity": 0.6
        }
    ],
    "relations": [],
    "top20": [
        {
            "id": 12561,
            "original_name": "Cliffhangers",
            "popularity": 0.6
        }
    ]
}