{
    "data": [
        {
            "id": 13253,
            "original_name": "Traffik",
            "popularity": 2.633
        }
    ],
    "relations": [],
    "top20": [
        {
            "id": 13253,
            "original_name": "Traffik",
            "popularity": 2.633
        }
    ]
}