{
    "data": [
        {
            "id": 3623,
            "original_name": "Nicktoons Film Festival",
            "popularity": 0.6
        },
        {
            "id": 5850,
            "original_name": "Filmkr\u00f6nikan",
            "popularity": 0.6
        },
        {
            "id": 6271,
            "original_name": "My Life in Film",
            "popularity": 1.778
        },
        {
            "id": 9154,
            "original_name": "Film 2013",
            "popularity": 0.6
        },
        {
            "id": 10125,
            "original_name": "CBS Children's Film Festival",
            "popularity": 0.804
        },
        {
            "id": 14135,
            "original_name": "Famous Film Festival",
            "popularity": 0.6
        },
        {
            "id": 14267,
            "original_name": "Canned Film Festival",
            "popularity": 0.6
        },
        {
            "id": 14493,
            "original_name": "My Favourite Film",
            "popularity": 0.6
        },
        {
            "id": 17299,
            "original_name": "Friday Film Special",
            "popularity": 0.6
        },
        {
            "id": 17708,
            "original_name": "Holiday Film Festival",
            "popularity": 0.6
        },
        {
            "id": 19590,
            "original_name": "New York: A Documentary Film",
            "popularity": 2.096
        },
        {
            "id": 19692,
            "original_name": "The Film Review",
            "popularity": 0.624
        },
        {
            "id": 21823,
            "original_name": "Film 99",
            "popularity": 0.6
        },
        {
            "id": 22419,
            "original_name": "Filmland",
            "popularity": 0.6
        },
        {
            "id": 22886,
            "original_name": "Film Fakers",
            "popularity": 0.842
        },
        {
            "id": 23608,
            "original_name": "The American Film Institute Salute to ...",
            "popularity": 2.411
        },
        {
            "id": 24269,
            "original_name": "Film Night",
            "popularity": 0.628
        },
        {
            "id": 25329,
            "original_name": "Filmstruck",
            "popularity": 0.6
        },
        {
            "id": 26255,
            "original_name": "Hollywood's Best Film Directors",
            "popularity": 0.68
        },
        {
            "id": 27298,
            "original_name": "Film School",
            "popularity": 0.6
        },
        {
            "id": 27688,
            "original_name": "Life After Film School",
            "popularity": 0.6
        },
        {
            "id": 28239,
            "original_name": "Film Buff Of The Year",
            "popularity": 0.6
        },
        {
            "id": 28893,
            "original_name": "Fast Food Films",
            "popularity": 0.6
        },
        {
            "id": 29410,
            "original_name": "Ultimate Film Fanatic",
            "popularity": 0.6
        },
        {
            "id": 30173,
            "original_name": "Filmjournaal Cannes",
            "popularity": 0.6
        },
        {
            "id": 30284,
            "original_name": "Henry's Film Corner",
            "popularity": 0.6
        },
        {
            "id": 31442,
            "original_name": "Film Xtra",
            "popularity": 0.6
        },
        {
            "id": 31662,
            "original_name": "The Click List: Best in Short Film",
            "popularity": 0.6
        },
        {
            "id": 31787,
            "original_name": "Faith Film Festival",
            "popularity": 0.6
        },
        {
            "id": 32284,
            "original_name": "Filmmagasinet",
            "popularity": 0.6
        },
        {
            "id": 33290,
            "original_name": "Home Movies: The Great Canadian Film Caper",
            "popularity": 0.6
        },
        {
            "id": 33445,
            "original_name": "Film Fun",
            "popularity": 0.6
        },
        {
            "id": 33540,
            "original_name": "New Film Makers",
            "popularity": 0.6
        },
        {
            "id": 33677,
            "original_name": "NFB Film Can",
            "popularity": 0.6
        },
        {
            "id": 33688,
            "original_name": "Canadian Film Makers",
            "popularity": 0.6
        },
        {
            "id": 33700,
            "original_name": "Film Riot",
            "popularity": 2.03
        },
        {
            "id": 33702,
            "original_name": "Canadian Film Makers",
            "popularity": 0.6
        },
        {
            "id": 33817,
            "original_name": "CBC Film Festival",
            "popularity": 0.6
        },
        {
            "id": 35002,
            "original_name": "Spotlight on Film",
            "popularity": 0.6
        },
        {
            "id": 35042,
            "original_name": "World Film Report",
            "popularity": 0.6
        },
        {
            "id": 35578,
            "original_name": "50 Films to See Before You Die",
            "popularity": 0.6
        },
        {
            "id": 35951,
            "original_name": "15 Films About Madonna",
            "popularity": 0.6
        },
        {
            "id": 36166,
            "original_name": "Lost Treasures of NFL Films",
            "popularity": 0.6
        },
        {
            "id": 38296,
            "original_name": "Allemaal FILM",
            "popularity": 1.4
        },
        {
            "id": 39427,
            "original_name": "The Girls on Film",
            "popularity": 0.6
        },
        {
            "id": 39440,
            "original_name": "The 6th Annual Irish Film and Television Awards",
            "popularity": 0.6
        },
        {
            "id": 39445,
            "original_name": "The 7th Annual Irish Film and Television Awards",
            "popularity": 0.6
        },
        {
            "id": 42538,
            "original_name": "Film State",
            "popularity": 0.6
        },
        {
            "id": 43501,
            "original_name": "The Best of Daniel O'Donnell on Film",
            "popularity": 0.6
        },
        {
            "id": 44738,
            "original_name": "JustKiddingFilms",
            "popularity": 0.6
        },
        {
            "id": 45519,
            "original_name": "African American Short Films",
            "popularity": 0.6
        },
        {
            "id": 45570,
            "original_name": "Reel Models: The First Women of Film",
            "popularity": 0.6
        },
        {
            "id": 45571,
            "original_name": "The Story of Film: An Odyssey",
            "popularity": 2.681
        },
        {
            "id": 45572,
            "original_name": "AMC: Film Preservation Classics",
            "popularity": 0.6
        },
        {
            "id": 47088,
            "original_name": "AMC Salute to Film Noir",
            "popularity": 0.6
        },
        {
            "id": 47478,
            "original_name": "Holocaust: A Music Memorial Film",
            "popularity": 0.6
        },
        {
            "id": 47837,
            "original_name": "Film '72",
            "popularity": 0.6
        },
        {
            "id": 49363,
            "original_name": "Without Pity: A Film About Abilities",
            "popularity": 0.6
        },
        {
            "id": 49409,
            "original_name": "T\u00fcrk\u00fc Filmi",
            "popularity": 0.6
        },
        {
            "id": 52490,
            "original_name": "Robert - \u00c5rets film & tv pris",
            "popularity": 0.6
        },
        {
            "id": 53304,
            "original_name": "Para\u00edso Filmes",
            "popularity": 0.6
        },
        {
            "id": 53392,
            "original_name": "The American Film Institute Salute to Orson Welles",
            "popularity": 0.6
        },
        {
            "id": 53394,
            "original_name": "The American Film Institute Salute to James Cagney",
            "popularity": 0.6
        },
        {
            "id": 55189,
            "original_name": "British Transport Films Collection",
            "popularity": 0.6
        },
        {
            "id": 55504,
            "original_name": "British Passions on Film",
            "popularity": 0.6
        },
        {
            "id": 55846,
            "original_name": "Illumination Entertainment Short Films",
            "popularity": 0.6
        },
        {
            "id": 55923,
            "original_name": "Reel Rock Film Tour",
            "popularity": 1.942
        },
        {
            "id": 56678,
            "original_name": "Iubire ca \u00een filme",
            "popularity": 0.6
        },
        {
            "id": 57109,
            "original_name": "Die schlechtesten Filme aller Zeiten",
            "popularity": 17.603
        },
        {
            "id": 57632,
            "original_name": "Viral Video Film School",
            "popularity": 1.4
        },
        {
            "id": 58288,
            "original_name": "Hitler's Rise: The Colour Films",
            "popularity": 0.6
        },
        {
            "id": 58575,
            "original_name": "FilmXtra Uncut",
            "popularity": 0.6
        },
        {
            "id": 62193,
            "original_name": "British Film Forever",
            "popularity": 1.96
        },
        {
            "id": 62801,
            "original_name": "Der Mordsfilm",
            "popularity": 1.142
        },
        {
            "id": 65742,
            "original_name": "Bodo B\u00e4r: Die sch\u00f6nsten Bilderbuch-Filme",
            "popularity": 0.6
        },
        {
            "id": 65845,
            "original_name": "VICE Guide to Film",
            "popularity": 0.6
        },
        {
            "id": 69682,
            "original_name": "Filmfare Awards",
            "popularity": 0.6
        },
        {
            "id": 72054,
            "original_name": "EJIDA Studios Short Films",
            "popularity": 0.6
        },
        {
            "id": 72450,
            "original_name": "Crash Course Film History",
            "popularity": 0.6
        },
        {
            "id": 73620,
            "original_name": "Crash Course Film Production",
            "popularity": 0.677
        },
        {
            "id": 75414,
            "original_name": "Cuttlas Microfilms",
            "popularity": 1.411
        },
        {
            "id": 76512,
            "original_name": "Crash Course Film Criticism",
            "popularity": 0.6
        },
        {
            "id": 77490,
            "original_name": "NFL Films - The Road To The Super Bowl",
            "popularity": 0.6
        },
        {
            "id": 77498,
            "original_name": "This is NFL Films",
            "popularity": 0.92
        },
        {
            "id": 77828,
            "original_name": "King: A Filmed Record...Montgomery to Memphis",
            "popularity": 0.6
        },
        {
            "id": 78505,
            "original_name": "NFL Films - The NFL's Greatest Games",
            "popularity": 0.6
        },
        {
            "id": 78507,
            "original_name": "NFL Films - In Their Own Words",
            "popularity": 0.6
        },
        {
            "id": 78551,
            "original_name": "NFL Films - Team Highlights",
            "popularity": 0.6
        },
        {
            "id": 81934,
            "original_name": "Charley Says... The Best Public Information Films In The World",
            "popularity": 0.6
        },
        {
            "id": 82098,
            "original_name": "DC Super Heroes: The Filmation Adventures",
            "popularity": 2.998
        },
        {
            "id": 82337,
            "original_name": "Beckett on Film",
            "popularity": 0.6
        },
        {
            "id": 82615,
            "original_name": "Torsdagsfilmen",
            "popularity": 0.6
        },
        {
            "id": 85062,
            "original_name": "30 for 30 - ESPN Films",
            "popularity": 0.6
        },
        {
            "id": 88204,
            "original_name": "100 \u00e9v 100 film",
            "popularity": 0.6
        },
        {
            "id": 88943,
            "original_name": "Deutscher Filmpreis (Lola)",
            "popularity": 17.85
        },
        {
            "id": 89623,
            "original_name": "H\u00fclya Ko\u00e7yi\u011fit ile Film Gibi Hayatlar",
            "popularity": 0.609
        },
        {
            "id": 89900,
            "original_name": "Mist\u0159i \u010desk\u00e9ho animovan\u00e9ho filmu",
            "popularity": 1.514
        },
        {
            "id": 90334,
            "original_name": "Bayerischer Filmpreis",
            "popularity": 7.414
        },
        {
            "id": 90629,
            "original_name": "Was tut sich - im deutschen Film?",
            "popularity": 1.998
        },
        {
            "id": 92142,
            "original_name": "Apropos Film",
            "popularity": 1.961
        },
        {
            "id": 92701,
            "original_name": "Monte-Carlo Film Festival de la Com\u00e9die",
            "popularity": 0.6
        },
        {
            "id": 94478,
            "original_name": "Filmlegenden. Deutsch",
            "popularity": 1.981
        },
        {
            "id": 95728,
            "original_name": "Britain on Film",
            "popularity": 0.6
        },
        {
            "id": 95762,
            "original_name": "European Film Awards",
            "popularity": 0.6
        },
        {
            "id": 97232,
            "original_name": "Nuclear Test Films",
            "popularity": 0.6
        },
        {
            "id": 97329,
            "original_name": "Le Fossoyeur de Films",
            "popularity": 0.6
        },
        {
            "id": 97603,
            "original_name": "S\u00e5 er der tegnefilm",
            "popularity": 0.6
        },
        {
            "id": 98566,
            "original_name": "Walt Disney Animation Studios: Short Circuit Experimental Films",
            "popularity": 4.797
        },
        {
            "id": 98859,
            "original_name": "D-Day: Lost Films",
            "popularity": 0.6
        },
        {
            "id": 100307,
            "original_name": "Un film et son \u00e9poque",
            "popularity": 1.848
        },
        {
            "id": 100685,
            "original_name": "Arr\u00eatez d'filmer en Immersion",
            "popularity": 0.6
        },
        {
            "id": 101137,
            "original_name": "Cursed Films",
            "popularity": 1.895
        },
        {
            "id": 103477,
            "original_name": "Hearts of Darkness: A Filmmaker's Apocalypse",
            "popularity": 0.6
        },
        {
            "id": 104221,
            "original_name": "Filmstunde",
            "popularity": 0.6
        },
        {
            "id": 104527,
            "original_name": "Filmemigration aus Nazideutschland",
            "popularity": 1.991
        },
        {
            "id": 106647,
            "original_name": "David Lynch Theater Presents: Short Films",
            "popularity": 0.6
        },
        {
            "id": 106839,
            "original_name": "Takayuki Yamada's Cannes Film Festival",
            "popularity": 7.436
        },
        {
            "id": 107190,
            "original_name": "Hamburger Filmsch\u00e4tze",
            "popularity": 0.6
        },
        {
            "id": 107427,
            "original_name": "Russo Bros. Pizza Film School",
            "popularity": 1.959
        },
        {
            "id": 108959,
            "original_name": "Discovering Film",
            "popularity": 1.096
        },
        {
            "id": 110536,
            "original_name": "Marcelo Bielsa, le film",
            "popularity": 0.6
        },
        {
            "id": 113149,
            "original_name": "Gangs of Filmistaan",
            "popularity": 0.885
        },
        {
            "id": 113169,
            "original_name": "Julefilmene vi er rundet af",
            "popularity": 0.6
        },
        {
            "id": 113682,
            "original_name": "This Film Is Confidential More World War II Secrets Revealed",
            "popularity": 1.123
        },
        {
            "id": 118234,
            "original_name": "Film Theory",
            "popularity": 0.6
        },
        {
            "id": 119603,
            "original_name": "Mariachi Filme",
            "popularity": 0.6
        },
        {
            "id": 120829,
            "original_name": "Micro Films",
            "popularity": 0.6
        },
        {
            "id": 121783,
            "original_name": "Time Warp: The Greatest Cult Films of All Time",
            "popularity": 0.6
        },
        {
            "id": 124704,
            "original_name": "Films BYkids",
            "popularity": 0.673
        },
        {
            "id": 125379,
            "original_name": "Charles Manson: Die verschollenen Filmaufnahmen",
            "popularity": 0.6
        },
        {
            "id": 125886,
            "original_name": "Blick zur\u00fcck im Film",
            "popularity": 1.802
        },
        {
            "id": 127673,
            "original_name": "Festival du film de montagne 2020 (Banff)",
            "popularity": 0.6
        },
        {
            "id": 128137,
            "original_name": "Filmgeschichte(n) aus \u00d6sterreich",
            "popularity": 0.844
        },
        {
            "id": 128576,
            "original_name": "Nine Films About Technology",
            "popularity": 0.84
        },
        {
            "id": 129515,
            "original_name": "Five Came Back: The Reference Films",
            "popularity": 0.6
        },
        {
            "id": 129559,
            "original_name": "Chronofilm",
            "popularity": 0.6
        },
        {
            "id": 130030,
            "original_name": "The South London Film Festival 2020",
            "popularity": 0.84
        },
        {
            "id": 130070,
            "original_name": "Lost Films of WWII",
            "popularity": 0.6
        },
        {
            "id": 130170,
            "original_name": "Great Film Composers: The Music of the Movies",
            "popularity": 0.6
        },
        {
            "id": 133103,
            "original_name": "The Incredibly Strange Film Show",
            "popularity": 0.6
        },
        {
            "id": 139461,
            "original_name": "Danny Elfman teaches film music",
            "popularity": 0.6
        },
        {
            "id": 139565,
            "original_name": "Saburo Teshigawara: Bound and Other Dance Films",
            "popularity": 0.6
        },
        {
            "id": 139576,
            "original_name": "Commonwealth on Film",
            "popularity": 0.6
        },
        {
            "id": 139578,
            "original_name": "Bollywood: The World's Biggest Film Industry",
            "popularity": 0.604
        },
        {
            "id": 152370,
            "original_name": "Clothilde fait un film",
            "popularity": 0.6
        },
        {
            "id": 152434,
            "original_name": "Pixar Short Films",
            "popularity": 1.141
        }
    ],
    "relations": [
        {
            "character": "filmk"
        },
        {
            "character": "filml"
        },
        {
            "character": "films"
        },
        {
            "character": "filmj"
        },
        {
            "character": "filmm"
        },
        {
            "character": "filmi"
        },
        {
            "character": "filme"
        },
        {
            "character": "filmx"
        },
        {
            "character": "filmf"
        },
        {
            "character": "filma"
        },
        {
            "character": "filmp"
        },
        {
            "character": "filmu"
        },
        {
            "character": "film?"
        },
        {
            "character": "filmg"
        }
    ],
    "top20": [
        {
            "id": 88943,
            "original_name": "Deutscher Filmpreis (Lola)",
            "popularity": 17.85
        },
        {
            "id": 57109,
            "original_name": "Die schlechtesten Filme aller Zeiten",
            "popularity": 17.603
        },
        {
            "id": 106839,
            "original_name": "Takayuki Yamada's Cannes Film Festival",
            "popularity": 7.436
        },
        {
            "id": 90334,
            "original_name": "Bayerischer Filmpreis",
            "popularity": 7.414
        },
        {
            "id": 98566,
            "original_name": "Walt Disney Animation Studios: Short Circuit Experimental Films",
            "popularity": 4.797
        },
        {
            "id": 82098,
            "original_name": "DC Super Heroes: The Filmation Adventures",
            "popularity": 2.998
        },
        {
            "id": 45571,
            "original_name": "The Story of Film: An Odyssey",
            "popularity": 2.681
        },
        {
            "id": 23608,
            "original_name": "The American Film Institute Salute to ...",
            "popularity": 2.411
        },
        {
            "id": 19590,
            "original_name": "New York: A Documentary Film",
            "popularity": 2.096
        },
        {
            "id": 33700,
            "original_name": "Film Riot",
            "popularity": 2.03
        },
        {
            "id": 90629,
            "original_name": "Was tut sich - im deutschen Film?",
            "popularity": 1.998
        },
        {
            "id": 104527,
            "original_name": "Filmemigration aus Nazideutschland",
            "popularity": 1.991
        },
        {
            "id": 94478,
            "original_name": "Filmlegenden. Deutsch",
            "popularity": 1.981
        },
        {
            "id": 92142,
            "original_name": "Apropos Film",
            "popularity": 1.961
        },
        {
            "id": 62193,
            "original_name": "British Film Forever",
            "popularity": 1.96
        },
        {
            "id": 107427,
            "original_name": "Russo Bros. Pizza Film School",
            "popularity": 1.959
        },
        {
            "id": 55923,
            "original_name": "Reel Rock Film Tour",
            "popularity": 1.942
        },
        {
            "id": 101137,
            "original_name": "Cursed Films",
            "popularity": 1.895
        },
        {
            "id": 100307,
            "original_name": "Un film et son \u00e9poque",
            "popularity": 1.848
        },
        {
            "id": 125886,
            "original_name": "Blick zur\u00fcck im Film",
            "popularity": 1.802
        }
    ]
}