{
    "data": [
        {
            "id": 56251,
            "original_name": "Wildfire!",
            "popularity": 0.6
        }
    ],
    "relations": [],
    "top20": [
        {
            "id": 56251,
            "original_name": "Wildfire!",
            "popularity": 0.6
        }
    ]
}