{
    "data": [
        {
            "id": 36305,
            "original_name": "Firsthand",
            "popularity": 0.843
        },
        {
            "id": 41378,
            "original_name": "Firsthand",
            "popularity": 0.6
        },
        {
            "id": 67338,
            "original_name": "Firsthand",
            "popularity": 0.636
        }
    ],
    "relations": [],
    "top20": [
        {
            "id": 36305,
            "original_name": "Firsthand",
            "popularity": 0.843
        },
        {
            "id": 41378,
            "original_name": "Firsthand",
            "popularity": 0.6
        },
        {
            "id": 67338,
            "original_name": "Firsthand",
            "popularity": 0.636
        }
    ]
}