{
    "data": [
        {
            "id": 89758,
            "original_name": "Flaman",
            "popularity": 0.641
        },
        {
            "id": 116658,
            "original_name": "Le Secret des Flamands",
            "popularity": 0.854
        }
    ],
    "relations": [],
    "top20": [
        {
            "id": 89758,
            "original_name": "Flaman",
            "popularity": 0.641
        },
        {
            "id": 116658,
            "original_name": "Le Secret des Flamands",
            "popularity": 0.854
        }
    ]
}