{
    "data": [
        {
            "id": 92981,
            "original_name": "Surfology",
            "popularity": 0.6
        },
        {
            "id": 102031,
            "original_name": "Ufologia Sem Fronteiras",
            "popularity": 0.6
        }
    ],
    "relations": [],
    "top20": [
        {
            "id": 92981,
            "original_name": "Surfology",
            "popularity": 0.6
        },
        {
            "id": 102031,
            "original_name": "Ufologia Sem Fronteiras",
            "popularity": 0.6
        }
    ]
}