{
    "data": [
        {
            "id": 14384,
            "original_name": "Forgotten Toys",
            "popularity": 0.6
        },
        {
            "id": 17312,
            "original_name": "Gone But Not Forgotten",
            "popularity": 1.4
        },
        {
            "id": 18018,
            "original_name": "Unforgotten Realms",
            "popularity": 0.6
        },
        {
            "id": 21034,
            "original_name": "Not Forgotten",
            "popularity": 0.656
        },
        {
            "id": 27937,
            "original_name": "Fabulous, Famous And Forgotten",
            "popularity": 0.6
        },
        {
            "id": 30704,
            "original_name": "The Forgotten",
            "popularity": 8.1
        },
        {
            "id": 40198,
            "original_name": "Forgotten",
            "popularity": 1.4
        },
        {
            "id": 49728,
            "original_name": "Young Joe, the Forgotten Kennedy",
            "popularity": 0.6
        },
        {
            "id": 50120,
            "original_name": "Korea: The Forgotten War",
            "popularity": 0.6
        },
        {
            "id": 55716,
            "original_name": "Return to Forgotten Britain",
            "popularity": 0.6
        },
        {
            "id": 62505,
            "original_name": "Unforgotten",
            "popularity": 14.643
        },
        {
            "id": 72942,
            "original_name": "Gone: The Forgotten Women of Ohio",
            "popularity": 0.6
        },
        {
            "id": 75772,
            "original_name": "The World's War: Forgotten Soldiers of Empire",
            "popularity": 1.207
        },
        {
            "id": 78195,
            "original_name": "Forgotten Planet",
            "popularity": 0.843
        },
        {
            "id": 79379,
            "original_name": "England's forgotten Queen: The life and death of Lady Jane Grey",
            "popularity": 0.6
        },
        {
            "id": 96853,
            "original_name": "The Forgotten Army - Azaadi ke liye",
            "popularity": 8.625
        },
        {
            "id": 101326,
            "original_name": "The Forgotten West Memphis Three",
            "popularity": 0.6
        },
        {
            "id": 106358,
            "original_name": "Korea: The Forgotten War in Colour",
            "popularity": 0.6
        },
        {
            "id": 112984,
            "original_name": "WWII: China's Forgotten War",
            "popularity": 0.6
        },
        {
            "id": 134379,
            "original_name": "Britain's Forgotten Wars With Tony Robinson",
            "popularity": 0.945
        },
        {
            "id": 139381,
            "original_name": "Hitler's Forgotten Nazis",
            "popularity": 0.6
        }
    ],
    "relations": [
        {
            "character": "forgotten"
        }
    ],
    "top20": [
        {
            "id": 62505,
            "original_name": "Unforgotten",
            "popularity": 14.643
        },
        {
            "id": 96853,
            "original_name": "The Forgotten Army - Azaadi ke liye",
            "popularity": 8.625
        },
        {
            "id": 30704,
            "original_name": "The Forgotten",
            "popularity": 8.1
        },
        {
            "id": 17312,
            "original_name": "Gone But Not Forgotten",
            "popularity": 1.4
        },
        {
            "id": 40198,
            "original_name": "Forgotten",
            "popularity": 1.4
        },
        {
            "id": 75772,
            "original_name": "The World's War: Forgotten Soldiers of Empire",
            "popularity": 1.207
        },
        {
            "id": 134379,
            "original_name": "Britain's Forgotten Wars With Tony Robinson",
            "popularity": 0.945
        },
        {
            "id": 78195,
            "original_name": "Forgotten Planet",
            "popularity": 0.843
        },
        {
            "id": 21034,
            "original_name": "Not Forgotten",
            "popularity": 0.656
        },
        {
            "id": 49728,
            "original_name": "Young Joe, the Forgotten Kennedy",
            "popularity": 0.6
        },
        {
            "id": 50120,
            "original_name": "Korea: The Forgotten War",
            "popularity": 0.6
        },
        {
            "id": 14384,
            "original_name": "Forgotten Toys",
            "popularity": 0.6
        },
        {
            "id": 106358,
            "original_name": "Korea: The Forgotten War in Colour",
            "popularity": 0.6
        },
        {
            "id": 79379,
            "original_name": "England's forgotten Queen: The life and death of Lady Jane Grey",
            "popularity": 0.6
        },
        {
            "id": 27937,
            "original_name": "Fabulous, Famous And Forgotten",
            "popularity": 0.6
        },
        {
            "id": 18018,
            "original_name": "Unforgotten Realms",
            "popularity": 0.6
        },
        {
            "id": 55716,
            "original_name": "Return to Forgotten Britain",
            "popularity": 0.6
        },
        {
            "id": 101326,
            "original_name": "The Forgotten West Memphis Three",
            "popularity": 0.6
        },
        {
            "id": 72942,
            "original_name": "Gone: The Forgotten Women of Ohio",
            "popularity": 0.6
        },
        {
            "id": 112984,
            "original_name": "WWII: China's Forgotten War",
            "popularity": 0.6
        }
    ]
}