{
    "data": [
        {
            "id": 118012,
            "original_name": "Cornflakes med lort og d\u00f8d ved k\u00f8lle - humoren der formede dig",
            "popularity": 0.62
        },
        {
            "id": 119544,
            "original_name": "Vi spiller spillet - realityen der formede dig",
            "popularity": 0.6
        },
        {
            "id": 124561,
            "original_name": "High on the Hog: How African American Cuisine Transformed America",
            "popularity": 1.574
        }
    ],
    "relations": [],
    "top20": [
        {
            "id": 118012,
            "original_name": "Cornflakes med lort og d\u00f8d ved k\u00f8lle - humoren der formede dig",
            "popularity": 0.62
        },
        {
            "id": 119544,
            "original_name": "Vi spiller spillet - realityen der formede dig",
            "popularity": 0.6
        },
        {
            "id": 124561,
            "original_name": "High on the Hog: How African American Cuisine Transformed America",
            "popularity": 1.574
        }
    ]
}