{
    "data": [
        {
            "id": 932,
            "original_name": "Beast Machines: Transformers",
            "popularity": 7.761
        },
        {
            "id": 958,
            "original_name": "Beast Wars: Transformers",
            "popularity": 8.059
        },
        {
            "id": 982,
            "original_name": "Transformers: Armada",
            "popularity": 5.845
        },
        {
            "id": 4269,
            "original_name": "The Transformers",
            "popularity": 20.882
        },
        {
            "id": 8279,
            "original_name": "Former programmes",
            "popularity": 0.6
        },
        {
            "id": 10085,
            "original_name": "Transformers: Cybertron",
            "popularity": 4.367
        },
        {
            "id": 10548,
            "original_name": "Transformers: Animated",
            "popularity": 7.205
        },
        {
            "id": 19553,
            "original_name": "Transformers: Victory",
            "popularity": 1.797
        },
        {
            "id": 28572,
            "original_name": "The Informer",
            "popularity": 0.627
        },
        {
            "id": 31367,
            "original_name": "Robo Formers",
            "popularity": 0.6
        },
        {
            "id": 32115,
            "original_name": "Informe Robinson",
            "popularity": 1.54
        },
        {
            "id": 32910,
            "original_name": "Transformers: Prime",
            "popularity": 38.009
        },
        {
            "id": 33993,
            "original_name": "Transformers: Cyber Missions",
            "popularity": 0.6
        },
        {
            "id": 35427,
            "original_name": "Popee the Performer",
            "popularity": 0.6
        },
        {
            "id": 38881,
            "original_name": "Transformers: Rescue Bots",
            "popularity": 10.694
        },
        {
            "id": 59356,
            "original_name": "The Performers",
            "popularity": 0.6
        },
        {
            "id": 63090,
            "original_name": "Transformers: Robots In Disguise",
            "popularity": 12.644
        },
        {
            "id": 67316,
            "original_name": "Transformers: Combiner Wars",
            "popularity": 2.764
        },
        {
            "id": 71929,
            "original_name": "Transformers: Car Robots",
            "popularity": 2.081
        },
        {
            "id": 81599,
            "original_name": "Formel Eins",
            "popularity": 0.82
        },
        {
            "id": 83002,
            "original_name": "Transformers: Cyberverse",
            "popularity": 7.392
        },
        {
            "id": 83059,
            "original_name": "Informer",
            "popularity": 5.939
        },
        {
            "id": 85521,
            "original_name": "Transformers: Rescue Bots Academy",
            "popularity": 3.495
        },
        {
            "id": 99041,
            "original_name": "Transformers: Go!",
            "popularity": 0.6
        },
        {
            "id": 100345,
            "original_name": "WWE Formerly Known As",
            "popularity": 0.6
        },
        {
            "id": 100617,
            "original_name": "Transformers: War for Cybertron: Siege",
            "popularity": 48.52
        },
        {
            "id": 102016,
            "original_name": "Informer 3838",
            "popularity": 1.267
        },
        {
            "id": 102957,
            "original_name": "#RestezEnForme",
            "popularity": 0.6
        },
        {
            "id": 103999,
            "original_name": "Transformers: Power of the Primes",
            "popularity": 0.6
        },
        {
            "id": 104000,
            "original_name": "Transformers: Titans Return",
            "popularity": 0.6
        },
        {
            "id": 104005,
            "original_name": "Informe TEM: Las cloacas del periodismo",
            "popularity": 0.6
        },
        {
            "id": 110566,
            "original_name": "Horizonte: Informe Covid",
            "popularity": 0.6
        },
        {
            "id": 117682,
            "original_name": "Transformers: War for Cybertron: Earthrise",
            "popularity": 10.058
        },
        {
            "id": 118012,
            "original_name": "Cornflakes med lort og d\u00f8d ved k\u00f8lle - humoren der formede dig",
            "popularity": 0.62
        },
        {
            "id": 119477,
            "original_name": "Informe especial",
            "popularity": 2.314
        },
        {
            "id": 119544,
            "original_name": "Vi spiller spillet - realityen der formede dig",
            "popularity": 0.6
        },
        {
            "id": 124561,
            "original_name": "High on the Hog: How African American Cuisine Transformed America",
            "popularity": 1.574
        },
        {
            "id": 125574,
            "original_name": "Transformers: Botbots",
            "popularity": 0.6
        },
        {
            "id": 125790,
            "original_name": "Super Truck the Transformer - O Super Caminh\u00e3o",
            "popularity": 0.756
        },
        {
            "id": 128255,
            "original_name": "Transformers: War for Cybertron: Kingdom",
            "popularity": 7.007
        }
    ],
    "relations": [
        {
            "character": "former"
        },
        {
            "character": "formel"
        },
        {
            "character": "formed"
        }
    ],
    "top20": [
        {
            "id": 100617,
            "original_name": "Transformers: War for Cybertron: Siege",
            "popularity": 48.52
        },
        {
            "id": 32910,
            "original_name": "Transformers: Prime",
            "popularity": 38.009
        },
        {
            "id": 4269,
            "original_name": "The Transformers",
            "popularity": 20.882
        },
        {
            "id": 63090,
            "original_name": "Transformers: Robots In Disguise",
            "popularity": 12.644
        },
        {
            "id": 38881,
            "original_name": "Transformers: Rescue Bots",
            "popularity": 10.694
        },
        {
            "id": 117682,
            "original_name": "Transformers: War for Cybertron: Earthrise",
            "popularity": 10.058
        },
        {
            "id": 958,
            "original_name": "Beast Wars: Transformers",
            "popularity": 8.059
        },
        {
            "id": 932,
            "original_name": "Beast Machines: Transformers",
            "popularity": 7.761
        },
        {
            "id": 83002,
            "original_name": "Transformers: Cyberverse",
            "popularity": 7.392
        },
        {
            "id": 10548,
            "original_name": "Transformers: Animated",
            "popularity": 7.205
        },
        {
            "id": 128255,
            "original_name": "Transformers: War for Cybertron: Kingdom",
            "popularity": 7.007
        },
        {
            "id": 83059,
            "original_name": "Informer",
            "popularity": 5.939
        },
        {
            "id": 982,
            "original_name": "Transformers: Armada",
            "popularity": 5.845
        },
        {
            "id": 10085,
            "original_name": "Transformers: Cybertron",
            "popularity": 4.367
        },
        {
            "id": 85521,
            "original_name": "Transformers: Rescue Bots Academy",
            "popularity": 3.495
        },
        {
            "id": 67316,
            "original_name": "Transformers: Combiner Wars",
            "popularity": 2.764
        },
        {
            "id": 119477,
            "original_name": "Informe especial",
            "popularity": 2.314
        },
        {
            "id": 71929,
            "original_name": "Transformers: Car Robots",
            "popularity": 2.081
        },
        {
            "id": 19553,
            "original_name": "Transformers: Victory",
            "popularity": 1.797
        },
        {
            "id": 124561,
            "original_name": "High on the Hog: How African American Cuisine Transformed America",
            "popularity": 1.574
        }
    ]
}