{
    "data": [
        {
            "id": 123637,
            "original_name": "Fotr na tripu",
            "popularity": 0.693
        }
    ],
    "relations": [],
    "top20": [
        {
            "id": 123637,
            "original_name": "Fotr na tripu",
            "popularity": 0.693
        }
    ]
}