{
    "data": [
        {
            "id": 23949,
            "original_name": "Code Name: Foxfire",
            "popularity": 1.191
        }
    ],
    "relations": [],
    "top20": [
        {
            "id": 23949,
            "original_name": "Code Name: Foxfire",
            "popularity": 1.191
        }
    ]
}