{
    "data": [
        {
            "id": 135908,
            "original_name": "Guida astrologica per cuori infranti",
            "popularity": 14.972
        }
    ],
    "relations": [],
    "top20": [
        {
            "id": 135908,
            "original_name": "Guida astrologica per cuori infranti",
            "popularity": 14.972
        }
    ]
}