{
    "data": [
        {
            "id": 63070,
            "original_name": "Zimmer frei!",
            "popularity": 15.505
        },
        {
            "id": 124917,
            "original_name": "Ring frei! Abenteuer A10",
            "popularity": 0.6
        }
    ],
    "relations": [],
    "top20": [
        {
            "id": 63070,
            "original_name": "Zimmer frei!",
            "popularity": 15.505
        },
        {
            "id": 124917,
            "original_name": "Ring frei! Abenteuer A10",
            "popularity": 0.6
        }
    ]
}