{
    "data": [
        {
            "id": 31,
            "original_name": "French Fields",
            "popularity": 3.424
        },
        {
            "id": 905,
            "original_name": "French & Saunders",
            "popularity": 5.594
        },
        {
            "id": 4593,
            "original_name": "The French Chef",
            "popularity": 1.835
        },
        {
            "id": 6191,
            "original_name": "French in Action",
            "popularity": 0.6
        },
        {
            "id": 11256,
            "original_name": "Dawn French's Girls Who Do Comedy",
            "popularity": 0.623
        },
        {
            "id": 12008,
            "original_name": "Excuse My French",
            "popularity": 0.6
        },
        {
            "id": 13740,
            "original_name": "Excuse My French",
            "popularity": 0.6
        },
        {
            "id": 14448,
            "original_name": "More Dawn French's Boys Who Do: Comedy",
            "popularity": 1.441
        },
        {
            "id": 22480,
            "original_name": "So Frenchy, So Chic",
            "popularity": 0.6
        },
        {
            "id": 23139,
            "original_name": "A Bucket O' French And Saunders",
            "popularity": 1.4
        },
        {
            "id": 25491,
            "original_name": "French Open Tonight",
            "popularity": 0.6
        },
        {
            "id": 33092,
            "original_name": "French Food at Home",
            "popularity": 0.6
        },
        {
            "id": 33425,
            "original_name": "French for Love",
            "popularity": 0.6
        },
        {
            "id": 37655,
            "original_name": "French Revolution",
            "popularity": 0.842
        },
        {
            "id": 42691,
            "original_name": "The Year of the French",
            "popularity": 0.6
        },
        {
            "id": 48017,
            "original_name": "French Studies",
            "popularity": 0.6
        },
        {
            "id": 48492,
            "original_name": "A Day in the Country: Impressionism and the French Landscape",
            "popularity": 0.6
        },
        {
            "id": 49392,
            "original_name": "The French Atlantic Affair",
            "popularity": 2.857
        },
        {
            "id": 57696,
            "original_name": "Polyglot. French in 16 hours",
            "popularity": 0.6
        },
        {
            "id": 57795,
            "original_name": "The French African Connection",
            "popularity": 0.6
        },
        {
            "id": 60991,
            "original_name": "Bonne chance Frenchie",
            "popularity": 0.6
        },
        {
            "id": 63799,
            "original_name": "Raymond Blanc: The Very Hungry Frenchman",
            "popularity": 0.899
        },
        {
            "id": 70290,
            "original_name": "Cassandra French's Finishing School",
            "popularity": 1.264
        },
        {
            "id": 79934,
            "original_name": "Into the french wild",
            "popularity": 0.6
        },
        {
            "id": 85621,
            "original_name": "Dawn French's Boys Who Do Comedy",
            "popularity": 0.6
        },
        {
            "id": 87099,
            "original_name": "French PQ",
            "popularity": 0.6
        },
        {
            "id": 112209,
            "original_name": "Rick Stein's French Odyssey",
            "popularity": 0.6
        },
        {
            "id": 128122,
            "original_name": "Influenceurs : au coeur de la French House",
            "popularity": 0.944
        },
        {
            "id": 131831,
            "original_name": "James Martin's French Adventure",
            "popularity": 0.6
        },
        {
            "id": 135290,
            "original_name": "Michel Roux's French Country Cooking",
            "popularity": 4.277
        }
    ],
    "relations": [
        {
            "character": "french"
        }
    ],
    "top20": [
        {
            "id": 905,
            "original_name": "French & Saunders",
            "popularity": 5.594
        },
        {
            "id": 135290,
            "original_name": "Michel Roux's French Country Cooking",
            "popularity": 4.277
        },
        {
            "id": 31,
            "original_name": "French Fields",
            "popularity": 3.424
        },
        {
            "id": 49392,
            "original_name": "The French Atlantic Affair",
            "popularity": 2.857
        },
        {
            "id": 4593,
            "original_name": "The French Chef",
            "popularity": 1.835
        },
        {
            "id": 14448,
            "original_name": "More Dawn French's Boys Who Do: Comedy",
            "popularity": 1.441
        },
        {
            "id": 23139,
            "original_name": "A Bucket O' French And Saunders",
            "popularity": 1.4
        },
        {
            "id": 70290,
            "original_name": "Cassandra French's Finishing School",
            "popularity": 1.264
        },
        {
            "id": 128122,
            "original_name": "Influenceurs : au coeur de la French House",
            "popularity": 0.944
        },
        {
            "id": 63799,
            "original_name": "Raymond Blanc: The Very Hungry Frenchman",
            "popularity": 0.899
        },
        {
            "id": 37655,
            "original_name": "French Revolution",
            "popularity": 0.842
        },
        {
            "id": 11256,
            "original_name": "Dawn French's Girls Who Do Comedy",
            "popularity": 0.623
        },
        {
            "id": 13740,
            "original_name": "Excuse My French",
            "popularity": 0.6
        },
        {
            "id": 6191,
            "original_name": "French in Action",
            "popularity": 0.6
        },
        {
            "id": 25491,
            "original_name": "French Open Tonight",
            "popularity": 0.6
        },
        {
            "id": 12008,
            "original_name": "Excuse My French",
            "popularity": 0.6
        },
        {
            "id": 22480,
            "original_name": "So Frenchy, So Chic",
            "popularity": 0.6
        },
        {
            "id": 33425,
            "original_name": "French for Love",
            "popularity": 0.6
        },
        {
            "id": 42691,
            "original_name": "The Year of the French",
            "popularity": 0.6
        },
        {
            "id": 33092,
            "original_name": "French Food at Home",
            "popularity": 0.6
        }
    ]
}