{
    "data": [
        {
            "id": 52111,
            "original_name": "frenimes",
            "popularity": 0.6
        }
    ],
    "relations": [],
    "top20": [
        {
            "id": 52111,
            "original_name": "frenimes",
            "popularity": 0.6
        }
    ]
}