{
    "data": [
        {
            "id": 3225,
            "original_name": "Fridays",
            "popularity": 0.6
        },
        {
            "id": 10114,
            "original_name": "Fridays",
            "popularity": 7.675
        },
        {
            "id": 23081,
            "original_name": "Live & Loud Fridays",
            "popularity": 0.6
        },
        {
            "id": 38947,
            "original_name": "Fridays",
            "popularity": 0.6
        },
        {
            "id": 96168,
            "original_name": "Funny Fridays",
            "popularity": 0.6
        }
    ],
    "relations": [],
    "top20": [
        {
            "id": 3225,
            "original_name": "Fridays",
            "popularity": 0.6
        },
        {
            "id": 10114,
            "original_name": "Fridays",
            "popularity": 7.675
        },
        {
            "id": 23081,
            "original_name": "Live & Loud Fridays",
            "popularity": 0.6
        },
        {
            "id": 38947,
            "original_name": "Fridays",
            "popularity": 0.6
        },
        {
            "id": 96168,
            "original_name": "Funny Fridays",
            "popularity": 0.6
        }
    ]
}