{
    "data": [
        {
            "id": 45781,
            "original_name": "The Frugal Gourmet",
            "popularity": 0.6
        }
    ],
    "relations": [],
    "top20": [
        {
            "id": 45781,
            "original_name": "The Frugal Gourmet",
            "popularity": 0.6
        }
    ]
}