{
    "data": [
        {
            "id": 4973,
            "original_name": "The Afternoon Show",
            "popularity": 0.853
        },
        {
            "id": 5234,
            "original_name": "Friday Afternoon Thing",
            "popularity": 0.6
        },
        {
            "id": 6999,
            "original_name": "Action in the Afternoon",
            "popularity": 1.843
        },
        {
            "id": 9217,
            "original_name": "April in the Afternoon",
            "popularity": 0.6
        },
        {
            "id": 9996,
            "original_name": "Northwest Afternoon",
            "popularity": 0.6
        },
        {
            "id": 12024,
            "original_name": "The Disney Afternoon",
            "popularity": 0.6
        },
        {
            "id": 15700,
            "original_name": "Afternoon Live",
            "popularity": 0.6
        },
        {
            "id": 18337,
            "original_name": "The Afternoon Play",
            "popularity": 1.601
        },
        {
            "id": 18473,
            "original_name": "The ABC Afternoon Playbreak",
            "popularity": 0.6
        },
        {
            "id": 18850,
            "original_name": "This Afternoon",
            "popularity": 0.6
        },
        {
            "id": 20768,
            "original_name": "Afternoon Off",
            "popularity": 0.6
        },
        {
            "id": 22019,
            "original_name": "CBS Afternoon Playhouse",
            "popularity": 0.627
        },
        {
            "id": 23101,
            "original_name": "Hello, Good Afternoon, Welcome",
            "popularity": 0.804
        },
        {
            "id": 24241,
            "original_name": "Afternoon Delight",
            "popularity": 0.6
        },
        {
            "id": 29149,
            "original_name": "Always Afternoon",
            "popularity": 1.132
        },
        {
            "id": 29240,
            "original_name": "Adams Afternoon",
            "popularity": 0.6
        },
        {
            "id": 29641,
            "original_name": "Afternoon",
            "popularity": 0.6
        },
        {
            "id": 33266,
            "original_name": "Afternoon Delight",
            "popularity": 0.6
        },
        {
            "id": 33616,
            "original_name": "Music For a Sunday Afternoon",
            "popularity": 0.6
        },
        {
            "id": 34574,
            "original_name": "Nine Afternoon News",
            "popularity": 0.6
        },
        {
            "id": 42081,
            "original_name": "Afternoon with Inga",
            "popularity": 0.6
        },
        {
            "id": 43296,
            "original_name": "Max & Ruby: Afternoons with Max & Ruby",
            "popularity": 0.6
        },
        {
            "id": 43741,
            "original_name": "Vic and Bob's Afternoon Delights",
            "popularity": 0.919
        },
        {
            "id": 53015,
            "original_name": "Afternoon World",
            "popularity": 0.6
        }
    ],
    "relations": [
        {
            "character": "fterno"
        }
    ],
    "top20": [
        {
            "id": 6999,
            "original_name": "Action in the Afternoon",
            "popularity": 1.843
        },
        {
            "id": 18337,
            "original_name": "The Afternoon Play",
            "popularity": 1.601
        },
        {
            "id": 29149,
            "original_name": "Always Afternoon",
            "popularity": 1.132
        },
        {
            "id": 43741,
            "original_name": "Vic and Bob's Afternoon Delights",
            "popularity": 0.919
        },
        {
            "id": 4973,
            "original_name": "The Afternoon Show",
            "popularity": 0.853
        },
        {
            "id": 23101,
            "original_name": "Hello, Good Afternoon, Welcome",
            "popularity": 0.804
        },
        {
            "id": 22019,
            "original_name": "CBS Afternoon Playhouse",
            "popularity": 0.627
        },
        {
            "id": 33266,
            "original_name": "Afternoon Delight",
            "popularity": 0.6
        },
        {
            "id": 29240,
            "original_name": "Adams Afternoon",
            "popularity": 0.6
        },
        {
            "id": 29641,
            "original_name": "Afternoon",
            "popularity": 0.6
        },
        {
            "id": 18850,
            "original_name": "This Afternoon",
            "popularity": 0.6
        },
        {
            "id": 9217,
            "original_name": "April in the Afternoon",
            "popularity": 0.6
        },
        {
            "id": 9996,
            "original_name": "Northwest Afternoon",
            "popularity": 0.6
        },
        {
            "id": 18473,
            "original_name": "The ABC Afternoon Playbreak",
            "popularity": 0.6
        },
        {
            "id": 33616,
            "original_name": "Music For a Sunday Afternoon",
            "popularity": 0.6
        },
        {
            "id": 15700,
            "original_name": "Afternoon Live",
            "popularity": 0.6
        },
        {
            "id": 20768,
            "original_name": "Afternoon Off",
            "popularity": 0.6
        },
        {
            "id": 5234,
            "original_name": "Friday Afternoon Thing",
            "popularity": 0.6
        },
        {
            "id": 24241,
            "original_name": "Afternoon Delight",
            "popularity": 0.6
        },
        {
            "id": 12024,
            "original_name": "The Disney Afternoon",
            "popularity": 0.6
        }
    ]
}