{
    "data": [
        {
            "id": 1592,
            "original_name": "Fifth Gear",
            "popularity": 5.048
        },
        {
            "id": 11317,
            "original_name": "The Fifth Estate",
            "popularity": 0.905
        },
        {
            "id": 12035,
            "original_name": "The Fifth Quarter",
            "popularity": 0.6
        },
        {
            "id": 12977,
            "original_name": "Albert the Fifth Musketeer",
            "popularity": 1.228
        },
        {
            "id": 19084,
            "original_name": "The Fifth Corner",
            "popularity": 1.221
        },
        {
            "id": 48538,
            "original_name": "David Frost Presents: The Fifth International Book of World Records",
            "popularity": 0.6
        },
        {
            "id": 51575,
            "original_name": "Eleftheros skopeftis",
            "popularity": 0.6
        },
        {
            "id": 51722,
            "original_name": "Eisodos Eleftheri",
            "popularity": 0.6
        },
        {
            "id": 52500,
            "original_name": "Kai efthymi... kai hira",
            "popularity": 0.6
        },
        {
            "id": 54230,
            "original_name": "Efthymes istories",
            "popularity": 0.6
        },
        {
            "id": 61186,
            "original_name": "Hoftheater",
            "popularity": 1.245
        },
        {
            "id": 82107,
            "original_name": "Hoftheater mit Kasper und Ren\u00e9",
            "popularity": 0.6
        },
        {
            "id": 85670,
            "original_name": "Twelfth Grade (or Whatever)",
            "popularity": 0.691
        },
        {
            "id": 94420,
            "original_name": "Beau of the Fifth Column",
            "popularity": 0.6
        },
        {
            "id": 120515,
            "original_name": "Lufthavnens beredskab",
            "popularity": 0.868
        },
        {
            "id": 135019,
            "original_name": "The Fifth Annual Women Rock!",
            "popularity": 0.6
        },
        {
            "id": 139486,
            "original_name": "Fifth Gear: Recharged",
            "popularity": 4.671
        }
    ],
    "relations": [],
    "top20": [
        {
            "id": 1592,
            "original_name": "Fifth Gear",
            "popularity": 5.048
        },
        {
            "id": 11317,
            "original_name": "The Fifth Estate",
            "popularity": 0.905
        },
        {
            "id": 12035,
            "original_name": "The Fifth Quarter",
            "popularity": 0.6
        },
        {
            "id": 12977,
            "original_name": "Albert the Fifth Musketeer",
            "popularity": 1.228
        },
        {
            "id": 19084,
            "original_name": "The Fifth Corner",
            "popularity": 1.221
        },
        {
            "id": 48538,
            "original_name": "David Frost Presents: The Fifth International Book of World Records",
            "popularity": 0.6
        },
        {
            "id": 51575,
            "original_name": "Eleftheros skopeftis",
            "popularity": 0.6
        },
        {
            "id": 51722,
            "original_name": "Eisodos Eleftheri",
            "popularity": 0.6
        },
        {
            "id": 52500,
            "original_name": "Kai efthymi... kai hira",
            "popularity": 0.6
        },
        {
            "id": 54230,
            "original_name": "Efthymes istories",
            "popularity": 0.6
        },
        {
            "id": 61186,
            "original_name": "Hoftheater",
            "popularity": 1.245
        },
        {
            "id": 82107,
            "original_name": "Hoftheater mit Kasper und Ren\u00e9",
            "popularity": 0.6
        },
        {
            "id": 85670,
            "original_name": "Twelfth Grade (or Whatever)",
            "popularity": 0.691
        },
        {
            "id": 94420,
            "original_name": "Beau of the Fifth Column",
            "popularity": 0.6
        },
        {
            "id": 120515,
            "original_name": "Lufthavnens beredskab",
            "popularity": 0.868
        },
        {
            "id": 135019,
            "original_name": "The Fifth Annual Women Rock!",
            "popularity": 0.6
        },
        {
            "id": 139486,
            "original_name": "Fifth Gear: Recharged",
            "popularity": 4.671
        }
    ]
}