{
    "data": [
        {
            "id": 147,
            "original_name": "Five-Minute Funnies",
            "popularity": 0.6
        },
        {
            "id": 2128,
            "original_name": "Bitoy's Funniest Videos",
            "popularity": 0.6
        },
        {
            "id": 2516,
            "original_name": "Australia's Funniest Home Videos",
            "popularity": 0.629
        },
        {
            "id": 2539,
            "original_name": "The Planet's Funniest Animals",
            "popularity": 0.6
        },
        {
            "id": 4291,
            "original_name": "The Search for the Funniest Mom in America",
            "popularity": 1.39
        },
        {
            "id": 4404,
            "original_name": "America's Funniest People",
            "popularity": 0.6
        },
        {
            "id": 4448,
            "original_name": "America's Funniest Home Videos",
            "popularity": 18.502
        },
        {
            "id": 5358,
            "original_name": "Talkin' Funny",
            "popularity": 0.6
        },
        {
            "id": 5982,
            "original_name": "Funnybones",
            "popularity": 1.342
        },
        {
            "id": 8220,
            "original_name": "Fabulous Funnies",
            "popularity": 0.6
        },
        {
            "id": 9270,
            "original_name": "The Funny Manns",
            "popularity": 0.6
        },
        {
            "id": 9771,
            "original_name": "Archie's TV Funnies",
            "popularity": 0.6
        },
        {
            "id": 9827,
            "original_name": "The Shnookums and Meat Funny Cartoon Show",
            "popularity": 4.104
        },
        {
            "id": 9950,
            "original_name": "Funny Face",
            "popularity": 2.014
        },
        {
            "id": 11384,
            "original_name": "The World's Funniest!",
            "popularity": 0.6
        },
        {
            "id": 11449,
            "original_name": "Funny Farm",
            "popularity": 0.6
        },
        {
            "id": 11549,
            "original_name": "The Funny Side",
            "popularity": 1.363
        },
        {
            "id": 11864,
            "original_name": "Magda's Funny Bits",
            "popularity": 0.6
        },
        {
            "id": 13357,
            "original_name": "Billy Bean and His Funny Machine",
            "popularity": 0.6
        },
        {
            "id": 13758,
            "original_name": "Funny Business",
            "popularity": 0.924
        },
        {
            "id": 13854,
            "original_name": "Matty's Funday Funnies",
            "popularity": 0.6
        },
        {
            "id": 14449,
            "original_name": "Funny Cuts",
            "popularity": 0.6
        },
        {
            "id": 14595,
            "original_name": "People are Funny",
            "popularity": 0.6
        },
        {
            "id": 16154,
            "original_name": "The Funny Company",
            "popularity": 0.6
        },
        {
            "id": 16273,
            "original_name": "Naked and Funny",
            "popularity": 3.847
        },
        {
            "id": 17048,
            "original_name": "The World's Funniest Pets",
            "popularity": 1.09
        },
        {
            "id": 17049,
            "original_name": "World's Funniest Party Disasters, Part 1",
            "popularity": 0.6
        },
        {
            "id": 17050,
            "original_name": "World'd Funniest Animal Outtakes, Part 1",
            "popularity": 0.6
        },
        {
            "id": 17051,
            "original_name": "World's Funniest Kids",
            "popularity": 0.6
        },
        {
            "id": 17761,
            "original_name": "Uncle Bill Reads the Funnies",
            "popularity": 0.6
        },
        {
            "id": 17949,
            "original_name": "National Lampoon's Funny Money",
            "popularity": 1.091
        },
        {
            "id": 18201,
            "original_name": "We're Funny That Way!",
            "popularity": 0.6
        },
        {
            "id": 19445,
            "original_name": "New Zealand's Funniest Home Videos",
            "popularity": 0.6
        },
        {
            "id": 20523,
            "original_name": "R U All That?: Nickelodeon's Search for the Funniest Kid in America",
            "popularity": 0.6
        },
        {
            "id": 20741,
            "original_name": "TV's Funniest Game Shows",
            "popularity": 0.6
        },
        {
            "id": 22116,
            "original_name": "Funniest Commercials of the Year",
            "popularity": 0.665
        },
        {
            "id": 22772,
            "original_name": "The Very Funny Show",
            "popularity": 0.6
        },
        {
            "id": 23208,
            "original_name": "It Pays To Be Funny",
            "popularity": 0.6
        },
        {
            "id": 23446,
            "original_name": "Technically Funny",
            "popularity": 0.6
        },
        {
            "id": 25201,
            "original_name": "Funny Ha Ha",
            "popularity": 0.6
        },
        {
            "id": 25306,
            "original_name": "Funnybone",
            "popularity": 0.6
        },
        {
            "id": 25512,
            "original_name": "Ken Dodd In 'Funny You Should Say That'",
            "popularity": 0.6
        },
        {
            "id": 26540,
            "original_name": "Two Funny: Cotter and Louise",
            "popularity": 0.6
        },
        {
            "id": 26662,
            "original_name": "Remotely Funny",
            "popularity": 0.6
        },
        {
            "id": 26722,
            "original_name": "Make 'Em Laugh: The Funny Business of America",
            "popularity": 0.6
        },
        {
            "id": 26800,
            "original_name": "Funny You Should Ask",
            "popularity": 0.6
        },
        {
            "id": 28128,
            "original_name": "The Funny Farm",
            "popularity": 0.6
        },
        {
            "id": 28232,
            "original_name": "The Funny Side",
            "popularity": 0.6
        },
        {
            "id": 28884,
            "original_name": "All New Planet's Funniest Animals",
            "popularity": 0.6
        },
        {
            "id": 30733,
            "original_name": "The World's Funniest Moments",
            "popularity": 1.093
        },
        {
            "id": 31288,
            "original_name": "The Comedy Festival Presents: Funniest Movies of the Year 2008",
            "popularity": 0.6
        },
        {
            "id": 31431,
            "original_name": "When Were We Funniest?",
            "popularity": 0.631
        },
        {
            "id": 32325,
            "original_name": "Dirty Sexy Funny",
            "popularity": 0.6
        },
        {
            "id": 32656,
            "original_name": "Funny or Die Presents",
            "popularity": 4.054
        },
        {
            "id": 34876,
            "original_name": "Too Funny To Sleep",
            "popularity": 0.6
        },
        {
            "id": 35050,
            "original_name": "Dick and Dom's Funny Business",
            "popularity": 1.094
        },
        {
            "id": 35651,
            "original_name": "Naked But Funny",
            "popularity": 0.6
        },
        {
            "id": 37125,
            "original_name": "Funny in Farsi",
            "popularity": 0.6
        },
        {
            "id": 37409,
            "original_name": "Funny Movie",
            "popularity": 0.847
        },
        {
            "id": 37614,
            "original_name": "Kids Say the Funniest Things",
            "popularity": 0.6
        },
        {
            "id": 38818,
            "original_name": "Seriously Funny Kids",
            "popularity": 1.093
        },
        {
            "id": 40071,
            "original_name": "Show Me the Funny",
            "popularity": 0.6
        },
        {
            "id": 40476,
            "original_name": "Animals Do the Funniest Things",
            "popularity": 0.6
        },
        {
            "id": 41109,
            "original_name": "Two Funny \u2013 Die Sketch Comedy",
            "popularity": 0.623
        },
        {
            "id": 41547,
            "original_name": "Funniest Pets & People",
            "popularity": 0.6
        },
        {
            "id": 43825,
            "original_name": "My Funniest Year",
            "popularity": 0.6
        },
        {
            "id": 43910,
            "original_name": "Funny Pets",
            "popularity": 0.6
        },
        {
            "id": 44227,
            "original_name": "Australia's Funniest Home Videos: Daily Edition",
            "popularity": 0.6
        },
        {
            "id": 44554,
            "original_name": "AFHV: World\u2019s Funniest Videos",
            "popularity": 0.6
        },
        {
            "id": 46955,
            "original_name": "What's So Funny?",
            "popularity": 0.6
        },
        {
            "id": 47276,
            "original_name": "Growing Up Funny",
            "popularity": 0.6
        },
        {
            "id": 47307,
            "original_name": "Rick Reynolds: Only the Truth Is Funny",
            "popularity": 0.6
        },
        {
            "id": 51676,
            "original_name": "DC's World's Funnest",
            "popularity": 0.874
        },
        {
            "id": 53974,
            "original_name": "Funny HaHa TV: The Douglas Web",
            "popularity": 0.6
        },
        {
            "id": 55379,
            "original_name": "Funny Roots",
            "popularity": 0.6
        },
        {
            "id": 55717,
            "original_name": "4funnies",
            "popularity": 0.6
        },
        {
            "id": 55921,
            "original_name": "Top 20 Funniest",
            "popularity": 0.6
        },
        {
            "id": 57870,
            "original_name": "Funny As Hell",
            "popularity": 0.6
        },
        {
            "id": 58577,
            "original_name": "World's Funniest Videos",
            "popularity": 0.6
        },
        {
            "id": 59327,
            "original_name": "Tim Conway's Funny America",
            "popularity": 0.6
        },
        {
            "id": 59734,
            "original_name": "Lee Nelson's Well Funny People",
            "popularity": 0.6
        },
        {
            "id": 60033,
            "original_name": "Qallunaat! Why White People Are Funny",
            "popularity": 0.6
        },
        {
            "id": 61125,
            "original_name": "Funniest Wins",
            "popularity": 0.736
        },
        {
            "id": 62379,
            "original_name": "Funny Girls",
            "popularity": 0.6
        },
        {
            "id": 63283,
            "original_name": "Funny Valentines",
            "popularity": 0.996
        },
        {
            "id": 72704,
            "original_name": "Funny How?",
            "popularity": 0.6
        },
        {
            "id": 79717,
            "original_name": "Funny Girls",
            "popularity": 0.908
        },
        {
            "id": 90563,
            "original_name": "Dressing Funny",
            "popularity": 0.6
        },
        {
            "id": 90985,
            "original_name": "Bring the Funny",
            "popularity": 0.945
        },
        {
            "id": 91826,
            "original_name": "Funny As: The Story of New Zealand Comedy",
            "popularity": 0.6
        },
        {
            "id": 94349,
            "original_name": "World's Funniest Fails",
            "popularity": 2.927
        },
        {
            "id": 96168,
            "original_name": "Funny Fridays",
            "popularity": 0.6
        },
        {
            "id": 100005,
            "original_name": "The Funny Dance Show",
            "popularity": 1.177
        },
        {
            "id": 102301,
            "original_name": "Funny Little Cars",
            "popularity": 1.198
        },
        {
            "id": 112473,
            "original_name": "World's Funniest Animals",
            "popularity": 0.6
        },
        {
            "id": 113399,
            "original_name": "Funniest Ever TV Cock Ups",
            "popularity": 0.6
        },
        {
            "id": 114632,
            "original_name": "The funny world of words",
            "popularity": 0.6
        },
        {
            "id": 118681,
            "original_name": "America's Funniest Home Videos: Animal Edition",
            "popularity": 1.559
        },
        {
            "id": 120458,
            "original_name": "Funny Festival Live",
            "popularity": 1.176
        },
        {
            "id": 126527,
            "original_name": "Amazon Funnies - 10 Minute Standups",
            "popularity": 0.84
        },
        {
            "id": 129463,
            "original_name": "That's Funny",
            "popularity": 0.6
        },
        {
            "id": 134031,
            "original_name": "Funny Side Up",
            "popularity": 0.6
        },
        {
            "id": 137342,
            "original_name": "The World's Funniest Weather",
            "popularity": 0.6
        },
        {
            "id": 137876,
            "original_name": "Alex Zane's Funny Rotten Scoundrels",
            "popularity": 0.6
        }
    ],
    "relations": [
        {
            "character": "funni"
        },
        {
            "character": "funny"
        },
        {
            "character": "funne"
        }
    ],
    "top20": [
        {
            "id": 4448,
            "original_name": "America's Funniest Home Videos",
            "popularity": 18.502
        },
        {
            "id": 9827,
            "original_name": "The Shnookums and Meat Funny Cartoon Show",
            "popularity": 4.104
        },
        {
            "id": 32656,
            "original_name": "Funny or Die Presents",
            "popularity": 4.054
        },
        {
            "id": 16273,
            "original_name": "Naked and Funny",
            "popularity": 3.847
        },
        {
            "id": 94349,
            "original_name": "World's Funniest Fails",
            "popularity": 2.927
        },
        {
            "id": 9950,
            "original_name": "Funny Face",
            "popularity": 2.014
        },
        {
            "id": 118681,
            "original_name": "America's Funniest Home Videos: Animal Edition",
            "popularity": 1.559
        },
        {
            "id": 4291,
            "original_name": "The Search for the Funniest Mom in America",
            "popularity": 1.39
        },
        {
            "id": 11549,
            "original_name": "The Funny Side",
            "popularity": 1.363
        },
        {
            "id": 5982,
            "original_name": "Funnybones",
            "popularity": 1.342
        },
        {
            "id": 102301,
            "original_name": "Funny Little Cars",
            "popularity": 1.198
        },
        {
            "id": 100005,
            "original_name": "The Funny Dance Show",
            "popularity": 1.177
        },
        {
            "id": 120458,
            "original_name": "Funny Festival Live",
            "popularity": 1.176
        },
        {
            "id": 35050,
            "original_name": "Dick and Dom's Funny Business",
            "popularity": 1.094
        },
        {
            "id": 38818,
            "original_name": "Seriously Funny Kids",
            "popularity": 1.093
        },
        {
            "id": 30733,
            "original_name": "The World's Funniest Moments",
            "popularity": 1.093
        },
        {
            "id": 17949,
            "original_name": "National Lampoon's Funny Money",
            "popularity": 1.091
        },
        {
            "id": 17048,
            "original_name": "The World's Funniest Pets",
            "popularity": 1.09
        },
        {
            "id": 63283,
            "original_name": "Funny Valentines",
            "popularity": 0.996
        },
        {
            "id": 90985,
            "original_name": "Bring the Funny",
            "popularity": 0.945
        }
    ]
}