{
    "data": [
        {
            "id": 27465,
            "original_name": "Kungamordet",
            "popularity": 0.689
        },
        {
            "id": 53259,
            "original_name": "Lista gamou",
            "popularity": 0.6
        },
        {
            "id": 103910,
            "original_name": "Pongamos que hablo de Sabina",
            "popularity": 0.84
        },
        {
            "id": 112065,
            "original_name": "Pongamos que hablo de Pedro Almod\u00f3var",
            "popularity": 0.6
        },
        {
            "id": 113605,
            "original_name": "Pongamos que hablo de Mecano",
            "popularity": 0.6
        },
        {
            "id": 115462,
            "original_name": "Pongamos que hablo de Penelope Cruz",
            "popularity": 0.6
        },
        {
            "id": 115463,
            "original_name": "Pongamos que hablo de: Sus Canciones",
            "popularity": 0.6
        },
        {
            "id": 119264,
            "original_name": "Sigamos de largo",
            "popularity": 24.193
        },
        {
            "id": 119707,
            "original_name": "Pongamos que hablo de",
            "popularity": 9.266
        },
        {
            "id": 122615,
            "original_name": "Pongamos que hablo de Camela",
            "popularity": 0.6
        }
    ],
    "relations": [],
    "top20": [
        {
            "id": 27465,
            "original_name": "Kungamordet",
            "popularity": 0.689
        },
        {
            "id": 53259,
            "original_name": "Lista gamou",
            "popularity": 0.6
        },
        {
            "id": 103910,
            "original_name": "Pongamos que hablo de Sabina",
            "popularity": 0.84
        },
        {
            "id": 112065,
            "original_name": "Pongamos que hablo de Pedro Almod\u00f3var",
            "popularity": 0.6
        },
        {
            "id": 113605,
            "original_name": "Pongamos que hablo de Mecano",
            "popularity": 0.6
        },
        {
            "id": 115462,
            "original_name": "Pongamos que hablo de Penelope Cruz",
            "popularity": 0.6
        },
        {
            "id": 115463,
            "original_name": "Pongamos que hablo de: Sus Canciones",
            "popularity": 0.6
        },
        {
            "id": 119264,
            "original_name": "Sigamos de largo",
            "popularity": 24.193
        },
        {
            "id": 119707,
            "original_name": "Pongamos que hablo de",
            "popularity": 9.266
        },
        {
            "id": 122615,
            "original_name": "Pongamos que hablo de Camela",
            "popularity": 0.6
        }
    ]
}