{
    "data": [
        {
            "id": 27722,
            "original_name": "Juu Senshi Garukiba",
            "popularity": 0.907
        },
        {
            "id": 132995,
            "original_name": "BIMA Satria Garuda",
            "popularity": 0.6
        }
    ],
    "relations": [],
    "top20": [
        {
            "id": 27722,
            "original_name": "Juu Senshi Garukiba",
            "popularity": 0.907
        },
        {
            "id": 132995,
            "original_name": "BIMA Satria Garuda",
            "popularity": 0.6
        }
    ]
}