{
    "data": [
        {
            "id": 36508,
            "original_name": "Dossier BvD! Een terugblik..",
            "popularity": 0.6
        }
    ],
    "relations": [],
    "top20": [
        {
            "id": 36508,
            "original_name": "Dossier BvD! Een terugblik..",
            "popularity": 0.6
        }
    ]
}