{
    "data": [
        {
            "id": 51562,
            "original_name": "Kongeligt bryllup",
            "popularity": 0.6
        },
        {
            "id": 54508,
            "original_name": "Kongeligt bryllup",
            "popularity": 0.6
        },
        {
            "id": 114243,
            "original_name": "Den kongelige livgarde",
            "popularity": 0.6
        }
    ],
    "relations": [],
    "top20": [
        {
            "id": 51562,
            "original_name": "Kongeligt bryllup",
            "popularity": 0.6
        },
        {
            "id": 54508,
            "original_name": "Kongeligt bryllup",
            "popularity": 0.6
        },
        {
            "id": 114243,
            "original_name": "Den kongelige livgarde",
            "popularity": 0.6
        }
    ]
}