{
    "data": [
        {
            "id": 3382,
            "original_name": "Charlie's Angels",
            "popularity": 23.277
        },
        {
            "id": 3587,
            "original_name": "No Angels",
            "popularity": 3.527
        },
        {
            "id": 4981,
            "original_name": "Fallen Angels",
            "popularity": 6.98
        },
        {
            "id": 6755,
            "original_name": "Casper And The Angels",
            "popularity": 2.533
        },
        {
            "id": 9773,
            "original_name": "Captain Caveman and the Teen Angels",
            "popularity": 11.002
        },
        {
            "id": 10323,
            "original_name": "City of Angels",
            "popularity": 3.271
        },
        {
            "id": 10651,
            "original_name": "Undercover Angels",
            "popularity": 0.6
        },
        {
            "id": 10951,
            "original_name": "City of Angels",
            "popularity": 2.584
        },
        {
            "id": 11245,
            "original_name": "Angels in America",
            "popularity": 8.798
        },
        {
            "id": 12719,
            "original_name": "Angels",
            "popularity": 7.571
        },
        {
            "id": 14352,
            "original_name": "Date with the Angels",
            "popularity": 4.208
        },
        {
            "id": 14483,
            "original_name": "Little Angels",
            "popularity": 0.6
        },
        {
            "id": 16096,
            "original_name": "Fallen Angels",
            "popularity": 0.6
        },
        {
            "id": 17494,
            "original_name": "The Blue Angels",
            "popularity": 3.651
        },
        {
            "id": 21105,
            "original_name": "NASCAR Angels",
            "popularity": 0.6
        },
        {
            "id": 24292,
            "original_name": "Vroege vogels",
            "popularity": 0.847
        },
        {
            "id": 24306,
            "original_name": "Angels",
            "popularity": 0.83
        },
        {
            "id": 24858,
            "original_name": "Rage of Angels",
            "popularity": 2.519
        },
        {
            "id": 27043,
            "original_name": "Misguided Angels",
            "popularity": 0.6
        },
        {
            "id": 28027,
            "original_name": "Guardian Angels, MD",
            "popularity": 0.6
        },
        {
            "id": 30095,
            "original_name": "Teen Angels",
            "popularity": 0.6
        },
        {
            "id": 35282,
            "original_name": "Charlie's Angels",
            "popularity": 9.922
        },
        {
            "id": 36011,
            "original_name": "En \u00e4ngels t\u00e5lamod",
            "popularity": 1.121
        },
        {
            "id": 36424,
            "original_name": "Een tuin vol vogels",
            "popularity": 0.6
        },
        {
            "id": 37610,
            "original_name": "Nautical Angels",
            "popularity": 0.6
        },
        {
            "id": 43148,
            "original_name": "Angels Among Us",
            "popularity": 0.6
        },
        {
            "id": 44326,
            "original_name": "Garden Angels",
            "popularity": 0.6
        },
        {
            "id": 53636,
            "original_name": "Papa's Angels",
            "popularity": 0.6
        },
        {
            "id": 55038,
            "original_name": "Engelska mord",
            "popularity": 0.6
        },
        {
            "id": 60798,
            "original_name": "Engels & Consorten",
            "popularity": 1.189
        },
        {
            "id": 63261,
            "original_name": "Bagels & Bubbels: zij hoort bij mij",
            "popularity": 1.513
        },
        {
            "id": 63754,
            "original_name": "Outlaw Chronicles: Hells Angels",
            "popularity": 0.947
        },
        {
            "id": 64908,
            "original_name": "Working the Engels",
            "popularity": 0.6
        },
        {
            "id": 68475,
            "original_name": "Blue Angels: A Year in the Life",
            "popularity": 0.6
        },
        {
            "id": 73539,
            "original_name": "Den perfekte opdragelse?",
            "popularity": 0.6
        },
        {
            "id": 74395,
            "original_name": "Ink Master: Angels",
            "popularity": 5.072
        },
        {
            "id": 77608,
            "original_name": "Falling for Angels",
            "popularity": 2.218
        },
        {
            "id": 79016,
            "original_name": "Rage of Angels: The Story Continues",
            "popularity": 1.4
        },
        {
            "id": 80406,
            "original_name": "Angels' Cam",
            "popularity": 1.4
        },
        {
            "id": 83685,
            "original_name": "Penny Dreadful: City of Angels",
            "popularity": 22.33
        },
        {
            "id": 95298,
            "original_name": "De Paradijsvogels",
            "popularity": 1.488
        },
        {
            "id": 99788,
            "original_name": "FreakAngels",
            "popularity": 0.6
        },
        {
            "id": 100795,
            "original_name": "De Regels van Floor",
            "popularity": 2.133
        },
        {
            "id": 107377,
            "original_name": "Angels in Disguise",
            "popularity": 0.6
        },
        {
            "id": 109314,
            "original_name": "De hemmelige optagelser med Peter Madsen",
            "popularity": 0.6
        },
        {
            "id": 116869,
            "original_name": "Ich bin ein Star - Die gro\u00dfe Dschungelshow",
            "popularity": 2.299
        },
        {
            "id": 117063,
            "original_name": "Drehkreuz des Drogenschmuggels",
            "popularity": 0.721
        },
        {
            "id": 119065,
            "original_name": "Ignorant Angels",
            "popularity": 0.6
        },
        {
            "id": 120052,
            "original_name": "Lives oppdragelsesreise",
            "popularity": 0.6
        },
        {
            "id": 132123,
            "original_name": "Angels of Death",
            "popularity": 4.625
        },
        {
            "id": 138999,
            "original_name": "City of Angels | City of Death",
            "popularity": 6.902
        }
    ],
    "relations": [
        {
            "character": "gelsk"
        },
        {
            "character": "gelse"
        },
        {
            "character": "gelsh"
        }
    ],
    "top20": [
        {
            "id": 3382,
            "original_name": "Charlie's Angels",
            "popularity": 23.277
        },
        {
            "id": 83685,
            "original_name": "Penny Dreadful: City of Angels",
            "popularity": 22.33
        },
        {
            "id": 9773,
            "original_name": "Captain Caveman and the Teen Angels",
            "popularity": 11.002
        },
        {
            "id": 35282,
            "original_name": "Charlie's Angels",
            "popularity": 9.922
        },
        {
            "id": 11245,
            "original_name": "Angels in America",
            "popularity": 8.798
        },
        {
            "id": 12719,
            "original_name": "Angels",
            "popularity": 7.571
        },
        {
            "id": 4981,
            "original_name": "Fallen Angels",
            "popularity": 6.98
        },
        {
            "id": 138999,
            "original_name": "City of Angels | City of Death",
            "popularity": 6.902
        },
        {
            "id": 74395,
            "original_name": "Ink Master: Angels",
            "popularity": 5.072
        },
        {
            "id": 132123,
            "original_name": "Angels of Death",
            "popularity": 4.625
        },
        {
            "id": 14352,
            "original_name": "Date with the Angels",
            "popularity": 4.208
        },
        {
            "id": 17494,
            "original_name": "The Blue Angels",
            "popularity": 3.651
        },
        {
            "id": 3587,
            "original_name": "No Angels",
            "popularity": 3.527
        },
        {
            "id": 10323,
            "original_name": "City of Angels",
            "popularity": 3.271
        },
        {
            "id": 10951,
            "original_name": "City of Angels",
            "popularity": 2.584
        },
        {
            "id": 6755,
            "original_name": "Casper And The Angels",
            "popularity": 2.533
        },
        {
            "id": 24858,
            "original_name": "Rage of Angels",
            "popularity": 2.519
        },
        {
            "id": 116869,
            "original_name": "Ich bin ein Star - Die gro\u00dfe Dschungelshow",
            "popularity": 2.299
        },
        {
            "id": 77608,
            "original_name": "Falling for Angels",
            "popularity": 2.218
        },
        {
            "id": 100795,
            "original_name": "De Regels van Floor",
            "popularity": 2.133
        }
    ]
}