{
    "data": [
        {
            "id": 41678,
            "original_name": "Gli incubi di Dario Argento",
            "popularity": 0.6
        }
    ],
    "relations": [],
    "top20": [
        {
            "id": 41678,
            "original_name": "Gli incubi di Dario Argento",
            "popularity": 0.6
        }
    ]
}