{
    "data": [
        {
            "id": 42984,
            "original_name": "The Bourgeoisie",
            "popularity": 0.6
        },
        {
            "id": 55501,
            "original_name": "Sar Sgeoil (Classic Tales)",
            "popularity": 0.6
        },
        {
            "id": 92909,
            "original_name": "Beno\u00eet le villageois",
            "popularity": 0.6
        }
    ],
    "relations": [],
    "top20": [
        {
            "id": 42984,
            "original_name": "The Bourgeoisie",
            "popularity": 0.6
        },
        {
            "id": 55501,
            "original_name": "Sar Sgeoil (Classic Tales)",
            "popularity": 0.6
        },
        {
            "id": 92909,
            "original_name": "Beno\u00eet le villageois",
            "popularity": 0.6
        }
    ]
}