{
    "data": [
        {
            "id": 553,
            "original_name": "Dungeons & Dragons",
            "popularity": 10.86
        },
        {
            "id": 47226,
            "original_name": "Where Pigeons Go to Die",
            "popularity": 0.6
        },
        {
            "id": 70895,
            "original_name": "Pigeons & dragons",
            "popularity": 0.634
        },
        {
            "id": 76238,
            "original_name": "Surgeons: At the Edge of Life",
            "popularity": 17.053
        },
        {
            "id": 80779,
            "original_name": "The Celebrity Plastic Surgeons of Beverly Hills",
            "popularity": 1.097
        },
        {
            "id": 94903,
            "original_name": "The Surgeons",
            "popularity": 0.6
        },
        {
            "id": 110349,
            "original_name": "Brain Surgeons: Between Life and Death",
            "popularity": 0.6
        },
        {
            "id": 113970,
            "original_name": "War Surgeons",
            "popularity": 0.6
        },
        {
            "id": 126496,
            "original_name": "Baby Surgeons: Delivering Miracles",
            "popularity": 1.178
        },
        {
            "id": 132858,
            "original_name": "On n'est pas des pigeons !",
            "popularity": 0.6
        }
    ],
    "relations": [],
    "top20": [
        {
            "id": 553,
            "original_name": "Dungeons & Dragons",
            "popularity": 10.86
        },
        {
            "id": 47226,
            "original_name": "Where Pigeons Go to Die",
            "popularity": 0.6
        },
        {
            "id": 70895,
            "original_name": "Pigeons & dragons",
            "popularity": 0.634
        },
        {
            "id": 76238,
            "original_name": "Surgeons: At the Edge of Life",
            "popularity": 17.053
        },
        {
            "id": 80779,
            "original_name": "The Celebrity Plastic Surgeons of Beverly Hills",
            "popularity": 1.097
        },
        {
            "id": 94903,
            "original_name": "The Surgeons",
            "popularity": 0.6
        },
        {
            "id": 110349,
            "original_name": "Brain Surgeons: Between Life and Death",
            "popularity": 0.6
        },
        {
            "id": 113970,
            "original_name": "War Surgeons",
            "popularity": 0.6
        },
        {
            "id": 126496,
            "original_name": "Baby Surgeons: Delivering Miracles",
            "popularity": 1.178
        },
        {
            "id": 132858,
            "original_name": "On n'est pas des pigeons !",
            "popularity": 0.6
        }
    ]
}