{
    "data": [
        {
            "id": 11592,
            "original_name": "TigerSharks",
            "popularity": 0.6
        },
        {
            "id": 28257,
            "original_name": "Rocked with Gina Gershon",
            "popularity": 0.842
        },
        {
            "id": 46379,
            "original_name": "What Makes a Gershwin Tune a Gershwin Tune?",
            "popularity": 0.6
        },
        {
            "id": 49356,
            "original_name": "Rhapsody and Song: A Tribute to George Gershwin",
            "popularity": 0.6
        }
    ],
    "relations": [],
    "top20": [
        {
            "id": 11592,
            "original_name": "TigerSharks",
            "popularity": 0.6
        },
        {
            "id": 28257,
            "original_name": "Rocked with Gina Gershon",
            "popularity": 0.842
        },
        {
            "id": 46379,
            "original_name": "What Makes a Gershwin Tune a Gershwin Tune?",
            "popularity": 0.6
        },
        {
            "id": 49356,
            "original_name": "Rhapsody and Song: A Tribute to George Gershwin",
            "popularity": 0.6
        }
    ]
}