{
    "data": [
        {
            "id": 36679,
            "original_name": "Gr\u00e4fin gesucht - Adel auf Brautschau",
            "popularity": 0.6
        },
        {
            "id": 46055,
            "original_name": "Schwiegertochter gesucht",
            "popularity": 0.92
        },
        {
            "id": 64426,
            "original_name": "Gesucht wird...",
            "popularity": 1.4
        },
        {
            "id": 66964,
            "original_name": "Gesundheits-Check",
            "popularity": 0.6
        },
        {
            "id": 69833,
            "original_name": "Traumfrau Gesucht",
            "popularity": 0.6
        },
        {
            "id": 74732,
            "original_name": "Gesucht wird M\u00f6rder X",
            "popularity": 1.4
        },
        {
            "id": 78765,
            "original_name": "Gesucht wird Ricki Forster",
            "popularity": 0.6
        },
        {
            "id": 116925,
            "original_name": "Million\u00e4r gesucht! - Die SKL Show",
            "popularity": 4.106
        },
        {
            "id": 120519,
            "original_name": "Vorfahren gesucht",
            "popularity": 0.858
        }
    ],
    "relations": [],
    "top20": [
        {
            "id": 36679,
            "original_name": "Gr\u00e4fin gesucht - Adel auf Brautschau",
            "popularity": 0.6
        },
        {
            "id": 46055,
            "original_name": "Schwiegertochter gesucht",
            "popularity": 0.92
        },
        {
            "id": 64426,
            "original_name": "Gesucht wird...",
            "popularity": 1.4
        },
        {
            "id": 66964,
            "original_name": "Gesundheits-Check",
            "popularity": 0.6
        },
        {
            "id": 69833,
            "original_name": "Traumfrau Gesucht",
            "popularity": 0.6
        },
        {
            "id": 74732,
            "original_name": "Gesucht wird M\u00f6rder X",
            "popularity": 1.4
        },
        {
            "id": 78765,
            "original_name": "Gesucht wird Ricki Forster",
            "popularity": 0.6
        },
        {
            "id": 116925,
            "original_name": "Million\u00e4r gesucht! - Die SKL Show",
            "popularity": 4.106
        },
        {
            "id": 120519,
            "original_name": "Vorfahren gesucht",
            "popularity": 0.858
        }
    ]
}