{
    "data": [
        {
            "id": 53775,
            "original_name": "Ghareeb Fi Al-Madina",
            "popularity": 0.6
        },
        {
            "id": 54754,
            "original_name": "Ghareeb El Dar",
            "popularity": 0.6
        }
    ],
    "relations": [],
    "top20": [
        {
            "id": 53775,
            "original_name": "Ghareeb Fi Al-Madina",
            "popularity": 0.6
        },
        {
            "id": 54754,
            "original_name": "Ghareeb El Dar",
            "popularity": 0.6
        }
    ]
}