{
    "data": [
        {
            "id": 1875,
            "original_name": "Sons & Daughters",
            "popularity": 3.214
        },
        {
            "id": 2041,
            "original_name": "McLeod's Daughters",
            "popularity": 14.336
        },
        {
            "id": 2230,
            "original_name": "Tattooed Teenage Alien Fighters from Beverly Hills",
            "popularity": 1.434
        },
        {
            "id": 2266,
            "original_name": "Sons and Daughters",
            "popularity": 1.783
        },
        {
            "id": 9719,
            "original_name": "Wives and Daughters",
            "popularity": 7.076
        },
        {
            "id": 9926,
            "original_name": "Sons and Daughters",
            "popularity": 1.4
        },
        {
            "id": 13708,
            "original_name": "Our Five Daughters",
            "popularity": 0.928
        },
        {
            "id": 27606,
            "original_name": "Red Bull X-Fighters",
            "popularity": 0.6
        },
        {
            "id": 29312,
            "original_name": "Doctors' Daughters",
            "popularity": 0.6
        },
        {
            "id": 29500,
            "original_name": "Grimefighters",
            "popularity": 0.6
        },
        {
            "id": 29898,
            "original_name": "Sons and Daughters",
            "popularity": 1.388
        },
        {
            "id": 30354,
            "original_name": "Fearfighters",
            "popularity": 0.6
        },
        {
            "id": 30848,
            "original_name": "L.A. Firefighters",
            "popularity": 2.554
        },
        {
            "id": 31189,
            "original_name": "Dallas Divas & Daughters",
            "popularity": 0.6
        },
        {
            "id": 32568,
            "original_name": "Five Daughters",
            "popularity": 1.808
        },
        {
            "id": 35186,
            "original_name": "Food Fighters",
            "popularity": 0.6
        },
        {
            "id": 39788,
            "original_name": "Runaway Daughters",
            "popularity": 0.6
        },
        {
            "id": 56715,
            "original_name": "Foo Fighters: Wasting Light On The Harbour",
            "popularity": 0.6
        },
        {
            "id": 56989,
            "original_name": "Daddy's Daughters",
            "popularity": 0.6
        },
        {
            "id": 58687,
            "original_name": "Preachers' Daughters",
            "popularity": 0.956
        },
        {
            "id": 60860,
            "original_name": "Foo Fighters Sonic Highways",
            "popularity": 3.29
        },
        {
            "id": 61086,
            "original_name": "Food Fighters",
            "popularity": 1.063
        },
        {
            "id": 67606,
            "original_name": "UFC 200 Greatest Fighters of All Time",
            "popularity": 0.6
        },
        {
            "id": 68601,
            "original_name": "The Warfighters",
            "popularity": 0.629
        },
        {
            "id": 70346,
            "original_name": "Guesthouse Daughters",
            "popularity": 1.45
        },
        {
            "id": 73073,
            "original_name": "Daughters of Destiny",
            "popularity": 1.695
        },
        {
            "id": 75116,
            "original_name": "Stretch Armstrong & the Flex Fighters",
            "popularity": 4.904
        },
        {
            "id": 75486,
            "original_name": "Freedom Fighters: The Ray",
            "popularity": 5.272
        },
        {
            "id": 81172,
            "original_name": "Daughters of Eve",
            "popularity": 0.886
        },
        {
            "id": 102744,
            "original_name": "The Warfighters",
            "popularity": 0.6
        },
        {
            "id": 115869,
            "original_name": "\u8d85\u4eba\u5b66\u5712\u30b4\u30a6\u30ab\u30a4\u30b6\u30fc THE VOLTAGE FIGHTERS",
            "popularity": 0.991
        },
        {
            "id": 129884,
            "original_name": "Yorkshire Firefighters",
            "popularity": 0.6
        },
        {
            "id": 138612,
            "original_name": "Lego Monster Fighters",
            "popularity": 1.4
        }
    ],
    "relations": [],
    "top20": [
        {
            "id": 2041,
            "original_name": "McLeod's Daughters",
            "popularity": 14.336
        },
        {
            "id": 9719,
            "original_name": "Wives and Daughters",
            "popularity": 7.076
        },
        {
            "id": 75486,
            "original_name": "Freedom Fighters: The Ray",
            "popularity": 5.272
        },
        {
            "id": 75116,
            "original_name": "Stretch Armstrong & the Flex Fighters",
            "popularity": 4.904
        },
        {
            "id": 60860,
            "original_name": "Foo Fighters Sonic Highways",
            "popularity": 3.29
        },
        {
            "id": 1875,
            "original_name": "Sons & Daughters",
            "popularity": 3.214
        },
        {
            "id": 30848,
            "original_name": "L.A. Firefighters",
            "popularity": 2.554
        },
        {
            "id": 32568,
            "original_name": "Five Daughters",
            "popularity": 1.808
        },
        {
            "id": 2266,
            "original_name": "Sons and Daughters",
            "popularity": 1.783
        },
        {
            "id": 73073,
            "original_name": "Daughters of Destiny",
            "popularity": 1.695
        },
        {
            "id": 70346,
            "original_name": "Guesthouse Daughters",
            "popularity": 1.45
        },
        {
            "id": 2230,
            "original_name": "Tattooed Teenage Alien Fighters from Beverly Hills",
            "popularity": 1.434
        },
        {
            "id": 9926,
            "original_name": "Sons and Daughters",
            "popularity": 1.4
        },
        {
            "id": 138612,
            "original_name": "Lego Monster Fighters",
            "popularity": 1.4
        },
        {
            "id": 29898,
            "original_name": "Sons and Daughters",
            "popularity": 1.388
        },
        {
            "id": 61086,
            "original_name": "Food Fighters",
            "popularity": 1.063
        },
        {
            "id": 115869,
            "original_name": "\u8d85\u4eba\u5b66\u5712\u30b4\u30a6\u30ab\u30a4\u30b6\u30fc THE VOLTAGE FIGHTERS",
            "popularity": 0.991
        },
        {
            "id": 58687,
            "original_name": "Preachers' Daughters",
            "popularity": 0.956
        },
        {
            "id": 13708,
            "original_name": "Our Five Daughters",
            "popularity": 0.928
        },
        {
            "id": 81172,
            "original_name": "Daughters of Eve",
            "popularity": 0.886
        }
    ]
}