{
    "data": [
        {
            "id": 3802,
            "original_name": "The Highwayman",
            "popularity": 3.342
        },
        {
            "id": 130644,
            "original_name": "Britain's Outlaws: Highwaymen, Pirates and Rogues",
            "popularity": 0.6
        }
    ],
    "relations": [],
    "top20": [
        {
            "id": 3802,
            "original_name": "The Highwayman",
            "popularity": 3.342
        },
        {
            "id": 130644,
            "original_name": "Britain's Outlaws: Highwaymen, Pirates and Rogues",
            "popularity": 0.6
        }
    ]
}