{
    "data": [
        {
            "id": 1580,
            "original_name": "Gidget",
            "popularity": 8.158
        },
        {
            "id": 2196,
            "original_name": "Gideon's Way",
            "popularity": 5.408
        },
        {
            "id": 5542,
            "original_name": "Los protegidos",
            "popularity": 3.99
        },
        {
            "id": 7369,
            "original_name": "Gideon Oliver",
            "popularity": 1.72
        },
        {
            "id": 10028,
            "original_name": "The New Gidget",
            "popularity": 1.737
        },
        {
            "id": 10374,
            "original_name": "Gideon's Crossing",
            "popularity": 2.607
        },
        {
            "id": 14588,
            "original_name": "Gideon",
            "popularity": 0.6
        },
        {
            "id": 19592,
            "original_name": "The Giddy Game Show",
            "popularity": 0.6
        },
        {
            "id": 27482,
            "original_name": "St. Brigid's Medical",
            "popularity": 0.6
        },
        {
            "id": 48308,
            "original_name": "Me\u00e7hule Gidenler",
            "popularity": 0.6
        },
        {
            "id": 48751,
            "original_name": "Gidget's Summer Reunion",
            "popularity": 0.6
        },
        {
            "id": 49567,
            "original_name": "\u00dcsk\u00fcdar'a Giderken",
            "popularity": 0.6
        },
        {
            "id": 51963,
            "original_name": "Ngidam",
            "popularity": 0.6
        },
        {
            "id": 54346,
            "original_name": "Gidar El-Kalb",
            "popularity": 0.6
        },
        {
            "id": 55996,
            "original_name": "Ragol Ghany Faqeer Giddan",
            "popularity": 0.6
        },
        {
            "id": 56121,
            "original_name": "Khas Giddan",
            "popularity": 0.6
        },
        {
            "id": 56174,
            "original_name": "Gideon",
            "popularity": 0.6
        },
        {
            "id": 62466,
            "original_name": "Los protegidos",
            "popularity": 17.819
        },
        {
            "id": 71302,
            "original_name": "Gidseltagningen",
            "popularity": 6.844
        },
        {
            "id": 77691,
            "original_name": "Kalk Gidelim",
            "popularity": 1.765
        },
        {
            "id": 90652,
            "original_name": "Los Elegidos",
            "popularity": 3.359
        },
        {
            "id": 104394,
            "original_name": "Jeeva Hoovagide",
            "popularity": 0.6
        },
        {
            "id": 109933,
            "original_name": "El elegido",
            "popularity": 0.6
        },
        {
            "id": 123374,
            "original_name": "Los protegidos: El regreso",
            "popularity": 32.052
        },
        {
            "id": 133270,
            "original_name": "De Blauwe Gids",
            "popularity": 0.6
        },
        {
            "id": 135023,
            "original_name": "La nieta elegida",
            "popularity": 32.743
        }
    ],
    "relations": [
        {
            "character": "gidg"
        },
        {
            "character": "gide"
        },
        {
            "character": "gido"
        },
        {
            "character": "gidd"
        },
        {
            "character": "gida"
        },
        {
            "character": "gids"
        }
    ],
    "top20": [
        {
            "id": 135023,
            "original_name": "La nieta elegida",
            "popularity": 32.743
        },
        {
            "id": 123374,
            "original_name": "Los protegidos: El regreso",
            "popularity": 32.052
        },
        {
            "id": 62466,
            "original_name": "Los protegidos",
            "popularity": 17.819
        },
        {
            "id": 1580,
            "original_name": "Gidget",
            "popularity": 8.158
        },
        {
            "id": 71302,
            "original_name": "Gidseltagningen",
            "popularity": 6.844
        },
        {
            "id": 2196,
            "original_name": "Gideon's Way",
            "popularity": 5.408
        },
        {
            "id": 5542,
            "original_name": "Los protegidos",
            "popularity": 3.99
        },
        {
            "id": 90652,
            "original_name": "Los Elegidos",
            "popularity": 3.359
        },
        {
            "id": 10374,
            "original_name": "Gideon's Crossing",
            "popularity": 2.607
        },
        {
            "id": 77691,
            "original_name": "Kalk Gidelim",
            "popularity": 1.765
        },
        {
            "id": 10028,
            "original_name": "The New Gidget",
            "popularity": 1.737
        },
        {
            "id": 7369,
            "original_name": "Gideon Oliver",
            "popularity": 1.72
        },
        {
            "id": 19592,
            "original_name": "The Giddy Game Show",
            "popularity": 0.6
        },
        {
            "id": 51963,
            "original_name": "Ngidam",
            "popularity": 0.6
        },
        {
            "id": 14588,
            "original_name": "Gideon",
            "popularity": 0.6
        },
        {
            "id": 54346,
            "original_name": "Gidar El-Kalb",
            "popularity": 0.6
        },
        {
            "id": 49567,
            "original_name": "\u00dcsk\u00fcdar'a Giderken",
            "popularity": 0.6
        },
        {
            "id": 48308,
            "original_name": "Me\u00e7hule Gidenler",
            "popularity": 0.6
        },
        {
            "id": 48751,
            "original_name": "Gidget's Summer Reunion",
            "popularity": 0.6
        },
        {
            "id": 27482,
            "original_name": "St. Brigid's Medical",
            "popularity": 0.6
        }
    ]
}