{
    "data": [
        {
            "id": 51322,
            "original_name": "Gieo gi\u00f3",
            "popularity": 0.6
        }
    ],
    "relations": [],
    "top20": [
        {
            "id": 51322,
            "original_name": "Gieo gi\u00f3",
            "popularity": 0.6
        }
    ]
}