{
    "data": [
        {
            "id": 125876,
            "original_name": "Beruf: K\u00f6nigin!",
            "popularity": 0.6
        }
    ],
    "relations": [],
    "top20": [
        {
            "id": 125876,
            "original_name": "Beruf: K\u00f6nigin!",
            "popularity": 0.6
        }
    ]
}