{
    "data": [
        {
            "id": 2398,
            "original_name": "Girlfriends",
            "popularity": 13.637
        },
        {
            "id": 18374,
            "original_name": "Search for the Perfect Girlfriend",
            "popularity": 0.966
        },
        {
            "id": 30579,
            "original_name": "Test Drive My Girlfriend",
            "popularity": 0.6
        },
        {
            "id": 31074,
            "original_name": "Secret Girlfriend",
            "popularity": 1.911
        },
        {
            "id": 36931,
            "original_name": "Diary of a Hip Hop Girlfriend",
            "popularity": 0.654
        },
        {
            "id": 42310,
            "original_name": "Steal Ur Girlfriend",
            "popularity": 0.6
        },
        {
            "id": 43006,
            "original_name": "We Need Girlfriends",
            "popularity": 0.6
        },
        {
            "id": 55499,
            "original_name": "Girlfri3nds",
            "popularity": 0.6
        },
        {
            "id": 55759,
            "original_name": "Who want's to fuck my girlfriend?",
            "popularity": 0.806
        },
        {
            "id": 58941,
            "original_name": "Girlfriend in a Coma",
            "popularity": 0.6
        },
        {
            "id": 62187,
            "original_name": "Girlfriends' Guide to Divorce",
            "popularity": 14.394
        },
        {
            "id": 63161,
            "original_name": "Crazy Ex-Girlfriend",
            "popularity": 24.03
        },
        {
            "id": 64387,
            "original_name": "The Girlfriend Experience",
            "popularity": 35.902
        },
        {
            "id": 74652,
            "original_name": "Girlfriend Aku Dari Neraka the Series",
            "popularity": 1.367
        },
        {
            "id": 76106,
            "original_name": "Girlfriends",
            "popularity": 2.539
        },
        {
            "id": 78791,
            "original_name": "A.I.SHA My Virtual Girlfriend",
            "popularity": 0.866
        },
        {
            "id": 81503,
            "original_name": "Girlfriend Friday",
            "popularity": 0.605
        },
        {
            "id": 82078,
            "original_name": "Undercover Girlfriends",
            "popularity": 0.668
        },
        {
            "id": 89497,
            "original_name": "My Girlfriends Secret",
            "popularity": 1.229
        },
        {
            "id": 102153,
            "original_name": "Girlfriend Chor",
            "popularity": 0.6
        },
        {
            "id": 121243,
            "original_name": "Playboy Girlfriends",
            "popularity": 1.064
        },
        {
            "id": 122116,
            "original_name": "Sumer Singh Case Files: Girlfriends",
            "popularity": 0.84
        },
        {
            "id": 132781,
            "original_name": "Girlfriend",
            "popularity": 0.6
        }
    ],
    "relations": [
        {
            "character": "girlfrie"
        },
        {
            "character": "girlfri3"
        }
    ],
    "top20": [
        {
            "id": 64387,
            "original_name": "The Girlfriend Experience",
            "popularity": 35.902
        },
        {
            "id": 63161,
            "original_name": "Crazy Ex-Girlfriend",
            "popularity": 24.03
        },
        {
            "id": 62187,
            "original_name": "Girlfriends' Guide to Divorce",
            "popularity": 14.394
        },
        {
            "id": 2398,
            "original_name": "Girlfriends",
            "popularity": 13.637
        },
        {
            "id": 76106,
            "original_name": "Girlfriends",
            "popularity": 2.539
        },
        {
            "id": 31074,
            "original_name": "Secret Girlfriend",
            "popularity": 1.911
        },
        {
            "id": 74652,
            "original_name": "Girlfriend Aku Dari Neraka the Series",
            "popularity": 1.367
        },
        {
            "id": 89497,
            "original_name": "My Girlfriends Secret",
            "popularity": 1.229
        },
        {
            "id": 121243,
            "original_name": "Playboy Girlfriends",
            "popularity": 1.064
        },
        {
            "id": 18374,
            "original_name": "Search for the Perfect Girlfriend",
            "popularity": 0.966
        },
        {
            "id": 78791,
            "original_name": "A.I.SHA My Virtual Girlfriend",
            "popularity": 0.866
        },
        {
            "id": 122116,
            "original_name": "Sumer Singh Case Files: Girlfriends",
            "popularity": 0.84
        },
        {
            "id": 55759,
            "original_name": "Who want's to fuck my girlfriend?",
            "popularity": 0.806
        },
        {
            "id": 82078,
            "original_name": "Undercover Girlfriends",
            "popularity": 0.668
        },
        {
            "id": 36931,
            "original_name": "Diary of a Hip Hop Girlfriend",
            "popularity": 0.654
        },
        {
            "id": 81503,
            "original_name": "Girlfriend Friday",
            "popularity": 0.605
        },
        {
            "id": 55499,
            "original_name": "Girlfri3nds",
            "popularity": 0.6
        },
        {
            "id": 42310,
            "original_name": "Steal Ur Girlfriend",
            "popularity": 0.6
        },
        {
            "id": 43006,
            "original_name": "We Need Girlfriends",
            "popularity": 0.6
        },
        {
            "id": 30579,
            "original_name": "Test Drive My Girlfriend",
            "popularity": 0.6
        }
    ]
}