{
    "data": [
        {
            "id": 41164,
            "original_name": "Gisbert",
            "popularity": 0.737
        }
    ],
    "relations": [],
    "top20": [
        {
            "id": 41164,
            "original_name": "Gisbert",
            "popularity": 0.737
        }
    ]
}