{
    "data": [
        {
            "id": 15234,
            "original_name": "Digital LG Quiz",
            "popularity": 0.6
        },
        {
            "id": 21282,
            "original_name": "Digital Age",
            "popularity": 0.6
        },
        {
            "id": 31467,
            "original_name": "Digital Tour",
            "popularity": 0.6
        },
        {
            "id": 37800,
            "original_name": "PC World's Digital Duo",
            "popularity": 0.6
        },
        {
            "id": 46332,
            "original_name": "H+: The Digital Series",
            "popularity": 2.269
        },
        {
            "id": 50302,
            "original_name": "Digital Clip",
            "popularity": 0.6
        },
        {
            "id": 52342,
            "original_name": "The X Factor Digital Experience",
            "popularity": 0.6
        },
        {
            "id": 67088,
            "original_name": "Mr. Robot Digital After Show",
            "popularity": 3.515
        },
        {
            "id": 67840,
            "original_name": "Geheimnisse der digitalen Revolution",
            "popularity": 0.6
        },
        {
            "id": 76343,
            "original_name": "Homo Digitalis",
            "popularity": 0.6
        },
        {
            "id": 87212,
            "original_name": "Alien: Isolation \u2014 The Digital Series",
            "popularity": 2.79
        },
        {
            "id": 102530,
            "original_name": "Digital Drag Fest",
            "popularity": 0.6
        },
        {
            "id": 118275,
            "original_name": "Digital Juice",
            "popularity": 0.841
        },
        {
            "id": 123305,
            "original_name": "A Digital Picture of Britain",
            "popularity": 0.6
        },
        {
            "id": 134110,
            "original_name": "Pecados digitales",
            "popularity": 2.105
        }
    ],
    "relations": [],
    "top20": [
        {
            "id": 15234,
            "original_name": "Digital LG Quiz",
            "popularity": 0.6
        },
        {
            "id": 21282,
            "original_name": "Digital Age",
            "popularity": 0.6
        },
        {
            "id": 31467,
            "original_name": "Digital Tour",
            "popularity": 0.6
        },
        {
            "id": 37800,
            "original_name": "PC World's Digital Duo",
            "popularity": 0.6
        },
        {
            "id": 46332,
            "original_name": "H+: The Digital Series",
            "popularity": 2.269
        },
        {
            "id": 50302,
            "original_name": "Digital Clip",
            "popularity": 0.6
        },
        {
            "id": 52342,
            "original_name": "The X Factor Digital Experience",
            "popularity": 0.6
        },
        {
            "id": 67088,
            "original_name": "Mr. Robot Digital After Show",
            "popularity": 3.515
        },
        {
            "id": 67840,
            "original_name": "Geheimnisse der digitalen Revolution",
            "popularity": 0.6
        },
        {
            "id": 76343,
            "original_name": "Homo Digitalis",
            "popularity": 0.6
        },
        {
            "id": 87212,
            "original_name": "Alien: Isolation \u2014 The Digital Series",
            "popularity": 2.79
        },
        {
            "id": 102530,
            "original_name": "Digital Drag Fest",
            "popularity": 0.6
        },
        {
            "id": 118275,
            "original_name": "Digital Juice",
            "popularity": 0.841
        },
        {
            "id": 123305,
            "original_name": "A Digital Picture of Britain",
            "popularity": 0.6
        },
        {
            "id": 134110,
            "original_name": "Pecados digitales",
            "popularity": 2.105
        }
    ]
}