{
    "data": [
        {
            "id": 10024,
            "original_name": "Santo Bugito",
            "popularity": 2.808
        },
        {
            "id": 21103,
            "original_name": "I Pyles Tou Anexigitou",
            "popularity": 0.6
        },
        {
            "id": 65166,
            "original_name": "Jos\u00e9 do Egito",
            "popularity": 7.904
        },
        {
            "id": 126453,
            "original_name": "Bagito",
            "popularity": 0.86
        }
    ],
    "relations": [],
    "top20": [
        {
            "id": 10024,
            "original_name": "Santo Bugito",
            "popularity": 2.808
        },
        {
            "id": 21103,
            "original_name": "I Pyles Tou Anexigitou",
            "popularity": 0.6
        },
        {
            "id": 65166,
            "original_name": "Jos\u00e9 do Egito",
            "popularity": 7.904
        },
        {
            "id": 126453,
            "original_name": "Bagito",
            "popularity": 0.86
        }
    ]
}