{
    "data": [
        {
            "id": 73712,
            "original_name": "Glappet",
            "popularity": 0.6
        }
    ],
    "relations": [],
    "top20": [
        {
            "id": 73712,
            "original_name": "Glappet",
            "popularity": 0.6
        }
    ]
}