{
    "data": [
        {
            "id": 778,
            "original_name": "The Adventure of English",
            "popularity": 0.774
        },
        {
            "id": 9609,
            "original_name": "English Teachers",
            "popularity": 0.6
        },
        {
            "id": 13229,
            "original_name": "Zuiikin' English",
            "popularity": 0.6
        },
        {
            "id": 19302,
            "original_name": "Sesame English",
            "popularity": 0.6
        },
        {
            "id": 20190,
            "original_name": "100% English",
            "popularity": 0.6
        },
        {
            "id": 21380,
            "original_name": "The Story of English",
            "popularity": 0.663
        },
        {
            "id": 21418,
            "original_name": "Cooking with Todd English",
            "popularity": 0.6
        },
        {
            "id": 21419,
            "original_name": "Food Trip with Todd English",
            "popularity": 0.6
        },
        {
            "id": 24155,
            "original_name": "English At Work",
            "popularity": 0.6
        },
        {
            "id": 27061,
            "original_name": "Murder Most English: A Flaxborough Chronicle",
            "popularity": 0.6
        },
        {
            "id": 27156,
            "original_name": "Parnell & the Englishwoman",
            "popularity": 0.6
        },
        {
            "id": 27494,
            "original_name": "The English Civil War",
            "popularity": 0.6
        },
        {
            "id": 33367,
            "original_name": "Let's Speak English",
            "popularity": 0.6
        },
        {
            "id": 34220,
            "original_name": "The Englishman's Boy",
            "popularity": 1.229
        },
        {
            "id": 34267,
            "original_name": "Quebec in English",
            "popularity": 0.6
        },
        {
            "id": 35540,
            "original_name": "Connect With English",
            "popularity": 0.6
        },
        {
            "id": 38383,
            "original_name": "Agony & Ecstasy: A Year with English National Ballet",
            "popularity": 0.6
        },
        {
            "id": 40986,
            "original_name": "Fast Track English",
            "popularity": 0.6
        },
        {
            "id": 43495,
            "original_name": "The Last Englishman",
            "popularity": 0.6
        },
        {
            "id": 46363,
            "original_name": "The Great English Garden Party: Peter Ustinov Looks at 100 Years of Wimbledon",
            "popularity": 0.6
        },
        {
            "id": 47697,
            "original_name": "Middle English",
            "popularity": 0.6
        },
        {
            "id": 47724,
            "original_name": "The English Programme",
            "popularity": 0.6
        },
        {
            "id": 55441,
            "original_name": "Learn English With Ricky Gervais",
            "popularity": 0.6
        },
        {
            "id": 57599,
            "original_name": "Why Don't You Speak English?",
            "popularity": 0.6
        },
        {
            "id": 57624,
            "original_name": "Disney's Magic English",
            "popularity": 1.802
        },
        {
            "id": 57689,
            "original_name": "Polyglot. English in 16 hours!",
            "popularity": 0.6
        },
        {
            "id": 58243,
            "original_name": "The English Bag",
            "popularity": 0.6
        },
        {
            "id": 58419,
            "original_name": "Full English",
            "popularity": 1.549
        },
        {
            "id": 73806,
            "original_name": "An Englishman's Castle",
            "popularity": 0.972
        },
        {
            "id": 74393,
            "original_name": "Let's Talk English",
            "popularity": 0.6
        },
        {
            "id": 78993,
            "original_name": "GoGo\u2019s Adventures with English",
            "popularity": 0.6
        },
        {
            "id": 79299,
            "original_name": "A Very English Scandal",
            "popularity": 8.564
        },
        {
            "id": 79490,
            "original_name": "Vaughan English",
            "popularity": 0.6
        },
        {
            "id": 81534,
            "original_name": "Come Clog Dancing: Treasures of English Folk Dance",
            "popularity": 0.6
        },
        {
            "id": 83705,
            "original_name": "Al Murray: Why Does Everyone Hate the English?",
            "popularity": 0.635
        },
        {
            "id": 87736,
            "original_name": "Harry\u2019s Heroes: The Full English",
            "popularity": 0.6
        },
        {
            "id": 90704,
            "original_name": "Broken English",
            "popularity": 0.6
        },
        {
            "id": 93064,
            "original_name": "English Crayon",
            "popularity": 0.6
        },
        {
            "id": 99346,
            "original_name": "The English",
            "popularity": 0.6
        },
        {
            "id": 100052,
            "original_name": "The English Game",
            "popularity": 9.781
        },
        {
            "id": 106486,
            "original_name": "Benza English",
            "popularity": 0.6
        },
        {
            "id": 121167,
            "original_name": "When English Football Ruled Europe",
            "popularity": 0.6
        }
    ],
    "relations": [
        {
            "character": "glishw"
        },
        {
            "character": "glishm"
        },
        {
            "character": "glish?"
        }
    ],
    "top20": [
        {
            "id": 100052,
            "original_name": "The English Game",
            "popularity": 9.781
        },
        {
            "id": 79299,
            "original_name": "A Very English Scandal",
            "popularity": 8.564
        },
        {
            "id": 57624,
            "original_name": "Disney's Magic English",
            "popularity": 1.802
        },
        {
            "id": 58419,
            "original_name": "Full English",
            "popularity": 1.549
        },
        {
            "id": 34220,
            "original_name": "The Englishman's Boy",
            "popularity": 1.229
        },
        {
            "id": 73806,
            "original_name": "An Englishman's Castle",
            "popularity": 0.972
        },
        {
            "id": 778,
            "original_name": "The Adventure of English",
            "popularity": 0.774
        },
        {
            "id": 21380,
            "original_name": "The Story of English",
            "popularity": 0.663
        },
        {
            "id": 83705,
            "original_name": "Al Murray: Why Does Everyone Hate the English?",
            "popularity": 0.635
        },
        {
            "id": 13229,
            "original_name": "Zuiikin' English",
            "popularity": 0.6
        },
        {
            "id": 27061,
            "original_name": "Murder Most English: A Flaxborough Chronicle",
            "popularity": 0.6
        },
        {
            "id": 9609,
            "original_name": "English Teachers",
            "popularity": 0.6
        },
        {
            "id": 27156,
            "original_name": "Parnell & the Englishwoman",
            "popularity": 0.6
        },
        {
            "id": 27494,
            "original_name": "The English Civil War",
            "popularity": 0.6
        },
        {
            "id": 24155,
            "original_name": "English At Work",
            "popularity": 0.6
        },
        {
            "id": 21418,
            "original_name": "Cooking with Todd English",
            "popularity": 0.6
        },
        {
            "id": 20190,
            "original_name": "100% English",
            "popularity": 0.6
        },
        {
            "id": 33367,
            "original_name": "Let's Speak English",
            "popularity": 0.6
        },
        {
            "id": 21419,
            "original_name": "Food Trip with Todd English",
            "popularity": 0.6
        },
        {
            "id": 19302,
            "original_name": "Sesame English",
            "popularity": 0.6
        }
    ]
}