{
    "data": [
        {
            "id": 33936,
            "original_name": "Kaali \u2013 Ek Agnipariksha",
            "popularity": 0.6
        },
        {
            "id": 39323,
            "original_name": "Agnipareeksha Jeevan Ki \u2013 Gangaa",
            "popularity": 0.6
        },
        {
            "id": 75287,
            "original_name": "Agniphera",
            "popularity": 0.6
        }
    ],
    "relations": [],
    "top20": [
        {
            "id": 33936,
            "original_name": "Kaali \u2013 Ek Agnipariksha",
            "popularity": 0.6
        },
        {
            "id": 39323,
            "original_name": "Agnipareeksha Jeevan Ki \u2013 Gangaa",
            "popularity": 0.6
        },
        {
            "id": 75287,
            "original_name": "Agniphera",
            "popularity": 0.6
        }
    ]
}