{
    "data": [
        {
            "id": 4317,
            "original_name": "The Telegoons",
            "popularity": 1.341
        },
        {
            "id": 12232,
            "original_name": "Meet the Magoons",
            "popularity": 1.146
        },
        {
            "id": 12598,
            "original_name": "BLACK LAGOON",
            "popularity": 26.416
        },
        {
            "id": 35217,
            "original_name": "The Swamp Critters of Lost Lagoon",
            "popularity": 0.6
        },
        {
            "id": 37184,
            "original_name": "Archer's Goon",
            "popularity": 0.954
        },
        {
            "id": 45243,
            "original_name": "The Goonies Show",
            "popularity": 0.6
        },
        {
            "id": 55963,
            "original_name": "PakBoong Gub GoongNang",
            "popularity": 0.6
        },
        {
            "id": 58812,
            "original_name": "Serangoon Road",
            "popularity": 3.556
        },
        {
            "id": 135089,
            "original_name": "Black Lagoon: Roberta's Blood Trail (2010)",
            "popularity": 1.466
        }
    ],
    "relations": [],
    "top20": [
        {
            "id": 4317,
            "original_name": "The Telegoons",
            "popularity": 1.341
        },
        {
            "id": 12232,
            "original_name": "Meet the Magoons",
            "popularity": 1.146
        },
        {
            "id": 12598,
            "original_name": "BLACK LAGOON",
            "popularity": 26.416
        },
        {
            "id": 35217,
            "original_name": "The Swamp Critters of Lost Lagoon",
            "popularity": 0.6
        },
        {
            "id": 37184,
            "original_name": "Archer's Goon",
            "popularity": 0.954
        },
        {
            "id": 45243,
            "original_name": "The Goonies Show",
            "popularity": 0.6
        },
        {
            "id": 55963,
            "original_name": "PakBoong Gub GoongNang",
            "popularity": 0.6
        },
        {
            "id": 58812,
            "original_name": "Serangoon Road",
            "popularity": 3.556
        },
        {
            "id": 135089,
            "original_name": "Black Lagoon: Roberta's Blood Trail (2010)",
            "popularity": 1.466
        }
    ]
}