{
    "data": [
        {
            "id": 8493,
            "original_name": "The Butterflies of Zagorsk",
            "popularity": 0.6
        },
        {
            "id": 48446,
            "original_name": "Im Gespr\u00e4ch mit Teddy Podgorski",
            "popularity": 0.6
        },
        {
            "id": 74695,
            "original_name": "Good Luck Mister Gorsky",
            "popularity": 0.6
        },
        {
            "id": 74696,
            "original_name": "Good Luck Mister Gorsky",
            "popularity": 0.6
        },
        {
            "id": 74697,
            "original_name": "Good Luck Mister Gorsky",
            "popularity": 0.6
        },
        {
            "id": 74698,
            "original_name": "Good Luck Mister Gorsky",
            "popularity": 0.6
        }
    ],
    "relations": [],
    "top20": [
        {
            "id": 8493,
            "original_name": "The Butterflies of Zagorsk",
            "popularity": 0.6
        },
        {
            "id": 48446,
            "original_name": "Im Gespr\u00e4ch mit Teddy Podgorski",
            "popularity": 0.6
        },
        {
            "id": 74695,
            "original_name": "Good Luck Mister Gorsky",
            "popularity": 0.6
        },
        {
            "id": 74696,
            "original_name": "Good Luck Mister Gorsky",
            "popularity": 0.6
        },
        {
            "id": 74697,
            "original_name": "Good Luck Mister Gorsky",
            "popularity": 0.6
        },
        {
            "id": 74698,
            "original_name": "Good Luck Mister Gorsky",
            "popularity": 0.6
        }
    ]
}