{
    "data": [
        {
            "id": 19266,
            "original_name": "America Held Hostage: The Secret Negotiations",
            "popularity": 0.6
        },
        {
            "id": 33960,
            "original_name": "Gotita de Amor",
            "popularity": 2.044
        },
        {
            "id": 121508,
            "original_name": "Criss Voss. The Art of Negotiation",
            "popularity": 0.615
        },
        {
            "id": 130626,
            "original_name": "The Negotiators",
            "popularity": 0.6
        }
    ],
    "relations": [],
    "top20": [
        {
            "id": 19266,
            "original_name": "America Held Hostage: The Secret Negotiations",
            "popularity": 0.6
        },
        {
            "id": 33960,
            "original_name": "Gotita de Amor",
            "popularity": 2.044
        },
        {
            "id": 121508,
            "original_name": "Criss Voss. The Art of Negotiation",
            "popularity": 0.615
        },
        {
            "id": 130626,
            "original_name": "The Negotiators",
            "popularity": 0.6
        }
    ]
}