{
    "data": [
        {
            "id": 3430,
            "original_name": "The Paul O'Grady Show",
            "popularity": 5.595
        },
        {
            "id": 4512,
            "original_name": "Grady",
            "popularity": 1.746
        },
        {
            "id": 6506,
            "original_name": "The Adventures of Grady Greenspace",
            "popularity": 0.6
        },
        {
            "id": 10749,
            "original_name": "O'Grady",
            "popularity": 2.836
        },
        {
            "id": 33225,
            "original_name": "Paul O'Grady Live",
            "popularity": 0.6
        },
        {
            "id": 57593,
            "original_name": "Paul OGrady's Working Britain",
            "popularity": 0.6
        },
        {
            "id": 64886,
            "original_name": "Paul O'Grady: For the Love of Dogs",
            "popularity": 0.703
        },
        {
            "id": 112950,
            "original_name": "Paul O'Grady's Great British Escape",
            "popularity": 0.6
        },
        {
            "id": 136771,
            "original_name": "Paul O'Grady's Saturday Night Line Up",
            "popularity": 4.069
        }
    ],
    "relations": [],
    "top20": [
        {
            "id": 3430,
            "original_name": "The Paul O'Grady Show",
            "popularity": 5.595
        },
        {
            "id": 4512,
            "original_name": "Grady",
            "popularity": 1.746
        },
        {
            "id": 6506,
            "original_name": "The Adventures of Grady Greenspace",
            "popularity": 0.6
        },
        {
            "id": 10749,
            "original_name": "O'Grady",
            "popularity": 2.836
        },
        {
            "id": 33225,
            "original_name": "Paul O'Grady Live",
            "popularity": 0.6
        },
        {
            "id": 57593,
            "original_name": "Paul OGrady's Working Britain",
            "popularity": 0.6
        },
        {
            "id": 64886,
            "original_name": "Paul O'Grady: For the Love of Dogs",
            "popularity": 0.703
        },
        {
            "id": 112950,
            "original_name": "Paul O'Grady's Great British Escape",
            "popularity": 0.6
        },
        {
            "id": 136771,
            "original_name": "Paul O'Grady's Saturday Night Line Up",
            "popularity": 4.069
        }
    ]
}