{
    "data": [
        {
            "id": 133194,
            "original_name": "Disco gramy!",
            "popularity": 0.6
        }
    ],
    "relations": [],
    "top20": [
        {
            "id": 133194,
            "original_name": "Disco gramy!",
            "popularity": 0.6
        }
    ]
}