{
    "data": [
        {
            "id": 98338,
            "original_name": "Les Zozos migrateurs",
            "popularity": 0.6
        }
    ],
    "relations": [],
    "top20": [
        {
            "id": 98338,
            "original_name": "Les Zozos migrateurs",
            "popularity": 0.6
        }
    ]
}