{
    "data": [
        {
            "id": 106,
            "original_name": "The Andy Griffith Show",
            "popularity": 27.88
        },
        {
            "id": 1673,
            "original_name": "Kathy Griffin: My Life on the D-List",
            "popularity": 5.084
        },
        {
            "id": 2086,
            "original_name": "The New Andy Griffith Show",
            "popularity": 0.69
        },
        {
            "id": 6744,
            "original_name": "The Merv Griffin Show",
            "popularity": 37.499
        },
        {
            "id": 14394,
            "original_name": "Merv Griffin's Crosswords",
            "popularity": 0.602
        },
        {
            "id": 17542,
            "original_name": "Griff",
            "popularity": 1.136
        },
        {
            "id": 22263,
            "original_name": "Rivers with Griff Rhys Jones",
            "popularity": 0.6
        },
        {
            "id": 25167,
            "original_name": "Eddie Griffin: Going For Broke",
            "popularity": 0.6
        },
        {
            "id": 30156,
            "original_name": "Greatest Cities of the World with Griff Rhys Jones",
            "popularity": 0.843
        },
        {
            "id": 43843,
            "original_name": "Britain's Lost Routes with Griff Rhys Jones",
            "popularity": 0.6
        },
        {
            "id": 44560,
            "original_name": "Emergency with Angela Griffin",
            "popularity": 0.681
        },
        {
            "id": 46428,
            "original_name": "Kathy Griffin: Straight to Hell",
            "popularity": 0.6
        },
        {
            "id": 46484,
            "original_name": "Kathy Griffin: She'll Cut a Bitch",
            "popularity": 0.6
        },
        {
            "id": 51479,
            "original_name": "Kathy Griffin Specials",
            "popularity": 0.6
        },
        {
            "id": 64441,
            "original_name": "Dr. med. Mark Wedmann - Detektiv inbegriffen",
            "popularity": 1.249
        },
        {
            "id": 64947,
            "original_name": "A Great Welsh Adventure with Griff Rhys Jones",
            "popularity": 0.6
        },
        {
            "id": 65720,
            "original_name": "Griff's Great Britain",
            "popularity": 0.6
        },
        {
            "id": 65721,
            "original_name": "Slow Train Through Africa with Griff Rhys Jones",
            "popularity": 0.707
        },
        {
            "id": 74220,
            "original_name": "Griffin's amiibo Corner",
            "popularity": 0.973
        },
        {
            "id": 80342,
            "original_name": "Zugriff",
            "popularity": 1.79
        },
        {
            "id": 86478,
            "original_name": "Losing It: Griff Rhys Jones On Anger",
            "popularity": 0.6
        },
        {
            "id": 96764,
            "original_name": "Griff's Great Kiwi Road Trip",
            "popularity": 1.449
        },
        {
            "id": 96953,
            "original_name": "Griff Rhys Jones: Great Australian Adventure",
            "popularity": 0.6
        },
        {
            "id": 98729,
            "original_name": "Griff's Great Australian Rail Trip",
            "popularity": 1.445
        },
        {
            "id": 118326,
            "original_name": "Double Cross with Blake Griffin",
            "popularity": 0.84
        },
        {
            "id": 118703,
            "original_name": "Zugriff \u2013 Jede Sekunde z\u00e4hlt",
            "popularity": 0.6
        },
        {
            "id": 124009,
            "original_name": "Tod im Preis inbegriffen",
            "popularity": 0.6
        },
        {
            "id": 125557,
            "original_name": "Die neue Seidenstra\u00dfe - Chinas Griff nach Westen",
            "popularity": 0.6
        }
    ],
    "relations": [
        {
            "character": "griffi"
        },
        {
            "character": "griffe"
        }
    ],
    "top20": [
        {
            "id": 6744,
            "original_name": "The Merv Griffin Show",
            "popularity": 37.499
        },
        {
            "id": 106,
            "original_name": "The Andy Griffith Show",
            "popularity": 27.88
        },
        {
            "id": 1673,
            "original_name": "Kathy Griffin: My Life on the D-List",
            "popularity": 5.084
        },
        {
            "id": 80342,
            "original_name": "Zugriff",
            "popularity": 1.79
        },
        {
            "id": 96764,
            "original_name": "Griff's Great Kiwi Road Trip",
            "popularity": 1.449
        },
        {
            "id": 98729,
            "original_name": "Griff's Great Australian Rail Trip",
            "popularity": 1.445
        },
        {
            "id": 64441,
            "original_name": "Dr. med. Mark Wedmann - Detektiv inbegriffen",
            "popularity": 1.249
        },
        {
            "id": 17542,
            "original_name": "Griff",
            "popularity": 1.136
        },
        {
            "id": 74220,
            "original_name": "Griffin's amiibo Corner",
            "popularity": 0.973
        },
        {
            "id": 30156,
            "original_name": "Greatest Cities of the World with Griff Rhys Jones",
            "popularity": 0.843
        },
        {
            "id": 118326,
            "original_name": "Double Cross with Blake Griffin",
            "popularity": 0.84
        },
        {
            "id": 65721,
            "original_name": "Slow Train Through Africa with Griff Rhys Jones",
            "popularity": 0.707
        },
        {
            "id": 2086,
            "original_name": "The New Andy Griffith Show",
            "popularity": 0.69
        },
        {
            "id": 44560,
            "original_name": "Emergency with Angela Griffin",
            "popularity": 0.681
        },
        {
            "id": 14394,
            "original_name": "Merv Griffin's Crosswords",
            "popularity": 0.602
        },
        {
            "id": 25167,
            "original_name": "Eddie Griffin: Going For Broke",
            "popularity": 0.6
        },
        {
            "id": 46428,
            "original_name": "Kathy Griffin: Straight to Hell",
            "popularity": 0.6
        },
        {
            "id": 46484,
            "original_name": "Kathy Griffin: She'll Cut a Bitch",
            "popularity": 0.6
        },
        {
            "id": 43843,
            "original_name": "Britain's Lost Routes with Griff Rhys Jones",
            "popularity": 0.6
        },
        {
            "id": 22263,
            "original_name": "Rivers with Griff Rhys Jones",
            "popularity": 0.6
        }
    ]
}