{
    "data": [
        {
            "id": 13494,
            "original_name": "A Life of Grime",
            "popularity": 0.6
        },
        {
            "id": 28058,
            "original_name": "The Tammy Grimes Show",
            "popularity": 1.97
        },
        {
            "id": 28570,
            "original_name": "Grime Scene Investigation",
            "popularity": 0.6
        },
        {
            "id": 29500,
            "original_name": "Grimefighters",
            "popularity": 0.6
        },
        {
            "id": 39757,
            "original_name": "Grime Goes Green",
            "popularity": 0.6
        },
        {
            "id": 132357,
            "original_name": "True Grime: Crime Scene Cleanup",
            "popularity": 0.6
        }
    ],
    "relations": [],
    "top20": [
        {
            "id": 13494,
            "original_name": "A Life of Grime",
            "popularity": 0.6
        },
        {
            "id": 28058,
            "original_name": "The Tammy Grimes Show",
            "popularity": 1.97
        },
        {
            "id": 28570,
            "original_name": "Grime Scene Investigation",
            "popularity": 0.6
        },
        {
            "id": 29500,
            "original_name": "Grimefighters",
            "popularity": 0.6
        },
        {
            "id": 39757,
            "original_name": "Grime Goes Green",
            "popularity": 0.6
        },
        {
            "id": 132357,
            "original_name": "True Grime: Crime Scene Cleanup",
            "popularity": 0.6
        }
    ]
}