{
    "data": [
        {
            "id": 644,
            "original_name": "SOP Gigsters",
            "popularity": 0.6
        },
        {
            "id": 13583,
            "original_name": "Gangsters",
            "popularity": 0.877
        },
        {
            "id": 15257,
            "original_name": "American Gangster",
            "popularity": 2.024
        },
        {
            "id": 22801,
            "original_name": "The Gangster Chronicles",
            "popularity": 2.662
        },
        {
            "id": 39289,
            "original_name": "Small Time Gangster",
            "popularity": 1.411
        },
        {
            "id": 49770,
            "original_name": "The Gangster Show: The Resistible Rise of Arturo Ui",
            "popularity": 0.6
        },
        {
            "id": 52103,
            "original_name": "Gangsters: America's Most Evil",
            "popularity": 0.6
        },
        {
            "id": 54661,
            "original_name": "American Dragster",
            "popularity": 0.6
        },
        {
            "id": 55770,
            "original_name": "Inside the Gangsters' Code",
            "popularity": 0.9
        },
        {
            "id": 65117,
            "original_name": "Gentlemen & Gangsters",
            "popularity": 0.6
        },
        {
            "id": 68219,
            "original_name": "Les gangsters et la r\u00e9publique",
            "popularity": 0.6
        },
        {
            "id": 81773,
            "original_name": "KL Gangster Underworld",
            "popularity": 11.187
        },
        {
            "id": 85773,
            "original_name": "Before Vegas, There Was Newport: Gangsters, Gamblers, Girls",
            "popularity": 0.6
        },
        {
            "id": 92527,
            "original_name": "Gangsters: Faces of the Underworld",
            "popularity": 0.6
        },
        {
            "id": 92887,
            "original_name": "Suburban Gangsters",
            "popularity": 0.6
        },
        {
            "id": 95802,
            "original_name": "Chiangmai Gangsters 2",
            "popularity": 0.6
        },
        {
            "id": 99735,
            "original_name": "American Gangster:Trap Queens",
            "popularity": 0.6
        },
        {
            "id": 110108,
            "original_name": "Gangster Empire: Rise of the Mob",
            "popularity": 0.951
        },
        {
            "id": 113973,
            "original_name": "American Gangster",
            "popularity": 0.6
        },
        {
            "id": 130986,
            "original_name": "Australian Gangster",
            "popularity": 31.336
        }
    ],
    "relations": [],
    "top20": [
        {
            "id": 644,
            "original_name": "SOP Gigsters",
            "popularity": 0.6
        },
        {
            "id": 13583,
            "original_name": "Gangsters",
            "popularity": 0.877
        },
        {
            "id": 15257,
            "original_name": "American Gangster",
            "popularity": 2.024
        },
        {
            "id": 22801,
            "original_name": "The Gangster Chronicles",
            "popularity": 2.662
        },
        {
            "id": 39289,
            "original_name": "Small Time Gangster",
            "popularity": 1.411
        },
        {
            "id": 49770,
            "original_name": "The Gangster Show: The Resistible Rise of Arturo Ui",
            "popularity": 0.6
        },
        {
            "id": 52103,
            "original_name": "Gangsters: America's Most Evil",
            "popularity": 0.6
        },
        {
            "id": 54661,
            "original_name": "American Dragster",
            "popularity": 0.6
        },
        {
            "id": 55770,
            "original_name": "Inside the Gangsters' Code",
            "popularity": 0.9
        },
        {
            "id": 65117,
            "original_name": "Gentlemen & Gangsters",
            "popularity": 0.6
        },
        {
            "id": 68219,
            "original_name": "Les gangsters et la r\u00e9publique",
            "popularity": 0.6
        },
        {
            "id": 81773,
            "original_name": "KL Gangster Underworld",
            "popularity": 11.187
        },
        {
            "id": 85773,
            "original_name": "Before Vegas, There Was Newport: Gangsters, Gamblers, Girls",
            "popularity": 0.6
        },
        {
            "id": 92527,
            "original_name": "Gangsters: Faces of the Underworld",
            "popularity": 0.6
        },
        {
            "id": 92887,
            "original_name": "Suburban Gangsters",
            "popularity": 0.6
        },
        {
            "id": 95802,
            "original_name": "Chiangmai Gangsters 2",
            "popularity": 0.6
        },
        {
            "id": 99735,
            "original_name": "American Gangster:Trap Queens",
            "popularity": 0.6
        },
        {
            "id": 110108,
            "original_name": "Gangster Empire: Rise of the Mob",
            "popularity": 0.951
        },
        {
            "id": 113973,
            "original_name": "American Gangster",
            "popularity": 0.6
        },
        {
            "id": 130986,
            "original_name": "Australian Gangster",
            "popularity": 31.336
        }
    ]
}