{
    "data": [
        {
            "id": 9668,
            "original_name": "Dogtato",
            "popularity": 0.6
        },
        {
            "id": 26784,
            "original_name": "Gagtag",
            "popularity": 0.929
        },
        {
            "id": 52520,
            "original_name": "Rodfai Reuamae Likae Kongtai",
            "popularity": 0.6
        },
        {
            "id": 53050,
            "original_name": "L\u00e4ngtans bl\u00e5a blomma",
            "popularity": 1.807
        },
        {
            "id": 70602,
            "original_name": "Shuangsheng Lingtan",
            "popularity": 0.6
        },
        {
            "id": 81280,
            "original_name": "Victor Magtanggol",
            "popularity": 0.6
        },
        {
            "id": 83318,
            "original_name": "BANGTANTV",
            "popularity": 0.888
        },
        {
            "id": 83319,
            "original_name": "BANGTAN BOMB",
            "popularity": 0.6
        },
        {
            "id": 124509,
            "original_name": "Darr Sabko Lagta Hai",
            "popularity": 1.218
        },
        {
            "id": 128457,
            "original_name": "GTA 5 Gameplay with Funhaus",
            "popularity": 0.6
        },
        {
            "id": 135819,
            "original_name": "UdangTangTang Antenna",
            "popularity": 14.518
        },
        {
            "id": 139140,
            "original_name": "BTS Rookie King: Channel Bangtan",
            "popularity": 0.6
        }
    ],
    "relations": [],
    "top20": [
        {
            "id": 9668,
            "original_name": "Dogtato",
            "popularity": 0.6
        },
        {
            "id": 26784,
            "original_name": "Gagtag",
            "popularity": 0.929
        },
        {
            "id": 52520,
            "original_name": "Rodfai Reuamae Likae Kongtai",
            "popularity": 0.6
        },
        {
            "id": 53050,
            "original_name": "L\u00e4ngtans bl\u00e5a blomma",
            "popularity": 1.807
        },
        {
            "id": 70602,
            "original_name": "Shuangsheng Lingtan",
            "popularity": 0.6
        },
        {
            "id": 81280,
            "original_name": "Victor Magtanggol",
            "popularity": 0.6
        },
        {
            "id": 83318,
            "original_name": "BANGTANTV",
            "popularity": 0.888
        },
        {
            "id": 83319,
            "original_name": "BANGTAN BOMB",
            "popularity": 0.6
        },
        {
            "id": 124509,
            "original_name": "Darr Sabko Lagta Hai",
            "popularity": 1.218
        },
        {
            "id": 128457,
            "original_name": "GTA 5 Gameplay with Funhaus",
            "popularity": 0.6
        },
        {
            "id": 135819,
            "original_name": "UdangTangTang Antenna",
            "popularity": 14.518
        },
        {
            "id": 139140,
            "original_name": "BTS Rookie King: Channel Bangtan",
            "popularity": 0.6
        }
    ]
}