{
    "data": [
        {
            "id": 57388,
            "original_name": "Inside Training Camp: Jaguars Summer",
            "popularity": 0.6
        }
    ],
    "relations": [],
    "top20": [
        {
            "id": 57388,
            "original_name": "Inside Training Camp: Jaguars Summer",
            "popularity": 0.6
        }
    ]
}