{
    "data": [
        {
            "id": 1036,
            "original_name": "Action League Now!",
            "popularity": 1.208
        },
        {
            "id": 1618,
            "original_name": "Justice League",
            "popularity": 19.491
        },
        {
            "id": 1893,
            "original_name": "Major League Baseball on CBS",
            "popularity": 0.6
        },
        {
            "id": 2349,
            "original_name": "The League of Gentlemen",
            "popularity": 5.857
        },
        {
            "id": 2480,
            "original_name": "Fantasy Football League",
            "popularity": 2.118
        },
        {
            "id": 3047,
            "original_name": "ESPN Major League Baseball",
            "popularity": 0.6
        },
        {
            "id": 3074,
            "original_name": "Arena Football League on ESPN",
            "popularity": 0.6
        },
        {
            "id": 3746,
            "original_name": "Maya & Miguel",
            "popularity": 3.956
        },
        {
            "id": 3803,
            "original_name": "Speaking in Tongues",
            "popularity": 0.878
        },
        {
            "id": 4212,
            "original_name": "Rogue Nature",
            "popularity": 0.6
        },
        {
            "id": 4927,
            "original_name": "Sin Verguenza",
            "popularity": 0.654
        },
        {
            "id": 5215,
            "original_name": "ESPN Major League Soccer",
            "popularity": 0.6
        },
        {
            "id": 6620,
            "original_name": "Major League Baseball on ABC",
            "popularity": 0.6
        },
        {
            "id": 6624,
            "original_name": "Major League Baseball on NBC",
            "popularity": 0.6
        },
        {
            "id": 6776,
            "original_name": "Major League Baseball Game of the Week",
            "popularity": 0.6
        },
        {
            "id": 6809,
            "original_name": "El hormiguero 3.0",
            "popularity": 49.524
        },
        {
            "id": 7021,
            "original_name": "Foreign Intrigue",
            "popularity": 0.804
        },
        {
            "id": 7555,
            "original_name": "It's Anybody's Guess",
            "popularity": 0.6
        },
        {
            "id": 7706,
            "original_name": "La Guerra de los Chistes",
            "popularity": 1.384
        },
        {
            "id": 8800,
            "original_name": "House Guest",
            "popularity": 0.918
        },
        {
            "id": 9197,
            "original_name": "The Curious House Guest",
            "popularity": 0.805
        },
        {
            "id": 9257,
            "original_name": "Rugby League Raw",
            "popularity": 0.6
        },
        {
            "id": 9471,
            "original_name": "Mutant League",
            "popularity": 0.763
        },
        {
            "id": 9791,
            "original_name": "Wild Guess",
            "popularity": 0.6
        },
        {
            "id": 10689,
            "original_name": "Major League Baseball: An Inside Look",
            "popularity": 0.6
        },
        {
            "id": 11714,
            "original_name": "Eye Guess",
            "popularity": 0.6
        },
        {
            "id": 12289,
            "original_name": "National Football League Quarterback Challenge",
            "popularity": 0.6
        },
        {
            "id": 12381,
            "original_name": "Guess What",
            "popularity": 0.6
        },
        {
            "id": 12527,
            "original_name": "Rogue Spooks",
            "popularity": 0.6
        },
        {
            "id": 12800,
            "original_name": "Mundo de Juguete",
            "popularity": 0.6
        },
        {
            "id": 13060,
            "original_name": "The Indoor League",
            "popularity": 0.6
        },
        {
            "id": 13242,
            "original_name": "Que Hay de Nuevo: Con Monica Noguera",
            "popularity": 0.6
        },
        {
            "id": 13489,
            "original_name": "The Rogues",
            "popularity": 7.725
        },
        {
            "id": 13701,
            "original_name": "Guestward, Ho!",
            "popularity": 2.933
        },
        {
            "id": 14077,
            "original_name": "Premier League All Stars",
            "popularity": 0.6
        },
        {
            "id": 14150,
            "original_name": "Guest stars of Class of the Titans",
            "popularity": 0.6
        },
        {
            "id": 14238,
            "original_name": "United States Football League on television",
            "popularity": 0.6
        },
        {
            "id": 15704,
            "original_name": "Rogue Traders",
            "popularity": 0.843
        },
        {
            "id": 15876,
            "original_name": "Be My Guest",
            "popularity": 0.6
        },
        {
            "id": 16998,
            "original_name": "Super League Show",
            "popularity": 0.6
        },
        {
            "id": 17528,
            "original_name": "Guerrilla Gardeners",
            "popularity": 0.6
        },
        {
            "id": 17631,
            "original_name": "League of Super Evil",
            "popularity": 3.342
        },
        {
            "id": 17728,
            "original_name": "Justice League of America",
            "popularity": 0.635
        },
        {
            "id": 17935,
            "original_name": "The League",
            "popularity": 0.6
        },
        {
            "id": 18281,
            "original_name": "Open Dialogue",
            "popularity": 0.6
        },
        {
            "id": 18355,
            "original_name": "Guerrilla Gourmet",
            "popularity": 0.6
        },
        {
            "id": 18361,
            "original_name": "Bowling Revolution P-League",
            "popularity": 0.6
        },
        {
            "id": 18725,
            "original_name": "Prologue '58",
            "popularity": 0.6
        },
        {
            "id": 19385,
            "original_name": "History of the Major League Baseball Game of the Week",
            "popularity": 0.6
        },
        {
            "id": 19680,
            "original_name": "Guerrilla Homes",
            "popularity": 0.6
        },
        {
            "id": 20059,
            "original_name": "Indoor League",
            "popularity": 0.6
        },
        {
            "id": 20364,
            "original_name": "La guerre des clans",
            "popularity": 6.233
        },
        {
            "id": 21751,
            "original_name": "The Football League Show",
            "popularity": 0.881
        },
        {
            "id": 21864,
            "original_name": "League Cup Highlights",
            "popularity": 0.6
        },
        {
            "id": 22196,
            "original_name": "Guess My Story (CA)",
            "popularity": 0.6
        },
        {
            "id": 22370,
            "original_name": "Guess Who's Coming to Dinner? (UK)",
            "popularity": 0.6
        },
        {
            "id": 22660,
            "original_name": "Rogue Restaurants",
            "popularity": 0.6
        },
        {
            "id": 22912,
            "original_name": "Guess My Story (UK)",
            "popularity": 0.6
        },
        {
            "id": 23006,
            "original_name": "Guess What (US)",
            "popularity": 0.6
        },
        {
            "id": 23211,
            "original_name": "Be Our Guest",
            "popularity": 1.196
        },
        {
            "id": 23922,
            "original_name": "Major League Gaming",
            "popularity": 0.6
        },
        {
            "id": 24750,
            "original_name": "Guerra e Paz",
            "popularity": 0.6
        },
        {
            "id": 25024,
            "original_name": "Guess Who's Coming to Decorate",
            "popularity": 0.6
        },
        {
            "id": 25215,
            "original_name": "Guess What (AU)",
            "popularity": 0.6
        },
        {
            "id": 25978,
            "original_name": "Guess Who's Coming Over?",
            "popularity": 0.6
        },
        {
            "id": 26887,
            "original_name": "Bruce's Guest Night",
            "popularity": 0.6
        },
        {
            "id": 27340,
            "original_name": "Guess Who's Coming To Dinner? (AU)",
            "popularity": 0.6
        },
        {
            "id": 27640,
            "original_name": "Polterguests",
            "popularity": 0.6
        },
        {
            "id": 28864,
            "original_name": "D'Myna Leagues",
            "popularity": 0.6
        },
        {
            "id": 29434,
            "original_name": "Guest Stage",
            "popularity": 0.6
        },
        {
            "id": 29473,
            "original_name": "The Last Word Monologues",
            "popularity": 0.6
        },
        {
            "id": 29669,
            "original_name": "Major League Remodel",
            "popularity": 0.6
        },
        {
            "id": 30026,
            "original_name": "Lane's Look At The League",
            "popularity": 0.6
        },
        {
            "id": 30649,
            "original_name": "Ultimate Fan League",
            "popularity": 0.6
        },
        {
            "id": 30652,
            "original_name": "VH1 Guerilla Concerts",
            "popularity": 0.6
        },
        {
            "id": 30867,
            "original_name": "Full Color Football: The History of the American Football League",
            "popularity": 0.84
        },
        {
            "id": 31231,
            "original_name": "Dance Premier League",
            "popularity": 0.6
        },
        {
            "id": 31447,
            "original_name": "The Red-Headed League",
            "popularity": 0.6
        },
        {
            "id": 31462,
            "original_name": "Second Guess",
            "popularity": 0.6
        },
        {
            "id": 31497,
            "original_name": "The League",
            "popularity": 29.3
        },
        {
            "id": 31942,
            "original_name": "Guess with Jess",
            "popularity": 1.195
        },
        {
            "id": 32167,
            "original_name": "Fox League Teams",
            "popularity": 0.6
        },
        {
            "id": 32171,
            "original_name": "A League of Their Own",
            "popularity": 1.4
        },
        {
            "id": 32244,
            "original_name": "Guesstimation",
            "popularity": 0.6
        },
        {
            "id": 32348,
            "original_name": "A League of Their Own",
            "popularity": 3.882
        },
        {
            "id": 32691,
            "original_name": "The Barefoot Rugby League Show",
            "popularity": 0.6
        },
        {
            "id": 32988,
            "original_name": "Guess What",
            "popularity": 0.6
        },
        {
            "id": 33189,
            "original_name": "Apocalypse - La 2\u00e8me guerre mondiale",
            "popularity": 11.043
        },
        {
            "id": 33287,
            "original_name": "Guess My Story",
            "popularity": 0.6
        },
        {
            "id": 33427,
            "original_name": "Manuel Rodr\u00edguez",
            "popularity": 1.387
        },
        {
            "id": 33855,
            "original_name": "Travelogue",
            "popularity": 0.6
        },
        {
            "id": 33915,
            "original_name": "Rogues' Gallery",
            "popularity": 1.795
        },
        {
            "id": 34244,
            "original_name": "Guest House",
            "popularity": 0.6
        },
        {
            "id": 34628,
            "original_name": "Guess",
            "popularity": 0.6
        },
        {
            "id": 36443,
            "original_name": "Skateboard Street League",
            "popularity": 0.6
        },
        {
            "id": 37044,
            "original_name": "Biblical Plagues",
            "popularity": 0.6
        },
        {
            "id": 37500,
            "original_name": "Rogue Nation",
            "popularity": 0.6
        },
        {
            "id": 37563,
            "original_name": "Major League Wrestling: Underground TV",
            "popularity": 0.6
        },
        {
            "id": 37736,
            "original_name": "Football League Extra",
            "popularity": 0.6
        },
        {
            "id": 38808,
            "original_name": "Les Lavigueur, la vraie histoire",
            "popularity": 1.432
        },
        {
            "id": 40400,
            "original_name": "La\u00e7os de Sangue",
            "popularity": 0.939
        },
        {
            "id": 40958,
            "original_name": "Every Singaporean Son \u2013 Epilogue",
            "popularity": 0.6
        },
        {
            "id": 41144,
            "original_name": "Les Faucheurs de marguerites",
            "popularity": 1.09
        },
        {
            "id": 41975,
            "original_name": "Brigada central 2: La guerra blanca",
            "popularity": 0.84
        },
        {
            "id": 42367,
            "original_name": "Os Grandes Portugueses",
            "popularity": 0.6
        },
        {
            "id": 42430,
            "original_name": "Sexos en Guerra",
            "popularity": 0.6
        },
        {
            "id": 43166,
            "original_name": "La 2eme Guerre Mondiale en couleur",
            "popularity": 0.6
        },
        {
            "id": 45102,
            "original_name": "League Sunday",
            "popularity": 0.6
        },
        {
            "id": 45114,
            "original_name": "Epilogue",
            "popularity": 0.6
        },
        {
            "id": 45776,
            "original_name": "Guerra dos Sexos",
            "popularity": 1.156
        },
        {
            "id": 46118,
            "original_name": "Salsa e Merengue",
            "popularity": 0.6
        },
        {
            "id": 46160,
            "original_name": "Barriga de Aluguel",
            "popularity": 1.771
        },
        {
            "id": 46410,
            "original_name": "Guess How Much I Love You",
            "popularity": 2.578
        },
        {
            "id": 46601,
            "original_name": "O Formigueiro",
            "popularity": 0.6
        },
        {
            "id": 47108,
            "original_name": "Heroes for the Planet Featuring Special Guest Charlotte Church",
            "popularity": 0.6
        },
        {
            "id": 47600,
            "original_name": "Rogue",
            "popularity": 10.709
        },
        {
            "id": 48892,
            "original_name": "Guerra dos Sexos",
            "popularity": 2.098
        },
        {
            "id": 49173,
            "original_name": "The Dvorak Concert From Prague: A Celebration",
            "popularity": 0.6
        },
        {
            "id": 51941,
            "original_name": "Guru Gue Jago Kung fu",
            "popularity": 0.6
        },
        {
            "id": 52361,
            "original_name": "Gue Sihir Lu",
            "popularity": 0.6
        },
        {
            "id": 52907,
            "original_name": "Intellectual Dialogue",
            "popularity": 0.6
        },
        {
            "id": 55502,
            "original_name": "Legends Of The Barclays Premier League",
            "popularity": 0.6
        },
        {
            "id": 56608,
            "original_name": "KFC T20 Big Bash League",
            "popularity": 0.654
        },
        {
            "id": 56767,
            "original_name": "[V] Guerilla Gigs",
            "popularity": 0.6
        },
        {
            "id": 56903,
            "original_name": "Rogue Professor",
            "popularity": 0.6
        },
        {
            "id": 56949,
            "original_name": "Rogue Principal",
            "popularity": 0.6
        },
        {
            "id": 57585,
            "original_name": "The Sinful People of Prague",
            "popularity": 0.6
        },
        {
            "id": 57600,
            "original_name": "La segunda guerra mundial en color",
            "popularity": 0.6
        },
        {
            "id": 57657,
            "original_name": "Party Poker Premier League Poker",
            "popularity": 0.6
        },
        {
            "id": 58181,
            "original_name": "A League of Their Own",
            "popularity": 0.67
        },
        {
            "id": 58899,
            "original_name": "Guerra de mujeres",
            "popularity": 0.6
        },
        {
            "id": 59189,
            "original_name": "Aunque mal paguen",
            "popularity": 0.6
        },
        {
            "id": 60188,
            "original_name": "Don't Argue",
            "popularity": 0.6
        },
        {
            "id": 60707,
            "original_name": "Sangue caldo",
            "popularity": 1.551
        },
        {
            "id": 60747,
            "original_name": "The Guess List",
            "popularity": 0.6
        },
        {
            "id": 61142,
            "original_name": "Drogues et cerveau",
            "popularity": 0.84
        },
        {
            "id": 61314,
            "original_name": "Apocalypse, la Premi\u00e8re Guerre Mondiale",
            "popularity": 9.807
        },
        {
            "id": 61792,
            "original_name": "Les Sales Blagues de l'Echo",
            "popularity": 4.437
        },
        {
            "id": 62086,
            "original_name": "Battlefield: As maiores batalhas da Segunda Guerra",
            "popularity": 0.628
        },
        {
            "id": 62215,
            "original_name": "Hyundai A-League Highlights Show",
            "popularity": 1.099
        },
        {
            "id": 62665,
            "original_name": "Guerra en 2 Ruedas",
            "popularity": 0.6
        },
        {
            "id": 63266,
            "original_name": "Justice League: Gods and Monsters Chronicles",
            "popularity": 9.428
        },
        {
            "id": 64756,
            "original_name": "League of Legends Allstars 2015",
            "popularity": 0.6
        },
        {
            "id": 64984,
            "original_name": "Robot Combat League",
            "popularity": 0.6
        },
        {
            "id": 65606,
            "original_name": "Guerra en dos ruedas",
            "popularity": 0.6
        },
        {
            "id": 65792,
            "original_name": "El albergue",
            "popularity": 0.6
        },
        {
            "id": 66227,
            "original_name": "Monologues",
            "popularity": 0.6
        },
        {
            "id": 67219,
            "original_name": "Los Vecinos en Guerra",
            "popularity": 2.027
        },
        {
            "id": 67860,
            "original_name": "A League of Their Own US Road Trip",
            "popularity": 1.03
        },
        {
            "id": 68139,
            "original_name": "Data Gueule",
            "popularity": 0.6
        },
        {
            "id": 68709,
            "original_name": "Very Bad Blagues",
            "popularity": 2.268
        },
        {
            "id": 68837,
            "original_name": "Justice League Action",
            "popularity": 23.212
        },
        {
            "id": 70134,
            "original_name": "Guerrilla",
            "popularity": 1.995
        },
        {
            "id": 70333,
            "original_name": "Espa\u00f1a dividida: la Guerra Civil en color",
            "popularity": 1.573
        },
        {
            "id": 70346,
            "original_name": "Guesthouse Daughters",
            "popularity": 1.45
        },
        {
            "id": 71416,
            "original_name": "Guerra de Idolos",
            "popularity": 2.21
        },
        {
            "id": 72347,
            "original_name": "The Guest List",
            "popularity": 0.6
        },
        {
            "id": 72544,
            "original_name": "The Guest Book",
            "popularity": 6.47
        },
        {
            "id": 73042,
            "original_name": "Perrengue",
            "popularity": 1.259
        },
        {
            "id": 73065,
            "original_name": "La guerre d'Hollywood, 1939 - 1945",
            "popularity": 0.845
        },
        {
            "id": 73109,
            "original_name": "Les Grandes Gueules s'animent",
            "popularity": 0.61
        },
        {
            "id": 74013,
            "original_name": "Tiempos de guerra",
            "popularity": 13.455
        },
        {
            "id": 74445,
            "original_name": "SAS: Rogue Warriors",
            "popularity": 0.6
        },
        {
            "id": 76016,
            "original_name": "La Guerre des Tr\u00f4nes, la v\u00e9ritable histoire de l'Europe",
            "popularity": 4.459
        },
        {
            "id": 76178,
            "original_name": "My Next Guest Needs No Introduction With David Letterman",
            "popularity": 5.109
        },
        {
            "id": 76201,
            "original_name": "Fugueuse",
            "popularity": 8.725
        },
        {
            "id": 76318,
            "original_name": "20,000 Leagues Under the Sea",
            "popularity": 5.321
        },
        {
            "id": 77449,
            "original_name": "1973, Journal de Guerre",
            "popularity": 0.6
        },
        {
            "id": 77470,
            "original_name": "1914-1918, la grande guerre en couleur",
            "popularity": 0.6
        },
        {
            "id": 77472,
            "original_name": "Guerre d'alg\u00e9rie, la d\u00e9chirure",
            "popularity": 0.6
        },
        {
            "id": 77478,
            "original_name": "La Guerre du Vietnam - images inconnues",
            "popularity": 1.4
        },
        {
            "id": 77479,
            "original_name": "La guerre en couleur",
            "popularity": 0.6
        },
        {
            "id": 77733,
            "original_name": "Box Cricket League",
            "popularity": 0.6
        },
        {
            "id": 77910,
            "original_name": "The Biblical Plagues",
            "popularity": 0.632
        },
        {
            "id": 77921,
            "original_name": "Bombing War: From Guernica to Hiroshima",
            "popularity": 0.6
        },
        {
            "id": 78497,
            "original_name": "Absolutely Fashion: Inside British Vogue",
            "popularity": 0.64
        },
        {
            "id": 78517,
            "original_name": "Bad Tenants, Rogue Landlords",
            "popularity": 0.6
        },
        {
            "id": 78522,
            "original_name": "El Quijote de Miguel de Cervantes",
            "popularity": 1.16
        },
        {
            "id": 78558,
            "original_name": "Anime e Sangue",
            "popularity": 2.147
        },
        {
            "id": 79008,
            "original_name": "Luis Miguel: La Serie",
            "popularity": 75.734
        },
        {
            "id": 79200,
            "original_name": "Legends of Premier League",
            "popularity": 0.96
        },
        {
            "id": 79512,
            "original_name": "Raymond y Miguel - Los Reyes del Humor",
            "popularity": 0.6
        },
        {
            "id": 79633,
            "original_name": "Portugueses pelo Mundo",
            "popularity": 0.611
        },
        {
            "id": 79701,
            "original_name": "La Segunda Guerra Mundial",
            "popularity": 1.97
        },
        {
            "id": 81822,
            "original_name": "\uc190: The Guest",
            "popularity": 9.584
        },
        {
            "id": 81938,
            "original_name": "Pacto de Sangue",
            "popularity": 1.679
        },
        {
            "id": 82014,
            "original_name": "Ane Log: Moyako Neesan no Tomaranai Monologue",
            "popularity": 5.284
        },
        {
            "id": 82866,
            "original_name": "Romolo + Giuly: La guerra mondiale italiana",
            "popularity": 0.915
        },
        {
            "id": 83785,
            "original_name": "Aux Animaux la guerre",
            "popularity": 2.156
        },
        {
            "id": 83987,
            "original_name": "The Bush League",
            "popularity": 0.6
        },
        {
            "id": 84200,
            "original_name": "Justice League Unlimited",
            "popularity": 18.307
        },
        {
            "id": 84298,
            "original_name": "D\u00e9livrance: No\u00ebl 1944 - 8 mai 1945, une fin de Guerre",
            "popularity": 0.6
        },
        {
            "id": 85164,
            "original_name": "Secrets of the Morgue",
            "popularity": 2.393
        },
        {
            "id": 85589,
            "original_name": "\u00c0 la valdrague",
            "popularity": 0.746
        },
        {
            "id": 85768,
            "original_name": "Blague \u00e0 part",
            "popularity": 0.6
        },
        {
            "id": 85779,
            "original_name": "A League Of Their Own: European Road Trip",
            "popularity": 8.624
        },
        {
            "id": 85852,
            "original_name": "Cochon dingue",
            "popularity": 4.564
        },
        {
            "id": 86060,
            "original_name": "Sangue Bom",
            "popularity": 7.532
        },
        {
            "id": 86647,
            "original_name": "ROGUE",
            "popularity": 3.484
        },
        {
            "id": 87776,
            "original_name": "La Derni\u00e8re Vague",
            "popularity": 1.577
        },
        {
            "id": 88034,
            "original_name": "Les bogues de la vie",
            "popularity": 0.981
        },
        {
            "id": 88367,
            "original_name": "Scooby-Doo and Guess Who?",
            "popularity": 18.151
        },
        {
            "id": 88607,
            "original_name": "Guerra Civil en Extremadura",
            "popularity": 0.6
        },
        {
            "id": 88609,
            "original_name": "Las Grandes Batallas de la Guerra Civil",
            "popularity": 0.6
        },
        {
            "id": 89958,
            "original_name": "Espa\u00f1a despu\u00e9s de la guerra: el franquismo en color",
            "popularity": 0.699
        },
        {
            "id": 90025,
            "original_name": "A Guerra do Brasil",
            "popularity": 0.6
        },
        {
            "id": 90036,
            "original_name": "La guerra civil en color: La Mirada De Los Historiadores",
            "popularity": 0.6
        },
        {
            "id": 91074,
            "original_name": "BFFs with Vogue",
            "popularity": 1.911
        },
        {
            "id": 91175,
            "original_name": "Guerras do Brasil.doc",
            "popularity": 0.6
        },
        {
            "id": 91762,
            "original_name": "A.D. La guerre de l'ombre",
            "popularity": 0.878
        },
        {
            "id": 91835,
            "original_name": "On Set With Vogue",
            "popularity": 0.6
        },
        {
            "id": 92155,
            "original_name": "Ghost Brothers: Haunted Houseguests",
            "popularity": 0.665
        },
        {
            "id": 92285,
            "original_name": "Las bombas perdidas de la Guerra Fr\u00eda",
            "popularity": 0.6
        },
        {
            "id": 92315,
            "original_name": "Presidentes en Guerra",
            "popularity": 0.6
        },
        {
            "id": 92331,
            "original_name": "El infierno de la Primera Guerra Mundial",
            "popularity": 0.966
        },
        {
            "id": 92342,
            "original_name": "Cuerpos de \u00c9lite de la Segunda Guerra Mundial",
            "popularity": 0.6
        },
        {
            "id": 93870,
            "original_name": "SAS: Rogue Heroes",
            "popularity": 0.702
        },
        {
            "id": 94148,
            "original_name": "39-45 : L'Europe en Guerre",
            "popularity": 0.6
        },
        {
            "id": 94154,
            "original_name": "El Drag\u00f3n: El regreso de un guerrero",
            "popularity": 46.062
        },
        {
            "id": 94605,
            "original_name": "Arcane: League of Legends",
            "popularity": 922.698
        },
        {
            "id": 94886,
            "original_name": "Spencer, Vogue and Wedding Two",
            "popularity": 0.864
        },
        {
            "id": 95224,
            "original_name": "Apocalypse, la guerre des mondes",
            "popularity": 1.754
        },
        {
            "id": 95878,
            "original_name": "Hist\u00f3ria da Gastronomia Portuguesa",
            "popularity": 0.6
        },
        {
            "id": 96059,
            "original_name": "Romolo + Giuly: la guerra mondiale italiana",
            "popularity": 0.6
        },
        {
            "id": 96076,
            "original_name": "En fugue",
            "popularity": 0.6
        },
        {
            "id": 97181,
            "original_name": "Doug Jones Travelogue Collection",
            "popularity": 0.6
        },
        {
            "id": 97686,
            "original_name": "Guide et Bourlingueur",
            "popularity": 0.6
        },
        {
            "id": 97688,
            "original_name": "Kark Rogue",
            "popularity": 1.789
        },
        {
            "id": 98443,
            "original_name": "Inside : L\u2019Univers des drogues",
            "popularity": 0.6
        },
        {
            "id": 98476,
            "original_name": "Kinabatangan le Fleuve Prodigue de Born\u00e9o",
            "popularity": 0.6
        },
        {
            "id": 98502,
            "original_name": "La Guerre des As",
            "popularity": 0.997
        },
        {
            "id": 98506,
            "original_name": "Les Bombes Perdues de la Guerre Froide",
            "popularity": 0.6
        },
        {
            "id": 98553,
            "original_name": "La guerra \u00e8 finita",
            "popularity": 10.253
        },
        {
            "id": 98594,
            "original_name": "\u00c0 l'ombre de la Seconde Guerre mondiale",
            "popularity": 0.6
        },
        {
            "id": 98783,
            "original_name": "La Premi\u00e8re Guerre mondiale en couleurs",
            "popularity": 0.6
        },
        {
            "id": 98785,
            "original_name": "La France de l'entre-deux guerres",
            "popularity": 0.6
        },
        {
            "id": 98797,
            "original_name": "CIA : guerres secr\u00e8tes",
            "popularity": 0.6
        },
        {
            "id": 98802,
            "original_name": "39-40 : La Guerre des Images",
            "popularity": 0.6
        },
        {
            "id": 98891,
            "original_name": "Vietnam - Les deux guerres",
            "popularity": 0.6
        },
        {
            "id": 98939,
            "original_name": "Apocalipsis. La guerra interminable [1918-1926]",
            "popularity": 1.235
        },
        {
            "id": 99189,
            "original_name": "La fuite des huguenots",
            "popularity": 0.6
        },
        {
            "id": 99216,
            "original_name": "Drogues et cr\u00e9ation, une histoire des paradis artificiels",
            "popularity": 0.6
        },
        {
            "id": 99262,
            "original_name": "Trill League",
            "popularity": 0.6
        },
        {
            "id": 100026,
            "original_name": "La double vie de Th\u00e9ophraste Longuet",
            "popularity": 0.626
        },
        {
            "id": 100040,
            "original_name": "La Guerre des insectes",
            "popularity": 0.6
        },
        {
            "id": 100952,
            "original_name": "Sigue la Risa",
            "popularity": 0.6
        },
        {
            "id": 101116,
            "original_name": "Histoire du trafic de drogue",
            "popularity": 1.4
        },
        {
            "id": 101185,
            "original_name": "Vague d'acadie",
            "popularity": 0.605
        },
        {
            "id": 101664,
            "original_name": "La Segunda Guerra Mundial en color",
            "popularity": 1.4
        },
        {
            "id": 101953,
            "original_name": "Italia in guerra: battaglie 1940-1942",
            "popularity": 0.6
        },
        {
            "id": 101970,
            "original_name": "La Guerra Civil Espa\u00f1ola",
            "popularity": 0.6
        },
        {
            "id": 102047,
            "original_name": "Justice League Dark",
            "popularity": 1.09
        },
        {
            "id": 102304,
            "original_name": "La Madriguera",
            "popularity": 0.6
        },
        {
            "id": 102916,
            "original_name": "Ay Guey Chicas Bien",
            "popularity": 0.6
        },
        {
            "id": 104095,
            "original_name": "iB Cricket Super Over League",
            "popularity": 0.607
        },
        {
            "id": 104841,
            "original_name": "La guerra de las consolas",
            "popularity": 0.6
        },
        {
            "id": 104908,
            "original_name": "Los desastres de la guerra",
            "popularity": 0.626
        },
        {
            "id": 105229,
            "original_name": "Rogue Trip",
            "popularity": 1.671
        },
        {
            "id": 105270,
            "original_name": "Rogue Earth",
            "popularity": 1.359
        },
        {
            "id": 105475,
            "original_name": "La grande guerre des nations",
            "popularity": 0.6
        },
        {
            "id": 105477,
            "original_name": "Marguerite Volant",
            "popularity": 0.885
        },
        {
            "id": 105805,
            "original_name": "Anne Le Guen",
            "popularity": 1.121
        },
        {
            "id": 107005,
            "original_name": "A League of Their Own",
            "popularity": 0.878
        },
        {
            "id": 107217,
            "original_name": "U.S. Army M\u00e1quinas de Guerra",
            "popularity": 0.6
        },
        {
            "id": 107360,
            "original_name": "Couples Guest House",
            "popularity": 0.6
        },
        {
            "id": 107379,
            "original_name": "Clandestino. Historias de la Guerrilla Urbana",
            "popularity": 0.854
        },
        {
            "id": 107570,
            "original_name": "Les amuse-gueules",
            "popularity": 0.6
        },
        {
            "id": 108499,
            "original_name": "La longue remont\u00e9e",
            "popularity": 0.6
        },
        {
            "id": 110165,
            "original_name": "La gran historia de la Guerra Civil Espa\u00f1ola",
            "popularity": 0.6
        },
        {
            "id": 110813,
            "original_name": "Secretos de Guerra",
            "popularity": 11.822
        },
        {
            "id": 111116,
            "original_name": "Guessable",
            "popularity": 2.23
        },
        {
            "id": 112032,
            "original_name": "Turma do Gueto",
            "popularity": 0.6
        },
        {
            "id": 112176,
            "original_name": "palmashow - very bad blagues",
            "popularity": 1.386
        },
        {
            "id": 113014,
            "original_name": "Pierre Bellemare raconte la seconde guerre mondiale",
            "popularity": 0.845
        },
        {
            "id": 113386,
            "original_name": "Espa\u00f1a: Ensayo de una guerra",
            "popularity": 0.6
        },
        {
            "id": 113451,
            "original_name": "The Great Plague",
            "popularity": 0.6
        },
        {
            "id": 113558,
            "original_name": "Pandillas guerra y paz",
            "popularity": 7.315
        },
        {
            "id": 114056,
            "original_name": "The Plague Year",
            "popularity": 0.6
        },
        {
            "id": 114767,
            "original_name": "Les Blagues de Toto",
            "popularity": 0.6
        },
        {
            "id": 116876,
            "original_name": "La longue guerre Isra\u00ebl - Iran - Etats-Unis",
            "popularity": 0.84
        },
        {
            "id": 118456,
            "original_name": "Guerilleros",
            "popularity": 0.6
        },
        {
            "id": 118536,
            "original_name": "Untitled World Surf League Docuseries",
            "popularity": 0.6
        },
        {
            "id": 119733,
            "original_name": "Les blagues de Toto",
            "popularity": 0.84
        },
        {
            "id": 119767,
            "original_name": "Indian Pro Music League",
            "popularity": 0.657
        },
        {
            "id": 120908,
            "original_name": "Os Vingadores da Marvel Guerras Secretas Curtas",
            "popularity": 1.911
        },
        {
            "id": 121299,
            "original_name": "Esp\u00edas de guerra: Los esp\u00edas del d\u00eda D",
            "popularity": 0.6
        },
        {
            "id": 122686,
            "original_name": "14 -18, au-del\u00e0 de la guerre",
            "popularity": 0.6
        },
        {
            "id": 122806,
            "original_name": "A League of Their Own Road Trip: Loch Ness to London",
            "popularity": 1.737
        },
        {
            "id": 123301,
            "original_name": "Star Wars: Go Rogue",
            "popularity": 1.19
        },
        {
            "id": 123958,
            "original_name": "39-45: L'industrie de la guerre",
            "popularity": 0.6
        },
        {
            "id": 124321,
            "original_name": "Travelogue: destinazione Italia",
            "popularity": 0.6
        },
        {
            "id": 124633,
            "original_name": "Premier League",
            "popularity": 0.6
        },
        {
            "id": 124987,
            "original_name": "La guerra al tavolo della pace",
            "popularity": 1.122
        },
        {
            "id": 126593,
            "original_name": "Entregues \u00e0 Sorte",
            "popularity": 0.6
        },
        {
            "id": 126707,
            "original_name": "Vogue Cc\u00f3",
            "popularity": 0.713
        },
        {
            "id": 126776,
            "original_name": "TV-PORTUGUESA",
            "popularity": 0.6
        },
        {
            "id": 126879,
            "original_name": "1945-1953, de la Guerre Mondiale \u00e0 la Guerre Froide",
            "popularity": 0.6
        },
        {
            "id": 127116,
            "original_name": "O Meu Sangue",
            "popularity": 0.6
        },
        {
            "id": 127124,
            "original_name": "Livrai-nos da Guerra",
            "popularity": 0.6
        },
        {
            "id": 127571,
            "original_name": "Guerra de vecinos",
            "popularity": 85.19
        },
        {
            "id": 127861,
            "original_name": "39-45 : L'Enfer de la Guerre",
            "popularity": 0.6
        },
        {
            "id": 127874,
            "original_name": "39-45 : Une Guerre Strate\u0301gique",
            "popularity": 0.6
        },
        {
            "id": 127891,
            "original_name": "La 2e\u0300me Guerre Mondiale en Chiffres",
            "popularity": 0.6
        },
        {
            "id": 128011,
            "original_name": "Yr Amgueddfa",
            "popularity": 3.544
        },
        {
            "id": 128242,
            "original_name": "La 2e\u0300me Guerre Mondiale - Les Derniers Secrets",
            "popularity": 0.6
        },
        {
            "id": 128574,
            "original_name": "Apocalypse, la Seconde Guerre mondiale",
            "popularity": 0.6
        },
        {
            "id": 128620,
            "original_name": "1942 \u2013 O Brasil e sua guerra quase desconhecida",
            "popularity": 0.6
        },
        {
            "id": 129690,
            "original_name": "SHINee Monologue",
            "popularity": 0.6
        },
        {
            "id": 130106,
            "original_name": "Il sangue e la rosa",
            "popularity": 0.622
        },
        {
            "id": 130644,
            "original_name": "Britain's Outlaws: Highwaymen, Pirates and Rogues",
            "popularity": 0.6
        },
        {
            "id": 131154,
            "original_name": "La Guerre de la TNT",
            "popularity": 0.6
        },
        {
            "id": 131178,
            "original_name": "La Guerre des t\u00e9l\u00e9s",
            "popularity": 0.6
        },
        {
            "id": 131594,
            "original_name": "Comedy Premium League",
            "popularity": 0.724
        },
        {
            "id": 131889,
            "original_name": "1945-1953 : de la Guerre Mondiale \u00e0 la Guerre Froide",
            "popularity": 0.6
        },
        {
            "id": 132516,
            "original_name": "La guerre des hold-up",
            "popularity": 0.6
        },
        {
            "id": 132797,
            "original_name": "Fugueuse",
            "popularity": 4.953
        },
        {
            "id": 133167,
            "original_name": "Fever Pitch: The Rise of the Premier League",
            "popularity": 4.206
        },
        {
            "id": 133631,
            "original_name": "UEFA Champions League",
            "popularity": 1.4
        },
        {
            "id": 133639,
            "original_name": "Retratos de uma Guerra Sem Fim",
            "popularity": 0.6
        },
        {
            "id": 133782,
            "original_name": "Guerre froide, la partie de poker",
            "popularity": 0.6
        },
        {
            "id": 134245,
            "original_name": "N\u00f3s, Portugueses",
            "popularity": 0.6
        },
        {
            "id": 134687,
            "original_name": "Le temps des guerriers",
            "popularity": 0.6
        },
        {
            "id": 135243,
            "original_name": "II Guerra Mundial: Batallas de Europa",
            "popularity": 0.634
        },
        {
            "id": 135922,
            "original_name": "Seconda Guerra: Nuove Rivelazioni",
            "popularity": 0.6
        },
        {
            "id": 136694,
            "original_name": "La storia del carro armato nelle guerre mondiali",
            "popularity": 0.6
        },
        {
            "id": 136849,
            "original_name": "Vestiges de guerre",
            "popularity": 0.6
        },
        {
            "id": 137033,
            "original_name": "The Guest",
            "popularity": 0.635
        },
        {
            "id": 137546,
            "original_name": "Manchester United - All 2000 Premier League Goals",
            "popularity": 0.6
        },
        {
            "id": 138872,
            "original_name": "Jeolmi's Guesthouse",
            "popularity": 20.065
        },
        {
            "id": 139584,
            "original_name": "Le tr\u00e9sor de guerre de Napol\u00e9on",
            "popularity": 0.672
        }
    ],
    "relations": [
        {
            "character": "guel"
        },
        {
            "character": "gues"
        },
        {
            "character": "guen"
        },
        {
            "character": "guer"
        },
        {
            "character": "guet"
        },
        {
            "character": "guez"
        },
        {
            "character": "gueu"
        },
        {
            "character": "guei"
        },
        {
            "character": "guey"
        },
        {
            "character": "gued"
        }
    ],
    "top20": [
        {
            "id": 94605,
            "original_name": "Arcane: League of Legends",
            "popularity": 922.698
        },
        {
            "id": 127571,
            "original_name": "Guerra de vecinos",
            "popularity": 85.19
        },
        {
            "id": 79008,
            "original_name": "Luis Miguel: La Serie",
            "popularity": 75.734
        },
        {
            "id": 6809,
            "original_name": "El hormiguero 3.0",
            "popularity": 49.524
        },
        {
            "id": 94154,
            "original_name": "El Drag\u00f3n: El regreso de un guerrero",
            "popularity": 46.062
        },
        {
            "id": 31497,
            "original_name": "The League",
            "popularity": 29.3
        },
        {
            "id": 68837,
            "original_name": "Justice League Action",
            "popularity": 23.212
        },
        {
            "id": 138872,
            "original_name": "Jeolmi's Guesthouse",
            "popularity": 20.065
        },
        {
            "id": 1618,
            "original_name": "Justice League",
            "popularity": 19.491
        },
        {
            "id": 84200,
            "original_name": "Justice League Unlimited",
            "popularity": 18.307
        },
        {
            "id": 88367,
            "original_name": "Scooby-Doo and Guess Who?",
            "popularity": 18.151
        },
        {
            "id": 74013,
            "original_name": "Tiempos de guerra",
            "popularity": 13.455
        },
        {
            "id": 110813,
            "original_name": "Secretos de Guerra",
            "popularity": 11.822
        },
        {
            "id": 33189,
            "original_name": "Apocalypse - La 2\u00e8me guerre mondiale",
            "popularity": 11.043
        },
        {
            "id": 47600,
            "original_name": "Rogue",
            "popularity": 10.709
        },
        {
            "id": 98553,
            "original_name": "La guerra \u00e8 finita",
            "popularity": 10.253
        },
        {
            "id": 61314,
            "original_name": "Apocalypse, la Premi\u00e8re Guerre Mondiale",
            "popularity": 9.807
        },
        {
            "id": 81822,
            "original_name": "\uc190: The Guest",
            "popularity": 9.584
        },
        {
            "id": 63266,
            "original_name": "Justice League: Gods and Monsters Chronicles",
            "popularity": 9.428
        },
        {
            "id": 76201,
            "original_name": "Fugueuse",
            "popularity": 8.725
        }
    ]
}