{
    "data": [
        {
            "id": 121797,
            "original_name": "Bakugan Battle Brawlers: Gundalian Invaders",
            "popularity": 3.652
        }
    ],
    "relations": [],
    "top20": [
        {
            "id": 121797,
            "original_name": "Bakugan Battle Brawlers: Gundalian Invaders",
            "popularity": 3.652
        }
    ]
}