{
    "data": [
        {
            "id": 94877,
            "original_name": "Adam Ragusea",
            "popularity": 1.532
        },
        {
            "id": 137436,
            "original_name": "Valguses ja varjus",
            "popularity": 0.84
        }
    ],
    "relations": [],
    "top20": [
        {
            "id": 94877,
            "original_name": "Adam Ragusea",
            "popularity": 1.532
        },
        {
            "id": 137436,
            "original_name": "Valguses ja varjus",
            "popularity": 0.84
        }
    ]
}