{
    "data": [
        {
            "id": 32639,
            "original_name": "ZingZillas",
            "popularity": 1.801
        },
        {
            "id": 34240,
            "original_name": "Yongzheng Dynasty",
            "popularity": 0.6
        },
        {
            "id": 35981,
            "original_name": "Trey Songz: My Moment",
            "popularity": 0.6
        },
        {
            "id": 38330,
            "original_name": "ZingZillas ZingBop",
            "popularity": 0.6
        },
        {
            "id": 49108,
            "original_name": "Egzamin z \u017cycia",
            "popularity": 2.317
        },
        {
            "id": 74857,
            "original_name": "Egzorcysta",
            "popularity": 2.366
        },
        {
            "id": 81160,
            "original_name": "Le Tr\u00f4ne des Frogz",
            "popularity": 1.254
        },
        {
            "id": 100403,
            "original_name": "War Birds - Kampfflugzeuge des 2. Weltkriegs",
            "popularity": 0.6
        },
        {
            "id": 114183,
            "original_name": "Bogdan Boner: Egzorcysta",
            "popularity": 1.4
        },
        {
            "id": 117813,
            "original_name": "Das Schlagzeilenquiz",
            "popularity": 1.864
        },
        {
            "id": 130038,
            "original_name": "GZERO World with Ian Bremmer",
            "popularity": 0.6
        },
        {
            "id": 134714,
            "original_name": "GZSZ-Specials",
            "popularity": 0.6
        }
    ],
    "relations": [],
    "top20": [
        {
            "id": 32639,
            "original_name": "ZingZillas",
            "popularity": 1.801
        },
        {
            "id": 34240,
            "original_name": "Yongzheng Dynasty",
            "popularity": 0.6
        },
        {
            "id": 35981,
            "original_name": "Trey Songz: My Moment",
            "popularity": 0.6
        },
        {
            "id": 38330,
            "original_name": "ZingZillas ZingBop",
            "popularity": 0.6
        },
        {
            "id": 49108,
            "original_name": "Egzamin z \u017cycia",
            "popularity": 2.317
        },
        {
            "id": 74857,
            "original_name": "Egzorcysta",
            "popularity": 2.366
        },
        {
            "id": 81160,
            "original_name": "Le Tr\u00f4ne des Frogz",
            "popularity": 1.254
        },
        {
            "id": 100403,
            "original_name": "War Birds - Kampfflugzeuge des 2. Weltkriegs",
            "popularity": 0.6
        },
        {
            "id": 114183,
            "original_name": "Bogdan Boner: Egzorcysta",
            "popularity": 1.4
        },
        {
            "id": 117813,
            "original_name": "Das Schlagzeilenquiz",
            "popularity": 1.864
        },
        {
            "id": 130038,
            "original_name": "GZERO World with Ian Bremmer",
            "popularity": 0.6
        },
        {
            "id": 134714,
            "original_name": "GZSZ-Specials",
            "popularity": 0.6
        }
    ]
}