{
    "data": [
        {
            "id": 5902,
            "original_name": "Covert One: The Hades Factor",
            "popularity": 4.709
        },
        {
            "id": 6500,
            "original_name": "Shades of Truth",
            "popularity": 0.6
        },
        {
            "id": 11753,
            "original_name": "All Shades of Fine: 25 Hottest Women of the Past 25 Years",
            "popularity": 0.6
        },
        {
            "id": 20953,
            "original_name": "Shades of Greene",
            "popularity": 0.956
        },
        {
            "id": 21947,
            "original_name": "Shades of Darkness",
            "popularity": 0.674
        },
        {
            "id": 22960,
            "original_name": "Shades",
            "popularity": 0.6
        },
        {
            "id": 26352,
            "original_name": "Shades of L.A.",
            "popularity": 5.468
        },
        {
            "id": 47269,
            "original_name": "Billy Joel: Shades of Grey",
            "popularity": 0.6
        },
        {
            "id": 59549,
            "original_name": "Shades",
            "popularity": 0.6
        },
        {
            "id": 60317,
            "original_name": "Shades of Black: The Conrad Black Story",
            "popularity": 0.6
        },
        {
            "id": 64433,
            "original_name": "Shades of Blue",
            "popularity": 16.211
        },
        {
            "id": 66335,
            "original_name": "United Shades of America",
            "popularity": 2.861
        },
        {
            "id": 85059,
            "original_name": "Hades: Developing Hell",
            "popularity": 0.6
        },
        {
            "id": 89177,
            "original_name": "TANTASTIC: 50 SHADES OF ORANGE",
            "popularity": 0.6
        }
    ],
    "relations": [],
    "top20": [
        {
            "id": 5902,
            "original_name": "Covert One: The Hades Factor",
            "popularity": 4.709
        },
        {
            "id": 6500,
            "original_name": "Shades of Truth",
            "popularity": 0.6
        },
        {
            "id": 11753,
            "original_name": "All Shades of Fine: 25 Hottest Women of the Past 25 Years",
            "popularity": 0.6
        },
        {
            "id": 20953,
            "original_name": "Shades of Greene",
            "popularity": 0.956
        },
        {
            "id": 21947,
            "original_name": "Shades of Darkness",
            "popularity": 0.674
        },
        {
            "id": 22960,
            "original_name": "Shades",
            "popularity": 0.6
        },
        {
            "id": 26352,
            "original_name": "Shades of L.A.",
            "popularity": 5.468
        },
        {
            "id": 47269,
            "original_name": "Billy Joel: Shades of Grey",
            "popularity": 0.6
        },
        {
            "id": 59549,
            "original_name": "Shades",
            "popularity": 0.6
        },
        {
            "id": 60317,
            "original_name": "Shades of Black: The Conrad Black Story",
            "popularity": 0.6
        },
        {
            "id": 64433,
            "original_name": "Shades of Blue",
            "popularity": 16.211
        },
        {
            "id": 66335,
            "original_name": "United Shades of America",
            "popularity": 2.861
        },
        {
            "id": 85059,
            "original_name": "Hades: Developing Hell",
            "popularity": 0.6
        },
        {
            "id": 89177,
            "original_name": "TANTASTIC: 50 SHADES OF ORANGE",
            "popularity": 0.6
        }
    ]
}