{
    "data": [
        {
            "id": 593,
            "original_name": "Shaggy & Scooby-Doo Get a Clue!",
            "popularity": 11.319
        },
        {
            "id": 6496,
            "original_name": "Haggis Baggis",
            "popularity": 0.6
        },
        {
            "id": 7222,
            "original_name": "Uti v\u00e5r hage",
            "popularity": 1.732
        },
        {
            "id": 8478,
            "original_name": "Shagun",
            "popularity": 0.6
        },
        {
            "id": 11885,
            "original_name": "Haggard",
            "popularity": 0.84
        },
        {
            "id": 21052,
            "original_name": "Shaggy Dog Story",
            "popularity": 0.6
        },
        {
            "id": 24288,
            "original_name": "Hagedorns Tochter",
            "popularity": 1.198
        },
        {
            "id": 29829,
            "original_name": "Hagen",
            "popularity": 1.279
        },
        {
            "id": 30293,
            "original_name": "John Hagee Ministries",
            "popularity": 0.6
        },
        {
            "id": 31884,
            "original_name": "Bhagyavidhaata",
            "popularity": 0.6
        },
        {
            "id": 32596,
            "original_name": "HaDavar HaGadol HaBa",
            "popularity": 0.6
        },
        {
            "id": 35599,
            "original_name": "Expeditie Kopenhagen",
            "popularity": 0.6
        },
        {
            "id": 37407,
            "original_name": "Hagure Keiji '97",
            "popularity": 0.6
        },
        {
            "id": 37458,
            "original_name": "Hagure Keiji '99",
            "popularity": 0.6
        },
        {
            "id": 38964,
            "original_name": "Bhagonwali-Baante Apni Taqdeer",
            "popularity": 0.6
        },
        {
            "id": 39915,
            "original_name": "Dwarkadheesh Bhagwaan Shree Krishn",
            "popularity": 0.6
        },
        {
            "id": 40347,
            "original_name": "Dwarkadheesh \u2013 Bhagwaan Shree Krishn",
            "popularity": 0.6
        },
        {
            "id": 41999,
            "original_name": "The Return of the Shaggy Dog",
            "popularity": 0.6
        },
        {
            "id": 43539,
            "original_name": "Duke Ellington: Copenhagen: Parts 1 and 2",
            "popularity": 0.6
        },
        {
            "id": 43555,
            "original_name": "Kargin Haghordum",
            "popularity": 0.84
        },
        {
            "id": 44817,
            "original_name": "Sose Thanda Sowbhagya",
            "popularity": 0.6
        },
        {
            "id": 47231,
            "original_name": "The Murder of Mary Phagan",
            "popularity": 1.489
        },
        {
            "id": 50261,
            "original_name": "Raafat El-Hagan",
            "popularity": 0.6
        },
        {
            "id": 50265,
            "original_name": "Shagaret El-Leblab",
            "popularity": 0.6
        },
        {
            "id": 52711,
            "original_name": "Al-Rahaya Hagar Al-Qulub",
            "popularity": 0.6
        },
        {
            "id": 53282,
            "original_name": "Asrar Al Hag",
            "popularity": 0.6
        },
        {
            "id": 53451,
            "original_name": "G\u00e4st hos Hagge",
            "popularity": 0.6
        },
        {
            "id": 56113,
            "original_name": "Rafat Al-Haggan",
            "popularity": 0.6
        },
        {
            "id": 56346,
            "original_name": "Fawazir Shirihan Hagat wi Muhtagat",
            "popularity": 0.6
        },
        {
            "id": 56391,
            "original_name": "Westinghouse Presents: Come Again to Carthage",
            "popularity": 0.6
        },
        {
            "id": 57344,
            "original_name": "Carthage: The Roman Holocaust",
            "popularity": 0.623
        },
        {
            "id": 60402,
            "original_name": "Patrick O'Hagan Sings",
            "popularity": 0.6
        },
        {
            "id": 60785,
            "original_name": "Unsere Hagenbecks",
            "popularity": 2.288
        },
        {
            "id": 70577,
            "original_name": "Rock & Roll Road Trip with Sammy Hagar",
            "popularity": 1.441
        },
        {
            "id": 71734,
            "original_name": "Kumkum Bhagya",
            "popularity": 6.684
        },
        {
            "id": 75282,
            "original_name": "Kundali Bhagya",
            "popularity": 6.984
        },
        {
            "id": 81808,
            "original_name": "Hagen hilft!",
            "popularity": 1.093
        },
        {
            "id": 85661,
            "original_name": "Riphagen",
            "popularity": 1.394
        },
        {
            "id": 87611,
            "original_name": "Si no t'hagu\u00e9s conegut",
            "popularity": 9.054
        },
        {
            "id": 88839,
            "original_name": "Mahaguru Spontan",
            "popularity": 0.6
        },
        {
            "id": 89097,
            "original_name": "Tsurupika Hagemaru",
            "popularity": 8.815
        },
        {
            "id": 89392,
            "original_name": "Adivina qu\u00e9 hago esta noche",
            "popularity": 0.6
        },
        {
            "id": 92179,
            "original_name": "Bahagia Bukan Bidaan",
            "popularity": 1.4
        },
        {
            "id": 92261,
            "original_name": "Asalkan Dia Bahagia",
            "popularity": 0.621
        },
        {
            "id": 100044,
            "original_name": "Pavitra Bhagya",
            "popularity": 0.6
        },
        {
            "id": 100949,
            "original_name": "Y ahora qu\u00e9 hago",
            "popularity": 0.6
        },
        {
            "id": 104268,
            "original_name": "Bramhagantu",
            "popularity": 0.6
        },
        {
            "id": 109302,
            "original_name": "Tid for hage",
            "popularity": 0.709
        },
        {
            "id": 128062,
            "original_name": "Le Chagrin et la Piti\u00e9",
            "popularity": 0.6
        },
        {
            "id": 129724,
            "original_name": "Shrimad Bhagwat Mahapuran",
            "popularity": 0.6
        },
        {
            "id": 130542,
            "original_name": "Bhagya Lakshmi",
            "popularity": 0.6
        }
    ],
    "relations": [
        {
            "character": "hagg"
        },
        {
            "character": "hage"
        },
        {
            "character": "hagu"
        },
        {
            "character": "hagy"
        },
        {
            "character": "haga"
        },
        {
            "character": "hago"
        },
        {
            "character": "hagw"
        },
        {
            "character": "hagh"
        },
        {
            "character": "hagi"
        },
        {
            "character": "hagr"
        }
    ],
    "top20": [
        {
            "id": 593,
            "original_name": "Shaggy & Scooby-Doo Get a Clue!",
            "popularity": 11.319
        },
        {
            "id": 87611,
            "original_name": "Si no t'hagu\u00e9s conegut",
            "popularity": 9.054
        },
        {
            "id": 89097,
            "original_name": "Tsurupika Hagemaru",
            "popularity": 8.815
        },
        {
            "id": 75282,
            "original_name": "Kundali Bhagya",
            "popularity": 6.984
        },
        {
            "id": 71734,
            "original_name": "Kumkum Bhagya",
            "popularity": 6.684
        },
        {
            "id": 60785,
            "original_name": "Unsere Hagenbecks",
            "popularity": 2.288
        },
        {
            "id": 7222,
            "original_name": "Uti v\u00e5r hage",
            "popularity": 1.732
        },
        {
            "id": 47231,
            "original_name": "The Murder of Mary Phagan",
            "popularity": 1.489
        },
        {
            "id": 70577,
            "original_name": "Rock & Roll Road Trip with Sammy Hagar",
            "popularity": 1.441
        },
        {
            "id": 92179,
            "original_name": "Bahagia Bukan Bidaan",
            "popularity": 1.4
        },
        {
            "id": 85661,
            "original_name": "Riphagen",
            "popularity": 1.394
        },
        {
            "id": 29829,
            "original_name": "Hagen",
            "popularity": 1.279
        },
        {
            "id": 24288,
            "original_name": "Hagedorns Tochter",
            "popularity": 1.198
        },
        {
            "id": 81808,
            "original_name": "Hagen hilft!",
            "popularity": 1.093
        },
        {
            "id": 11885,
            "original_name": "Haggard",
            "popularity": 0.84
        },
        {
            "id": 43555,
            "original_name": "Kargin Haghordum",
            "popularity": 0.84
        },
        {
            "id": 109302,
            "original_name": "Tid for hage",
            "popularity": 0.709
        },
        {
            "id": 57344,
            "original_name": "Carthage: The Roman Holocaust",
            "popularity": 0.623
        },
        {
            "id": 92261,
            "original_name": "Asalkan Dia Bahagia",
            "popularity": 0.621
        },
        {
            "id": 6496,
            "original_name": "Haggis Baggis",
            "popularity": 0.6
        }
    ]
}