{
    "data": [
        {
            "id": 593,
            "original_name": "Shaggy & Scooby-Doo Get a Clue!",
            "popularity": 11.319
        },
        {
            "id": 6496,
            "original_name": "Haggis Baggis",
            "popularity": 0.6
        },
        {
            "id": 11885,
            "original_name": "Haggard",
            "popularity": 0.84
        },
        {
            "id": 21052,
            "original_name": "Shaggy Dog Story",
            "popularity": 0.6
        },
        {
            "id": 41999,
            "original_name": "The Return of the Shaggy Dog",
            "popularity": 0.6
        },
        {
            "id": 53451,
            "original_name": "G\u00e4st hos Hagge",
            "popularity": 0.6
        },
        {
            "id": 56113,
            "original_name": "Rafat Al-Haggan",
            "popularity": 0.6
        }
    ],
    "relations": [],
    "top20": [
        {
            "id": 593,
            "original_name": "Shaggy & Scooby-Doo Get a Clue!",
            "popularity": 11.319
        },
        {
            "id": 6496,
            "original_name": "Haggis Baggis",
            "popularity": 0.6
        },
        {
            "id": 11885,
            "original_name": "Haggard",
            "popularity": 0.84
        },
        {
            "id": 21052,
            "original_name": "Shaggy Dog Story",
            "popularity": 0.6
        },
        {
            "id": 41999,
            "original_name": "The Return of the Shaggy Dog",
            "popularity": 0.6
        },
        {
            "id": 53451,
            "original_name": "G\u00e4st hos Hagge",
            "popularity": 0.6
        },
        {
            "id": 56113,
            "original_name": "Rafat Al-Haggan",
            "popularity": 0.6
        }
    ]
}