{
    "data": [
        {
            "id": 53325,
            "original_name": "Shahrazad",
            "popularity": 0.6
        },
        {
            "id": 87709,
            "original_name": "Shahr Zaman",
            "popularity": 0.6
        }
    ],
    "relations": [],
    "top20": [
        {
            "id": 53325,
            "original_name": "Shahrazad",
            "popularity": 0.6
        },
        {
            "id": 87709,
            "original_name": "Shahr Zaman",
            "popularity": 0.6
        }
    ]
}