{
    "data": [
        {
            "id": 20748,
            "original_name": "Hey...Yehii To Haii Woh!",
            "popularity": 0.6
        }
    ],
    "relations": [],
    "top20": [
        {
            "id": 20748,
            "original_name": "Hey...Yehii To Haii Woh!",
            "popularity": 0.6
        }
    ]
}