{
    "data": [
        {
            "id": 146103,
            "original_name": "Za Shakespearem s Martinem Hilsk\u00fdm",
            "popularity": 1.4
        }
    ],
    "relations": [],
    "top20": [
        {
            "id": 146103,
            "original_name": "Za Shakespearem s Martinem Hilsk\u00fdm",
            "popularity": 1.4
        }
    ]
}