{
    "data": [
        {
            "id": 17183,
            "original_name": "BrassTacks with Zaid Hamid",
            "popularity": 0.6
        },
        {
            "id": 52755,
            "original_name": "AbdulHamid Academy",
            "popularity": 0.6
        },
        {
            "id": 70788,
            "original_name": "Payitaht Abd\u00fclhamid",
            "popularity": 13.51
        }
    ],
    "relations": [],
    "top20": [
        {
            "id": 17183,
            "original_name": "BrassTacks with Zaid Hamid",
            "popularity": 0.6
        },
        {
            "id": 52755,
            "original_name": "AbdulHamid Academy",
            "popularity": 0.6
        },
        {
            "id": 70788,
            "original_name": "Payitaht Abd\u00fclhamid",
            "popularity": 13.51
        }
    ]
}