{
    "data": [
        {
            "id": 30301,
            "original_name": "Archangel",
            "popularity": 8.43
        },
        {
            "id": 35517,
            "original_name": "Changelings",
            "popularity": 0.84
        },
        {
            "id": 43034,
            "original_name": "Michael the Archangel's Dance",
            "popularity": 0.6
        },
        {
            "id": 55483,
            "original_name": "Jenifer Lewis and Shangela",
            "popularity": 0.6
        },
        {
            "id": 131992,
            "original_name": "The Changeling",
            "popularity": 1.646
        }
    ],
    "relations": [],
    "top20": [
        {
            "id": 30301,
            "original_name": "Archangel",
            "popularity": 8.43
        },
        {
            "id": 35517,
            "original_name": "Changelings",
            "popularity": 0.84
        },
        {
            "id": 43034,
            "original_name": "Michael the Archangel's Dance",
            "popularity": 0.6
        },
        {
            "id": 55483,
            "original_name": "Jenifer Lewis and Shangela",
            "popularity": 0.6
        },
        {
            "id": 131992,
            "original_name": "The Changeling",
            "popularity": 1.646
        }
    ]
}