{
    "data": [
        {
            "id": 14843,
            "original_name": "A Shot at Love: The Hangover",
            "popularity": 0.6
        },
        {
            "id": 55562,
            "original_name": "Tuesday Night Hangouts",
            "popularity": 0.6
        },
        {
            "id": 87141,
            "original_name": "The Hangover Games",
            "popularity": 0.6
        }
    ],
    "relations": [],
    "top20": [
        {
            "id": 14843,
            "original_name": "A Shot at Love: The Hangover",
            "popularity": 0.6
        },
        {
            "id": 55562,
            "original_name": "Tuesday Night Hangouts",
            "popularity": 0.6
        },
        {
            "id": 87141,
            "original_name": "The Hangover Games",
            "popularity": 0.6
        }
    ]
}