{
    "data": [
        {
            "id": 13280,
            "original_name": "Ce soir, on chante",
            "popularity": 0.6
        },
        {
            "id": 16897,
            "original_name": "An Enchanted Life",
            "popularity": 0.6
        },
        {
            "id": 23132,
            "original_name": "The Enchanted World of Danny Kaye: The Emperor's New Clothes",
            "popularity": 0.6
        },
        {
            "id": 26869,
            "original_name": "Enchanted Musical Playhouse",
            "popularity": 0.6
        },
        {
            "id": 28224,
            "original_name": "Chantelle: Living The Dream",
            "popularity": 0.6
        },
        {
            "id": 28550,
            "original_name": "Chantelle's Dream Dates",
            "popularity": 0.6
        },
        {
            "id": 37310,
            "original_name": "Netsuretsu Teki Chuuka Hanten",
            "popularity": 1.354
        },
        {
            "id": 58190,
            "original_name": "Enchanted Garden",
            "popularity": 0.6
        },
        {
            "id": 58876,
            "original_name": "The Enchanted World of Brambly Hedge",
            "popularity": 0.6
        },
        {
            "id": 59872,
            "original_name": "The Enchanted",
            "popularity": 0.6
        },
        {
            "id": 67601,
            "original_name": "Permis de chanter",
            "popularity": 0.879
        },
        {
            "id": 69018,
            "original_name": "Chante !",
            "popularity": 0.933
        },
        {
            "id": 73862,
            "original_name": "ICI on chante",
            "popularity": 2.036
        },
        {
            "id": 78615,
            "original_name": "Japan: Earth's Enchanted Islands",
            "popularity": 0.943
        },
        {
            "id": 91169,
            "original_name": "The Family Chantel",
            "popularity": 9.003
        },
        {
            "id": 92747,
            "original_name": "M\u00e9chante m\u00e9t\u00e9o",
            "popularity": 0.6
        },
        {
            "id": 108886,
            "original_name": "Rauhantekij\u00e4",
            "popularity": 2.965
        },
        {
            "id": 112528,
            "original_name": "Chante-moi la pomme",
            "popularity": 0.605
        },
        {
            "id": 113111,
            "original_name": "The Enchanted Castle",
            "popularity": 1.09
        },
        {
            "id": 115950,
            "original_name": "The Family Chantel: Pillow Talk",
            "popularity": 2.256
        },
        {
            "id": 119716,
            "original_name": "Chanteurs masqu\u00e9s",
            "popularity": 9.557
        },
        {
            "id": 120848,
            "original_name": "Qui sait chanter?",
            "popularity": 8.474
        },
        {
            "id": 120926,
            "original_name": "Chanter la vie",
            "popularity": 0.841
        },
        {
            "id": 136203,
            "original_name": "The enchanted village of Pinocchio",
            "popularity": 10.601
        }
    ],
    "relations": [
        {
            "character": "hanted"
        },
        {
            "character": "hantel"
        },
        {
            "character": "hanten"
        },
        {
            "character": "hanter"
        },
        {
            "character": "hantek"
        },
        {
            "character": "hanteu"
        }
    ],
    "top20": [
        {
            "id": 136203,
            "original_name": "The enchanted village of Pinocchio",
            "popularity": 10.601
        },
        {
            "id": 119716,
            "original_name": "Chanteurs masqu\u00e9s",
            "popularity": 9.557
        },
        {
            "id": 91169,
            "original_name": "The Family Chantel",
            "popularity": 9.003
        },
        {
            "id": 120848,
            "original_name": "Qui sait chanter?",
            "popularity": 8.474
        },
        {
            "id": 108886,
            "original_name": "Rauhantekij\u00e4",
            "popularity": 2.965
        },
        {
            "id": 115950,
            "original_name": "The Family Chantel: Pillow Talk",
            "popularity": 2.256
        },
        {
            "id": 73862,
            "original_name": "ICI on chante",
            "popularity": 2.036
        },
        {
            "id": 37310,
            "original_name": "Netsuretsu Teki Chuuka Hanten",
            "popularity": 1.354
        },
        {
            "id": 113111,
            "original_name": "The Enchanted Castle",
            "popularity": 1.09
        },
        {
            "id": 78615,
            "original_name": "Japan: Earth's Enchanted Islands",
            "popularity": 0.943
        },
        {
            "id": 69018,
            "original_name": "Chante !",
            "popularity": 0.933
        },
        {
            "id": 67601,
            "original_name": "Permis de chanter",
            "popularity": 0.879
        },
        {
            "id": 120926,
            "original_name": "Chanter la vie",
            "popularity": 0.841
        },
        {
            "id": 112528,
            "original_name": "Chante-moi la pomme",
            "popularity": 0.605
        },
        {
            "id": 28550,
            "original_name": "Chantelle's Dream Dates",
            "popularity": 0.6
        },
        {
            "id": 28224,
            "original_name": "Chantelle: Living The Dream",
            "popularity": 0.6
        },
        {
            "id": 26869,
            "original_name": "Enchanted Musical Playhouse",
            "popularity": 0.6
        },
        {
            "id": 23132,
            "original_name": "The Enchanted World of Danny Kaye: The Emperor's New Clothes",
            "popularity": 0.6
        },
        {
            "id": 16897,
            "original_name": "An Enchanted Life",
            "popularity": 0.6
        },
        {
            "id": 13280,
            "original_name": "Ce soir, on chante",
            "popularity": 0.6
        }
    ]
}