{
    "data": [
        {
            "id": 5914,
            "original_name": "Sharky & George",
            "popularity": 0.6
        },
        {
            "id": 15366,
            "original_name": "Sharky's Friends",
            "popularity": 0.6
        }
    ],
    "relations": [],
    "top20": [
        {
            "id": 5914,
            "original_name": "Sharky & George",
            "popularity": 0.6
        },
        {
            "id": 15366,
            "original_name": "Sharky's Friends",
            "popularity": 0.6
        }
    ]
}