{
    "data": [
        {
            "id": 158,
            "original_name": "Port Charles",
            "popularity": 0.6
        },
        {
            "id": 566,
            "original_name": "Charles in Charge",
            "popularity": 12.718
        },
        {
            "id": 717,
            "original_name": "Charlie Brooker's Screenwipe",
            "popularity": 2.7
        },
        {
            "id": 919,
            "original_name": "Charlie Rose",
            "popularity": 4.822
        },
        {
            "id": 2390,
            "original_name": "Charlie Chalk",
            "popularity": 0.6
        },
        {
            "id": 2746,
            "original_name": "Charlie Jade",
            "popularity": 3.116
        },
        {
            "id": 2951,
            "original_name": "The Charlotte Church Show",
            "popularity": 2.325
        },
        {
            "id": 3382,
            "original_name": "Charlie's Angels",
            "popularity": 23.277
        },
        {
            "id": 3815,
            "original_name": "Charlie's orchestra",
            "popularity": 0.6
        },
        {
            "id": 5305,
            "original_name": "Harlem Globetrotters",
            "popularity": 3.027
        },
        {
            "id": 5930,
            "original_name": "The Harlem Globetrotters Popcorn Machine",
            "popularity": 0.6
        },
        {
            "id": 6251,
            "original_name": "There's No Time for Love, Charlie Brown",
            "popularity": 0.6
        },
        {
            "id": 6252,
            "original_name": "What a Nightmare, Charlie Brown!",
            "popularity": 0.6
        },
        {
            "id": 6256,
            "original_name": "She's a Good Skate, Charlie Brown",
            "popularity": 0.6
        },
        {
            "id": 6670,
            "original_name": "The Charlie Brown and Snoopy Show",
            "popularity": 5.991
        },
        {
            "id": 8389,
            "original_name": "Charlie Bird Explores",
            "popularity": 0.6
        },
        {
            "id": 8753,
            "original_name": "Harley Street",
            "popularity": 1.641
        },
        {
            "id": 9848,
            "original_name": "Charlie & Co.",
            "popularity": 1.388
        },
        {
            "id": 12152,
            "original_name": "This Is America, Charlie Brown",
            "popularity": 2.803
        },
        {
            "id": 13102,
            "original_name": "The Charlie Horse Music Pizza",
            "popularity": 0.609
        },
        {
            "id": 13496,
            "original_name": "Charlie Brown's Christmas Tales",
            "popularity": 0.6
        },
        {
            "id": 13652,
            "original_name": "The New Adventures of Charlie Chan",
            "popularity": 0.914
        },
        {
            "id": 15192,
            "original_name": "Play It Again, Charlie Brown",
            "popularity": 0.6
        },
        {
            "id": 15193,
            "original_name": "You're in Love, Charlie Brown",
            "popularity": 0.6
        },
        {
            "id": 15692,
            "original_name": "He's Your Dog, Charlie Brown",
            "popularity": 0.6
        },
        {
            "id": 16163,
            "original_name": "Beat Charlie Moore",
            "popularity": 0.6
        },
        {
            "id": 16265,
            "original_name": "Harlem Heights",
            "popularity": 0.6
        },
        {
            "id": 16638,
            "original_name": "Happy Anniversary, Charlie Brown",
            "popularity": 0.699
        },
        {
            "id": 17968,
            "original_name": "Newswipe with Charlie Brooker",
            "popularity": 2.121
        },
        {
            "id": 17991,
            "original_name": "Charlie Murphy's Crash Comedy",
            "popularity": 0.6
        },
        {
            "id": 18439,
            "original_name": "Lester and Charlie",
            "popularity": 0.6
        },
        {
            "id": 18774,
            "original_name": "Don't Call Me Charlie",
            "popularity": 0.96
        },
        {
            "id": 18961,
            "original_name": "The Genius of Charles Darwin",
            "popularity": 1.4
        },
        {
            "id": 19311,
            "original_name": "Charles II: The Power and The Passion",
            "popularity": 4.781
        },
        {
            "id": 19546,
            "original_name": "You Don't Look 40, Charlie Brown",
            "popularity": 0.6
        },
        {
            "id": 19547,
            "original_name": "It's Spring Training, Charlie Brown",
            "popularity": 0.6
        },
        {
            "id": 19548,
            "original_name": "It Was My Best Birthday Ever, Charlie Brown",
            "popularity": 0.6
        },
        {
            "id": 19968,
            "original_name": "You're on Nickelodeon, Charlie Brown",
            "popularity": 0.6
        },
        {
            "id": 20108,
            "original_name": "It's Flashbeagle, Charlie Brown",
            "popularity": 0.6
        },
        {
            "id": 20116,
            "original_name": "Happy New Year, Charlie Brown!",
            "popularity": 0.62
        },
        {
            "id": 20118,
            "original_name": "You're Not Elected, Charlie Brown",
            "popularity": 0.6
        },
        {
            "id": 20119,
            "original_name": "It Was a Short Summer, Charlie Brown",
            "popularity": 0.87
        },
        {
            "id": 20120,
            "original_name": "It's Arbor Day, Charlie Brown",
            "popularity": 0.84
        },
        {
            "id": 20373,
            "original_name": "Here's to You, Charlie Brown: 50 Great Years",
            "popularity": 0.6
        },
        {
            "id": 20906,
            "original_name": "Good Grief, Charlie Brown: A Tribute to Charles Schulz",
            "popularity": 0.6
        },
        {
            "id": 21172,
            "original_name": "Charles Darwin and the Tree of Life",
            "popularity": 0.6
        },
        {
            "id": 21192,
            "original_name": "Charlie Wild, Private Detective",
            "popularity": 0.6
        },
        {
            "id": 21641,
            "original_name": "Good Luck Charlie",
            "popularity": 39.366
        },
        {
            "id": 21983,
            "original_name": "Right Charlie",
            "popularity": 0.6
        },
        {
            "id": 22388,
            "original_name": "Leave It To Charlie",
            "popularity": 1.4
        },
        {
            "id": 22403,
            "original_name": "Charlie Had One But He Didn't Like It So He Gave It To Us",
            "popularity": 0.6
        },
        {
            "id": 23325,
            "original_name": "Unser Charly",
            "popularity": 9.819
        },
        {
            "id": 23566,
            "original_name": "The Two Charleys",
            "popularity": 0.6
        },
        {
            "id": 24072,
            "original_name": "Barley Charlie",
            "popularity": 0.6
        },
        {
            "id": 24927,
            "original_name": "The Charles Grodin Show",
            "popularity": 0.6
        },
        {
            "id": 26256,
            "original_name": "Charlie Grace",
            "popularity": 1.753
        },
        {
            "id": 26367,
            "original_name": "Father Charlie",
            "popularity": 0.6
        },
        {
            "id": 26530,
            "original_name": "Charlie Lawrence",
            "popularity": 1.449
        },
        {
            "id": 27439,
            "original_name": "Charlie",
            "popularity": 0.996
        },
        {
            "id": 27894,
            "original_name": "Charlie Daniels' Talent Round Up",
            "popularity": 0.6
        },
        {
            "id": 28126,
            "original_name": "Charley's Grants",
            "popularity": 0.6
        },
        {
            "id": 28479,
            "original_name": "The Charlie Farrell Show",
            "popularity": 0.6
        },
        {
            "id": 28741,
            "original_name": "The Adventures Of Charlie Quick",
            "popularity": 0.6
        },
        {
            "id": 29425,
            "original_name": "The Charlie Chester Show",
            "popularity": 0.6
        },
        {
            "id": 29519,
            "original_name": "The Charlie Drake Show",
            "popularity": 0.6
        },
        {
            "id": 29624,
            "original_name": "The Charlie Farnsbarns Show",
            "popularity": 0.6
        },
        {
            "id": 30299,
            "original_name": "Charlie Chester On Laughter Service",
            "popularity": 0.6
        },
        {
            "id": 30400,
            "original_name": "Charlie Drake And Jack Edwardes",
            "popularity": 0.6
        },
        {
            "id": 30467,
            "original_name": "Young Charlie Chaplin",
            "popularity": 1.778
        },
        {
            "id": 30480,
            "original_name": "Charlie Drake In...",
            "popularity": 0.6
        },
        {
            "id": 30832,
            "original_name": "Charlie Brooker's Gameswipe",
            "popularity": 0.6
        },
        {
            "id": 30958,
            "original_name": "Charlie and Lola",
            "popularity": 5.981
        },
        {
            "id": 31204,
            "original_name": "Charley Boorman: Sydney to Tokyo By Any Means",
            "popularity": 0.6
        },
        {
            "id": 31296,
            "original_name": "Life Is a Circus, Charlie Brown",
            "popularity": 0.6
        },
        {
            "id": 31297,
            "original_name": "It's an Adventure, Charlie Brown",
            "popularity": 0.702
        },
        {
            "id": 31299,
            "original_name": "Snoopy's Getting Married, Charlie Brown",
            "popularity": 0.6
        },
        {
            "id": 31395,
            "original_name": "Charlie Hoover",
            "popularity": 1.499
        },
        {
            "id": 32195,
            "original_name": "Little Parents, Big Charlie",
            "popularity": 0.6
        },
        {
            "id": 32272,
            "original_name": "Charley Weaver's Hobby Lobby",
            "popularity": 0.664
        },
        {
            "id": 33637,
            "original_name": "Charlie Had One But He Didn't Like It, So He Gave It To Us",
            "popularity": 0.6
        },
        {
            "id": 34551,
            "original_name": "Charles Endell Esquire",
            "popularity": 0.623
        },
        {
            "id": 34685,
            "original_name": "Lucy Must Be Traded, Charlie Brown",
            "popularity": 1.158
        },
        {
            "id": 35261,
            "original_name": "Le Grand Charles",
            "popularity": 1.209
        },
        {
            "id": 35282,
            "original_name": "Charlie's Angels",
            "popularity": 9.922
        },
        {
            "id": 35524,
            "original_name": "Charlemagne",
            "popularity": 3.332
        },
        {
            "id": 37202,
            "original_name": "The Charles Perez Show",
            "popularity": 0.6
        },
        {
            "id": 37778,
            "original_name": "Little Charley Bear",
            "popularity": 0.668
        },
        {
            "id": 41557,
            "original_name": "In Touch with Dr. Charles Stanley",
            "popularity": 0.6
        },
        {
            "id": 44480,
            "original_name": "Charley Boorman's Extreme Frontiers",
            "popularity": 0.6
        },
        {
            "id": 44482,
            "original_name": "Charlie Rose: Brain Series",
            "popularity": 0.6
        },
        {
            "id": 44483,
            "original_name": "A Harlot's Progress",
            "popularity": 0.6
        },
        {
            "id": 45174,
            "original_name": "Come Home Charlie and Face Them",
            "popularity": 0.84
        },
        {
            "id": 45198,
            "original_name": "On The Road With Charles Kuralt",
            "popularity": 0.6
        },
        {
            "id": 45653,
            "original_name": "The Charley Hopp Show",
            "popularity": 0.6
        },
        {
            "id": 47105,
            "original_name": "The Making of 'A Charlie Brown Christmas'",
            "popularity": 0.6
        },
        {
            "id": 47108,
            "original_name": "Heroes for the Planet Featuring Special Guest Charlotte Church",
            "popularity": 0.6
        },
        {
            "id": 47892,
            "original_name": "The Voyage of Charles Darwin",
            "popularity": 0.62
        },
        {
            "id": 47908,
            "original_name": "Charlotte And Jane",
            "popularity": 0.6
        },
        {
            "id": 48756,
            "original_name": "Ray Charles: A Man & His Soul",
            "popularity": 0.6
        },
        {
            "id": 49263,
            "original_name": "Harlan County War",
            "popularity": 0.6
        },
        {
            "id": 49435,
            "original_name": "Little Charlie Bear",
            "popularity": 0.6
        },
        {
            "id": 51049,
            "original_name": "Sp\u00f8rg Charlie",
            "popularity": 0.6
        },
        {
            "id": 51254,
            "original_name": "Maj & Charlie",
            "popularity": 0.6
        },
        {
            "id": 51588,
            "original_name": "Charlie p\u00e5 skinner",
            "popularity": 0.6
        },
        {
            "id": 54065,
            "original_name": "Charlot og Charlotte",
            "popularity": 0.84
        },
        {
            "id": 55627,
            "original_name": "Next Stop for Charlie",
            "popularity": 0.6
        },
        {
            "id": 55747,
            "original_name": "Charley Boorman's South African Adventure",
            "popularity": 0.6
        },
        {
            "id": 56537,
            "original_name": "Charlotte Church: Live from Jerusalem",
            "popularity": 0.6
        },
        {
            "id": 58658,
            "original_name": "Charlie Brooker's Weekly Wipe",
            "popularity": 0.985
        },
        {
            "id": 58965,
            "original_name": "Oscar Charlie",
            "popularity": 0.6
        },
        {
            "id": 59694,
            "original_name": "Champagne Charlie",
            "popularity": 0.6
        },
        {
            "id": 59945,
            "original_name": "Charlie & Me",
            "popularity": 0.6
        },
        {
            "id": 60014,
            "original_name": "Harlots, Housewives and Heroines: A 17th Century History for Girls",
            "popularity": 0.6
        },
        {
            "id": 63684,
            "original_name": "Klein, aber Charlotte",
            "popularity": 0.84
        },
        {
            "id": 65099,
            "original_name": "Charley Boorman: Ireland to Sydney by Any Means",
            "popularity": 0.6
        },
        {
            "id": 65654,
            "original_name": "Supercharly",
            "popularity": 0.878
        },
        {
            "id": 66893,
            "original_name": "The Weekly with Charlie Pickering",
            "popularity": 2.101
        },
        {
            "id": 67673,
            "original_name": "Harley and the Davidsons",
            "popularity": 4.475
        },
        {
            "id": 69541,
            "original_name": "Harlots",
            "popularity": 17.561
        },
        {
            "id": 70069,
            "original_name": "Flying High with Charlie",
            "popularity": 0.6
        },
        {
            "id": 72222,
            "original_name": "Charleroi Airport",
            "popularity": 0.661
        },
        {
            "id": 72961,
            "original_name": "Charlie Brooker's Yearly Wipe",
            "popularity": 0.926
        },
        {
            "id": 74178,
            "original_name": "Charlie",
            "popularity": 1.881
        },
        {
            "id": 74287,
            "original_name": "Die Frau vom Checkpoint Charlie",
            "popularity": 1.47
        },
        {
            "id": 74440,
            "original_name": "Harley Quinn",
            "popularity": 44.259
        },
        {
            "id": 76642,
            "original_name": "Alice et Charlie",
            "popularity": 0.6
        },
        {
            "id": 77057,
            "original_name": "I Remember Harlem",
            "popularity": 0.6
        },
        {
            "id": 77834,
            "original_name": "Charles Yang Performances",
            "popularity": 0.6
        },
        {
            "id": 79086,
            "original_name": "Godfather of Harlem",
            "popularity": 24.906
        },
        {
            "id": 79695,
            "original_name": "The Charlotte Show",
            "popularity": 0.821
        },
        {
            "id": 81933,
            "original_name": "Charley Says",
            "popularity": 0.6
        },
        {
            "id": 81934,
            "original_name": "Charley Says... The Best Public Information Films In The World",
            "popularity": 0.6
        },
        {
            "id": 81935,
            "original_name": "Charley Says",
            "popularity": 0.6
        },
        {
            "id": 83106,
            "original_name": "A Christmas Miracle: The Making of a Charlie Brown Christmas",
            "popularity": 0.823
        },
        {
            "id": 84542,
            "original_name": "My Neighbor, Charles",
            "popularity": 0.814
        },
        {
            "id": 85486,
            "original_name": "Turn Up Charlie",
            "popularity": 7.451
        },
        {
            "id": 86601,
            "original_name": "Charley Boorman's USA Adventure",
            "popularity": 1.35
        },
        {
            "id": 86616,
            "original_name": "Larry Charles' Dangerous World of Comedy",
            "popularity": 1.338
        },
        {
            "id": 87822,
            "original_name": "Charlie's Colorforms City",
            "popularity": 6.559
        },
        {
            "id": 91276,
            "original_name": "Restoring Charleston",
            "popularity": 0.6
        },
        {
            "id": 91583,
            "original_name": "The Voyage of Charles Darwin",
            "popularity": 0.6
        },
        {
            "id": 95065,
            "original_name": "Prince Charles: Inside the Duchy of Cornwall",
            "popularity": 0.863
        },
        {
            "id": 96664,
            "original_name": "Charles I: Killing a King",
            "popularity": 0.6
        },
        {
            "id": 97699,
            "original_name": "Charlie & the Numbers",
            "popularity": 0.6
        },
        {
            "id": 97953,
            "original_name": "The Murder of Charlene Downes",
            "popularity": 0.6
        },
        {
            "id": 98475,
            "original_name": "Homicide City: Charlotte",
            "popularity": 0.6
        },
        {
            "id": 99746,
            "original_name": "Charlemagne",
            "popularity": 0.6
        },
        {
            "id": 103067,
            "original_name": "Instant Influencer with James Charles",
            "popularity": 1.024
        },
        {
            "id": 103489,
            "original_name": "Charlie Brooker's Antiviral Wipe",
            "popularity": 1.298
        },
        {
            "id": 104870,
            "original_name": "Un pa\u00eds para escucharlo",
            "popularity": 0.662
        },
        {
            "id": 114100,
            "original_name": "By Whatever Means Necessary: The Times of Godfather of Harlem",
            "popularity": 0.95
        },
        {
            "id": 114379,
            "original_name": "Os \u00d3culos M\u00e1gicos de Charlotte",
            "popularity": 0.84
        },
        {
            "id": 117524,
            "original_name": "Bei Charly",
            "popularity": 0.6
        },
        {
            "id": 122807,
            "original_name": "Charlotta \u00d7 8",
            "popularity": 0.84
        },
        {
            "id": 125379,
            "original_name": "Charles Manson: Die verschollenen Filmaufnahmen",
            "popularity": 0.6
        },
        {
            "id": 129820,
            "original_name": "charles, le destin d'un prince",
            "popularity": 0.6
        },
        {
            "id": 131059,
            "original_name": "Charles I - Downfall of a King",
            "popularity": 0.6
        },
        {
            "id": 134028,
            "original_name": "Tha God's Honest Truth with Charlamagne Tha God",
            "popularity": 10.402
        },
        {
            "id": 136001,
            "original_name": "The Charlotte Crosby Experience",
            "popularity": 0.6
        },
        {
            "id": 136242,
            "original_name": "Charles the Next Door Neighbor",
            "popularity": 0.621
        },
        {
            "id": 136790,
            "original_name": "Charlotte Link \u2013 Das andere Kind",
            "popularity": 0.64
        },
        {
            "id": 138089,
            "original_name": "Harlem",
            "popularity": 33.138
        },
        {
            "id": 138644,
            "original_name": "Charli vs Dixie",
            "popularity": 3.535
        }
    ],
    "relations": [
        {
            "character": "harle"
        },
        {
            "character": "harli"
        },
        {
            "character": "harlo"
        },
        {
            "character": "harly"
        },
        {
            "character": "harla"
        }
    ],
    "top20": [
        {
            "id": 74440,
            "original_name": "Harley Quinn",
            "popularity": 44.259
        },
        {
            "id": 21641,
            "original_name": "Good Luck Charlie",
            "popularity": 39.366
        },
        {
            "id": 138089,
            "original_name": "Harlem",
            "popularity": 33.138
        },
        {
            "id": 79086,
            "original_name": "Godfather of Harlem",
            "popularity": 24.906
        },
        {
            "id": 3382,
            "original_name": "Charlie's Angels",
            "popularity": 23.277
        },
        {
            "id": 69541,
            "original_name": "Harlots",
            "popularity": 17.561
        },
        {
            "id": 566,
            "original_name": "Charles in Charge",
            "popularity": 12.718
        },
        {
            "id": 134028,
            "original_name": "Tha God's Honest Truth with Charlamagne Tha God",
            "popularity": 10.402
        },
        {
            "id": 35282,
            "original_name": "Charlie's Angels",
            "popularity": 9.922
        },
        {
            "id": 23325,
            "original_name": "Unser Charly",
            "popularity": 9.819
        },
        {
            "id": 85486,
            "original_name": "Turn Up Charlie",
            "popularity": 7.451
        },
        {
            "id": 87822,
            "original_name": "Charlie's Colorforms City",
            "popularity": 6.559
        },
        {
            "id": 6670,
            "original_name": "The Charlie Brown and Snoopy Show",
            "popularity": 5.991
        },
        {
            "id": 30958,
            "original_name": "Charlie and Lola",
            "popularity": 5.981
        },
        {
            "id": 919,
            "original_name": "Charlie Rose",
            "popularity": 4.822
        },
        {
            "id": 19311,
            "original_name": "Charles II: The Power and The Passion",
            "popularity": 4.781
        },
        {
            "id": 67673,
            "original_name": "Harley and the Davidsons",
            "popularity": 4.475
        },
        {
            "id": 138644,
            "original_name": "Charli vs Dixie",
            "popularity": 3.535
        },
        {
            "id": 35524,
            "original_name": "Charlemagne",
            "popularity": 3.332
        },
        {
            "id": 2746,
            "original_name": "Charlie Jade",
            "popularity": 3.116
        }
    ]
}