{
    "data": [
        {
            "id": 2951,
            "original_name": "The Charlotte Church Show",
            "popularity": 2.325
        },
        {
            "id": 44483,
            "original_name": "A Harlot's Progress",
            "popularity": 0.6
        },
        {
            "id": 47108,
            "original_name": "Heroes for the Planet Featuring Special Guest Charlotte Church",
            "popularity": 0.6
        },
        {
            "id": 47908,
            "original_name": "Charlotte And Jane",
            "popularity": 0.6
        },
        {
            "id": 54065,
            "original_name": "Charlot og Charlotte",
            "popularity": 0.84
        },
        {
            "id": 56537,
            "original_name": "Charlotte Church: Live from Jerusalem",
            "popularity": 0.6
        },
        {
            "id": 60014,
            "original_name": "Harlots, Housewives and Heroines: A 17th Century History for Girls",
            "popularity": 0.6
        },
        {
            "id": 63684,
            "original_name": "Klein, aber Charlotte",
            "popularity": 0.84
        },
        {
            "id": 69541,
            "original_name": "Harlots",
            "popularity": 17.561
        },
        {
            "id": 79695,
            "original_name": "The Charlotte Show",
            "popularity": 0.821
        },
        {
            "id": 98475,
            "original_name": "Homicide City: Charlotte",
            "popularity": 0.6
        },
        {
            "id": 104870,
            "original_name": "Un pa\u00eds para escucharlo",
            "popularity": 0.662
        },
        {
            "id": 114379,
            "original_name": "Os \u00d3culos M\u00e1gicos de Charlotte",
            "popularity": 0.84
        },
        {
            "id": 122807,
            "original_name": "Charlotta \u00d7 8",
            "popularity": 0.84
        },
        {
            "id": 136001,
            "original_name": "The Charlotte Crosby Experience",
            "popularity": 0.6
        },
        {
            "id": 136790,
            "original_name": "Charlotte Link \u2013 Das andere Kind",
            "popularity": 0.64
        }
    ],
    "relations": [],
    "top20": [
        {
            "id": 2951,
            "original_name": "The Charlotte Church Show",
            "popularity": 2.325
        },
        {
            "id": 44483,
            "original_name": "A Harlot's Progress",
            "popularity": 0.6
        },
        {
            "id": 47108,
            "original_name": "Heroes for the Planet Featuring Special Guest Charlotte Church",
            "popularity": 0.6
        },
        {
            "id": 47908,
            "original_name": "Charlotte And Jane",
            "popularity": 0.6
        },
        {
            "id": 54065,
            "original_name": "Charlot og Charlotte",
            "popularity": 0.84
        },
        {
            "id": 56537,
            "original_name": "Charlotte Church: Live from Jerusalem",
            "popularity": 0.6
        },
        {
            "id": 60014,
            "original_name": "Harlots, Housewives and Heroines: A 17th Century History for Girls",
            "popularity": 0.6
        },
        {
            "id": 63684,
            "original_name": "Klein, aber Charlotte",
            "popularity": 0.84
        },
        {
            "id": 69541,
            "original_name": "Harlots",
            "popularity": 17.561
        },
        {
            "id": 79695,
            "original_name": "The Charlotte Show",
            "popularity": 0.821
        },
        {
            "id": 98475,
            "original_name": "Homicide City: Charlotte",
            "popularity": 0.6
        },
        {
            "id": 104870,
            "original_name": "Un pa\u00eds para escucharlo",
            "popularity": 0.662
        },
        {
            "id": 114379,
            "original_name": "Os \u00d3culos M\u00e1gicos de Charlotte",
            "popularity": 0.84
        },
        {
            "id": 122807,
            "original_name": "Charlotta \u00d7 8",
            "popularity": 0.84
        },
        {
            "id": 136001,
            "original_name": "The Charlotte Crosby Experience",
            "popularity": 0.6
        },
        {
            "id": 136790,
            "original_name": "Charlotte Link \u2013 Das andere Kind",
            "popularity": 0.64
        }
    ]
}