{
    "data": [
        {
            "id": 92802,
            "original_name": "Mehdi et Val",
            "popularity": 0.6
        },
        {
            "id": 104242,
            "original_name": "K\u00fcresel Tehdit Kovid-19",
            "popularity": 0.6
        },
        {
            "id": 119904,
            "original_name": "Le R\u00e9tro Palmar\u00e8s de Jay et Mehdi",
            "popularity": 0.6
        },
        {
            "id": 123509,
            "original_name": "Qeghdin Sew",
            "popularity": 0.6
        }
    ],
    "relations": [],
    "top20": [
        {
            "id": 92802,
            "original_name": "Mehdi et Val",
            "popularity": 0.6
        },
        {
            "id": 104242,
            "original_name": "K\u00fcresel Tehdit Kovid-19",
            "popularity": 0.6
        },
        {
            "id": 119904,
            "original_name": "Le R\u00e9tro Palmar\u00e8s de Jay et Mehdi",
            "popularity": 0.6
        },
        {
            "id": 123509,
            "original_name": "Qeghdin Sew",
            "popularity": 0.6
        }
    ]
}