{
    "data": [
        {
            "id": 28504,
            "original_name": "Das Geheimnis meines Vaters",
            "popularity": 2.151
        },
        {
            "id": 40630,
            "original_name": "Das Geheimnis meiner Familie",
            "popularity": 0.6
        },
        {
            "id": 54605,
            "original_name": "Geheimnisse des 'Dritten Reichs'",
            "popularity": 0.84
        },
        {
            "id": 61099,
            "original_name": "Sphinx \u2013 Geheimnisse der Geschichte",
            "popularity": 2.853
        },
        {
            "id": 64578,
            "original_name": "Armans Geheimnis",
            "popularity": 2.06
        },
        {
            "id": 65167,
            "original_name": "Belphegor oder das Geheimnis des Louvre",
            "popularity": 0.6
        },
        {
            "id": 65573,
            "original_name": "Briefgeheimnis",
            "popularity": 0.931
        },
        {
            "id": 67840,
            "original_name": "Geheimnisse der digitalen Revolution",
            "popularity": 0.6
        },
        {
            "id": 71401,
            "original_name": "Das Geheimnis der Anden",
            "popularity": 0.6
        },
        {
            "id": 77965,
            "original_name": "Geheimnisvolle Orte",
            "popularity": 1.165
        },
        {
            "id": 78813,
            "original_name": "Geheimnisse des Kalten Krieges",
            "popularity": 0.6
        },
        {
            "id": 80957,
            "original_name": "Geheimnisse des 'Dritten Reichs'",
            "popularity": 0.6
        },
        {
            "id": 81457,
            "original_name": "Entdeckt! Geheimnisvolle Orte",
            "popularity": 0.851
        },
        {
            "id": 85469,
            "original_name": "Geheimnisse des Kaiserreichs",
            "popularity": 0.6
        },
        {
            "id": 86709,
            "original_name": "Die geheimnisvolle Welt der Kinder",
            "popularity": 0.6
        },
        {
            "id": 94026,
            "original_name": "Geheimnisse des Kosmos",
            "popularity": 0.6
        },
        {
            "id": 95465,
            "original_name": "Zeit der Geheimnisse",
            "popularity": 5.336
        },
        {
            "id": 100378,
            "original_name": "Geheimnisvoller Garten",
            "popularity": 0.6
        },
        {
            "id": 102946,
            "original_name": "Die Geheimnisse der Quantenphysik",
            "popularity": 0.6
        },
        {
            "id": 103010,
            "original_name": "Die geheimnisvolle Welt der Mathematik",
            "popularity": 0.6
        },
        {
            "id": 104859,
            "original_name": "Die Ozeane - Geheimnisse der Weltmeere",
            "popularity": 0.6
        },
        {
            "id": 106198,
            "original_name": "Geheimnisse der Weimarer Republik",
            "popularity": 0.6
        },
        {
            "id": 113004,
            "original_name": "Das Geheimnis von Black Rose Castle",
            "popularity": 0.6
        },
        {
            "id": 113774,
            "original_name": "Das Geheimnis des Totenwaldes",
            "popularity": 15.617
        },
        {
            "id": 119990,
            "original_name": "Erlebnis Erde: Geheimnisvolles Mittelmeer - Von Pottwalen und W\u00fcstenf\u00fcchsen",
            "popularity": 0.6
        },
        {
            "id": 121393,
            "original_name": "Deutschlands gr\u00f6\u00dfte Geheimnisse",
            "popularity": 0.6
        },
        {
            "id": 123214,
            "original_name": "Geheimnisse des Waldes",
            "popularity": 0.6
        },
        {
            "id": 131498,
            "original_name": "Chi Rho \u2013 Das Geheimnis",
            "popularity": 0.6
        }
    ],
    "relations": [
        {
            "character": "heimni"
        }
    ],
    "top20": [
        {
            "id": 113774,
            "original_name": "Das Geheimnis des Totenwaldes",
            "popularity": 15.617
        },
        {
            "id": 95465,
            "original_name": "Zeit der Geheimnisse",
            "popularity": 5.336
        },
        {
            "id": 61099,
            "original_name": "Sphinx \u2013 Geheimnisse der Geschichte",
            "popularity": 2.853
        },
        {
            "id": 28504,
            "original_name": "Das Geheimnis meines Vaters",
            "popularity": 2.151
        },
        {
            "id": 64578,
            "original_name": "Armans Geheimnis",
            "popularity": 2.06
        },
        {
            "id": 77965,
            "original_name": "Geheimnisvolle Orte",
            "popularity": 1.165
        },
        {
            "id": 65573,
            "original_name": "Briefgeheimnis",
            "popularity": 0.931
        },
        {
            "id": 81457,
            "original_name": "Entdeckt! Geheimnisvolle Orte",
            "popularity": 0.851
        },
        {
            "id": 54605,
            "original_name": "Geheimnisse des 'Dritten Reichs'",
            "popularity": 0.84
        },
        {
            "id": 86709,
            "original_name": "Die geheimnisvolle Welt der Kinder",
            "popularity": 0.6
        },
        {
            "id": 65167,
            "original_name": "Belphegor oder das Geheimnis des Louvre",
            "popularity": 0.6
        },
        {
            "id": 85469,
            "original_name": "Geheimnisse des Kaiserreichs",
            "popularity": 0.6
        },
        {
            "id": 100378,
            "original_name": "Geheimnisvoller Garten",
            "popularity": 0.6
        },
        {
            "id": 102946,
            "original_name": "Die Geheimnisse der Quantenphysik",
            "popularity": 0.6
        },
        {
            "id": 71401,
            "original_name": "Das Geheimnis der Anden",
            "popularity": 0.6
        },
        {
            "id": 78813,
            "original_name": "Geheimnisse des Kalten Krieges",
            "popularity": 0.6
        },
        {
            "id": 94026,
            "original_name": "Geheimnisse des Kosmos",
            "popularity": 0.6
        },
        {
            "id": 80957,
            "original_name": "Geheimnisse des 'Dritten Reichs'",
            "popularity": 0.6
        },
        {
            "id": 40630,
            "original_name": "Das Geheimnis meiner Familie",
            "popularity": 0.6
        },
        {
            "id": 67840,
            "original_name": "Geheimnisse der digitalen Revolution",
            "popularity": 0.6
        }
    ]
}