{
    "data": [
        {
            "id": 96342,
            "original_name": "Hekimo\u011flu",
            "popularity": 3.112
        }
    ],
    "relations": [],
    "top20": [
        {
            "id": 96342,
            "original_name": "Hekimo\u011flu",
            "popularity": 3.112
        }
    ]
}