{
    "data": [
        {
            "id": 67956,
            "original_name": "Hellevator",
            "popularity": 0.6
        }
    ],
    "relations": [],
    "top20": [
        {
            "id": 67956,
            "original_name": "Hellevator",
            "popularity": 0.6
        }
    ]
}