{
    "data": [
        {
            "id": 53468,
            "original_name": "Vals me 12 Theous",
            "popularity": 0.6
        },
        {
            "id": 126264,
            "original_name": "#theOUTtalk",
            "popularity": 0.6
        }
    ],
    "relations": [],
    "top20": [
        {
            "id": 53468,
            "original_name": "Vals me 12 Theous",
            "popularity": 0.6
        },
        {
            "id": 126264,
            "original_name": "#theOUTtalk",
            "popularity": 0.6
        }
    ]
}