{
    "data": [
        {
            "id": 40847,
            "original_name": "Die merkw\u00fcrdige Lebensgeschichte des Friedrich Freiherrn von der Trenck",
            "popularity": 1.4
        },
        {
            "id": 61156,
            "original_name": "Die F\u00e4lle des Herrn Konstantin",
            "popularity": 1.839
        },
        {
            "id": 62781,
            "original_name": "Die Protokolle des Herrn M",
            "popularity": 0.939
        },
        {
            "id": 63132,
            "original_name": "Die Unternehmungen des Herrn Hans",
            "popularity": 1.29
        }
    ],
    "relations": [],
    "top20": [
        {
            "id": 40847,
            "original_name": "Die merkw\u00fcrdige Lebensgeschichte des Friedrich Freiherrn von der Trenck",
            "popularity": 1.4
        },
        {
            "id": 61156,
            "original_name": "Die F\u00e4lle des Herrn Konstantin",
            "popularity": 1.839
        },
        {
            "id": 62781,
            "original_name": "Die Protokolle des Herrn M",
            "popularity": 0.939
        },
        {
            "id": 63132,
            "original_name": "Die Unternehmungen des Herrn Hans",
            "popularity": 1.29
        }
    ]
}