{
    "data": [
        {
            "id": 126710,
            "original_name": "\u00dcber Grenzen - mit Vollgas in den Ruhestand",
            "popularity": 0.6
        }
    ],
    "relations": [],
    "top20": [
        {
            "id": 126710,
            "original_name": "\u00dcber Grenzen - mit Vollgas in den Ruhestand",
            "popularity": 0.6
        }
    ]
}