{
    "data": [
        {
            "id": 11649,
            "original_name": "La Fin du monde est \u00e0 7 heures",
            "popularity": 1.091
        },
        {
            "id": 12705,
            "original_name": "Le TVA 22 heures",
            "popularity": 0.6
        },
        {
            "id": 14694,
            "original_name": "Le TVA 18 heures",
            "popularity": 0.6
        },
        {
            "id": 17689,
            "original_name": "13 heures",
            "popularity": 0.6
        },
        {
            "id": 29464,
            "original_name": "20 heures le journal",
            "popularity": 0.6
        },
        {
            "id": 37456,
            "original_name": "72 heures",
            "popularity": 0.6
        },
        {
            "id": 73305,
            "original_name": "8 heures pour la cause",
            "popularity": 0.6
        },
        {
            "id": 88650,
            "original_name": "24 heures : Danger !",
            "popularity": 0.6
        },
        {
            "id": 92459,
            "original_name": "Le 16 heures",
            "popularity": 0.6
        },
        {
            "id": 98306,
            "original_name": "48 Heures",
            "popularity": 0.6
        },
        {
            "id": 100253,
            "original_name": "24 heures dans la nature.",
            "popularity": 0.6
        },
        {
            "id": 118566,
            "original_name": "Les jeux de 20 heures",
            "popularity": 1.4
        },
        {
            "id": 120331,
            "original_name": "Deuil en 24 heures",
            "popularity": 0.661
        },
        {
            "id": 121621,
            "original_name": "Les grandes heures de l'automobile",
            "popularity": 0.6
        },
        {
            "id": 123955,
            "original_name": "Les grandes heures de l'automobile fran\u00e7aise",
            "popularity": 0.6
        },
        {
            "id": 127216,
            "original_name": "24 heures pour l\u2019histoire",
            "popularity": 0.6
        },
        {
            "id": 133712,
            "original_name": "Les derni\u00e8res heures de Pomp\u00e9i",
            "popularity": 0.718
        },
        {
            "id": 136216,
            "original_name": "H24, 24 heures de la vie d'une femme",
            "popularity": 6.115
        }
    ],
    "relations": [],
    "top20": [
        {
            "id": 11649,
            "original_name": "La Fin du monde est \u00e0 7 heures",
            "popularity": 1.091
        },
        {
            "id": 12705,
            "original_name": "Le TVA 22 heures",
            "popularity": 0.6
        },
        {
            "id": 14694,
            "original_name": "Le TVA 18 heures",
            "popularity": 0.6
        },
        {
            "id": 17689,
            "original_name": "13 heures",
            "popularity": 0.6
        },
        {
            "id": 29464,
            "original_name": "20 heures le journal",
            "popularity": 0.6
        },
        {
            "id": 37456,
            "original_name": "72 heures",
            "popularity": 0.6
        },
        {
            "id": 73305,
            "original_name": "8 heures pour la cause",
            "popularity": 0.6
        },
        {
            "id": 88650,
            "original_name": "24 heures : Danger !",
            "popularity": 0.6
        },
        {
            "id": 92459,
            "original_name": "Le 16 heures",
            "popularity": 0.6
        },
        {
            "id": 98306,
            "original_name": "48 Heures",
            "popularity": 0.6
        },
        {
            "id": 100253,
            "original_name": "24 heures dans la nature.",
            "popularity": 0.6
        },
        {
            "id": 118566,
            "original_name": "Les jeux de 20 heures",
            "popularity": 1.4
        },
        {
            "id": 120331,
            "original_name": "Deuil en 24 heures",
            "popularity": 0.661
        },
        {
            "id": 121621,
            "original_name": "Les grandes heures de l'automobile",
            "popularity": 0.6
        },
        {
            "id": 123955,
            "original_name": "Les grandes heures de l'automobile fran\u00e7aise",
            "popularity": 0.6
        },
        {
            "id": 127216,
            "original_name": "24 heures pour l\u2019histoire",
            "popularity": 0.6
        },
        {
            "id": 133712,
            "original_name": "Les derni\u00e8res heures de Pomp\u00e9i",
            "popularity": 0.718
        },
        {
            "id": 136216,
            "original_name": "H24, 24 heures de la vie d'une femme",
            "popularity": 6.115
        }
    ]
}