{
    "data": [
        {
            "id": 14814,
            "original_name": "Keeping Up with the Kardashians",
            "popularity": 50.188
        },
        {
            "id": 15328,
            "original_name": "Apni Khushian Apne Gham",
            "popularity": 0.6
        },
        {
            "id": 36290,
            "original_name": "Joshiana",
            "popularity": 0.6
        },
        {
            "id": 44275,
            "original_name": "Earthian",
            "popularity": 0.651
        },
        {
            "id": 64883,
            "original_name": "Appalachian Outlaws",
            "popularity": 0.6
        },
        {
            "id": 69604,
            "original_name": "Revenge Body With Khloe Kardashian",
            "popularity": 4.752
        },
        {
            "id": 95802,
            "original_name": "Chiangmai Gangsters 2",
            "popularity": 0.6
        },
        {
            "id": 106069,
            "original_name": "The Desi Kardashians",
            "popularity": 1.234
        },
        {
            "id": 122433,
            "original_name": "Carpathian Predators",
            "popularity": 0.6
        },
        {
            "id": 135454,
            "original_name": "Acesso Total: Corinthians",
            "popularity": 0.6
        }
    ],
    "relations": [],
    "top20": [
        {
            "id": 14814,
            "original_name": "Keeping Up with the Kardashians",
            "popularity": 50.188
        },
        {
            "id": 15328,
            "original_name": "Apni Khushian Apne Gham",
            "popularity": 0.6
        },
        {
            "id": 36290,
            "original_name": "Joshiana",
            "popularity": 0.6
        },
        {
            "id": 44275,
            "original_name": "Earthian",
            "popularity": 0.651
        },
        {
            "id": 64883,
            "original_name": "Appalachian Outlaws",
            "popularity": 0.6
        },
        {
            "id": 69604,
            "original_name": "Revenge Body With Khloe Kardashian",
            "popularity": 4.752
        },
        {
            "id": 95802,
            "original_name": "Chiangmai Gangsters 2",
            "popularity": 0.6
        },
        {
            "id": 106069,
            "original_name": "The Desi Kardashians",
            "popularity": 1.234
        },
        {
            "id": 122433,
            "original_name": "Carpathian Predators",
            "popularity": 0.6
        },
        {
            "id": 135454,
            "original_name": "Acesso Total: Corinthians",
            "popularity": 0.6
        }
    ]
}