{
    "data": [
        {
            "id": 709,
            "original_name": "Robot Chicken",
            "popularity": 22.301
        },
        {
            "id": 3611,
            "original_name": "Cow and Chicken",
            "popularity": 53.935
        },
        {
            "id": 5302,
            "original_name": "Gorgeous Tiny Chicken Machine Show",
            "popularity": 0.6
        },
        {
            "id": 7122,
            "original_name": "Hugh's Chicken Run",
            "popularity": 0.629
        },
        {
            "id": 10433,
            "original_name": "Super Chicken",
            "popularity": 1.246
        },
        {
            "id": 12880,
            "original_name": "Chicken Soup",
            "popularity": 1.578
        },
        {
            "id": 17257,
            "original_name": "Playing Chicken",
            "popularity": 0.6
        },
        {
            "id": 23270,
            "original_name": "Chicken Soup for the Soul",
            "popularity": 2.388
        },
        {
            "id": 25747,
            "original_name": "Why Did The Chicken?",
            "popularity": 0.6
        },
        {
            "id": 31239,
            "original_name": "Tough Guy or Chicken?",
            "popularity": 0.6
        },
        {
            "id": 31674,
            "original_name": "Ctrl+Alt+Chicken",
            "popularity": 0.6
        },
        {
            "id": 42423,
            "original_name": "Chicken Soup for the Soul: Inspirational Stories Honoring Family",
            "popularity": 0.6
        },
        {
            "id": 43346,
            "original_name": "Chicken Soup for the Soul: Inspirational Stories Celebrating Mothers and Fathers",
            "popularity": 0.6
        },
        {
            "id": 49115,
            "original_name": "The Natural History of the Chicken",
            "popularity": 0.6
        },
        {
            "id": 57828,
            "original_name": "Chickens",
            "popularity": 1.531
        },
        {
            "id": 68104,
            "original_name": "Hairy Bikers: Chicken & Egg",
            "popularity": 0.6
        },
        {
            "id": 76818,
            "original_name": "Chicken Girls",
            "popularity": 23.485
        },
        {
            "id": 85087,
            "original_name": "Cute Chicken Team",
            "popularity": 0.6
        },
        {
            "id": 93204,
            "original_name": "Coldd Lassi Aur Chicken Masala",
            "popularity": 1.314
        },
        {
            "id": 101320,
            "original_name": "Little Dottie Chicken",
            "popularity": 0.6
        },
        {
            "id": 112742,
            "original_name": "Chuck Chicken",
            "popularity": 0.6
        },
        {
            "id": 112912,
            "original_name": "The Billion Dollar Chicken Shop",
            "popularity": 0.6
        },
        {
            "id": 122537,
            "original_name": "The Chicken Squad",
            "popularity": 16.331
        },
        {
            "id": 126200,
            "original_name": "Chicken Curry",
            "popularity": 1.176
        },
        {
            "id": 133791,
            "original_name": "#1 Chicken",
            "popularity": 0.921
        },
        {
            "id": 138007,
            "original_name": "Chicken War",
            "popularity": 2.061
        },
        {
            "id": 146408,
            "original_name": "Midnight Series : Moonlight Chicken \u0e1e\u0e23\u0e30\u0e08\u0e31\u0e19\u0e17\u0e23\u0e4c\u0e21\u0e31\u0e19\u0e44\u0e01\u0e48",
            "popularity": 0.643
        }
    ],
    "relations": [
        {
            "character": "hicken?"
        },
        {
            "character": "hickens"
        }
    ],
    "top20": [
        {
            "id": 3611,
            "original_name": "Cow and Chicken",
            "popularity": 53.935
        },
        {
            "id": 76818,
            "original_name": "Chicken Girls",
            "popularity": 23.485
        },
        {
            "id": 709,
            "original_name": "Robot Chicken",
            "popularity": 22.301
        },
        {
            "id": 122537,
            "original_name": "The Chicken Squad",
            "popularity": 16.331
        },
        {
            "id": 23270,
            "original_name": "Chicken Soup for the Soul",
            "popularity": 2.388
        },
        {
            "id": 138007,
            "original_name": "Chicken War",
            "popularity": 2.061
        },
        {
            "id": 12880,
            "original_name": "Chicken Soup",
            "popularity": 1.578
        },
        {
            "id": 57828,
            "original_name": "Chickens",
            "popularity": 1.531
        },
        {
            "id": 93204,
            "original_name": "Coldd Lassi Aur Chicken Masala",
            "popularity": 1.314
        },
        {
            "id": 10433,
            "original_name": "Super Chicken",
            "popularity": 1.246
        },
        {
            "id": 126200,
            "original_name": "Chicken Curry",
            "popularity": 1.176
        },
        {
            "id": 133791,
            "original_name": "#1 Chicken",
            "popularity": 0.921
        },
        {
            "id": 146408,
            "original_name": "Midnight Series : Moonlight Chicken \u0e1e\u0e23\u0e30\u0e08\u0e31\u0e19\u0e17\u0e23\u0e4c\u0e21\u0e31\u0e19\u0e44\u0e01\u0e48",
            "popularity": 0.643
        },
        {
            "id": 7122,
            "original_name": "Hugh's Chicken Run",
            "popularity": 0.629
        },
        {
            "id": 25747,
            "original_name": "Why Did The Chicken?",
            "popularity": 0.6
        },
        {
            "id": 17257,
            "original_name": "Playing Chicken",
            "popularity": 0.6
        },
        {
            "id": 31674,
            "original_name": "Ctrl+Alt+Chicken",
            "popularity": 0.6
        },
        {
            "id": 42423,
            "original_name": "Chicken Soup for the Soul: Inspirational Stories Honoring Family",
            "popularity": 0.6
        },
        {
            "id": 5302,
            "original_name": "Gorgeous Tiny Chicken Machine Show",
            "popularity": 0.6
        },
        {
            "id": 31239,
            "original_name": "Tough Guy or Chicken?",
            "popularity": 0.6
        }
    ]
}