{
    "data": [
        {
            "id": 25352,
            "original_name": "Highcliffe Manor",
            "popularity": 0.94
        }
    ],
    "relations": [],
    "top20": [
        {
            "id": 25352,
            "original_name": "Highcliffe Manor",
            "popularity": 0.94
        }
    ]
}