{
    "data": [
        {
            "id": 136643,
            "original_name": "Shikaari",
            "popularity": 0.84
        }
    ],
    "relations": [],
    "top20": [
        {
            "id": 136643,
            "original_name": "Shikaari",
            "popularity": 0.84
        }
    ]
}