{
    "data": [
        {
            "id": 696,
            "original_name": "The Lost Children",
            "popularity": 1.129
        },
        {
            "id": 879,
            "original_name": "All My Children",
            "popularity": 36.119
        },
        {
            "id": 2704,
            "original_name": "2point4 Children",
            "popularity": 7.426
        },
        {
            "id": 2868,
            "original_name": "In Search of the Pope's Children",
            "popularity": 0.6
        },
        {
            "id": 4239,
            "original_name": "Married... with Children",
            "popularity": 33.45
        },
        {
            "id": 5479,
            "original_name": "Children of the Dust",
            "popularity": 3.655
        },
        {
            "id": 6226,
            "original_name": "Children of the Stones",
            "popularity": 1.933
        },
        {
            "id": 6898,
            "original_name": "Children of Fire Mountain",
            "popularity": 1.09
        },
        {
            "id": 7921,
            "original_name": "The Children",
            "popularity": 1.411
        },
        {
            "id": 8384,
            "original_name": "Other People's Children",
            "popularity": 2.041
        },
        {
            "id": 9156,
            "original_name": "Frank Herbert's Children of Dune",
            "popularity": 16.868
        },
        {
            "id": 9448,
            "original_name": "Children of the Dog Star",
            "popularity": 0.6
        },
        {
            "id": 10125,
            "original_name": "CBS Children's Film Festival",
            "popularity": 0.804
        },
        {
            "id": 10686,
            "original_name": "Two Dreadful Children",
            "popularity": 0.6
        },
        {
            "id": 12104,
            "original_name": "These Are My Children",
            "popularity": 0.6
        },
        {
            "id": 12884,
            "original_name": "The Children's Hour",
            "popularity": 0.6
        },
        {
            "id": 12933,
            "original_name": "Children's Ward",
            "popularity": 5.516
        },
        {
            "id": 13485,
            "original_name": "For the Children",
            "popularity": 0.6
        },
        {
            "id": 17874,
            "original_name": "Who Will Love My Children?",
            "popularity": 0.6
        },
        {
            "id": 17875,
            "original_name": "Faith of Our Children",
            "popularity": 0.6
        },
        {
            "id": 18575,
            "original_name": "CBS Children's Hour",
            "popularity": 0.6
        },
        {
            "id": 18911,
            "original_name": "NBC Children's Theatre",
            "popularity": 0.6
        },
        {
            "id": 19242,
            "original_name": "The Horn and Hardart Children's Hour",
            "popularity": 0.6
        },
        {
            "id": 19268,
            "original_name": "Crime's Children",
            "popularity": 0.6
        },
        {
            "id": 19706,
            "original_name": "The Children Who Cheated the Nazis",
            "popularity": 0.6
        },
        {
            "id": 20519,
            "original_name": "Not in Front of the Children",
            "popularity": 2.442
        },
        {
            "id": 20733,
            "original_name": "The Children's Hour",
            "popularity": 0.6
        },
        {
            "id": 20871,
            "original_name": "Children's Hospital",
            "popularity": 0.655
        },
        {
            "id": 21355,
            "original_name": "To Save Our Schools, To Save Our Children",
            "popularity": 0.6
        },
        {
            "id": 21410,
            "original_name": "Children of Beslan",
            "popularity": 0.6
        },
        {
            "id": 21447,
            "original_name": "Children's Express",
            "popularity": 0.6
        },
        {
            "id": 21613,
            "original_name": "War on Children",
            "popularity": 0.6
        },
        {
            "id": 22012,
            "original_name": "Chocky's Children",
            "popularity": 0.6
        },
        {
            "id": 22692,
            "original_name": "How to Divorce Without Screwing Up Your Children",
            "popularity": 0.6
        },
        {
            "id": 24440,
            "original_name": "The Children of Green Knowe",
            "popularity": 0.6
        },
        {
            "id": 27724,
            "original_name": "The Railway Children",
            "popularity": 1.341
        },
        {
            "id": 27817,
            "original_name": "The Railway Children",
            "popularity": 0.6
        },
        {
            "id": 27954,
            "original_name": "Children Of Helen House",
            "popularity": 0.6
        },
        {
            "id": 28527,
            "original_name": "The Railway Children",
            "popularity": 0.6
        },
        {
            "id": 28760,
            "original_name": "Children's TV Club",
            "popularity": 0.6
        },
        {
            "id": 30921,
            "original_name": "Slow Children Crossing",
            "popularity": 0.6
        },
        {
            "id": 32203,
            "original_name": "Children and Animals",
            "popularity": 0.6
        },
        {
            "id": 33056,
            "original_name": "Childrens Hospital",
            "popularity": 8.901
        },
        {
            "id": 34316,
            "original_name": "Children's Cinema",
            "popularity": 0.6
        },
        {
            "id": 34482,
            "original_name": "Children in Need",
            "popularity": 1.966
        },
        {
            "id": 34572,
            "original_name": "Children's Emergency",
            "popularity": 0.6
        },
        {
            "id": 36391,
            "original_name": "Children's Champion Awards",
            "popularity": 0.6
        },
        {
            "id": 37255,
            "original_name": "Missing Children: Lorraine Kelly Investigates",
            "popularity": 0.6
        },
        {
            "id": 38602,
            "original_name": "Starlight: For the Children",
            "popularity": 0.6
        },
        {
            "id": 39312,
            "original_name": "The Children's Doctor",
            "popularity": 0.6
        },
        {
            "id": 39786,
            "original_name": "Where Are My Children?",
            "popularity": 0.6
        },
        {
            "id": 39977,
            "original_name": "Five Children and It",
            "popularity": 0.6
        },
        {
            "id": 40426,
            "original_name": "Prime Minister's Children",
            "popularity": 0.6
        },
        {
            "id": 41808,
            "original_name": "Children's Hospital",
            "popularity": 0.6
        },
        {
            "id": 42030,
            "original_name": "Children in Need Rocks the Royal Albert Hall",
            "popularity": 0.6
        },
        {
            "id": 42059,
            "original_name": "Children in Need Rocks Manchester",
            "popularity": 0.6
        },
        {
            "id": 42998,
            "original_name": "Children's Corner",
            "popularity": 0.6
        },
        {
            "id": 43419,
            "original_name": "Children's Hospital",
            "popularity": 0.6
        },
        {
            "id": 43478,
            "original_name": "Children of Violence",
            "popularity": 0.6
        },
        {
            "id": 44978,
            "original_name": "Protecting Our Children",
            "popularity": 0.6
        },
        {
            "id": 45459,
            "original_name": "America's Invisible Children",
            "popularity": 0.6
        },
        {
            "id": 45936,
            "original_name": "Fathers and Children",
            "popularity": 0.6
        },
        {
            "id": 47109,
            "original_name": "Children in War",
            "popularity": 0.6
        },
        {
            "id": 47118,
            "original_name": "About Us: The Dignity of Children",
            "popularity": 0.6
        },
        {
            "id": 47291,
            "original_name": "For Our Children: The Concert",
            "popularity": 0.6
        },
        {
            "id": 47646,
            "original_name": "Children of the Revolution",
            "popularity": 0.6
        },
        {
            "id": 47698,
            "original_name": "Suffer the Little Children",
            "popularity": 0.6
        },
        {
            "id": 47720,
            "original_name": "Lost Children Of The Empire",
            "popularity": 0.6
        },
        {
            "id": 47958,
            "original_name": "The Canal Children",
            "popularity": 0.6
        },
        {
            "id": 48575,
            "original_name": "Children in the Crossfire",
            "popularity": 0.6
        },
        {
            "id": 48806,
            "original_name": "Missing Children: A Mother's Story",
            "popularity": 0.6
        },
        {
            "id": 51641,
            "original_name": "A Circle of Children",
            "popularity": 0.6
        },
        {
            "id": 51769,
            "original_name": "Little Children, Big Challenges: Divorce",
            "popularity": 0.6
        },
        {
            "id": 53449,
            "original_name": "The Concert For World Children's Day",
            "popularity": 0.6
        },
        {
            "id": 54662,
            "original_name": "A War of Children",
            "popularity": 0.6
        },
        {
            "id": 57746,
            "original_name": "Children of the Dragon",
            "popularity": 1.09
        },
        {
            "id": 59909,
            "original_name": "Woman -My Life for My Children",
            "popularity": 0.6
        },
        {
            "id": 60056,
            "original_name": "Stories From a Children's Hospital",
            "popularity": 0.6
        },
        {
            "id": 60422,
            "original_name": "Somebody Now - Nobody's Children Seven Years On",
            "popularity": 0.6
        },
        {
            "id": 60588,
            "original_name": "Children Full of Life",
            "popularity": 0.6
        },
        {
            "id": 61787,
            "original_name": "Children's TV on Trial",
            "popularity": 0.6
        },
        {
            "id": 63359,
            "original_name": "Manzo'd With Children",
            "popularity": 0.6
        },
        {
            "id": 66658,
            "original_name": "Inside Birmingham Children's Hospital",
            "popularity": 0.6
        },
        {
            "id": 70789,
            "original_name": "Children's Island",
            "popularity": 0.876
        },
        {
            "id": 78652,
            "original_name": "Queen Victoria's Children",
            "popularity": 1.274
        },
        {
            "id": 92743,
            "original_name": "Children of the Snow",
            "popularity": 0.6
        },
        {
            "id": 93738,
            "original_name": "Children of Mars",
            "popularity": 0.6
        },
        {
            "id": 97168,
            "original_name": "Children Of Abraham",
            "popularity": 0.6
        },
        {
            "id": 100369,
            "original_name": "Atlanta's Missing and Murdered: The Lost Children",
            "popularity": 3.774
        },
        {
            "id": 106783,
            "original_name": "All My Children",
            "popularity": 0.6
        },
        {
            "id": 114758,
            "original_name": "A Children's Bible",
            "popularity": 0.927
        },
        {
            "id": 115067,
            "original_name": "Doomsday: The Missing Children",
            "popularity": 1.542
        },
        {
            "id": 116652,
            "original_name": "Children Talking",
            "popularity": 0.6
        },
        {
            "id": 118711,
            "original_name": "Only Children",
            "popularity": 0.605
        },
        {
            "id": 128903,
            "original_name": "Something is Killing the Children",
            "popularity": 0.6
        },
        {
            "id": 129438,
            "original_name": "Pinkfong Songs for Children",
            "popularity": 1.096
        },
        {
            "id": 130381,
            "original_name": "Children of the Cult",
            "popularity": 4.564
        },
        {
            "id": 130624,
            "original_name": "Inside the Children's ICU",
            "popularity": 0.6
        },
        {
            "id": 131844,
            "original_name": "The Children's Royal Variety Performance",
            "popularity": 0.6
        },
        {
            "id": 131915,
            "original_name": "Hop, Skip and Jump: The Story of Children's Play",
            "popularity": 0.6
        },
        {
            "id": 134159,
            "original_name": "The River Children",
            "popularity": 0.6
        }
    ],
    "relations": [
        {
            "character": "hildren?"
        },
        {
            "character": "hildrens"
        }
    ],
    "top20": [
        {
            "id": 879,
            "original_name": "All My Children",
            "popularity": 36.119
        },
        {
            "id": 4239,
            "original_name": "Married... with Children",
            "popularity": 33.45
        },
        {
            "id": 9156,
            "original_name": "Frank Herbert's Children of Dune",
            "popularity": 16.868
        },
        {
            "id": 33056,
            "original_name": "Childrens Hospital",
            "popularity": 8.901
        },
        {
            "id": 2704,
            "original_name": "2point4 Children",
            "popularity": 7.426
        },
        {
            "id": 12933,
            "original_name": "Children's Ward",
            "popularity": 5.516
        },
        {
            "id": 130381,
            "original_name": "Children of the Cult",
            "popularity": 4.564
        },
        {
            "id": 100369,
            "original_name": "Atlanta's Missing and Murdered: The Lost Children",
            "popularity": 3.774
        },
        {
            "id": 5479,
            "original_name": "Children of the Dust",
            "popularity": 3.655
        },
        {
            "id": 20519,
            "original_name": "Not in Front of the Children",
            "popularity": 2.442
        },
        {
            "id": 8384,
            "original_name": "Other People's Children",
            "popularity": 2.041
        },
        {
            "id": 34482,
            "original_name": "Children in Need",
            "popularity": 1.966
        },
        {
            "id": 6226,
            "original_name": "Children of the Stones",
            "popularity": 1.933
        },
        {
            "id": 115067,
            "original_name": "Doomsday: The Missing Children",
            "popularity": 1.542
        },
        {
            "id": 7921,
            "original_name": "The Children",
            "popularity": 1.411
        },
        {
            "id": 27724,
            "original_name": "The Railway Children",
            "popularity": 1.341
        },
        {
            "id": 78652,
            "original_name": "Queen Victoria's Children",
            "popularity": 1.274
        },
        {
            "id": 696,
            "original_name": "The Lost Children",
            "popularity": 1.129
        },
        {
            "id": 129438,
            "original_name": "Pinkfong Songs for Children",
            "popularity": 1.096
        },
        {
            "id": 6898,
            "original_name": "Children of Fire Mountain",
            "popularity": 1.09
        }
    ]
}