{
    "data": [
        {
            "id": 850,
            "original_name": "Himalaya with Michael Palin",
            "popularity": 2.635
        },
        {
            "id": 9691,
            "original_name": "Swabhimaan",
            "popularity": 0.6
        },
        {
            "id": 12529,
            "original_name": "Zhima Jie",
            "popularity": 0.6
        },
        {
            "id": 20306,
            "original_name": "Shima Shima Tora no Shimajir\u014d",
            "popularity": 0.878
        },
        {
            "id": 22645,
            "original_name": "Sanshimai Tanteiban",
            "popularity": 0.6
        },
        {
            "id": 37316,
            "original_name": "Konshu Tsuma ga Uwaki Shimasu",
            "popularity": 2.009
        },
        {
            "id": 45337,
            "original_name": "Schimanski",
            "popularity": 4.479
        },
        {
            "id": 46257,
            "original_name": "TOKUNOSHIMA Airport",
            "popularity": 0.6
        },
        {
            "id": 47135,
            "original_name": "White Light/Black Rain: The Destruction of Hiroshima and Nagasaki",
            "popularity": 0.6
        },
        {
            "id": 47178,
            "original_name": "Hiroshima",
            "popularity": 0.6
        },
        {
            "id": 47421,
            "original_name": "Hiroshima: Out Of The Ashes",
            "popularity": 0.6
        },
        {
            "id": 50460,
            "original_name": "Thara Himalaya",
            "popularity": 0.6
        },
        {
            "id": 51342,
            "original_name": "Hima Tai Prajan",
            "popularity": 0.6
        },
        {
            "id": 54144,
            "original_name": "Hima Ayyam Aldihk wal dumu'u",
            "popularity": 0.6
        },
        {
            "id": 54504,
            "original_name": "Lost Cave Temples of the Himalaya",
            "popularity": 0.6
        },
        {
            "id": 57780,
            "original_name": "LEGO Legends of Chima",
            "popularity": 8.129
        },
        {
            "id": 64829,
            "original_name": "Walking the Himalayas",
            "popularity": 0.883
        },
        {
            "id": 77921,
            "original_name": "Bombing War: From Guernica to Hiroshima",
            "popularity": 0.6
        },
        {
            "id": 78053,
            "original_name": "Hiroshima",
            "popularity": 0.6
        },
        {
            "id": 82370,
            "original_name": "Himalai\u015bci",
            "popularity": 0.6
        },
        {
            "id": 82371,
            "original_name": "Himalai\u015bci",
            "popularity": 0.6
        },
        {
            "id": 82372,
            "original_name": "Himalai\u015bci",
            "popularity": 0.6
        },
        {
            "id": 85527,
            "original_name": "Dhimaner Dinkaal",
            "popularity": 1.157
        },
        {
            "id": 89696,
            "original_name": "Himalaya",
            "popularity": 0.6
        },
        {
            "id": 98373,
            "original_name": "Le Marcheur de l'Himalaya",
            "popularity": 0.6
        },
        {
            "id": 98465,
            "original_name": "Le Fleuve Brahmapoutre : De L'Himalaya au Golfe du Bengale",
            "popularity": 0.6
        },
        {
            "id": 98525,
            "original_name": "Sur les Contreforts de l'Himalaya",
            "popularity": 0.6
        },
        {
            "id": 99140,
            "original_name": "Gen Mishima",
            "popularity": 2.141
        },
        {
            "id": 101318,
            "original_name": "Kichiku: Haha Shimai Choukyou Nikki",
            "popularity": 0.6
        },
        {
            "id": 113725,
            "original_name": "The World at War From Hitler to Hiroshima",
            "popularity": 0.6
        },
        {
            "id": 120488,
            "original_name": "Rahimah Tanpa Rahim",
            "popularity": 0.906
        },
        {
            "id": 121165,
            "original_name": "R\u00eave d'Himalaya",
            "popularity": 0.6
        },
        {
            "id": 124648,
            "original_name": "Hatchimals: Adventures in Hatchtopia",
            "popularity": 0.605
        },
        {
            "id": 131657,
            "original_name": "Hiroshima: Hidden Traces",
            "popularity": 0.6
        }
    ],
    "relations": [
        {
            "character": "himal"
        },
        {
            "character": "himaa"
        },
        {
            "character": "himaj"
        },
        {
            "character": "himai"
        },
        {
            "character": "himas"
        },
        {
            "character": "himan"
        },
        {
            "character": "himah"
        }
    ],
    "top20": [
        {
            "id": 57780,
            "original_name": "LEGO Legends of Chima",
            "popularity": 8.129
        },
        {
            "id": 45337,
            "original_name": "Schimanski",
            "popularity": 4.479
        },
        {
            "id": 850,
            "original_name": "Himalaya with Michael Palin",
            "popularity": 2.635
        },
        {
            "id": 99140,
            "original_name": "Gen Mishima",
            "popularity": 2.141
        },
        {
            "id": 37316,
            "original_name": "Konshu Tsuma ga Uwaki Shimasu",
            "popularity": 2.009
        },
        {
            "id": 85527,
            "original_name": "Dhimaner Dinkaal",
            "popularity": 1.157
        },
        {
            "id": 120488,
            "original_name": "Rahimah Tanpa Rahim",
            "popularity": 0.906
        },
        {
            "id": 64829,
            "original_name": "Walking the Himalayas",
            "popularity": 0.883
        },
        {
            "id": 20306,
            "original_name": "Shima Shima Tora no Shimajir\u014d",
            "popularity": 0.878
        },
        {
            "id": 124648,
            "original_name": "Hatchimals: Adventures in Hatchtopia",
            "popularity": 0.605
        },
        {
            "id": 9691,
            "original_name": "Swabhimaan",
            "popularity": 0.6
        },
        {
            "id": 47421,
            "original_name": "Hiroshima: Out Of The Ashes",
            "popularity": 0.6
        },
        {
            "id": 51342,
            "original_name": "Hima Tai Prajan",
            "popularity": 0.6
        },
        {
            "id": 22645,
            "original_name": "Sanshimai Tanteiban",
            "popularity": 0.6
        },
        {
            "id": 47178,
            "original_name": "Hiroshima",
            "popularity": 0.6
        },
        {
            "id": 54144,
            "original_name": "Hima Ayyam Aldihk wal dumu'u",
            "popularity": 0.6
        },
        {
            "id": 12529,
            "original_name": "Zhima Jie",
            "popularity": 0.6
        },
        {
            "id": 47135,
            "original_name": "White Light/Black Rain: The Destruction of Hiroshima and Nagasaki",
            "popularity": 0.6
        },
        {
            "id": 46257,
            "original_name": "TOKUNOSHIMA Airport",
            "popularity": 0.6
        },
        {
            "id": 50460,
            "original_name": "Thara Himalaya",
            "popularity": 0.6
        }
    ]
}