{
    "data": [
        {
            "id": 79047,
            "original_name": "Sigurd fort\u00e6ller bibelhistorier",
            "popularity": 0.6
        },
        {
            "id": 91943,
            "original_name": "Hermans b\u00e4sta historier",
            "popularity": 0.841
        },
        {
            "id": 114793,
            "original_name": "Sallies historier",
            "popularity": 0.6
        },
        {
            "id": 121641,
            "original_name": "Historier fra en politistation",
            "popularity": 1.207
        },
        {
            "id": 126353,
            "original_name": "Fodboldhistorier",
            "popularity": 0.6
        },
        {
            "id": 129300,
            "original_name": "Sm\u00e5 \u00f8er - store historier",
            "popularity": 0.6
        },
        {
            "id": 133484,
            "original_name": "Min oldefars historier",
            "popularity": 0.6
        }
    ],
    "relations": [],
    "top20": [
        {
            "id": 79047,
            "original_name": "Sigurd fort\u00e6ller bibelhistorier",
            "popularity": 0.6
        },
        {
            "id": 91943,
            "original_name": "Hermans b\u00e4sta historier",
            "popularity": 0.841
        },
        {
            "id": 114793,
            "original_name": "Sallies historier",
            "popularity": 0.6
        },
        {
            "id": 121641,
            "original_name": "Historier fra en politistation",
            "popularity": 1.207
        },
        {
            "id": 126353,
            "original_name": "Fodboldhistorier",
            "popularity": 0.6
        },
        {
            "id": 129300,
            "original_name": "Sm\u00e5 \u00f8er - store historier",
            "popularity": 0.6
        },
        {
            "id": 133484,
            "original_name": "Min oldefars historier",
            "popularity": 0.6
        }
    ]
}