{
    "data": [
        {
            "id": 7527,
            "original_name": "Zara Nachke Dikha",
            "popularity": 0.6
        },
        {
            "id": 17081,
            "original_name": "Yiddishkeit",
            "popularity": 0.6
        },
        {
            "id": 41307,
            "original_name": "\u00dcb immer Treu nach M\u00f6glichkeit",
            "popularity": 1.127
        },
        {
            "id": 63750,
            "original_name": "Unter Ausschlu\u00df der \u00d6ffentlichkeit",
            "popularity": 0.877
        },
        {
            "id": 80753,
            "original_name": "Zoff und Z\u00e4rtlichkeit",
            "popularity": 1.4
        },
        {
            "id": 133441,
            "original_name": "Mission Freundlichkeit \u2013 Mein 100 Tage Experiment",
            "popularity": 0.6
        }
    ],
    "relations": [],
    "top20": [
        {
            "id": 7527,
            "original_name": "Zara Nachke Dikha",
            "popularity": 0.6
        },
        {
            "id": 17081,
            "original_name": "Yiddishkeit",
            "popularity": 0.6
        },
        {
            "id": 41307,
            "original_name": "\u00dcb immer Treu nach M\u00f6glichkeit",
            "popularity": 1.127
        },
        {
            "id": 63750,
            "original_name": "Unter Ausschlu\u00df der \u00d6ffentlichkeit",
            "popularity": 0.877
        },
        {
            "id": 80753,
            "original_name": "Zoff und Z\u00e4rtlichkeit",
            "popularity": 1.4
        },
        {
            "id": 133441,
            "original_name": "Mission Freundlichkeit \u2013 Mein 100 Tage Experiment",
            "popularity": 0.6
        }
    ]
}