{
    "data": [
        {
            "id": 18939,
            "original_name": "Baryshnikov on Broadway",
            "popularity": 0.6
        },
        {
            "id": 49031,
            "original_name": "Baryshnikov in Hollywood",
            "popularity": 0.6
        },
        {
            "id": 63392,
            "original_name": "Mikhail Baryshnikov's Stories from My Childhood",
            "popularity": 0.6
        },
        {
            "id": 103678,
            "original_name": "Ursprung der Technik",
            "popularity": 0.6
        }
    ],
    "relations": [],
    "top20": [
        {
            "id": 18939,
            "original_name": "Baryshnikov on Broadway",
            "popularity": 0.6
        },
        {
            "id": 49031,
            "original_name": "Baryshnikov in Hollywood",
            "popularity": 0.6
        },
        {
            "id": 63392,
            "original_name": "Mikhail Baryshnikov's Stories from My Childhood",
            "popularity": 0.6
        },
        {
            "id": 103678,
            "original_name": "Ursprung der Technik",
            "popularity": 0.6
        }
    ]
}