{
    "data": [
        {
            "id": 1769,
            "original_name": "Johnny Test",
            "popularity": 15.842
        },
        {
            "id": 1774,
            "original_name": "Johnny and the Sprites",
            "popularity": 2.984
        },
        {
            "id": 2261,
            "original_name": "The Tonight Show Starring Johnny Carson",
            "popularity": 18.819
        },
        {
            "id": 2393,
            "original_name": "Mary Kay and Johnny",
            "popularity": 1.091
        },
        {
            "id": 2405,
            "original_name": "Johnny Bravo",
            "popularity": 26.605
        },
        {
            "id": 5983,
            "original_name": "Johnny Staccato",
            "popularity": 8.717
        },
        {
            "id": 9903,
            "original_name": "The Johnny Cash Show",
            "popularity": 5.64
        },
        {
            "id": 12995,
            "original_name": "Johnny Jupiter",
            "popularity": 0.6
        },
        {
            "id": 14579,
            "original_name": "Johnny Ringo",
            "popularity": 10.02
        },
        {
            "id": 15263,
            "original_name": "The Johnny Carson Show",
            "popularity": 1.4
        },
        {
            "id": 16087,
            "original_name": "Johnny Cypher in Dimension Zero",
            "popularity": 0.6
        },
        {
            "id": 18169,
            "original_name": "Johnny Midnight",
            "popularity": 2.783
        },
        {
            "id": 18243,
            "original_name": "Johnny Vaughan Tonight",
            "popularity": 1.81
        },
        {
            "id": 18540,
            "original_name": "Johnny Jarvis",
            "popularity": 0.84
        },
        {
            "id": 19351,
            "original_name": "Johnny Talk",
            "popularity": 0.6
        },
        {
            "id": 20751,
            "original_name": "Johnny's New Kingdom",
            "popularity": 0.6
        },
        {
            "id": 23114,
            "original_name": "Shout! The Story Of Johnny O'Keefe",
            "popularity": 0.6
        },
        {
            "id": 23300,
            "original_name": "Johnny Farnum",
            "popularity": 0.6
        },
        {
            "id": 24103,
            "original_name": "Johnny og Johanna",
            "popularity": 1.733
        },
        {
            "id": 24822,
            "original_name": "Live at Johnny's",
            "popularity": 0.6
        },
        {
            "id": 25449,
            "original_name": "The Johnny Gredula Show",
            "popularity": 0.6
        },
        {
            "id": 25454,
            "original_name": "Johnny Kingdom: A Year On Exmoor",
            "popularity": 0.6
        },
        {
            "id": 25544,
            "original_name": "The Johnny O'Keefe Show",
            "popularity": 0.6
        },
        {
            "id": 25585,
            "original_name": "Down met Johnny",
            "popularity": 0.6
        },
        {
            "id": 27983,
            "original_name": "Johnny Cash and Friends",
            "popularity": 0.6
        },
        {
            "id": 29045,
            "original_name": "Survival With Johnny Farnum",
            "popularity": 0.6
        },
        {
            "id": 29800,
            "original_name": "Johnny Bago",
            "popularity": 1.4
        },
        {
            "id": 32681,
            "original_name": "Johnny Olson's Rumpus Room",
            "popularity": 0.6
        },
        {
            "id": 37946,
            "original_name": "Johnny Kingdom's Year with the Birds",
            "popularity": 0.6
        },
        {
            "id": 39623,
            "original_name": "Be Good Johnny Weir",
            "popularity": 0.921
        },
        {
            "id": 40425,
            "original_name": "Johnny B. Homeless",
            "popularity": 0.6
        },
        {
            "id": 40432,
            "original_name": "Johnny and the Bomb",
            "popularity": 1.074
        },
        {
            "id": 45846,
            "original_name": "Johnny Go Home",
            "popularity": 0.6
        },
        {
            "id": 46391,
            "original_name": "Johnny and the Dead",
            "popularity": 0.738
        },
        {
            "id": 47785,
            "original_name": "Johnny Ryan",
            "popularity": 0.6
        },
        {
            "id": 58977,
            "original_name": "The Johnny O'Connor Show",
            "popularity": 0.6
        },
        {
            "id": 73463,
            "original_name": "There's... Johnny!",
            "popularity": 1.269
        },
        {
            "id": 73666,
            "original_name": "Johnny Into The Wild",
            "popularity": 0.601
        },
        {
            "id": 109384,
            "original_name": "Johnny Christ",
            "popularity": 0.6
        },
        {
            "id": 116898,
            "original_name": "Home on the Road with Johnnyswim",
            "popularity": 0.6
        },
        {
            "id": 124935,
            "original_name": "Johnny Vegas: Carry on Glamping",
            "popularity": 0.84
        },
        {
            "id": 126625,
            "original_name": "Johnny's Communication Center",
            "popularity": 0.6
        },
        {
            "id": 127753,
            "original_name": "Johnny Test",
            "popularity": 6.299
        }
    ],
    "relations": [
        {
            "character": "hnny"
        }
    ],
    "top20": [
        {
            "id": 2405,
            "original_name": "Johnny Bravo",
            "popularity": 26.605
        },
        {
            "id": 2261,
            "original_name": "The Tonight Show Starring Johnny Carson",
            "popularity": 18.819
        },
        {
            "id": 1769,
            "original_name": "Johnny Test",
            "popularity": 15.842
        },
        {
            "id": 14579,
            "original_name": "Johnny Ringo",
            "popularity": 10.02
        },
        {
            "id": 5983,
            "original_name": "Johnny Staccato",
            "popularity": 8.717
        },
        {
            "id": 127753,
            "original_name": "Johnny Test",
            "popularity": 6.299
        },
        {
            "id": 9903,
            "original_name": "The Johnny Cash Show",
            "popularity": 5.64
        },
        {
            "id": 1774,
            "original_name": "Johnny and the Sprites",
            "popularity": 2.984
        },
        {
            "id": 18169,
            "original_name": "Johnny Midnight",
            "popularity": 2.783
        },
        {
            "id": 18243,
            "original_name": "Johnny Vaughan Tonight",
            "popularity": 1.81
        },
        {
            "id": 24103,
            "original_name": "Johnny og Johanna",
            "popularity": 1.733
        },
        {
            "id": 15263,
            "original_name": "The Johnny Carson Show",
            "popularity": 1.4
        },
        {
            "id": 29800,
            "original_name": "Johnny Bago",
            "popularity": 1.4
        },
        {
            "id": 73463,
            "original_name": "There's... Johnny!",
            "popularity": 1.269
        },
        {
            "id": 2393,
            "original_name": "Mary Kay and Johnny",
            "popularity": 1.091
        },
        {
            "id": 40432,
            "original_name": "Johnny and the Bomb",
            "popularity": 1.074
        },
        {
            "id": 39623,
            "original_name": "Be Good Johnny Weir",
            "popularity": 0.921
        },
        {
            "id": 124935,
            "original_name": "Johnny Vegas: Carry on Glamping",
            "popularity": 0.84
        },
        {
            "id": 18540,
            "original_name": "Johnny Jarvis",
            "popularity": 0.84
        },
        {
            "id": 46391,
            "original_name": "Johnny and the Dead",
            "popularity": 0.738
        }
    ]
}