{
    "data": [
        {
            "id": 110652,
            "original_name": "Bahnorama Classic",
            "popularity": 0.6
        }
    ],
    "relations": [],
    "top20": [
        {
            "id": 110652,
            "original_name": "Bahnorama Classic",
            "popularity": 0.6
        }
    ]
}