{
    "data": [
        {
            "id": 2739,
            "original_name": "Samantha Who?",
            "popularity": 11.997
        },
        {
            "id": 5096,
            "original_name": "Cowboy Who?",
            "popularity": 0.6
        },
        {
            "id": 20632,
            "original_name": "WHO?MAG TV",
            "popularity": 0.6
        },
        {
            "id": 87390,
            "original_name": "Quem Quer Casar Com o Meu Filho?",
            "popularity": 0.6
        },
        {
            "id": 88367,
            "original_name": "Scooby-Doo and Guess Who?",
            "popularity": 18.151
        },
        {
            "id": 95292,
            "original_name": "Dani Who?",
            "popularity": 3.632
        }
    ],
    "relations": [],
    "top20": [
        {
            "id": 2739,
            "original_name": "Samantha Who?",
            "popularity": 11.997
        },
        {
            "id": 5096,
            "original_name": "Cowboy Who?",
            "popularity": 0.6
        },
        {
            "id": 20632,
            "original_name": "WHO?MAG TV",
            "popularity": 0.6
        },
        {
            "id": 87390,
            "original_name": "Quem Quer Casar Com o Meu Filho?",
            "popularity": 0.6
        },
        {
            "id": 88367,
            "original_name": "Scooby-Doo and Guess Who?",
            "popularity": 18.151
        },
        {
            "id": 95292,
            "original_name": "Dani Who?",
            "popularity": 3.632
        }
    ]
}