{
    "data": [
        {
            "id": 39683,
            "original_name": "Hobgoblin",
            "popularity": 0.6
        }
    ],
    "relations": [],
    "top20": [
        {
            "id": 39683,
            "original_name": "Hobgoblin",
            "popularity": 0.6
        }
    ]
}