{
    "data": [
        {
            "id": 645,
            "original_name": "Rhoda",
            "popularity": 7.89
        },
        {
            "id": 8268,
            "original_name": "Thoda Hai Thode Ki Zaroorat Hai",
            "popularity": 0.6
        },
        {
            "id": 14202,
            "original_name": "Thodi Si Zameen Thoda Sa Aasmaan",
            "popularity": 0.6
        },
        {
            "id": 16244,
            "original_name": "Little Mirchi Thoda Pepper",
            "popularity": 0.6
        },
        {
            "id": 17675,
            "original_name": "Thodise Zameen Thodasa Aasman",
            "popularity": 0.6
        },
        {
            "id": 34285,
            "original_name": "Thoda Hai Bas Thode Ki Zaroorat Hai",
            "popularity": 0.6
        },
        {
            "id": 53596,
            "original_name": "Souq El-Khodar",
            "popularity": 0.6
        },
        {
            "id": 82425,
            "original_name": "Sergio & Rhoda in Israel",
            "popularity": 0.6
        },
        {
            "id": 103915,
            "original_name": "Fachoda ou La Mission Marchand",
            "popularity": 0.6
        },
        {
            "id": 118987,
            "original_name": "Thoda Adjust Please",
            "popularity": 0.84
        },
        {
            "id": 136959,
            "original_name": "Thoda Sa Baadal Thoda Sa Paani",
            "popularity": 0.84
        }
    ],
    "relations": [],
    "top20": [
        {
            "id": 645,
            "original_name": "Rhoda",
            "popularity": 7.89
        },
        {
            "id": 8268,
            "original_name": "Thoda Hai Thode Ki Zaroorat Hai",
            "popularity": 0.6
        },
        {
            "id": 14202,
            "original_name": "Thodi Si Zameen Thoda Sa Aasmaan",
            "popularity": 0.6
        },
        {
            "id": 16244,
            "original_name": "Little Mirchi Thoda Pepper",
            "popularity": 0.6
        },
        {
            "id": 17675,
            "original_name": "Thodise Zameen Thodasa Aasman",
            "popularity": 0.6
        },
        {
            "id": 34285,
            "original_name": "Thoda Hai Bas Thode Ki Zaroorat Hai",
            "popularity": 0.6
        },
        {
            "id": 53596,
            "original_name": "Souq El-Khodar",
            "popularity": 0.6
        },
        {
            "id": 82425,
            "original_name": "Sergio & Rhoda in Israel",
            "popularity": 0.6
        },
        {
            "id": 103915,
            "original_name": "Fachoda ou La Mission Marchand",
            "popularity": 0.6
        },
        {
            "id": 118987,
            "original_name": "Thoda Adjust Please",
            "popularity": 0.84
        },
        {
            "id": 136959,
            "original_name": "Thoda Sa Baadal Thoda Sa Paani",
            "popularity": 0.84
        }
    ]
}