{
    "data": [
        {
            "id": 26210,
            "original_name": "Holokaust",
            "popularity": 0.651
        }
    ],
    "relations": [],
    "top20": [
        {
            "id": 26210,
            "original_name": "Holokaust",
            "popularity": 0.651
        }
    ]
}