{
    "data": [
        {
            "id": 104936,
            "original_name": "Holycross",
            "popularity": 0.6
        }
    ],
    "relations": [],
    "top20": [
        {
            "id": 104936,
            "original_name": "Holycross",
            "popularity": 0.6
        }
    ]
}