{
    "data": [
        {
            "id": 13523,
            "original_name": "Chopratown",
            "popularity": 0.6
        },
        {
            "id": 77853,
            "original_name": "Curious Minds: Deepak Chopra",
            "popularity": 1.347
        }
    ],
    "relations": [],
    "top20": [
        {
            "id": 13523,
            "original_name": "Chopratown",
            "popularity": 0.6
        },
        {
            "id": 77853,
            "original_name": "Curious Minds: Deepak Chopra",
            "popularity": 1.347
        }
    ]
}