{
    "data": [
        {
            "id": 24340,
            "original_name": "House of Horrors",
            "popularity": 0.6
        },
        {
            "id": 45746,
            "original_name": "Li'l Horrors",
            "popularity": 0.6
        },
        {
            "id": 47411,
            "original_name": "Claymation Comedy of Horrors Show",
            "popularity": 0.6
        },
        {
            "id": 48236,
            "original_name": "Will Vinton's Claymation Comedy Of Horrors",
            "popularity": 0.6
        },
        {
            "id": 64974,
            "original_name": "House of Horrors: Kidnapped",
            "popularity": 0.67
        },
        {
            "id": 125848,
            "original_name": "Do Not Disturb: Hotel Horrors",
            "popularity": 0.6
        }
    ],
    "relations": [],
    "top20": [
        {
            "id": 24340,
            "original_name": "House of Horrors",
            "popularity": 0.6
        },
        {
            "id": 45746,
            "original_name": "Li'l Horrors",
            "popularity": 0.6
        },
        {
            "id": 47411,
            "original_name": "Claymation Comedy of Horrors Show",
            "popularity": 0.6
        },
        {
            "id": 48236,
            "original_name": "Will Vinton's Claymation Comedy Of Horrors",
            "popularity": 0.6
        },
        {
            "id": 64974,
            "original_name": "House of Horrors: Kidnapped",
            "popularity": 0.67
        },
        {
            "id": 125848,
            "original_name": "Do Not Disturb: Hotel Horrors",
            "popularity": 0.6
        }
    ]
}