{
    "data": [
        {
            "id": 987,
            "original_name": "General Hospital",
            "popularity": 189.533
        },
        {
            "id": 1617,
            "original_name": "Stephen King's Kingdom Hospital",
            "popularity": 7.298
        },
        {
            "id": 2610,
            "original_name": "Animal Hospital",
            "popularity": 1.457
        },
        {
            "id": 2783,
            "original_name": "General Hospital: Night Shift",
            "popularity": 4.077
        },
        {
            "id": 9202,
            "original_name": "Hilltop Hospital",
            "popularity": 3.382
        },
        {
            "id": 10955,
            "original_name": "Doctors' Hospital",
            "popularity": 2.964
        },
        {
            "id": 12286,
            "original_name": "General Hospital (UK)",
            "popularity": 0.6
        },
        {
            "id": 12288,
            "original_name": "Hospital Central",
            "popularity": 14.452
        },
        {
            "id": 13430,
            "original_name": "City Hospital",
            "popularity": 0.6
        },
        {
            "id": 19394,
            "original_name": "City Hospital",
            "popularity": 9.318
        },
        {
            "id": 20871,
            "original_name": "Children's Hospital",
            "popularity": 0.655
        },
        {
            "id": 21391,
            "original_name": "Drake Hospital Investigation",
            "popularity": 0.6
        },
        {
            "id": 22429,
            "original_name": "Half Ton Hospital With Jeremy Kyle",
            "popularity": 0.6
        },
        {
            "id": 24360,
            "original_name": "Maternity Hospital",
            "popularity": 0.805
        },
        {
            "id": 24478,
            "original_name": "The People's Hospital",
            "popularity": 1.4
        },
        {
            "id": 26330,
            "original_name": "Sex Change Hospital",
            "popularity": 9.888
        },
        {
            "id": 26626,
            "original_name": "The Hospital",
            "popularity": 0.6
        },
        {
            "id": 26740,
            "original_name": "University Hospital",
            "popularity": 1.602
        },
        {
            "id": 28192,
            "original_name": "Hospital Heroes",
            "popularity": 0.843
        },
        {
            "id": 28951,
            "original_name": "Hospital",
            "popularity": 0.6
        },
        {
            "id": 29277,
            "original_name": "Malucos no Hospital",
            "popularity": 0.6
        },
        {
            "id": 30500,
            "original_name": "The Brain Hospital",
            "popularity": 0.6
        },
        {
            "id": 33056,
            "original_name": "Childrens Hospital",
            "popularity": 8.901
        },
        {
            "id": 33067,
            "original_name": "Mountain-Top Hospital",
            "popularity": 0.6
        },
        {
            "id": 37791,
            "original_name": "Hospital 24/7",
            "popularity": 0.6
        },
        {
            "id": 39112,
            "original_name": "Combat Hospital",
            "popularity": 2.793
        },
        {
            "id": 41808,
            "original_name": "Children's Hospital",
            "popularity": 0.6
        },
        {
            "id": 43419,
            "original_name": "Children's Hospital",
            "popularity": 0.6
        },
        {
            "id": 43768,
            "original_name": "Baby Hospital",
            "popularity": 0.6
        },
        {
            "id": 47780,
            "original_name": "Hospital Watch",
            "popularity": 0.6
        },
        {
            "id": 47920,
            "original_name": "Hospital: Casualty",
            "popularity": 0.6
        },
        {
            "id": 48550,
            "original_name": "Hospital",
            "popularity": 0.6
        },
        {
            "id": 51465,
            "original_name": "P\u00e5 hospitalet",
            "popularity": 0.6
        },
        {
            "id": 55359,
            "original_name": "Operation Hospital Food with James Martin",
            "popularity": 0.6
        },
        {
            "id": 55718,
            "original_name": "Brain Hospital: Saving Lives",
            "popularity": 0.6
        },
        {
            "id": 56582,
            "original_name": "Kings Cross ER: St Vincent's Hospital",
            "popularity": 0.6
        },
        {
            "id": 60007,
            "original_name": "London Hospital",
            "popularity": 0.728
        },
        {
            "id": 60056,
            "original_name": "Stories From a Children's Hospital",
            "popularity": 0.6
        },
        {
            "id": 60132,
            "original_name": "Animal Hospital",
            "popularity": 0.6
        },
        {
            "id": 66658,
            "original_name": "Inside Birmingham Children's Hospital",
            "popularity": 0.6
        },
        {
            "id": 68625,
            "original_name": "Secret Life of the Hospital Bed",
            "popularity": 0.6
        },
        {
            "id": 70112,
            "original_name": "The Good Karma Hospital",
            "popularity": 6.618
        },
        {
            "id": 71485,
            "original_name": "Hospital People",
            "popularity": 0.6
        },
        {
            "id": 72220,
            "original_name": "Hospital",
            "popularity": 0.865
        },
        {
            "id": 75369,
            "original_name": "Savitri Devi College & Hospital",
            "popularity": 0.6
        },
        {
            "id": 81996,
            "original_name": "Hospital IT",
            "popularity": 1.132
        },
        {
            "id": 84549,
            "original_name": "Haunted Hospitals",
            "popularity": 1.4
        },
        {
            "id": 85721,
            "original_name": "Hospital Valle Norte",
            "popularity": 3.716
        },
        {
            "id": 93210,
            "original_name": "The Big Hospital Experiment",
            "popularity": 0.976
        },
        {
            "id": 101058,
            "original_name": "Hospital el Paisa",
            "popularity": 0.6
        },
        {
            "id": 106979,
            "original_name": "Fantasy  Hospital",
            "popularity": 0.6
        },
        {
            "id": 111470,
            "original_name": "Supersized Hospital",
            "popularity": 0.6
        },
        {
            "id": 118934,
            "original_name": "Superhospital",
            "popularity": 0.6
        },
        {
            "id": 119021,
            "original_name": "Your Child In Their Hands: Kids' Hospital",
            "popularity": 0.636
        },
        {
            "id": 119626,
            "original_name": "Elephant Hospital",
            "popularity": 0.6
        },
        {
            "id": 125963,
            "original_name": "Street Hospital",
            "popularity": 0.6
        },
        {
            "id": 129776,
            "original_name": "O Hospital",
            "popularity": 0.6
        },
        {
            "id": 133708,
            "original_name": "Hospital Real",
            "popularity": 0.6
        }
    ],
    "relations": [
        {
            "character": "hospitale"
        },
        {
            "character": "hospitals"
        }
    ],
    "top20": [
        {
            "id": 987,
            "original_name": "General Hospital",
            "popularity": 189.533
        },
        {
            "id": 12288,
            "original_name": "Hospital Central",
            "popularity": 14.452
        },
        {
            "id": 26330,
            "original_name": "Sex Change Hospital",
            "popularity": 9.888
        },
        {
            "id": 19394,
            "original_name": "City Hospital",
            "popularity": 9.318
        },
        {
            "id": 33056,
            "original_name": "Childrens Hospital",
            "popularity": 8.901
        },
        {
            "id": 1617,
            "original_name": "Stephen King's Kingdom Hospital",
            "popularity": 7.298
        },
        {
            "id": 70112,
            "original_name": "The Good Karma Hospital",
            "popularity": 6.618
        },
        {
            "id": 2783,
            "original_name": "General Hospital: Night Shift",
            "popularity": 4.077
        },
        {
            "id": 85721,
            "original_name": "Hospital Valle Norte",
            "popularity": 3.716
        },
        {
            "id": 9202,
            "original_name": "Hilltop Hospital",
            "popularity": 3.382
        },
        {
            "id": 10955,
            "original_name": "Doctors' Hospital",
            "popularity": 2.964
        },
        {
            "id": 39112,
            "original_name": "Combat Hospital",
            "popularity": 2.793
        },
        {
            "id": 26740,
            "original_name": "University Hospital",
            "popularity": 1.602
        },
        {
            "id": 2610,
            "original_name": "Animal Hospital",
            "popularity": 1.457
        },
        {
            "id": 84549,
            "original_name": "Haunted Hospitals",
            "popularity": 1.4
        },
        {
            "id": 24478,
            "original_name": "The People's Hospital",
            "popularity": 1.4
        },
        {
            "id": 81996,
            "original_name": "Hospital IT",
            "popularity": 1.132
        },
        {
            "id": 93210,
            "original_name": "The Big Hospital Experiment",
            "popularity": 0.976
        },
        {
            "id": 72220,
            "original_name": "Hospital",
            "popularity": 0.865
        },
        {
            "id": 28192,
            "original_name": "Hospital Heroes",
            "popularity": 0.843
        }
    ]
}