{
    "data": [
        {
            "id": 679,
            "original_name": "Xiaolin Showdown",
            "popularity": 14.09
        },
        {
            "id": 2063,
            "original_name": "Holiday Showdown",
            "popularity": 0.637
        },
        {
            "id": 2524,
            "original_name": "Holly & Stephen's Saturday Showdown",
            "popularity": 0.879
        },
        {
            "id": 4113,
            "original_name": "Forza Motorsport Showdown",
            "popularity": 0.6
        },
        {
            "id": 4156,
            "original_name": "The Sitcom Showdown",
            "popularity": 0.6
        },
        {
            "id": 4555,
            "original_name": "Celebrity Cooking Showdown",
            "popularity": 1.731
        },
        {
            "id": 7464,
            "original_name": "Showdown with Larry Elder",
            "popularity": 0.6
        },
        {
            "id": 8643,
            "original_name": "Ultimate Recipe Showdown",
            "popularity": 0.6
        },
        {
            "id": 10450,
            "original_name": "Hollywood Showdown",
            "popularity": 0.6
        },
        {
            "id": 10546,
            "original_name": "Celebrity Poker Showdown",
            "popularity": 0.6
        },
        {
            "id": 12075,
            "original_name": "The Big Showdown",
            "popularity": 0.6
        },
        {
            "id": 13064,
            "original_name": "Showdown",
            "popularity": 0.6
        },
        {
            "id": 17774,
            "original_name": "Stand-up Showdown",
            "popularity": 0.6
        },
        {
            "id": 19523,
            "original_name": "KDKA Sports Showdown",
            "popularity": 0.6
        },
        {
            "id": 20408,
            "original_name": "Ultimate Recipe Showdown",
            "popularity": 0.723
        },
        {
            "id": 23469,
            "original_name": "The Great Domestic Showdown",
            "popularity": 0.84
        },
        {
            "id": 26227,
            "original_name": "Summer Showdown",
            "popularity": 0.6
        },
        {
            "id": 27066,
            "original_name": "Danny Baker's Sitcom Showdown",
            "popularity": 0.6
        },
        {
            "id": 27966,
            "original_name": "Paycheck Showdown",
            "popularity": 0.6
        },
        {
            "id": 28075,
            "original_name": "Showdown",
            "popularity": 0.6
        },
        {
            "id": 33009,
            "original_name": "Danz Showdown",
            "popularity": 0.6
        },
        {
            "id": 38862,
            "original_name": "Family Feud: The Showdown Edition",
            "popularity": 0.6
        },
        {
            "id": 45744,
            "original_name": "Wild West Showdown",
            "popularity": 0.6
        },
        {
            "id": 47043,
            "original_name": "Scrabble Showdown",
            "popularity": 0.6
        },
        {
            "id": 51238,
            "original_name": "Danny Baker's Great Album Showdown",
            "popularity": 0.6
        },
        {
            "id": 55543,
            "original_name": "Viral Video Showdown",
            "popularity": 0.6
        },
        {
            "id": 58335,
            "original_name": "Shannons Supercar Showdown",
            "popularity": 0.6
        },
        {
            "id": 60994,
            "original_name": "Rowhouse Showdown",
            "popularity": 0.6
        },
        {
            "id": 64967,
            "original_name": "Showdown of the Unbeatables",
            "popularity": 0.6
        },
        {
            "id": 65907,
            "original_name": "Man vs. Child: Chef Showdown",
            "popularity": 0.6
        },
        {
            "id": 69086,
            "original_name": "Kids Sweets Showdown",
            "popularity": 0.6
        },
        {
            "id": 74433,
            "original_name": "Iron Chef Showdown",
            "popularity": 0.6
        },
        {
            "id": 74853,
            "original_name": "The Big Family Cooking Showdown",
            "popularity": 1.932
        },
        {
            "id": 75407,
            "original_name": "Endless Yard Sale: Showdown",
            "popularity": 0.6
        },
        {
            "id": 87861,
            "original_name": "Family Food Showdown",
            "popularity": 1.358
        },
        {
            "id": 93984,
            "original_name": "Haunted Gingerbread Showdown",
            "popularity": 1.25
        },
        {
            "id": 96271,
            "original_name": "Holiday Gingerbread Showdown",
            "popularity": 0.6
        },
        {
            "id": 105617,
            "original_name": "Animal Showdown",
            "popularity": 0.6
        },
        {
            "id": 109819,
            "original_name": "The American Barbecue Showdown",
            "popularity": 10.581
        },
        {
            "id": 113981,
            "original_name": "Biggest Little Christmas Showdown",
            "popularity": 0.6
        },
        {
            "id": 116754,
            "original_name": "Paul Sinha's TV Showdown",
            "popularity": 1.661
        },
        {
            "id": 121035,
            "original_name": "American BBQ showdown",
            "popularity": 0.6
        },
        {
            "id": 124414,
            "original_name": "Junior Chef Showdown",
            "popularity": 0.84
        },
        {
            "id": 127333,
            "original_name": "Ultimate Cowboy Showdown",
            "popularity": 0.6
        },
        {
            "id": 129445,
            "original_name": "Great Chocolate Showdown",
            "popularity": 1.367
        },
        {
            "id": 135040,
            "original_name": "The Farmers' Country Showdown",
            "popularity": 0.6
        },
        {
            "id": 137839,
            "original_name": "Meet Your Makers Showdown",
            "popularity": 2.789
        },
        {
            "id": 138780,
            "original_name": "Holiday Baking Championship: Gingerbread Showdown",
            "popularity": 8.179
        }
    ],
    "relations": [
        {
            "character": "howdown"
        }
    ],
    "top20": [
        {
            "id": 679,
            "original_name": "Xiaolin Showdown",
            "popularity": 14.09
        },
        {
            "id": 109819,
            "original_name": "The American Barbecue Showdown",
            "popularity": 10.581
        },
        {
            "id": 138780,
            "original_name": "Holiday Baking Championship: Gingerbread Showdown",
            "popularity": 8.179
        },
        {
            "id": 137839,
            "original_name": "Meet Your Makers Showdown",
            "popularity": 2.789
        },
        {
            "id": 74853,
            "original_name": "The Big Family Cooking Showdown",
            "popularity": 1.932
        },
        {
            "id": 4555,
            "original_name": "Celebrity Cooking Showdown",
            "popularity": 1.731
        },
        {
            "id": 116754,
            "original_name": "Paul Sinha's TV Showdown",
            "popularity": 1.661
        },
        {
            "id": 129445,
            "original_name": "Great Chocolate Showdown",
            "popularity": 1.367
        },
        {
            "id": 87861,
            "original_name": "Family Food Showdown",
            "popularity": 1.358
        },
        {
            "id": 93984,
            "original_name": "Haunted Gingerbread Showdown",
            "popularity": 1.25
        },
        {
            "id": 2524,
            "original_name": "Holly & Stephen's Saturday Showdown",
            "popularity": 0.879
        },
        {
            "id": 124414,
            "original_name": "Junior Chef Showdown",
            "popularity": 0.84
        },
        {
            "id": 23469,
            "original_name": "The Great Domestic Showdown",
            "popularity": 0.84
        },
        {
            "id": 20408,
            "original_name": "Ultimate Recipe Showdown",
            "popularity": 0.723
        },
        {
            "id": 2063,
            "original_name": "Holiday Showdown",
            "popularity": 0.637
        },
        {
            "id": 7464,
            "original_name": "Showdown with Larry Elder",
            "popularity": 0.6
        },
        {
            "id": 4113,
            "original_name": "Forza Motorsport Showdown",
            "popularity": 0.6
        },
        {
            "id": 8643,
            "original_name": "Ultimate Recipe Showdown",
            "popularity": 0.6
        },
        {
            "id": 4156,
            "original_name": "The Sitcom Showdown",
            "popularity": 0.6
        },
        {
            "id": 10450,
            "original_name": "Hollywood Showdown",
            "popularity": 0.6
        }
    ]
}