{
    "data": [
        {
            "id": 56280,
            "original_name": "Dang Dao Phrao Saeng",
            "popularity": 0.6
        }
    ],
    "relations": [],
    "top20": [
        {
            "id": 56280,
            "original_name": "Dang Dao Phrao Saeng",
            "popularity": 0.6
        }
    ]
}