{
    "data": [
        {
            "id": 56187,
            "original_name": "Khreung Khong Hau Jai",
            "popularity": 0.6
        }
    ],
    "relations": [],
    "top20": [
        {
            "id": 56187,
            "original_name": "Khreung Khong Hau Jai",
            "popularity": 0.6
        }
    ]
}