{
    "data": [
        {
            "id": 11615,
            "original_name": "Witchright Hall",
            "popularity": 0.6
        },
        {
            "id": 43703,
            "original_name": "Aus dem Tagebuch eines Minderj\u00e4hrigen",
            "popularity": 0.6
        },
        {
            "id": 49741,
            "original_name": "A Love Affair: The Eleanor and Lou Gehrig Story",
            "popularity": 0.6
        },
        {
            "id": 83107,
            "original_name": "Die Eiserne Zeit - Lieben und T\u00f6ten im Drei\u00dfigj\u00e4hrigen Krieg",
            "popularity": 1.065
        }
    ],
    "relations": [],
    "top20": [
        {
            "id": 11615,
            "original_name": "Witchright Hall",
            "popularity": 0.6
        },
        {
            "id": 43703,
            "original_name": "Aus dem Tagebuch eines Minderj\u00e4hrigen",
            "popularity": 0.6
        },
        {
            "id": 49741,
            "original_name": "A Love Affair: The Eleanor and Lou Gehrig Story",
            "popularity": 0.6
        },
        {
            "id": 83107,
            "original_name": "Die Eiserne Zeit - Lieben und T\u00f6ten im Drei\u00dfigj\u00e4hrigen Krieg",
            "popularity": 1.065
        }
    ]
}