{
    "data": [
        {
            "id": 106177,
            "original_name": "Nachtduell",
            "popularity": 0.6
        },
        {
            "id": 112574,
            "original_name": "Nachtdieren",
            "popularity": 0.881
        }
    ],
    "relations": [],
    "top20": [
        {
            "id": 106177,
            "original_name": "Nachtduell",
            "popularity": 0.6
        },
        {
            "id": 112574,
            "original_name": "Nachtdieren",
            "popularity": 0.881
        }
    ]
}