{
    "data": [
        {
            "id": 1741,
            "original_name": "The Nightmare Man",
            "popularity": 0.876
        },
        {
            "id": 2178,
            "original_name": "Ramsay's Kitchen Nightmares",
            "popularity": 3.894
        },
        {
            "id": 2509,
            "original_name": "Knightmare",
            "popularity": 2.863
        },
        {
            "id": 4340,
            "original_name": "Nightmares & Dreamscapes: From the Stories of Stephen King",
            "popularity": 12.954
        },
        {
            "id": 4346,
            "original_name": "Freddy's Nightmares",
            "popularity": 12.901
        },
        {
            "id": 4538,
            "original_name": "Nightmare Cafe",
            "popularity": 1.765
        },
        {
            "id": 5529,
            "original_name": "Frightmares The Series",
            "popularity": 1.34
        },
        {
            "id": 6132,
            "original_name": "The Power of Nightmares",
            "popularity": 3.768
        },
        {
            "id": 6252,
            "original_name": "What a Nightmare, Charlie Brown!",
            "popularity": 0.6
        },
        {
            "id": 8708,
            "original_name": "Nightmare Theatre",
            "popularity": 0.6
        },
        {
            "id": 10861,
            "original_name": "The Nightmare Room",
            "popularity": 3.483
        },
        {
            "id": 11050,
            "original_name": "Nightmare Ned",
            "popularity": 1.948
        },
        {
            "id": 11294,
            "original_name": "Kitchen Nightmares",
            "popularity": 12.042
        },
        {
            "id": 20594,
            "original_name": "USA Saturday Nightmares",
            "popularity": 0.6
        },
        {
            "id": 21589,
            "original_name": "Carlos and Lightmouse",
            "popularity": 0.654
        },
        {
            "id": 25879,
            "original_name": "A Nightmare on Elm Street: Real Nightmares",
            "popularity": 0.6
        },
        {
            "id": 26932,
            "original_name": "My Teen's a Nightmare - I'm Moving Out",
            "popularity": 0.6
        },
        {
            "id": 29293,
            "original_name": "Your Worst Animal Nightmares",
            "popularity": 0.6
        },
        {
            "id": 29949,
            "original_name": "Nigel\u2019s Vineyard Nightmares",
            "popularity": 0.6
        },
        {
            "id": 31503,
            "original_name": "Your Worst Animal Nightmares",
            "popularity": 0.6
        },
        {
            "id": 32448,
            "original_name": "Nightmare in the City That Never Sleeps",
            "popularity": 0.6
        },
        {
            "id": 33350,
            "original_name": "Knightmare VR",
            "popularity": 0.6
        },
        {
            "id": 35513,
            "original_name": "Renovation Nightmares Caught on Tape",
            "popularity": 0.6
        },
        {
            "id": 38402,
            "original_name": "Beeny's Restoration Nightmare",
            "popularity": 0.878
        },
        {
            "id": 38534,
            "original_name": "Nightmare Next Door",
            "popularity": 2.97
        },
        {
            "id": 42805,
            "original_name": "Celebrity Nightmares Decoded",
            "popularity": 0.6
        },
        {
            "id": 52069,
            "original_name": "Tattoo Nightmares",
            "popularity": 3.486
        },
        {
            "id": 52071,
            "original_name": "Alice Cooper: The Nightmare",
            "popularity": 0.6
        },
        {
            "id": 54594,
            "original_name": "Nightmare: The Birth of Victorian Horror",
            "popularity": 0.6
        },
        {
            "id": 57714,
            "original_name": "Nightmare in Suburbia",
            "popularity": 0.84
        },
        {
            "id": 63280,
            "original_name": "Ramsay's Costa del Nightmares",
            "popularity": 2.732
        },
        {
            "id": 64843,
            "original_name": "True Nightmares",
            "popularity": 0.6
        },
        {
            "id": 65067,
            "original_name": "Your Worst Nightmare",
            "popularity": 1.865
        },
        {
            "id": 65445,
            "original_name": "The Nightmare Worlds of H.G. Wells",
            "popularity": 3.389
        },
        {
            "id": 70501,
            "original_name": "Nightmare Tenants, Slum Landlords",
            "popularity": 3.773
        },
        {
            "id": 72191,
            "original_name": "The Nightmare Years",
            "popularity": 0.837
        },
        {
            "id": 72826,
            "original_name": "A Midsummer's Nightmare",
            "popularity": 0.6
        },
        {
            "id": 74587,
            "original_name": "The Nightmare Neighbour Next Door",
            "popularity": 0.913
        },
        {
            "id": 85250,
            "original_name": "American Nightmare",
            "popularity": 0.932
        },
        {
            "id": 86457,
            "original_name": "Business Nightmares with Evan Davis",
            "popularity": 0.6
        },
        {
            "id": 88111,
            "original_name": "My Online Nightmare",
            "popularity": 0.85
        },
        {
            "id": 103412,
            "original_name": "My Paranormal Nightmare",
            "popularity": 0.714
        },
        {
            "id": 105541,
            "original_name": "Naomi's Nightmares of Nature",
            "popularity": 0.6
        },
        {
            "id": 106357,
            "original_name": "Nightmare Classics",
            "popularity": 0.84
        },
        {
            "id": 110314,
            "original_name": "Living a Nightmare",
            "popularity": 0.6
        },
        {
            "id": 120297,
            "original_name": "Tattoo Nightmares: Miami",
            "popularity": 0.6
        },
        {
            "id": 120368,
            "original_name": "Real Life Nightmare",
            "popularity": 5.905
        },
        {
            "id": 123137,
            "original_name": "Urban Nightmares",
            "popularity": 0.6
        },
        {
            "id": 124365,
            "original_name": "Musicians Nightmares",
            "popularity": 0.6
        },
        {
            "id": 124710,
            "original_name": "Nightmare Builders Next Door",
            "popularity": 0.6
        },
        {
            "id": 125630,
            "original_name": "\u5922\u3067\u9022\u3048\u305f\u3089 A SWEET NIGHTMARE",
            "popularity": 0.6
        },
        {
            "id": 128109,
            "original_name": "Nightmares of Nature",
            "popularity": 0.6
        },
        {
            "id": 130876,
            "original_name": "Alex Polizzi: My Hotel Nightmare",
            "popularity": 5.098
        },
        {
            "id": 132353,
            "original_name": "Campus Nightmares",
            "popularity": 0.6
        },
        {
            "id": 137154,
            "original_name": "True Nightmares: Tales of Terror",
            "popularity": 2.348
        },
        {
            "id": 138129,
            "original_name": "Nightmares and Lullabies",
            "popularity": 0.84
        },
        {
            "id": 139614,
            "original_name": "Extreme Nightmare Tenants",
            "popularity": 0.6
        }
    ],
    "relations": [
        {
            "character": "htma"
        },
        {
            "character": "htmo"
        }
    ],
    "top20": [
        {
            "id": 4340,
            "original_name": "Nightmares & Dreamscapes: From the Stories of Stephen King",
            "popularity": 12.954
        },
        {
            "id": 4346,
            "original_name": "Freddy's Nightmares",
            "popularity": 12.901
        },
        {
            "id": 11294,
            "original_name": "Kitchen Nightmares",
            "popularity": 12.042
        },
        {
            "id": 120368,
            "original_name": "Real Life Nightmare",
            "popularity": 5.905
        },
        {
            "id": 130876,
            "original_name": "Alex Polizzi: My Hotel Nightmare",
            "popularity": 5.098
        },
        {
            "id": 2178,
            "original_name": "Ramsay's Kitchen Nightmares",
            "popularity": 3.894
        },
        {
            "id": 70501,
            "original_name": "Nightmare Tenants, Slum Landlords",
            "popularity": 3.773
        },
        {
            "id": 6132,
            "original_name": "The Power of Nightmares",
            "popularity": 3.768
        },
        {
            "id": 52069,
            "original_name": "Tattoo Nightmares",
            "popularity": 3.486
        },
        {
            "id": 10861,
            "original_name": "The Nightmare Room",
            "popularity": 3.483
        },
        {
            "id": 65445,
            "original_name": "The Nightmare Worlds of H.G. Wells",
            "popularity": 3.389
        },
        {
            "id": 38534,
            "original_name": "Nightmare Next Door",
            "popularity": 2.97
        },
        {
            "id": 2509,
            "original_name": "Knightmare",
            "popularity": 2.863
        },
        {
            "id": 63280,
            "original_name": "Ramsay's Costa del Nightmares",
            "popularity": 2.732
        },
        {
            "id": 137154,
            "original_name": "True Nightmares: Tales of Terror",
            "popularity": 2.348
        },
        {
            "id": 11050,
            "original_name": "Nightmare Ned",
            "popularity": 1.948
        },
        {
            "id": 65067,
            "original_name": "Your Worst Nightmare",
            "popularity": 1.865
        },
        {
            "id": 4538,
            "original_name": "Nightmare Cafe",
            "popularity": 1.765
        },
        {
            "id": 5529,
            "original_name": "Frightmares The Series",
            "popularity": 1.34
        },
        {
            "id": 85250,
            "original_name": "American Nightmare",
            "popularity": 0.932
        }
    ]
}