{
    "data": [
        {
            "id": 2768,
            "original_name": "Play Your Hunch",
            "popularity": 0.6
        },
        {
            "id": 19484,
            "original_name": "The Hunchback of Notre Dame",
            "popularity": 1.547
        },
        {
            "id": 56513,
            "original_name": "The Hunchback of Notre Dame Festival of Fun Musical Spectacular",
            "popularity": 0.6
        }
    ],
    "relations": [],
    "top20": [
        {
            "id": 2768,
            "original_name": "Play Your Hunch",
            "popularity": 0.6
        },
        {
            "id": 19484,
            "original_name": "The Hunchback of Notre Dame",
            "popularity": 1.547
        },
        {
            "id": 56513,
            "original_name": "The Hunchback of Notre Dame Festival of Fun Musical Spectacular",
            "popularity": 0.6
        }
    ]
}