{
    "data": [
        {
            "id": 8056,
            "original_name": "Hvem vil v\u00e6re million\u00e6r?",
            "popularity": 0.737
        },
        {
            "id": 38145,
            "original_name": "Hvem kender hvem",
            "popularity": 0.6
        },
        {
            "id": 50758,
            "original_name": "Kahve Bahane",
            "popularity": 0.6
        },
        {
            "id": 51463,
            "original_name": "Hvem var Christmas M\u00f8ller?",
            "popularity": 0.6
        },
        {
            "id": 51853,
            "original_name": "Kochvey Hashchuna",
            "popularity": 0.6
        },
        {
            "id": 55238,
            "original_name": "Hvem kan sl\u00e5 Aamodt og Kjus",
            "popularity": 0.6
        },
        {
            "id": 57245,
            "original_name": "Hver gang vi m\u00f8tes",
            "popularity": 0.821
        },
        {
            "id": 67894,
            "original_name": "Nobel - fred for enhver pris",
            "popularity": 11.235
        },
        {
            "id": 72151,
            "original_name": "Hvem kan sl\u00e5 Ylvis?",
            "popularity": 0.6
        },
        {
            "id": 76245,
            "original_name": "Hvem tror du at du er?",
            "popularity": 1.757
        },
        {
            "id": 82003,
            "original_name": "Hvem drepte Birgitte",
            "popularity": 0.6
        },
        {
            "id": 104322,
            "original_name": "Hvem bor her?",
            "popularity": 0.6
        },
        {
            "id": 110341,
            "original_name": "Hvem vil voldtage Louise",
            "popularity": 0.6
        },
        {
            "id": 114432,
            "original_name": "Hvem Dr\u00e6bte Stine Geisler?",
            "popularity": 0.6
        },
        {
            "id": 120187,
            "original_name": "Hvem kan sl\u00e5 \u00c5modt og Kjus?",
            "popularity": 0.845
        },
        {
            "id": 121161,
            "original_name": "Hvem byder bedst",
            "popularity": 0.6
        },
        {
            "id": 121778,
            "original_name": "Hvem var det nu vi var",
            "popularity": 0.6
        },
        {
            "id": 131780,
            "original_name": "Hvem bor her?",
            "popularity": 0.867
        },
        {
            "id": 136048,
            "original_name": "Gjett hvem!",
            "popularity": 13.423
        },
        {
            "id": 137143,
            "original_name": "Far hvem er du?",
            "popularity": 0.6
        },
        {
            "id": 137577,
            "original_name": "Hvem holder masken?",
            "popularity": 6.822
        },
        {
            "id": 152545,
            "original_name": "En Vild Hverdag",
            "popularity": 1.4
        }
    ],
    "relations": [
        {
            "character": "hvem"
        },
        {
            "character": "hvey"
        },
        {
            "character": "hver"
        }
    ],
    "top20": [
        {
            "id": 136048,
            "original_name": "Gjett hvem!",
            "popularity": 13.423
        },
        {
            "id": 67894,
            "original_name": "Nobel - fred for enhver pris",
            "popularity": 11.235
        },
        {
            "id": 137577,
            "original_name": "Hvem holder masken?",
            "popularity": 6.822
        },
        {
            "id": 76245,
            "original_name": "Hvem tror du at du er?",
            "popularity": 1.757
        },
        {
            "id": 152545,
            "original_name": "En Vild Hverdag",
            "popularity": 1.4
        },
        {
            "id": 131780,
            "original_name": "Hvem bor her?",
            "popularity": 0.867
        },
        {
            "id": 120187,
            "original_name": "Hvem kan sl\u00e5 \u00c5modt og Kjus?",
            "popularity": 0.845
        },
        {
            "id": 57245,
            "original_name": "Hver gang vi m\u00f8tes",
            "popularity": 0.821
        },
        {
            "id": 8056,
            "original_name": "Hvem vil v\u00e6re million\u00e6r?",
            "popularity": 0.737
        },
        {
            "id": 104322,
            "original_name": "Hvem bor her?",
            "popularity": 0.6
        },
        {
            "id": 50758,
            "original_name": "Kahve Bahane",
            "popularity": 0.6
        },
        {
            "id": 51463,
            "original_name": "Hvem var Christmas M\u00f8ller?",
            "popularity": 0.6
        },
        {
            "id": 51853,
            "original_name": "Kochvey Hashchuna",
            "popularity": 0.6
        },
        {
            "id": 114432,
            "original_name": "Hvem Dr\u00e6bte Stine Geisler?",
            "popularity": 0.6
        },
        {
            "id": 82003,
            "original_name": "Hvem drepte Birgitte",
            "popularity": 0.6
        },
        {
            "id": 121161,
            "original_name": "Hvem byder bedst",
            "popularity": 0.6
        },
        {
            "id": 55238,
            "original_name": "Hvem kan sl\u00e5 Aamodt og Kjus",
            "popularity": 0.6
        },
        {
            "id": 72151,
            "original_name": "Hvem kan sl\u00e5 Ylvis?",
            "popularity": 0.6
        },
        {
            "id": 110341,
            "original_name": "Hvem vil voldtage Louise",
            "popularity": 0.6
        },
        {
            "id": 38145,
            "original_name": "Hvem kender hvem",
            "popularity": 0.6
        }
    ]
}