{
    "data": [
        {
            "id": 1963,
            "original_name": "Nashville Star",
            "popularity": 2.383
        },
        {
            "id": 11738,
            "original_name": "That Nashville Music",
            "popularity": 0.6
        },
        {
            "id": 14055,
            "original_name": "Dharti Ka Veer Yodha Prithviraj Chauhan",
            "popularity": 0.998
        },
        {
            "id": 14560,
            "original_name": "Nashville",
            "popularity": 0.6
        },
        {
            "id": 15544,
            "original_name": "Kya Aap Paanchvi Pass Se Tez Hain?",
            "popularity": 1.429
        },
        {
            "id": 15596,
            "original_name": "Nashville Now",
            "popularity": 0.6
        },
        {
            "id": 15832,
            "original_name": "Kya Aap Paanchvi Fail Champu Hain?",
            "popularity": 0.6
        },
        {
            "id": 23806,
            "original_name": "Nashville 99",
            "popularity": 1.796
        },
        {
            "id": 24489,
            "original_name": "That Good Old Nashville Music",
            "popularity": 1.258
        },
        {
            "id": 30621,
            "original_name": "The Nashville Palace",
            "popularity": 1.345
        },
        {
            "id": 34649,
            "original_name": "Nashville",
            "popularity": 0.627
        },
        {
            "id": 36307,
            "original_name": "Svarte penger, hvite l\u00f8gner",
            "popularity": 2.657
        },
        {
            "id": 44549,
            "original_name": "Nashville",
            "popularity": 31.593
        },
        {
            "id": 45248,
            "original_name": "Nashville on the Road",
            "popularity": 0.84
        },
        {
            "id": 46717,
            "original_name": "CBC News Toronto - CBC News Toronto - Miriam Makashvili",
            "popularity": 0.6
        },
        {
            "id": 51263,
            "original_name": "Hvide l\u00f8gne",
            "popularity": 2.816
        },
        {
            "id": 59889,
            "original_name": "Chasing Nashville",
            "popularity": 0.6
        },
        {
            "id": 76361,
            "original_name": "Hvite gutter",
            "popularity": 2.427
        },
        {
            "id": 77167,
            "original_name": "Flip or Flop Nashville",
            "popularity": 0.84
        },
        {
            "id": 95574,
            "original_name": "Welcome to Plathville",
            "popularity": 1.586
        },
        {
            "id": 99682,
            "original_name": "Yesteryear in Nashville",
            "popularity": 0.6
        },
        {
            "id": 105894,
            "original_name": "Amrutham Dhvitheeyam",
            "popularity": 0.6
        },
        {
            "id": 114418,
            "original_name": "P\u00e5 eventyr med familien Hvidt Kessler",
            "popularity": 0.641
        },
        {
            "id": 124601,
            "original_name": "Hvide Sande",
            "popularity": 3.137
        }
    ],
    "relations": [
        {
            "character": "hvil"
        },
        {
            "character": "hvir"
        },
        {
            "character": "hvit"
        },
        {
            "character": "hvid"
        }
    ],
    "top20": [
        {
            "id": 44549,
            "original_name": "Nashville",
            "popularity": 31.593
        },
        {
            "id": 124601,
            "original_name": "Hvide Sande",
            "popularity": 3.137
        },
        {
            "id": 51263,
            "original_name": "Hvide l\u00f8gne",
            "popularity": 2.816
        },
        {
            "id": 36307,
            "original_name": "Svarte penger, hvite l\u00f8gner",
            "popularity": 2.657
        },
        {
            "id": 76361,
            "original_name": "Hvite gutter",
            "popularity": 2.427
        },
        {
            "id": 1963,
            "original_name": "Nashville Star",
            "popularity": 2.383
        },
        {
            "id": 23806,
            "original_name": "Nashville 99",
            "popularity": 1.796
        },
        {
            "id": 95574,
            "original_name": "Welcome to Plathville",
            "popularity": 1.586
        },
        {
            "id": 15544,
            "original_name": "Kya Aap Paanchvi Pass Se Tez Hain?",
            "popularity": 1.429
        },
        {
            "id": 30621,
            "original_name": "The Nashville Palace",
            "popularity": 1.345
        },
        {
            "id": 24489,
            "original_name": "That Good Old Nashville Music",
            "popularity": 1.258
        },
        {
            "id": 14055,
            "original_name": "Dharti Ka Veer Yodha Prithviraj Chauhan",
            "popularity": 0.998
        },
        {
            "id": 77167,
            "original_name": "Flip or Flop Nashville",
            "popularity": 0.84
        },
        {
            "id": 45248,
            "original_name": "Nashville on the Road",
            "popularity": 0.84
        },
        {
            "id": 114418,
            "original_name": "P\u00e5 eventyr med familien Hvidt Kessler",
            "popularity": 0.641
        },
        {
            "id": 34649,
            "original_name": "Nashville",
            "popularity": 0.627
        },
        {
            "id": 15596,
            "original_name": "Nashville Now",
            "popularity": 0.6
        },
        {
            "id": 14560,
            "original_name": "Nashville",
            "popularity": 0.6
        },
        {
            "id": 11738,
            "original_name": "That Nashville Music",
            "popularity": 0.6
        },
        {
            "id": 15832,
            "original_name": "Kya Aap Paanchvi Fail Champu Hain?",
            "popularity": 0.6
        }
    ]
}