{
    "data": [
        {
            "id": 128569,
            "original_name": "Thomas Schwenke - Animationen",
            "popularity": 0.6
        }
    ],
    "relations": [],
    "top20": [
        {
            "id": 128569,
            "original_name": "Thomas Schwenke - Animationen",
            "popularity": 0.6
        }
    ]
}