{
    "data": [
        {
            "id": 17479,
            "original_name": "Demonstrations in Physics",
            "popularity": 0.6
        },
        {
            "id": 32954,
            "original_name": "Sci Fi Science: Physics of the Impossible",
            "popularity": 0.73
        },
        {
            "id": 45176,
            "original_name": "The Character of Physical Law",
            "popularity": 0.6
        },
        {
            "id": 49064,
            "original_name": "Olivia Newton-John: Let's Get Physical",
            "popularity": 0.6
        },
        {
            "id": 58397,
            "original_name": "Modern Physics for Non-Scientists",
            "popularity": 0.6
        },
        {
            "id": 67475,
            "original_name": "The Secrets of Quantum Physics",
            "popularity": 1.175
        },
        {
            "id": 76580,
            "original_name": "Let's Get Physical",
            "popularity": 1.4
        },
        {
            "id": 80319,
            "original_name": "Crash Course Anatomy & Physiology",
            "popularity": 1.152
        },
        {
            "id": 80323,
            "original_name": "Crash Course Physics",
            "popularity": 0.6
        },
        {
            "id": 82923,
            "original_name": "Telekolleg Physik",
            "popularity": 0.6
        },
        {
            "id": 86720,
            "original_name": "Sound Waves: The Symphony of Physics",
            "popularity": 0.849
        },
        {
            "id": 95584,
            "original_name": "The Physics of Light",
            "popularity": 0.6
        },
        {
            "id": 102946,
            "original_name": "Die Geheimnisse der Quantenphysik",
            "popularity": 0.6
        },
        {
            "id": 105297,
            "original_name": "Th\u1ea7n Y Ho\u00e0ng Ph\u1ee7 - Imperial Physician Huangfu",
            "popularity": 0.6
        },
        {
            "id": 119181,
            "original_name": "Physical",
            "popularity": 44.451
        },
        {
            "id": 124591,
            "original_name": "100SekundenPhysik",
            "popularity": 3.693
        },
        {
            "id": 130749,
            "original_name": "Elements of Physics",
            "popularity": 0.6
        },
        {
            "id": 133628,
            "original_name": "Die Physik Albert Einsteins",
            "popularity": 1.215
        },
        {
            "id": 134372,
            "original_name": "Standard Deviants School: Physics",
            "popularity": 0.6
        }
    ],
    "relations": [],
    "top20": [
        {
            "id": 17479,
            "original_name": "Demonstrations in Physics",
            "popularity": 0.6
        },
        {
            "id": 32954,
            "original_name": "Sci Fi Science: Physics of the Impossible",
            "popularity": 0.73
        },
        {
            "id": 45176,
            "original_name": "The Character of Physical Law",
            "popularity": 0.6
        },
        {
            "id": 49064,
            "original_name": "Olivia Newton-John: Let's Get Physical",
            "popularity": 0.6
        },
        {
            "id": 58397,
            "original_name": "Modern Physics for Non-Scientists",
            "popularity": 0.6
        },
        {
            "id": 67475,
            "original_name": "The Secrets of Quantum Physics",
            "popularity": 1.175
        },
        {
            "id": 76580,
            "original_name": "Let's Get Physical",
            "popularity": 1.4
        },
        {
            "id": 80319,
            "original_name": "Crash Course Anatomy & Physiology",
            "popularity": 1.152
        },
        {
            "id": 80323,
            "original_name": "Crash Course Physics",
            "popularity": 0.6
        },
        {
            "id": 82923,
            "original_name": "Telekolleg Physik",
            "popularity": 0.6
        },
        {
            "id": 86720,
            "original_name": "Sound Waves: The Symphony of Physics",
            "popularity": 0.849
        },
        {
            "id": 95584,
            "original_name": "The Physics of Light",
            "popularity": 0.6
        },
        {
            "id": 102946,
            "original_name": "Die Geheimnisse der Quantenphysik",
            "popularity": 0.6
        },
        {
            "id": 105297,
            "original_name": "Th\u1ea7n Y Ho\u00e0ng Ph\u1ee7 - Imperial Physician Huangfu",
            "popularity": 0.6
        },
        {
            "id": 119181,
            "original_name": "Physical",
            "popularity": 44.451
        },
        {
            "id": 124591,
            "original_name": "100SekundenPhysik",
            "popularity": 3.693
        },
        {
            "id": 130749,
            "original_name": "Elements of Physics",
            "popularity": 0.6
        },
        {
            "id": 133628,
            "original_name": "Die Physik Albert Einsteins",
            "popularity": 1.215
        },
        {
            "id": 134372,
            "original_name": "Standard Deviants School: Physics",
            "popularity": 0.6
        }
    ]
}