{
    "data": [
        {
            "id": 3121,
            "original_name": "Svenska dialektmysterier",
            "popularity": 0.6
        }
    ],
    "relations": [],
    "top20": [
        {
            "id": 3121,
            "original_name": "Svenska dialektmysterier",
            "popularity": 0.6
        }
    ]
}