{
    "data": [
        {
            "id": 7774,
            "original_name": "Britain's Got the Pop Factor... and Possibly a New Celebrity Jesus Christ Soapstar Superstar Strictly on Ice",
            "popularity": 1.171
        },
        {
            "id": 64941,
            "original_name": "What Could Possibly Go Wrong?",
            "popularity": 0.6
        },
        {
            "id": 131321,
            "original_name": "Incredibly Small World",
            "popularity": 0.6
        },
        {
            "id": 133103,
            "original_name": "The Incredibly Strange Film Show",
            "popularity": 0.6
        }
    ],
    "relations": [],
    "top20": [
        {
            "id": 7774,
            "original_name": "Britain's Got the Pop Factor... and Possibly a New Celebrity Jesus Christ Soapstar Superstar Strictly on Ice",
            "popularity": 1.171
        },
        {
            "id": 64941,
            "original_name": "What Could Possibly Go Wrong?",
            "popularity": 0.6
        },
        {
            "id": 131321,
            "original_name": "Incredibly Small World",
            "popularity": 0.6
        },
        {
            "id": 133103,
            "original_name": "The Incredibly Strange Film Show",
            "popularity": 0.6
        }
    ]
}