{
    "data": [
        {
            "id": 41815,
            "original_name": "Tropicaliente",
            "popularity": 4.138
        },
        {
            "id": 69036,
            "original_name": "Drammi medicali",
            "popularity": 0.6
        }
    ],
    "relations": [],
    "top20": [
        {
            "id": 41815,
            "original_name": "Tropicaliente",
            "popularity": 4.138
        },
        {
            "id": 69036,
            "original_name": "Drammi medicali",
            "popularity": 0.6
        }
    ]
}