{
    "data": [
        {
            "id": 36510,
            "original_name": "Americatown",
            "popularity": 0.6
        },
        {
            "id": 115941,
            "original_name": "Mord in Genua \u2013 Ein Fall f\u00fcr Petra Delicato",
            "popularity": 0.84
        },
        {
            "id": 125945,
            "original_name": "The Vindicators",
            "popularity": 0.6
        }
    ],
    "relations": [],
    "top20": [
        {
            "id": 36510,
            "original_name": "Americatown",
            "popularity": 0.6
        },
        {
            "id": 115941,
            "original_name": "Mord in Genua \u2013 Ein Fall f\u00fcr Petra Delicato",
            "popularity": 0.84
        },
        {
            "id": 125945,
            "original_name": "The Vindicators",
            "popularity": 0.6
        }
    ]
}