{
    "data": [
        {
            "id": 1022,
            "original_name": "Nickelodeon Guts",
            "popularity": 4.752
        },
        {
            "id": 4196,
            "original_name": "Nickelodeon Splat!",
            "popularity": 0.6
        },
        {
            "id": 6758,
            "original_name": "Nickelodeon Arcade",
            "popularity": 8.604
        },
        {
            "id": 7994,
            "original_name": "Nickelodeon UK Kids' Choice Awards",
            "popularity": 0.6
        },
        {
            "id": 11561,
            "original_name": "Nickelodeon Robot Wars",
            "popularity": 0.6
        },
        {
            "id": 11847,
            "original_name": "Nickelodeon Launch Box",
            "popularity": 0.6
        },
        {
            "id": 12393,
            "original_name": "Nickelodeon SLAM!",
            "popularity": 0.6
        },
        {
            "id": 12661,
            "original_name": "Nickelodeon on CBS",
            "popularity": 0.6
        },
        {
            "id": 12953,
            "original_name": "Nickelodeon Australian Kids' Choice Awards",
            "popularity": 0.6
        },
        {
            "id": 18037,
            "original_name": "Nickelodeon Indonesia Kids' Choice Awards",
            "popularity": 0.6
        },
        {
            "id": 19894,
            "original_name": "Nickelodeon Philippines Kids' Choice Awards",
            "popularity": 0.6
        },
        {
            "id": 19968,
            "original_name": "You're on Nickelodeon, Charlie Brown",
            "popularity": 0.6
        },
        {
            "id": 20523,
            "original_name": "R U All That?: Nickelodeon's Search for the Funniest Kid in America",
            "popularity": 0.6
        },
        {
            "id": 31103,
            "original_name": "Nickelodeon All-Star Challenge",
            "popularity": 0.6
        },
        {
            "id": 45171,
            "original_name": "Nickelodeon Presents History and Heritage",
            "popularity": 0.6
        },
        {
            "id": 57209,
            "original_name": "Nickelodeon Special Edition",
            "popularity": 0.6
        },
        {
            "id": 105289,
            "original_name": "Nickelodeon's Unfiltered",
            "popularity": 2.543
        }
    ],
    "relations": [],
    "top20": [
        {
            "id": 1022,
            "original_name": "Nickelodeon Guts",
            "popularity": 4.752
        },
        {
            "id": 4196,
            "original_name": "Nickelodeon Splat!",
            "popularity": 0.6
        },
        {
            "id": 6758,
            "original_name": "Nickelodeon Arcade",
            "popularity": 8.604
        },
        {
            "id": 7994,
            "original_name": "Nickelodeon UK Kids' Choice Awards",
            "popularity": 0.6
        },
        {
            "id": 11561,
            "original_name": "Nickelodeon Robot Wars",
            "popularity": 0.6
        },
        {
            "id": 11847,
            "original_name": "Nickelodeon Launch Box",
            "popularity": 0.6
        },
        {
            "id": 12393,
            "original_name": "Nickelodeon SLAM!",
            "popularity": 0.6
        },
        {
            "id": 12661,
            "original_name": "Nickelodeon on CBS",
            "popularity": 0.6
        },
        {
            "id": 12953,
            "original_name": "Nickelodeon Australian Kids' Choice Awards",
            "popularity": 0.6
        },
        {
            "id": 18037,
            "original_name": "Nickelodeon Indonesia Kids' Choice Awards",
            "popularity": 0.6
        },
        {
            "id": 19894,
            "original_name": "Nickelodeon Philippines Kids' Choice Awards",
            "popularity": 0.6
        },
        {
            "id": 19968,
            "original_name": "You're on Nickelodeon, Charlie Brown",
            "popularity": 0.6
        },
        {
            "id": 20523,
            "original_name": "R U All That?: Nickelodeon's Search for the Funniest Kid in America",
            "popularity": 0.6
        },
        {
            "id": 31103,
            "original_name": "Nickelodeon All-Star Challenge",
            "popularity": 0.6
        },
        {
            "id": 45171,
            "original_name": "Nickelodeon Presents History and Heritage",
            "popularity": 0.6
        },
        {
            "id": 57209,
            "original_name": "Nickelodeon Special Edition",
            "popularity": 0.6
        },
        {
            "id": 105289,
            "original_name": "Nickelodeon's Unfiltered",
            "popularity": 2.543
        }
    ]
}