{
    "data": [
        {
            "id": 25282,
            "original_name": "Erasmus Microman",
            "popularity": 1.426
        },
        {
            "id": 54609,
            "original_name": "Micromater",
            "popularity": 0.6
        },
        {
            "id": 122973,
            "original_name": "Micromostri con Barbascura X",
            "popularity": 0.6
        }
    ],
    "relations": [],
    "top20": [
        {
            "id": 25282,
            "original_name": "Erasmus Microman",
            "popularity": 1.426
        },
        {
            "id": 54609,
            "original_name": "Micromater",
            "popularity": 0.6
        },
        {
            "id": 122973,
            "original_name": "Micromostri con Barbascura X",
            "popularity": 0.6
        }
    ]
}