{
    "data": [
        {
            "id": 1422,
            "original_name": "The Middle",
            "popularity": 32.951
        },
        {
            "id": 2004,
            "original_name": "Malcolm in the Middle",
            "popularity": 208.625
        },
        {
            "id": 7504,
            "original_name": "In the Middle of the City",
            "popularity": 0.6
        },
        {
            "id": 14771,
            "original_name": "Middlemarch",
            "popularity": 5.102
        },
        {
            "id": 15104,
            "original_name": "Middle Age Crazy",
            "popularity": 0.6
        },
        {
            "id": 15147,
            "original_name": "The Middleman",
            "popularity": 5.303
        },
        {
            "id": 15160,
            "original_name": "Mosaic: World News from the Middle East",
            "popularity": 0.6
        },
        {
            "id": 15739,
            "original_name": "Fiddley Foodle Bird",
            "popularity": 0.6
        },
        {
            "id": 20204,
            "original_name": "The Riddlers",
            "popularity": 0.84
        },
        {
            "id": 22908,
            "original_name": "Middlemen",
            "popularity": 0.6
        },
        {
            "id": 22984,
            "original_name": "Middle Ages",
            "popularity": 0.865
        },
        {
            "id": 23110,
            "original_name": "Hi Diddle Day",
            "popularity": 0.6
        },
        {
            "id": 23434,
            "original_name": "Fiddles, Cheats and Scams",
            "popularity": 0.6
        },
        {
            "id": 26847,
            "original_name": "Fiddlers Three",
            "popularity": 1.253
        },
        {
            "id": 27512,
            "original_name": "On the Fiddle?",
            "popularity": 0.6
        },
        {
            "id": 28540,
            "original_name": "Pig In The Middle",
            "popularity": 1.96
        },
        {
            "id": 33243,
            "original_name": "Hi Diddle Day",
            "popularity": 0.6
        },
        {
            "id": 37656,
            "original_name": "1066: The Battle for Middle Earth",
            "popularity": 2.864
        },
        {
            "id": 38509,
            "original_name": "Riddles of the Bible",
            "popularity": 0.84
        },
        {
            "id": 40323,
            "original_name": "Top Chef Middle East",
            "popularity": 0.6
        },
        {
            "id": 47697,
            "original_name": "Middle English",
            "popularity": 0.6
        },
        {
            "id": 49117,
            "original_name": "Middletown",
            "popularity": 0.6
        },
        {
            "id": 58479,
            "original_name": "Upper Middle Bogan",
            "popularity": 6.243
        },
        {
            "id": 60497,
            "original_name": "Golden Fiddles",
            "popularity": 0.6
        },
        {
            "id": 61521,
            "original_name": "Middle of Reality",
            "popularity": 0.6
        },
        {
            "id": 65291,
            "original_name": "Stuck in the Middle",
            "popularity": 17.917
        },
        {
            "id": 67768,
            "original_name": "Ross Kemp: Middle East",
            "popularity": 1.129
        },
        {
            "id": 67893,
            "original_name": "Project Runway Middle East",
            "popularity": 0.6
        },
        {
            "id": 77592,
            "original_name": "Riddle of the Skies",
            "popularity": 0.6
        },
        {
            "id": 77893,
            "original_name": "Curious Minds: Middle East",
            "popularity": 0.6
        },
        {
            "id": 94869,
            "original_name": "Nigel Slater's Middle East",
            "popularity": 0.6
        },
        {
            "id": 95830,
            "original_name": "Middle School Moguls",
            "popularity": 1.924
        },
        {
            "id": 96226,
            "original_name": "Middle Ground",
            "popularity": 0.6
        },
        {
            "id": 96504,
            "original_name": "Xavier Riddle and the Secret Museum",
            "popularity": 0.759
        },
        {
            "id": 97229,
            "original_name": "Modern Warfare: Wars in the Middle East Collection",
            "popularity": 0.6
        },
        {
            "id": 102349,
            "original_name": "Middleditch & Schwartz",
            "popularity": 1.23
        },
        {
            "id": 102853,
            "original_name": "Wildest Middle East",
            "popularity": 3.737
        },
        {
            "id": 104306,
            "original_name": "TED-Ed RIDDLES",
            "popularity": 0.6
        },
        {
            "id": 111626,
            "original_name": "John Torode's Middle East",
            "popularity": 0.6
        },
        {
            "id": 112111,
            "original_name": "Murder on Middle Beach",
            "popularity": 1.657
        },
        {
            "id": 113782,
            "original_name": "Man in the Middle",
            "popularity": 0.6
        },
        {
            "id": 119371,
            "original_name": "Ron Iddles: The Good Cop",
            "popularity": 0.836
        },
        {
            "id": 119855,
            "original_name": "Middlemarch",
            "popularity": 0.6
        },
        {
            "id": 123980,
            "original_name": "Inside the Middle East",
            "popularity": 1.383
        },
        {
            "id": 127727,
            "original_name": "Middlemost Post",
            "popularity": 4.279
        },
        {
            "id": 130630,
            "original_name": "Border Country:The Story of Britain's Lost Middleland",
            "popularity": 0.6
        },
        {
            "id": 131228,
            "original_name": "Homicide: With Ron Iddles",
            "popularity": 3.837
        },
        {
            "id": 132196,
            "original_name": "Einstein's Quantum Riddle",
            "popularity": 0.6
        },
        {
            "id": 132426,
            "original_name": "Riddle of the Bones: Gender Revolution",
            "popularity": 0.6
        },
        {
            "id": 136785,
            "original_name": "Ant Middleton & Rebel Wilson: Straight Talking",
            "popularity": 0.84
        },
        {
            "id": 136793,
            "original_name": "Middle School Maddox",
            "popularity": 0.6
        }
    ],
    "relations": [
        {
            "character": "iddlem"
        },
        {
            "character": "iddley"
        },
        {
            "character": "iddler"
        },
        {
            "character": "iddles"
        },
        {
            "character": "iddle?"
        },
        {
            "character": "iddlet"
        },
        {
            "character": "iddled"
        },
        {
            "character": "iddlel"
        }
    ],
    "top20": [
        {
            "id": 2004,
            "original_name": "Malcolm in the Middle",
            "popularity": 208.625
        },
        {
            "id": 1422,
            "original_name": "The Middle",
            "popularity": 32.951
        },
        {
            "id": 65291,
            "original_name": "Stuck in the Middle",
            "popularity": 17.917
        },
        {
            "id": 58479,
            "original_name": "Upper Middle Bogan",
            "popularity": 6.243
        },
        {
            "id": 15147,
            "original_name": "The Middleman",
            "popularity": 5.303
        },
        {
            "id": 14771,
            "original_name": "Middlemarch",
            "popularity": 5.102
        },
        {
            "id": 127727,
            "original_name": "Middlemost Post",
            "popularity": 4.279
        },
        {
            "id": 131228,
            "original_name": "Homicide: With Ron Iddles",
            "popularity": 3.837
        },
        {
            "id": 102853,
            "original_name": "Wildest Middle East",
            "popularity": 3.737
        },
        {
            "id": 37656,
            "original_name": "1066: The Battle for Middle Earth",
            "popularity": 2.864
        },
        {
            "id": 28540,
            "original_name": "Pig In The Middle",
            "popularity": 1.96
        },
        {
            "id": 95830,
            "original_name": "Middle School Moguls",
            "popularity": 1.924
        },
        {
            "id": 112111,
            "original_name": "Murder on Middle Beach",
            "popularity": 1.657
        },
        {
            "id": 123980,
            "original_name": "Inside the Middle East",
            "popularity": 1.383
        },
        {
            "id": 26847,
            "original_name": "Fiddlers Three",
            "popularity": 1.253
        },
        {
            "id": 102349,
            "original_name": "Middleditch & Schwartz",
            "popularity": 1.23
        },
        {
            "id": 67768,
            "original_name": "Ross Kemp: Middle East",
            "popularity": 1.129
        },
        {
            "id": 22984,
            "original_name": "Middle Ages",
            "popularity": 0.865
        },
        {
            "id": 20204,
            "original_name": "The Riddlers",
            "popularity": 0.84
        },
        {
            "id": 38509,
            "original_name": "Riddles of the Bible",
            "popularity": 0.84
        }
    ]
}