{
    "data": [
        {
            "id": 28752,
            "original_name": "Shops, Robbers & Videotape",
            "popularity": 0.6
        },
        {
            "id": 59191,
            "original_name": "Videoteces",
            "popularity": 0.6
        },
        {
            "id": 70097,
            "original_name": "HideoTube",
            "popularity": 0.6
        }
    ],
    "relations": [],
    "top20": [
        {
            "id": 28752,
            "original_name": "Shops, Robbers & Videotape",
            "popularity": 0.6
        },
        {
            "id": 59191,
            "original_name": "Videoteces",
            "popularity": 0.6
        },
        {
            "id": 70097,
            "original_name": "HideoTube",
            "popularity": 0.6
        }
    ]
}