{
    "data": [
        {
            "id": 23425,
            "original_name": "Schmidteinander",
            "popularity": 1.709
        },
        {
            "id": 54100,
            "original_name": "Henover midten",
            "popularity": 0.6
        },
        {
            "id": 127767,
            "original_name": "De beskidte helte",
            "popularity": 0.6
        }
    ],
    "relations": [],
    "top20": [
        {
            "id": 23425,
            "original_name": "Schmidteinander",
            "popularity": 1.709
        },
        {
            "id": 54100,
            "original_name": "Henover midten",
            "popularity": 0.6
        },
        {
            "id": 127767,
            "original_name": "De beskidte helte",
            "popularity": 0.6
        }
    ]
}