{
    "data": [
        {
            "id": 9647,
            "original_name": "The Befrienders",
            "popularity": 0.84
        },
        {
            "id": 12326,
            "original_name": "V\u00e4nner och fiender",
            "popularity": 0.6
        },
        {
            "id": 29974,
            "original_name": "Vrienden voor het Leven",
            "popularity": 1.086
        },
        {
            "id": 30260,
            "original_name": "Vrienden houden huis",
            "popularity": 0.6
        },
        {
            "id": 38659,
            "original_name": "VriendenLoterij Holland\u2019s Next Millionaire",
            "popularity": 0.6
        },
        {
            "id": 51926,
            "original_name": "Fiendens fiende",
            "popularity": 1.76
        },
        {
            "id": 57175,
            "original_name": "Venner og fiender",
            "popularity": 0.6
        },
        {
            "id": 60821,
            "original_name": "Die Familiendetektivin",
            "popularity": 2.155
        },
        {
            "id": 74152,
            "original_name": "Foute Vrienden",
            "popularity": 0.632
        },
        {
            "id": 81114,
            "original_name": "God Friended Me",
            "popularity": 30.833
        },
        {
            "id": 96667,
            "original_name": "Dienders",
            "popularity": 0.6
        },
        {
            "id": 125175,
            "original_name": "De Tiende van Tijl",
            "popularity": 0.601
        }
    ],
    "relations": [],
    "top20": [
        {
            "id": 9647,
            "original_name": "The Befrienders",
            "popularity": 0.84
        },
        {
            "id": 12326,
            "original_name": "V\u00e4nner och fiender",
            "popularity": 0.6
        },
        {
            "id": 29974,
            "original_name": "Vrienden voor het Leven",
            "popularity": 1.086
        },
        {
            "id": 30260,
            "original_name": "Vrienden houden huis",
            "popularity": 0.6
        },
        {
            "id": 38659,
            "original_name": "VriendenLoterij Holland\u2019s Next Millionaire",
            "popularity": 0.6
        },
        {
            "id": 51926,
            "original_name": "Fiendens fiende",
            "popularity": 1.76
        },
        {
            "id": 57175,
            "original_name": "Venner og fiender",
            "popularity": 0.6
        },
        {
            "id": 60821,
            "original_name": "Die Familiendetektivin",
            "popularity": 2.155
        },
        {
            "id": 74152,
            "original_name": "Foute Vrienden",
            "popularity": 0.632
        },
        {
            "id": 81114,
            "original_name": "God Friended Me",
            "popularity": 30.833
        },
        {
            "id": 96667,
            "original_name": "Dienders",
            "popularity": 0.6
        },
        {
            "id": 125175,
            "original_name": "De Tiende van Tijl",
            "popularity": 0.601
        }
    ]
}