{
    "data": [
        {
            "id": 17816,
            "original_name": "Carabinieri - Sotto copertura",
            "popularity": 0.983
        },
        {
            "id": 22456,
            "original_name": "Wie is er Nieuwsgierig?",
            "popularity": 0.6
        },
        {
            "id": 38376,
            "original_name": "Tailgate Warriors with Guy Fieri",
            "popularity": 0.6
        },
        {
            "id": 38466,
            "original_name": "Piets mooiste kerstversiering",
            "popularity": 0.6
        },
        {
            "id": 40887,
            "original_name": "Carabinieri",
            "popularity": 10.691
        },
        {
            "id": 41092,
            "original_name": "Tierisch K\u00f6lsch",
            "popularity": 0.6
        },
        {
            "id": 41522,
            "original_name": "Nati ieri",
            "popularity": 1.139
        },
        {
            "id": 78671,
            "original_name": "Pompei Ieri Oggi e Domani",
            "popularity": 0.672
        },
        {
            "id": 96172,
            "original_name": "Bruno Barbieri - 4 hotel",
            "popularity": 1.488
        },
        {
            "id": 98448,
            "original_name": "Prouesses d'ingenierie",
            "popularity": 0.6
        },
        {
            "id": 111442,
            "original_name": "I Cavalieri di Castelcorvo",
            "popularity": 1.865
        },
        {
            "id": 113354,
            "original_name": "Tierisch gut!",
            "popularity": 0.622
        },
        {
            "id": 134193,
            "original_name": "Tierische Kumpel",
            "popularity": 0.6
        }
    ],
    "relations": [],
    "top20": [
        {
            "id": 17816,
            "original_name": "Carabinieri - Sotto copertura",
            "popularity": 0.983
        },
        {
            "id": 22456,
            "original_name": "Wie is er Nieuwsgierig?",
            "popularity": 0.6
        },
        {
            "id": 38376,
            "original_name": "Tailgate Warriors with Guy Fieri",
            "popularity": 0.6
        },
        {
            "id": 38466,
            "original_name": "Piets mooiste kerstversiering",
            "popularity": 0.6
        },
        {
            "id": 40887,
            "original_name": "Carabinieri",
            "popularity": 10.691
        },
        {
            "id": 41092,
            "original_name": "Tierisch K\u00f6lsch",
            "popularity": 0.6
        },
        {
            "id": 41522,
            "original_name": "Nati ieri",
            "popularity": 1.139
        },
        {
            "id": 78671,
            "original_name": "Pompei Ieri Oggi e Domani",
            "popularity": 0.672
        },
        {
            "id": 96172,
            "original_name": "Bruno Barbieri - 4 hotel",
            "popularity": 1.488
        },
        {
            "id": 98448,
            "original_name": "Prouesses d'ingenierie",
            "popularity": 0.6
        },
        {
            "id": 111442,
            "original_name": "I Cavalieri di Castelcorvo",
            "popularity": 1.865
        },
        {
            "id": 113354,
            "original_name": "Tierisch gut!",
            "popularity": 0.622
        },
        {
            "id": 134193,
            "original_name": "Tierische Kumpel",
            "popularity": 0.6
        }
    ]
}