{
    "data": [
        {
            "id": 104328,
            "original_name": "Vidas en riesgo",
            "popularity": 2.584
        }
    ],
    "relations": [],
    "top20": [
        {
            "id": 104328,
            "original_name": "Vidas en riesgo",
            "popularity": 2.584
        }
    ]
}