{
    "data": [
        {
            "id": 74,
            "original_name": "Fievel's American Tails",
            "popularity": 4.969
        },
        {
            "id": 35964,
            "original_name": "Knievel's Wild Ride",
            "popularity": 0.6
        }
    ],
    "relations": [],
    "top20": [
        {
            "id": 74,
            "original_name": "Fievel's American Tails",
            "popularity": 4.969
        },
        {
            "id": 35964,
            "original_name": "Knievel's Wild Ride",
            "popularity": 0.6
        }
    ]
}