{
    "data": [
        {
            "id": 136815,
            "original_name": "uired miFa1",
            "popularity": 0.6
        }
    ],
    "relations": [],
    "top20": [
        {
            "id": 136815,
            "original_name": "uired miFa1",
            "popularity": 0.6
        }
    ]
}