{
    "data": [
        {
            "id": 257,
            "original_name": "California Dreams",
            "popularity": 3.552
        },
        {
            "id": 1215,
            "original_name": "Californication",
            "popularity": 50.118
        },
        {
            "id": 3630,
            "original_name": "California Dreaming",
            "popularity": 0.6
        },
        {
            "id": 4657,
            "original_name": "California Fever",
            "popularity": 1.252
        },
        {
            "id": 5209,
            "original_name": "TruthQuest: California",
            "popularity": 0.6
        },
        {
            "id": 5960,
            "original_name": "The Californians",
            "popularity": 2.0
        },
        {
            "id": 8000,
            "original_name": "Going to California",
            "popularity": 3.766
        },
        {
            "id": 9520,
            "original_name": "California's Gold",
            "popularity": 0.6
        },
        {
            "id": 11782,
            "original_name": "California Connected",
            "popularity": 0.6
        },
        {
            "id": 12619,
            "original_name": "Northern California News",
            "popularity": 0.6
        },
        {
            "id": 14386,
            "original_name": "Open House with Gloria Hunniford",
            "popularity": 0.6
        },
        {
            "id": 15828,
            "original_name": "The California Raisin Show",
            "popularity": 1.614
        },
        {
            "id": 20807,
            "original_name": "California Heaven",
            "popularity": 0.6
        },
        {
            "id": 26920,
            "original_name": "A Death in California",
            "popularity": 2.316
        },
        {
            "id": 44040,
            "original_name": "Lifeguard! Southern California",
            "popularity": 0.6
        },
        {
            "id": 72410,
            "original_name": "California Love",
            "popularity": 0.6
        },
        {
            "id": 79900,
            "original_name": "West of the West: Tales From California's Channel Islands",
            "popularity": 0.6
        },
        {
            "id": 82374,
            "original_name": "Das kalifornische Quartett",
            "popularity": 0.909
        },
        {
            "id": 97946,
            "original_name": "Retorno a Lilifor",
            "popularity": 1.275
        },
        {
            "id": 98395,
            "original_name": "California Dreaming",
            "popularity": 0.6
        },
        {
            "id": 99187,
            "original_name": "Kalifornian kommando",
            "popularity": 3.374
        },
        {
            "id": 104241,
            "original_name": "California Cooking with Jessica Holmes",
            "popularity": 0.872
        },
        {
            "id": 130824,
            "original_name": "California Music Awards",
            "popularity": 0.6
        },
        {
            "id": 131804,
            "original_name": "California Dreamin'",
            "popularity": 0.84
        }
    ],
    "relations": [
        {
            "character": "iforn"
        },
        {
            "character": "iford"
        }
    ],
    "top20": [
        {
            "id": 1215,
            "original_name": "Californication",
            "popularity": 50.118
        },
        {
            "id": 8000,
            "original_name": "Going to California",
            "popularity": 3.766
        },
        {
            "id": 257,
            "original_name": "California Dreams",
            "popularity": 3.552
        },
        {
            "id": 99187,
            "original_name": "Kalifornian kommando",
            "popularity": 3.374
        },
        {
            "id": 26920,
            "original_name": "A Death in California",
            "popularity": 2.316
        },
        {
            "id": 5960,
            "original_name": "The Californians",
            "popularity": 2.0
        },
        {
            "id": 15828,
            "original_name": "The California Raisin Show",
            "popularity": 1.614
        },
        {
            "id": 97946,
            "original_name": "Retorno a Lilifor",
            "popularity": 1.275
        },
        {
            "id": 4657,
            "original_name": "California Fever",
            "popularity": 1.252
        },
        {
            "id": 82374,
            "original_name": "Das kalifornische Quartett",
            "popularity": 0.909
        },
        {
            "id": 104241,
            "original_name": "California Cooking with Jessica Holmes",
            "popularity": 0.872
        },
        {
            "id": 131804,
            "original_name": "California Dreamin'",
            "popularity": 0.84
        },
        {
            "id": 5209,
            "original_name": "TruthQuest: California",
            "popularity": 0.6
        },
        {
            "id": 44040,
            "original_name": "Lifeguard! Southern California",
            "popularity": 0.6
        },
        {
            "id": 20807,
            "original_name": "California Heaven",
            "popularity": 0.6
        },
        {
            "id": 11782,
            "original_name": "California Connected",
            "popularity": 0.6
        },
        {
            "id": 12619,
            "original_name": "Northern California News",
            "popularity": 0.6
        },
        {
            "id": 3630,
            "original_name": "California Dreaming",
            "popularity": 0.6
        },
        {
            "id": 14386,
            "original_name": "Open House with Gloria Hunniford",
            "popularity": 0.6
        },
        {
            "id": 9520,
            "original_name": "California's Gold",
            "popularity": 0.6
        }
    ]
}