{
    "data": [
        {
            "id": 70963,
            "original_name": "Nigeru Onna",
            "popularity": 0.6
        }
    ],
    "relations": [],
    "top20": [
        {
            "id": 70963,
            "original_name": "Nigeru Onna",
            "popularity": 0.6
        }
    ]
}