{
    "data": [
        {
            "id": 32621,
            "original_name": "The Nightshift",
            "popularity": 0.6
        },
        {
            "id": 108835,
            "original_name": "Paranormal Nightshift",
            "popularity": 0.731
        },
        {
            "id": 109362,
            "original_name": "LUKE! Die Greatnightshow",
            "popularity": 0.6
        },
        {
            "id": 116601,
            "original_name": "Nightshifters",
            "popularity": 0.6
        }
    ],
    "relations": [],
    "top20": [
        {
            "id": 32621,
            "original_name": "The Nightshift",
            "popularity": 0.6
        },
        {
            "id": 108835,
            "original_name": "Paranormal Nightshift",
            "popularity": 0.731
        },
        {
            "id": 109362,
            "original_name": "LUKE! Die Greatnightshow",
            "popularity": 0.6
        },
        {
            "id": 116601,
            "original_name": "Nightshifters",
            "popularity": 0.6
        }
    ]
}