{
    "data": [
        {
            "id": 672,
            "original_name": "Testigo",
            "popularity": 0.875
        },
        {
            "id": 3101,
            "original_name": "Eigo de Shabera Night",
            "popularity": 0.6
        },
        {
            "id": 4137,
            "original_name": "Amigo",
            "popularity": 0.6
        },
        {
            "id": 8009,
            "original_name": "Redigo",
            "popularity": 2.054
        },
        {
            "id": 12703,
            "original_name": "Amigos x Siempre",
            "popularity": 1.134
        },
        {
            "id": 12950,
            "original_name": "C\u00f3digo Postal",
            "popularity": 0.6
        },
        {
            "id": 15856,
            "original_name": "C\u00f3digo F.A.M.A.",
            "popularity": 0.6
        },
        {
            "id": 15987,
            "original_name": "Am\u00fa Amigos",
            "popularity": 0.6
        },
        {
            "id": 18022,
            "original_name": "El Enemigo",
            "popularity": 0.6
        },
        {
            "id": 18217,
            "original_name": "David Blaine: Vertigo",
            "popularity": 0.6
        },
        {
            "id": 20379,
            "original_name": "Indigotv",
            "popularity": 0.6
        },
        {
            "id": 21497,
            "original_name": "Just a Gigolo",
            "popularity": 0.6
        },
        {
            "id": 21780,
            "original_name": "Jugate Conmigo",
            "popularity": 0.6
        },
        {
            "id": 28870,
            "original_name": "Oshigoto Desu!",
            "popularity": 0.6
        },
        {
            "id": 32891,
            "original_name": "Sue\u00f1a Conmigo",
            "popularity": 0.6
        },
        {
            "id": 32959,
            "original_name": "El show de los sue\u00f1os (Per\u00fa): Amigos del alma",
            "popularity": 1.371
        },
        {
            "id": 36706,
            "original_name": "Saigo no Kazoku",
            "popularity": 0.862
        },
        {
            "id": 37661,
            "original_name": "Ni contigo ni sin ti",
            "popularity": 1.511
        },
        {
            "id": 38953,
            "original_name": "Gigolos",
            "popularity": 2.544
        },
        {
            "id": 42867,
            "original_name": "Baila Conmigo",
            "popularity": 0.6
        },
        {
            "id": 43666,
            "original_name": "Amigos",
            "popularity": 0.6
        },
        {
            "id": 45513,
            "original_name": "Firefighter! Daigo of Fire Company M",
            "popularity": 0.6
        },
        {
            "id": 48423,
            "original_name": "Saigon\u2014Year of the Cat",
            "popularity": 0.6
        },
        {
            "id": 53159,
            "original_name": "Amigos da On\u00e7a",
            "popularity": 0.6
        },
        {
            "id": 53301,
            "original_name": "V\u00e9rtigo",
            "popularity": 3.496
        },
        {
            "id": 58387,
            "original_name": "Wrestling From Marigold",
            "popularity": 0.6
        },
        {
            "id": 59309,
            "original_name": "Fud\u00eancio e Seus Amigos",
            "popularity": 0.6
        },
        {
            "id": 59764,
            "original_name": "The Igor Cassini Show",
            "popularity": 0.6
        },
        {
            "id": 60409,
            "original_name": "El Enemigo de Sandra",
            "popularity": 0.6
        },
        {
            "id": 64069,
            "original_name": "Narigota, la aventura del agua",
            "popularity": 0.6
        },
        {
            "id": 67190,
            "original_name": "Raymond y sus amigos",
            "popularity": 1.496
        },
        {
            "id": 67490,
            "original_name": "Despertar Contigo",
            "popularity": 4.68
        },
        {
            "id": 69821,
            "original_name": "Amigos Y Heroes",
            "popularity": 0.637
        },
        {
            "id": 70932,
            "original_name": "Cuando Vivas Conmigo",
            "popularity": 2.391
        },
        {
            "id": 72624,
            "original_name": "El castigo",
            "popularity": 0.773
        },
        {
            "id": 77122,
            "original_name": "Indigo Ignited",
            "popularity": 0.6
        },
        {
            "id": 77341,
            "original_name": "Enemigo \u00edntimo",
            "popularity": 72.691
        },
        {
            "id": 77649,
            "original_name": "Ven a Cenar Conmigo",
            "popularity": 1.602
        },
        {
            "id": 77740,
            "original_name": "C\u00f3digo fuego",
            "popularity": 0.871
        },
        {
            "id": 78582,
            "original_name": "Liga\u00e7\u00f5es Perigosas",
            "popularity": 0.659
        },
        {
            "id": 79754,
            "original_name": "Ven a cenar conmigo Gourmet Edition",
            "popularity": 1.832
        },
        {
            "id": 80894,
            "original_name": "Ven A Cenar Conmigo Summer Edition",
            "popularity": 0.6
        },
        {
            "id": 81489,
            "original_name": "Terre Indigo",
            "popularity": 1.4
        },
        {
            "id": 81936,
            "original_name": "Eight Go Rallying: The Road to Saigon",
            "popularity": 0.6
        },
        {
            "id": 82297,
            "original_name": "Un Extra\u00f1o Enemigo",
            "popularity": 3.711
        },
        {
            "id": 83725,
            "original_name": "Queridos Amigos",
            "popularity": 2.281
        },
        {
            "id": 84100,
            "original_name": "\u017digosani u reketu",
            "popularity": 1.9
        },
        {
            "id": 84482,
            "original_name": "The Real Marigold Hotel",
            "popularity": 2.702
        },
        {
            "id": 84484,
            "original_name": "The Real Marigold on Tour",
            "popularity": 1.23
        },
        {
            "id": 84678,
            "original_name": "Koi wa Ameagari no You ni: Pocket no Naka no Negaigoto",
            "popularity": 0.6
        },
        {
            "id": 89781,
            "original_name": "Apollo dans l'frigo",
            "popularity": 0.6
        },
        {
            "id": 91554,
            "original_name": "Me Quedo Contigo",
            "popularity": 0.6
        },
        {
            "id": 91998,
            "original_name": "Antigone 34",
            "popularity": 0.669
        },
        {
            "id": 92600,
            "original_name": "Mis amigos de siempre",
            "popularity": 2.062
        },
        {
            "id": 93030,
            "original_name": "3 Amigonauts",
            "popularity": 0.6
        },
        {
            "id": 93146,
            "original_name": "Fica Comigo",
            "popularity": 0.6
        },
        {
            "id": 93439,
            "original_name": "F\u00edsica - Professor Rodrigo",
            "popularity": 0.6
        },
        {
            "id": 93704,
            "original_name": "Trigonometry",
            "popularity": 3.695
        },
        {
            "id": 93809,
            "original_name": "Amigo's",
            "popularity": 2.518
        },
        {
            "id": 95009,
            "original_name": "Che. El Amigo de Siempre",
            "popularity": 0.6
        },
        {
            "id": 95498,
            "original_name": "Baila Comigo",
            "popularity": 1.731
        },
        {
            "id": 95533,
            "original_name": "Hissatsu Shigotonin",
            "popularity": 0.6
        },
        {
            "id": 96948,
            "original_name": "Amigos Improv\u00e1veis",
            "popularity": 1.4
        },
        {
            "id": 97811,
            "original_name": "M\u00e1s que amigos",
            "popularity": 0.945
        },
        {
            "id": 98726,
            "original_name": "La Grosse Rigolade !",
            "popularity": 0.912
        },
        {
            "id": 101052,
            "original_name": "Poligoneros",
            "popularity": 0.6
        },
        {
            "id": 101466,
            "original_name": "\u00a1Ahora caigo!",
            "popularity": 1.4
        },
        {
            "id": 101883,
            "original_name": "Hermanos y Enemigos (Petrovic y Divac)",
            "popularity": 0.6
        },
        {
            "id": 107183,
            "original_name": "Contigo al fin del mundo",
            "popularity": 0.6
        },
        {
            "id": 111580,
            "original_name": "American Dream: Backstage at 'Miss Saigon' with Eva Noblezada",
            "popularity": 6.768
        },
        {
            "id": 111931,
            "original_name": "Keigo Higashino Special for 3 consecutive weeks",
            "popularity": 0.6
        },
        {
            "id": 112150,
            "original_name": "Nivis: Amigos de otro mundo",
            "popularity": 1.207
        },
        {
            "id": 112477,
            "original_name": "Canta Comigo Teen",
            "popularity": 0.6
        },
        {
            "id": 113191,
            "original_name": "Fric-o-frigo",
            "popularity": 1.417
        },
        {
            "id": 115475,
            "original_name": "C\u00f3digo Rosa",
            "popularity": 0.6
        },
        {
            "id": 117584,
            "original_name": "Te sigo Amando",
            "popularity": 3.694
        },
        {
            "id": 117739,
            "original_name": "Me caigo de risa",
            "popularity": 1.302
        },
        {
            "id": 120992,
            "original_name": "Mi amigo hormiga",
            "popularity": 1.148
        },
        {
            "id": 121384,
            "original_name": "\u00cdndigo",
            "popularity": 0.6
        },
        {
            "id": 123056,
            "original_name": "El Aut\u00e9ntico Rodrigo Leal",
            "popularity": 0.6
        },
        {
            "id": 124141,
            "original_name": "Canta Comigo",
            "popularity": 0.6
        },
        {
            "id": 124542,
            "original_name": "Mundo dos Primos Em: A Vila dos Amigos",
            "popularity": 0.618
        },
        {
            "id": 124728,
            "original_name": "Fuego Amigo",
            "popularity": 0.6
        },
        {
            "id": 124784,
            "original_name": "Dupont de Ligonn\u00e8s, la s\u00e9rie",
            "popularity": 1.4
        },
        {
            "id": 125164,
            "original_name": "Contigo en la ma\u00f1ana",
            "popularity": 6.894
        },
        {
            "id": 125285,
            "original_name": "Conta Comigo",
            "popularity": 0.6
        },
        {
            "id": 126878,
            "original_name": "Igor et Olafe",
            "popularity": 1.4
        },
        {
            "id": 127585,
            "original_name": "American Gigolo",
            "popularity": 3.256
        },
        {
            "id": 127650,
            "original_name": "Meu Amigo Bussunda",
            "popularity": 4.02
        },
        {
            "id": 127816,
            "original_name": "DAIGO\u306e\uff01\u4e16\u754c\u304d\u307e\u3050\u308c\u30ea\u30e2\u30fc\u30c8\u30c4\u30a2\u30fc",
            "popularity": 0.6
        },
        {
            "id": 129217,
            "original_name": "Amigos siempre amigos",
            "popularity": 0.6
        },
        {
            "id": 131186,
            "original_name": "Testigo ocular",
            "popularity": 0.6
        },
        {
            "id": 134310,
            "original_name": "Mon frigo m'a dit",
            "popularity": 0.6
        },
        {
            "id": 135536,
            "original_name": "Contigo S\u00ed",
            "popularity": 40.086
        },
        {
            "id": 138997,
            "original_name": "Los amigos de Edu",
            "popularity": 8.294
        },
        {
            "id": 152306,
            "original_name": "Gli Amigos",
            "popularity": 5.379
        }
    ],
    "relations": [
        {
            "character": "igos"
        },
        {
            "character": "igot"
        },
        {
            "character": "igol"
        },
        {
            "character": "igon"
        },
        {
            "character": "igor"
        },
        {
            "character": "igo!"
        }
    ],
    "top20": [
        {
            "id": 77341,
            "original_name": "Enemigo \u00edntimo",
            "popularity": 72.691
        },
        {
            "id": 135536,
            "original_name": "Contigo S\u00ed",
            "popularity": 40.086
        },
        {
            "id": 138997,
            "original_name": "Los amigos de Edu",
            "popularity": 8.294
        },
        {
            "id": 125164,
            "original_name": "Contigo en la ma\u00f1ana",
            "popularity": 6.894
        },
        {
            "id": 111580,
            "original_name": "American Dream: Backstage at 'Miss Saigon' with Eva Noblezada",
            "popularity": 6.768
        },
        {
            "id": 152306,
            "original_name": "Gli Amigos",
            "popularity": 5.379
        },
        {
            "id": 67490,
            "original_name": "Despertar Contigo",
            "popularity": 4.68
        },
        {
            "id": 127650,
            "original_name": "Meu Amigo Bussunda",
            "popularity": 4.02
        },
        {
            "id": 82297,
            "original_name": "Un Extra\u00f1o Enemigo",
            "popularity": 3.711
        },
        {
            "id": 93704,
            "original_name": "Trigonometry",
            "popularity": 3.695
        },
        {
            "id": 117584,
            "original_name": "Te sigo Amando",
            "popularity": 3.694
        },
        {
            "id": 53301,
            "original_name": "V\u00e9rtigo",
            "popularity": 3.496
        },
        {
            "id": 127585,
            "original_name": "American Gigolo",
            "popularity": 3.256
        },
        {
            "id": 84482,
            "original_name": "The Real Marigold Hotel",
            "popularity": 2.702
        },
        {
            "id": 38953,
            "original_name": "Gigolos",
            "popularity": 2.544
        },
        {
            "id": 93809,
            "original_name": "Amigo's",
            "popularity": 2.518
        },
        {
            "id": 70932,
            "original_name": "Cuando Vivas Conmigo",
            "popularity": 2.391
        },
        {
            "id": 83725,
            "original_name": "Queridos Amigos",
            "popularity": 2.281
        },
        {
            "id": 92600,
            "original_name": "Mis amigos de siempre",
            "popularity": 2.062
        },
        {
            "id": 8009,
            "original_name": "Redigo",
            "popularity": 2.054
        }
    ]
}