{
    "data": [
        {
            "id": 52340,
            "original_name": "To paihnidi tis sygnomis",
            "popularity": 0.6
        },
        {
            "id": 66553,
            "original_name": "Beutolom\u00e4us und der doppelte Weihnachtsmann",
            "popularity": 1.384
        },
        {
            "id": 71246,
            "original_name": "Beutolom\u00e4us sucht den Weihnachtsmann",
            "popularity": 1.126
        },
        {
            "id": 95536,
            "original_name": "\"Fr\u00f6hliche Weihnachten\" mit Herbert und Schnipsi",
            "popularity": 0.6
        },
        {
            "id": 112538,
            "original_name": "\u00dcberWeihnachten",
            "popularity": 4.534
        },
        {
            "id": 114060,
            "original_name": "Weihnachten mit der Augsburger Puppenkiste",
            "popularity": 0.6
        },
        {
            "id": 117409,
            "original_name": "Weihnachten mit Joko & Klaas",
            "popularity": 1.385
        },
        {
            "id": 118565,
            "original_name": "Die sch\u00f6nsten Weihnachts-Hits",
            "popularity": 0.6
        },
        {
            "id": 131130,
            "original_name": "Beutolom\u00e4us und der wahre Weihnachtsmann",
            "popularity": 0.6
        }
    ],
    "relations": [],
    "top20": [
        {
            "id": 52340,
            "original_name": "To paihnidi tis sygnomis",
            "popularity": 0.6
        },
        {
            "id": 66553,
            "original_name": "Beutolom\u00e4us und der doppelte Weihnachtsmann",
            "popularity": 1.384
        },
        {
            "id": 71246,
            "original_name": "Beutolom\u00e4us sucht den Weihnachtsmann",
            "popularity": 1.126
        },
        {
            "id": 95536,
            "original_name": "\"Fr\u00f6hliche Weihnachten\" mit Herbert und Schnipsi",
            "popularity": 0.6
        },
        {
            "id": 112538,
            "original_name": "\u00dcberWeihnachten",
            "popularity": 4.534
        },
        {
            "id": 114060,
            "original_name": "Weihnachten mit der Augsburger Puppenkiste",
            "popularity": 0.6
        },
        {
            "id": 117409,
            "original_name": "Weihnachten mit Joko & Klaas",
            "popularity": 1.385
        },
        {
            "id": 118565,
            "original_name": "Die sch\u00f6nsten Weihnachts-Hits",
            "popularity": 0.6
        },
        {
            "id": 131130,
            "original_name": "Beutolom\u00e4us und der wahre Weihnachtsmann",
            "popularity": 0.6
        }
    ]
}