{
    "data": [
        {
            "id": 23825,
            "original_name": "Ikbenwiedu",
            "popularity": 0.6
        },
        {
            "id": 69510,
            "original_name": "Musikbilen",
            "popularity": 0.6
        },
        {
            "id": 80429,
            "original_name": "Klikbeet",
            "popularity": 0.6
        },
        {
            "id": 93689,
            "original_name": "Den tikkende plastikbombe",
            "popularity": 0.6
        },
        {
            "id": 135802,
            "original_name": "Politikbyr\u00e5n",
            "popularity": 0.801
        }
    ],
    "relations": [],
    "top20": [
        {
            "id": 23825,
            "original_name": "Ikbenwiedu",
            "popularity": 0.6
        },
        {
            "id": 69510,
            "original_name": "Musikbilen",
            "popularity": 0.6
        },
        {
            "id": 80429,
            "original_name": "Klikbeet",
            "popularity": 0.6
        },
        {
            "id": 93689,
            "original_name": "Den tikkende plastikbombe",
            "popularity": 0.6
        },
        {
            "id": 135802,
            "original_name": "Politikbyr\u00e5n",
            "popularity": 0.801
        }
    ]
}