{
    "data": [
        {
            "id": 90715,
            "original_name": "Kongsvikfamiliene",
            "popularity": 0.6
        }
    ],
    "relations": [],
    "top20": [
        {
            "id": 90715,
            "original_name": "Kongsvikfamiliene",
            "popularity": 0.6
        }
    ]
}