{
    "data": [
        {
            "id": 8877,
            "original_name": "Tikkabilla",
            "popularity": 0.6
        },
        {
            "id": 36164,
            "original_name": "Yamada Ikka no Shinbou",
            "popularity": 0.841
        },
        {
            "id": 49100,
            "original_name": "Dikkat \u015eahan \u00c7\u0131kabilir",
            "popularity": 0.6
        },
        {
            "id": 53739,
            "original_name": "P\u00fcr Dikkat",
            "popularity": 0.6
        },
        {
            "id": 53965,
            "original_name": "Kikkassen",
            "popularity": 0.6
        },
        {
            "id": 54986,
            "original_name": "Suuri seikkailu",
            "popularity": 0.6
        }
    ],
    "relations": [],
    "top20": [
        {
            "id": 8877,
            "original_name": "Tikkabilla",
            "popularity": 0.6
        },
        {
            "id": 36164,
            "original_name": "Yamada Ikka no Shinbou",
            "popularity": 0.841
        },
        {
            "id": 49100,
            "original_name": "Dikkat \u015eahan \u00c7\u0131kabilir",
            "popularity": 0.6
        },
        {
            "id": 53739,
            "original_name": "P\u00fcr Dikkat",
            "popularity": 0.6
        },
        {
            "id": 53965,
            "original_name": "Kikkassen",
            "popularity": 0.6
        },
        {
            "id": 54986,
            "original_name": "Suuri seikkailu",
            "popularity": 0.6
        }
    ]
}