{
    "data": [
        {
            "id": 6723,
            "original_name": "Camp Wilder",
            "popularity": 3.655
        },
        {
            "id": 8852,
            "original_name": "The Great Gildersleeve",
            "popularity": 0.6
        },
        {
            "id": 10938,
            "original_name": "Bob the Builder",
            "popularity": 41.522
        },
        {
            "id": 11162,
            "original_name": "Lorne Greene's New Wilderness",
            "popularity": 1.511
        },
        {
            "id": 16298,
            "original_name": "Something Wilder",
            "popularity": 3.415
        },
        {
            "id": 16758,
            "original_name": "Winston Churchill: The Wilderness Years",
            "popularity": 2.001
        },
        {
            "id": 22629,
            "original_name": "Blue Wilderness",
            "popularity": 0.6
        },
        {
            "id": 23438,
            "original_name": "Wilderness Explored",
            "popularity": 0.6
        },
        {
            "id": 24567,
            "original_name": "Cowboy Builders",
            "popularity": 0.6
        },
        {
            "id": 26591,
            "original_name": "Megabuilders",
            "popularity": 0.6
        },
        {
            "id": 28640,
            "original_name": "Wilderness Road",
            "popularity": 0.6
        },
        {
            "id": 28784,
            "original_name": "The Great Gildersleeve",
            "popularity": 4.068
        },
        {
            "id": 30057,
            "original_name": "Dream Builders",
            "popularity": 0.6
        },
        {
            "id": 31421,
            "original_name": "Ray Mears' Northern Wilderness",
            "popularity": 0.6
        },
        {
            "id": 35574,
            "original_name": "Wilderness",
            "popularity": 1.4
        },
        {
            "id": 37200,
            "original_name": "Ultimate Power Builders",
            "popularity": 0.6
        },
        {
            "id": 39266,
            "original_name": "Mega Builders",
            "popularity": 1.739
        },
        {
            "id": 40492,
            "original_name": "Bilder, die die Welt bewegten",
            "popularity": 1.4
        },
        {
            "id": 41314,
            "original_name": "Wilderness Love",
            "popularity": 0.6
        },
        {
            "id": 41591,
            "original_name": "Viking Wilderness",
            "popularity": 0.6
        },
        {
            "id": 42663,
            "original_name": "Wilder Westen inclusive",
            "popularity": 1.01
        },
        {
            "id": 44392,
            "original_name": "Bob the Builder: Build It and They Will Come",
            "popularity": 0.6
        },
        {
            "id": 44396,
            "original_name": "Bob the Builder: New to the Crew",
            "popularity": 1.565
        },
        {
            "id": 45148,
            "original_name": "Model Suit Gunpla Builders Beginning G",
            "popularity": 0.635
        },
        {
            "id": 55415,
            "original_name": "Album - Bilder eines Jahres",
            "popularity": 2.108
        },
        {
            "id": 55842,
            "original_name": "The Boffin, The Builder, The Bombardier",
            "popularity": 0.6
        },
        {
            "id": 62065,
            "original_name": "Wilder Kaiser",
            "popularity": 1.3
        },
        {
            "id": 62300,
            "original_name": "Abenteuer Wilder Westen",
            "popularity": 0.6
        },
        {
            "id": 63133,
            "original_name": "Engadiner Bilderbogen",
            "popularity": 0.6
        },
        {
            "id": 64866,
            "original_name": "American Dream Builders",
            "popularity": 0.6
        },
        {
            "id": 65737,
            "original_name": "Tilder",
            "popularity": 0.6
        },
        {
            "id": 65742,
            "original_name": "Bodo B\u00e4r: Die sch\u00f6nsten Bilderbuch-Filme",
            "popularity": 0.6
        },
        {
            "id": 66766,
            "original_name": "Barnwood Builders",
            "popularity": 5.489
        },
        {
            "id": 73741,
            "original_name": "Wilder Planet",
            "popularity": 0.6
        },
        {
            "id": 74921,
            "original_name": "Bilderbuch",
            "popularity": 2.02
        },
        {
            "id": 75816,
            "original_name": "Wilder",
            "popularity": 1.663
        },
        {
            "id": 80739,
            "original_name": "Empire Builders",
            "popularity": 0.6
        },
        {
            "id": 81473,
            "original_name": "Europas wilder Osten",
            "popularity": 0.6
        },
        {
            "id": 83198,
            "original_name": "Mannsbilder",
            "popularity": 0.6
        },
        {
            "id": 83710,
            "original_name": "Carigiet und Ch\u00f6nz Bilderb\u00fccher",
            "popularity": 0.6
        },
        {
            "id": 83711,
            "original_name": "Carigiet und Ch\u00f6nz Bilderb\u00fccher",
            "popularity": 0.6
        },
        {
            "id": 85939,
            "original_name": "Wilderness Walks with Ray Mears",
            "popularity": 0.6
        },
        {
            "id": 86837,
            "original_name": "Spaniens wilder S\u00fcden",
            "popularity": 0.6
        },
        {
            "id": 90466,
            "original_name": "Billy Wilder, wie haben Sie's gemacht?",
            "popularity": 0.84
        },
        {
            "id": 92557,
            "original_name": "The Great Canadian Wilderness",
            "popularity": 0.6
        },
        {
            "id": 94368,
            "original_name": "Wilder Rhein",
            "popularity": 0.6
        },
        {
            "id": 95872,
            "original_name": "I Witness: Wilderness Quest",
            "popularity": 0.6
        },
        {
            "id": 95970,
            "original_name": "Secrets of the Pyramid Builders",
            "popularity": 0.6
        },
        {
            "id": 97468,
            "original_name": "Today's Builder",
            "popularity": 1.362
        },
        {
            "id": 98552,
            "original_name": "The Castle Builders",
            "popularity": 0.6
        },
        {
            "id": 99658,
            "original_name": "Schottlands wilder Norden",
            "popularity": 0.6
        },
        {
            "id": 102343,
            "original_name": "Win the Wilderness: Alaska",
            "popularity": 1.291
        },
        {
            "id": 106304,
            "original_name": "Menschen, Bilder, Emotionen",
            "popularity": 0.6
        },
        {
            "id": 107597,
            "original_name": "A Wilderness of Error",
            "popularity": 1.111
        },
        {
            "id": 114431,
            "original_name": "Europe's Great Wilderness",
            "popularity": 0.6
        },
        {
            "id": 116571,
            "original_name": "Australian Wilderness with Ray Mears",
            "popularity": 0.851
        },
        {
            "id": 118229,
            "original_name": "M\u00fcnchner Bilderbogen",
            "popularity": 0.6
        },
        {
            "id": 118466,
            "original_name": "Drive (Notes from the Wilderness)",
            "popularity": 0.6
        },
        {
            "id": 120925,
            "original_name": "World's Biggest Shipbuilders",
            "popularity": 0.6
        },
        {
            "id": 124710,
            "original_name": "Nightmare Builders Next Door",
            "popularity": 0.6
        },
        {
            "id": 128233,
            "original_name": "Weibsbilder",
            "popularity": 0.6
        },
        {
            "id": 131880,
            "original_name": "Terra X - Wilder Planet",
            "popularity": 0.6
        },
        {
            "id": 132062,
            "original_name": "De Nieuwe Wildernis",
            "popularity": 0.6
        },
        {
            "id": 136053,
            "original_name": "Inside Wilder vs Fury III",
            "popularity": 0.6
        },
        {
            "id": 136566,
            "original_name": "The Wilderness Years",
            "popularity": 0.6
        },
        {
            "id": 137452,
            "original_name": "Scotland: Escape To The Wilderness",
            "popularity": 1.02
        }
    ],
    "relations": [
        {
            "character": "ilders"
        },
        {
            "character": "ildern"
        },
        {
            "character": "ilderb"
        }
    ],
    "top20": [
        {
            "id": 10938,
            "original_name": "Bob the Builder",
            "popularity": 41.522
        },
        {
            "id": 66766,
            "original_name": "Barnwood Builders",
            "popularity": 5.489
        },
        {
            "id": 28784,
            "original_name": "The Great Gildersleeve",
            "popularity": 4.068
        },
        {
            "id": 6723,
            "original_name": "Camp Wilder",
            "popularity": 3.655
        },
        {
            "id": 16298,
            "original_name": "Something Wilder",
            "popularity": 3.415
        },
        {
            "id": 55415,
            "original_name": "Album - Bilder eines Jahres",
            "popularity": 2.108
        },
        {
            "id": 74921,
            "original_name": "Bilderbuch",
            "popularity": 2.02
        },
        {
            "id": 16758,
            "original_name": "Winston Churchill: The Wilderness Years",
            "popularity": 2.001
        },
        {
            "id": 39266,
            "original_name": "Mega Builders",
            "popularity": 1.739
        },
        {
            "id": 75816,
            "original_name": "Wilder",
            "popularity": 1.663
        },
        {
            "id": 44396,
            "original_name": "Bob the Builder: New to the Crew",
            "popularity": 1.565
        },
        {
            "id": 11162,
            "original_name": "Lorne Greene's New Wilderness",
            "popularity": 1.511
        },
        {
            "id": 35574,
            "original_name": "Wilderness",
            "popularity": 1.4
        },
        {
            "id": 40492,
            "original_name": "Bilder, die die Welt bewegten",
            "popularity": 1.4
        },
        {
            "id": 97468,
            "original_name": "Today's Builder",
            "popularity": 1.362
        },
        {
            "id": 62065,
            "original_name": "Wilder Kaiser",
            "popularity": 1.3
        },
        {
            "id": 102343,
            "original_name": "Win the Wilderness: Alaska",
            "popularity": 1.291
        },
        {
            "id": 107597,
            "original_name": "A Wilderness of Error",
            "popularity": 1.111
        },
        {
            "id": 137452,
            "original_name": "Scotland: Escape To The Wilderness",
            "popularity": 1.02
        },
        {
            "id": 42663,
            "original_name": "Wilder Westen inclusive",
            "popularity": 1.01
        }
    ]
}