{
    "data": [
        {
            "id": 49681,
            "original_name": "Yildizlarin altinda",
            "popularity": 0.6
        },
        {
            "id": 49732,
            "original_name": "Super yildiz",
            "popularity": 0.6
        }
    ],
    "relations": [],
    "top20": [
        {
            "id": 49681,
            "original_name": "Yildizlarin altinda",
            "popularity": 0.6
        },
        {
            "id": 49732,
            "original_name": "Super yildiz",
            "popularity": 0.6
        }
    ]
}