{
    "data": [
        {
            "id": 29370,
            "original_name": "Joseph Schildkraut Presents",
            "popularity": 0.6
        }
    ],
    "relations": [],
    "top20": [
        {
            "id": 29370,
            "original_name": "Joseph Schildkraut Presents",
            "popularity": 0.6
        }
    ]
}