{
    "data": [
        {
            "id": 8515,
            "original_name": "Wildlife SOS",
            "popularity": 0.6
        },
        {
            "id": 8681,
            "original_name": "BBC Wildlife Specials",
            "popularity": 1.96
        },
        {
            "id": 8683,
            "original_name": "Great Wildlife Moments",
            "popularity": 0.6
        },
        {
            "id": 14871,
            "original_name": "Audubon Wildlife Theatre",
            "popularity": 0.6
        },
        {
            "id": 15952,
            "original_name": "Outback Wildlife Rescue",
            "popularity": 0.6
        },
        {
            "id": 16095,
            "original_name": "Wildlife Jams",
            "popularity": 0.6
        },
        {
            "id": 17339,
            "original_name": "Wildlife on One",
            "popularity": 1.4
        },
        {
            "id": 19421,
            "original_name": "Bill Oddie's How to Watch Wildlife",
            "popularity": 0.756
        },
        {
            "id": 26671,
            "original_name": "Australian Wildlife",
            "popularity": 0.6
        },
        {
            "id": 40519,
            "original_name": "The Truth About Wildlife",
            "popularity": 0.6
        },
        {
            "id": 43041,
            "original_name": "Saving the Wildlife",
            "popularity": 0.6
        },
        {
            "id": 49147,
            "original_name": "Wildlife Safari In Ethiopia",
            "popularity": 0.6
        },
        {
            "id": 58051,
            "original_name": "Steve Irwin's Wildlife Warriors",
            "popularity": 0.6
        },
        {
            "id": 60599,
            "original_name": "Wildlife Diary",
            "popularity": 0.6
        },
        {
            "id": 68317,
            "original_name": "Texas Parks and Wildlife",
            "popularity": 0.862
        },
        {
            "id": 76854,
            "original_name": "Wildlife Warriors",
            "popularity": 0.6
        },
        {
            "id": 77851,
            "original_name": "Mark Emery's American Wildlife",
            "popularity": 0.6
        },
        {
            "id": 78061,
            "original_name": "Wildlife",
            "popularity": 0.6
        },
        {
            "id": 86114,
            "original_name": "Britain's Big Wildlife Revival",
            "popularity": 0.6
        },
        {
            "id": 90142,
            "original_name": "Islands in Time: A Wildlife Odyssey",
            "popularity": 0.887
        },
        {
            "id": 91957,
            "original_name": "Leo the Wildlife Ranger",
            "popularity": 0.6
        },
        {
            "id": 101060,
            "original_name": "Hope for Wildlife",
            "popularity": 0.629
        },
        {
            "id": 105185,
            "original_name": "Ted Sieger's Wildlife",
            "popularity": 0.6
        },
        {
            "id": 113334,
            "original_name": "Kenya Wildlife Diaries",
            "popularity": 0.6
        },
        {
            "id": 120150,
            "original_name": "Malawi Wildlife Rescue",
            "popularity": 0.6
        },
        {
            "id": 120773,
            "original_name": "Wildlife Icons",
            "popularity": 0.636
        },
        {
            "id": 122252,
            "original_name": "Wildlife Heroes",
            "popularity": 0.6
        },
        {
            "id": 136297,
            "original_name": "Wildlife S\u00fcdafrika",
            "popularity": 0.6
        }
    ],
    "relations": [],
    "top20": [
        {
            "id": 8681,
            "original_name": "BBC Wildlife Specials",
            "popularity": 1.96
        },
        {
            "id": 17339,
            "original_name": "Wildlife on One",
            "popularity": 1.4
        },
        {
            "id": 90142,
            "original_name": "Islands in Time: A Wildlife Odyssey",
            "popularity": 0.887
        },
        {
            "id": 68317,
            "original_name": "Texas Parks and Wildlife",
            "popularity": 0.862
        },
        {
            "id": 19421,
            "original_name": "Bill Oddie's How to Watch Wildlife",
            "popularity": 0.756
        },
        {
            "id": 120773,
            "original_name": "Wildlife Icons",
            "popularity": 0.636
        },
        {
            "id": 101060,
            "original_name": "Hope for Wildlife",
            "popularity": 0.629
        },
        {
            "id": 77851,
            "original_name": "Mark Emery's American Wildlife",
            "popularity": 0.6
        },
        {
            "id": 49147,
            "original_name": "Wildlife Safari In Ethiopia",
            "popularity": 0.6
        },
        {
            "id": 60599,
            "original_name": "Wildlife Diary",
            "popularity": 0.6
        },
        {
            "id": 43041,
            "original_name": "Saving the Wildlife",
            "popularity": 0.6
        },
        {
            "id": 40519,
            "original_name": "The Truth About Wildlife",
            "popularity": 0.6
        },
        {
            "id": 8683,
            "original_name": "Great Wildlife Moments",
            "popularity": 0.6
        },
        {
            "id": 76854,
            "original_name": "Wildlife Warriors",
            "popularity": 0.6
        },
        {
            "id": 58051,
            "original_name": "Steve Irwin's Wildlife Warriors",
            "popularity": 0.6
        },
        {
            "id": 14871,
            "original_name": "Audubon Wildlife Theatre",
            "popularity": 0.6
        },
        {
            "id": 26671,
            "original_name": "Australian Wildlife",
            "popularity": 0.6
        },
        {
            "id": 16095,
            "original_name": "Wildlife Jams",
            "popularity": 0.6
        },
        {
            "id": 15952,
            "original_name": "Outback Wildlife Rescue",
            "popularity": 0.6
        },
        {
            "id": 8515,
            "original_name": "Wildlife SOS",
            "popularity": 0.6
        }
    ]
}