{
    "data": [
        {
            "id": 7479,
            "original_name": "Speech of Silence",
            "popularity": 0.6
        },
        {
            "id": 12532,
            "original_name": "Minute of Silence",
            "popularity": 0.6
        },
        {
            "id": 12741,
            "original_name": "Amor en silencio",
            "popularity": 1.12
        },
        {
            "id": 18743,
            "original_name": "Break the Silence: Kids Against Child Abuse",
            "popularity": 0.6
        },
        {
            "id": 30878,
            "original_name": "Omert\u00e0, la loi du silence",
            "popularity": 1.785
        },
        {
            "id": 33267,
            "original_name": "The Silence",
            "popularity": 4.229
        },
        {
            "id": 37439,
            "original_name": "Silenci?",
            "popularity": 1.4
        },
        {
            "id": 42964,
            "original_name": "Fleet of silence",
            "popularity": 0.6
        },
        {
            "id": 47528,
            "original_name": "Bridge to Silence",
            "popularity": 0.6
        },
        {
            "id": 59857,
            "original_name": "The Silence",
            "popularity": 0.6
        },
        {
            "id": 60470,
            "original_name": "Fifty Years Of Silence",
            "popularity": 0.6
        },
        {
            "id": 64482,
            "original_name": "Game of Silence",
            "popularity": 3.993
        },
        {
            "id": 65500,
            "original_name": "La sonata del silencio",
            "popularity": 1.276
        },
        {
            "id": 66899,
            "original_name": "Broken Silence",
            "popularity": 1.495
        },
        {
            "id": 66945,
            "original_name": "Silencios de familia",
            "popularity": 0.604
        },
        {
            "id": 77216,
            "original_name": "Conspiracy of Silence",
            "popularity": 0.6
        },
        {
            "id": 77442,
            "original_name": "Regarde-moi un silence pour tout se dire",
            "popularity": 0.6
        },
        {
            "id": 82296,
            "original_name": "Silence, on joue!",
            "popularity": 12.014
        },
        {
            "id": 87192,
            "original_name": "Le Silence de l'\u00e9pervier",
            "popularity": 0.6
        },
        {
            "id": 93910,
            "original_name": "Conspiracy of Silence",
            "popularity": 0.6
        },
        {
            "id": 95427,
            "original_name": "ETA, el final del silencio",
            "popularity": 0.84
        },
        {
            "id": 99327,
            "original_name": "Temps de silenci",
            "popularity": 0.6
        },
        {
            "id": 107045,
            "original_name": "Mujeres Rompiendo el Silencio",
            "popularity": 0.6
        },
        {
            "id": 112883,
            "original_name": "Le silence des oiseaux",
            "popularity": 0.6
        },
        {
            "id": 138279,
            "original_name": "Proof of Silence",
            "popularity": 0.982
        }
    ],
    "relations": [
        {
            "character": "ilence"
        },
        {
            "character": "ilenci"
        }
    ],
    "top20": [
        {
            "id": 82296,
            "original_name": "Silence, on joue!",
            "popularity": 12.014
        },
        {
            "id": 33267,
            "original_name": "The Silence",
            "popularity": 4.229
        },
        {
            "id": 64482,
            "original_name": "Game of Silence",
            "popularity": 3.993
        },
        {
            "id": 30878,
            "original_name": "Omert\u00e0, la loi du silence",
            "popularity": 1.785
        },
        {
            "id": 66899,
            "original_name": "Broken Silence",
            "popularity": 1.495
        },
        {
            "id": 37439,
            "original_name": "Silenci?",
            "popularity": 1.4
        },
        {
            "id": 65500,
            "original_name": "La sonata del silencio",
            "popularity": 1.276
        },
        {
            "id": 12741,
            "original_name": "Amor en silencio",
            "popularity": 1.12
        },
        {
            "id": 138279,
            "original_name": "Proof of Silence",
            "popularity": 0.982
        },
        {
            "id": 95427,
            "original_name": "ETA, el final del silencio",
            "popularity": 0.84
        },
        {
            "id": 66945,
            "original_name": "Silencios de familia",
            "popularity": 0.604
        },
        {
            "id": 12532,
            "original_name": "Minute of Silence",
            "popularity": 0.6
        },
        {
            "id": 47528,
            "original_name": "Bridge to Silence",
            "popularity": 0.6
        },
        {
            "id": 7479,
            "original_name": "Speech of Silence",
            "popularity": 0.6
        },
        {
            "id": 77442,
            "original_name": "Regarde-moi un silence pour tout se dire",
            "popularity": 0.6
        },
        {
            "id": 18743,
            "original_name": "Break the Silence: Kids Against Child Abuse",
            "popularity": 0.6
        },
        {
            "id": 59857,
            "original_name": "The Silence",
            "popularity": 0.6
        },
        {
            "id": 77216,
            "original_name": "Conspiracy of Silence",
            "popularity": 0.6
        },
        {
            "id": 42964,
            "original_name": "Fleet of silence",
            "popularity": 0.6
        },
        {
            "id": 60470,
            "original_name": "Fifty Years Of Silence",
            "popularity": 0.6
        }
    ]
}