{
    "data": [
        {
            "id": 50227,
            "original_name": "Ahmet Hamdi Bey Ailesi",
            "popularity": 0.6
        },
        {
            "id": 50692,
            "original_name": "Kraliyet Ailesi",
            "popularity": 0.6
        },
        {
            "id": 52511,
            "original_name": "Bask\u00fcl Ailesi",
            "popularity": 0.6
        },
        {
            "id": 54276,
            "original_name": "Kavak Ailesi",
            "popularity": 0.6
        },
        {
            "id": 70606,
            "original_name": "Babam ve Ailesi",
            "popularity": 0.6
        },
        {
            "id": 78542,
            "original_name": "F\u0131r\u0131ldak Ailesi",
            "popularity": 0.667
        },
        {
            "id": 108373,
            "original_name": "Kocam\u0131n Ailesi",
            "popularity": 5.891
        }
    ],
    "relations": [],
    "top20": [
        {
            "id": 50227,
            "original_name": "Ahmet Hamdi Bey Ailesi",
            "popularity": 0.6
        },
        {
            "id": 50692,
            "original_name": "Kraliyet Ailesi",
            "popularity": 0.6
        },
        {
            "id": 52511,
            "original_name": "Bask\u00fcl Ailesi",
            "popularity": 0.6
        },
        {
            "id": 54276,
            "original_name": "Kavak Ailesi",
            "popularity": 0.6
        },
        {
            "id": 70606,
            "original_name": "Babam ve Ailesi",
            "popularity": 0.6
        },
        {
            "id": 78542,
            "original_name": "F\u0131r\u0131ldak Ailesi",
            "popularity": 0.667
        },
        {
            "id": 108373,
            "original_name": "Kocam\u0131n Ailesi",
            "popularity": 5.891
        }
    ]
}