{
    "data": [
        {
            "id": 133943,
            "original_name": "Cadernos da Filipa",
            "popularity": 1.38
        },
        {
            "id": 134216,
            "original_name": "Filipa Gomes Cozinha com Twist",
            "popularity": 0.6
        }
    ],
    "relations": [],
    "top20": [
        {
            "id": 133943,
            "original_name": "Cadernos da Filipa",
            "popularity": 1.38
        },
        {
            "id": 134216,
            "original_name": "Filipa Gomes Cozinha com Twist",
            "popularity": 0.6
        }
    ]
}