{
    "data": [
        {
            "id": 9285,
            "original_name": "Civilisation",
            "popularity": 1.463
        },
        {
            "id": 18742,
            "original_name": "Katie and Eilish: Siamese Twins",
            "popularity": 0.6
        },
        {
            "id": 38943,
            "original_name": "Bilis Balita",
            "popularity": 0.654
        },
        {
            "id": 53157,
            "original_name": "Vasilissa Amalia",
            "popularity": 0.6
        },
        {
            "id": 54894,
            "original_name": "Enas filisyhos anthropos",
            "popularity": 0.6
        },
        {
            "id": 78012,
            "original_name": "Civilisations",
            "popularity": 1.998
        },
        {
            "id": 79295,
            "original_name": "Civilisations Stories",
            "popularity": 0.6
        },
        {
            "id": 85807,
            "original_name": "Iliski Durumu: Karisik",
            "popularity": 0.6
        },
        {
            "id": 100954,
            "original_name": "devilish charm",
            "popularity": 0.6
        },
        {
            "id": 118839,
            "original_name": "El Estilista",
            "popularity": 1.694
        },
        {
            "id": 152381,
            "original_name": "Les civilisations disparues",
            "popularity": 0.6
        }
    ],
    "relations": [],
    "top20": [
        {
            "id": 9285,
            "original_name": "Civilisation",
            "popularity": 1.463
        },
        {
            "id": 18742,
            "original_name": "Katie and Eilish: Siamese Twins",
            "popularity": 0.6
        },
        {
            "id": 38943,
            "original_name": "Bilis Balita",
            "popularity": 0.654
        },
        {
            "id": 53157,
            "original_name": "Vasilissa Amalia",
            "popularity": 0.6
        },
        {
            "id": 54894,
            "original_name": "Enas filisyhos anthropos",
            "popularity": 0.6
        },
        {
            "id": 78012,
            "original_name": "Civilisations",
            "popularity": 1.998
        },
        {
            "id": 79295,
            "original_name": "Civilisations Stories",
            "popularity": 0.6
        },
        {
            "id": 85807,
            "original_name": "Iliski Durumu: Karisik",
            "popularity": 0.6
        },
        {
            "id": 100954,
            "original_name": "devilish charm",
            "popularity": 0.6
        },
        {
            "id": 118839,
            "original_name": "El Estilista",
            "popularity": 1.694
        },
        {
            "id": 152381,
            "original_name": "Les civilisations disparues",
            "popularity": 0.6
        }
    ]
}