{
    "data": [
        {
            "id": 2425,
            "original_name": "Miljoenenjacht",
            "popularity": 1.751
        },
        {
            "id": 7908,
            "original_name": "Kes tahab saada miljon\u00e4riks?",
            "popularity": 0.6
        },
        {
            "id": 8001,
            "original_name": "Haluatko miljon\u00e4\u00e4riksi?",
            "popularity": 0.848
        },
        {
            "id": 8187,
            "original_name": "Wie wordt euromiljonair?",
            "popularity": 0.6
        },
        {
            "id": 8264,
            "original_name": "Gribi b\u016bt miljon\u0101rs?",
            "popularity": 0.6
        },
        {
            "id": 15605,
            "original_name": "Lotto Weekend Miljonairs",
            "popularity": 0.6
        },
        {
            "id": 15669,
            "original_name": "Postkodmiljon\u00e4ren",
            "popularity": 0.6
        },
        {
            "id": 17657,
            "original_name": "Vem vill bli miljon\u00e4r?",
            "popularity": 0.6
        },
        {
            "id": 19203,
            "original_name": "Miljon\u00e4rerna",
            "popularity": 0.6
        },
        {
            "id": 21528,
            "original_name": "Doen met 'n Miljoen!",
            "popularity": 0.6
        },
        {
            "id": 54946,
            "original_name": "Upp till miljonen",
            "popularity": 0.6
        },
        {
            "id": 147053,
            "original_name": "Veronica och den kinesiske miljon\u00e4ren",
            "popularity": 6.143
        }
    ],
    "relations": [],
    "top20": [
        {
            "id": 2425,
            "original_name": "Miljoenenjacht",
            "popularity": 1.751
        },
        {
            "id": 7908,
            "original_name": "Kes tahab saada miljon\u00e4riks?",
            "popularity": 0.6
        },
        {
            "id": 8001,
            "original_name": "Haluatko miljon\u00e4\u00e4riksi?",
            "popularity": 0.848
        },
        {
            "id": 8187,
            "original_name": "Wie wordt euromiljonair?",
            "popularity": 0.6
        },
        {
            "id": 8264,
            "original_name": "Gribi b\u016bt miljon\u0101rs?",
            "popularity": 0.6
        },
        {
            "id": 15605,
            "original_name": "Lotto Weekend Miljonairs",
            "popularity": 0.6
        },
        {
            "id": 15669,
            "original_name": "Postkodmiljon\u00e4ren",
            "popularity": 0.6
        },
        {
            "id": 17657,
            "original_name": "Vem vill bli miljon\u00e4r?",
            "popularity": 0.6
        },
        {
            "id": 19203,
            "original_name": "Miljon\u00e4rerna",
            "popularity": 0.6
        },
        {
            "id": 21528,
            "original_name": "Doen met 'n Miljoen!",
            "popularity": 0.6
        },
        {
            "id": 54946,
            "original_name": "Upp till miljonen",
            "popularity": 0.6
        },
        {
            "id": 147053,
            "original_name": "Veronica och den kinesiske miljon\u00e4ren",
            "popularity": 6.143
        }
    ]
}