{
    "data": [
        {
            "id": 7728,
            "original_name": "Heroes and Villains",
            "popularity": 4.168
        },
        {
            "id": 28157,
            "original_name": "The Villains",
            "popularity": 0.6
        },
        {
            "id": 54557,
            "original_name": "Villains",
            "popularity": 0.6
        },
        {
            "id": 67978,
            "original_name": "Les Marseillais et Les Ch'tis vs Le reste du monde",
            "popularity": 1.362
        },
        {
            "id": 68699,
            "original_name": "Les Marseillais",
            "popularity": 1.773
        },
        {
            "id": 70833,
            "original_name": "Les Marseillais South America",
            "popularity": 0.841
        },
        {
            "id": 82006,
            "original_name": "Les Marseillais vs le Reste du monde",
            "popularity": 2.358
        },
        {
            "id": 86932,
            "original_name": "Les Marseillais : Asian Tour",
            "popularity": 0.6
        },
        {
            "id": 99527,
            "original_name": "Les Marseillais aux Cara\u00efbes",
            "popularity": 0.6
        },
        {
            "id": 118570,
            "original_name": "Supervillain: The Making of Tekashi 6ix9ine",
            "popularity": 2.638
        },
        {
            "id": 119350,
            "original_name": "Les Marseillais \u00e0 Duba\u00ef",
            "popularity": 0.6
        },
        {
            "id": 137801,
            "original_name": "America Mappillai",
            "popularity": 0.6
        }
    ],
    "relations": [],
    "top20": [
        {
            "id": 7728,
            "original_name": "Heroes and Villains",
            "popularity": 4.168
        },
        {
            "id": 28157,
            "original_name": "The Villains",
            "popularity": 0.6
        },
        {
            "id": 54557,
            "original_name": "Villains",
            "popularity": 0.6
        },
        {
            "id": 67978,
            "original_name": "Les Marseillais et Les Ch'tis vs Le reste du monde",
            "popularity": 1.362
        },
        {
            "id": 68699,
            "original_name": "Les Marseillais",
            "popularity": 1.773
        },
        {
            "id": 70833,
            "original_name": "Les Marseillais South America",
            "popularity": 0.841
        },
        {
            "id": 82006,
            "original_name": "Les Marseillais vs le Reste du monde",
            "popularity": 2.358
        },
        {
            "id": 86932,
            "original_name": "Les Marseillais : Asian Tour",
            "popularity": 0.6
        },
        {
            "id": 99527,
            "original_name": "Les Marseillais aux Cara\u00efbes",
            "popularity": 0.6
        },
        {
            "id": 118570,
            "original_name": "Supervillain: The Making of Tekashi 6ix9ine",
            "popularity": 2.638
        },
        {
            "id": 119350,
            "original_name": "Les Marseillais \u00e0 Duba\u00ef",
            "popularity": 0.6
        },
        {
            "id": 137801,
            "original_name": "America Mappillai",
            "popularity": 0.6
        }
    ]
}