{
    "data": [
        {
            "id": 1913,
            "original_name": "Killinaskully",
            "popularity": 0.6
        },
        {
            "id": 4965,
            "original_name": "Willing and Abel",
            "popularity": 1.4
        },
        {
            "id": 5828,
            "original_name": "I manegen med Glenn Killing",
            "popularity": 1.876
        },
        {
            "id": 9521,
            "original_name": "Modern Love's Silliness",
            "popularity": 0.654
        },
        {
            "id": 10019,
            "original_name": "Illinois Instant Riches",
            "popularity": 0.6
        },
        {
            "id": 11836,
            "original_name": "Honey, We're Killing the Kids",
            "popularity": 0.6
        },
        {
            "id": 19983,
            "original_name": "Killing Crime: A Police Cop-out",
            "popularity": 0.6
        },
        {
            "id": 20143,
            "original_name": "Shillingbury Tales",
            "popularity": 0.925
        },
        {
            "id": 22548,
            "original_name": "Is Your House Killing You?",
            "popularity": 0.6
        },
        {
            "id": 23426,
            "original_name": "Killing For A Living",
            "popularity": 0.6
        },
        {
            "id": 23490,
            "original_name": "Willing And Abel",
            "popularity": 0.6
        },
        {
            "id": 26679,
            "original_name": "A Killing on the Exchange",
            "popularity": 0.804
        },
        {
            "id": 28090,
            "original_name": "Grilling & BBQ",
            "popularity": 0.6
        },
        {
            "id": 30968,
            "original_name": "Gaza: the killing zone",
            "popularity": 0.6
        },
        {
            "id": 34415,
            "original_name": "The Killing",
            "popularity": 26.188
        },
        {
            "id": 37306,
            "original_name": "If God Is Willing and da Creek Don't Rise",
            "popularity": 1.415
        },
        {
            "id": 38999,
            "original_name": "Top Billing",
            "popularity": 0.6
        },
        {
            "id": 40285,
            "original_name": "Killing Time",
            "popularity": 1.792
        },
        {
            "id": 41636,
            "original_name": "Killin' N Grillin'",
            "popularity": 0.6
        },
        {
            "id": 45335,
            "original_name": "Predators Killing for a Living",
            "popularity": 1.492
        },
        {
            "id": 47538,
            "original_name": "The Killing Mind",
            "popularity": 0.6
        },
        {
            "id": 49220,
            "original_name": "A Whale for the Killing",
            "popularity": 0.6
        },
        {
            "id": 49848,
            "original_name": "A Killing Affair",
            "popularity": 0.6
        },
        {
            "id": 50594,
            "original_name": "Dave Chappelle: Killin' Them Softly",
            "popularity": 0.6
        },
        {
            "id": 51138,
            "original_name": "Forestillinger",
            "popularity": 0.6
        },
        {
            "id": 52820,
            "original_name": "B.A.P's Killing Camp",
            "popularity": 0.6
        },
        {
            "id": 54591,
            "original_name": "The Truth About Killing",
            "popularity": 0.6
        },
        {
            "id": 57450,
            "original_name": "The Game of Killing",
            "popularity": 0.6
        },
        {
            "id": 59304,
            "original_name": "Killing for a Living",
            "popularity": 0.6
        },
        {
            "id": 60383,
            "original_name": "Sri Lanka's Killing Fields: War Crimes Unpunished",
            "popularity": 0.6
        },
        {
            "id": 65437,
            "original_name": "Killing Fields",
            "popularity": 1.069
        },
        {
            "id": 68505,
            "original_name": "The Killing Season",
            "popularity": 2.209
        },
        {
            "id": 68800,
            "original_name": "Rillington Place",
            "popularity": 5.296
        },
        {
            "id": 70057,
            "original_name": "Killing Bigfoot",
            "popularity": 0.608
        },
        {
            "id": 71296,
            "original_name": "Killing Richard Glossip",
            "popularity": 0.6
        },
        {
            "id": 72750,
            "original_name": "Killing Eve",
            "popularity": 41.181
        },
        {
            "id": 73122,
            "original_name": "Killing Machines",
            "popularity": 0.6
        },
        {
            "id": 75854,
            "original_name": "The Killing Season",
            "popularity": 0.6
        },
        {
            "id": 77857,
            "original_name": "Killing Hitler",
            "popularity": 0.6
        },
        {
            "id": 78023,
            "original_name": "Evil Talks: Chilling Confessions",
            "popularity": 0.6
        },
        {
            "id": 79242,
            "original_name": "Chilling Adventures of Sabrina",
            "popularity": 106.014
        },
        {
            "id": 81250,
            "original_name": "Die diebischen Zwillinge",
            "popularity": 0.84
        },
        {
            "id": 83280,
            "original_name": "Le Killing",
            "popularity": 1.4
        },
        {
            "id": 83461,
            "original_name": "Unspeakable Crime: The Killing of Jessica Chambers",
            "popularity": 0.84
        },
        {
            "id": 85430,
            "original_name": "Killing Time",
            "popularity": 0.737
        },
        {
            "id": 86023,
            "original_name": "Something's Killing Me",
            "popularity": 3.204
        },
        {
            "id": 91741,
            "original_name": "Killing for Love",
            "popularity": 0.6
        },
        {
            "id": 92884,
            "original_name": "A Black And White Killing: The Case That Shook America",
            "popularity": 0.6
        },
        {
            "id": 95535,
            "original_name": "Tvillingerne og Julemanden",
            "popularity": 0.6
        },
        {
            "id": 96664,
            "original_name": "Charles I: Killing a King",
            "popularity": 0.6
        },
        {
            "id": 97122,
            "original_name": "My Feet Are Killing Me",
            "popularity": 1.928
        },
        {
            "id": 97221,
            "original_name": "Inside Hitler's Killing Machine",
            "popularity": 0.6
        },
        {
            "id": 98775,
            "original_name": "Tillykke, I skal have trillinger!",
            "popularity": 0.6
        },
        {
            "id": 99297,
            "original_name": "Killing Zac Efron",
            "popularity": 1.4
        },
        {
            "id": 99947,
            "original_name": "The Curse of Oak Island: Drilling Down",
            "popularity": 0.997
        },
        {
            "id": 104251,
            "original_name": "Inside Hitler's kiilling machine",
            "popularity": 0.6
        },
        {
            "id": 105395,
            "original_name": "Killing Mum & Dad",
            "popularity": 0.6
        },
        {
            "id": 105762,
            "original_name": "Level Up! Thrilling Project",
            "popularity": 0.6
        },
        {
            "id": 113001,
            "original_name": "My Feet Are Killing Me: First Steps",
            "popularity": 0.6
        },
        {
            "id": 114788,
            "original_name": "Jegertvillingene",
            "popularity": 1.183
        },
        {
            "id": 116651,
            "original_name": "Sm\u00e6k for skillingen",
            "popularity": 1.4
        },
        {
            "id": 120665,
            "original_name": "Lost Boy: Killing of James Bulger",
            "popularity": 0.6
        },
        {
            "id": 126370,
            "original_name": "Killing for Love: Der Fall Jens S\u00f6ring",
            "popularity": 0.877
        },
        {
            "id": 128903,
            "original_name": "Something is Killing the Children",
            "popularity": 0.6
        },
        {
            "id": 131897,
            "original_name": "Hometown: A Killing",
            "popularity": 0.6
        },
        {
            "id": 133638,
            "original_name": "A Killing in Tiger Bay",
            "popularity": 0.659
        },
        {
            "id": 134350,
            "original_name": "The Killing of Father Niall Molloy",
            "popularity": 0.6
        },
        {
            "id": 137955,
            "original_name": "One Deadly Weekend in America: A Killing at the Carwash",
            "popularity": 0.6
        }
    ],
    "relations": [
        {
            "character": "illina"
        },
        {
            "character": "illing"
        },
        {
            "character": "illine"
        },
        {
            "character": "illino"
        }
    ],
    "top20": [
        {
            "id": 79242,
            "original_name": "Chilling Adventures of Sabrina",
            "popularity": 106.014
        },
        {
            "id": 72750,
            "original_name": "Killing Eve",
            "popularity": 41.181
        },
        {
            "id": 34415,
            "original_name": "The Killing",
            "popularity": 26.188
        },
        {
            "id": 68800,
            "original_name": "Rillington Place",
            "popularity": 5.296
        },
        {
            "id": 86023,
            "original_name": "Something's Killing Me",
            "popularity": 3.204
        },
        {
            "id": 68505,
            "original_name": "The Killing Season",
            "popularity": 2.209
        },
        {
            "id": 97122,
            "original_name": "My Feet Are Killing Me",
            "popularity": 1.928
        },
        {
            "id": 5828,
            "original_name": "I manegen med Glenn Killing",
            "popularity": 1.876
        },
        {
            "id": 40285,
            "original_name": "Killing Time",
            "popularity": 1.792
        },
        {
            "id": 45335,
            "original_name": "Predators Killing for a Living",
            "popularity": 1.492
        },
        {
            "id": 37306,
            "original_name": "If God Is Willing and da Creek Don't Rise",
            "popularity": 1.415
        },
        {
            "id": 116651,
            "original_name": "Sm\u00e6k for skillingen",
            "popularity": 1.4
        },
        {
            "id": 83280,
            "original_name": "Le Killing",
            "popularity": 1.4
        },
        {
            "id": 99297,
            "original_name": "Killing Zac Efron",
            "popularity": 1.4
        },
        {
            "id": 4965,
            "original_name": "Willing and Abel",
            "popularity": 1.4
        },
        {
            "id": 114788,
            "original_name": "Jegertvillingene",
            "popularity": 1.183
        },
        {
            "id": 65437,
            "original_name": "Killing Fields",
            "popularity": 1.069
        },
        {
            "id": 99947,
            "original_name": "The Curse of Oak Island: Drilling Down",
            "popularity": 0.997
        },
        {
            "id": 20143,
            "original_name": "Shillingbury Tales",
            "popularity": 0.925
        },
        {
            "id": 126370,
            "original_name": "Killing for Love: Der Fall Jens S\u00f6ring",
            "popularity": 0.877
        }
    ]
}