{
    "data": [
        {
            "id": 16139,
            "original_name": "Dulce Ilusi\u00f3n",
            "popularity": 0.6
        },
        {
            "id": 16450,
            "original_name": "Ilusiones",
            "popularity": 0.6
        },
        {
            "id": 28184,
            "original_name": "Ilusiones (compartidas)",
            "popularity": 0.6
        },
        {
            "id": 40159,
            "original_name": "Nilus the Sandman",
            "popularity": 0.6
        },
        {
            "id": 64372,
            "original_name": "Ilustres Ignorantes",
            "popularity": 34.394
        },
        {
            "id": 85793,
            "original_name": "Les poilus",
            "popularity": 2.839
        },
        {
            "id": 87958,
            "original_name": "Ilustrado",
            "popularity": 0.961
        },
        {
            "id": 95006,
            "original_name": "Las Ilusiones Perdidas",
            "popularity": 0.628
        },
        {
            "id": 104734,
            "original_name": "Pampa Ilusi\u00f3n",
            "popularity": 5.767
        },
        {
            "id": 123324,
            "original_name": "A Grande Ilus\u00e3o",
            "popularity": 0.6
        },
        {
            "id": 131835,
            "original_name": "Nautilus",
            "popularity": 1.09
        }
    ],
    "relations": [],
    "top20": [
        {
            "id": 16139,
            "original_name": "Dulce Ilusi\u00f3n",
            "popularity": 0.6
        },
        {
            "id": 16450,
            "original_name": "Ilusiones",
            "popularity": 0.6
        },
        {
            "id": 28184,
            "original_name": "Ilusiones (compartidas)",
            "popularity": 0.6
        },
        {
            "id": 40159,
            "original_name": "Nilus the Sandman",
            "popularity": 0.6
        },
        {
            "id": 64372,
            "original_name": "Ilustres Ignorantes",
            "popularity": 34.394
        },
        {
            "id": 85793,
            "original_name": "Les poilus",
            "popularity": 2.839
        },
        {
            "id": 87958,
            "original_name": "Ilustrado",
            "popularity": 0.961
        },
        {
            "id": 95006,
            "original_name": "Las Ilusiones Perdidas",
            "popularity": 0.628
        },
        {
            "id": 104734,
            "original_name": "Pampa Ilusi\u00f3n",
            "popularity": 5.767
        },
        {
            "id": 123324,
            "original_name": "A Grande Ilus\u00e3o",
            "popularity": 0.6
        },
        {
            "id": 131835,
            "original_name": "Nautilus",
            "popularity": 1.09
        }
    ]
}