{
    "data": [
        {
            "id": 40624,
            "original_name": "Klimawechsel",
            "popularity": 1.426
        }
    ],
    "relations": [],
    "top20": [
        {
            "id": 40624,
            "original_name": "Klimawechsel",
            "popularity": 1.426
        }
    ]
}