{
    "data": [
        {
            "id": 1489,
            "original_name": "Jimmy Kimmel Live!",
            "popularity": 61.23
        },
        {
            "id": 2129,
            "original_name": "The Adventures of Jimmy Neutron: Boy Genius",
            "popularity": 71.121
        },
        {
            "id": 6535,
            "original_name": "Jimmy's Farm",
            "popularity": 0.6
        },
        {
            "id": 8621,
            "original_name": "Late Night with Jimmy Fallon",
            "popularity": 10.486
        },
        {
            "id": 10626,
            "original_name": "The Jimmy Stewart Show",
            "popularity": 1.436
        },
        {
            "id": 11681,
            "original_name": "Jimmy Durante Presents the Lennon Sisters",
            "popularity": 0.6
        },
        {
            "id": 12148,
            "original_name": "The Jimmy Dean Show",
            "popularity": 0.6
        },
        {
            "id": 12615,
            "original_name": "Jimmy MacDonald's Canada",
            "popularity": 0.6
        },
        {
            "id": 14241,
            "original_name": "Out of Jimmy's Head",
            "popularity": 2.446
        },
        {
            "id": 17436,
            "original_name": "Jimmy Two-Shoes",
            "popularity": 6.992
        },
        {
            "id": 19889,
            "original_name": "Timmy Time",
            "popularity": 14.022
        },
        {
            "id": 22225,
            "original_name": "The Jimmy Durante Show",
            "popularity": 2.67
        },
        {
            "id": 22818,
            "original_name": "The Jimmy Hannan Show",
            "popularity": 0.6
        },
        {
            "id": 24514,
            "original_name": "Jimmy Logan",
            "popularity": 0.6
        },
        {
            "id": 25154,
            "original_name": "Jimmy Doherty's Farming Heroes",
            "popularity": 0.6
        },
        {
            "id": 25197,
            "original_name": "Just Jimmy",
            "popularity": 0.6
        },
        {
            "id": 26273,
            "original_name": "The Jimmy Logan Show",
            "popularity": 0.6
        },
        {
            "id": 26372,
            "original_name": "The Jimmy Tarbuck Show",
            "popularity": 0.6
        },
        {
            "id": 26463,
            "original_name": "The Jimmy Wheeler Show",
            "popularity": 0.6
        },
        {
            "id": 26795,
            "original_name": "Hammered with John & Jimmy DiResta",
            "popularity": 0.6
        },
        {
            "id": 29585,
            "original_name": "Jimmy Doherty in Darwin's Garden",
            "popularity": 0.6
        },
        {
            "id": 30265,
            "original_name": "Shimmy",
            "popularity": 0.6
        },
        {
            "id": 32056,
            "original_name": "Limmy's Show!",
            "popularity": 2.472
        },
        {
            "id": 32248,
            "original_name": "Timmy Towers",
            "popularity": 0.6
        },
        {
            "id": 32842,
            "original_name": "Jimmy Hughes, Rookie Cop",
            "popularity": 0.6
        },
        {
            "id": 35667,
            "original_name": "Jimmy's Food Factory",
            "popularity": 0.6
        },
        {
            "id": 37141,
            "original_name": "Jimmy Hopper Show, De",
            "popularity": 0.6
        },
        {
            "id": 39857,
            "original_name": "Alle lieben Jimmy",
            "popularity": 0.897
        },
        {
            "id": 41525,
            "original_name": "Jimmy Houston Outdoors",
            "popularity": 0.6
        },
        {
            "id": 43359,
            "original_name": "The Adventures of Jimmy Neutron: Confusion Fusion",
            "popularity": 0.634
        },
        {
            "id": 43523,
            "original_name": "Jimmy Big Time",
            "popularity": 0.6
        },
        {
            "id": 45159,
            "original_name": "The Adventures of Timmy the Tooth",
            "popularity": 0.6
        },
        {
            "id": 47755,
            "original_name": "Timmy's Story",
            "popularity": 0.6
        },
        {
            "id": 48971,
            "original_name": "After Jimmy",
            "popularity": 0.6
        },
        {
            "id": 55638,
            "original_name": "Jamie and Jimmy's Food Fight Club",
            "popularity": 0.896
        },
        {
            "id": 56282,
            "original_name": "Jimmy Durante Meets the Lively Arts",
            "popularity": 0.6
        },
        {
            "id": 56865,
            "original_name": "MAX Sessions: Jimmy Barnes",
            "popularity": 0.6
        },
        {
            "id": 59941,
            "original_name": "The Tonight Show Starring Jimmy Fallon",
            "popularity": 91.369
        },
        {
            "id": 60122,
            "original_name": "Jimmy's Global Harvest",
            "popularity": 0.6
        },
        {
            "id": 60127,
            "original_name": "Jimmy and the Giant Supermarket",
            "popularity": 0.6
        },
        {
            "id": 61671,
            "original_name": "Unbreakable Kimmy Schmidt",
            "popularity": 23.423
        },
        {
            "id": 63856,
            "original_name": "The Trials of Jimmy Rose",
            "popularity": 1.4
        },
        {
            "id": 67216,
            "original_name": "Az \u00e9n nevem Jimmy",
            "popularity": 0.6
        },
        {
            "id": 67217,
            "original_name": "Az \u00e9n nevem Jimmy",
            "popularity": 0.6
        },
        {
            "id": 67218,
            "original_name": "Az \u00e9n nevem Jimmy",
            "popularity": 0.6
        },
        {
            "id": 75338,
            "original_name": "Jamie and Jimmy's Friday Night Feast",
            "popularity": 2.131
        },
        {
            "id": 78637,
            "original_name": "Limmy's Homemade Show!",
            "popularity": 0.873
        },
        {
            "id": 80090,
            "original_name": "Engine Addict with Jimmy De Ville",
            "popularity": 0.6
        },
        {
            "id": 81006,
            "original_name": "Jimmy\uff5e\u30a2\u30db\u307f\u305f\u3044\u306a\u30db\u30f3\u30de\u306e\u8a71\uff5e",
            "popularity": 0.743
        },
        {
            "id": 84610,
            "original_name": "Jimmy Doherty's Escape to the Wild",
            "popularity": 0.6
        },
        {
            "id": 98210,
            "original_name": "Learning Time with Timmy",
            "popularity": 2.688
        },
        {
            "id": 98668,
            "original_name": "Jimmy Carter",
            "popularity": 0.6
        },
        {
            "id": 137397,
            "original_name": "Jimmy Doherty's Dream Builds on Wheels",
            "popularity": 4.495
        }
    ],
    "relations": [],
    "top20": [
        {
            "id": 59941,
            "original_name": "The Tonight Show Starring Jimmy Fallon",
            "popularity": 91.369
        },
        {
            "id": 2129,
            "original_name": "The Adventures of Jimmy Neutron: Boy Genius",
            "popularity": 71.121
        },
        {
            "id": 1489,
            "original_name": "Jimmy Kimmel Live!",
            "popularity": 61.23
        },
        {
            "id": 61671,
            "original_name": "Unbreakable Kimmy Schmidt",
            "popularity": 23.423
        },
        {
            "id": 19889,
            "original_name": "Timmy Time",
            "popularity": 14.022
        },
        {
            "id": 8621,
            "original_name": "Late Night with Jimmy Fallon",
            "popularity": 10.486
        },
        {
            "id": 17436,
            "original_name": "Jimmy Two-Shoes",
            "popularity": 6.992
        },
        {
            "id": 137397,
            "original_name": "Jimmy Doherty's Dream Builds on Wheels",
            "popularity": 4.495
        },
        {
            "id": 98210,
            "original_name": "Learning Time with Timmy",
            "popularity": 2.688
        },
        {
            "id": 22225,
            "original_name": "The Jimmy Durante Show",
            "popularity": 2.67
        },
        {
            "id": 32056,
            "original_name": "Limmy's Show!",
            "popularity": 2.472
        },
        {
            "id": 14241,
            "original_name": "Out of Jimmy's Head",
            "popularity": 2.446
        },
        {
            "id": 75338,
            "original_name": "Jamie and Jimmy's Friday Night Feast",
            "popularity": 2.131
        },
        {
            "id": 10626,
            "original_name": "The Jimmy Stewart Show",
            "popularity": 1.436
        },
        {
            "id": 63856,
            "original_name": "The Trials of Jimmy Rose",
            "popularity": 1.4
        },
        {
            "id": 39857,
            "original_name": "Alle lieben Jimmy",
            "popularity": 0.897
        },
        {
            "id": 55638,
            "original_name": "Jamie and Jimmy's Food Fight Club",
            "popularity": 0.896
        },
        {
            "id": 78637,
            "original_name": "Limmy's Homemade Show!",
            "popularity": 0.873
        },
        {
            "id": 81006,
            "original_name": "Jimmy\uff5e\u30a2\u30db\u307f\u305f\u3044\u306a\u30db\u30f3\u30de\u306e\u8a71\uff5e",
            "popularity": 0.743
        },
        {
            "id": 43359,
            "original_name": "The Adventures of Jimmy Neutron: Confusion Fusion",
            "popularity": 0.634
        }
    ]
}