{
    "data": [
        {
            "id": 6636,
            "original_name": "Animorphs",
            "popularity": 2.972
        },
        {
            "id": 8628,
            "original_name": "Hot l Baltimore",
            "popularity": 3.749
        },
        {
            "id": 15353,
            "original_name": "Kimora: Life in the Fab Lane",
            "popularity": 1.343
        },
        {
            "id": 32731,
            "original_name": "Imortal",
            "popularity": 2.872
        },
        {
            "id": 59443,
            "original_name": "Kimora: House of Fab",
            "popularity": 0.6
        },
        {
            "id": 60239,
            "original_name": "Miracle at Sea: The Rescue of Tony Bullimore",
            "popularity": 0.6
        },
        {
            "id": 95860,
            "original_name": "Z den\u00edku \u017e\u00e1ka III.B aneb Edudant a Francimor",
            "popularity": 0.621
        },
        {
            "id": 128415,
            "original_name": "East Timor: Birth of a Nation",
            "popularity": 0.6
        }
    ],
    "relations": [],
    "top20": [
        {
            "id": 6636,
            "original_name": "Animorphs",
            "popularity": 2.972
        },
        {
            "id": 8628,
            "original_name": "Hot l Baltimore",
            "popularity": 3.749
        },
        {
            "id": 15353,
            "original_name": "Kimora: Life in the Fab Lane",
            "popularity": 1.343
        },
        {
            "id": 32731,
            "original_name": "Imortal",
            "popularity": 2.872
        },
        {
            "id": 59443,
            "original_name": "Kimora: House of Fab",
            "popularity": 0.6
        },
        {
            "id": 60239,
            "original_name": "Miracle at Sea: The Rescue of Tony Bullimore",
            "popularity": 0.6
        },
        {
            "id": 95860,
            "original_name": "Z den\u00edku \u017e\u00e1ka III.B aneb Edudant a Francimor",
            "popularity": 0.621
        },
        {
            "id": 128415,
            "original_name": "East Timor: Birth of a Nation",
            "popularity": 0.6
        }
    ]
}