{
    "data": [
        {
            "id": 41293,
            "original_name": "SimsalaGrimm",
            "popularity": 4.168
        },
        {
            "id": 119405,
            "original_name": "Norske Krimsaker",
            "popularity": 0.748
        },
        {
            "id": 125786,
            "original_name": "Norske Krimsaker",
            "popularity": 0.946
        }
    ],
    "relations": [],
    "top20": [
        {
            "id": 41293,
            "original_name": "SimsalaGrimm",
            "popularity": 4.168
        },
        {
            "id": 119405,
            "original_name": "Norske Krimsaker",
            "popularity": 0.748
        },
        {
            "id": 125786,
            "original_name": "Norske Krimsaker",
            "popularity": 0.946
        }
    ]
}