{
    "data": [
        {
            "id": 57124,
            "original_name": "Nicki Minaj: My Truth",
            "popularity": 0.684
        },
        {
            "id": 121982,
            "original_name": "Painajainen",
            "popularity": 0.6
        }
    ],
    "relations": [],
    "top20": [
        {
            "id": 57124,
            "original_name": "Nicki Minaj: My Truth",
            "popularity": 0.684
        },
        {
            "id": 121982,
            "original_name": "Painajainen",
            "popularity": 0.6
        }
    ]
}