{
    "data": [
        {
            "id": 648,
            "original_name": "The Incredible Hulk",
            "popularity": 24.226
        },
        {
            "id": 969,
            "original_name": "That's Incredible!",
            "popularity": 1.235
        },
        {
            "id": 6332,
            "original_name": "The Incredible Hulk",
            "popularity": 16.484
        },
        {
            "id": 7148,
            "original_name": "Mysterious Incredible Terminator",
            "popularity": 1.163
        },
        {
            "id": 11328,
            "original_name": "The Incredible Hulk",
            "popularity": 6.983
        },
        {
            "id": 11579,
            "original_name": "Incredible Story Studios",
            "popularity": 2.881
        },
        {
            "id": 15058,
            "original_name": "Incredible Games",
            "popularity": 0.6
        },
        {
            "id": 16491,
            "original_name": "The Incredible Journey of Mary Bryant",
            "popularity": 5.034
        },
        {
            "id": 18687,
            "original_name": "The Incredible Human Journey",
            "popularity": 1.073
        },
        {
            "id": 19175,
            "original_name": "The Incredible Voyage of Bill Pinkney",
            "popularity": 0.6
        },
        {
            "id": 22318,
            "original_name": "Incredible Animal Journeys",
            "popularity": 0.6
        },
        {
            "id": 23849,
            "original_name": "Incredible Crash Dummies",
            "popularity": 0.962
        },
        {
            "id": 24597,
            "original_name": "The Incredible Mr Tanner",
            "popularity": 0.6
        },
        {
            "id": 24635,
            "original_name": "Puff and the Incredible Mr. Nobody",
            "popularity": 0.6
        },
        {
            "id": 27229,
            "original_name": "The Incredible Adventures of Professor Branestawm",
            "popularity": 0.6
        },
        {
            "id": 27957,
            "original_name": "That's Incredible!",
            "popularity": 0.6
        },
        {
            "id": 29118,
            "original_name": "Surprise! It's Edible Incredible!",
            "popularity": 0.6
        },
        {
            "id": 29167,
            "original_name": "Incredible Creatures",
            "popularity": 0.6
        },
        {
            "id": 29401,
            "original_name": "Incredible Heroes",
            "popularity": 0.6
        },
        {
            "id": 29610,
            "original_name": "Medical Incredible",
            "popularity": 0.6
        },
        {
            "id": 33205,
            "original_name": "Inedible To Incredible",
            "popularity": 0.6
        },
        {
            "id": 39347,
            "original_name": "Surprise! It's Edible Incredible!",
            "popularity": 0.6
        },
        {
            "id": 44289,
            "original_name": "National Geographic's Most Incredible Photos",
            "popularity": 0.6
        },
        {
            "id": 49297,
            "original_name": "The Incredible Dr. Pol",
            "popularity": 4.425
        },
        {
            "id": 51681,
            "original_name": "Mary's Incredible Dream",
            "popularity": 0.6
        },
        {
            "id": 54401,
            "original_name": "Dangerman: The Incredible Mr. Goodwin",
            "popularity": 1.028
        },
        {
            "id": 54418,
            "original_name": "The Incredible Mr Goodwin",
            "popularity": 0.624
        },
        {
            "id": 57467,
            "original_name": "The Incredible Spice Men",
            "popularity": 0.6
        },
        {
            "id": 59448,
            "original_name": "Incredible Crew",
            "popularity": 3.028
        },
        {
            "id": 67737,
            "original_name": "The Incredible Food Race",
            "popularity": 0.6
        },
        {
            "id": 67738,
            "original_name": "The Incredible Food Race",
            "popularity": 0.6
        },
        {
            "id": 67739,
            "original_name": "The Incredible Food Race",
            "popularity": 0.6
        },
        {
            "id": 75347,
            "original_name": "Incredible Medicine: Dr Weston's Casebook",
            "popularity": 0.904
        },
        {
            "id": 77575,
            "original_name": "From Ice to Fire: The Incredible Science of Temperature",
            "popularity": 0.852
        },
        {
            "id": 78520,
            "original_name": "Incredible Engineering Blunders: Fixed",
            "popularity": 0.809
        },
        {
            "id": 101112,
            "original_name": "Swarm: Nature's Incredible Invasions",
            "popularity": 0.6
        },
        {
            "id": 103853,
            "original_name": "The Incredible Crash Dummies",
            "popularity": 1.586
        },
        {
            "id": 110525,
            "original_name": "Esperimento Incredibile",
            "popularity": 0.6
        },
        {
            "id": 115224,
            "original_name": "Incredible Inventions",
            "popularity": 0.6
        },
        {
            "id": 117248,
            "original_name": "Incredible, But True?",
            "popularity": 0.6
        },
        {
            "id": 117699,
            "original_name": "Incredible Journeys with Simon Reeve",
            "popularity": 1.507
        },
        {
            "id": 118345,
            "original_name": "Incredible Science",
            "popularity": 0.6
        },
        {
            "id": 131321,
            "original_name": "Incredibly Small World",
            "popularity": 0.6
        },
        {
            "id": 132236,
            "original_name": "THE INCREDIBLE GY\u00d4KAI VIDEO JUNK BOY",
            "popularity": 0.6
        },
        {
            "id": 133103,
            "original_name": "The Incredibly Strange Film Show",
            "popularity": 0.6
        }
    ],
    "relations": [
        {
            "character": "incredi"
        }
    ],
    "top20": [
        {
            "id": 648,
            "original_name": "The Incredible Hulk",
            "popularity": 24.226
        },
        {
            "id": 6332,
            "original_name": "The Incredible Hulk",
            "popularity": 16.484
        },
        {
            "id": 11328,
            "original_name": "The Incredible Hulk",
            "popularity": 6.983
        },
        {
            "id": 16491,
            "original_name": "The Incredible Journey of Mary Bryant",
            "popularity": 5.034
        },
        {
            "id": 49297,
            "original_name": "The Incredible Dr. Pol",
            "popularity": 4.425
        },
        {
            "id": 59448,
            "original_name": "Incredible Crew",
            "popularity": 3.028
        },
        {
            "id": 11579,
            "original_name": "Incredible Story Studios",
            "popularity": 2.881
        },
        {
            "id": 103853,
            "original_name": "The Incredible Crash Dummies",
            "popularity": 1.586
        },
        {
            "id": 117699,
            "original_name": "Incredible Journeys with Simon Reeve",
            "popularity": 1.507
        },
        {
            "id": 969,
            "original_name": "That's Incredible!",
            "popularity": 1.235
        },
        {
            "id": 7148,
            "original_name": "Mysterious Incredible Terminator",
            "popularity": 1.163
        },
        {
            "id": 18687,
            "original_name": "The Incredible Human Journey",
            "popularity": 1.073
        },
        {
            "id": 54401,
            "original_name": "Dangerman: The Incredible Mr. Goodwin",
            "popularity": 1.028
        },
        {
            "id": 23849,
            "original_name": "Incredible Crash Dummies",
            "popularity": 0.962
        },
        {
            "id": 75347,
            "original_name": "Incredible Medicine: Dr Weston's Casebook",
            "popularity": 0.904
        },
        {
            "id": 77575,
            "original_name": "From Ice to Fire: The Incredible Science of Temperature",
            "popularity": 0.852
        },
        {
            "id": 78520,
            "original_name": "Incredible Engineering Blunders: Fixed",
            "popularity": 0.809
        },
        {
            "id": 54418,
            "original_name": "The Incredible Mr Goodwin",
            "popularity": 0.624
        },
        {
            "id": 15058,
            "original_name": "Incredible Games",
            "popularity": 0.6
        },
        {
            "id": 19175,
            "original_name": "The Incredible Voyage of Bill Pinkney",
            "popularity": 0.6
        }
    ]
}