{
    "data": [
        {
            "id": 25019,
            "original_name": "The Indestructibles",
            "popularity": 0.804
        },
        {
            "id": 32042,
            "original_name": "The Indestructibles",
            "popularity": 0.6
        },
        {
            "id": 61348,
            "original_name": "Survivors: Nature's Indestructible Creatures",
            "popularity": 0.6
        },
        {
            "id": 70505,
            "original_name": "La nouvelle malle des Indes",
            "popularity": 1.21
        },
        {
            "id": 94708,
            "original_name": "Indestructible Megastructures",
            "popularity": 0.84
        }
    ],
    "relations": [],
    "top20": [
        {
            "id": 25019,
            "original_name": "The Indestructibles",
            "popularity": 0.804
        },
        {
            "id": 32042,
            "original_name": "The Indestructibles",
            "popularity": 0.6
        },
        {
            "id": 61348,
            "original_name": "Survivors: Nature's Indestructible Creatures",
            "popularity": 0.6
        },
        {
            "id": 70505,
            "original_name": "La nouvelle malle des Indes",
            "popularity": 1.21
        },
        {
            "id": 94708,
            "original_name": "Indestructible Megastructures",
            "popularity": 0.84
        }
    ]
}