{
    "data": [
        {
            "id": 10407,
            "original_name": "Minding the Store",
            "popularity": 0.6
        },
        {
            "id": 13676,
            "original_name": "We Can Be Heroes: Finding The Australian of the Year",
            "popularity": 1.832
        },
        {
            "id": 17222,
            "original_name": "Finding John Christmas",
            "popularity": 0.6
        },
        {
            "id": 39882,
            "original_name": "Finding Bigfoot",
            "popularity": 1.986
        },
        {
            "id": 43221,
            "original_name": "Finding Your Roots",
            "popularity": 10.679
        },
        {
            "id": 44355,
            "original_name": "Story Store: Who's Minding the Store?",
            "popularity": 0.6
        },
        {
            "id": 47139,
            "original_name": "Finding Stuff Out",
            "popularity": 0.6
        },
        {
            "id": 48009,
            "original_name": "Finding Out - Edward Lear",
            "popularity": 0.6
        },
        {
            "id": 53024,
            "original_name": "Finding Me: The Series",
            "popularity": 0.6
        },
        {
            "id": 58783,
            "original_name": "Finding the Fallen",
            "popularity": 0.6
        },
        {
            "id": 59701,
            "original_name": "Finding Sarah",
            "popularity": 0.6
        },
        {
            "id": 61135,
            "original_name": "Finding Carter",
            "popularity": 18.378
        },
        {
            "id": 62752,
            "original_name": "Finding Jesus: Faith. Fact. Forgery",
            "popularity": 4.0
        },
        {
            "id": 67754,
            "original_name": "Finding Prince Charming",
            "popularity": 1.924
        },
        {
            "id": 74848,
            "original_name": "Finding Escobar's Millions",
            "popularity": 14.97
        },
        {
            "id": 81642,
            "original_name": "F2 Finding Football",
            "popularity": 0.6
        },
        {
            "id": 84884,
            "original_name": "Finding Joy",
            "popularity": 1.594
        },
        {
            "id": 85733,
            "original_name": "Finding Home",
            "popularity": 0.6
        },
        {
            "id": 88475,
            "original_name": "Finding Justice",
            "popularity": 0.6
        },
        {
            "id": 95187,
            "original_name": "Finding Our Fathers: Lost Heroes of World War II",
            "popularity": 0.6
        },
        {
            "id": 96528,
            "original_name": "Tokyo Toni\u2019s Finding Love ASAP",
            "popularity": 0.6
        },
        {
            "id": 104837,
            "original_name": "El estilo kinding",
            "popularity": 0.6
        },
        {
            "id": 105141,
            "original_name": "Stray Kids: Finding SKZ",
            "popularity": 0.6
        },
        {
            "id": 108643,
            "original_name": "Finding Clickton",
            "popularity": 0.6
        },
        {
            "id": 113515,
            "original_name": "Finding Ourselves",
            "popularity": 0.6
        },
        {
            "id": 116620,
            "original_name": "Finding Alice",
            "popularity": 3.677
        },
        {
            "id": 119852,
            "original_name": "Finding Love in Quarantine",
            "popularity": 1.21
        },
        {
            "id": 125103,
            "original_name": "Elizabeth Smart: Finding Justice",
            "popularity": 0.6
        },
        {
            "id": 127185,
            "original_name": "Finding You",
            "popularity": 0.6
        },
        {
            "id": 127624,
            "original_name": "Finding the Archibald",
            "popularity": 5.17
        },
        {
            "id": 132999,
            "original_name": "Finding Bigfoot: The Search Continues",
            "popularity": 0.6
        },
        {
            "id": 135375,
            "original_name": "Finding Andrea",
            "popularity": 0.684
        },
        {
            "id": 137181,
            "original_name": "Ghost Blows Out the Light: Finding Hu Ba Yi",
            "popularity": 0.6
        },
        {
            "id": 139087,
            "original_name": "Finding Magic Mike",
            "popularity": 4.04
        }
    ],
    "relations": [],
    "top20": [
        {
            "id": 61135,
            "original_name": "Finding Carter",
            "popularity": 18.378
        },
        {
            "id": 74848,
            "original_name": "Finding Escobar's Millions",
            "popularity": 14.97
        },
        {
            "id": 43221,
            "original_name": "Finding Your Roots",
            "popularity": 10.679
        },
        {
            "id": 127624,
            "original_name": "Finding the Archibald",
            "popularity": 5.17
        },
        {
            "id": 139087,
            "original_name": "Finding Magic Mike",
            "popularity": 4.04
        },
        {
            "id": 62752,
            "original_name": "Finding Jesus: Faith. Fact. Forgery",
            "popularity": 4.0
        },
        {
            "id": 116620,
            "original_name": "Finding Alice",
            "popularity": 3.677
        },
        {
            "id": 39882,
            "original_name": "Finding Bigfoot",
            "popularity": 1.986
        },
        {
            "id": 67754,
            "original_name": "Finding Prince Charming",
            "popularity": 1.924
        },
        {
            "id": 13676,
            "original_name": "We Can Be Heroes: Finding The Australian of the Year",
            "popularity": 1.832
        },
        {
            "id": 84884,
            "original_name": "Finding Joy",
            "popularity": 1.594
        },
        {
            "id": 119852,
            "original_name": "Finding Love in Quarantine",
            "popularity": 1.21
        },
        {
            "id": 135375,
            "original_name": "Finding Andrea",
            "popularity": 0.684
        },
        {
            "id": 47139,
            "original_name": "Finding Stuff Out",
            "popularity": 0.6
        },
        {
            "id": 17222,
            "original_name": "Finding John Christmas",
            "popularity": 0.6
        },
        {
            "id": 44355,
            "original_name": "Story Store: Who's Minding the Store?",
            "popularity": 0.6
        },
        {
            "id": 58783,
            "original_name": "Finding the Fallen",
            "popularity": 0.6
        },
        {
            "id": 10407,
            "original_name": "Minding the Store",
            "popularity": 0.6
        },
        {
            "id": 53024,
            "original_name": "Finding Me: The Series",
            "popularity": 0.6
        },
        {
            "id": 48009,
            "original_name": "Finding Out - Edward Lear",
            "popularity": 0.6
        }
    ]
}