{
    "data": [
        {
            "id": 34707,
            "original_name": "Unnatural Causes: Is Inequality Making Us Sick?",
            "popularity": 0.6
        }
    ],
    "relations": [],
    "top20": [
        {
            "id": 34707,
            "original_name": "Unnatural Causes: Is Inequality Making Us Sick?",
            "popularity": 0.6
        }
    ]
}