{
    "data": [
        {
            "id": 495,
            "original_name": "Weinerville",
            "popularity": 0.874
        },
        {
            "id": 4086,
            "original_name": "Diners, Drive-Ins and Dives",
            "popularity": 7.131
        },
        {
            "id": 6166,
            "original_name": "Dr. G: Medical Examiner",
            "popularity": 1.632
        },
        {
            "id": 7298,
            "original_name": "Bowling Headliners",
            "popularity": 0.6
        },
        {
            "id": 8786,
            "original_name": "Headliners",
            "popularity": 0.6
        },
        {
            "id": 9377,
            "original_name": "Entertainers with Byron Allen",
            "popularity": 0.6
        },
        {
            "id": 9404,
            "original_name": "Trainer",
            "popularity": 0.6
        },
        {
            "id": 11208,
            "original_name": "Cedric the Entertainer Presents",
            "popularity": 2.064
        },
        {
            "id": 11420,
            "original_name": "The Herb Shriner Show",
            "popularity": 0.6
        },
        {
            "id": 13966,
            "original_name": "The Entertainers",
            "popularity": 0.6
        },
        {
            "id": 14802,
            "original_name": "Boogies Diner",
            "popularity": 0.647
        },
        {
            "id": 16090,
            "original_name": "Joe's Diner",
            "popularity": 0.6
        },
        {
            "id": 17710,
            "original_name": "Parkinson's All Time Greatest Entertainers",
            "popularity": 0.6
        },
        {
            "id": 18685,
            "original_name": "Hasta Que el Dinero Nos Separe",
            "popularity": 20.599
        },
        {
            "id": 18769,
            "original_name": "La Hija del Jardinero",
            "popularity": 1.527
        },
        {
            "id": 19447,
            "original_name": "McDonald's Young Entertainers",
            "popularity": 0.883
        },
        {
            "id": 20069,
            "original_name": "Headliner",
            "popularity": 0.6
        },
        {
            "id": 24464,
            "original_name": "The Complainers",
            "popularity": 0.6
        },
        {
            "id": 24607,
            "original_name": "Animal, Vegetable, Mineral?",
            "popularity": 0.6
        },
        {
            "id": 26388,
            "original_name": "The Entertainers (AU)",
            "popularity": 0.6
        },
        {
            "id": 26711,
            "original_name": "El Gallinero",
            "popularity": 0.6
        },
        {
            "id": 26934,
            "original_name": "The Wil Shriner Show",
            "popularity": 0.6
        },
        {
            "id": 28227,
            "original_name": "Para Handy - Master Mariner",
            "popularity": 0.6
        },
        {
            "id": 29110,
            "original_name": "The Entertainer of Love",
            "popularity": 0.6
        },
        {
            "id": 29302,
            "original_name": "The Entertainer",
            "popularity": 0.6
        },
        {
            "id": 30105,
            "original_name": "The Entertainers (UK)",
            "popularity": 0.6
        },
        {
            "id": 30619,
            "original_name": "Headliners with David Frost",
            "popularity": 0.6
        },
        {
            "id": 31312,
            "original_name": "Frank the Entertainer in a Basement Affair",
            "popularity": 0.6
        },
        {
            "id": 31414,
            "original_name": "Botineras",
            "popularity": 0.854
        },
        {
            "id": 31992,
            "original_name": "IBC Headliners",
            "popularity": 0.6
        },
        {
            "id": 35431,
            "original_name": "Foreigners out! Schlingensiefs Container",
            "popularity": 0.6
        },
        {
            "id": 37252,
            "original_name": "Berlinerpoplene",
            "popularity": 0.663
        },
        {
            "id": 38311,
            "original_name": "Hardliners",
            "popularity": 0.6
        },
        {
            "id": 39921,
            "original_name": "Die Anrheiner",
            "popularity": 6.489
        },
        {
            "id": 40203,
            "original_name": "Headliners & Legends with Matt Lauer",
            "popularity": 0.6
        },
        {
            "id": 40510,
            "original_name": "Berliner Schnauzen",
            "popularity": 0.6
        },
        {
            "id": 40551,
            "original_name": "Tagebuch einer G\u00e4nsemutter",
            "popularity": 0.6
        },
        {
            "id": 40630,
            "original_name": "Das Geheimnis meiner Familie",
            "popularity": 0.6
        },
        {
            "id": 40637,
            "original_name": "Ein Fall f\u00fcr die Anrheiner",
            "popularity": 2.561
        },
        {
            "id": 40968,
            "original_name": "Peter Steiners Theaterstadl",
            "popularity": 4.943
        },
        {
            "id": 41163,
            "original_name": "Fu\u00dfballtrainer Wulff",
            "popularity": 0.6
        },
        {
            "id": 41186,
            "original_name": "Unter einer Decke",
            "popularity": 0.6
        },
        {
            "id": 41226,
            "original_name": "Zwei \u00c4rzte sind einer zu viel",
            "popularity": 0.872
        },
        {
            "id": 41251,
            "original_name": "Berliner Wei\u00dfe mit Schu\u00df",
            "popularity": 2.354
        },
        {
            "id": 41417,
            "original_name": "Schlawiner",
            "popularity": 0.942
        },
        {
            "id": 46268,
            "original_name": "Moonshiners",
            "popularity": 31.92
        },
        {
            "id": 46641,
            "original_name": "Heimat 3 \u2013 Chronik einer Zeitenwende",
            "popularity": 0.6
        },
        {
            "id": 52334,
            "original_name": "The Entertainer",
            "popularity": 0.6
        },
        {
            "id": 55693,
            "original_name": "Container Wars",
            "popularity": 0.872
        },
        {
            "id": 56324,
            "original_name": "The Liners",
            "popularity": 0.6
        },
        {
            "id": 56915,
            "original_name": "LG Entertrainer",
            "popularity": 0.6
        },
        {
            "id": 57614,
            "original_name": "Dom Joly's Complainers",
            "popularity": 0.6
        },
        {
            "id": 57654,
            "original_name": "The LINERS SHIPS OF DESTINY",
            "popularity": 0.6
        },
        {
            "id": 58936,
            "original_name": "Mystery Diners",
            "popularity": 0.932
        },
        {
            "id": 59385,
            "original_name": "Kiner's Korner",
            "popularity": 0.6
        },
        {
            "id": 60965,
            "original_name": "Durchreise \u2013 Die Geschichte einer Firma",
            "popularity": 1.44
        },
        {
            "id": 62580,
            "original_name": "Mona M. - Mit den Waffen einer Frau",
            "popularity": 1.478
        },
        {
            "id": 62634,
            "original_name": "American Diner Revival",
            "popularity": 0.6
        },
        {
            "id": 63133,
            "original_name": "Engadiner Bilderbogen",
            "popularity": 0.6
        },
        {
            "id": 63576,
            "original_name": "Fate/kaleid liner \u30d7\u30ea\u30ba\u30de\u2606\u30a4\u30ea\u30e4",
            "popularity": 22.544
        },
        {
            "id": 63615,
            "original_name": "Die Gerichtsmedizinerin",
            "popularity": 1.612
        },
        {
            "id": 64001,
            "original_name": "Drei unter einer Decke",
            "popularity": 0.845
        },
        {
            "id": 64443,
            "original_name": "Einer wird gewinnen",
            "popularity": 4.795
        },
        {
            "id": 64832,
            "original_name": "Mit W\u00f6lfen unter einer Decke",
            "popularity": 0.6
        },
        {
            "id": 67316,
            "original_name": "Transformers: Combiner Wars",
            "popularity": 2.764
        },
        {
            "id": 69968,
            "original_name": "Moonshiners: Outlaw Cuts",
            "popularity": 0.6
        },
        {
            "id": 71336,
            "original_name": "Drei sind einer zuviel",
            "popularity": 0.962
        },
        {
            "id": 72427,
            "original_name": "Kontainer Kats",
            "popularity": 0.6
        },
        {
            "id": 73258,
            "original_name": "Sideliners",
            "popularity": 0.6
        },
        {
            "id": 74576,
            "original_name": "The Last Miners",
            "popularity": 0.6
        },
        {
            "id": 81087,
            "original_name": "Die Br\u00e4ute meiner S\u00f6hne",
            "popularity": 0.6
        },
        {
            "id": 82125,
            "original_name": "Hunderter Bus Zwei Gespr\u00e4che auf einer Linie",
            "popularity": 2.327
        },
        {
            "id": 82267,
            "original_name": "Is\u2019 was Trainer?",
            "popularity": 1.389
        },
        {
            "id": 82540,
            "original_name": "Kleiner Dodo",
            "popularity": 1.126
        },
        {
            "id": 83281,
            "original_name": "Les Karineries",
            "popularity": 0.603
        },
        {
            "id": 85619,
            "original_name": "Berlin - Schicksalsjahre einer Stadt",
            "popularity": 2.576
        },
        {
            "id": 85788,
            "original_name": "Schreinerei Fleischmann und Freunde",
            "popularity": 0.884
        },
        {
            "id": 86504,
            "original_name": "Steiners Theaterstadl",
            "popularity": 0.6
        },
        {
            "id": 88995,
            "original_name": "Moonshiners Whiskey Business",
            "popularity": 0.6
        },
        {
            "id": 90683,
            "original_name": "New Dubliners",
            "popularity": 0.6
        },
        {
            "id": 95030,
            "original_name": "Kleiner K\u00f6nig Kalle Wirsch",
            "popularity": 0.6
        },
        {
            "id": 95883,
            "original_name": "10 Minute Trainer",
            "popularity": 0.6
        },
        {
            "id": 98061,
            "original_name": "Mineral Explorers",
            "popularity": 0.6
        },
        {
            "id": 98879,
            "original_name": "Machinery of War",
            "popularity": 1.387
        },
        {
            "id": 100161,
            "original_name": "Moonshiners Master Distiller",
            "popularity": 4.745
        },
        {
            "id": 100439,
            "original_name": "Colonia Dignidad - Aus dem Innern einer deutschen Sekte",
            "popularity": 4.833
        },
        {
            "id": 100747,
            "original_name": "Stora maskiner",
            "popularity": 0.6
        },
        {
            "id": 102772,
            "original_name": "De Container Cup",
            "popularity": 1.015
        },
        {
            "id": 103058,
            "original_name": "Cocineros al volante",
            "popularity": 0.847
        },
        {
            "id": 103643,
            "original_name": "The History of the Seattle Mariners",
            "popularity": 1.522
        },
        {
            "id": 103995,
            "original_name": "Wineram USA",
            "popularity": 0.6
        },
        {
            "id": 104303,
            "original_name": "Maskineriet",
            "popularity": 2.098
        },
        {
            "id": 104317,
            "original_name": "Testkaninerne",
            "popularity": 0.6
        },
        {
            "id": 106037,
            "original_name": "The Timeliners",
            "popularity": 1.101
        },
        {
            "id": 113072,
            "original_name": "Berlin 1945: Tagebuch einer Gro\u00dfstadt",
            "popularity": 0.6
        },
        {
            "id": 114637,
            "original_name": "Container Homes",
            "popularity": 0.6
        },
        {
            "id": 115567,
            "original_name": "La cocinera de Castamar",
            "popularity": 10.918
        },
        {
            "id": 116748,
            "original_name": "Rainer Sass: So isst der Norden",
            "popularity": 1.529
        },
        {
            "id": 118385,
            "original_name": "La Hija del jardinero",
            "popularity": 0.6
        },
        {
            "id": 119076,
            "original_name": "Danmark griner",
            "popularity": 1.243
        },
        {
            "id": 120475,
            "original_name": "Moonshiners: Smoke Ring",
            "popularity": 0.6
        },
        {
            "id": 121681,
            "original_name": "De kinderen van Ruinerwold",
            "popularity": 0.763
        },
        {
            "id": 124912,
            "original_name": "Kjempemaskiner",
            "popularity": 0.93
        },
        {
            "id": 125995,
            "original_name": "Starlet Diner",
            "popularity": 0.6
        },
        {
            "id": 126619,
            "original_name": "Kleiner Mann \u2013 was nun?",
            "popularity": 0.841
        },
        {
            "id": 128172,
            "original_name": "99 \u2013 Einer Schl\u00e4gt Sie Alle",
            "popularity": 0.6
        },
        {
            "id": 129370,
            "original_name": "Holsteiner Kom\u00f6dianten",
            "popularity": 0.6
        },
        {
            "id": 131283,
            "original_name": "Protokoll einer Katastrophe",
            "popularity": 0.6
        },
        {
            "id": 136977,
            "original_name": "Trainer Sandy",
            "popularity": 0.6
        },
        {
            "id": 137816,
            "original_name": "Welkom in... Containerdorp",
            "popularity": 21.652
        }
    ],
    "relations": [
        {
            "character": "inerv"
        },
        {
            "character": "iners"
        },
        {
            "character": "inero"
        },
        {
            "character": "inera"
        },
        {
            "character": "inerp"
        },
        {
            "character": "ineri"
        },
        {
            "character": "iner?"
        },
        {
            "character": "inere"
        },
        {
            "character": "inery"
        },
        {
            "character": "inern"
        },
        {
            "character": "inerw"
        },
        {
            "character": "inerd"
        }
    ],
    "top20": [
        {
            "id": 46268,
            "original_name": "Moonshiners",
            "popularity": 31.92
        },
        {
            "id": 63576,
            "original_name": "Fate/kaleid liner \u30d7\u30ea\u30ba\u30de\u2606\u30a4\u30ea\u30e4",
            "popularity": 22.544
        },
        {
            "id": 137816,
            "original_name": "Welkom in... Containerdorp",
            "popularity": 21.652
        },
        {
            "id": 18685,
            "original_name": "Hasta Que el Dinero Nos Separe",
            "popularity": 20.599
        },
        {
            "id": 115567,
            "original_name": "La cocinera de Castamar",
            "popularity": 10.918
        },
        {
            "id": 4086,
            "original_name": "Diners, Drive-Ins and Dives",
            "popularity": 7.131
        },
        {
            "id": 39921,
            "original_name": "Die Anrheiner",
            "popularity": 6.489
        },
        {
            "id": 40968,
            "original_name": "Peter Steiners Theaterstadl",
            "popularity": 4.943
        },
        {
            "id": 100439,
            "original_name": "Colonia Dignidad - Aus dem Innern einer deutschen Sekte",
            "popularity": 4.833
        },
        {
            "id": 64443,
            "original_name": "Einer wird gewinnen",
            "popularity": 4.795
        },
        {
            "id": 100161,
            "original_name": "Moonshiners Master Distiller",
            "popularity": 4.745
        },
        {
            "id": 67316,
            "original_name": "Transformers: Combiner Wars",
            "popularity": 2.764
        },
        {
            "id": 85619,
            "original_name": "Berlin - Schicksalsjahre einer Stadt",
            "popularity": 2.576
        },
        {
            "id": 40637,
            "original_name": "Ein Fall f\u00fcr die Anrheiner",
            "popularity": 2.561
        },
        {
            "id": 41251,
            "original_name": "Berliner Wei\u00dfe mit Schu\u00df",
            "popularity": 2.354
        },
        {
            "id": 82125,
            "original_name": "Hunderter Bus Zwei Gespr\u00e4che auf einer Linie",
            "popularity": 2.327
        },
        {
            "id": 104303,
            "original_name": "Maskineriet",
            "popularity": 2.098
        },
        {
            "id": 11208,
            "original_name": "Cedric the Entertainer Presents",
            "popularity": 2.064
        },
        {
            "id": 6166,
            "original_name": "Dr. G: Medical Examiner",
            "popularity": 1.632
        },
        {
            "id": 63615,
            "original_name": "Die Gerichtsmedizinerin",
            "popularity": 1.612
        }
    ]
}