{
    "data": [
        {
            "id": 25966,
            "original_name": "Palingsoap, De",
            "popularity": 0.6
        },
        {
            "id": 55610,
            "original_name": "Big Block SingSong",
            "popularity": 0.6
        }
    ],
    "relations": [],
    "top20": [
        {
            "id": 25966,
            "original_name": "Palingsoap, De",
            "popularity": 0.6
        },
        {
            "id": 55610,
            "original_name": "Big Block SingSong",
            "popularity": 0.6
        }
    ]
}