{
    "data": [
        {
            "id": 857,
            "original_name": "Michael Palin's Hemingway Adventure",
            "popularity": 1.4
        },
        {
            "id": 3061,
            "original_name": "Springwatch",
            "popularity": 1.621
        },
        {
            "id": 13262,
            "original_name": "The Pingwings",
            "popularity": 0.6
        },
        {
            "id": 24119,
            "original_name": "Lazarus and Dingwall",
            "popularity": 0.99
        },
        {
            "id": 31002,
            "original_name": "Hemingway",
            "popularity": 1.972
        },
        {
            "id": 33972,
            "original_name": "Jingwu Yingxiong Chen Zhen",
            "popularity": 0.6
        },
        {
            "id": 35602,
            "original_name": "Springwatch Unsprung",
            "popularity": 0.6
        },
        {
            "id": 111592,
            "original_name": "Hemingway",
            "popularity": 1.906
        }
    ],
    "relations": [],
    "top20": [
        {
            "id": 857,
            "original_name": "Michael Palin's Hemingway Adventure",
            "popularity": 1.4
        },
        {
            "id": 3061,
            "original_name": "Springwatch",
            "popularity": 1.621
        },
        {
            "id": 13262,
            "original_name": "The Pingwings",
            "popularity": 0.6
        },
        {
            "id": 24119,
            "original_name": "Lazarus and Dingwall",
            "popularity": 0.99
        },
        {
            "id": 31002,
            "original_name": "Hemingway",
            "popularity": 1.972
        },
        {
            "id": 33972,
            "original_name": "Jingwu Yingxiong Chen Zhen",
            "popularity": 0.6
        },
        {
            "id": 35602,
            "original_name": "Springwatch Unsprung",
            "popularity": 0.6
        },
        {
            "id": 111592,
            "original_name": "Hemingway",
            "popularity": 1.906
        }
    ]
}