{
    "data": [
        {
            "id": 37223,
            "original_name": "Minikui Ahiru no Ko",
            "popularity": 0.6
        },
        {
            "id": 41242,
            "original_name": "Klinikum Berlin Mitte \u2013 Leben in Bereitschaft",
            "popularity": 2.118
        },
        {
            "id": 66264,
            "original_name": "Kliinikum",
            "popularity": 0.6
        }
    ],
    "relations": [],
    "top20": [
        {
            "id": 37223,
            "original_name": "Minikui Ahiru no Ko",
            "popularity": 0.6
        },
        {
            "id": 41242,
            "original_name": "Klinikum Berlin Mitte \u2013 Leben in Bereitschaft",
            "popularity": 2.118
        },
        {
            "id": 66264,
            "original_name": "Kliinikum",
            "popularity": 0.6
        }
    ]
}