{
    "data": [
        {
            "id": 93050,
            "original_name": "Ceria Megastar Ministar",
            "popularity": 0.6
        }
    ],
    "relations": [],
    "top20": [
        {
            "id": 93050,
            "original_name": "Ceria Megastar Ministar",
            "popularity": 0.6
        }
    ]
}