{
    "data": [
        {
            "id": 2228,
            "original_name": "Pinky and the Brain",
            "popularity": 21.13
        },
        {
            "id": 2424,
            "original_name": "Pinky Dinky Doo",
            "popularity": 1.937
        },
        {
            "id": 3560,
            "original_name": "The Adventures of Blinky Bill",
            "popularity": 2.915
        },
        {
            "id": 4190,
            "original_name": "Pinky, Elmyra & The Brain",
            "popularity": 5.048
        },
        {
            "id": 6991,
            "original_name": "The Drinky Crow Show",
            "popularity": 2.531
        },
        {
            "id": 7152,
            "original_name": "Dinky Dog",
            "popularity": 4.313
        },
        {
            "id": 9998,
            "original_name": "The Cat&Birdy Warneroonie PinkyBrainy Big Cartoonie Show",
            "popularity": 0.6
        },
        {
            "id": 11395,
            "original_name": "Blinky's Fun Club",
            "popularity": 0.6
        },
        {
            "id": 12316,
            "original_name": "Pinky and Perky",
            "popularity": 1.09
        },
        {
            "id": 14907,
            "original_name": "The New Adventures of Blinky Bill",
            "popularity": 0.6
        },
        {
            "id": 14927,
            "original_name": "Winky Dink and You",
            "popularity": 0.6
        },
        {
            "id": 16641,
            "original_name": "Dinky Di's",
            "popularity": 0.6
        },
        {
            "id": 20258,
            "original_name": "Pinky Show",
            "popularity": 0.6
        },
        {
            "id": 27560,
            "original_name": "Jim Henson's Animal Show with Stinky and Jake",
            "popularity": 2.085
        },
        {
            "id": 28701,
            "original_name": "The Pinky Lee Show",
            "popularity": 1.09
        },
        {
            "id": 32577,
            "original_name": "The Pinky and Perky Show",
            "popularity": 0.6
        },
        {
            "id": 40156,
            "original_name": "Binky",
            "popularity": 0.6
        },
        {
            "id": 67459,
            "original_name": "The Stinky & Dirty Show",
            "popularity": 3.655
        },
        {
            "id": 76705,
            "original_name": "Pinky Malinky",
            "popularity": 4.658
        },
        {
            "id": 81603,
            "original_name": "Pinky:st.",
            "popularity": 1.516
        },
        {
            "id": 82080,
            "original_name": "The Wild Adventures of Blinky Bill",
            "popularity": 0.691
        },
        {
            "id": 89985,
            "original_name": "Pta\u010d\u00ed rodinky",
            "popularity": 0.6
        },
        {
            "id": 94250,
            "original_name": "The Adventures of Blinky Bill",
            "popularity": 0.6
        },
        {
            "id": 98768,
            "original_name": "Naati Pinky Ki Lambi Love Story",
            "popularity": 0.946
        },
        {
            "id": 98994,
            "original_name": "Aku, Dia dan Pinky Promise",
            "popularity": 0.6
        },
        {
            "id": 100061,
            "original_name": "Bad Obsession Motorsport - Project Binky",
            "popularity": 0.6
        },
        {
            "id": 101940,
            "original_name": "Land of Lola: Backstage at 'Kinky Boots' with Billy Porter",
            "popularity": 7.128
        },
        {
            "id": 107418,
            "original_name": "Kinky et Cosy",
            "popularity": 0.6
        },
        {
            "id": 111772,
            "original_name": "Agent Binky: Pets of the Universe",
            "popularity": 1.165
        },
        {
            "id": 120256,
            "original_name": "Good Girls' Guide to Kinky Sex",
            "popularity": 1.069
        },
        {
            "id": 139543,
            "original_name": "Spicy Adobo and Stinky Tofu",
            "popularity": 0.6
        }
    ],
    "relations": [
        {
            "character": "inkyb"
        }
    ],
    "top20": [
        {
            "id": 2228,
            "original_name": "Pinky and the Brain",
            "popularity": 21.13
        },
        {
            "id": 101940,
            "original_name": "Land of Lola: Backstage at 'Kinky Boots' with Billy Porter",
            "popularity": 7.128
        },
        {
            "id": 4190,
            "original_name": "Pinky, Elmyra & The Brain",
            "popularity": 5.048
        },
        {
            "id": 76705,
            "original_name": "Pinky Malinky",
            "popularity": 4.658
        },
        {
            "id": 7152,
            "original_name": "Dinky Dog",
            "popularity": 4.313
        },
        {
            "id": 67459,
            "original_name": "The Stinky & Dirty Show",
            "popularity": 3.655
        },
        {
            "id": 3560,
            "original_name": "The Adventures of Blinky Bill",
            "popularity": 2.915
        },
        {
            "id": 6991,
            "original_name": "The Drinky Crow Show",
            "popularity": 2.531
        },
        {
            "id": 27560,
            "original_name": "Jim Henson's Animal Show with Stinky and Jake",
            "popularity": 2.085
        },
        {
            "id": 2424,
            "original_name": "Pinky Dinky Doo",
            "popularity": 1.937
        },
        {
            "id": 81603,
            "original_name": "Pinky:st.",
            "popularity": 1.516
        },
        {
            "id": 111772,
            "original_name": "Agent Binky: Pets of the Universe",
            "popularity": 1.165
        },
        {
            "id": 28701,
            "original_name": "The Pinky Lee Show",
            "popularity": 1.09
        },
        {
            "id": 12316,
            "original_name": "Pinky and Perky",
            "popularity": 1.09
        },
        {
            "id": 120256,
            "original_name": "Good Girls' Guide to Kinky Sex",
            "popularity": 1.069
        },
        {
            "id": 98768,
            "original_name": "Naati Pinky Ki Lambi Love Story",
            "popularity": 0.946
        },
        {
            "id": 82080,
            "original_name": "The Wild Adventures of Blinky Bill",
            "popularity": 0.691
        },
        {
            "id": 14907,
            "original_name": "The New Adventures of Blinky Bill",
            "popularity": 0.6
        },
        {
            "id": 11395,
            "original_name": "Blinky's Fun Club",
            "popularity": 0.6
        },
        {
            "id": 9998,
            "original_name": "The Cat&Birdy Warneroonie PinkyBrainy Big Cartoonie Show",
            "popularity": 0.6
        }
    ]
}