{
    "data": [
        {
            "id": 82286,
            "original_name": "Insoup\u00e7onnable",
            "popularity": 2.451
        },
        {
            "id": 133998,
            "original_name": "Jinsoul TV",
            "popularity": 0.6
        }
    ],
    "relations": [],
    "top20": [
        {
            "id": 82286,
            "original_name": "Insoup\u00e7onnable",
            "popularity": 2.451
        },
        {
            "id": 133998,
            "original_name": "Jinsoul TV",
            "popularity": 0.6
        }
    ]
}