{
    "data": [
        {
            "id": 11145,
            "original_name": "Intervention",
            "popularity": 21.385
        },
        {
            "id": 32711,
            "original_name": "Construction Intervention",
            "popularity": 0.6
        },
        {
            "id": 36271,
            "original_name": "Real Estate Intervention",
            "popularity": 0.6
        },
        {
            "id": 37048,
            "original_name": "Intervention In Depth: One Man Rehab",
            "popularity": 0.6
        },
        {
            "id": 41221,
            "original_name": "Intervention Canada",
            "popularity": 0.6
        },
        {
            "id": 59709,
            "original_name": "Thintervention with Jackie Warner",
            "popularity": 0.6
        },
        {
            "id": 75412,
            "original_name": "The Interventionist",
            "popularity": 0.6
        },
        {
            "id": 82460,
            "original_name": "Interventions",
            "popularity": 2.836
        },
        {
            "id": 92744,
            "original_name": "GTI : groupe tactique d'intervention",
            "popularity": 0.863
        },
        {
            "id": 117656,
            "original_name": "Canine Intervention",
            "popularity": 4.283
        },
        {
            "id": 117771,
            "original_name": "Op Interventie",
            "popularity": 0.6
        }
    ],
    "relations": [],
    "top20": [
        {
            "id": 11145,
            "original_name": "Intervention",
            "popularity": 21.385
        },
        {
            "id": 32711,
            "original_name": "Construction Intervention",
            "popularity": 0.6
        },
        {
            "id": 36271,
            "original_name": "Real Estate Intervention",
            "popularity": 0.6
        },
        {
            "id": 37048,
            "original_name": "Intervention In Depth: One Man Rehab",
            "popularity": 0.6
        },
        {
            "id": 41221,
            "original_name": "Intervention Canada",
            "popularity": 0.6
        },
        {
            "id": 59709,
            "original_name": "Thintervention with Jackie Warner",
            "popularity": 0.6
        },
        {
            "id": 75412,
            "original_name": "The Interventionist",
            "popularity": 0.6
        },
        {
            "id": 82460,
            "original_name": "Interventions",
            "popularity": 2.836
        },
        {
            "id": 92744,
            "original_name": "GTI : groupe tactique d'intervention",
            "popularity": 0.863
        },
        {
            "id": 117656,
            "original_name": "Canine Intervention",
            "popularity": 4.283
        },
        {
            "id": 117771,
            "original_name": "Op Interventie",
            "popularity": 0.6
        }
    ]
}