{
    "data": [
        {
            "id": 1570,
            "original_name": "The Adventures of Tintin",
            "popularity": 41.613
        },
        {
            "id": 6008,
            "original_name": "Pati Ba Pintig ng Puso",
            "popularity": 0.6
        },
        {
            "id": 9006,
            "original_name": "Intimate and Interactive",
            "popularity": 0.6
        },
        {
            "id": 9371,
            "original_name": "Vinti\u00f6t",
            "popularity": 0.6
        },
        {
            "id": 9937,
            "original_name": "Intimate Portrait",
            "popularity": 13.347
        },
        {
            "id": 10382,
            "original_name": "The Joy of Painting",
            "popularity": 6.643
        },
        {
            "id": 16653,
            "original_name": "100 Great Paintings",
            "popularity": 0.6
        },
        {
            "id": 23548,
            "original_name": "Intimate Sessions",
            "popularity": 0.6
        },
        {
            "id": 27063,
            "original_name": "Intimate Strangers",
            "popularity": 0.68
        },
        {
            "id": 27175,
            "original_name": "Painting Australia",
            "popularity": 0.6
        },
        {
            "id": 31039,
            "original_name": "Intimate Strangers",
            "popularity": 0.6
        },
        {
            "id": 36801,
            "original_name": "The Beauty of Oil Painting with Gary Jenkins",
            "popularity": 0.68
        },
        {
            "id": 40482,
            "original_name": "Intikhab-e-Sukhan",
            "popularity": 0.6
        },
        {
            "id": 41412,
            "original_name": "Gary Spetze's Painting Wild Places",
            "popularity": 0.6
        },
        {
            "id": 46165,
            "original_name": "Trintignant l'italien",
            "popularity": 0.6
        },
        {
            "id": 46740,
            "original_name": "Pyros: Painting with Fire",
            "popularity": 0.6
        },
        {
            "id": 57327,
            "original_name": "Intimate Strangers",
            "popularity": 0.6
        },
        {
            "id": 65646,
            "original_name": "The Roosevelts: An Intimate History",
            "popularity": 2.894
        },
        {
            "id": 67963,
            "original_name": "The Impressionists: Painting and Revolution",
            "popularity": 0.6
        },
        {
            "id": 69752,
            "original_name": "Sur les traces de Tintin",
            "popularity": 1.093
        },
        {
            "id": 73687,
            "original_name": "Mise \u00e0 nu, le couple en toute intimit\u00e9",
            "popularity": 1.767
        },
        {
            "id": 77877,
            "original_name": "Kim Philby - His Most Intimate Betrayal",
            "popularity": 0.6
        },
        {
            "id": 81242,
            "original_name": "Sister Wendy's Story of Painting",
            "popularity": 0.668
        },
        {
            "id": 84014,
            "original_name": "The Big Painting Challenge",
            "popularity": 0.873
        },
        {
            "id": 89703,
            "original_name": "Sally Is Intimately Yours Concert",
            "popularity": 0.6
        },
        {
            "id": 90039,
            "original_name": "Les Aventures de Tintin, d'apr\u00e8s Herg\u00e9",
            "popularity": 1.501
        },
        {
            "id": 98798,
            "original_name": "L'ennemi intime",
            "popularity": 0.6
        },
        {
            "id": 102628,
            "original_name": "Les Aventures de Tintin, d'apr\u00e8s Herg\u00e9",
            "popularity": 0.6
        },
        {
            "id": 102960,
            "original_name": "The Gene: An Intimate History",
            "popularity": 0.638
        },
        {
            "id": 103834,
            "original_name": "Mystery of the Lost Paintings",
            "popularity": 0.6
        },
        {
            "id": 109513,
            "original_name": "\u5bf8\u8349\u5fc3 Rintihan Si Ibu",
            "popularity": 0.6
        },
        {
            "id": 114564,
            "original_name": "Painting With John",
            "popularity": 2.923
        },
        {
            "id": 116178,
            "original_name": "Intimate Contact",
            "popularity": 0.664
        },
        {
            "id": 117944,
            "original_name": "Si la tendance se maintient",
            "popularity": 0.6
        },
        {
            "id": 121337,
            "original_name": "TV Intim",
            "popularity": 0.633
        },
        {
            "id": 123534,
            "original_name": "Intimidad",
            "popularity": 1.207
        },
        {
            "id": 124599,
            "original_name": "Painting Autumn",
            "popularity": 0.6
        },
        {
            "id": 125165,
            "original_name": "Eva Braun, images intimes",
            "popularity": 0.805
        },
        {
            "id": 126138,
            "original_name": "Intimate Moments - ASMR Gay Web Series",
            "popularity": 1.983
        },
        {
            "id": 131100,
            "original_name": "Dancing Cheek to Cheek: An Intimate History of Dance",
            "popularity": 0.658
        },
        {
            "id": 133095,
            "original_name": "Tinti kalandjai",
            "popularity": 0.6
        },
        {
            "id": 133201,
            "original_name": "Every Frame a Painting",
            "popularity": 0.6
        },
        {
            "id": 135777,
            "original_name": "Celebrity Painting Challenge",
            "popularity": 0.6
        },
        {
            "id": 137425,
            "original_name": "Hora Veintipico",
            "popularity": 12.663
        },
        {
            "id": 138752,
            "original_name": "The World's Most Expensive Paintings",
            "popularity": 0.6
        }
    ],
    "relations": [
        {
            "character": "intin"
        },
        {
            "character": "intig"
        },
        {
            "character": "intim"
        },
        {
            "character": "intik"
        },
        {
            "character": "intih"
        },
        {
            "character": "intie"
        },
        {
            "character": "intip"
        }
    ],
    "top20": [
        {
            "id": 1570,
            "original_name": "The Adventures of Tintin",
            "popularity": 41.613
        },
        {
            "id": 9937,
            "original_name": "Intimate Portrait",
            "popularity": 13.347
        },
        {
            "id": 137425,
            "original_name": "Hora Veintipico",
            "popularity": 12.663
        },
        {
            "id": 10382,
            "original_name": "The Joy of Painting",
            "popularity": 6.643
        },
        {
            "id": 114564,
            "original_name": "Painting With John",
            "popularity": 2.923
        },
        {
            "id": 65646,
            "original_name": "The Roosevelts: An Intimate History",
            "popularity": 2.894
        },
        {
            "id": 126138,
            "original_name": "Intimate Moments - ASMR Gay Web Series",
            "popularity": 1.983
        },
        {
            "id": 73687,
            "original_name": "Mise \u00e0 nu, le couple en toute intimit\u00e9",
            "popularity": 1.767
        },
        {
            "id": 90039,
            "original_name": "Les Aventures de Tintin, d'apr\u00e8s Herg\u00e9",
            "popularity": 1.501
        },
        {
            "id": 123534,
            "original_name": "Intimidad",
            "popularity": 1.207
        },
        {
            "id": 69752,
            "original_name": "Sur les traces de Tintin",
            "popularity": 1.093
        },
        {
            "id": 84014,
            "original_name": "The Big Painting Challenge",
            "popularity": 0.873
        },
        {
            "id": 125165,
            "original_name": "Eva Braun, images intimes",
            "popularity": 0.805
        },
        {
            "id": 27063,
            "original_name": "Intimate Strangers",
            "popularity": 0.68
        },
        {
            "id": 36801,
            "original_name": "The Beauty of Oil Painting with Gary Jenkins",
            "popularity": 0.68
        },
        {
            "id": 81242,
            "original_name": "Sister Wendy's Story of Painting",
            "popularity": 0.668
        },
        {
            "id": 116178,
            "original_name": "Intimate Contact",
            "popularity": 0.664
        },
        {
            "id": 131100,
            "original_name": "Dancing Cheek to Cheek: An Intimate History of Dance",
            "popularity": 0.658
        },
        {
            "id": 102960,
            "original_name": "The Gene: An Intimate History",
            "popularity": 0.638
        },
        {
            "id": 121337,
            "original_name": "TV Intim",
            "popularity": 0.633
        }
    ]
}