{
    "data": [
        {
            "id": 80973,
            "original_name": "Sideswiped",
            "popularity": 2.328
        }
    ],
    "relations": [],
    "top20": [
        {
            "id": 80973,
            "original_name": "Sideswiped",
            "popularity": 2.328
        }
    ]
}