{
    "data": [
        {
            "id": 642,
            "original_name": "Mo'Nique's Fat Chance",
            "popularity": 0.6
        },
        {
            "id": 2042,
            "original_name": "Antiques Roadshow",
            "popularity": 4.02
        },
        {
            "id": 3171,
            "original_name": "The Clique",
            "popularity": 0.6
        },
        {
            "id": 3886,
            "original_name": "WAGs Boutique",
            "popularity": 0.6
        },
        {
            "id": 4441,
            "original_name": "The Antiques Ghost Show",
            "popularity": 0.6
        },
        {
            "id": 5065,
            "original_name": "Il \u00e9tait une fois\u2026 les Am\u00e9riques",
            "popularity": 3.371
        },
        {
            "id": 11159,
            "original_name": "Acorn Antiques",
            "popularity": 0.84
        },
        {
            "id": 11321,
            "original_name": "Panique au village",
            "popularity": 1.438
        },
        {
            "id": 11426,
            "original_name": "Unique Whips",
            "popularity": 0.842
        },
        {
            "id": 12683,
            "original_name": "R.I.S, police scientifique",
            "popularity": 1.743
        },
        {
            "id": 12710,
            "original_name": "Antiques Psychic",
            "popularity": 0.6
        },
        {
            "id": 19403,
            "original_name": "Trafic.musique",
            "popularity": 0.6
        },
        {
            "id": 19944,
            "original_name": "Indique \u2013 Untold Stories of Contemporary India",
            "popularity": 0.6
        },
        {
            "id": 23037,
            "original_name": "WAGS Boutique",
            "popularity": 0.6
        },
        {
            "id": 24551,
            "original_name": "Tiling Techniques",
            "popularity": 0.6
        },
        {
            "id": 24648,
            "original_name": "DIY Tools & Techniques",
            "popularity": 0.6
        },
        {
            "id": 26597,
            "original_name": "The Antiques Show",
            "popularity": 1.437
        },
        {
            "id": 27126,
            "original_name": "Canadian Antiques Roadshow",
            "popularity": 0.6
        },
        {
            "id": 28164,
            "original_name": "The Great Antiques Hunt",
            "popularity": 0.6
        },
        {
            "id": 31224,
            "original_name": "The Mo'Nique Show",
            "popularity": 0.6
        },
        {
            "id": 33729,
            "original_name": "Priceless Antiques Roadshow",
            "popularity": 0.6
        },
        {
            "id": 34494,
            "original_name": "Mystique Valley",
            "popularity": 0.6
        },
        {
            "id": 35723,
            "original_name": "Antiques Auction Party",
            "popularity": 0.6
        },
        {
            "id": 36395,
            "original_name": "Unique Eats",
            "popularity": 0.6
        },
        {
            "id": 36707,
            "original_name": "Mo'Nique's F.A.T. Chance: Road to Paris",
            "popularity": 0.6
        },
        {
            "id": 37130,
            "original_name": "Cracking Antiques",
            "popularity": 0.6
        },
        {
            "id": 37391,
            "original_name": "Antiques Master",
            "popularity": 1.098
        },
        {
            "id": 41150,
            "original_name": "Die Strandclique",
            "popularity": 2.58
        },
        {
            "id": 47581,
            "original_name": "Mozambique Floods",
            "popularity": 0.6
        },
        {
            "id": 47582,
            "original_name": "Mozambique Floods: The Event and the Aftermath",
            "popularity": 0.6
        },
        {
            "id": 48864,
            "original_name": "Dame de pique",
            "popularity": 0.6
        },
        {
            "id": 51706,
            "original_name": "Antiques to the Rescue",
            "popularity": 0.6
        },
        {
            "id": 53455,
            "original_name": "Antique Heart",
            "popularity": 0.6
        },
        {
            "id": 55291,
            "original_name": "Unique Sweets",
            "popularity": 1.171
        },
        {
            "id": 56901,
            "original_name": "Unique Flavor",
            "popularity": 0.6
        },
        {
            "id": 56929,
            "original_name": "Antiques Roadshow Australia",
            "popularity": 0.6
        },
        {
            "id": 57698,
            "original_name": "Victoria Woods' Acorn Antiques Omnibus Edition",
            "popularity": 0.804
        },
        {
            "id": 58581,
            "original_name": "Antiques Road Trip",
            "popularity": 2.354
        },
        {
            "id": 60336,
            "original_name": "T\u00fa, Mi Riqueza",
            "popularity": 0.6
        },
        {
            "id": 61668,
            "original_name": "Les Routes Mythiques De l'Am\u00e9rique",
            "popularity": 0.6
        },
        {
            "id": 62854,
            "original_name": "Afrique(s), une autre histoire du XX\u00e8me si\u00e8cle",
            "popularity": 0.6
        },
        {
            "id": 63046,
            "original_name": "La Bo\u00eete \u00e0 musique",
            "popularity": 1.4
        },
        {
            "id": 64167,
            "original_name": "Butiquehotel.hu",
            "popularity": 0.6
        },
        {
            "id": 65688,
            "original_name": "Unique Rides",
            "popularity": 1.128
        },
        {
            "id": 65773,
            "original_name": "Weediquette",
            "popularity": 1.14
        },
        {
            "id": 66250,
            "original_name": "Celebrity Antiques Road Trip",
            "popularity": 27.549
        },
        {
            "id": 66277,
            "original_name": "Le voyage alchimique",
            "popularity": 0.6
        },
        {
            "id": 66398,
            "original_name": "Diomedes, el Cacique de La Junta",
            "popularity": 78.681
        },
        {
            "id": 66618,
            "original_name": "Crimes et Botanique",
            "popularity": 0.902
        },
        {
            "id": 67411,
            "original_name": "L'amour au temps du num\u00e9rique",
            "popularity": 0.6
        },
        {
            "id": 68219,
            "original_name": "Les gangsters et la r\u00e9publique",
            "popularity": 0.6
        },
        {
            "id": 69748,
            "original_name": "J'irai dormir en Am\u00e9rique",
            "popularity": 0.6
        },
        {
            "id": 70229,
            "original_name": "\u00c0 la recherche des reliques saintes",
            "popularity": 0.6
        },
        {
            "id": 70497,
            "original_name": "Janique Aim\u00e9e",
            "popularity": 1.341
        },
        {
            "id": 70566,
            "original_name": "Clique",
            "popularity": 14.585
        },
        {
            "id": 71348,
            "original_name": "Mafia et R\u00e9publique",
            "popularity": 0.6
        },
        {
            "id": 71372,
            "original_name": "Amnesie Numerique",
            "popularity": 0.6
        },
        {
            "id": 72128,
            "original_name": "La Boutique des Pandas",
            "popularity": 0.6
        },
        {
            "id": 73742,
            "original_name": "Tropiques amers",
            "popularity": 1.4
        },
        {
            "id": 73761,
            "original_name": "Une Brique A La Fois",
            "popularity": 0.6
        },
        {
            "id": 73762,
            "original_name": "L'Am\u00e9rique de Michel Barrette",
            "popularity": 0.6
        },
        {
            "id": 74499,
            "original_name": "La Famille \u00e0 remonter le temps - Belgique",
            "popularity": 0.6
        },
        {
            "id": 75088,
            "original_name": "Lascaux IV : un defi technologique",
            "popularity": 0.6
        },
        {
            "id": 76171,
            "original_name": "Les magnifiques",
            "popularity": 1.314
        },
        {
            "id": 76390,
            "original_name": "The Voice Belgique",
            "popularity": 1.847
        },
        {
            "id": 76891,
            "original_name": "Police scientifique",
            "popularity": 0.6
        },
        {
            "id": 76917,
            "original_name": "L'Afrique des paradis naturels",
            "popularity": 0.847
        },
        {
            "id": 78674,
            "original_name": "Cartouche, le brigand magnifique",
            "popularity": 0.6
        },
        {
            "id": 78764,
            "original_name": "Bapt&Ga\u00ebl et Les Aventures de la Couille Cosmique",
            "popularity": 1.194
        },
        {
            "id": 80554,
            "original_name": "Technique Critique",
            "popularity": 0.6
        },
        {
            "id": 82556,
            "original_name": "Kirk Hammett Guitar Techniques",
            "popularity": 0.6
        },
        {
            "id": 84631,
            "original_name": "Iconique Chateau Frontenac",
            "popularity": 0.6
        },
        {
            "id": 85861,
            "original_name": "Esprit critique",
            "popularity": 5.051
        },
        {
            "id": 86689,
            "original_name": "Pas de panique on cuisine",
            "popularity": 0.609
        },
        {
            "id": 89283,
            "original_name": "Fi\u00e8vre politique",
            "popularity": 0.6
        },
        {
            "id": 89787,
            "original_name": "Enqu\u00eates arch\u00e9ologiques",
            "popularity": 0.6
        },
        {
            "id": 90030,
            "original_name": "Les chroniques scientifiques de Jean-Ren\u00e9 Dufort",
            "popularity": 0.6
        },
        {
            "id": 90959,
            "original_name": "Afrique, les arbres de la vie",
            "popularity": 0.6
        },
        {
            "id": 91893,
            "original_name": "Chalets de la c\u00f4te Atlantique",
            "popularity": 0.6
        },
        {
            "id": 92734,
            "original_name": "Toxique",
            "popularity": 0.6
        },
        {
            "id": 92744,
            "original_name": "GTI : groupe tactique d'intervention",
            "popularity": 0.863
        },
        {
            "id": 93317,
            "original_name": "Chroniques animales",
            "popularity": 0.6
        },
        {
            "id": 93898,
            "original_name": "Les \u00eeles de l'Atlantique",
            "popularity": 0.6
        },
        {
            "id": 94884,
            "original_name": "Niquelao!",
            "popularity": 2.274
        },
        {
            "id": 95097,
            "original_name": "Le Monde Magique de chantal goya",
            "popularity": 0.6
        },
        {
            "id": 95325,
            "original_name": "OPJ, Pacifique Sud",
            "popularity": 2.269
        },
        {
            "id": 95526,
            "original_name": "La pratique du loisir au Canada",
            "popularity": 0.6
        },
        {
            "id": 95705,
            "original_name": "Tropiques Criminels",
            "popularity": 2.555
        },
        {
            "id": 96281,
            "original_name": "L'art \u00e9rotique",
            "popularity": 0.634
        },
        {
            "id": 96282,
            "original_name": "La bo\u00eete \u00e0 musique",
            "popularity": 0.84
        },
        {
            "id": 98143,
            "original_name": "The Voice Kids Belgique",
            "popularity": 0.6
        },
        {
            "id": 98150,
            "original_name": "La p\u00e9ninsule Ib\u00e9rique au fil de l'eau",
            "popularity": 0.6
        },
        {
            "id": 98302,
            "original_name": "Les Chroniques du chaos",
            "popularity": 0.6
        },
        {
            "id": 98356,
            "original_name": "Sur les rivages de la Baltique",
            "popularity": 0.6
        },
        {
            "id": 98378,
            "original_name": "Vive La Politique",
            "popularity": 0.6
        },
        {
            "id": 98392,
            "original_name": "Chroniques v\u00e9g\u00e9tales",
            "popularity": 0.6
        },
        {
            "id": 98511,
            "original_name": "Merveilles Nordiques",
            "popularity": 0.6
        },
        {
            "id": 98516,
            "original_name": "Sous le Soleil du Mexique",
            "popularity": 0.6
        },
        {
            "id": 98530,
            "original_name": "La Travers\u00e9e de l'Atlantique \u00e0 la Voile",
            "popularity": 0.6
        },
        {
            "id": 98577,
            "original_name": "Les Routes Mythiques de l'Europe",
            "popularity": 0.6
        },
        {
            "id": 98590,
            "original_name": "Cap sur l'Atlantique",
            "popularity": 0.6
        },
        {
            "id": 98870,
            "original_name": "Am\u00e9rique du sud, sur la route des extr\u00eames",
            "popularity": 0.6
        },
        {
            "id": 98908,
            "original_name": "Minichronique",
            "popularity": 2.145
        },
        {
            "id": 99091,
            "original_name": "Goulag, une histoire sovi\u00e9tique",
            "popularity": 0.923
        },
        {
            "id": 99197,
            "original_name": "Merveilles d\u2019Afrique",
            "popularity": 0.6
        },
        {
            "id": 99481,
            "original_name": "Les Chroniques de l'Afrique Sauvage",
            "popularity": 0.6
        },
        {
            "id": 102408,
            "original_name": "Le voyage fantastique des fr\u00e8res Bogdanov",
            "popularity": 0.6
        },
        {
            "id": 102811,
            "original_name": "Moi, Belgique",
            "popularity": 0.6
        },
        {
            "id": 103028,
            "original_name": "Panique dans l'oreillette",
            "popularity": 2.324
        },
        {
            "id": 104354,
            "original_name": "Transatlantiques",
            "popularity": 0.6
        },
        {
            "id": 104817,
            "original_name": "Demain l'Afrique",
            "popularity": 0.6
        },
        {
            "id": 105625,
            "original_name": "La grande histoire des peuples d'am\u00e9rique",
            "popularity": 0.6
        },
        {
            "id": 105697,
            "original_name": "Classical Stretch - The Esmonde Technique",
            "popularity": 1.553
        },
        {
            "id": 107620,
            "original_name": "Cuv\u00e9e comique",
            "popularity": 1.256
        },
        {
            "id": 107695,
            "original_name": "Hotels mythiques",
            "popularity": 0.84
        },
        {
            "id": 107835,
            "original_name": "Tout pour la musique",
            "popularity": 0.6
        },
        {
            "id": 110769,
            "original_name": "L\u2019Acad\u00e9mie \u00e9lectrique du Guide de l\u2019auto",
            "popularity": 1.4
        },
        {
            "id": 110802,
            "original_name": "Boutique MC Gilles",
            "popularity": 0.645
        },
        {
            "id": 111504,
            "original_name": "Cultive ton comique",
            "popularity": 0.874
        },
        {
            "id": 112685,
            "original_name": "Papa \u00e9pique",
            "popularity": 1.165
        },
        {
            "id": 113210,
            "original_name": "La soir\u00e9e magique d'Eric Antoine",
            "popularity": 0.6
        },
        {
            "id": 113462,
            "original_name": "La Fabrique du Mensonge",
            "popularity": 0.766
        },
        {
            "id": 113819,
            "original_name": "3615 Monique",
            "popularity": 1.526
        },
        {
            "id": 113872,
            "original_name": "Nazis: La M\u00e9canique du Mal",
            "popularity": 0.6
        },
        {
            "id": 114037,
            "original_name": "Chroniques criminelles",
            "popularity": 0.6
        },
        {
            "id": 114139,
            "original_name": "Sylvain le magnifique",
            "popularity": 0.6
        },
        {
            "id": 114595,
            "original_name": "James Cook, l'explorateur du Pacifique",
            "popularity": 0.6
        },
        {
            "id": 116713,
            "original_name": "Mission arctique",
            "popularity": 0.6
        },
        {
            "id": 116714,
            "original_name": "Mission Antarctique : le volet scientifique",
            "popularity": 0.6
        },
        {
            "id": 118836,
            "original_name": "C\u00e9r\u00e9monie des Victoires de la musique",
            "popularity": 0.667
        },
        {
            "id": 119901,
            "original_name": "My Unique B&B",
            "popularity": 0.6
        },
        {
            "id": 119919,
            "original_name": "Magic - La Famille F\u00e9erique",
            "popularity": 0.6
        },
        {
            "id": 120983,
            "original_name": "Ench\u00e8res m\u00e9caniques",
            "popularity": 0.931
        },
        {
            "id": 121822,
            "original_name": "Dream Boutique",
            "popularity": 0.84
        },
        {
            "id": 122743,
            "original_name": "HomeGrown Makeover with Frederique and Carter",
            "popularity": 0.6
        },
        {
            "id": 123203,
            "original_name": "Le r\u00eave olympique",
            "popularity": 0.738
        },
        {
            "id": 123951,
            "original_name": "Voir la musique autrement",
            "popularity": 0.6
        },
        {
            "id": 124620,
            "original_name": "Les enfants de la musique",
            "popularity": 0.6
        },
        {
            "id": 126044,
            "original_name": "Routes Mythiques",
            "popularity": 0.6
        },
        {
            "id": 126088,
            "original_name": "The Etiquette Show",
            "popularity": 0.6
        },
        {
            "id": 126434,
            "original_name": "Jeux Olympiques TOKYO 2020",
            "popularity": 1.4
        },
        {
            "id": 127402,
            "original_name": "Chirurgie plastique : reconstruire la vie",
            "popularity": 0.793
        },
        {
            "id": 127736,
            "original_name": "Les Aventures Fantastiques du Commandant Cousteau",
            "popularity": 0.841
        },
        {
            "id": 127874,
            "original_name": "39-45 : Une Guerre Strate\u0301gique",
            "popularity": 0.6
        },
        {
            "id": 127898,
            "original_name": "Brega & Chique",
            "popularity": 0.932
        },
        {
            "id": 128671,
            "original_name": "Le neveu d'Am\u00e9rique",
            "popularity": 0.6
        },
        {
            "id": 129623,
            "original_name": "Les sentinelles de l'Afrique",
            "popularity": 0.6
        },
        {
            "id": 129744,
            "original_name": "Antiques Uncovered",
            "popularity": 0.6
        },
        {
            "id": 129994,
            "original_name": "Une fleur dans le Pacifique",
            "popularity": 0.6
        },
        {
            "id": 130925,
            "original_name": "Briquefan",
            "popularity": 0.6
        },
        {
            "id": 132319,
            "original_name": "Justin Trudeau - L'Autre Amerique",
            "popularity": 0.6
        },
        {
            "id": 133058,
            "original_name": "Kirikou d\u00e9couvre les animaux d'Afrique",
            "popularity": 0.6
        },
        {
            "id": 133374,
            "original_name": "Curvy Brides Boutique",
            "popularity": 0.6
        },
        {
            "id": 134984,
            "original_name": "El hijo del Cacique",
            "popularity": 1.8
        },
        {
            "id": 135656,
            "original_name": "Influence toxique",
            "popularity": 0.6
        },
        {
            "id": 136358,
            "original_name": "Platonique",
            "popularity": 0.6
        },
        {
            "id": 136360,
            "original_name": "Strictement platonique",
            "popularity": 1.252
        },
        {
            "id": 136398,
            "original_name": "Presto ! Le Manoir Magique",
            "popularity": 0.985
        },
        {
            "id": 137367,
            "original_name": "L'am\u00e9rique inexplor\u00e9e",
            "popularity": 0.6
        },
        {
            "id": 138255,
            "original_name": "Simone Et Moi : une amiti\u00e9 m\u00e9canique",
            "popularity": 0.6
        },
        {
            "id": 139429,
            "original_name": "Famille magique",
            "popularity": 22.856
        }
    ],
    "relations": [
        {
            "character": "iques"
        },
        {
            "character": "iquez"
        },
        {
            "character": "iqueh"
        },
        {
            "character": "iquet"
        },
        {
            "character": "iquel"
        },
        {
            "character": "iquef"
        }
    ],
    "top20": [
        {
            "id": 66398,
            "original_name": "Diomedes, el Cacique de La Junta",
            "popularity": 78.681
        },
        {
            "id": 66250,
            "original_name": "Celebrity Antiques Road Trip",
            "popularity": 27.549
        },
        {
            "id": 139429,
            "original_name": "Famille magique",
            "popularity": 22.856
        },
        {
            "id": 70566,
            "original_name": "Clique",
            "popularity": 14.585
        },
        {
            "id": 85861,
            "original_name": "Esprit critique",
            "popularity": 5.051
        },
        {
            "id": 2042,
            "original_name": "Antiques Roadshow",
            "popularity": 4.02
        },
        {
            "id": 5065,
            "original_name": "Il \u00e9tait une fois\u2026 les Am\u00e9riques",
            "popularity": 3.371
        },
        {
            "id": 41150,
            "original_name": "Die Strandclique",
            "popularity": 2.58
        },
        {
            "id": 95705,
            "original_name": "Tropiques Criminels",
            "popularity": 2.555
        },
        {
            "id": 58581,
            "original_name": "Antiques Road Trip",
            "popularity": 2.354
        },
        {
            "id": 103028,
            "original_name": "Panique dans l'oreillette",
            "popularity": 2.324
        },
        {
            "id": 94884,
            "original_name": "Niquelao!",
            "popularity": 2.274
        },
        {
            "id": 95325,
            "original_name": "OPJ, Pacifique Sud",
            "popularity": 2.269
        },
        {
            "id": 98908,
            "original_name": "Minichronique",
            "popularity": 2.145
        },
        {
            "id": 76390,
            "original_name": "The Voice Belgique",
            "popularity": 1.847
        },
        {
            "id": 134984,
            "original_name": "El hijo del Cacique",
            "popularity": 1.8
        },
        {
            "id": 12683,
            "original_name": "R.I.S, police scientifique",
            "popularity": 1.743
        },
        {
            "id": 105697,
            "original_name": "Classical Stretch - The Esmonde Technique",
            "popularity": 1.553
        },
        {
            "id": 113819,
            "original_name": "3615 Monique",
            "popularity": 1.526
        },
        {
            "id": 11321,
            "original_name": "Panique au village",
            "popularity": 1.438
        }
    ]
}