{
    "data": [
        {
            "id": 1866,
            "original_name": "Miracles",
            "popularity": 5.986
        },
        {
            "id": 5647,
            "original_name": "It's a Miracle",
            "popularity": 3.249
        },
        {
            "id": 9393,
            "original_name": "Making Miracles",
            "popularity": 0.6
        },
        {
            "id": 9734,
            "original_name": "A Time for Miracles",
            "popularity": 0.6
        },
        {
            "id": 9923,
            "original_name": "Miracle Workers",
            "popularity": 0.6
        },
        {
            "id": 11192,
            "original_name": "Miracle Pets",
            "popularity": 1.72
        },
        {
            "id": 12021,
            "original_name": "Telemiracle",
            "popularity": 0.6
        },
        {
            "id": 13369,
            "original_name": "Miracles Take Longer",
            "popularity": 0.6
        },
        {
            "id": 13435,
            "original_name": "Miracle Giants Dome-kun",
            "popularity": 1.095
        },
        {
            "id": 14084,
            "original_name": "Miracle Planet",
            "popularity": 0.924
        },
        {
            "id": 15033,
            "original_name": "Life's Little Miracles",
            "popularity": 0.6
        },
        {
            "id": 17157,
            "original_name": "Miracle on Ice",
            "popularity": 0.6
        },
        {
            "id": 17898,
            "original_name": "Miracle's Boys",
            "popularity": 2.042
        },
        {
            "id": 18163,
            "original_name": "Miracle",
            "popularity": 0.6
        },
        {
            "id": 20638,
            "original_name": "The Miracle of Bali",
            "popularity": 0.875
        },
        {
            "id": 21905,
            "original_name": "Lovege Chu ~Miracle Seiyuu Hakusho~",
            "popularity": 2.391
        },
        {
            "id": 24253,
            "original_name": "The Miracles of Jesus",
            "popularity": 0.6
        },
        {
            "id": 27028,
            "original_name": "Kick Ass Miracles",
            "popularity": 0.6
        },
        {
            "id": 30650,
            "original_name": "Medical Miracles",
            "popularity": 0.6
        },
        {
            "id": 37878,
            "original_name": "Miracle Detectives",
            "popularity": 0.6
        },
        {
            "id": 38353,
            "original_name": "Nature's Miracle Babies",
            "popularity": 0.6
        },
        {
            "id": 39247,
            "original_name": "Medical Miracles",
            "popularity": 0.6
        },
        {
            "id": 41309,
            "original_name": "Karishma: A Miracle of Destiny",
            "popularity": 0.6
        },
        {
            "id": 45955,
            "original_name": "Miracle Train - \u014cedo-sen e Y\u014dkoso",
            "popularity": 0.6
        },
        {
            "id": 46498,
            "original_name": "Miracles",
            "popularity": 0.6
        },
        {
            "id": 48781,
            "original_name": "Except A Miracle",
            "popularity": 0.6
        },
        {
            "id": 52256,
            "original_name": "The Miracle Healer Couple",
            "popularity": 0.6
        },
        {
            "id": 55572,
            "original_name": "Richard Hammond's Miracles of Nature",
            "popularity": 1.292
        },
        {
            "id": 59414,
            "original_name": "Karishma \u2013 The Miracles of Destiny",
            "popularity": 0.6
        },
        {
            "id": 60176,
            "original_name": "Blue Rodeo: Small Miracles",
            "popularity": 0.6
        },
        {
            "id": 60239,
            "original_name": "Miracle at Sea: The Rescue of Tony Bullimore",
            "popularity": 0.6
        },
        {
            "id": 61254,
            "original_name": "Nature's Miracle Orphans",
            "popularity": 0.6
        },
        {
            "id": 73210,
            "original_name": "Everyday Miracles: The Genius of Sofas, Stockings and Scanners",
            "popularity": 0.638
        },
        {
            "id": 77263,
            "original_name": "Miracle Body",
            "popularity": 0.6
        },
        {
            "id": 78950,
            "original_name": "Miracle Workers",
            "popularity": 24.308
        },
        {
            "id": 83106,
            "original_name": "A Christmas Miracle: The Making of a Charlie Brown Christmas",
            "popularity": 0.823
        },
        {
            "id": 84027,
            "original_name": "Cocorico Miracle Type",
            "popularity": 0.6
        },
        {
            "id": 86146,
            "original_name": "Miracle in the Pacific",
            "popularity": 0.84
        },
        {
            "id": 98398,
            "original_name": "La Cor\u00e9e du Sud, le pays aux multiples miracles",
            "popularity": 0.6
        },
        {
            "id": 98426,
            "original_name": "Miracles Decoded",
            "popularity": 0.6
        },
        {
            "id": 99104,
            "original_name": "Jean de la Tour Miracle",
            "popularity": 0.622
        },
        {
            "id": 100509,
            "original_name": "Le Miracle de l'amour",
            "popularity": 1.559
        },
        {
            "id": 126496,
            "original_name": "Baby Surgeons: Delivering Miracles",
            "popularity": 1.178
        },
        {
            "id": 128690,
            "original_name": "La Plan\u00e8te Miracle 2",
            "popularity": 0.6
        },
        {
            "id": 135119,
            "original_name": "Mysteries, Magic & Miracles",
            "popularity": 0.6
        }
    ],
    "relations": [
        {
            "character": "iracles"
        }
    ],
    "top20": [
        {
            "id": 78950,
            "original_name": "Miracle Workers",
            "popularity": 24.308
        },
        {
            "id": 1866,
            "original_name": "Miracles",
            "popularity": 5.986
        },
        {
            "id": 5647,
            "original_name": "It's a Miracle",
            "popularity": 3.249
        },
        {
            "id": 21905,
            "original_name": "Lovege Chu ~Miracle Seiyuu Hakusho~",
            "popularity": 2.391
        },
        {
            "id": 17898,
            "original_name": "Miracle's Boys",
            "popularity": 2.042
        },
        {
            "id": 11192,
            "original_name": "Miracle Pets",
            "popularity": 1.72
        },
        {
            "id": 100509,
            "original_name": "Le Miracle de l'amour",
            "popularity": 1.559
        },
        {
            "id": 55572,
            "original_name": "Richard Hammond's Miracles of Nature",
            "popularity": 1.292
        },
        {
            "id": 126496,
            "original_name": "Baby Surgeons: Delivering Miracles",
            "popularity": 1.178
        },
        {
            "id": 13435,
            "original_name": "Miracle Giants Dome-kun",
            "popularity": 1.095
        },
        {
            "id": 14084,
            "original_name": "Miracle Planet",
            "popularity": 0.924
        },
        {
            "id": 20638,
            "original_name": "The Miracle of Bali",
            "popularity": 0.875
        },
        {
            "id": 86146,
            "original_name": "Miracle in the Pacific",
            "popularity": 0.84
        },
        {
            "id": 83106,
            "original_name": "A Christmas Miracle: The Making of a Charlie Brown Christmas",
            "popularity": 0.823
        },
        {
            "id": 73210,
            "original_name": "Everyday Miracles: The Genius of Sofas, Stockings and Scanners",
            "popularity": 0.638
        },
        {
            "id": 99104,
            "original_name": "Jean de la Tour Miracle",
            "popularity": 0.622
        },
        {
            "id": 9923,
            "original_name": "Miracle Workers",
            "popularity": 0.6
        },
        {
            "id": 9393,
            "original_name": "Making Miracles",
            "popularity": 0.6
        },
        {
            "id": 12021,
            "original_name": "Telemiracle",
            "popularity": 0.6
        },
        {
            "id": 9734,
            "original_name": "A Time for Miracles",
            "popularity": 0.6
        }
    ]
}