{
    "data": [
        {
            "id": 34487,
            "original_name": "Cinta Kirana",
            "popularity": 0.6
        },
        {
            "id": 54198,
            "original_name": "Tayart Niranam",
            "popularity": 0.6
        },
        {
            "id": 107453,
            "original_name": "#Love #Likes #Tirana",
            "popularity": 0.6
        },
        {
            "id": 136509,
            "original_name": "Simpetheri Apo Ta Tirana",
            "popularity": 0.6
        },
        {
            "id": 138968,
            "original_name": "H.O.T. Human of TIRANA",
            "popularity": 0.862
        }
    ],
    "relations": [],
    "top20": [
        {
            "id": 34487,
            "original_name": "Cinta Kirana",
            "popularity": 0.6
        },
        {
            "id": 54198,
            "original_name": "Tayart Niranam",
            "popularity": 0.6
        },
        {
            "id": 107453,
            "original_name": "#Love #Likes #Tirana",
            "popularity": 0.6
        },
        {
            "id": 136509,
            "original_name": "Simpetheri Apo Ta Tirana",
            "popularity": 0.6
        },
        {
            "id": 138968,
            "original_name": "H.O.T. Human of TIRANA",
            "popularity": 0.862
        }
    ]
}