{
    "data": [
        {
            "id": 67285,
            "original_name": "Tiranos temblad",
            "popularity": 0.6
        }
    ],
    "relations": [],
    "top20": [
        {
            "id": 67285,
            "original_name": "Tiranos temblad",
            "popularity": 0.6
        }
    ]
}