{
    "data": [
        {
            "id": 105895,
            "original_name": "Fairground Attractions",
            "popularity": 0.6
        }
    ],
    "relations": [],
    "top20": [
        {
            "id": 105895,
            "original_name": "Fairground Attractions",
            "popularity": 0.6
        }
    ]
}