{
    "data": [
        {
            "id": 75262,
            "original_name": "Robert Kirkman's Secret History of Comics",
            "popularity": 7.2
        }
    ],
    "relations": [],
    "top20": [
        {
            "id": 75262,
            "original_name": "Robert Kirkman's Secret History of Comics",
            "popularity": 7.2
        }
    ]
}