{
    "data": [
        {
            "id": 93130,
            "original_name": "3 plus 1 s Miroslavem Donutilem",
            "popularity": 0.6
        },
        {
            "id": 97356,
            "original_name": "V\u016fn\u011b alb\u00e1nsk\u00e9 kuchyn\u011b s Miroslavem Donutilem",
            "popularity": 1.367
        }
    ],
    "relations": [],
    "top20": [
        {
            "id": 93130,
            "original_name": "3 plus 1 s Miroslavem Donutilem",
            "popularity": 0.6
        },
        {
            "id": 97356,
            "original_name": "V\u016fn\u011b alb\u00e1nsk\u00e9 kuchyn\u011b s Miroslavem Donutilem",
            "popularity": 1.367
        }
    ]
}