{
    "data": [
        {
            "id": 4668,
            "original_name": "Mirror, Mirror",
            "popularity": 2.21
        },
        {
            "id": 8525,
            "original_name": "Smoke and Mirrors",
            "popularity": 0.6
        },
        {
            "id": 8857,
            "original_name": "Mirrorman",
            "popularity": 0.626
        },
        {
            "id": 8941,
            "original_name": "Mirrorball",
            "popularity": 0.6
        },
        {
            "id": 25914,
            "original_name": "Revlon Mirror Theatre",
            "popularity": 0.841
        },
        {
            "id": 29405,
            "original_name": "Mirror, Mirror II",
            "popularity": 1.556
        },
        {
            "id": 41740,
            "original_name": "Man in the Mirror: The Michael Jackson Story",
            "popularity": 0.87
        },
        {
            "id": 42009,
            "original_name": "Black Mirror",
            "popularity": 117.981
        },
        {
            "id": 48496,
            "original_name": "Basic Maths - Mirrors",
            "popularity": 0.6
        },
        {
            "id": 48510,
            "original_name": "Murder with Mirrors",
            "popularity": 0.6
        },
        {
            "id": 53013,
            "original_name": "Opinions and Mirrors",
            "popularity": 0.6
        },
        {
            "id": 53302,
            "original_name": "Dark Mirror",
            "popularity": 0.6
        },
        {
            "id": 56796,
            "original_name": "Smoke and Mirrors",
            "popularity": 0.6
        },
        {
            "id": 67675,
            "original_name": "The Marriage of Flowers in the Mirror",
            "popularity": 0.6
        },
        {
            "id": 70839,
            "original_name": "coldmirror",
            "popularity": 0.626
        },
        {
            "id": 85500,
            "original_name": "The Mirror",
            "popularity": 0.6
        },
        {
            "id": 122671,
            "original_name": "Hidden Mirror",
            "popularity": 0.6
        },
        {
            "id": 129164,
            "original_name": "\u8abf\u6559\u4f60MIRROR",
            "popularity": 0.6
        },
        {
            "id": 133279,
            "original_name": "Todd Sampson's Mirror Mirror",
            "popularity": 0.6
        }
    ],
    "relations": [],
    "top20": [
        {
            "id": 4668,
            "original_name": "Mirror, Mirror",
            "popularity": 2.21
        },
        {
            "id": 8525,
            "original_name": "Smoke and Mirrors",
            "popularity": 0.6
        },
        {
            "id": 8857,
            "original_name": "Mirrorman",
            "popularity": 0.626
        },
        {
            "id": 8941,
            "original_name": "Mirrorball",
            "popularity": 0.6
        },
        {
            "id": 25914,
            "original_name": "Revlon Mirror Theatre",
            "popularity": 0.841
        },
        {
            "id": 29405,
            "original_name": "Mirror, Mirror II",
            "popularity": 1.556
        },
        {
            "id": 41740,
            "original_name": "Man in the Mirror: The Michael Jackson Story",
            "popularity": 0.87
        },
        {
            "id": 42009,
            "original_name": "Black Mirror",
            "popularity": 117.981
        },
        {
            "id": 48496,
            "original_name": "Basic Maths - Mirrors",
            "popularity": 0.6
        },
        {
            "id": 48510,
            "original_name": "Murder with Mirrors",
            "popularity": 0.6
        },
        {
            "id": 53013,
            "original_name": "Opinions and Mirrors",
            "popularity": 0.6
        },
        {
            "id": 53302,
            "original_name": "Dark Mirror",
            "popularity": 0.6
        },
        {
            "id": 56796,
            "original_name": "Smoke and Mirrors",
            "popularity": 0.6
        },
        {
            "id": 67675,
            "original_name": "The Marriage of Flowers in the Mirror",
            "popularity": 0.6
        },
        {
            "id": 70839,
            "original_name": "coldmirror",
            "popularity": 0.626
        },
        {
            "id": 85500,
            "original_name": "The Mirror",
            "popularity": 0.6
        },
        {
            "id": 122671,
            "original_name": "Hidden Mirror",
            "popularity": 0.6
        },
        {
            "id": 129164,
            "original_name": "\u8abf\u6559\u4f60MIRROR",
            "popularity": 0.6
        },
        {
            "id": 133279,
            "original_name": "Todd Sampson's Mirror Mirror",
            "popularity": 0.6
        }
    ]
}