{
    "data": [
        {
            "id": 2119,
            "original_name": "Airwolf",
            "popularity": 34.769
        },
        {
            "id": 3874,
            "original_name": "Airwaves",
            "popularity": 0.658
        },
        {
            "id": 13821,
            "original_name": "The Crow: Stairway to Heaven",
            "popularity": 13.643
        },
        {
            "id": 15803,
            "original_name": "Aashirwad",
            "popularity": 0.6
        },
        {
            "id": 17359,
            "original_name": "Rahe Tera Aashirwaad",
            "popularity": 0.6
        },
        {
            "id": 18841,
            "original_name": "Stairway to Heaven",
            "popularity": 1.34
        },
        {
            "id": 56908,
            "original_name": "A Week that Changed Australia: The Death of Steve Irwin and Peter Brock",
            "popularity": 0.6
        },
        {
            "id": 58051,
            "original_name": "Steve Irwin's Wildlife Warriors",
            "popularity": 0.6
        },
        {
            "id": 59310,
            "original_name": "Terri Irwin: The Exclusive Interview with Ray Martin",
            "popularity": 0.6
        },
        {
            "id": 59402,
            "original_name": "Stairway to the Stars",
            "popularity": 0.6
        },
        {
            "id": 83542,
            "original_name": "Crikey! It's the Irwins",
            "popularity": 12.261
        },
        {
            "id": 93274,
            "original_name": "British Airways 24/7: Access All Areas",
            "popularity": 0.6
        },
        {
            "id": 101696,
            "original_name": "The Crocodile Hunter: Best of Steve Irwin",
            "popularity": 0.6
        }
    ],
    "relations": [],
    "top20": [
        {
            "id": 2119,
            "original_name": "Airwolf",
            "popularity": 34.769
        },
        {
            "id": 3874,
            "original_name": "Airwaves",
            "popularity": 0.658
        },
        {
            "id": 13821,
            "original_name": "The Crow: Stairway to Heaven",
            "popularity": 13.643
        },
        {
            "id": 15803,
            "original_name": "Aashirwad",
            "popularity": 0.6
        },
        {
            "id": 17359,
            "original_name": "Rahe Tera Aashirwaad",
            "popularity": 0.6
        },
        {
            "id": 18841,
            "original_name": "Stairway to Heaven",
            "popularity": 1.34
        },
        {
            "id": 56908,
            "original_name": "A Week that Changed Australia: The Death of Steve Irwin and Peter Brock",
            "popularity": 0.6
        },
        {
            "id": 58051,
            "original_name": "Steve Irwin's Wildlife Warriors",
            "popularity": 0.6
        },
        {
            "id": 59310,
            "original_name": "Terri Irwin: The Exclusive Interview with Ray Martin",
            "popularity": 0.6
        },
        {
            "id": 59402,
            "original_name": "Stairway to the Stars",
            "popularity": 0.6
        },
        {
            "id": 83542,
            "original_name": "Crikey! It's the Irwins",
            "popularity": 12.261
        },
        {
            "id": 93274,
            "original_name": "British Airways 24/7: Access All Areas",
            "popularity": 0.6
        },
        {
            "id": 101696,
            "original_name": "The Crocodile Hunter: Best of Steve Irwin",
            "popularity": 0.6
        }
    ]
}