{
    "data": [
        {
            "id": 73021,
            "original_name": "Disenchantment",
            "popularity": 56.749
        }
    ],
    "relations": [],
    "top20": [
        {
            "id": 73021,
            "original_name": "Disenchantment",
            "popularity": 56.749
        }
    ]
}