{
    "data": [
        {
            "id": 2152,
            "original_name": "Wishbone",
            "popularity": 4.199
        },
        {
            "id": 35528,
            "original_name": "Amazon Fishbowl",
            "popularity": 0.6
        },
        {
            "id": 38346,
            "original_name": "The Fish Fishburne Show",
            "popularity": 0.6
        },
        {
            "id": 120176,
            "original_name": "Grandes misterios de la historia (Laurence Fishburne)",
            "popularity": 0.6
        }
    ],
    "relations": [],
    "top20": [
        {
            "id": 2152,
            "original_name": "Wishbone",
            "popularity": 4.199
        },
        {
            "id": 35528,
            "original_name": "Amazon Fishbowl",
            "popularity": 0.6
        },
        {
            "id": 38346,
            "original_name": "The Fish Fishburne Show",
            "popularity": 0.6
        },
        {
            "id": 120176,
            "original_name": "Grandes misterios de la historia (Laurence Fishburne)",
            "popularity": 0.6
        }
    ]
}