{
    "data": [
        {
            "id": 56202,
            "original_name": "Ishraqat Quraniyya",
            "popularity": 0.6
        }
    ],
    "relations": [],
    "top20": [
        {
            "id": 56202,
            "original_name": "Ishraqat Quraniyya",
            "popularity": 0.6
        }
    ]
}