{
    "data": [
        {
            "id": 5639,
            "original_name": "Pushing Daisies",
            "popularity": 23.77
        },
        {
            "id": 15540,
            "original_name": "Please Don't Eat the Daisies",
            "popularity": 4.408
        },
        {
            "id": 28226,
            "original_name": "Pushing Up Daisies",
            "popularity": 0.951
        },
        {
            "id": 40747,
            "original_name": "Das unsichtbare Visier",
            "popularity": 1.4
        },
        {
            "id": 42984,
            "original_name": "The Bourgeoisie",
            "popularity": 0.6
        },
        {
            "id": 43730,
            "original_name": "Maisie Raine",
            "popularity": 1.052
        },
        {
            "id": 63911,
            "original_name": "Im Visier der Zielfahnder",
            "popularity": 1.211
        },
        {
            "id": 64251,
            "original_name": "Yo quisiera",
            "popularity": 1.666
        },
        {
            "id": 68551,
            "original_name": "Domisie",
            "popularity": 0.6
        },
        {
            "id": 82417,
            "original_name": "Trzy misie",
            "popularity": 0.6
        },
        {
            "id": 82647,
            "original_name": "Kriminalf\u00e4lle \u2013 Schweizer Verbrechen im Visier",
            "popularity": 0.6
        },
        {
            "id": 103141,
            "original_name": "Th\u00e9r\u00e8se, la petite sainte de Lisieux",
            "popularity": 0.6
        }
    ],
    "relations": [],
    "top20": [
        {
            "id": 5639,
            "original_name": "Pushing Daisies",
            "popularity": 23.77
        },
        {
            "id": 15540,
            "original_name": "Please Don't Eat the Daisies",
            "popularity": 4.408
        },
        {
            "id": 28226,
            "original_name": "Pushing Up Daisies",
            "popularity": 0.951
        },
        {
            "id": 40747,
            "original_name": "Das unsichtbare Visier",
            "popularity": 1.4
        },
        {
            "id": 42984,
            "original_name": "The Bourgeoisie",
            "popularity": 0.6
        },
        {
            "id": 43730,
            "original_name": "Maisie Raine",
            "popularity": 1.052
        },
        {
            "id": 63911,
            "original_name": "Im Visier der Zielfahnder",
            "popularity": 1.211
        },
        {
            "id": 64251,
            "original_name": "Yo quisiera",
            "popularity": 1.666
        },
        {
            "id": 68551,
            "original_name": "Domisie",
            "popularity": 0.6
        },
        {
            "id": 82417,
            "original_name": "Trzy misie",
            "popularity": 0.6
        },
        {
            "id": 82647,
            "original_name": "Kriminalf\u00e4lle \u2013 Schweizer Verbrechen im Visier",
            "popularity": 0.6
        },
        {
            "id": 103141,
            "original_name": "Th\u00e9r\u00e8se, la petite sainte de Lisieux",
            "popularity": 0.6
        }
    ]
}