{
    "data": [
        {
            "id": 85807,
            "original_name": "Iliski Durumu: Karisik",
            "popularity": 0.6
        }
    ],
    "relations": [],
    "top20": [
        {
            "id": 85807,
            "original_name": "Iliski Durumu: Karisik",
            "popularity": 0.6
        }
    ]
}