{
    "data": [
        {
            "id": 12109,
            "original_name": "Sisimpur",
            "popularity": 0.6
        },
        {
            "id": 139639,
            "original_name": "Krisimes Stigmes",
            "popularity": 2.405
        }
    ],
    "relations": [],
    "top20": [
        {
            "id": 12109,
            "original_name": "Sisimpur",
            "popularity": 0.6
        },
        {
            "id": 139639,
            "original_name": "Krisimes Stigmes",
            "popularity": 2.405
        }
    ]
}