{
    "data": [
        {
            "id": 122958,
            "original_name": "#hetisingewikkeld",
            "popularity": 0.6
        }
    ],
    "relations": [],
    "top20": [
        {
            "id": 122958,
            "original_name": "#hetisingewikkeld",
            "popularity": 0.6
        }
    ]
}