{
    "data": [
        {
            "id": 40836,
            "original_name": "Helden der Kreisklasse",
            "popularity": 0.6
        }
    ],
    "relations": [],
    "top20": [
        {
            "id": 40836,
            "original_name": "Helden der Kreisklasse",
            "popularity": 0.6
        }
    ]
}