{
    "data": [
        {
            "id": 39932,
            "original_name": "Visoki napon",
            "popularity": 0.6
        },
        {
            "id": 41617,
            "original_name": "Disokkupati",
            "popularity": 1.763
        },
        {
            "id": 45876,
            "original_name": "Rinjin wa hisoka ni warau",
            "popularity": 0.6
        }
    ],
    "relations": [],
    "top20": [
        {
            "id": 39932,
            "original_name": "Visoki napon",
            "popularity": 0.6
        },
        {
            "id": 41617,
            "original_name": "Disokkupati",
            "popularity": 1.763
        },
        {
            "id": 45876,
            "original_name": "Rinjin wa hisoka ni warau",
            "popularity": 0.6
        }
    ]
}