{
    "data": [
        {
            "id": 12076,
            "original_name": "The Dismissal",
            "popularity": 0.6
        },
        {
            "id": 21877,
            "original_name": "The Dismissal",
            "popularity": 0.6
        }
    ],
    "relations": [],
    "top20": [
        {
            "id": 12076,
            "original_name": "The Dismissal",
            "popularity": 0.6
        },
        {
            "id": 21877,
            "original_name": "The Dismissal",
            "popularity": 0.6
        }
    ]
}