{
    "data": [
        {
            "id": 19823,
            "original_name": "Kommissionen",
            "popularity": 0.6
        },
        {
            "id": 21386,
            "original_name": "The Best Insurance Commissioner Money Can Buy.",
            "popularity": 0.6
        },
        {
            "id": 136343,
            "original_name": "Missione d'amore",
            "popularity": 0.6
        }
    ],
    "relations": [],
    "top20": [
        {
            "id": 19823,
            "original_name": "Kommissionen",
            "popularity": 0.6
        },
        {
            "id": 21386,
            "original_name": "The Best Insurance Commissioner Money Can Buy.",
            "popularity": 0.6
        },
        {
            "id": 136343,
            "original_name": "Missione d'amore",
            "popularity": 0.6
        }
    ]
}