{
    "data": [
        {
            "id": 790,
            "original_name": "Agatha Christie's Poirot",
            "popularity": 54.647
        },
        {
            "id": 6127,
            "original_name": "Agatha Christie's Marple",
            "popularity": 37.056
        },
        {
            "id": 6610,
            "original_name": "Agatha Christie: A Life in Pictures",
            "popularity": 0.6
        },
        {
            "id": 14777,
            "original_name": "Agatha Christie's Partners in Crime",
            "popularity": 4.593
        },
        {
            "id": 24251,
            "original_name": "Get Christie Love!",
            "popularity": 1.449
        },
        {
            "id": 28007,
            "original_name": "The Agatha Christie Hour",
            "popularity": 6.045
        },
        {
            "id": 61431,
            "original_name": "Les Petits Meurtres d'Agatha Christie",
            "popularity": 14.99
        },
        {
            "id": 91847,
            "original_name": "The Great War Tour with Norm Christie",
            "popularity": 0.6
        },
        {
            "id": 106178,
            "original_name": "Bauerfeind assistiert",
            "popularity": 2.044
        },
        {
            "id": 128256,
            "original_name": "Agatha Christie's Hjerson",
            "popularity": 4.997
        },
        {
            "id": 128652,
            "original_name": "Existiendo en el siglo XXI",
            "popularity": 0.6
        }
    ],
    "relations": [],
    "top20": [
        {
            "id": 790,
            "original_name": "Agatha Christie's Poirot",
            "popularity": 54.647
        },
        {
            "id": 6127,
            "original_name": "Agatha Christie's Marple",
            "popularity": 37.056
        },
        {
            "id": 6610,
            "original_name": "Agatha Christie: A Life in Pictures",
            "popularity": 0.6
        },
        {
            "id": 14777,
            "original_name": "Agatha Christie's Partners in Crime",
            "popularity": 4.593
        },
        {
            "id": 24251,
            "original_name": "Get Christie Love!",
            "popularity": 1.449
        },
        {
            "id": 28007,
            "original_name": "The Agatha Christie Hour",
            "popularity": 6.045
        },
        {
            "id": 61431,
            "original_name": "Les Petits Meurtres d'Agatha Christie",
            "popularity": 14.99
        },
        {
            "id": 91847,
            "original_name": "The Great War Tour with Norm Christie",
            "popularity": 0.6
        },
        {
            "id": 106178,
            "original_name": "Bauerfeind assistiert",
            "popularity": 2.044
        },
        {
            "id": 128256,
            "original_name": "Agatha Christie's Hjerson",
            "popularity": 4.997
        },
        {
            "id": 128652,
            "original_name": "Existiendo en el siglo XXI",
            "popularity": 0.6
        }
    ]
}