{
    "data": [
        {
            "id": 6162,
            "original_name": "Les Histoires du P\u00e8re Castor",
            "popularity": 2.72
        },
        {
            "id": 37809,
            "original_name": "Histoires de filles",
            "popularity": 0.845
        },
        {
            "id": 42946,
            "original_name": "Histoires de vies",
            "popularity": 0.6
        },
        {
            "id": 59610,
            "original_name": "Les Belles Histoires des pays d'en haut",
            "popularity": 0.6
        },
        {
            "id": 61316,
            "original_name": "Histoires des services secrets fran\u00e7ais",
            "popularity": 0.6
        },
        {
            "id": 75667,
            "original_name": "La Cabane \u00e0 Histoires",
            "popularity": 0.6
        },
        {
            "id": 79653,
            "original_name": "Les p'tites histoires extraordinaire d'Elisabeth de Caligny",
            "popularity": 0.6
        },
        {
            "id": 82577,
            "original_name": "Histoires d\u2019une nation",
            "popularity": 0.665
        },
        {
            "id": 83325,
            "original_name": "Vraies histoires de sexe",
            "popularity": 1.224
        },
        {
            "id": 88596,
            "original_name": "Histoires de chars",
            "popularity": 0.6
        },
        {
            "id": 92952,
            "original_name": "Les histoires bizarres du professeur Zarbi",
            "popularity": 3.027
        },
        {
            "id": 93262,
            "original_name": "Les belles histoires de Pomme d'Api",
            "popularity": 1.02
        },
        {
            "id": 94363,
            "original_name": "Histoires comme \u00e7a",
            "popularity": 0.842
        },
        {
            "id": 98572,
            "original_name": "Histoires d'arbres",
            "popularity": 0.6
        },
        {
            "id": 108688,
            "original_name": "Fragments, histoires \u00e0 partager",
            "popularity": 0.6
        },
        {
            "id": 111850,
            "original_name": "Histoires en cour",
            "popularity": 0.851
        },
        {
            "id": 112387,
            "original_name": "Histoires de coming-out",
            "popularity": 2.163
        },
        {
            "id": 125669,
            "original_name": "Mila, raconte mille et une histoires",
            "popularity": 0.6
        },
        {
            "id": 128453,
            "original_name": "Les histoires de Roro",
            "popularity": 0.6
        },
        {
            "id": 131137,
            "original_name": "T\u00e9l\u00e9vision (histoires secr\u00e8tes)",
            "popularity": 0.6
        }
    ],
    "relations": [],
    "top20": [
        {
            "id": 6162,
            "original_name": "Les Histoires du P\u00e8re Castor",
            "popularity": 2.72
        },
        {
            "id": 37809,
            "original_name": "Histoires de filles",
            "popularity": 0.845
        },
        {
            "id": 42946,
            "original_name": "Histoires de vies",
            "popularity": 0.6
        },
        {
            "id": 59610,
            "original_name": "Les Belles Histoires des pays d'en haut",
            "popularity": 0.6
        },
        {
            "id": 61316,
            "original_name": "Histoires des services secrets fran\u00e7ais",
            "popularity": 0.6
        },
        {
            "id": 75667,
            "original_name": "La Cabane \u00e0 Histoires",
            "popularity": 0.6
        },
        {
            "id": 79653,
            "original_name": "Les p'tites histoires extraordinaire d'Elisabeth de Caligny",
            "popularity": 0.6
        },
        {
            "id": 82577,
            "original_name": "Histoires d\u2019une nation",
            "popularity": 0.665
        },
        {
            "id": 83325,
            "original_name": "Vraies histoires de sexe",
            "popularity": 1.224
        },
        {
            "id": 88596,
            "original_name": "Histoires de chars",
            "popularity": 0.6
        },
        {
            "id": 92952,
            "original_name": "Les histoires bizarres du professeur Zarbi",
            "popularity": 3.027
        },
        {
            "id": 93262,
            "original_name": "Les belles histoires de Pomme d'Api",
            "popularity": 1.02
        },
        {
            "id": 94363,
            "original_name": "Histoires comme \u00e7a",
            "popularity": 0.842
        },
        {
            "id": 98572,
            "original_name": "Histoires d'arbres",
            "popularity": 0.6
        },
        {
            "id": 108688,
            "original_name": "Fragments, histoires \u00e0 partager",
            "popularity": 0.6
        },
        {
            "id": 111850,
            "original_name": "Histoires en cour",
            "popularity": 0.851
        },
        {
            "id": 112387,
            "original_name": "Histoires de coming-out",
            "popularity": 2.163
        },
        {
            "id": 125669,
            "original_name": "Mila, raconte mille et une histoires",
            "popularity": 0.6
        },
        {
            "id": 128453,
            "original_name": "Les histoires de Roro",
            "popularity": 0.6
        },
        {
            "id": 131137,
            "original_name": "T\u00e9l\u00e9vision (histoires secr\u00e8tes)",
            "popularity": 0.6
        }
    ]
}