{
    "data": [
        {
            "id": 7631,
            "original_name": "Kristoff Presenta",
            "popularity": 0.6
        },
        {
            "id": 67258,
            "original_name": "Des Christoffel von Grimmelshausen abenteuerlicher Simplizissimus",
            "popularity": 2.679
        },
        {
            "id": 86930,
            "original_name": "Cristoforo Colombo",
            "popularity": 2.06
        },
        {
            "id": 134631,
            "original_name": "Christoffel Ko Hummus",
            "popularity": 0.6
        }
    ],
    "relations": [],
    "top20": [
        {
            "id": 7631,
            "original_name": "Kristoff Presenta",
            "popularity": 0.6
        },
        {
            "id": 67258,
            "original_name": "Des Christoffel von Grimmelshausen abenteuerlicher Simplizissimus",
            "popularity": 2.679
        },
        {
            "id": 86930,
            "original_name": "Cristoforo Colombo",
            "popularity": 2.06
        },
        {
            "id": 134631,
            "original_name": "Christoffel Ko Hummus",
            "popularity": 0.6
        }
    ]
}