{
    "data": [
        {
            "id": 243,
            "original_name": "Penn & Teller: Bullshit!",
            "popularity": 14.454
        },
        {
            "id": 2182,
            "original_name": "Laugh to Laugh: Ang Kulit!",
            "popularity": 0.6
        },
        {
            "id": 5810,
            "original_name": "Prove It!",
            "popularity": 0.6
        },
        {
            "id": 6434,
            "original_name": "Flog It!",
            "popularity": 0.6
        },
        {
            "id": 12019,
            "original_name": "Read All About It!",
            "popularity": 1.018
        },
        {
            "id": 17624,
            "original_name": "Making It! Minority Success Stories",
            "popularity": 0.6
        },
        {
            "id": 18937,
            "original_name": "whodunnit!",
            "popularity": 0.6
        },
        {
            "id": 21184,
            "original_name": "Pop It!",
            "popularity": 0.6
        },
        {
            "id": 24083,
            "original_name": "Appraise It!",
            "popularity": 0.6
        },
        {
            "id": 24084,
            "original_name": "Grow It!",
            "popularity": 0.6
        },
        {
            "id": 24643,
            "original_name": "Hilfe Hochzeit! - Die schlimmste Woche meines Lebens",
            "popularity": 1.4
        },
        {
            "id": 24747,
            "original_name": "Rock It!",
            "popularity": 0.6
        },
        {
            "id": 30150,
            "original_name": "Grill It! with Bobby Flay",
            "popularity": 0.6
        },
        {
            "id": 31980,
            "original_name": "Diz Iz It!",
            "popularity": 0.6
        },
        {
            "id": 35944,
            "original_name": "Pengo! Steinzeit!",
            "popularity": 0.6
        },
        {
            "id": 38871,
            "original_name": "Rock It!",
            "popularity": 0.6
        },
        {
            "id": 44627,
            "original_name": "Extra! Extra! Read All About It!",
            "popularity": 0.6
        },
        {
            "id": 61944,
            "original_name": "Bring It!",
            "popularity": 2.337
        },
        {
            "id": 64988,
            "original_name": "Brody Stevens: Enjoy It!",
            "popularity": 0.924
        },
        {
            "id": 74302,
            "original_name": "A\u017c po sufit!",
            "popularity": 0.651
        },
        {
            "id": 74638,
            "original_name": "Nail'd It!",
            "popularity": 0.6
        },
        {
            "id": 77337,
            "original_name": "Sing It!",
            "popularity": 0.809
        },
        {
            "id": 77791,
            "original_name": "Nailed It!",
            "popularity": 14.002
        },
        {
            "id": 78391,
            "original_name": "On rit la nuit!",
            "popularity": 0.868
        },
        {
            "id": 84384,
            "original_name": "It's Lit!",
            "popularity": 0.69
        },
        {
            "id": 84761,
            "original_name": "Nailed It! Holiday!",
            "popularity": 4.127
        },
        {
            "id": 86636,
            "original_name": "Nailed It! Mexico",
            "popularity": 5.491
        },
        {
            "id": 90220,
            "original_name": "DogGone It!",
            "popularity": 0.61
        },
        {
            "id": 97478,
            "original_name": "Visions of War: World War II Women - We Can Do It!",
            "popularity": 0.6
        },
        {
            "id": 98033,
            "original_name": "Nailed It! Germany",
            "popularity": 2.201
        },
        {
            "id": 109375,
            "original_name": "Brody Stevens: Enjoy It!",
            "popularity": 0.6
        },
        {
            "id": 126052,
            "original_name": "Rate mit - reise mit!",
            "popularity": 0.6
        },
        {
            "id": 127678,
            "original_name": "aufgspuit!",
            "popularity": 0.6
        },
        {
            "id": 138992,
            "original_name": "Hailey's On It!",
            "popularity": 0.6
        }
    ],
    "relations": [],
    "top20": [
        {
            "id": 243,
            "original_name": "Penn & Teller: Bullshit!",
            "popularity": 14.454
        },
        {
            "id": 77791,
            "original_name": "Nailed It!",
            "popularity": 14.002
        },
        {
            "id": 86636,
            "original_name": "Nailed It! Mexico",
            "popularity": 5.491
        },
        {
            "id": 84761,
            "original_name": "Nailed It! Holiday!",
            "popularity": 4.127
        },
        {
            "id": 61944,
            "original_name": "Bring It!",
            "popularity": 2.337
        },
        {
            "id": 98033,
            "original_name": "Nailed It! Germany",
            "popularity": 2.201
        },
        {
            "id": 24643,
            "original_name": "Hilfe Hochzeit! - Die schlimmste Woche meines Lebens",
            "popularity": 1.4
        },
        {
            "id": 12019,
            "original_name": "Read All About It!",
            "popularity": 1.018
        },
        {
            "id": 64988,
            "original_name": "Brody Stevens: Enjoy It!",
            "popularity": 0.924
        },
        {
            "id": 78391,
            "original_name": "On rit la nuit!",
            "popularity": 0.868
        },
        {
            "id": 77337,
            "original_name": "Sing It!",
            "popularity": 0.809
        },
        {
            "id": 84384,
            "original_name": "It's Lit!",
            "popularity": 0.69
        },
        {
            "id": 74302,
            "original_name": "A\u017c po sufit!",
            "popularity": 0.651
        },
        {
            "id": 90220,
            "original_name": "DogGone It!",
            "popularity": 0.61
        },
        {
            "id": 17624,
            "original_name": "Making It! Minority Success Stories",
            "popularity": 0.6
        },
        {
            "id": 18937,
            "original_name": "whodunnit!",
            "popularity": 0.6
        },
        {
            "id": 6434,
            "original_name": "Flog It!",
            "popularity": 0.6
        },
        {
            "id": 2182,
            "original_name": "Laugh to Laugh: Ang Kulit!",
            "popularity": 0.6
        },
        {
            "id": 21184,
            "original_name": "Pop It!",
            "popularity": 0.6
        },
        {
            "id": 5810,
            "original_name": "Prove It!",
            "popularity": 0.6
        }
    ]
}