{
    "data": [
        {
            "id": 13913,
            "original_name": "The Citadel",
            "popularity": 0.98
        },
        {
            "id": 53269,
            "original_name": "Itadakimasu ! Dining with the Chef",
            "popularity": 0.6
        },
        {
            "id": 88381,
            "original_name": "Arma\u00e7\u00e3o Ilimitada",
            "popularity": 2.727
        },
        {
            "id": 95364,
            "original_name": "Um Dia Na Vida De Um Ditador (2014)",
            "popularity": 0.6
        },
        {
            "id": 111482,
            "original_name": "\u00d4... Coitado!",
            "popularity": 0.6
        },
        {
            "id": 112771,
            "original_name": "TRESNOITADO",
            "popularity": 0.6
        },
        {
            "id": 114922,
            "original_name": "Citadel",
            "popularity": 3.352
        },
        {
            "id": 127156,
            "original_name": "Estamos invitados",
            "popularity": 0.6
        }
    ],
    "relations": [],
    "top20": [
        {
            "id": 13913,
            "original_name": "The Citadel",
            "popularity": 0.98
        },
        {
            "id": 53269,
            "original_name": "Itadakimasu ! Dining with the Chef",
            "popularity": 0.6
        },
        {
            "id": 88381,
            "original_name": "Arma\u00e7\u00e3o Ilimitada",
            "popularity": 2.727
        },
        {
            "id": 95364,
            "original_name": "Um Dia Na Vida De Um Ditador (2014)",
            "popularity": 0.6
        },
        {
            "id": 111482,
            "original_name": "\u00d4... Coitado!",
            "popularity": 0.6
        },
        {
            "id": 112771,
            "original_name": "TRESNOITADO",
            "popularity": 0.6
        },
        {
            "id": 114922,
            "original_name": "Citadel",
            "popularity": 3.352
        },
        {
            "id": 127156,
            "original_name": "Estamos invitados",
            "popularity": 0.6
        }
    ]
}