{
    "data": [
        {
            "id": 116,
            "original_name": "Titans",
            "popularity": 4.14
        },
        {
            "id": 604,
            "original_name": "Teen Titans",
            "popularity": 73.288
        },
        {
            "id": 2557,
            "original_name": "Class of the Titans",
            "popularity": 8.642
        },
        {
            "id": 4806,
            "original_name": "Titans of Tech",
            "popularity": 0.6
        },
        {
            "id": 7572,
            "original_name": "Titans",
            "popularity": 0.6
        },
        {
            "id": 10314,
            "original_name": "Tuesday Night Titans",
            "popularity": 0.6
        },
        {
            "id": 14150,
            "original_name": "Guest stars of Class of the Titans",
            "popularity": 0.6
        },
        {
            "id": 27277,
            "original_name": "Titans of Taste",
            "popularity": 0.6
        },
        {
            "id": 43321,
            "original_name": "CNBC Titans",
            "popularity": 0.631
        },
        {
            "id": 45140,
            "original_name": "Teen Titans Go!",
            "popularity": 68.117
        },
        {
            "id": 45738,
            "original_name": "Titans at the Table Asia",
            "popularity": 0.6
        },
        {
            "id": 46891,
            "original_name": "Bad Samaritans",
            "popularity": 1.96
        },
        {
            "id": 57533,
            "original_name": "Tattoo Titans",
            "popularity": 0.6
        },
        {
            "id": 61443,
            "original_name": "The Cosmopolitans",
            "popularity": 1.149
        },
        {
            "id": 63242,
            "original_name": "Titansgrave: The Ashes of Valkana",
            "popularity": 1.955
        },
        {
            "id": 70064,
            "original_name": "Titans de la construction",
            "popularity": 0.6
        },
        {
            "id": 75450,
            "original_name": "Titans",
            "popularity": 199.705
        },
        {
            "id": 86811,
            "original_name": "American Titans",
            "popularity": 2.01
        },
        {
            "id": 104000,
            "original_name": "Transformers: Titans Return",
            "popularity": 0.6
        },
        {
            "id": 126150,
            "original_name": "The Titans That Built America",
            "popularity": 3.089
        },
        {
            "id": 127301,
            "original_name": "Titans of the Deep",
            "popularity": 0.6
        }
    ],
    "relations": [
        {
            "character": "itansg"
        }
    ],
    "top20": [
        {
            "id": 75450,
            "original_name": "Titans",
            "popularity": 199.705
        },
        {
            "id": 604,
            "original_name": "Teen Titans",
            "popularity": 73.288
        },
        {
            "id": 45140,
            "original_name": "Teen Titans Go!",
            "popularity": 68.117
        },
        {
            "id": 2557,
            "original_name": "Class of the Titans",
            "popularity": 8.642
        },
        {
            "id": 116,
            "original_name": "Titans",
            "popularity": 4.14
        },
        {
            "id": 126150,
            "original_name": "The Titans That Built America",
            "popularity": 3.089
        },
        {
            "id": 86811,
            "original_name": "American Titans",
            "popularity": 2.01
        },
        {
            "id": 46891,
            "original_name": "Bad Samaritans",
            "popularity": 1.96
        },
        {
            "id": 63242,
            "original_name": "Titansgrave: The Ashes of Valkana",
            "popularity": 1.955
        },
        {
            "id": 61443,
            "original_name": "The Cosmopolitans",
            "popularity": 1.149
        },
        {
            "id": 43321,
            "original_name": "CNBC Titans",
            "popularity": 0.631
        },
        {
            "id": 70064,
            "original_name": "Titans de la construction",
            "popularity": 0.6
        },
        {
            "id": 10314,
            "original_name": "Tuesday Night Titans",
            "popularity": 0.6
        },
        {
            "id": 7572,
            "original_name": "Titans",
            "popularity": 0.6
        },
        {
            "id": 27277,
            "original_name": "Titans of Taste",
            "popularity": 0.6
        },
        {
            "id": 14150,
            "original_name": "Guest stars of Class of the Titans",
            "popularity": 0.6
        },
        {
            "id": 104000,
            "original_name": "Transformers: Titans Return",
            "popularity": 0.6
        },
        {
            "id": 57533,
            "original_name": "Tattoo Titans",
            "popularity": 0.6
        },
        {
            "id": 45738,
            "original_name": "Titans at the Table Asia",
            "popularity": 0.6
        },
        {
            "id": 4806,
            "original_name": "Titans of Tech",
            "popularity": 0.6
        }
    ]
}