{
    "data": [
        {
            "id": 10190,
            "original_name": "Witchblade",
            "popularity": 11.193
        }
    ],
    "relations": [],
    "top20": [
        {
            "id": 10190,
            "original_name": "Witchblade",
            "popularity": 11.193
        }
    ]
}