{
    "data": [
        {
            "id": 80764,
            "original_name": "Politibongo",
            "popularity": 0.655
        },
        {
            "id": 102187,
            "original_name": "Pelle politibil",
            "popularity": 0.6
        }
    ],
    "relations": [],
    "top20": [
        {
            "id": 80764,
            "original_name": "Politibongo",
            "popularity": 0.655
        },
        {
            "id": 102187,
            "original_name": "Pelle politibil",
            "popularity": 0.6
        }
    ]
}