{
    "data": [
        {
            "id": 56129,
            "original_name": "Mitokoumon",
            "popularity": 0.6
        }
    ],
    "relations": [],
    "top20": [
        {
            "id": 56129,
            "original_name": "Mitokoumon",
            "popularity": 0.6
        }
    ]
}