{
    "data": [
        {
            "id": 149,
            "original_name": "The Journal Editorial Report",
            "popularity": 0.6
        },
        {
            "id": 16775,
            "original_name": "Gudesens Conditori",
            "popularity": 0.6
        },
        {
            "id": 36204,
            "original_name": "Hitoribocchi no Kimi ni",
            "popularity": 0.6
        },
        {
            "id": 36416,
            "original_name": "Hitori Gurashi",
            "popularity": 1.4
        },
        {
            "id": 92278,
            "original_name": "Territorio de leones",
            "popularity": 0.6
        },
        {
            "id": 101602,
            "original_name": "Las Lunas del Auditorio",
            "popularity": 3.192
        },
        {
            "id": 112389,
            "original_name": "Hitorigurashi no Shougakusei",
            "popularity": 0.6
        },
        {
            "id": 116790,
            "original_name": "Life Below Zero: Northern Territories",
            "popularity": 2.125
        },
        {
            "id": 131220,
            "original_name": "Territorio Templario",
            "popularity": 0.6
        }
    ],
    "relations": [],
    "top20": [
        {
            "id": 149,
            "original_name": "The Journal Editorial Report",
            "popularity": 0.6
        },
        {
            "id": 16775,
            "original_name": "Gudesens Conditori",
            "popularity": 0.6
        },
        {
            "id": 36204,
            "original_name": "Hitoribocchi no Kimi ni",
            "popularity": 0.6
        },
        {
            "id": 36416,
            "original_name": "Hitori Gurashi",
            "popularity": 1.4
        },
        {
            "id": 92278,
            "original_name": "Territorio de leones",
            "popularity": 0.6
        },
        {
            "id": 101602,
            "original_name": "Las Lunas del Auditorio",
            "popularity": 3.192
        },
        {
            "id": 112389,
            "original_name": "Hitorigurashi no Shougakusei",
            "popularity": 0.6
        },
        {
            "id": 116790,
            "original_name": "Life Below Zero: Northern Territories",
            "popularity": 2.125
        },
        {
            "id": 131220,
            "original_name": "Territorio Templario",
            "popularity": 0.6
        }
    ]
}