{
    "data": [
        {
            "id": 79000,
            "original_name": "Bon Vivant",
            "popularity": 0.6
        },
        {
            "id": 82340,
            "original_name": "Au suivant!",
            "popularity": 5.245
        },
        {
            "id": 102221,
            "original_name": "Les Vivants et les Morts",
            "popularity": 0.6
        },
        {
            "id": 137407,
            "original_name": "Donnez au suivant",
            "popularity": 0.6
        },
        {
            "id": 137723,
            "original_name": "Du Big Bang au Vivant",
            "popularity": 0.6
        }
    ],
    "relations": [],
    "top20": [
        {
            "id": 79000,
            "original_name": "Bon Vivant",
            "popularity": 0.6
        },
        {
            "id": 82340,
            "original_name": "Au suivant!",
            "popularity": 5.245
        },
        {
            "id": 102221,
            "original_name": "Les Vivants et les Morts",
            "popularity": 0.6
        },
        {
            "id": 137407,
            "original_name": "Donnez au suivant",
            "popularity": 0.6
        },
        {
            "id": 137723,
            "original_name": "Du Big Bang au Vivant",
            "popularity": 0.6
        }
    ]
}