{
    "data": [
        {
            "id": 2222,
            "original_name": "The Division",
            "popularity": 14.951
        },
        {
            "id": 3381,
            "original_name": "Robbery Homicide Division",
            "popularity": 3.842
        },
        {
            "id": 9017,
            "original_name": "Noticiero Univision",
            "popularity": 0.6
        },
        {
            "id": 10403,
            "original_name": "Division 4",
            "popularity": 4.787
        },
        {
            "id": 15530,
            "original_name": "Gemini Division",
            "popularity": 13.766
        },
        {
            "id": 18574,
            "original_name": "One Nation Indivisible",
            "popularity": 0.6
        },
        {
            "id": 31465,
            "original_name": "Central Division",
            "popularity": 0.6
        },
        {
            "id": 45623,
            "original_name": "Christmas On Division Street",
            "popularity": 0.6
        },
        {
            "id": 48101,
            "original_name": "Division",
            "popularity": 0.6
        },
        {
            "id": 55601,
            "original_name": "Disney D23's Armchair Archivists",
            "popularity": 0.6
        },
        {
            "id": 57660,
            "original_name": "Tuomas Enbuske - Sivistyksen k\u00e4sikirja",
            "popularity": 0.6
        },
        {
            "id": 75753,
            "original_name": "Anime Crimes Division",
            "popularity": 1.094
        },
        {
            "id": 78528,
            "original_name": "Das Reich : une division SS en France",
            "popularity": 1.06
        },
        {
            "id": 87006,
            "original_name": "Aktivistit",
            "popularity": 1.502
        },
        {
            "id": 87628,
            "original_name": "Tom Clancy's The Division: Agent Origins",
            "popularity": 0.632
        },
        {
            "id": 90703,
            "original_name": "Storie in divisa",
            "popularity": 0.6
        },
        {
            "id": 91296,
            "original_name": "A Divis\u00e3o",
            "popularity": 1.989
        },
        {
            "id": 96139,
            "original_name": "\u30d2\u30d7\u30ce\u30b7\u30b9\u30de\u30a4\u30af-Division Rap Battle- Rhyme Anima",
            "popularity": 13.48
        },
        {
            "id": 96264,
            "original_name": "Divis\u00e3o de Homic\u00eddios",
            "popularity": 0.6
        },
        {
            "id": 96785,
            "original_name": "Koivisto",
            "popularity": 0.618
        },
        {
            "id": 106880,
            "original_name": "Aktivisten",
            "popularity": 0.6
        },
        {
            "id": 112150,
            "original_name": "Nivis: Amigos de otro mundo",
            "popularity": 1.207
        },
        {
            "id": 123995,
            "original_name": "DH - Divis\u00e3o de Homic\u00eddios",
            "popularity": 0.921
        },
        {
            "id": 129641,
            "original_name": "Karachi Division",
            "popularity": 0.84
        }
    ],
    "relations": [
        {
            "character": "ivisi"
        },
        {
            "character": "ivist"
        },
        {
            "character": "ivisa"
        }
    ],
    "top20": [
        {
            "id": 2222,
            "original_name": "The Division",
            "popularity": 14.951
        },
        {
            "id": 15530,
            "original_name": "Gemini Division",
            "popularity": 13.766
        },
        {
            "id": 96139,
            "original_name": "\u30d2\u30d7\u30ce\u30b7\u30b9\u30de\u30a4\u30af-Division Rap Battle- Rhyme Anima",
            "popularity": 13.48
        },
        {
            "id": 10403,
            "original_name": "Division 4",
            "popularity": 4.787
        },
        {
            "id": 3381,
            "original_name": "Robbery Homicide Division",
            "popularity": 3.842
        },
        {
            "id": 91296,
            "original_name": "A Divis\u00e3o",
            "popularity": 1.989
        },
        {
            "id": 87006,
            "original_name": "Aktivistit",
            "popularity": 1.502
        },
        {
            "id": 112150,
            "original_name": "Nivis: Amigos de otro mundo",
            "popularity": 1.207
        },
        {
            "id": 75753,
            "original_name": "Anime Crimes Division",
            "popularity": 1.094
        },
        {
            "id": 78528,
            "original_name": "Das Reich : une division SS en France",
            "popularity": 1.06
        },
        {
            "id": 123995,
            "original_name": "DH - Divis\u00e3o de Homic\u00eddios",
            "popularity": 0.921
        },
        {
            "id": 129641,
            "original_name": "Karachi Division",
            "popularity": 0.84
        },
        {
            "id": 87628,
            "original_name": "Tom Clancy's The Division: Agent Origins",
            "popularity": 0.632
        },
        {
            "id": 96785,
            "original_name": "Koivisto",
            "popularity": 0.618
        },
        {
            "id": 45623,
            "original_name": "Christmas On Division Street",
            "popularity": 0.6
        },
        {
            "id": 48101,
            "original_name": "Division",
            "popularity": 0.6
        },
        {
            "id": 18574,
            "original_name": "One Nation Indivisible",
            "popularity": 0.6
        },
        {
            "id": 9017,
            "original_name": "Noticiero Univision",
            "popularity": 0.6
        },
        {
            "id": 31465,
            "original_name": "Central Division",
            "popularity": 0.6
        },
        {
            "id": 55601,
            "original_name": "Disney D23's Armchair Archivists",
            "popularity": 0.6
        }
    ]
}