{
    "data": [
        {
            "id": 52209,
            "original_name": "Ang Mahiwagang Baul",
            "popularity": 0.6
        }
    ],
    "relations": [],
    "top20": [
        {
            "id": 52209,
            "original_name": "Ang Mahiwagang Baul",
            "popularity": 0.6
        }
    ]
}