{
    "data": [
        {
            "id": 72415,
            "original_name": "Tu Sooraj Main Saanjh Piyaji",
            "popularity": 0.6
        },
        {
            "id": 75237,
            "original_name": "Tu Sooraj Main Saanjh Piyaji",
            "popularity": 0.6
        }
    ],
    "relations": [],
    "top20": [
        {
            "id": 72415,
            "original_name": "Tu Sooraj Main Saanjh Piyaji",
            "popularity": 0.6
        },
        {
            "id": 75237,
            "original_name": "Tu Sooraj Main Saanjh Piyaji",
            "popularity": 0.6
        }
    ]
}