{
    "data": [
        {
            "id": 49667,
            "original_name": "A\u015fk\u0131n Mucizeleri",
            "popularity": 0.6
        },
        {
            "id": 104099,
            "original_name": "Kam zmizel ten star\u00fd song",
            "popularity": 2.323
        },
        {
            "id": 109925,
            "original_name": "Hayat Mucizelere Gebe",
            "popularity": 0.74
        }
    ],
    "relations": [],
    "top20": [
        {
            "id": 49667,
            "original_name": "A\u015fk\u0131n Mucizeleri",
            "popularity": 0.6
        },
        {
            "id": 104099,
            "original_name": "Kam zmizel ten star\u00fd song",
            "popularity": 2.323
        },
        {
            "id": 109925,
            "original_name": "Hayat Mucizelere Gebe",
            "popularity": 0.74
        }
    ]
}