{
    "data": [
        {
            "id": 40703,
            "original_name": "Drei reizende Schwestern",
            "popularity": 1.176
        }
    ],
    "relations": [],
    "top20": [
        {
            "id": 40703,
            "original_name": "Drei reizende Schwestern",
            "popularity": 1.176
        }
    ]
}