{
    "data": [
        {
            "id": 100681,
            "original_name": "Jachtseizoen",
            "popularity": 10.811
        }
    ],
    "relations": [],
    "top20": [
        {
            "id": 100681,
            "original_name": "Jachtseizoen",
            "popularity": 10.811
        }
    ]
}