{
    "data": [
        {
            "id": 92,
            "original_name": "The Famous Jett Jackson",
            "popularity": 6.332
        },
        {
            "id": 5952,
            "original_name": "Eye to Eye with Willie Jackson",
            "popularity": 0.6
        },
        {
            "id": 7714,
            "original_name": "True Jackson, VP",
            "popularity": 9.139
        },
        {
            "id": 9323,
            "original_name": "The Jacksons: An American Dream",
            "popularity": 6.758
        },
        {
            "id": 12324,
            "original_name": "The Jackson 5ive",
            "popularity": 1.059
        },
        {
            "id": 12639,
            "original_name": "Jackson Horn",
            "popularity": 0.6
        },
        {
            "id": 15145,
            "original_name": "Brandon T. Jackson Show",
            "popularity": 0.6
        },
        {
            "id": 16971,
            "original_name": "The Jacksons",
            "popularity": 2.552
        },
        {
            "id": 29299,
            "original_name": "Jackson's Wharf",
            "popularity": 2.249
        },
        {
            "id": 30482,
            "original_name": "Jackson Pace: The Great Years",
            "popularity": 0.6
        },
        {
            "id": 31565,
            "original_name": "Move Like Michael Jackson",
            "popularity": 1.4
        },
        {
            "id": 31603,
            "original_name": "The Jacksons: A Family Dynasty",
            "popularity": 0.6
        },
        {
            "id": 32641,
            "original_name": "The Brian Jackson Show",
            "popularity": 0.6
        },
        {
            "id": 33471,
            "original_name": "Jazz with Jackson",
            "popularity": 0.6
        },
        {
            "id": 36789,
            "original_name": "Move Like Michael Jackson (NL)",
            "popularity": 0.6
        },
        {
            "id": 41740,
            "original_name": "Man in the Mirror: The Michael Jackson Story",
            "popularity": 0.87
        },
        {
            "id": 44592,
            "original_name": "The Jackson Family Honors",
            "popularity": 0.6
        },
        {
            "id": 49519,
            "original_name": "Janet Jackson: Live in Hawaii",
            "popularity": 0.6
        },
        {
            "id": 60304,
            "original_name": "Spirit Bear: The Simon Jackson Story",
            "popularity": 0.6
        },
        {
            "id": 100286,
            "original_name": "La voie Jackson",
            "popularity": 0.6
        },
        {
            "id": 103540,
            "original_name": "Percy Jackson and the Olympians",
            "popularity": 1.435
        },
        {
            "id": 133129,
            "original_name": "The Hunt for Little Red - Barrett Jackson",
            "popularity": 0.6
        },
        {
            "id": 152416,
            "original_name": "The Best of All the Smoke with Matt Barnes and Stephen Jackson",
            "popularity": 2.744
        }
    ],
    "relations": [
        {
            "character": "jackson"
        }
    ],
    "top20": [
        {
            "id": 7714,
            "original_name": "True Jackson, VP",
            "popularity": 9.139
        },
        {
            "id": 9323,
            "original_name": "The Jacksons: An American Dream",
            "popularity": 6.758
        },
        {
            "id": 92,
            "original_name": "The Famous Jett Jackson",
            "popularity": 6.332
        },
        {
            "id": 152416,
            "original_name": "The Best of All the Smoke with Matt Barnes and Stephen Jackson",
            "popularity": 2.744
        },
        {
            "id": 16971,
            "original_name": "The Jacksons",
            "popularity": 2.552
        },
        {
            "id": 29299,
            "original_name": "Jackson's Wharf",
            "popularity": 2.249
        },
        {
            "id": 103540,
            "original_name": "Percy Jackson and the Olympians",
            "popularity": 1.435
        },
        {
            "id": 31565,
            "original_name": "Move Like Michael Jackson",
            "popularity": 1.4
        },
        {
            "id": 12324,
            "original_name": "The Jackson 5ive",
            "popularity": 1.059
        },
        {
            "id": 41740,
            "original_name": "Man in the Mirror: The Michael Jackson Story",
            "popularity": 0.87
        },
        {
            "id": 12639,
            "original_name": "Jackson Horn",
            "popularity": 0.6
        },
        {
            "id": 36789,
            "original_name": "Move Like Michael Jackson (NL)",
            "popularity": 0.6
        },
        {
            "id": 31603,
            "original_name": "The Jacksons: A Family Dynasty",
            "popularity": 0.6
        },
        {
            "id": 15145,
            "original_name": "Brandon T. Jackson Show",
            "popularity": 0.6
        },
        {
            "id": 49519,
            "original_name": "Janet Jackson: Live in Hawaii",
            "popularity": 0.6
        },
        {
            "id": 5952,
            "original_name": "Eye to Eye with Willie Jackson",
            "popularity": 0.6
        },
        {
            "id": 30482,
            "original_name": "Jackson Pace: The Great Years",
            "popularity": 0.6
        },
        {
            "id": 33471,
            "original_name": "Jazz with Jackson",
            "popularity": 0.6
        },
        {
            "id": 44592,
            "original_name": "The Jackson Family Honors",
            "popularity": 0.6
        },
        {
            "id": 32641,
            "original_name": "The Brian Jackson Show",
            "popularity": 0.6
        }
    ]
}