{
    "data": [
        {
            "id": 65536,
            "original_name": "La embajada",
            "popularity": 5.439
        },
        {
            "id": 76066,
            "original_name": "Sejadah Untuk Dia",
            "popularity": 0.6
        },
        {
            "id": 117640,
            "original_name": "Encrucijada",
            "popularity": 1.259
        },
        {
            "id": 127609,
            "original_name": "Sajadah Panjang",
            "popularity": 0.6
        }
    ],
    "relations": [],
    "top20": [
        {
            "id": 65536,
            "original_name": "La embajada",
            "popularity": 5.439
        },
        {
            "id": 76066,
            "original_name": "Sejadah Untuk Dia",
            "popularity": 0.6
        },
        {
            "id": 117640,
            "original_name": "Encrucijada",
            "popularity": 1.259
        },
        {
            "id": 127609,
            "original_name": "Sajadah Panjang",
            "popularity": 0.6
        }
    ]
}