{
    "data": [
        {
            "id": 69749,
            "original_name": "J'irai dormir chez les Maharadjahs",
            "popularity": 1.381
        }
    ],
    "relations": [],
    "top20": [
        {
            "id": 69749,
            "original_name": "J'irai dormir chez les Maharadjahs",
            "popularity": 1.381
        }
    ]
}