{
    "data": [
        {
            "id": 324,
            "original_name": "The Whiteoaks of Jalna",
            "popularity": 0.6
        },
        {
            "id": 22596,
            "original_name": "Jalna",
            "popularity": 0.6
        },
        {
            "id": 62907,
            "original_name": "S\u0142u\u017cby Specjalne",
            "popularity": 0.6
        }
    ],
    "relations": [],
    "top20": [
        {
            "id": 324,
            "original_name": "The Whiteoaks of Jalna",
            "popularity": 0.6
        },
        {
            "id": 22596,
            "original_name": "Jalna",
            "popularity": 0.6
        },
        {
            "id": 62907,
            "original_name": "S\u0142u\u017cby Specjalne",
            "popularity": 0.6
        }
    ]
}