{
    "data": [
        {
            "id": 45130,
            "original_name": "Idea Jalsa",
            "popularity": 0.6
        }
    ],
    "relations": [],
    "top20": [
        {
            "id": 45130,
            "original_name": "Idea Jalsa",
            "popularity": 0.6
        }
    ]
}