{
    "data": [
        {
            "id": 120787,
            "original_name": "Sijamci",
            "popularity": 0.6
        }
    ],
    "relations": [],
    "top20": [
        {
            "id": 120787,
            "original_name": "Sijamci",
            "popularity": 0.6
        }
    ]
}