{
    "data": [
        {
            "id": 2699,
            "original_name": "Japanorama",
            "popularity": 0.951
        },
        {
            "id": 49838,
            "original_name": "Begin Japanology",
            "popularity": 1.928
        },
        {
            "id": 73679,
            "original_name": "Japanology Plus",
            "popularity": 5.173
        },
        {
            "id": 88054,
            "original_name": "Japanoschlampen",
            "popularity": 1.98
        },
        {
            "id": 103466,
            "original_name": "Begin Japanology Mini",
            "popularity": 0.6
        }
    ],
    "relations": [],
    "top20": [
        {
            "id": 2699,
            "original_name": "Japanorama",
            "popularity": 0.951
        },
        {
            "id": 49838,
            "original_name": "Begin Japanology",
            "popularity": 1.928
        },
        {
            "id": 73679,
            "original_name": "Japanology Plus",
            "popularity": 5.173
        },
        {
            "id": 88054,
            "original_name": "Japanoschlampen",
            "popularity": 1.98
        },
        {
            "id": 103466,
            "original_name": "Begin Japanology Mini",
            "popularity": 0.6
        }
    ]
}