{
    "data": [
        {
            "id": 16221,
            "original_name": "Razzberry Jazzberry Jam",
            "popularity": 1.099
        }
    ],
    "relations": [],
    "top20": [
        {
            "id": 16221,
            "original_name": "Razzberry Jazzberry Jam",
            "popularity": 1.099
        }
    ]
}