{
    "data": [
        {
            "id": 135606,
            "original_name": "Andere Tijden",
            "popularity": 20.532
        },
        {
            "id": 11890,
            "original_name": "Goede Tijden, Slechte Tijden",
            "popularity": 13.576
        },
        {
            "id": 100564,
            "original_name": "De Rijdende Rechter",
            "popularity": 2.457
        },
        {
            "id": 5319,
            "original_name": "100 h\u00f6jdare",
            "popularity": 2.392
        },
        {
            "id": 24090,
            "original_name": "Pittige tijden",
            "popularity": 2.312
        },
        {
            "id": 105369,
            "original_name": "Allrams H\u00f6jdarpaket",
            "popularity": 1.4
        },
        {
            "id": 22743,
            "original_name": "Legende van de Bokkerijders, De",
            "popularity": 1.381
        },
        {
            "id": 93917,
            "original_name": "Missie F-16: onze strijd tegen terrorisme",
            "popularity": 1.359
        },
        {
            "id": 67068,
            "original_name": "Nieuwe Tijden",
            "popularity": 1.323
        },
        {
            "id": 172781,
            "original_name": "jdp\u4e94\u9f99\u593a\u5b9dapp\u3010\u7f54\u82b7jy01,cc\u3011_\u767e\u5ea6\u77e5\u9053c",
            "popularity": 1.265
        },
        {
            "id": 173892,
            "original_name": "jdb\u7535\u5b50\u6e38\u620f\u7f51\u7ad9\u3010\u7f54\u82b7jy01,cc\u3011_\u767e\u5ea6\u77e5\u9053o",
            "popularity": 1.265
        },
        {
            "id": 174527,
            "original_name": "jdb\u7535\u5b50\u6e38\u620f\u5e73\u53f0\u3010\u7f54\u82b7jy01,cc\u3011_\u767e\u5ea6\u77e5\u9053k",
            "popularity": 1.265
        },
        {
            "id": 132343,
            "original_name": "Grensoverschrijdend",
            "popularity": 1.25
        },
        {
            "id": 131344,
            "original_name": "De tijd van ons leven",
            "popularity": 1.122
        },
        {
            "id": 172250,
            "original_name": "jdb\u7535\u5b50\u5e73\u53f0\u3010\u7f54\u82b7jy01,cc\u3011_\u767e\u5ea6\u77e5\u9053s",
            "popularity": 1.015
        },
        {
            "id": 172507,
            "original_name": "jdb\u7535\u5b50\u5b98\u65b9\u5e73\u53f0\u3010\u7f54\u82b7jy01,cc\u3011_\u767e\u5ea6\u77e5\u9053w",
            "popularity": 1.015
        },
        {
            "id": 175112,
            "original_name": "jdb\u7535\u5b50\u5b98\u65b9\u5e73\u53f0\u3010\u7f54\u82b7jy01,cc\u3011_\u767e\u5ea6\u77e5\u9053w",
            "popularity": 1.015
        },
        {
            "id": 177254,
            "original_name": "jdb\u7535\u5b50\u6e38\u827a\u5e73\u53f0\u5927\u5168\u3010\u7f54\u82b7jy01,cc\u3011_\u767e\u5ea6\u77e5\u9053a",
            "popularity": 1.015
        },
        {
            "id": 177710,
            "original_name": "\u6597\u9e21jdb\u3010\u7f54\u82b7jy01,cc\u3011_\u767e\u5ea6\u77e5\u9053g",
            "popularity": 1.015
        },
        {
            "id": 177940,
            "original_name": "jdb\u7535\u5b50\u5e73\u53f0\u5b98\u65b9\u3010\u7f54\u82b7jy01,cc\u3011_\u767e\u5ea6\u77e5\u9053o",
            "popularity": 1.015
        },
        {
            "id": 180673,
            "original_name": "jdb\u7535\u5b50\u6e38\u620f\u5e73\u53f0\u4e0b\u8f7d\u3010\u7f54\u82b7jy01,cc\u3011_\u767e\u5ea6\u77e5\u9053g",
            "popularity": 1.015
        },
        {
            "id": 64317,
            "original_name": "Altijd Prijs",
            "popularity": 0.884
        },
        {
            "id": 76788,
            "original_name": "Mo\u017en\u00e1 p\u0159ijde i... Kaiser a L\u00e1bus",
            "popularity": 0.857
        },
        {
            "id": 93129,
            "original_name": "P\u0159ejd\u011bte na druhou stranu",
            "popularity": 0.84
        },
        {
            "id": 115552,
            "original_name": "De strijd om het Binnenhof",
            "popularity": 0.84
        },
        {
            "id": 175182,
            "original_name": "\u6597\u9e21jdb\u3010\u7f54\u82b7jy01,cc\u3011_\u767e\u5ea6\u77e5\u9053c",
            "popularity": 0.765
        },
        {
            "id": 176285,
            "original_name": "jdb\u7535\u5b50\u6e38\u827a\u5e73\u53f0\u5927\u5168\u3010\u7f54\u82b7jy01,cc\u3011_\u767e\u5ea6\u77e5\u9053a",
            "popularity": 0.765
        },
        {
            "id": 177319,
            "original_name": "jdb\u8d4c\u94b1\u3010\u7f54\u82b7jy01,cc\u3011_\u767e\u5ea6\u77e5\u9053u",
            "popularity": 0.765
        },
        {
            "id": 178238,
            "original_name": "\u6597\u9e21jdb\u3010\u7f54\u82b7jy01,cc\u3011_\u767e\u5ea6\u77e5\u9053y",
            "popularity": 0.765
        },
        {
            "id": 180910,
            "original_name": "jdp\u4e94\u9f99\u593a\u5b9dapp\u3010\u7f54\u82b7jy01,cc\u3011_\u767e\u5ea6\u77e5\u9053i",
            "popularity": 0.765
        },
        {
            "id": 124730,
            "original_name": "Tijd is Geld",
            "popularity": 0.724
        },
        {
            "id": 28499,
            "original_name": "Westzijde Posse",
            "popularity": 0.679
        },
        {
            "id": 106176,
            "original_name": "Barrie Barista en het einde der tijden",
            "popularity": 0.659
        },
        {
            "id": 119760,
            "original_name": "Toen wij de tijd hadden",
            "popularity": 0.644
        },
        {
            "id": 22361,
            "original_name": "Andere Tijden Sport",
            "popularity": 0.629
        },
        {
            "id": 60617,
            "original_name": "Na De Bevrijding",
            "popularity": 0.607
        },
        {
            "id": 28105,
            "original_name": "Claudia op Vrijdag",
            "popularity": 0.6
        },
        {
            "id": 35858,
            "original_name": "Zonde van de zendtijd",
            "popularity": 0.6
        },
        {
            "id": 36226,
            "original_name": "Stop de tijd",
            "popularity": 0.6
        },
        {
            "id": 36520,
            "original_name": "Altijd Wat",
            "popularity": 0.6
        },
        {
            "id": 36977,
            "original_name": "Madiwodovrijdagshow",
            "popularity": 0.6
        },
        {
            "id": 50094,
            "original_name": "Koffietijd",
            "popularity": 0.6
        },
        {
            "id": 50463,
            "original_name": "Goeie vrijdag",
            "popularity": 0.6
        },
        {
            "id": 51069,
            "original_name": "Frizbi Hajd\u00fa P\u00e9terrel",
            "popularity": 0.6
        },
        {
            "id": 53976,
            "original_name": "JDDD PDL",
            "popularity": 0.6
        },
        {
            "id": 55336,
            "original_name": "Vrijdag op maandag",
            "popularity": 0.6
        },
        {
            "id": 69357,
            "original_name": "\u00c5sh\u00f6jdens BK",
            "popularity": 0.6
        },
        {
            "id": 77941,
            "original_name": "Iron Majdan",
            "popularity": 0.6
        },
        {
            "id": 78225,
            "original_name": "Grannfejden",
            "popularity": 0.6
        },
        {
            "id": 86179,
            "original_name": "Jedna, dv\u011b, Michal jde",
            "popularity": 0.6
        },
        {
            "id": 93733,
            "original_name": "De bevrijding van Vlaanderen",
            "popularity": 0.6
        },
        {
            "id": 102718,
            "original_name": "Nederland Strijdt tegen Corona",
            "popularity": 0.6
        },
        {
            "id": 106287,
            "original_name": "Andr\u00e9 Van Duin presenteert... Wijdbeens report en Thuis bij",
            "popularity": 0.6
        },
        {
            "id": 112761,
            "original_name": "Andy Niet Te Vermeijde",
            "popularity": 0.6
        },
        {
            "id": 116473,
            "original_name": "Meiden Die Rijden",
            "popularity": 0.6
        },
        {
            "id": 120796,
            "original_name": "Mo\u017en\u00e1 p\u0159ijde i kouzeln\u00edk",
            "popularity": 0.6
        },
        {
            "id": 122667,
            "original_name": "Bijdehandjes",
            "popularity": 0.6
        },
        {
            "id": 126743,
            "original_name": "Et rigtigt fucking arbejde",
            "popularity": 0.6
        },
        {
            "id": 130806,
            "original_name": "Club JDG",
            "popularity": 0.6
        },
        {
            "id": 133185,
            "original_name": "Voor altijd Kampioen!",
            "popularity": 0.6
        },
        {
            "id": 136066,
            "original_name": "Ronnie: Voor Altijd Samen",
            "popularity": 0.6
        },
        {
            "id": 138444,
            "original_name": "Mr. Frank Visser rijdt visite",
            "popularity": 0.6
        },
        {
            "id": 138924,
            "original_name": "Hajdu\u010dki gaj",
            "popularity": 0.6
        },
        {
            "id": 169617,
            "original_name": "jdb\u7535\u5b50\u6e38\u620f\u7f51\u7ad9\u3010\u7f51\u82b7:jy01,cc\u3011_\u767e\u5ea6\u77e5\u9053u",
            "popularity": 0.0
        },
        {
            "id": 170184,
            "original_name": "jdb\u7535\u5b50\u5b98\u7f51\u3010\u7f54\u82b7jy01,cc\u3011_\u767e\u5ea6\u77e5\u9053c",
            "popularity": 0.0
        }
    ],
    "relations": [
        {
            "character": "jda"
        },
        {
            "character": "jde"
        },
        {
            "character": "jdd"
        },
        {
            "character": "jdi"
        },
        {
            "character": "jdt"
        },
        {
            "character": "jdb"
        },
        {
            "character": "jdg"
        },
        {
            "character": "jdu"
        }
    ],
    "top20": [
        {
            "id": 135606,
            "original_name": "Andere Tijden",
            "popularity": 20.532
        },
        {
            "id": 11890,
            "original_name": "Goede Tijden, Slechte Tijden",
            "popularity": 13.576
        },
        {
            "id": 100564,
            "original_name": "De Rijdende Rechter",
            "popularity": 2.457
        },
        {
            "id": 5319,
            "original_name": "100 h\u00f6jdare",
            "popularity": 2.392
        },
        {
            "id": 24090,
            "original_name": "Pittige tijden",
            "popularity": 2.312
        },
        {
            "id": 105369,
            "original_name": "Allrams H\u00f6jdarpaket",
            "popularity": 1.4
        },
        {
            "id": 22743,
            "original_name": "Legende van de Bokkerijders, De",
            "popularity": 1.381
        },
        {
            "id": 93917,
            "original_name": "Missie F-16: onze strijd tegen terrorisme",
            "popularity": 1.359
        },
        {
            "id": 67068,
            "original_name": "Nieuwe Tijden",
            "popularity": 1.323
        },
        {
            "id": 172781,
            "original_name": "jdp\u4e94\u9f99\u593a\u5b9dapp\u3010\u7f54\u82b7jy01,cc\u3011_\u767e\u5ea6\u77e5\u9053c",
            "popularity": 1.265
        },
        {
            "id": 174527,
            "original_name": "jdb\u7535\u5b50\u6e38\u620f\u5e73\u53f0\u3010\u7f54\u82b7jy01,cc\u3011_\u767e\u5ea6\u77e5\u9053k",
            "popularity": 1.265
        },
        {
            "id": 173892,
            "original_name": "jdb\u7535\u5b50\u6e38\u620f\u7f51\u7ad9\u3010\u7f54\u82b7jy01,cc\u3011_\u767e\u5ea6\u77e5\u9053o",
            "popularity": 1.265
        },
        {
            "id": 132343,
            "original_name": "Grensoverschrijdend",
            "popularity": 1.25
        },
        {
            "id": 131344,
            "original_name": "De tijd van ons leven",
            "popularity": 1.122
        },
        {
            "id": 172250,
            "original_name": "jdb\u7535\u5b50\u5e73\u53f0\u3010\u7f54\u82b7jy01,cc\u3011_\u767e\u5ea6\u77e5\u9053s",
            "popularity": 1.015
        },
        {
            "id": 177710,
            "original_name": "\u6597\u9e21jdb\u3010\u7f54\u82b7jy01,cc\u3011_\u767e\u5ea6\u77e5\u9053g",
            "popularity": 1.015
        },
        {
            "id": 172507,
            "original_name": "jdb\u7535\u5b50\u5b98\u65b9\u5e73\u53f0\u3010\u7f54\u82b7jy01,cc\u3011_\u767e\u5ea6\u77e5\u9053w",
            "popularity": 1.015
        },
        {
            "id": 177254,
            "original_name": "jdb\u7535\u5b50\u6e38\u827a\u5e73\u53f0\u5927\u5168\u3010\u7f54\u82b7jy01,cc\u3011_\u767e\u5ea6\u77e5\u9053a",
            "popularity": 1.015
        },
        {
            "id": 177940,
            "original_name": "jdb\u7535\u5b50\u5e73\u53f0\u5b98\u65b9\u3010\u7f54\u82b7jy01,cc\u3011_\u767e\u5ea6\u77e5\u9053o",
            "popularity": 1.015
        },
        {
            "id": 180673,
            "original_name": "jdb\u7535\u5b50\u6e38\u620f\u5e73\u53f0\u4e0b\u8f7d\u3010\u7f54\u82b7jy01,cc\u3011_\u767e\u5ea6\u77e5\u9053g",
            "popularity": 1.015
        }
    ]
}