{
    "data": [
        {
            "id": 13957,
            "original_name": "Jeet",
            "popularity": 0.6
        },
        {
            "id": 15335,
            "original_name": "Biggest Loser Jeetega",
            "popularity": 0.6
        },
        {
            "id": 15663,
            "original_name": "Jo Jeeta Wohi Super Star",
            "popularity": 0.6
        },
        {
            "id": 32041,
            "original_name": "Jeet Jayenge Hum",
            "popularity": 0.6
        },
        {
            "id": 32922,
            "original_name": "Dil Jeetegi Desi Girl",
            "popularity": 0.6
        },
        {
            "id": 41384,
            "original_name": "Haar Jeet",
            "popularity": 0.6
        },
        {
            "id": 75277,
            "original_name": "Jeet Gayi Toh Piya More",
            "popularity": 0.6
        },
        {
            "id": 88136,
            "original_name": "Jeeto Pakistan",
            "popularity": 0.6
        },
        {
            "id": 92589,
            "original_name": "Kaun Jeetega Bollywood Ka Ticket",
            "popularity": 0.909
        },
        {
            "id": 117211,
            "original_name": "Jeet Ki Zid",
            "popularity": 3.003
        }
    ],
    "relations": [],
    "top20": [
        {
            "id": 13957,
            "original_name": "Jeet",
            "popularity": 0.6
        },
        {
            "id": 15335,
            "original_name": "Biggest Loser Jeetega",
            "popularity": 0.6
        },
        {
            "id": 15663,
            "original_name": "Jo Jeeta Wohi Super Star",
            "popularity": 0.6
        },
        {
            "id": 32041,
            "original_name": "Jeet Jayenge Hum",
            "popularity": 0.6
        },
        {
            "id": 32922,
            "original_name": "Dil Jeetegi Desi Girl",
            "popularity": 0.6
        },
        {
            "id": 41384,
            "original_name": "Haar Jeet",
            "popularity": 0.6
        },
        {
            "id": 75277,
            "original_name": "Jeet Gayi Toh Piya More",
            "popularity": 0.6
        },
        {
            "id": 88136,
            "original_name": "Jeeto Pakistan",
            "popularity": 0.6
        },
        {
            "id": 92589,
            "original_name": "Kaun Jeetega Bollywood Ka Ticket",
            "popularity": 0.909
        },
        {
            "id": 117211,
            "original_name": "Jeet Ki Zid",
            "popularity": 3.003
        }
    ]
}