{
    "data": [
        {
            "id": 121958,
            "original_name": "Frontkjempere",
            "popularity": 0.6
        },
        {
            "id": 124912,
            "original_name": "Kjempemaskiner",
            "popularity": 0.93
        }
    ],
    "relations": [],
    "top20": [
        {
            "id": 121958,
            "original_name": "Frontkjempere",
            "popularity": 0.6
        },
        {
            "id": 124912,
            "original_name": "Kjempemaskiner",
            "popularity": 0.93
        }
    ]
}