{
    "data": [
        {
            "id": 48082,
            "original_name": "U fryzjera",
            "popularity": 0.6
        },
        {
            "id": 74428,
            "original_name": "Rosario Tijeras",
            "popularity": 194.2
        },
        {
            "id": 81146,
            "original_name": "Rosario Tijeras",
            "popularity": 15.223
        }
    ],
    "relations": [],
    "top20": [
        {
            "id": 48082,
            "original_name": "U fryzjera",
            "popularity": 0.6
        },
        {
            "id": 74428,
            "original_name": "Rosario Tijeras",
            "popularity": 194.2
        },
        {
            "id": 81146,
            "original_name": "Rosario Tijeras",
            "popularity": 15.223
        }
    ]
}