{
    "data": [
        {
            "id": 93567,
            "original_name": "Stjerneboksning",
            "popularity": 0.6
        }
    ],
    "relations": [],
    "top20": [
        {
            "id": 93567,
            "original_name": "Stjerneboksning",
            "popularity": 0.6
        }
    ]
}