{
    "data": [
        {
            "id": 29696,
            "original_name": "Who Was Jesus?",
            "popularity": 0.884
        },
        {
            "id": 42792,
            "original_name": "The Real Face of Jesus?",
            "popularity": 0.6
        }
    ],
    "relations": [],
    "top20": [
        {
            "id": 29696,
            "original_name": "Who Was Jesus?",
            "popularity": 0.884
        },
        {
            "id": 42792,
            "original_name": "The Real Face of Jesus?",
            "popularity": 0.6
        }
    ]
}