{
    "data": [
        {
            "id": 3195,
            "original_name": "Gene Simmons Family Jewels",
            "popularity": 5.15
        },
        {
            "id": 3591,
            "original_name": "The Jewel in the Crown",
            "popularity": 3.473
        },
        {
            "id": 4510,
            "original_name": "Princess Gwenevere and the Jewel Riders",
            "popularity": 2.613
        },
        {
            "id": 22395,
            "original_name": "The Jewel And Warriss Scrapbook",
            "popularity": 0.6
        },
        {
            "id": 22495,
            "original_name": "The Jewel And Warriss Show",
            "popularity": 0.6
        },
        {
            "id": 23319,
            "original_name": "Your Jeweler's Showcase",
            "popularity": 0.841
        },
        {
            "id": 29177,
            "original_name": "Jewelry Making",
            "popularity": 0.6
        },
        {
            "id": 47301,
            "original_name": "Jewels",
            "popularity": 2.98
        },
        {
            "id": 97035,
            "original_name": "Lady Jewelpet",
            "popularity": 0.966
        },
        {
            "id": 106141,
            "original_name": "Jewelpet Sunshine",
            "popularity": 0.6
        },
        {
            "id": 124945,
            "original_name": "All That Glitters: Britain's Next Jewellery Star",
            "popularity": 0.84
        },
        {
            "id": 136142,
            "original_name": "All That Glitters: Britain's Next Jewellry Star",
            "popularity": 0.6
        }
    ],
    "relations": [],
    "top20": [
        {
            "id": 3195,
            "original_name": "Gene Simmons Family Jewels",
            "popularity": 5.15
        },
        {
            "id": 3591,
            "original_name": "The Jewel in the Crown",
            "popularity": 3.473
        },
        {
            "id": 4510,
            "original_name": "Princess Gwenevere and the Jewel Riders",
            "popularity": 2.613
        },
        {
            "id": 22395,
            "original_name": "The Jewel And Warriss Scrapbook",
            "popularity": 0.6
        },
        {
            "id": 22495,
            "original_name": "The Jewel And Warriss Show",
            "popularity": 0.6
        },
        {
            "id": 23319,
            "original_name": "Your Jeweler's Showcase",
            "popularity": 0.841
        },
        {
            "id": 29177,
            "original_name": "Jewelry Making",
            "popularity": 0.6
        },
        {
            "id": 47301,
            "original_name": "Jewels",
            "popularity": 2.98
        },
        {
            "id": 97035,
            "original_name": "Lady Jewelpet",
            "popularity": 0.966
        },
        {
            "id": 106141,
            "original_name": "Jewelpet Sunshine",
            "popularity": 0.6
        },
        {
            "id": 124945,
            "original_name": "All That Glitters: Britain's Next Jewellery Star",
            "popularity": 0.84
        },
        {
            "id": 136142,
            "original_name": "All That Glitters: Britain's Next Jewellry Star",
            "popularity": 0.6
        }
    ]
}