{
    "data": [
        {
            "id": 10648,
            "original_name": "Celebrity Jigs 'n' Reels",
            "popularity": 0.842
        },
        {
            "id": 10971,
            "original_name": "Jigsaw",
            "popularity": 0.632
        },
        {
            "id": 14068,
            "original_name": "Jigsaw",
            "popularity": 0.6
        },
        {
            "id": 19695,
            "original_name": "Jigsaw",
            "popularity": 0.6
        },
        {
            "id": 28361,
            "original_name": "Jigsaw John",
            "popularity": 0.887
        },
        {
            "id": 130718,
            "original_name": "Jighansha",
            "popularity": 0.6
        }
    ],
    "relations": [],
    "top20": [
        {
            "id": 10648,
            "original_name": "Celebrity Jigs 'n' Reels",
            "popularity": 0.842
        },
        {
            "id": 10971,
            "original_name": "Jigsaw",
            "popularity": 0.632
        },
        {
            "id": 14068,
            "original_name": "Jigsaw",
            "popularity": 0.6
        },
        {
            "id": 19695,
            "original_name": "Jigsaw",
            "popularity": 0.6
        },
        {
            "id": 28361,
            "original_name": "Jigsaw John",
            "popularity": 0.887
        },
        {
            "id": 130718,
            "original_name": "Jighansha",
            "popularity": 0.6
        }
    ]
}