{
    "data": [
        {
            "id": 43258,
            "original_name": "Jimeoin: Over The Top",
            "popularity": 0.6
        },
        {
            "id": 60443,
            "original_name": "Jimeoin",
            "popularity": 0.6
        },
        {
            "id": 119834,
            "original_name": "Re:Petit kara Hajimeru Isekai Seikatsu",
            "popularity": 0.848
        }
    ],
    "relations": [],
    "top20": [
        {
            "id": 43258,
            "original_name": "Jimeoin: Over The Top",
            "popularity": 0.6
        },
        {
            "id": 60443,
            "original_name": "Jimeoin",
            "popularity": 0.6
        },
        {
            "id": 119834,
            "original_name": "Re:Petit kara Hajimeru Isekai Seikatsu",
            "popularity": 0.848
        }
    ]
}