{
    "data": [
        {
            "id": 5,
            "original_name": "La Job",
            "popularity": 6.343
        },
        {
            "id": 65,
            "original_name": "The Job",
            "popularity": 6.747
        },
        {
            "id": 327,
            "original_name": "Dream Job",
            "popularity": 1.172
        },
        {
            "id": 691,
            "original_name": "No Job for a Lady",
            "popularity": 1.4
        },
        {
            "id": 1229,
            "original_name": "Tim and Eric Awesome Show, Great Job!",
            "popularity": 8.844
        },
        {
            "id": 2101,
            "original_name": "Odd Job Jack",
            "popularity": 1.768
        },
        {
            "id": 2584,
            "original_name": "Dirty Jobs",
            "popularity": 7.25
        },
        {
            "id": 3419,
            "original_name": "You've Got the Job",
            "popularity": 0.6
        },
        {
            "id": 5188,
            "original_name": "Please Give Me a Job!",
            "popularity": 0.6
        },
        {
            "id": 5915,
            "original_name": "America's Toughest Jobs",
            "popularity": 0.6
        },
        {
            "id": 6930,
            "original_name": "Dirty Jobs",
            "popularity": 0.6
        },
        {
            "id": 7453,
            "original_name": "That's My Job",
            "popularity": 0.6
        },
        {
            "id": 11873,
            "original_name": "The Worst Jobs in History",
            "popularity": 1.122
        },
        {
            "id": 12383,
            "original_name": "Snow Job",
            "popularity": 0.6
        },
        {
            "id": 15022,
            "original_name": "Ace Day Jobs",
            "popularity": 0.6
        },
        {
            "id": 16514,
            "original_name": "I Hate My Job",
            "popularity": 0.6
        },
        {
            "id": 22798,
            "original_name": "Mick And Montmorency / Jobstoppers",
            "popularity": 0.6
        },
        {
            "id": 23014,
            "original_name": "A Shit Of A Job",
            "popularity": 0.6
        },
        {
            "id": 23531,
            "original_name": "Food Jobs",
            "popularity": 0.6
        },
        {
            "id": 26860,
            "original_name": "Win A Job",
            "popularity": 0.6
        },
        {
            "id": 27334,
            "original_name": "This Job's a Trip",
            "popularity": 0.6
        },
        {
            "id": 27516,
            "original_name": "How to Get Your Dream Job",
            "popularity": 0.6
        },
        {
            "id": 27993,
            "original_name": "Dogs with Extraordinary Jobs",
            "popularity": 0.6
        },
        {
            "id": 30626,
            "original_name": "The Inside Job",
            "popularity": 0.6
        },
        {
            "id": 34425,
            "original_name": "Odd Jobs",
            "popularity": 1.4
        },
        {
            "id": 36516,
            "original_name": "Toughest Military Jobs",
            "popularity": 0.6
        },
        {
            "id": 36909,
            "original_name": "Sports Jobs with Junior Seau",
            "popularity": 0.6
        },
        {
            "id": 37830,
            "original_name": "Back On the Job",
            "popularity": 0.843
        },
        {
            "id": 37848,
            "original_name": "An Unsuitable Job for a Woman",
            "popularity": 1.265
        },
        {
            "id": 38642,
            "original_name": "The Fairy Jobmother",
            "popularity": 0.6
        },
        {
            "id": 40869,
            "original_name": "Don't Quit Your Gay Job",
            "popularity": 0.604
        },
        {
            "id": 47358,
            "original_name": "The Bank Job",
            "popularity": 0.6
        },
        {
            "id": 55476,
            "original_name": "Dead Good Job",
            "popularity": 0.6
        },
        {
            "id": 55745,
            "original_name": "World's Maddest Job Interview",
            "popularity": 0.6
        },
        {
            "id": 57968,
            "original_name": "Suggs' Italian Job",
            "popularity": 0.6
        },
        {
            "id": 58365,
            "original_name": "The Fairy Jobmother",
            "popularity": 0.6
        },
        {
            "id": 58458,
            "original_name": "Watta Job",
            "popularity": 0.6
        },
        {
            "id": 58759,
            "original_name": "The Job",
            "popularity": 0.6
        },
        {
            "id": 59541,
            "original_name": "The Job Lot",
            "popularity": 1.858
        },
        {
            "id": 61272,
            "original_name": "Jobs de bras",
            "popularity": 1.463
        },
        {
            "id": 62971,
            "original_name": "Job or No Job",
            "popularity": 0.645
        },
        {
            "id": 63358,
            "original_name": "Job nach Noten",
            "popularity": 0.6
        },
        {
            "id": 65913,
            "original_name": "Deadliest Job Interview",
            "popularity": 0.6
        },
        {
            "id": 67622,
            "original_name": "Ett jobb f\u00f6r Berg",
            "popularity": 0.6
        },
        {
            "id": 73688,
            "original_name": "V\u00e4rldens Tuffaste Jobb Med Carina Berg",
            "popularity": 0.631
        },
        {
            "id": 77677,
            "original_name": "The Egyptian Job",
            "popularity": 0.6
        },
        {
            "id": 78455,
            "original_name": "Big Papi Needs a Job",
            "popularity": 0.6
        },
        {
            "id": 81796,
            "original_name": "V\u00e4rldens Tuffaste Jobb Med Adam Alsing",
            "popularity": 0.6
        },
        {
            "id": 82300,
            "original_name": "Ein Job f\u00fcrs Leben",
            "popularity": 0.6
        },
        {
            "id": 84219,
            "original_name": "Man Milk - Tim and Eric Awesome Show, Great Job!",
            "popularity": 0.6
        },
        {
            "id": 86399,
            "original_name": "Maddie Parry: Tough Jobs",
            "popularity": 0.6
        },
        {
            "id": 86462,
            "original_name": "Famous, Rich and Jobless",
            "popularity": 0.6
        },
        {
            "id": 87300,
            "original_name": "Reel Fishy Jobs",
            "popularity": 0.6
        },
        {
            "id": 89073,
            "original_name": "Hand Jobs",
            "popularity": 0.6
        },
        {
            "id": 91447,
            "original_name": "Aaron Needs a Job",
            "popularity": 0.6
        },
        {
            "id": 97727,
            "original_name": "Inside Job",
            "popularity": 114.411
        },
        {
            "id": 99467,
            "original_name": "Die h\u00e4rtesten Jobs von damals",
            "popularity": 0.6
        },
        {
            "id": 99637,
            "original_name": "Shobdo Jobdo",
            "popularity": 2.843
        },
        {
            "id": 101308,
            "original_name": "Dream Jobs With Chris Hoy",
            "popularity": 0.619
        },
        {
            "id": 103616,
            "original_name": "Job interview: est\u00e1s contratado",
            "popularity": 0.6
        },
        {
            "id": 105977,
            "original_name": "Dirty Jobs: Rowe'd Trip",
            "popularity": 0.84
        },
        {
            "id": 108836,
            "original_name": "The Yorkshire Jobcentre",
            "popularity": 0.84
        },
        {
            "id": 110168,
            "original_name": "Best Job Ever",
            "popularity": 0.856
        },
        {
            "id": 111653,
            "original_name": "P\u00e5 job med d\u00f8den",
            "popularity": 0.6
        },
        {
            "id": 116310,
            "original_name": "Een Echte Job",
            "popularity": 0.6
        },
        {
            "id": 116948,
            "original_name": "De Vuilste Jobs van Vlaanderen",
            "popularity": 0.6
        },
        {
            "id": 122019,
            "original_name": "\u00c7a fait la job",
            "popularity": 6.472
        },
        {
            "id": 126606,
            "original_name": "Jamie's Job Hunt",
            "popularity": 0.6
        },
        {
            "id": 129558,
            "original_name": "Ravon Tries Hot Summer Jobs",
            "popularity": 0.6
        },
        {
            "id": 130725,
            "original_name": "Pinkfong Job Songs",
            "popularity": 1.4
        },
        {
            "id": 130740,
            "original_name": "Top Jobs for Dogs",
            "popularity": 0.6
        },
        {
            "id": 131891,
            "original_name": "On the Job",
            "popularity": 1.4
        },
        {
            "id": 134257,
            "original_name": "Mein Traumjob \u2013 Die Chance meines Lebens",
            "popularity": 0.6
        },
        {
            "id": 134719,
            "original_name": "Die Job-Touristen",
            "popularity": 0.6
        },
        {
            "id": 134979,
            "original_name": "The Job Interview",
            "popularity": 0.6
        },
        {
            "id": 135018,
            "original_name": "JOB\ub8e1 \uc774\uc2ed\ub07c",
            "popularity": 0.6
        },
        {
            "id": 137142,
            "original_name": "The Apprentice : Qui d\u00e9crochera le job ?",
            "popularity": 0.6
        },
        {
            "id": 137647,
            "original_name": "Jobs That Bite!",
            "popularity": 0.6
        },
        {
            "id": 139136,
            "original_name": "BTS China Job",
            "popularity": 3.643
        }
    ],
    "relations": [
        {
            "character": "job!"
        },
        {
            "character": "jobs"
        },
        {
            "character": "jobm"
        },
        {
            "character": "jobb"
        },
        {
            "character": "jobl"
        },
        {
            "character": "jobd"
        },
        {
            "character": "jobc"
        }
    ],
    "top20": [
        {
            "id": 97727,
            "original_name": "Inside Job",
            "popularity": 114.411
        },
        {
            "id": 1229,
            "original_name": "Tim and Eric Awesome Show, Great Job!",
            "popularity": 8.844
        },
        {
            "id": 2584,
            "original_name": "Dirty Jobs",
            "popularity": 7.25
        },
        {
            "id": 65,
            "original_name": "The Job",
            "popularity": 6.747
        },
        {
            "id": 122019,
            "original_name": "\u00c7a fait la job",
            "popularity": 6.472
        },
        {
            "id": 5,
            "original_name": "La Job",
            "popularity": 6.343
        },
        {
            "id": 139136,
            "original_name": "BTS China Job",
            "popularity": 3.643
        },
        {
            "id": 99637,
            "original_name": "Shobdo Jobdo",
            "popularity": 2.843
        },
        {
            "id": 59541,
            "original_name": "The Job Lot",
            "popularity": 1.858
        },
        {
            "id": 2101,
            "original_name": "Odd Job Jack",
            "popularity": 1.768
        },
        {
            "id": 61272,
            "original_name": "Jobs de bras",
            "popularity": 1.463
        },
        {
            "id": 130725,
            "original_name": "Pinkfong Job Songs",
            "popularity": 1.4
        },
        {
            "id": 691,
            "original_name": "No Job for a Lady",
            "popularity": 1.4
        },
        {
            "id": 34425,
            "original_name": "Odd Jobs",
            "popularity": 1.4
        },
        {
            "id": 131891,
            "original_name": "On the Job",
            "popularity": 1.4
        },
        {
            "id": 37848,
            "original_name": "An Unsuitable Job for a Woman",
            "popularity": 1.265
        },
        {
            "id": 327,
            "original_name": "Dream Job",
            "popularity": 1.172
        },
        {
            "id": 11873,
            "original_name": "The Worst Jobs in History",
            "popularity": 1.122
        },
        {
            "id": 110168,
            "original_name": "Best Job Ever",
            "popularity": 0.856
        },
        {
            "id": 37830,
            "original_name": "Back On the Job",
            "popularity": 0.843
        }
    ]
}