{
    "data": [
        {
            "id": 5974,
            "original_name": "Milijonar z Jonasom",
            "popularity": 0.6
        },
        {
            "id": 7176,
            "original_name": "Jonas Brothers: Living the Dream",
            "popularity": 2.744
        },
        {
            "id": 12712,
            "original_name": "JONAS L.A.",
            "popularity": 9.32
        },
        {
            "id": 57098,
            "original_name": "Married to Jonas",
            "popularity": 1.155
        }
    ],
    "relations": [],
    "top20": [
        {
            "id": 5974,
            "original_name": "Milijonar z Jonasom",
            "popularity": 0.6
        },
        {
            "id": 7176,
            "original_name": "Jonas Brothers: Living the Dream",
            "popularity": 2.744
        },
        {
            "id": 12712,
            "original_name": "JONAS L.A.",
            "popularity": 9.32
        },
        {
            "id": 57098,
            "original_name": "Married to Jonas",
            "popularity": 1.155
        }
    ]
}