{
    "data": [
        {
            "id": 90264,
            "original_name": "P\u0159ipoutejte se, pros\u00edm, kapitalismus p\u0159ich\u00e1z\u00ed",
            "popularity": 0.6
        }
    ],
    "relations": [],
    "top20": [
        {
            "id": 90264,
            "original_name": "P\u0159ipoutejte se, pros\u00edm, kapitalismus p\u0159ich\u00e1z\u00ed",
            "popularity": 0.6
        }
    ]
}