{
    "data": [
        {
            "id": 14301,
            "original_name": "Yo amo a Juan Querend\u00f3n",
            "popularity": 0.6
        },
        {
            "id": 16327,
            "original_name": "Don Juan y su bella dama",
            "popularity": 1.559
        },
        {
            "id": 19515,
            "original_name": "Juana la virgen",
            "popularity": 1.544
        },
        {
            "id": 20106,
            "original_name": "My Juan and Only",
            "popularity": 0.6
        },
        {
            "id": 22814,
            "original_name": "Juanita, la soltera",
            "popularity": 0.6
        },
        {
            "id": 32052,
            "original_name": "Don Juan DeMercado",
            "popularity": 0.6
        },
        {
            "id": 34271,
            "original_name": "Juanita Banana",
            "popularity": 0.6
        },
        {
            "id": 41708,
            "original_name": "Juana Iris",
            "popularity": 0.6
        },
        {
            "id": 56131,
            "original_name": "Herb Alpert and the Tijuana Brass",
            "popularity": 0.6
        },
        {
            "id": 57199,
            "original_name": "Wei Qing Du Juan",
            "popularity": 0.6
        },
        {
            "id": 58183,
            "original_name": "Juan dela Cruz",
            "popularity": 0.6
        },
        {
            "id": 58421,
            "original_name": "Las Juanas",
            "popularity": 1.798
        },
        {
            "id": 62686,
            "original_name": "Caminos de Guanajuato",
            "popularity": 0.6
        },
        {
            "id": 69920,
            "original_name": "Juana In\u00e9s",
            "popularity": 1.313
        },
        {
            "id": 72682,
            "original_name": "Juacas",
            "popularity": 3.365
        },
        {
            "id": 73617,
            "original_name": "Stanley Vollant, de Compostelle \u00e0 Kuujjuaq",
            "popularity": 0.6
        },
        {
            "id": 79832,
            "original_name": "Stand up Comedy bertujuan Dakwah oleh Ust. Abdul Somad",
            "popularity": 0.6
        },
        {
            "id": 80394,
            "original_name": "La cocina de Juan Luis",
            "popularity": 0.6
        },
        {
            "id": 80503,
            "original_name": "Los Enredos de Juan Vainas",
            "popularity": 0.603
        },
        {
            "id": 86127,
            "original_name": "Vota Juan",
            "popularity": 6.411
        },
        {
            "id": 88189,
            "original_name": "Tijuana",
            "popularity": 3.318
        },
        {
            "id": 94231,
            "original_name": "The Marijuana Show",
            "popularity": 0.6
        },
        {
            "id": 98828,
            "original_name": "Highland: Thailand's Marijuana Awakening",
            "popularity": 0.6
        },
        {
            "id": 99139,
            "original_name": "Juana Brava",
            "popularity": 1.193
        },
        {
            "id": 101189,
            "original_name": "Vamos Juan",
            "popularity": 2.484
        },
        {
            "id": 102873,
            "original_name": "Todos Contra Juan",
            "popularity": 0.6
        },
        {
            "id": 104368,
            "original_name": "Historias de Juan Espa\u00f1ol",
            "popularity": 0.6
        },
        {
            "id": 104763,
            "original_name": "Juan y Manuela",
            "popularity": 0.6
        },
        {
            "id": 109677,
            "original_name": "Don Juan DeMercado",
            "popularity": 0.6
        },
        {
            "id": 124208,
            "original_name": "El Apocalipsis de San Juan",
            "popularity": 1.68
        },
        {
            "id": 127411,
            "original_name": "Venga Juan",
            "popularity": 13.423
        },
        {
            "id": 133086,
            "original_name": "La venganza de las Juanas",
            "popularity": 185.014
        },
        {
            "id": 133192,
            "original_name": "Juanita: A Family Mystery",
            "popularity": 0.6
        },
        {
            "id": 138397,
            "original_name": "Juanpa + Chef",
            "popularity": 6.983
        }
    ],
    "relations": [
        {
            "character": "juan"
        },
        {
            "character": "juat"
        },
        {
            "character": "juac"
        },
        {
            "character": "juaq"
        }
    ],
    "top20": [
        {
            "id": 133086,
            "original_name": "La venganza de las Juanas",
            "popularity": 185.014
        },
        {
            "id": 127411,
            "original_name": "Venga Juan",
            "popularity": 13.423
        },
        {
            "id": 138397,
            "original_name": "Juanpa + Chef",
            "popularity": 6.983
        },
        {
            "id": 86127,
            "original_name": "Vota Juan",
            "popularity": 6.411
        },
        {
            "id": 72682,
            "original_name": "Juacas",
            "popularity": 3.365
        },
        {
            "id": 88189,
            "original_name": "Tijuana",
            "popularity": 3.318
        },
        {
            "id": 101189,
            "original_name": "Vamos Juan",
            "popularity": 2.484
        },
        {
            "id": 58421,
            "original_name": "Las Juanas",
            "popularity": 1.798
        },
        {
            "id": 124208,
            "original_name": "El Apocalipsis de San Juan",
            "popularity": 1.68
        },
        {
            "id": 16327,
            "original_name": "Don Juan y su bella dama",
            "popularity": 1.559
        },
        {
            "id": 19515,
            "original_name": "Juana la virgen",
            "popularity": 1.544
        },
        {
            "id": 69920,
            "original_name": "Juana In\u00e9s",
            "popularity": 1.313
        },
        {
            "id": 99139,
            "original_name": "Juana Brava",
            "popularity": 1.193
        },
        {
            "id": 80503,
            "original_name": "Los Enredos de Juan Vainas",
            "popularity": 0.603
        },
        {
            "id": 41708,
            "original_name": "Juana Iris",
            "popularity": 0.6
        },
        {
            "id": 14301,
            "original_name": "Yo amo a Juan Querend\u00f3n",
            "popularity": 0.6
        },
        {
            "id": 22814,
            "original_name": "Juanita, la soltera",
            "popularity": 0.6
        },
        {
            "id": 34271,
            "original_name": "Juanita Banana",
            "popularity": 0.6
        },
        {
            "id": 20106,
            "original_name": "My Juan and Only",
            "popularity": 0.6
        },
        {
            "id": 32052,
            "original_name": "Don Juan DeMercado",
            "popularity": 0.6
        }
    ]
}