{
    "data": [
        {
            "id": 20836,
            "original_name": "Junglies",
            "popularity": 0.6
        }
    ],
    "relations": [],
    "top20": [
        {
            "id": 20836,
            "original_name": "Junglies",
            "popularity": 0.6
        }
    ]
}