{
    "data": [
        {
            "id": 21854,
            "original_name": "Tajuu jinkaku tantei saiko - Amamiya Kazuhiko no kikan",
            "popularity": 0.6
        },
        {
            "id": 51619,
            "original_name": "Toi Shinseki Chikaku no Tanin",
            "popularity": 0.6
        },
        {
            "id": 84679,
            "original_name": "Kokaku Fudo Senki Robosan",
            "popularity": 0.6
        },
        {
            "id": 90739,
            "original_name": "Kakuch\u014d Sh\u014djo-Kei Trinary",
            "popularity": 0.679
        },
        {
            "id": 112359,
            "original_name": "Cap Kakumei Bottleman",
            "popularity": 1.185
        }
    ],
    "relations": [],
    "top20": [
        {
            "id": 21854,
            "original_name": "Tajuu jinkaku tantei saiko - Amamiya Kazuhiko no kikan",
            "popularity": 0.6
        },
        {
            "id": 51619,
            "original_name": "Toi Shinseki Chikaku no Tanin",
            "popularity": 0.6
        },
        {
            "id": 84679,
            "original_name": "Kokaku Fudo Senki Robosan",
            "popularity": 0.6
        },
        {
            "id": 90739,
            "original_name": "Kakuch\u014d Sh\u014djo-Kei Trinary",
            "popularity": 0.679
        },
        {
            "id": 112359,
            "original_name": "Cap Kakumei Bottleman",
            "popularity": 1.185
        }
    ]
}