{
    "data": [
        {
            "id": 35161,
            "original_name": "Kalam Nawaem",
            "popularity": 0.6
        },
        {
            "id": 35294,
            "original_name": "Kalam Nawaem",
            "popularity": 0.6
        },
        {
            "id": 50061,
            "original_name": "Kalam Neswan",
            "popularity": 0.6
        },
        {
            "id": 53223,
            "original_name": "Ma Asaa'b Alkalam",
            "popularity": 0.6
        },
        {
            "id": 54169,
            "original_name": "Kalam Regala",
            "popularity": 0.6
        },
        {
            "id": 56450,
            "original_name": "La Ara La Asmaa La Atkalam",
            "popularity": 0.6
        }
    ],
    "relations": [],
    "top20": [
        {
            "id": 35161,
            "original_name": "Kalam Nawaem",
            "popularity": 0.6
        },
        {
            "id": 35294,
            "original_name": "Kalam Nawaem",
            "popularity": 0.6
        },
        {
            "id": 50061,
            "original_name": "Kalam Neswan",
            "popularity": 0.6
        },
        {
            "id": 53223,
            "original_name": "Ma Asaa'b Alkalam",
            "popularity": 0.6
        },
        {
            "id": 54169,
            "original_name": "Kalam Regala",
            "popularity": 0.6
        },
        {
            "id": 56450,
            "original_name": "La Ara La Asmaa La Atkalam",
            "popularity": 0.6
        }
    ]
}