{
    "data": [
        {
            "id": 31437,
            "original_name": "Kanpani",
            "popularity": 0.6
        },
        {
            "id": 86380,
            "original_name": "Kanpur Waale Khuranas",
            "popularity": 0.878
        }
    ],
    "relations": [],
    "top20": [
        {
            "id": 31437,
            "original_name": "Kanpani",
            "popularity": 0.6
        },
        {
            "id": 86380,
            "original_name": "Kanpur Waale Khuranas",
            "popularity": 0.878
        }
    ]
}