{
    "data": [
        {
            "id": 36077,
            "original_name": "Labas vakaras, mielasis",
            "popularity": 0.6
        },
        {
            "id": 36979,
            "original_name": "Kar\u0161tas vakaras",
            "popularity": 0.6
        },
        {
            "id": 69055,
            "original_name": "\u9d09 -KARAS-",
            "popularity": 5.79
        },
        {
            "id": 118600,
            "original_name": "Laura Karasek - Zart am Limit",
            "popularity": 1.313
        }
    ],
    "relations": [],
    "top20": [
        {
            "id": 36077,
            "original_name": "Labas vakaras, mielasis",
            "popularity": 0.6
        },
        {
            "id": 36979,
            "original_name": "Kar\u0161tas vakaras",
            "popularity": 0.6
        },
        {
            "id": 69055,
            "original_name": "\u9d09 -KARAS-",
            "popularity": 5.79
        },
        {
            "id": 118600,
            "original_name": "Laura Karasek - Zart am Limit",
            "popularity": 1.313
        }
    ]
}