{
    "data": [
        {
            "id": 78141,
            "original_name": "Katitzi",
            "popularity": 0.84
        }
    ],
    "relations": [],
    "top20": [
        {
            "id": 78141,
            "original_name": "Katitzi",
            "popularity": 0.84
        }
    ]
}