{
    "data": [
        {
            "id": 6072,
            "original_name": "Katie & Peter",
            "popularity": 0.6
        },
        {
            "id": 6156,
            "original_name": "Untalkative Bunny",
            "popularity": 4.813
        },
        {
            "id": 10074,
            "original_name": "Katie and Orbie",
            "popularity": 0.6
        },
        {
            "id": 10932,
            "original_name": "Skating with Celebrities",
            "popularity": 0.654
        },
        {
            "id": 11193,
            "original_name": "Katie & Peter: The Next Chapter",
            "popularity": 0.6
        },
        {
            "id": 12127,
            "original_name": "Now with Tom Brokaw and Katie Couric",
            "popularity": 0.6
        },
        {
            "id": 12292,
            "original_name": "Skating on Thin Ice",
            "popularity": 0.6
        },
        {
            "id": 12952,
            "original_name": "Katie & Peter",
            "popularity": 0.6
        },
        {
            "id": 14164,
            "original_name": "Katie & Peter: Unleashed",
            "popularity": 0.6
        },
        {
            "id": 18132,
            "original_name": "Katie & Peter: Stateside",
            "popularity": 0.843
        },
        {
            "id": 18742,
            "original_name": "Katie and Eilish: Siamese Twins",
            "popularity": 0.6
        },
        {
            "id": 21600,
            "original_name": "Katie",
            "popularity": 1.131
        },
        {
            "id": 22540,
            "original_name": "Katie & Peter: The Baby Diaries",
            "popularity": 0.6
        },
        {
            "id": 23724,
            "original_name": "True Music With Katie Daryl",
            "popularity": 1.479
        },
        {
            "id": 24449,
            "original_name": "ISU World Figure Skating Championships 2007",
            "popularity": 0.6
        },
        {
            "id": 24542,
            "original_name": "Marshalls U.S. Figure Skating Showcase",
            "popularity": 0.6
        },
        {
            "id": 25566,
            "original_name": "Katie & Peter: The Next Chapter Down Under",
            "popularity": 0.6
        },
        {
            "id": 25698,
            "original_name": "Katie Joplin",
            "popularity": 1.714
        },
        {
            "id": 26457,
            "original_name": "Skating's Next Star",
            "popularity": 0.6
        },
        {
            "id": 29191,
            "original_name": "Next Door with Katie Brown",
            "popularity": 0.6
        },
        {
            "id": 34392,
            "original_name": "Skating with the Stars",
            "popularity": 0.876
        },
        {
            "id": 36621,
            "original_name": "Katie and Alex: For Better for Worse",
            "popularity": 0.6
        },
        {
            "id": 37368,
            "original_name": "All Year Round with Katie Brown",
            "popularity": 0.6
        },
        {
            "id": 38498,
            "original_name": "Katie: My Beautiful Friends",
            "popularity": 0.6
        },
        {
            "id": 39814,
            "original_name": "Katie",
            "popularity": 0.6
        },
        {
            "id": 39911,
            "original_name": "Skating's Next Star",
            "popularity": 0.6
        },
        {
            "id": 41355,
            "original_name": "Katie Brown Workshop",
            "popularity": 0.6
        },
        {
            "id": 48800,
            "original_name": "The Snow Queen: A Skating Ballet",
            "popularity": 0.6
        },
        {
            "id": 58054,
            "original_name": "2011 BMO Figure Skating",
            "popularity": 0.6
        },
        {
            "id": 58186,
            "original_name": "Canadian Figure Skating Championship",
            "popularity": 0.6
        },
        {
            "id": 58226,
            "original_name": "Canadian Figure Skating Championship",
            "popularity": 0.6
        },
        {
            "id": 59907,
            "original_name": "2009 BMO Canadian Figure Skating Championships",
            "popularity": 0.6
        },
        {
            "id": 60196,
            "original_name": "2009 Canadian Figure Skating Championships",
            "popularity": 0.6
        },
        {
            "id": 63550,
            "original_name": "If Katie Hopkins Ruled The World",
            "popularity": 0.6
        },
        {
            "id": 71983,
            "original_name": "Beach Bites with Katie Lee",
            "popularity": 0.6
        },
        {
            "id": 72853,
            "original_name": "Katie Price: My Crazy Life",
            "popularity": 1.16
        },
        {
            "id": 76873,
            "original_name": "America Inside Out with Katie Couric",
            "popularity": 0.891
        },
        {
            "id": 76874,
            "original_name": "Alexa & Katie",
            "popularity": 22.213
        },
        {
            "id": 78141,
            "original_name": "Katitzi",
            "popularity": 0.84
        },
        {
            "id": 94033,
            "original_name": "Kingpin Katie",
            "popularity": 0.671
        },
        {
            "id": 97016,
            "original_name": "Katipunan",
            "popularity": 0.6
        },
        {
            "id": 122987,
            "original_name": "Katie Morag",
            "popularity": 0.6
        },
        {
            "id": 129665,
            "original_name": "Niet voor publikatie",
            "popularity": 0.6
        },
        {
            "id": 137454,
            "original_name": "T\u00fcrkiye'deki Seri Katiller",
            "popularity": 0.6
        },
        {
            "id": 138861,
            "original_name": "Katie Fforde",
            "popularity": 0.846
        }
    ],
    "relations": [
        {
            "character": "katie"
        },
        {
            "character": "kativ"
        },
        {
            "character": "katin"
        },
        {
            "character": "katit"
        },
        {
            "character": "katip"
        },
        {
            "character": "katil"
        }
    ],
    "top20": [
        {
            "id": 76874,
            "original_name": "Alexa & Katie",
            "popularity": 22.213
        },
        {
            "id": 6156,
            "original_name": "Untalkative Bunny",
            "popularity": 4.813
        },
        {
            "id": 25698,
            "original_name": "Katie Joplin",
            "popularity": 1.714
        },
        {
            "id": 23724,
            "original_name": "True Music With Katie Daryl",
            "popularity": 1.479
        },
        {
            "id": 72853,
            "original_name": "Katie Price: My Crazy Life",
            "popularity": 1.16
        },
        {
            "id": 21600,
            "original_name": "Katie",
            "popularity": 1.131
        },
        {
            "id": 76873,
            "original_name": "America Inside Out with Katie Couric",
            "popularity": 0.891
        },
        {
            "id": 34392,
            "original_name": "Skating with the Stars",
            "popularity": 0.876
        },
        {
            "id": 138861,
            "original_name": "Katie Fforde",
            "popularity": 0.846
        },
        {
            "id": 18132,
            "original_name": "Katie & Peter: Stateside",
            "popularity": 0.843
        },
        {
            "id": 78141,
            "original_name": "Katitzi",
            "popularity": 0.84
        },
        {
            "id": 94033,
            "original_name": "Kingpin Katie",
            "popularity": 0.671
        },
        {
            "id": 10932,
            "original_name": "Skating with Celebrities",
            "popularity": 0.654
        },
        {
            "id": 12292,
            "original_name": "Skating on Thin Ice",
            "popularity": 0.6
        },
        {
            "id": 12952,
            "original_name": "Katie & Peter",
            "popularity": 0.6
        },
        {
            "id": 14164,
            "original_name": "Katie & Peter: Unleashed",
            "popularity": 0.6
        },
        {
            "id": 12127,
            "original_name": "Now with Tom Brokaw and Katie Couric",
            "popularity": 0.6
        },
        {
            "id": 11193,
            "original_name": "Katie & Peter: The Next Chapter",
            "popularity": 0.6
        },
        {
            "id": 6072,
            "original_name": "Katie & Peter",
            "popularity": 0.6
        },
        {
            "id": 10074,
            "original_name": "Katie and Orbie",
            "popularity": 0.6
        }
    ]
}