{
    "data": [
        {
            "id": 27875,
            "original_name": "Katja vs De Rest",
            "popularity": 0.668
        },
        {
            "id": 28790,
            "original_name": "Katja & Sophie",
            "popularity": 0.6
        },
        {
            "id": 127177,
            "original_name": "Katje voor de Sfeer",
            "popularity": 0.728
        }
    ],
    "relations": [],
    "top20": [
        {
            "id": 27875,
            "original_name": "Katja vs De Rest",
            "popularity": 0.668
        },
        {
            "id": 28790,
            "original_name": "Katja & Sophie",
            "popularity": 0.6
        },
        {
            "id": 127177,
            "original_name": "Katje voor de Sfeer",
            "popularity": 0.728
        }
    ]
}