{
    "data": [
        {
            "id": 93960,
            "original_name": "Team Kaylie",
            "popularity": 4.929
        }
    ],
    "relations": [],
    "top20": [
        {
            "id": 93960,
            "original_name": "Team Kaylie",
            "popularity": 4.929
        }
    ]
}