{
    "data": [
        {
            "id": 6175,
            "original_name": "McKeever and the Colonel",
            "popularity": 1.525
        },
        {
            "id": 152308,
            "original_name": "Gilly and Keeves",
            "popularity": 0.84
        }
    ],
    "relations": [],
    "top20": [
        {
            "id": 6175,
            "original_name": "McKeever and the Colonel",
            "popularity": 1.525
        },
        {
            "id": 152308,
            "original_name": "Gilly and Keeves",
            "popularity": 0.84
        }
    ]
}