{
    "data": [
        {
            "id": 37407,
            "original_name": "Hagure Keiji '97",
            "popularity": 0.6
        },
        {
            "id": 37458,
            "original_name": "Hagure Keiji '99",
            "popularity": 0.6
        },
        {
            "id": 46264,
            "original_name": "Keiji Gasahime: Tokumei Kataku sousahan",
            "popularity": 0.6
        },
        {
            "id": 123191,
            "original_name": "Keiji Narusawa Ryou \u5211\u4e8b\u30fb\u9cf4\u6ca2\u4e86",
            "popularity": 1.123
        }
    ],
    "relations": [],
    "top20": [
        {
            "id": 37407,
            "original_name": "Hagure Keiji '97",
            "popularity": 0.6
        },
        {
            "id": 37458,
            "original_name": "Hagure Keiji '99",
            "popularity": 0.6
        },
        {
            "id": 46264,
            "original_name": "Keiji Gasahime: Tokumei Kataku sousahan",
            "popularity": 0.6
        },
        {
            "id": 123191,
            "original_name": "Keiji Narusawa Ryou \u5211\u4e8b\u30fb\u9cf4\u6ca2\u4e86",
            "popularity": 1.123
        }
    ]
}