{
    "data": [
        {
            "id": 81180,
            "original_name": "Keizersvrouwen",
            "popularity": 6.161
        }
    ],
    "relations": [],
    "top20": [
        {
            "id": 81180,
            "original_name": "Keizersvrouwen",
            "popularity": 6.161
        }
    ]
}