{
    "data": [
        {
            "id": 420,
            "original_name": "Whatever Happened to the Likely Lads?",
            "popularity": 4.156
        },
        {
            "id": 2735,
            "original_name": "The Likely Lads",
            "popularity": 2.285
        },
        {
            "id": 17830,
            "original_name": "A Tribute to the Likely Lads",
            "popularity": 0.6
        },
        {
            "id": 24590,
            "original_name": "Unlikely Lovers",
            "popularity": 0.6
        },
        {
            "id": 24871,
            "original_name": "Likely Suspects",
            "popularity": 2.139
        },
        {
            "id": 28233,
            "original_name": "John Sessions's Likely Stories",
            "popularity": 0.6
        },
        {
            "id": 28437,
            "original_name": "The Most Likely Girl",
            "popularity": 0.6
        },
        {
            "id": 58376,
            "original_name": "Likely Suspects",
            "popularity": 0.6
        },
        {
            "id": 66612,
            "original_name": "Neil Gaiman's Likely Stories",
            "popularity": 2.431
        },
        {
            "id": 93201,
            "original_name": "Unlikely Heroes",
            "popularity": 0.6
        },
        {
            "id": 105151,
            "original_name": "Unlikely Animal Friends",
            "popularity": 1.73
        }
    ],
    "relations": [],
    "top20": [
        {
            "id": 420,
            "original_name": "Whatever Happened to the Likely Lads?",
            "popularity": 4.156
        },
        {
            "id": 2735,
            "original_name": "The Likely Lads",
            "popularity": 2.285
        },
        {
            "id": 17830,
            "original_name": "A Tribute to the Likely Lads",
            "popularity": 0.6
        },
        {
            "id": 24590,
            "original_name": "Unlikely Lovers",
            "popularity": 0.6
        },
        {
            "id": 24871,
            "original_name": "Likely Suspects",
            "popularity": 2.139
        },
        {
            "id": 28233,
            "original_name": "John Sessions's Likely Stories",
            "popularity": 0.6
        },
        {
            "id": 28437,
            "original_name": "The Most Likely Girl",
            "popularity": 0.6
        },
        {
            "id": 58376,
            "original_name": "Likely Suspects",
            "popularity": 0.6
        },
        {
            "id": 66612,
            "original_name": "Neil Gaiman's Likely Stories",
            "popularity": 2.431
        },
        {
            "id": 93201,
            "original_name": "Unlikely Heroes",
            "popularity": 0.6
        },
        {
            "id": 105151,
            "original_name": "Unlikely Animal Friends",
            "popularity": 1.73
        }
    ]
}