{
    "data": [
        {
            "id": 50222,
            "original_name": "Kemilau Cinta Kamila",
            "popularity": 0.6
        },
        {
            "id": 50388,
            "original_name": "Kemilau Cinta Kamila",
            "popularity": 0.6
        }
    ],
    "relations": [],
    "top20": [
        {
            "id": 50222,
            "original_name": "Kemilau Cinta Kamila",
            "popularity": 0.6
        },
        {
            "id": 50388,
            "original_name": "Kemilau Cinta Kamila",
            "popularity": 0.6
        }
    ]
}