{
    "data": [
        {
            "id": 16366,
            "original_name": "McKenna",
            "popularity": 2.145
        },
        {
            "id": 23329,
            "original_name": "I Can Make You Thin with Paul McKenna",
            "popularity": 0.6
        },
        {
            "id": 25706,
            "original_name": "Paul McKenna Will Make You Thin",
            "popularity": 0.6
        }
    ],
    "relations": [],
    "top20": [
        {
            "id": 16366,
            "original_name": "McKenna",
            "popularity": 2.145
        },
        {
            "id": 23329,
            "original_name": "I Can Make You Thin with Paul McKenna",
            "popularity": 0.6
        },
        {
            "id": 25706,
            "original_name": "Paul McKenna Will Make You Thin",
            "popularity": 0.6
        }
    ]
}