{
    "data": [
        {
            "id": 56193,
            "original_name": "Dorkfah Thamon Kab John Grajawk",
            "popularity": 0.6
        }
    ],
    "relations": [],
    "top20": [
        {
            "id": 56193,
            "original_name": "Dorkfah Thamon Kab John Grajawk",
            "popularity": 0.6
        }
    ]
}