{
    "data": [
        {
            "id": 67016,
            "original_name": "Kicsi Gesztenye Klub",
            "popularity": 0.6
        }
    ],
    "relations": [],
    "top20": [
        {
            "id": 67016,
            "original_name": "Kicsi Gesztenye Klub",
            "popularity": 0.6
        }
    ]
}