{
    "data": [
        {
            "id": 115504,
            "original_name": "NikkieTutorials: Layers of Me",
            "popularity": 0.84
        },
        {
            "id": 124006,
            "original_name": "Der Leutnant vom Schwanenkietz",
            "popularity": 0.6
        }
    ],
    "relations": [],
    "top20": [
        {
            "id": 115504,
            "original_name": "NikkieTutorials: Layers of Me",
            "popularity": 0.84
        },
        {
            "id": 124006,
            "original_name": "Der Leutnant vom Schwanenkietz",
            "popularity": 0.6
        }
    ]
}