{
    "data": [
        {
            "id": 52299,
            "original_name": "Shakila",
            "popularity": 0.6
        },
        {
            "id": 96961,
            "original_name": "Lara Syakila",
            "popularity": 0.62
        },
        {
            "id": 119806,
            "original_name": "Te\u015fkilat",
            "popularity": 10.321
        },
        {
            "id": 124635,
            "original_name": "24 Kilates",
            "popularity": 0.6
        },
        {
            "id": 129302,
            "original_name": "Bienvenidos a Yonkiland",
            "popularity": 1.364
        }
    ],
    "relations": [],
    "top20": [
        {
            "id": 52299,
            "original_name": "Shakila",
            "popularity": 0.6
        },
        {
            "id": 96961,
            "original_name": "Lara Syakila",
            "popularity": 0.62
        },
        {
            "id": 119806,
            "original_name": "Te\u015fkilat",
            "popularity": 10.321
        },
        {
            "id": 124635,
            "original_name": "24 Kilates",
            "popularity": 0.6
        },
        {
            "id": 129302,
            "original_name": "Bienvenidos a Yonkiland",
            "popularity": 1.364
        }
    ]
}