{
    "data": [
        {
            "id": 759,
            "original_name": "Baddiel and Skinner Unplanned",
            "popularity": 1.67
        },
        {
            "id": 7061,
            "original_name": "Kinniku Banzuke",
            "popularity": 0.6
        },
        {
            "id": 9050,
            "original_name": "Skinnamarink TV",
            "popularity": 0.695
        },
        {
            "id": 14608,
            "original_name": "The Frank Skinner Show",
            "popularity": 6.56
        },
        {
            "id": 16196,
            "original_name": "The Skinny Dip",
            "popularity": 0.654
        },
        {
            "id": 17918,
            "original_name": "Supersize vs Superskinny",
            "popularity": 3.041
        },
        {
            "id": 26613,
            "original_name": "Kinniku Banzuke",
            "popularity": 0.6
        },
        {
            "id": 29089,
            "original_name": "Tekinn",
            "popularity": 0.6
        },
        {
            "id": 30208,
            "original_name": "The Mackinnons",
            "popularity": 0.6
        },
        {
            "id": 32652,
            "original_name": "Frank Skinner's Opinionated",
            "popularity": 1.4
        },
        {
            "id": 37704,
            "original_name": "Bucket & Skinner's Epic Adventures",
            "popularity": 3.088
        },
        {
            "id": 38492,
            "original_name": "Supersize Versus Superskinny Kids",
            "popularity": 0.6
        },
        {
            "id": 43231,
            "original_name": "Kinnikuman",
            "popularity": 7.859
        },
        {
            "id": 50068,
            "original_name": "Kinnat El Sham",
            "popularity": 0.84
        },
        {
            "id": 51588,
            "original_name": "Charlie p\u00e5 skinner",
            "popularity": 0.6
        },
        {
            "id": 65074,
            "original_name": "Kinne",
            "popularity": 0.626
        },
        {
            "id": 67297,
            "original_name": "P\u00e5 skinner",
            "popularity": 0.6
        },
        {
            "id": 76021,
            "original_name": "The Skinner Boys: Guardians of the Lost Secrets",
            "popularity": 2.286
        },
        {
            "id": 83927,
            "original_name": "Skinny Girl In Transit",
            "popularity": 0.6
        },
        {
            "id": 100826,
            "original_name": "Skinny Girl in Transit",
            "popularity": 0.6
        },
        {
            "id": 115766,
            "original_name": "Kinni",
            "popularity": 0.6
        }
    ],
    "relations": [
        {
            "character": "kinne"
        },
        {
            "character": "kinni"
        },
        {
            "character": "kinna"
        },
        {
            "character": "kinny"
        },
        {
            "character": "kinno"
        }
    ],
    "top20": [
        {
            "id": 43231,
            "original_name": "Kinnikuman",
            "popularity": 7.859
        },
        {
            "id": 14608,
            "original_name": "The Frank Skinner Show",
            "popularity": 6.56
        },
        {
            "id": 37704,
            "original_name": "Bucket & Skinner's Epic Adventures",
            "popularity": 3.088
        },
        {
            "id": 17918,
            "original_name": "Supersize vs Superskinny",
            "popularity": 3.041
        },
        {
            "id": 76021,
            "original_name": "The Skinner Boys: Guardians of the Lost Secrets",
            "popularity": 2.286
        },
        {
            "id": 759,
            "original_name": "Baddiel and Skinner Unplanned",
            "popularity": 1.67
        },
        {
            "id": 32652,
            "original_name": "Frank Skinner's Opinionated",
            "popularity": 1.4
        },
        {
            "id": 50068,
            "original_name": "Kinnat El Sham",
            "popularity": 0.84
        },
        {
            "id": 9050,
            "original_name": "Skinnamarink TV",
            "popularity": 0.695
        },
        {
            "id": 16196,
            "original_name": "The Skinny Dip",
            "popularity": 0.654
        },
        {
            "id": 65074,
            "original_name": "Kinne",
            "popularity": 0.626
        },
        {
            "id": 26613,
            "original_name": "Kinniku Banzuke",
            "popularity": 0.6
        },
        {
            "id": 38492,
            "original_name": "Supersize Versus Superskinny Kids",
            "popularity": 0.6
        },
        {
            "id": 51588,
            "original_name": "Charlie p\u00e5 skinner",
            "popularity": 0.6
        },
        {
            "id": 67297,
            "original_name": "P\u00e5 skinner",
            "popularity": 0.6
        },
        {
            "id": 100826,
            "original_name": "Skinny Girl in Transit",
            "popularity": 0.6
        },
        {
            "id": 29089,
            "original_name": "Tekinn",
            "popularity": 0.6
        },
        {
            "id": 30208,
            "original_name": "The Mackinnons",
            "popularity": 0.6
        },
        {
            "id": 7061,
            "original_name": "Kinniku Banzuke",
            "popularity": 0.6
        },
        {
            "id": 83927,
            "original_name": "Skinny Girl In Transit",
            "popularity": 0.6
        }
    ]
}