{
    "data": [
        {
            "id": 19276,
            "original_name": "Mark Kistler's Imagination Station",
            "popularity": 0.6
        }
    ],
    "relations": [],
    "top20": [
        {
            "id": 19276,
            "original_name": "Mark Kistler's Imagination Station",
            "popularity": 0.6
        }
    ]
}