{
    "data": [
        {
            "id": 24644,
            "original_name": "I Want That! Kitchens",
            "popularity": 1.417
        },
        {
            "id": 124492,
            "original_name": "Dream Kitchens & Bathrooms with Mark Millar",
            "popularity": 1.058
        },
        {
            "id": 130390,
            "original_name": "For The Love of Kitchens",
            "popularity": 0.6
        }
    ],
    "relations": [],
    "top20": [
        {
            "id": 24644,
            "original_name": "I Want That! Kitchens",
            "popularity": 1.417
        },
        {
            "id": 124492,
            "original_name": "Dream Kitchens & Bathrooms with Mark Millar",
            "popularity": 1.058
        },
        {
            "id": 130390,
            "original_name": "For The Love of Kitchens",
            "popularity": 0.6
        }
    ]
}