{
    "data": [
        {
            "id": 57129,
            "original_name": "71\u00b0 nord - Norges t\u00f8ffeste kjendis",
            "popularity": 6.264
        },
        {
            "id": 62753,
            "original_name": "Frikjent",
            "popularity": 5.45
        },
        {
            "id": 72230,
            "original_name": "Farmen Kjendis",
            "popularity": 4.168
        },
        {
            "id": 73731,
            "original_name": "Kjendisrestauranten",
            "popularity": 0.6
        },
        {
            "id": 86714,
            "original_name": "Torpet Kjendis",
            "popularity": 2.43
        },
        {
            "id": 87666,
            "original_name": "Familieduellen Kjendis",
            "popularity": 0.6
        },
        {
            "id": 108675,
            "original_name": "Synn\u00f8ve Rydder Opp -  Kjendis",
            "popularity": 1.042
        },
        {
            "id": 111732,
            "original_name": "Ukjent arving",
            "popularity": 1.261
        },
        {
            "id": 117557,
            "original_name": "Kjendis-VM",
            "popularity": 0.6
        }
    ],
    "relations": [],
    "top20": [
        {
            "id": 57129,
            "original_name": "71\u00b0 nord - Norges t\u00f8ffeste kjendis",
            "popularity": 6.264
        },
        {
            "id": 62753,
            "original_name": "Frikjent",
            "popularity": 5.45
        },
        {
            "id": 72230,
            "original_name": "Farmen Kjendis",
            "popularity": 4.168
        },
        {
            "id": 73731,
            "original_name": "Kjendisrestauranten",
            "popularity": 0.6
        },
        {
            "id": 86714,
            "original_name": "Torpet Kjendis",
            "popularity": 2.43
        },
        {
            "id": 87666,
            "original_name": "Familieduellen Kjendis",
            "popularity": 0.6
        },
        {
            "id": 108675,
            "original_name": "Synn\u00f8ve Rydder Opp -  Kjendis",
            "popularity": 1.042
        },
        {
            "id": 111732,
            "original_name": "Ukjent arving",
            "popularity": 1.261
        },
        {
            "id": 117557,
            "original_name": "Kjendis-VM",
            "popularity": 0.6
        }
    ]
}