{
    "data": [
        {
            "id": 16597,
            "original_name": "Hukkaputki",
            "popularity": 0.6
        }
    ],
    "relations": [],
    "top20": [
        {
            "id": 16597,
            "original_name": "Hukkaputki",
            "popularity": 0.6
        }
    ]
}