{
    "data": [
        {
            "id": 13443,
            "original_name": "Pikku Kakkonen",
            "popularity": 0.6
        },
        {
            "id": 14350,
            "original_name": "Tokkou",
            "popularity": 2.964
        },
        {
            "id": 20185,
            "original_name": "Zokko",
            "popularity": 0.6
        },
        {
            "id": 20197,
            "original_name": "Ajankohtainen kakkonen",
            "popularity": 0.6
        },
        {
            "id": 29556,
            "original_name": "Kekkon no Risou to Genjitsu",
            "popularity": 0.632
        },
        {
            "id": 30055,
            "original_name": "Sonouchi Kekkon Suru Kimi e",
            "popularity": 0.626
        },
        {
            "id": 34202,
            "original_name": "\u4f4f\u3081\u3070\u90fd\u306e\u30b3\u30b9\u30e2\u30b9\u8358\u30fb\u3059\u3063\u3068\u3053\u5927\u6226\u30c9\u30c3\u30b3\u30a4\u30c0\u30fcDokkoida?!",
            "popularity": 3.171
        },
        {
            "id": 36179,
            "original_name": "Tante in Marokko",
            "popularity": 0.6
        },
        {
            "id": 52137,
            "original_name": "Akko ni omakase!",
            "popularity": 0.6
        },
        {
            "id": 55009,
            "original_name": "Pakko tanssia",
            "popularity": 0.6
        },
        {
            "id": 57445,
            "original_name": "Heikki & Mikko Show",
            "popularity": 0.6
        },
        {
            "id": 57460,
            "original_name": "Sokkokokki",
            "popularity": 0.6
        },
        {
            "id": 75973,
            "original_name": "Kekkonen",
            "popularity": 1.055
        },
        {
            "id": 78002,
            "original_name": "Mikko Niskanen - ohjaaja matkalla ihmiseksi",
            "popularity": 0.6
        },
        {
            "id": 84641,
            "original_name": "Ketsuekigatabetsu Onna ga Kekkon Suru Hoho",
            "popularity": 1.179
        },
        {
            "id": 97544,
            "original_name": "Fukubiki! Triangle: Futaba wa Atafuta - Koakuma Itazurakko no Kabedon Aika",
            "popularity": 1.161
        },
        {
            "id": 104340,
            "original_name": "Plastikkongerne",
            "popularity": 0.6
        },
        {
            "id": 111862,
            "original_name": "\u3081\u3061\u3083\u3063\u3053\u30c9\u30bf\u30b3\u30f3 (Mechakko Dotakon)",
            "popularity": 0.6
        },
        {
            "id": 138039,
            "original_name": "Kaisha wa Gakkou jane-n da yo - Shin Sedai Gyakushuu Hen",
            "popularity": 7.537
        }
    ],
    "relations": [],
    "top20": [
        {
            "id": 13443,
            "original_name": "Pikku Kakkonen",
            "popularity": 0.6
        },
        {
            "id": 14350,
            "original_name": "Tokkou",
            "popularity": 2.964
        },
        {
            "id": 20185,
            "original_name": "Zokko",
            "popularity": 0.6
        },
        {
            "id": 20197,
            "original_name": "Ajankohtainen kakkonen",
            "popularity": 0.6
        },
        {
            "id": 29556,
            "original_name": "Kekkon no Risou to Genjitsu",
            "popularity": 0.632
        },
        {
            "id": 30055,
            "original_name": "Sonouchi Kekkon Suru Kimi e",
            "popularity": 0.626
        },
        {
            "id": 34202,
            "original_name": "\u4f4f\u3081\u3070\u90fd\u306e\u30b3\u30b9\u30e2\u30b9\u8358\u30fb\u3059\u3063\u3068\u3053\u5927\u6226\u30c9\u30c3\u30b3\u30a4\u30c0\u30fcDokkoida?!",
            "popularity": 3.171
        },
        {
            "id": 36179,
            "original_name": "Tante in Marokko",
            "popularity": 0.6
        },
        {
            "id": 52137,
            "original_name": "Akko ni omakase!",
            "popularity": 0.6
        },
        {
            "id": 55009,
            "original_name": "Pakko tanssia",
            "popularity": 0.6
        },
        {
            "id": 57445,
            "original_name": "Heikki & Mikko Show",
            "popularity": 0.6
        },
        {
            "id": 57460,
            "original_name": "Sokkokokki",
            "popularity": 0.6
        },
        {
            "id": 75973,
            "original_name": "Kekkonen",
            "popularity": 1.055
        },
        {
            "id": 78002,
            "original_name": "Mikko Niskanen - ohjaaja matkalla ihmiseksi",
            "popularity": 0.6
        },
        {
            "id": 84641,
            "original_name": "Ketsuekigatabetsu Onna ga Kekkon Suru Hoho",
            "popularity": 1.179
        },
        {
            "id": 97544,
            "original_name": "Fukubiki! Triangle: Futaba wa Atafuta - Koakuma Itazurakko no Kabedon Aika",
            "popularity": 1.161
        },
        {
            "id": 104340,
            "original_name": "Plastikkongerne",
            "popularity": 0.6
        },
        {
            "id": 111862,
            "original_name": "\u3081\u3061\u3083\u3063\u3053\u30c9\u30bf\u30b3\u30f3 (Mechakko Dotakon)",
            "popularity": 0.6
        },
        {
            "id": 138039,
            "original_name": "Kaisha wa Gakkou jane-n da yo - Shin Sedai Gyakushuu Hen",
            "popularity": 7.537
        }
    ]
}