{
    "data": [
        {
            "id": 19278,
            "original_name": "Tickled Pink",
            "popularity": 0.6
        },
        {
            "id": 38286,
            "original_name": "Beltway Unbuckled: Political Secrets, Sagas, And Scandals",
            "popularity": 0.6
        },
        {
            "id": 100200,
            "original_name": "Avkledd",
            "popularity": 0.6
        },
        {
            "id": 117578,
            "original_name": "Seni \u00c7ok Bekledim",
            "popularity": 2.003
        }
    ],
    "relations": [],
    "top20": [
        {
            "id": 19278,
            "original_name": "Tickled Pink",
            "popularity": 0.6
        },
        {
            "id": 38286,
            "original_name": "Beltway Unbuckled: Political Secrets, Sagas, And Scandals",
            "popularity": 0.6
        },
        {
            "id": 100200,
            "original_name": "Avkledd",
            "popularity": 0.6
        },
        {
            "id": 117578,
            "original_name": "Seni \u00c7ok Bekledim",
            "popularity": 2.003
        }
    ]
}