{
    "data": [
        {
            "id": 14089,
            "original_name": "Klutter!",
            "popularity": 0.6
        },
        {
            "id": 139546,
            "original_name": "Klutch Academy",
            "popularity": 23.991
        }
    ],
    "relations": [],
    "top20": [
        {
            "id": 14089,
            "original_name": "Klutter!",
            "popularity": 0.6
        },
        {
            "id": 139546,
            "original_name": "Klutch Academy",
            "popularity": 23.991
        }
    ]
}