{
    "data": [
        {
            "id": 100733,
            "original_name": "Anders och knarket",
            "popularity": 0.6
        }
    ],
    "relations": [],
    "top20": [
        {
            "id": 100733,
            "original_name": "Anders och knarket",
            "popularity": 0.6
        }
    ]
}