{
    "data": [
        {
            "id": 101875,
            "original_name": "Powr\u00f3t doktora von Kniprode",
            "popularity": 0.961
        },
        {
            "id": 121878,
            "original_name": "De Geknipte Gast",
            "popularity": 0.84
        }
    ],
    "relations": [],
    "top20": [
        {
            "id": 101875,
            "original_name": "Powr\u00f3t doktora von Kniprode",
            "popularity": 0.961
        },
        {
            "id": 121878,
            "original_name": "De Geknipte Gast",
            "popularity": 0.84
        }
    ]
}