{
    "data": [
        {
            "id": 50152,
            "original_name": "Kodrat",
            "popularity": 0.6
        }
    ],
    "relations": [],
    "top20": [
        {
            "id": 50152,
            "original_name": "Kodrat",
            "popularity": 0.6
        }
    ]
}