{
    "data": [
        {
            "id": 41041,
            "original_name": "Korkmazlar",
            "popularity": 0.6
        },
        {
            "id": 55037,
            "original_name": "Korkojen kera",
            "popularity": 0.6
        },
        {
            "id": 55081,
            "original_name": "Korkeasaari",
            "popularity": 0.6
        },
        {
            "id": 57484,
            "original_name": "Korkojen kera",
            "popularity": 0.6
        },
        {
            "id": 86661,
            "original_name": "Dede Korkut",
            "popularity": 0.6
        },
        {
            "id": 131752,
            "original_name": "Coda KORK",
            "popularity": 4.215
        }
    ],
    "relations": [],
    "top20": [
        {
            "id": 41041,
            "original_name": "Korkmazlar",
            "popularity": 0.6
        },
        {
            "id": 55037,
            "original_name": "Korkojen kera",
            "popularity": 0.6
        },
        {
            "id": 55081,
            "original_name": "Korkeasaari",
            "popularity": 0.6
        },
        {
            "id": 57484,
            "original_name": "Korkojen kera",
            "popularity": 0.6
        },
        {
            "id": 86661,
            "original_name": "Dede Korkut",
            "popularity": 0.6
        },
        {
            "id": 131752,
            "original_name": "Coda KORK",
            "popularity": 4.215
        }
    ]
}