{
    "data": [
        {
            "id": 45526,
            "original_name": "Kotencotenco",
            "popularity": 0.6
        },
        {
            "id": 51798,
            "original_name": "Pars: Narkoter\u00f6r",
            "popularity": 0.6
        },
        {
            "id": 138126,
            "original_name": "Kotetsu no Daibouken",
            "popularity": 0.827
        }
    ],
    "relations": [],
    "top20": [
        {
            "id": 45526,
            "original_name": "Kotencotenco",
            "popularity": 0.6
        },
        {
            "id": 51798,
            "original_name": "Pars: Narkoter\u00f6r",
            "popularity": 0.6
        },
        {
            "id": 138126,
            "original_name": "Kotetsu no Daibouken",
            "popularity": 0.827
        }
    ]
}