{
    "data": [
        {
            "id": 54563,
            "original_name": "Kukori and Kotkoda",
            "popularity": 0.6
        },
        {
            "id": 63791,
            "original_name": "Kukori \u00e9s Kotkoda",
            "popularity": 0.6
        },
        {
            "id": 134065,
            "original_name": "Kiekenkotkwis",
            "popularity": 0.665
        }
    ],
    "relations": [],
    "top20": [
        {
            "id": 54563,
            "original_name": "Kukori and Kotkoda",
            "popularity": 0.6
        },
        {
            "id": 63791,
            "original_name": "Kukori \u00e9s Kotkoda",
            "popularity": 0.6
        },
        {
            "id": 134065,
            "original_name": "Kiekenkotkwis",
            "popularity": 0.665
        }
    ]
}