{
    "data": [
        {
            "id": 11471,
            "original_name": "Ulica Sezamkowa",
            "popularity": 0.6
        },
        {
            "id": 50714,
            "original_name": "Kowwat Alkoloob",
            "popularity": 0.6
        },
        {
            "id": 52152,
            "original_name": "Suiy\u00f4 puremia: sekai saiky\u00f4 J hor\u00e2 SP Nihon no kowai yoru",
            "popularity": 0.6
        },
        {
            "id": 62981,
            "original_name": "Kowalsky",
            "popularity": 0.6
        },
        {
            "id": 69031,
            "original_name": "Cirkus Bukowsky",
            "popularity": 1.222
        },
        {
            "id": 84477,
            "original_name": "Honto ni Atta Kowai Hanashi 2009 10th Anniversary",
            "popularity": 0.6
        },
        {
            "id": 84478,
            "original_name": "Honto ni Atta Kowai Hanashi 2013",
            "popularity": 0.6
        },
        {
            "id": 89454,
            "original_name": "Przykrywkowcy. Podw\u00f3jna gra",
            "popularity": 1.109
        },
        {
            "id": 94608,
            "original_name": "Bajkowy Kogel Mogel",
            "popularity": 0.6
        },
        {
            "id": 103363,
            "original_name": "Szale\u0144stwo Majki Skowron",
            "popularity": 0.875
        },
        {
            "id": 119298,
            "original_name": "Kowalscy kontra Kowalscy",
            "popularity": 1.655
        },
        {
            "id": 131669,
            "original_name": "Crew Unkown",
            "popularity": 0.6
        },
        {
            "id": 136303,
            "original_name": "Tatu\u015bkowie",
            "popularity": 70.829
        },
        {
            "id": 152490,
            "original_name": "Rybnicka Jesie\u0144 Kabaretowa: Wyj\u0105tkowy koncert na 25 lat",
            "popularity": 1.96
        }
    ],
    "relations": [],
    "top20": [
        {
            "id": 11471,
            "original_name": "Ulica Sezamkowa",
            "popularity": 0.6
        },
        {
            "id": 50714,
            "original_name": "Kowwat Alkoloob",
            "popularity": 0.6
        },
        {
            "id": 52152,
            "original_name": "Suiy\u00f4 puremia: sekai saiky\u00f4 J hor\u00e2 SP Nihon no kowai yoru",
            "popularity": 0.6
        },
        {
            "id": 62981,
            "original_name": "Kowalsky",
            "popularity": 0.6
        },
        {
            "id": 69031,
            "original_name": "Cirkus Bukowsky",
            "popularity": 1.222
        },
        {
            "id": 84477,
            "original_name": "Honto ni Atta Kowai Hanashi 2009 10th Anniversary",
            "popularity": 0.6
        },
        {
            "id": 84478,
            "original_name": "Honto ni Atta Kowai Hanashi 2013",
            "popularity": 0.6
        },
        {
            "id": 89454,
            "original_name": "Przykrywkowcy. Podw\u00f3jna gra",
            "popularity": 1.109
        },
        {
            "id": 94608,
            "original_name": "Bajkowy Kogel Mogel",
            "popularity": 0.6
        },
        {
            "id": 103363,
            "original_name": "Szale\u0144stwo Majki Skowron",
            "popularity": 0.875
        },
        {
            "id": 119298,
            "original_name": "Kowalscy kontra Kowalscy",
            "popularity": 1.655
        },
        {
            "id": 131669,
            "original_name": "Crew Unkown",
            "popularity": 0.6
        },
        {
            "id": 136303,
            "original_name": "Tatu\u015bkowie",
            "popularity": 70.829
        },
        {
            "id": 152490,
            "original_name": "Rybnicka Jesie\u0144 Kabaretowa: Wyj\u0105tkowy koncert na 25 lat",
            "popularity": 1.96
        }
    ]
}