{
    "data": [
        {
            "id": 205,
            "original_name": "Garth Marenghi's Darkplace",
            "popularity": 6.4
        },
        {
            "id": 70259,
            "original_name": "All Over The Workplace",
            "popularity": 0.6
        }
    ],
    "relations": [],
    "top20": [
        {
            "id": 205,
            "original_name": "Garth Marenghi's Darkplace",
            "popularity": 6.4
        },
        {
            "id": 70259,
            "original_name": "All Over The Workplace",
            "popularity": 0.6
        }
    ]
}