{
    "data": [
        {
            "id": 96820,
            "original_name": "Mama Papa Ekspres",
            "popularity": 0.6
        },
        {
            "id": 138902,
            "original_name": "Balkan ekspres",
            "popularity": 0.6
        },
        {
            "id": 138904,
            "original_name": "Balkan ekspres 2",
            "popularity": 0.621
        }
    ],
    "relations": [],
    "top20": [
        {
            "id": 96820,
            "original_name": "Mama Papa Ekspres",
            "popularity": 0.6
        },
        {
            "id": 138902,
            "original_name": "Balkan ekspres",
            "popularity": 0.6
        },
        {
            "id": 138904,
            "original_name": "Balkan ekspres 2",
            "popularity": 0.621
        }
    ]
}