{
    "data": [
        {
            "id": 720,
            "original_name": "DuckTales",
            "popularity": 33.731
        },
        {
            "id": 24436,
            "original_name": "BOOKTalk",
            "popularity": 0.6
        },
        {
            "id": 31156,
            "original_name": "ThinkTalk",
            "popularity": 0.6
        },
        {
            "id": 44934,
            "original_name": "Folktales from Japan",
            "popularity": 1.607
        },
        {
            "id": 72350,
            "original_name": "DuckTales",
            "popularity": 26.043
        }
    ],
    "relations": [],
    "top20": [
        {
            "id": 720,
            "original_name": "DuckTales",
            "popularity": 33.731
        },
        {
            "id": 24436,
            "original_name": "BOOKTalk",
            "popularity": 0.6
        },
        {
            "id": 31156,
            "original_name": "ThinkTalk",
            "popularity": 0.6
        },
        {
            "id": 44934,
            "original_name": "Folktales from Japan",
            "popularity": 1.607
        },
        {
            "id": 72350,
            "original_name": "DuckTales",
            "popularity": 26.043
        }
    ]
}