{
    "data": [
        {
            "id": 82855,
            "original_name": "Sthlm Rekviem",
            "popularity": 4.067
        }
    ],
    "relations": [],
    "top20": [
        {
            "id": 82855,
            "original_name": "Sthlm Rekviem",
            "popularity": 4.067
        }
    ]
}