{
    "data": [
        {
            "id": 75764,
            "original_name": "Kvit Eller Dobbelt",
            "popularity": 0.6
        },
        {
            "id": 99166,
            "original_name": "Kvitt eller dobbelt",
            "popularity": 0.6
        }
    ],
    "relations": [],
    "top20": [
        {
            "id": 75764,
            "original_name": "Kvit Eller Dobbelt",
            "popularity": 0.6
        },
        {
            "id": 99166,
            "original_name": "Kvitt eller dobbelt",
            "popularity": 0.6
        }
    ]
}