{
    "data": [
        {
            "id": 12457,
            "original_name": "Lookwell",
            "popularity": 1.113
        },
        {
            "id": 16583,
            "original_name": "Kweekvijver",
            "popularity": 0.6
        },
        {
            "id": 30067,
            "original_name": "Kwestie van smaak, De",
            "popularity": 0.6
        },
        {
            "id": 32812,
            "original_name": "Global News with Riki Kwek",
            "popularity": 0.6
        },
        {
            "id": 35631,
            "original_name": "Brandende Kwesties",
            "popularity": 0.6
        },
        {
            "id": 37032,
            "original_name": "Sneekweek",
            "popularity": 0.6
        },
        {
            "id": 55876,
            "original_name": "Drekwerk",
            "popularity": 0.6
        },
        {
            "id": 61519,
            "original_name": "Eigen Kweek",
            "popularity": 2.391
        },
        {
            "id": 117003,
            "original_name": "Akwen Eldorado",
            "popularity": 0.6
        }
    ],
    "relations": [],
    "top20": [
        {
            "id": 12457,
            "original_name": "Lookwell",
            "popularity": 1.113
        },
        {
            "id": 16583,
            "original_name": "Kweekvijver",
            "popularity": 0.6
        },
        {
            "id": 30067,
            "original_name": "Kwestie van smaak, De",
            "popularity": 0.6
        },
        {
            "id": 32812,
            "original_name": "Global News with Riki Kwek",
            "popularity": 0.6
        },
        {
            "id": 35631,
            "original_name": "Brandende Kwesties",
            "popularity": 0.6
        },
        {
            "id": 37032,
            "original_name": "Sneekweek",
            "popularity": 0.6
        },
        {
            "id": 55876,
            "original_name": "Drekwerk",
            "popularity": 0.6
        },
        {
            "id": 61519,
            "original_name": "Eigen Kweek",
            "popularity": 2.391
        },
        {
            "id": 117003,
            "original_name": "Akwen Eldorado",
            "popularity": 0.6
        }
    ]
}