{
    "data": [
        {
            "id": 732,
            "original_name": "L.A. Law",
            "popularity": 17.138
        },
        {
            "id": 1694,
            "original_name": "L.A. Doctors",
            "popularity": 1.623
        },
        {
            "id": 2332,
            "original_name": "L.A. Heat",
            "popularity": 5.986
        },
        {
            "id": 12296,
            "original_name": "Good Day L.A.",
            "popularity": 1.672
        },
        {
            "id": 12712,
            "original_name": "JONAS L.A.",
            "popularity": 9.32
        },
        {
            "id": 13472,
            "original_name": "Today in L.A.",
            "popularity": 0.6
        },
        {
            "id": 19327,
            "original_name": "Fame L.A.",
            "popularity": 1.906
        },
        {
            "id": 21300,
            "original_name": "L.A. Takedown",
            "popularity": 0.6
        },
        {
            "id": 22942,
            "original_name": "L.A. Forensics",
            "popularity": 0.6
        },
        {
            "id": 24498,
            "original_name": "Leaving L.A.",
            "popularity": 1.963
        },
        {
            "id": 24558,
            "original_name": "L.A. Hard Hats",
            "popularity": 0.6
        },
        {
            "id": 26352,
            "original_name": "Shades of L.A.",
            "popularity": 5.468
        },
        {
            "id": 27694,
            "original_name": "L.A. Models",
            "popularity": 0.6
        },
        {
            "id": 30848,
            "original_name": "L.A. Firefighters",
            "popularity": 2.554
        },
        {
            "id": 33014,
            "original_name": "Mad Movies with the L.A. Connection",
            "popularity": 0.6
        },
        {
            "id": 33286,
            "original_name": "Cops L.A.C.",
            "popularity": 2.299
        },
        {
            "id": 37987,
            "original_name": "T.i.l.a.",
            "popularity": 1.357
        },
        {
            "id": 42814,
            "original_name": "The Peacemaker: L.A. Gang Wars",
            "popularity": 0.6
        },
        {
            "id": 43197,
            "original_name": "The L.A. Complex",
            "popularity": 4.995
        },
        {
            "id": 45382,
            "original_name": "L.A. Dragnet",
            "popularity": 5.501
        },
        {
            "id": 56798,
            "original_name": "S.I.L.A.",
            "popularity": 0.6
        },
        {
            "id": 57364,
            "original_name": "L.A.P.D.: Lekanopedio Attikis Police Department",
            "popularity": 0.963
        },
        {
            "id": 63907,
            "original_name": "L.A. Hair",
            "popularity": 0.67
        },
        {
            "id": 71157,
            "original_name": "C.L.A. No somos \u00e1ngeles",
            "popularity": 1.342
        },
        {
            "id": 85385,
            "original_name": "L.A.'s Finest",
            "popularity": 22.399
        },
        {
            "id": 128894,
            "original_name": "L.A. Macabre",
            "popularity": 0.6
        }
    ],
    "relations": [
        {
            "character": "l.a.c"
        },
        {
            "character": "l.a.p"
        }
    ],
    "top20": [
        {
            "id": 85385,
            "original_name": "L.A.'s Finest",
            "popularity": 22.399
        },
        {
            "id": 732,
            "original_name": "L.A. Law",
            "popularity": 17.138
        },
        {
            "id": 12712,
            "original_name": "JONAS L.A.",
            "popularity": 9.32
        },
        {
            "id": 2332,
            "original_name": "L.A. Heat",
            "popularity": 5.986
        },
        {
            "id": 45382,
            "original_name": "L.A. Dragnet",
            "popularity": 5.501
        },
        {
            "id": 26352,
            "original_name": "Shades of L.A.",
            "popularity": 5.468
        },
        {
            "id": 43197,
            "original_name": "The L.A. Complex",
            "popularity": 4.995
        },
        {
            "id": 30848,
            "original_name": "L.A. Firefighters",
            "popularity": 2.554
        },
        {
            "id": 33286,
            "original_name": "Cops L.A.C.",
            "popularity": 2.299
        },
        {
            "id": 24498,
            "original_name": "Leaving L.A.",
            "popularity": 1.963
        },
        {
            "id": 19327,
            "original_name": "Fame L.A.",
            "popularity": 1.906
        },
        {
            "id": 12296,
            "original_name": "Good Day L.A.",
            "popularity": 1.672
        },
        {
            "id": 1694,
            "original_name": "L.A. Doctors",
            "popularity": 1.623
        },
        {
            "id": 37987,
            "original_name": "T.i.l.a.",
            "popularity": 1.357
        },
        {
            "id": 71157,
            "original_name": "C.L.A. No somos \u00e1ngeles",
            "popularity": 1.342
        },
        {
            "id": 57364,
            "original_name": "L.A.P.D.: Lekanopedio Attikis Police Department",
            "popularity": 0.963
        },
        {
            "id": 63907,
            "original_name": "L.A. Hair",
            "popularity": 0.67
        },
        {
            "id": 13472,
            "original_name": "Today in L.A.",
            "popularity": 0.6
        },
        {
            "id": 22942,
            "original_name": "L.A. Forensics",
            "popularity": 0.6
        },
        {
            "id": 21300,
            "original_name": "L.A. Takedown",
            "popularity": 0.6
        }
    ]
}