{
    "data": [
        {
            "id": 45120,
            "original_name": "Mal.com",
            "popularity": 5.845
        },
        {
            "id": 106557,
            "original_name": "Amoreal.com",
            "popularity": 0.6
        }
    ],
    "relations": [],
    "top20": [
        {
            "id": 45120,
            "original_name": "Mal.com",
            "popularity": 5.845
        },
        {
            "id": 106557,
            "original_name": "Amoreal.com",
            "popularity": 0.6
        }
    ]
}