{
    "data": [
        {
            "id": 126154,
            "original_name": "C.L.Y.D.E.",
            "popularity": 0.6
        }
    ],
    "relations": [],
    "top20": [
        {
            "id": 126154,
            "original_name": "C.L.Y.D.E.",
            "popularity": 0.6
        }
    ]
}