{
    "data": [
        {
            "id": 119813,
            "original_name": "Marjolein en het geheim van het Slaapzand",
            "popularity": 0.6
        }
    ],
    "relations": [],
    "top20": [
        {
            "id": 119813,
            "original_name": "Marjolein en het geheim van het Slaapzand",
            "popularity": 0.6
        }
    ]
}