{
    "data": [
        {
            "id": 7051,
            "original_name": "Proclaim!",
            "popularity": 0.6
        },
        {
            "id": 8321,
            "original_name": "Kas laim\u0117s milijon\u0105?",
            "popularity": 0.6
        },
        {
            "id": 50680,
            "original_name": "Sulaiman Al Tayeb",
            "popularity": 0.6
        },
        {
            "id": 59787,
            "original_name": "Claimed and Shamed",
            "popularity": 9.258
        },
        {
            "id": 72483,
            "original_name": "Where There's Blame, There's a Claim",
            "popularity": 0.6
        },
        {
            "id": 85799,
            "original_name": "Claim Freedom",
            "popularity": 0.6
        },
        {
            "id": 97469,
            "original_name": "Reclaimed",
            "popularity": 0.867
        },
        {
            "id": 104026,
            "original_name": "Plane Reclaimers",
            "popularity": 0.6
        },
        {
            "id": 147050,
            "original_name": "Disclaimer",
            "popularity": 0.842
        }
    ],
    "relations": [],
    "top20": [
        {
            "id": 7051,
            "original_name": "Proclaim!",
            "popularity": 0.6
        },
        {
            "id": 8321,
            "original_name": "Kas laim\u0117s milijon\u0105?",
            "popularity": 0.6
        },
        {
            "id": 50680,
            "original_name": "Sulaiman Al Tayeb",
            "popularity": 0.6
        },
        {
            "id": 59787,
            "original_name": "Claimed and Shamed",
            "popularity": 9.258
        },
        {
            "id": 72483,
            "original_name": "Where There's Blame, There's a Claim",
            "popularity": 0.6
        },
        {
            "id": 85799,
            "original_name": "Claim Freedom",
            "popularity": 0.6
        },
        {
            "id": 97469,
            "original_name": "Reclaimed",
            "popularity": 0.867
        },
        {
            "id": 104026,
            "original_name": "Plane Reclaimers",
            "popularity": 0.6
        },
        {
            "id": 147050,
            "original_name": "Disclaimer",
            "popularity": 0.842
        }
    ]
}