{
    "data": [
        {
            "id": 6,
            "original_name": "Strange Days at Blake Holsey High",
            "popularity": 4.878
        },
        {
            "id": 1587,
            "original_name": "Ricki Lake",
            "popularity": 1.837
        },
        {
            "id": 1731,
            "original_name": "Blake's 7",
            "popularity": 11.513
        },
        {
            "id": 2277,
            "original_name": "Blake et Mortimer",
            "popularity": 2.568
        },
        {
            "id": 3627,
            "original_name": "The Lakes",
            "popularity": 3.797
        },
        {
            "id": 3853,
            "original_name": "Palibhasa Lalake",
            "popularity": 0.6
        },
        {
            "id": 4148,
            "original_name": "Ghar Ki Lakshmi Betiyann",
            "popularity": 1.34
        },
        {
            "id": 6806,
            "original_name": "Jhalak Dikhhla Jaa",
            "popularity": 0.631
        },
        {
            "id": 7292,
            "original_name": "Ligaw na Bulaklak",
            "popularity": 0.6
        },
        {
            "id": 7845,
            "original_name": "Grihalakshmi Ka Jinn",
            "popularity": 0.6
        },
        {
            "id": 8241,
            "original_name": "Adams of Eagle Lake",
            "popularity": 1.189
        },
        {
            "id": 8456,
            "original_name": "Shaka Laka Boom Boom",
            "popularity": 1.883
        },
        {
            "id": 8899,
            "original_name": "Laku no\u0107, Hrvatska",
            "popularity": 0.6
        },
        {
            "id": 12505,
            "original_name": "Wolf Lake",
            "popularity": 4.217
        },
        {
            "id": 13951,
            "original_name": "The Magic Land of Allakazam",
            "popularity": 0.6
        },
        {
            "id": 14767,
            "original_name": "Taking the Flak",
            "popularity": 1.187
        },
        {
            "id": 14898,
            "original_name": "Mosquito Lake",
            "popularity": 0.6
        },
        {
            "id": 17105,
            "original_name": "Spadla z oblakov",
            "popularity": 1.753
        },
        {
            "id": 17388,
            "original_name": "Sanlakas Kids",
            "popularity": 0.84
        },
        {
            "id": 18194,
            "original_name": "Charm School with Ricki Lake",
            "popularity": 0.629
        },
        {
            "id": 18578,
            "original_name": "Who Killed Lake Erie",
            "popularity": 0.6
        },
        {
            "id": 22302,
            "original_name": "Barney Blake, Police Reporter",
            "popularity": 1.34
        },
        {
            "id": 24024,
            "original_name": "Isang Lakas",
            "popularity": 0.6
        },
        {
            "id": 24527,
            "original_name": "Cornflakes For Tea",
            "popularity": 0.6
        },
        {
            "id": 26806,
            "original_name": "Lakesiders",
            "popularity": 0.6
        },
        {
            "id": 28927,
            "original_name": "Corrigan Blake",
            "popularity": 1.341
        },
        {
            "id": 29656,
            "original_name": "Swan Lake",
            "popularity": 0.81
        },
        {
            "id": 30787,
            "original_name": "Joshua Blake: The Agency",
            "popularity": 0.6
        },
        {
            "id": 30870,
            "original_name": "Ang Lalaking Nagmahal Sa Akin",
            "popularity": 0.6
        },
        {
            "id": 33117,
            "original_name": "Jake & Blake",
            "popularity": 1.09
        },
        {
            "id": 33253,
            "original_name": "The Lake",
            "popularity": 0.6
        },
        {
            "id": 33413,
            "original_name": "Big Lake",
            "popularity": 1.49
        },
        {
            "id": 33878,
            "original_name": "Sexton Blake",
            "popularity": 1.34
        },
        {
            "id": 33893,
            "original_name": "Obada Lakshapathi Mamada Lakshapathi",
            "popularity": 0.6
        },
        {
            "id": 35385,
            "original_name": "Alakdana",
            "popularity": 0.6
        },
        {
            "id": 39041,
            "original_name": "Mga Nagbabagang Bulaklak",
            "popularity": 0.6
        },
        {
            "id": 39610,
            "original_name": "The Ricki Lake Show",
            "popularity": 2.273
        },
        {
            "id": 40219,
            "original_name": "Alakrana",
            "popularity": 0.84
        },
        {
            "id": 42267,
            "original_name": "Main Lakshmi Tere Aangan Ki",
            "popularity": 0.6
        },
        {
            "id": 43239,
            "original_name": "Great Lake Warriors",
            "popularity": 0.6
        },
        {
            "id": 45545,
            "original_name": "Opening Ceremony Salt Lake Paralympic Winter Games",
            "popularity": 0.6
        },
        {
            "id": 46638,
            "original_name": "Top of the Lake",
            "popularity": 14.988
        },
        {
            "id": 46721,
            "original_name": "Global National-Global National - Elliot Lake Mall Collapse",
            "popularity": 0.6
        },
        {
            "id": 48079,
            "original_name": "Wolf Trap Presents the Kirov: Swan Lake",
            "popularity": 0.6
        },
        {
            "id": 48819,
            "original_name": "Eubie Blake: A Century of Music Kennedy Center Tonight",
            "popularity": 0.6
        },
        {
            "id": 49679,
            "original_name": "\u00c7aylak",
            "popularity": 0.6
        },
        {
            "id": 50264,
            "original_name": "Mabrok Galak Walad",
            "popularity": 0.6
        },
        {
            "id": 50380,
            "original_name": "Laketa",
            "popularity": 0.6
        },
        {
            "id": 50670,
            "original_name": "Tawwel Balak",
            "popularity": 0.6
        },
        {
            "id": 51933,
            "original_name": "Marah dan Galak",
            "popularity": 0.6
        },
        {
            "id": 52257,
            "original_name": "Malak Rohi",
            "popularity": 0.6
        },
        {
            "id": 52526,
            "original_name": "Nesf Rabee AlAkhar",
            "popularity": 0.6
        },
        {
            "id": 52564,
            "original_name": "AlDawaer AlMoghlaka",
            "popularity": 0.6
        },
        {
            "id": 52675,
            "original_name": "AlAkdaar",
            "popularity": 0.6
        },
        {
            "id": 53931,
            "original_name": "Qanun Walakin",
            "popularity": 0.6
        },
        {
            "id": 53957,
            "original_name": "Kulaktan Kula\u011fa",
            "popularity": 0.6
        },
        {
            "id": 54724,
            "original_name": "I exafanisi tou John Avlakioti",
            "popularity": 0.6
        },
        {
            "id": 54741,
            "original_name": "Mabrouk Galak Walad",
            "popularity": 0.6
        },
        {
            "id": 55079,
            "original_name": "Salakari",
            "popularity": 0.6
        },
        {
            "id": 55924,
            "original_name": "Camp Lakebottom",
            "popularity": 6.229
        },
        {
            "id": 56151,
            "original_name": "Salak Jit",
            "popularity": 0.6
        },
        {
            "id": 59134,
            "original_name": "The Doctor Blake Mysteries",
            "popularity": 8.539
        },
        {
            "id": 59180,
            "original_name": "Great Lake Warriors",
            "popularity": 0.6
        },
        {
            "id": 62007,
            "original_name": "Ice Lake Rebels",
            "popularity": 0.887
        },
        {
            "id": 64266,
            "original_name": "Die Pawlaks",
            "popularity": 0.6
        },
        {
            "id": 65315,
            "original_name": "Flaked",
            "popularity": 7.136
        },
        {
            "id": 66146,
            "original_name": "Vlak d\u011btstv\u00ed a nad\u011bje",
            "popularity": 0.637
        },
        {
            "id": 74672,
            "original_name": "Kalakka Povadhu Yaaru",
            "popularity": 0.6
        },
        {
            "id": 74800,
            "original_name": "Lelaki Itu Pemilik Hatiku",
            "popularity": 0.668
        },
        {
            "id": 75881,
            "original_name": "Chasing Snowflakes",
            "popularity": 0.6
        },
        {
            "id": 76729,
            "original_name": "The Secrets of Lake Success",
            "popularity": 1.718
        },
        {
            "id": 77161,
            "original_name": "Ladies of the lake",
            "popularity": 0.6
        },
        {
            "id": 77162,
            "original_name": "Ladies of the lake",
            "popularity": 0.6
        },
        {
            "id": 77190,
            "original_name": "\u00c7\u0131plak Ger\u00e7ek",
            "popularity": 0.6
        },
        {
            "id": 77819,
            "original_name": "Secret Life of Lakes",
            "popularity": 0.6
        },
        {
            "id": 78179,
            "original_name": "Get Blake!",
            "popularity": 0.958
        },
        {
            "id": 81450,
            "original_name": "Buang Rak Salak Kaen",
            "popularity": 0.6
        },
        {
            "id": 81485,
            "original_name": "Great Lakes Wild",
            "popularity": 0.6
        },
        {
            "id": 83232,
            "original_name": "Salak bilmiyorsan birak",
            "popularity": 0.6
        },
        {
            "id": 83694,
            "original_name": "The Lakes With Paul Rose",
            "popularity": 0.854
        },
        {
            "id": 86217,
            "original_name": "The Lake Erie Murders",
            "popularity": 1.185
        },
        {
            "id": 88376,
            "original_name": "Lake Success",
            "popularity": 5.375
        },
        {
            "id": 88390,
            "original_name": "Vo \u0161tvorici po Slovensku vlakom",
            "popularity": 0.6
        },
        {
            "id": 88614,
            "original_name": "O klukovi z plak\u00e1tu",
            "popularity": 1.197
        },
        {
            "id": 90393,
            "original_name": "Crown Lake",
            "popularity": 3.282
        },
        {
            "id": 90966,
            "original_name": "Gullak",
            "popularity": 0.877
        },
        {
            "id": 92175,
            "original_name": "Lelaki Kiriman Tuhan",
            "popularity": 0.934
        },
        {
            "id": 93448,
            "original_name": "Malaka",
            "popularity": 3.362
        },
        {
            "id": 95948,
            "original_name": "Lelakimu Yang Dulu",
            "popularity": 0.693
        },
        {
            "id": 96863,
            "original_name": "Pengantin Lelaki Untuk Cik Gadis",
            "popularity": 1.96
        },
        {
            "id": 101470,
            "original_name": "Lakefront Bargain Hunt Renovation",
            "popularity": 0.6
        },
        {
            "id": 104201,
            "original_name": "Taste the Nation with Padma Lakshmi",
            "popularity": 6.642
        },
        {
            "id": 104397,
            "original_name": "Muddulakshmi",
            "popularity": 0.6
        },
        {
            "id": 104690,
            "original_name": "\u00c7\u0131plak",
            "popularity": 3.722
        },
        {
            "id": 105315,
            "original_name": "Lauren Lake's Paternity Court",
            "popularity": 1.096
        },
        {
            "id": 110381,
            "original_name": "The Real Housewives of Salt Lake City",
            "popularity": 19.543
        },
        {
            "id": 111375,
            "original_name": "Lakan The Series",
            "popularity": 0.6
        },
        {
            "id": 114810,
            "original_name": "Pohjolan laki",
            "popularity": 1.323
        },
        {
            "id": 116432,
            "original_name": "Ulak",
            "popularity": 0.6
        },
        {
            "id": 116857,
            "original_name": "Dokolakolem",
            "popularity": 0.6
        },
        {
            "id": 118012,
            "original_name": "Cornflakes med lort og d\u00f8d ved k\u00f8lle - humoren der formede dig",
            "popularity": 0.62
        },
        {
            "id": 118326,
            "original_name": "Double Cross with Blake Griffin",
            "popularity": 0.84
        },
        {
            "id": 119786,
            "original_name": "The Yorkshire Dales and The Lakes",
            "popularity": 0.6
        },
        {
            "id": 120104,
            "original_name": "Phantom Lake",
            "popularity": 0.656
        },
        {
            "id": 120549,
            "original_name": "Lady in the Lake",
            "popularity": 1.14
        },
        {
            "id": 122831,
            "original_name": "Lakefront Luxury",
            "popularity": 0.6
        },
        {
            "id": 124067,
            "original_name": "Untitled Lakers Project",
            "popularity": 0.686
        },
        {
            "id": 125113,
            "original_name": "Snow Flakes",
            "popularity": 0.6
        },
        {
            "id": 128953,
            "original_name": "A Lake District Farm Shop",
            "popularity": 4.593
        },
        {
            "id": 130488,
            "original_name": "Baakiyalakshmi",
            "popularity": 0.6
        },
        {
            "id": 130542,
            "original_name": "Bhagya Lakshmi",
            "popularity": 0.6
        },
        {
            "id": 130742,
            "original_name": "Comedy Raja Kalakkal Rani",
            "popularity": 0.6
        },
        {
            "id": 130854,
            "original_name": "Baakiyalakshmi",
            "popularity": 0.6
        },
        {
            "id": 131419,
            "original_name": "Clear Lakes 44",
            "popularity": 0.6
        },
        {
            "id": 131702,
            "original_name": "Terror Lake Drive",
            "popularity": 1.628
        },
        {
            "id": 132809,
            "original_name": "What's Up Velakkari",
            "popularity": 0.6
        },
        {
            "id": 137160,
            "original_name": "Plakshot",
            "popularity": 2.528
        },
        {
            "id": 138682,
            "original_name": "The Lakes with Simon Reeve",
            "popularity": 2.897
        }
    ],
    "relations": [
        {
            "character": "lake"
        },
        {
            "character": "laks"
        },
        {
            "character": "lakl"
        },
        {
            "character": "laka"
        },
        {
            "character": "laku"
        },
        {
            "character": "lako"
        },
        {
            "character": "laki"
        },
        {
            "character": "lakd"
        },
        {
            "character": "lakr"
        },
        {
            "character": "lakh"
        },
        {
            "character": "lakt"
        },
        {
            "character": "lakk"
        }
    ],
    "top20": [
        {
            "id": 110381,
            "original_name": "The Real Housewives of Salt Lake City",
            "popularity": 19.543
        },
        {
            "id": 46638,
            "original_name": "Top of the Lake",
            "popularity": 14.988
        },
        {
            "id": 1731,
            "original_name": "Blake's 7",
            "popularity": 11.513
        },
        {
            "id": 59134,
            "original_name": "The Doctor Blake Mysteries",
            "popularity": 8.539
        },
        {
            "id": 65315,
            "original_name": "Flaked",
            "popularity": 7.136
        },
        {
            "id": 104201,
            "original_name": "Taste the Nation with Padma Lakshmi",
            "popularity": 6.642
        },
        {
            "id": 55924,
            "original_name": "Camp Lakebottom",
            "popularity": 6.229
        },
        {
            "id": 88376,
            "original_name": "Lake Success",
            "popularity": 5.375
        },
        {
            "id": 6,
            "original_name": "Strange Days at Blake Holsey High",
            "popularity": 4.878
        },
        {
            "id": 128953,
            "original_name": "A Lake District Farm Shop",
            "popularity": 4.593
        },
        {
            "id": 12505,
            "original_name": "Wolf Lake",
            "popularity": 4.217
        },
        {
            "id": 3627,
            "original_name": "The Lakes",
            "popularity": 3.797
        },
        {
            "id": 104690,
            "original_name": "\u00c7\u0131plak",
            "popularity": 3.722
        },
        {
            "id": 93448,
            "original_name": "Malaka",
            "popularity": 3.362
        },
        {
            "id": 90393,
            "original_name": "Crown Lake",
            "popularity": 3.282
        },
        {
            "id": 138682,
            "original_name": "The Lakes with Simon Reeve",
            "popularity": 2.897
        },
        {
            "id": 2277,
            "original_name": "Blake et Mortimer",
            "popularity": 2.568
        },
        {
            "id": 137160,
            "original_name": "Plakshot",
            "popularity": 2.528
        },
        {
            "id": 39610,
            "original_name": "The Ricki Lake Show",
            "popularity": 2.273
        },
        {
            "id": 96863,
            "original_name": "Pengantin Lelaki Untuk Cik Gadis",
            "popularity": 1.96
        }
    ]
}