{
    "data": [
        {
            "id": 31194,
            "original_name": "Chellamay",
            "popularity": 0.6
        }
    ],
    "relations": [],
    "top20": [
        {
            "id": 31194,
            "original_name": "Chellamay",
            "popularity": 0.6
        }
    ]
}