{
    "data": [
        {
            "id": 27096,
            "original_name": "Hollandse krijgers",
            "popularity": 0.6
        },
        {
            "id": 36819,
            "original_name": "Noord-Hollandse Helden",
            "popularity": 0.6
        },
        {
            "id": 37805,
            "original_name": "Groot Dictee der Nederlandse Taal, Het",
            "popularity": 0.6
        },
        {
            "id": 57676,
            "original_name": "Hollandse Vissers",
            "popularity": 0.6
        },
        {
            "id": 93730,
            "original_name": "Dwars door de Middellandse Zee",
            "popularity": 0.724
        },
        {
            "id": 124594,
            "original_name": "Alloo In de Buitenlandse Gevangenis",
            "popularity": 0.6
        }
    ],
    "relations": [],
    "top20": [
        {
            "id": 27096,
            "original_name": "Hollandse krijgers",
            "popularity": 0.6
        },
        {
            "id": 36819,
            "original_name": "Noord-Hollandse Helden",
            "popularity": 0.6
        },
        {
            "id": 37805,
            "original_name": "Groot Dictee der Nederlandse Taal, Het",
            "popularity": 0.6
        },
        {
            "id": 57676,
            "original_name": "Hollandse Vissers",
            "popularity": 0.6
        },
        {
            "id": 93730,
            "original_name": "Dwars door de Middellandse Zee",
            "popularity": 0.724
        },
        {
            "id": 124594,
            "original_name": "Alloo In de Buitenlandse Gevangenis",
            "popularity": 0.6
        }
    ]
}