{
    "data": [
        {
            "id": 4377,
            "original_name": "Highlander: The Raven",
            "popularity": 8.138
        },
        {
            "id": 4414,
            "original_name": "Highlander: The Series",
            "popularity": 38.983
        },
        {
            "id": 4680,
            "original_name": "The Islanders",
            "popularity": 3.706
        },
        {
            "id": 7263,
            "original_name": "Wallander",
            "popularity": 16.045
        },
        {
            "id": 12304,
            "original_name": "Highlander: The Animated Series",
            "popularity": 2.229
        },
        {
            "id": 12917,
            "original_name": "Heartlanders",
            "popularity": 0.6
        },
        {
            "id": 19298,
            "original_name": "This Is David Lander",
            "popularity": 0.929
        },
        {
            "id": 19420,
            "original_name": "Abdijen in de lage landen",
            "popularity": 0.6
        },
        {
            "id": 27103,
            "original_name": "Flander's company",
            "popularity": 0.64
        },
        {
            "id": 29474,
            "original_name": "De Som Bygger Landet",
            "popularity": 0.6
        },
        {
            "id": 30356,
            "original_name": "Kaaskoppen & waterlanders",
            "popularity": 0.872
        },
        {
            "id": 31766,
            "original_name": "Wallander",
            "popularity": 15.771
        },
        {
            "id": 37211,
            "original_name": "God in de lage landen",
            "popularity": 0.6
        },
        {
            "id": 37426,
            "original_name": "David Nolande",
            "popularity": 1.96
        },
        {
            "id": 38413,
            "original_name": "Landet bruns\u00e5s",
            "popularity": 0.806
        },
        {
            "id": 43204,
            "original_name": "Highlanders",
            "popularity": 0.6
        },
        {
            "id": 50823,
            "original_name": "Molander",
            "popularity": 0.6
        },
        {
            "id": 54385,
            "original_name": "Niels Hausgaard: I alle de rige lande",
            "popularity": 0.6
        },
        {
            "id": 54474,
            "original_name": "Molanders",
            "popularity": 1.4
        },
        {
            "id": 56570,
            "original_name": "Outlander",
            "popularity": 75.853
        },
        {
            "id": 66645,
            "original_name": "Clandestine",
            "popularity": 1.408
        },
        {
            "id": 67296,
            "original_name": "Amazonas Clandestino",
            "popularity": 1.4
        },
        {
            "id": 68435,
            "original_name": "Skylanders Academy",
            "popularity": 9.352
        },
        {
            "id": 68958,
            "original_name": "Dead Landes, les escap\u00e9s",
            "popularity": 1.449
        },
        {
            "id": 69182,
            "original_name": "\u00dcber \u00d6sterreich - Juwele des Landes",
            "popularity": 0.67
        },
        {
            "id": 74782,
            "original_name": "Da vi styrte landet",
            "popularity": 0.6
        },
        {
            "id": 81541,
            "original_name": "Grenslanders",
            "popularity": 2.783
        },
        {
            "id": 82541,
            "original_name": "SK 917 har nettopp landet",
            "popularity": 0.6
        },
        {
            "id": 83719,
            "original_name": "Deutsch-Les-Landes",
            "popularity": 1.987
        },
        {
            "id": 87906,
            "original_name": "Robinson: Gr\u00e4nslandet",
            "popularity": 1.104
        },
        {
            "id": 91545,
            "original_name": "Young Wallander",
            "popularity": 8.764
        },
        {
            "id": 91921,
            "original_name": "Det nya landet",
            "popularity": 0.6
        },
        {
            "id": 94531,
            "original_name": "Vliegende Hollanders",
            "popularity": 6.598
        },
        {
            "id": 96613,
            "original_name": "90 Day Fianc\u00e9: Just Landed",
            "popularity": 0.6
        },
        {
            "id": 98358,
            "original_name": "Nouvelle-Z\u00e9lande, terre sauvage",
            "popularity": 0.6
        },
        {
            "id": 99349,
            "original_name": "The Fortunes and Misfortunes of Moll Flanders",
            "popularity": 0.841
        },
        {
            "id": 107379,
            "original_name": "Clandestino. Historias de la Guerrilla Urbana",
            "popularity": 0.854
        },
        {
            "id": 108148,
            "original_name": "Landesschau Rheinland-Pfalz",
            "popularity": 3.969
        },
        {
            "id": 108292,
            "original_name": "Denker des Abendlandes",
            "popularity": 0.6
        },
        {
            "id": 112918,
            "original_name": "Geubels & De Hollanders",
            "popularity": 0.6
        },
        {
            "id": 113485,
            "original_name": "Landesschau Baden-W\u00fcrttemberg",
            "popularity": 2.812
        },
        {
            "id": 115949,
            "original_name": "Den f\u00f6rtrollande vildmarken",
            "popularity": 0.6
        },
        {
            "id": 117280,
            "original_name": "Fra Lade til Landevej",
            "popularity": 0.6
        },
        {
            "id": 118596,
            "original_name": "Stoffer i sommerlandet",
            "popularity": 0.6
        },
        {
            "id": 118908,
            "original_name": "Pornolandet",
            "popularity": 0.713
        },
        {
            "id": 119840,
            "original_name": "Clandestinos: O Sonho Come\u00e7ou",
            "popularity": 0.6
        },
        {
            "id": 126546,
            "original_name": "Dwars door de Lage Landen",
            "popularity": 0.6
        },
        {
            "id": 129521,
            "original_name": "Nouvelle-Z\u00e9lande : La Reconqu\u00eate Maorie",
            "popularity": 0.6
        },
        {
            "id": 133019,
            "original_name": "Oases in de Lage Landen",
            "popularity": 0.84
        }
    ],
    "relations": [
        {
            "character": "lander"
        },
        {
            "character": "landen"
        },
        {
            "character": "landet"
        },
        {
            "character": "landes"
        },
        {
            "character": "landed"
        },
        {
            "character": "landev"
        }
    ],
    "top20": [
        {
            "id": 56570,
            "original_name": "Outlander",
            "popularity": 75.853
        },
        {
            "id": 4414,
            "original_name": "Highlander: The Series",
            "popularity": 38.983
        },
        {
            "id": 7263,
            "original_name": "Wallander",
            "popularity": 16.045
        },
        {
            "id": 31766,
            "original_name": "Wallander",
            "popularity": 15.771
        },
        {
            "id": 68435,
            "original_name": "Skylanders Academy",
            "popularity": 9.352
        },
        {
            "id": 91545,
            "original_name": "Young Wallander",
            "popularity": 8.764
        },
        {
            "id": 4377,
            "original_name": "Highlander: The Raven",
            "popularity": 8.138
        },
        {
            "id": 94531,
            "original_name": "Vliegende Hollanders",
            "popularity": 6.598
        },
        {
            "id": 108148,
            "original_name": "Landesschau Rheinland-Pfalz",
            "popularity": 3.969
        },
        {
            "id": 4680,
            "original_name": "The Islanders",
            "popularity": 3.706
        },
        {
            "id": 113485,
            "original_name": "Landesschau Baden-W\u00fcrttemberg",
            "popularity": 2.812
        },
        {
            "id": 81541,
            "original_name": "Grenslanders",
            "popularity": 2.783
        },
        {
            "id": 12304,
            "original_name": "Highlander: The Animated Series",
            "popularity": 2.229
        },
        {
            "id": 83719,
            "original_name": "Deutsch-Les-Landes",
            "popularity": 1.987
        },
        {
            "id": 37426,
            "original_name": "David Nolande",
            "popularity": 1.96
        },
        {
            "id": 68958,
            "original_name": "Dead Landes, les escap\u00e9s",
            "popularity": 1.449
        },
        {
            "id": 66645,
            "original_name": "Clandestine",
            "popularity": 1.408
        },
        {
            "id": 67296,
            "original_name": "Amazonas Clandestino",
            "popularity": 1.4
        },
        {
            "id": 54474,
            "original_name": "Molanders",
            "popularity": 1.4
        },
        {
            "id": 87906,
            "original_name": "Robinson: Gr\u00e4nslandet",
            "popularity": 1.104
        }
    ]
}