{
    "data": [
        {
            "id": 58483,
            "original_name": "My Sri Lanka with Peter Kuruvita",
            "popularity": 0.6
        },
        {
            "id": 60383,
            "original_name": "Sri Lanka's Killing Fields: War Crimes Unpunished",
            "popularity": 0.6
        },
        {
            "id": 80376,
            "original_name": "Wild Sri Lanka",
            "popularity": 0.702
        }
    ],
    "relations": [],
    "top20": [
        {
            "id": 58483,
            "original_name": "My Sri Lanka with Peter Kuruvita",
            "popularity": 0.6
        },
        {
            "id": 60383,
            "original_name": "Sri Lanka's Killing Fields: War Crimes Unpunished",
            "popularity": 0.6
        },
        {
            "id": 80376,
            "original_name": "Wild Sri Lanka",
            "popularity": 0.702
        }
    ]
}