{
    "data": [
        {
            "id": 23915,
            "original_name": "Markus Lanz",
            "popularity": 233.388
        },
        {
            "id": 38358,
            "original_name": "Die Wehrmacht - Eine Bilanz",
            "popularity": 0.6
        },
        {
            "id": 46043,
            "original_name": "Lanz kocht!",
            "popularity": 3.914
        },
        {
            "id": 64730,
            "original_name": "Sachsens Glanz und Preu\u00dfens Gloria",
            "popularity": 0.805
        },
        {
            "id": 69945,
            "original_name": "Hitler - Eine Bilanz",
            "popularity": 0.73
        },
        {
            "id": 116796,
            "original_name": "Glanz & Gloria",
            "popularity": 0.961
        },
        {
            "id": 118587,
            "original_name": "La Templanza",
            "popularity": 3.795
        },
        {
            "id": 131893,
            "original_name": "Der Glanz der Schattenwirtschaft",
            "popularity": 0.6
        }
    ],
    "relations": [],
    "top20": [
        {
            "id": 23915,
            "original_name": "Markus Lanz",
            "popularity": 233.388
        },
        {
            "id": 38358,
            "original_name": "Die Wehrmacht - Eine Bilanz",
            "popularity": 0.6
        },
        {
            "id": 46043,
            "original_name": "Lanz kocht!",
            "popularity": 3.914
        },
        {
            "id": 64730,
            "original_name": "Sachsens Glanz und Preu\u00dfens Gloria",
            "popularity": 0.805
        },
        {
            "id": 69945,
            "original_name": "Hitler - Eine Bilanz",
            "popularity": 0.73
        },
        {
            "id": 116796,
            "original_name": "Glanz & Gloria",
            "popularity": 0.961
        },
        {
            "id": 118587,
            "original_name": "La Templanza",
            "popularity": 3.795
        },
        {
            "id": 131893,
            "original_name": "Der Glanz der Schattenwirtschaft",
            "popularity": 0.6
        }
    ]
}