{
    "data": [
        {
            "id": 4762,
            "original_name": "Clarence",
            "popularity": 1.862
        },
        {
            "id": 5141,
            "original_name": "The Team: A Season With McLaren",
            "popularity": 0.6
        },
        {
            "id": 39477,
            "original_name": "Lia Larentia",
            "popularity": 0.6
        },
        {
            "id": 43003,
            "original_name": "The Clarence Update - The Bold and the Beautiful",
            "popularity": 0.6
        },
        {
            "id": 43976,
            "original_name": "Myglaren",
            "popularity": 0.6
        },
        {
            "id": 50035,
            "original_name": "Clarence",
            "popularity": 50.49
        },
        {
            "id": 81982,
            "original_name": "Mafia Killers With Colin McLaren",
            "popularity": 1.105
        }
    ],
    "relations": [],
    "top20": [
        {
            "id": 4762,
            "original_name": "Clarence",
            "popularity": 1.862
        },
        {
            "id": 5141,
            "original_name": "The Team: A Season With McLaren",
            "popularity": 0.6
        },
        {
            "id": 39477,
            "original_name": "Lia Larentia",
            "popularity": 0.6
        },
        {
            "id": 43003,
            "original_name": "The Clarence Update - The Bold and the Beautiful",
            "popularity": 0.6
        },
        {
            "id": 43976,
            "original_name": "Myglaren",
            "popularity": 0.6
        },
        {
            "id": 50035,
            "original_name": "Clarence",
            "popularity": 50.49
        },
        {
            "id": 81982,
            "original_name": "Mafia Killers With Colin McLaren",
            "popularity": 1.105
        }
    ]
}