{
    "data": [
        {
            "id": 123508,
            "original_name": "LARPs: The Series",
            "popularity": 0.6
        }
    ],
    "relations": [],
    "top20": [
        {
            "id": 123508,
            "original_name": "LARPs: The Series",
            "popularity": 0.6
        }
    ]
}