{
    "data": [
        {
            "id": 4109,
            "original_name": "Lassie",
            "popularity": 3.913
        },
        {
            "id": 5368,
            "original_name": "Lassie",
            "popularity": 25.218
        },
        {
            "id": 10847,
            "original_name": "Lassie's Rescue Rangers",
            "popularity": 0.65
        },
        {
            "id": 12390,
            "original_name": "The New Lassie",
            "popularity": 2.183
        },
        {
            "id": 32990,
            "original_name": "Lassie's Pet Vet",
            "popularity": 0.6
        },
        {
            "id": 64586,
            "original_name": "The New Adventures of Lassie",
            "popularity": 2.656
        }
    ],
    "relations": [],
    "top20": [
        {
            "id": 4109,
            "original_name": "Lassie",
            "popularity": 3.913
        },
        {
            "id": 5368,
            "original_name": "Lassie",
            "popularity": 25.218
        },
        {
            "id": 10847,
            "original_name": "Lassie's Rescue Rangers",
            "popularity": 0.65
        },
        {
            "id": 12390,
            "original_name": "The New Lassie",
            "popularity": 2.183
        },
        {
            "id": 32990,
            "original_name": "Lassie's Pet Vet",
            "popularity": 0.6
        },
        {
            "id": 64586,
            "original_name": "The New Adventures of Lassie",
            "popularity": 2.656
        }
    ]
}