{
    "data": [
        {
            "id": 68541,
            "original_name": "Wildes Lateinamerika",
            "popularity": 0.6
        },
        {
            "id": 103056,
            "original_name": "The Lateish Show with Mo Gilligan",
            "popularity": 2.899
        }
    ],
    "relations": [],
    "top20": [
        {
            "id": 68541,
            "original_name": "Wildes Lateinamerika",
            "popularity": 0.6
        },
        {
            "id": 103056,
            "original_name": "The Lateish Show with Mo Gilligan",
            "popularity": 2.899
        }
    ]
}