{
    "data": [
        {
            "id": 11122,
            "original_name": "Revelations",
            "popularity": 5.461
        },
        {
            "id": 13077,
            "original_name": "Revelations \u2013 The Initial Journey",
            "popularity": 1.127
        },
        {
            "id": 23370,
            "original_name": "Relationship Rehab",
            "popularity": 0.6
        },
        {
            "id": 24065,
            "original_name": "Close Relations",
            "popularity": 1.487
        },
        {
            "id": 24687,
            "original_name": "Revelations",
            "popularity": 0.6
        },
        {
            "id": 25500,
            "original_name": "Revelations: How To Find God",
            "popularity": 0.6
        },
        {
            "id": 30779,
            "original_name": "Industrial Revelations",
            "popularity": 2.307
        },
        {
            "id": 31139,
            "original_name": "John Safran's Race Relations",
            "popularity": 0.6
        },
        {
            "id": 34991,
            "original_name": "Tribulations of Life",
            "popularity": 0.6
        },
        {
            "id": 35806,
            "original_name": "More Industrial Revelations Europe",
            "popularity": 0.6
        },
        {
            "id": 35850,
            "original_name": "More Industrial Revelations with Ronald Top",
            "popularity": 0.6
        },
        {
            "id": 44435,
            "original_name": "The Vacillations of Poppy Carew",
            "popularity": 0.6
        },
        {
            "id": 48337,
            "original_name": "Strange Relations",
            "popularity": 0.6
        },
        {
            "id": 49259,
            "original_name": "Paradise Lost 2: Revelations",
            "popularity": 0.896
        },
        {
            "id": 57470,
            "original_name": "Manipulations : une histoire francaise",
            "popularity": 0.6
        },
        {
            "id": 66538,
            "original_name": "Relationship Status",
            "popularity": 3.699
        },
        {
            "id": 70263,
            "original_name": "Relationship Goals",
            "popularity": 0.6
        },
        {
            "id": 76288,
            "original_name": "RelationShep",
            "popularity": 0.852
        },
        {
            "id": 110978,
            "original_name": "Les Tribulations du Cabotin",
            "popularity": 0.6
        },
        {
            "id": 119946,
            "original_name": "Eva Braun : R\u00e9v\u00e9lations sur la femme du F\u00fchrer",
            "popularity": 0.6
        },
        {
            "id": 129662,
            "original_name": "Revelations: The Masters of the Universe: Revelation Aftershow",
            "popularity": 3.303
        },
        {
            "id": 138169,
            "original_name": "Extrapolations",
            "popularity": 2.926
        },
        {
            "id": 139349,
            "original_name": "Corruption : r\u00e9v\u00e9lations choc de la commission Charbonneau",
            "popularity": 0.6
        }
    ],
    "relations": [
        {
            "character": "lationsh"
        }
    ],
    "top20": [
        {
            "id": 11122,
            "original_name": "Revelations",
            "popularity": 5.461
        },
        {
            "id": 66538,
            "original_name": "Relationship Status",
            "popularity": 3.699
        },
        {
            "id": 129662,
            "original_name": "Revelations: The Masters of the Universe: Revelation Aftershow",
            "popularity": 3.303
        },
        {
            "id": 138169,
            "original_name": "Extrapolations",
            "popularity": 2.926
        },
        {
            "id": 30779,
            "original_name": "Industrial Revelations",
            "popularity": 2.307
        },
        {
            "id": 24065,
            "original_name": "Close Relations",
            "popularity": 1.487
        },
        {
            "id": 13077,
            "original_name": "Revelations \u2013 The Initial Journey",
            "popularity": 1.127
        },
        {
            "id": 49259,
            "original_name": "Paradise Lost 2: Revelations",
            "popularity": 0.896
        },
        {
            "id": 76288,
            "original_name": "RelationShep",
            "popularity": 0.852
        },
        {
            "id": 25500,
            "original_name": "Revelations: How To Find God",
            "popularity": 0.6
        },
        {
            "id": 31139,
            "original_name": "John Safran's Race Relations",
            "popularity": 0.6
        },
        {
            "id": 35850,
            "original_name": "More Industrial Revelations with Ronald Top",
            "popularity": 0.6
        },
        {
            "id": 23370,
            "original_name": "Relationship Rehab",
            "popularity": 0.6
        },
        {
            "id": 24687,
            "original_name": "Revelations",
            "popularity": 0.6
        },
        {
            "id": 70263,
            "original_name": "Relationship Goals",
            "popularity": 0.6
        },
        {
            "id": 57470,
            "original_name": "Manipulations : une histoire francaise",
            "popularity": 0.6
        },
        {
            "id": 34991,
            "original_name": "Tribulations of Life",
            "popularity": 0.6
        },
        {
            "id": 48337,
            "original_name": "Strange Relations",
            "popularity": 0.6
        },
        {
            "id": 35806,
            "original_name": "More Industrial Revelations Europe",
            "popularity": 0.6
        },
        {
            "id": 44435,
            "original_name": "The Vacillations of Poppy Carew",
            "popularity": 0.6
        }
    ]
}