{
    "data": [
        {
            "id": 1285,
            "original_name": "Play2Win",
            "popularity": 0.6
        }
    ],
    "relations": [],
    "top20": [
        {
            "id": 1285,
            "original_name": "Play2Win",
            "popularity": 0.6
        }
    ]
}