{
    "data": [
        {
            "id": 14876,
            "original_name": "PlayCafe",
            "popularity": 0.6
        },
        {
            "id": 29814,
            "original_name": "Playcards",
            "popularity": 0.6
        }
    ],
    "relations": [],
    "top20": [
        {
            "id": 14876,
            "original_name": "PlayCafe",
            "popularity": 0.6
        },
        {
            "id": 29814,
            "original_name": "Playcards",
            "popularity": 0.6
        }
    ]
}