{
    "data": [
        {
            "id": 1455,
            "original_name": "Spellbinder",
            "popularity": 3.55
        },
        {
            "id": 1930,
            "original_name": "The Beverly Hillbillies",
            "popularity": 22.551
        },
        {
            "id": 11108,
            "original_name": "Albion Market",
            "popularity": 3.751
        },
        {
            "id": 14924,
            "original_name": "Bellbird",
            "popularity": 0.6
        },
        {
            "id": 19675,
            "original_name": "Albie",
            "popularity": 0.6
        },
        {
            "id": 25671,
            "original_name": "The Natalie Gulbis Show",
            "popularity": 0.6
        },
        {
            "id": 29727,
            "original_name": "Sermon From St Albion's",
            "popularity": 0.6
        },
        {
            "id": 35497,
            "original_name": "The Regis Philbin Show",
            "popularity": 0.6
        },
        {
            "id": 36924,
            "original_name": "Jailbirds",
            "popularity": 0.6
        },
        {
            "id": 40121,
            "original_name": "Hillbilly Handfishin'",
            "popularity": 0.6
        },
        {
            "id": 41359,
            "original_name": "Thrillbillies",
            "popularity": 0.6
        },
        {
            "id": 49400,
            "original_name": "Kalbim Seni Se\u00e7ti",
            "popularity": 0.6
        },
        {
            "id": 51471,
            "original_name": "Mazi Kalbimde Yarad\u0131r",
            "popularity": 0.6
        },
        {
            "id": 52373,
            "original_name": "Qalbi Maakom",
            "popularity": 0.6
        },
        {
            "id": 52594,
            "original_name": "Kalbi younadiek",
            "popularity": 0.6
        },
        {
            "id": 53818,
            "original_name": "Kalbimi kira kira",
            "popularity": 0.6
        },
        {
            "id": 54277,
            "original_name": "Kalbin Sesi",
            "popularity": 0.6
        },
        {
            "id": 54618,
            "original_name": "Hillbilly Blood",
            "popularity": 1.096
        },
        {
            "id": 55224,
            "original_name": "Rod Qalbi",
            "popularity": 0.6
        },
        {
            "id": 56557,
            "original_name": "Hillbillies for Hire",
            "popularity": 0.6
        },
        {
            "id": 59919,
            "original_name": "Hillbilly Requests",
            "popularity": 0.6
        },
        {
            "id": 62677,
            "original_name": "The Grace Helbig Show",
            "popularity": 0.84
        },
        {
            "id": 64403,
            "original_name": "Hillbilly Horror Show",
            "popularity": 0.932
        },
        {
            "id": 67644,
            "original_name": "R\u00fczgar\u0131n Kalbi",
            "popularity": 0.6
        },
        {
            "id": 76755,
            "original_name": "Kalbimdeki Deniz",
            "popularity": 5.699
        },
        {
            "id": 80164,
            "original_name": "Kalbimin Sultan\u0131",
            "popularity": 3.851
        },
        {
            "id": 84849,
            "original_name": "R\u00fczgarin Kalbi",
            "popularity": 0.853
        },
        {
            "id": 89295,
            "original_name": "Jailbirds",
            "popularity": 2.274
        },
        {
            "id": 103689,
            "original_name": "The Zainab Salbi Project",
            "popularity": 0.6
        },
        {
            "id": 109926,
            "original_name": "Kalbim Ege'de Kald\u0131",
            "popularity": 0.6
        },
        {
            "id": 111940,
            "original_name": "Ad\u0131n\u0131 Kalbime Yazd\u0131m",
            "popularity": 0.84
        },
        {
            "id": 118490,
            "original_name": "The Hillbilly Bears",
            "popularity": 0.631
        },
        {
            "id": 134678,
            "original_name": "Jailbirds New Orleans",
            "popularity": 0.848
        }
    ],
    "relations": [
        {
            "character": "lbin"
        },
        {
            "character": "lbil"
        },
        {
            "character": "lbio"
        },
        {
            "character": "lbir"
        },
        {
            "character": "lbie"
        },
        {
            "character": "lbis"
        },
        {
            "character": "lbim"
        },
        {
            "character": "lbig"
        }
    ],
    "top20": [
        {
            "id": 1930,
            "original_name": "The Beverly Hillbillies",
            "popularity": 22.551
        },
        {
            "id": 76755,
            "original_name": "Kalbimdeki Deniz",
            "popularity": 5.699
        },
        {
            "id": 80164,
            "original_name": "Kalbimin Sultan\u0131",
            "popularity": 3.851
        },
        {
            "id": 11108,
            "original_name": "Albion Market",
            "popularity": 3.751
        },
        {
            "id": 1455,
            "original_name": "Spellbinder",
            "popularity": 3.55
        },
        {
            "id": 89295,
            "original_name": "Jailbirds",
            "popularity": 2.274
        },
        {
            "id": 54618,
            "original_name": "Hillbilly Blood",
            "popularity": 1.096
        },
        {
            "id": 64403,
            "original_name": "Hillbilly Horror Show",
            "popularity": 0.932
        },
        {
            "id": 84849,
            "original_name": "R\u00fczgarin Kalbi",
            "popularity": 0.853
        },
        {
            "id": 134678,
            "original_name": "Jailbirds New Orleans",
            "popularity": 0.848
        },
        {
            "id": 62677,
            "original_name": "The Grace Helbig Show",
            "popularity": 0.84
        },
        {
            "id": 111940,
            "original_name": "Ad\u0131n\u0131 Kalbime Yazd\u0131m",
            "popularity": 0.84
        },
        {
            "id": 118490,
            "original_name": "The Hillbilly Bears",
            "popularity": 0.631
        },
        {
            "id": 35497,
            "original_name": "The Regis Philbin Show",
            "popularity": 0.6
        },
        {
            "id": 36924,
            "original_name": "Jailbirds",
            "popularity": 0.6
        },
        {
            "id": 19675,
            "original_name": "Albie",
            "popularity": 0.6
        },
        {
            "id": 40121,
            "original_name": "Hillbilly Handfishin'",
            "popularity": 0.6
        },
        {
            "id": 25671,
            "original_name": "The Natalie Gulbis Show",
            "popularity": 0.6
        },
        {
            "id": 14924,
            "original_name": "Bellbird",
            "popularity": 0.6
        },
        {
            "id": 29727,
            "original_name": "Sermon From St Albion's",
            "popularity": 0.6
        }
    ]
}