{
    "data": [
        {
            "id": 14122,
            "original_name": "The Baileys of Balboa",
            "popularity": 2.531
        },
        {
            "id": 49175,
            "original_name": "Billboard Music Awards",
            "popularity": 0.6
        },
        {
            "id": 52519,
            "original_name": "Wagaa AlBoaad",
            "popularity": 0.6
        },
        {
            "id": 86404,
            "original_name": "Target: Billboard - KILL BILL",
            "popularity": 2.544
        }
    ],
    "relations": [],
    "top20": [
        {
            "id": 14122,
            "original_name": "The Baileys of Balboa",
            "popularity": 2.531
        },
        {
            "id": 49175,
            "original_name": "Billboard Music Awards",
            "popularity": 0.6
        },
        {
            "id": 52519,
            "original_name": "Wagaa AlBoaad",
            "popularity": 0.6
        },
        {
            "id": 86404,
            "original_name": "Target: Billboard - KILL BILL",
            "popularity": 2.544
        }
    ]
}