{
    "data": [
        {
            "id": 96753,
            "original_name": "B\u00e1trak f\u00f6ldje",
            "popularity": 2.146
        },
        {
            "id": 117904,
            "original_name": "Topfgeldj\u00e4ger",
            "popularity": 0.6
        }
    ],
    "relations": [],
    "top20": [
        {
            "id": 96753,
            "original_name": "B\u00e1trak f\u00f6ldje",
            "popularity": 2.146
        },
        {
            "id": 117904,
            "original_name": "Topfgeldj\u00e4ger",
            "popularity": 0.6
        }
    ]
}