{
    "data": [
        {
            "id": 38774,
            "original_name": "OMG! With Peaches Geldof",
            "popularity": 0.6
        }
    ],
    "relations": [],
    "top20": [
        {
            "id": 38774,
            "original_name": "OMG! With Peaches Geldof",
            "popularity": 0.6
        }
    ]
}