{
    "data": [
        {
            "id": 4615,
            "original_name": "Hercules: The Legendary Journeys",
            "popularity": 18.176
        },
        {
            "id": 10157,
            "original_name": "Super Friends: The Legendary Super Powers Show",
            "popularity": 2.946
        },
        {
            "id": 29103,
            "original_name": "Legendary Nights",
            "popularity": 0.6
        },
        {
            "id": 33143,
            "original_name": "The Legendary Fok",
            "popularity": 0.6
        },
        {
            "id": 33650,
            "original_name": "The Legendary Siblings",
            "popularity": 1.09
        },
        {
            "id": 33666,
            "original_name": "The Legendary Siblings 2",
            "popularity": 0.6
        },
        {
            "id": 51680,
            "original_name": "The Legendary Curse of the Hope Diamond",
            "popularity": 0.6
        },
        {
            "id": 57519,
            "original_name": "The Legendary of Matsu",
            "popularity": 0.6
        },
        {
            "id": 66558,
            "original_name": "Voltron: Legendary Defender",
            "popularity": 22.2
        },
        {
            "id": 72243,
            "original_name": "Legendary Motorcar",
            "popularity": 0.636
        },
        {
            "id": 75578,
            "original_name": "Legendary Dudas",
            "popularity": 2.013
        },
        {
            "id": 75771,
            "original_name": "Legendary Sin Cities",
            "popularity": 0.947
        },
        {
            "id": 77126,
            "original_name": "Legendary Lighthouses",
            "popularity": 0.6
        },
        {
            "id": 77127,
            "original_name": "Legendary Lighthouses II",
            "popularity": 0.6
        },
        {
            "id": 77773,
            "original_name": "Legendary Cities",
            "popularity": 1.174
        },
        {
            "id": 79129,
            "original_name": "Legendary Locations",
            "popularity": 2.247
        },
        {
            "id": 84458,
            "original_name": "A Legendary Christmas with John and Chrissy",
            "popularity": 0.6
        },
        {
            "id": 86368,
            "original_name": "The Legendaries",
            "popularity": 0.6
        },
        {
            "id": 99595,
            "original_name": "Legendary",
            "popularity": 12.986
        },
        {
            "id": 116163,
            "original_name": "Legendary Megastructures",
            "popularity": 0.6
        },
        {
            "id": 135739,
            "original_name": "Legendary Soon Kyu",
            "popularity": 20.654
        },
        {
            "id": 136278,
            "original_name": "Legendary Fighter - Yang's Heroine",
            "popularity": 0.6
        },
        {
            "id": 137706,
            "original_name": "Legendary Catch",
            "popularity": 0.6
        }
    ],
    "relations": [
        {
            "character": "legendary"
        },
        {
            "character": "legendari"
        }
    ],
    "top20": [
        {
            "id": 66558,
            "original_name": "Voltron: Legendary Defender",
            "popularity": 22.2
        },
        {
            "id": 135739,
            "original_name": "Legendary Soon Kyu",
            "popularity": 20.654
        },
        {
            "id": 4615,
            "original_name": "Hercules: The Legendary Journeys",
            "popularity": 18.176
        },
        {
            "id": 99595,
            "original_name": "Legendary",
            "popularity": 12.986
        },
        {
            "id": 10157,
            "original_name": "Super Friends: The Legendary Super Powers Show",
            "popularity": 2.946
        },
        {
            "id": 79129,
            "original_name": "Legendary Locations",
            "popularity": 2.247
        },
        {
            "id": 75578,
            "original_name": "Legendary Dudas",
            "popularity": 2.013
        },
        {
            "id": 77773,
            "original_name": "Legendary Cities",
            "popularity": 1.174
        },
        {
            "id": 33650,
            "original_name": "The Legendary Siblings",
            "popularity": 1.09
        },
        {
            "id": 75771,
            "original_name": "Legendary Sin Cities",
            "popularity": 0.947
        },
        {
            "id": 72243,
            "original_name": "Legendary Motorcar",
            "popularity": 0.636
        },
        {
            "id": 84458,
            "original_name": "A Legendary Christmas with John and Chrissy",
            "popularity": 0.6
        },
        {
            "id": 29103,
            "original_name": "Legendary Nights",
            "popularity": 0.6
        },
        {
            "id": 77127,
            "original_name": "Legendary Lighthouses II",
            "popularity": 0.6
        },
        {
            "id": 33666,
            "original_name": "The Legendary Siblings 2",
            "popularity": 0.6
        },
        {
            "id": 57519,
            "original_name": "The Legendary of Matsu",
            "popularity": 0.6
        },
        {
            "id": 86368,
            "original_name": "The Legendaries",
            "popularity": 0.6
        },
        {
            "id": 77126,
            "original_name": "Legendary Lighthouses",
            "popularity": 0.6
        },
        {
            "id": 51680,
            "original_name": "The Legendary Curse of the Hope Diamond",
            "popularity": 0.6
        },
        {
            "id": 33143,
            "original_name": "The Legendary Fok",
            "popularity": 0.6
        }
    ]
}