{
    "data": [
        {
            "id": 69976,
            "original_name": "\u00c0 pleines dents!",
            "popularity": 0.749
        },
        {
            "id": 129368,
            "original_name": "Unser kleines Theater",
            "popularity": 0.6
        }
    ],
    "relations": [],
    "top20": [
        {
            "id": 69976,
            "original_name": "\u00c0 pleines dents!",
            "popularity": 0.749
        },
        {
            "id": 129368,
            "original_name": "Unser kleines Theater",
            "popularity": 0.6
        }
    ]
}