{
    "data": [
        {
            "id": 14771,
            "original_name": "Middlemarch",
            "popularity": 5.102
        },
        {
            "id": 52079,
            "original_name": "Tilemarathonios",
            "popularity": 0.6
        },
        {
            "id": 55111,
            "original_name": "Tilemarathonios Unicef 2008",
            "popularity": 0.6
        },
        {
            "id": 59826,
            "original_name": "Shamsolemareh",
            "popularity": 0.6
        },
        {
            "id": 113014,
            "original_name": "Pierre Bellemare raconte la seconde guerre mondiale",
            "popularity": 0.845
        },
        {
            "id": 116821,
            "original_name": "Ray Mears's Real Heroes of Telemark",
            "popularity": 0.6
        },
        {
            "id": 119855,
            "original_name": "Middlemarch",
            "popularity": 0.6
        },
        {
            "id": 128039,
            "original_name": "Sommerfest fra Telemark",
            "popularity": 0.6
        }
    ],
    "relations": [],
    "top20": [
        {
            "id": 14771,
            "original_name": "Middlemarch",
            "popularity": 5.102
        },
        {
            "id": 52079,
            "original_name": "Tilemarathonios",
            "popularity": 0.6
        },
        {
            "id": 55111,
            "original_name": "Tilemarathonios Unicef 2008",
            "popularity": 0.6
        },
        {
            "id": 59826,
            "original_name": "Shamsolemareh",
            "popularity": 0.6
        },
        {
            "id": 113014,
            "original_name": "Pierre Bellemare raconte la seconde guerre mondiale",
            "popularity": 0.845
        },
        {
            "id": 116821,
            "original_name": "Ray Mears's Real Heroes of Telemark",
            "popularity": 0.6
        },
        {
            "id": 119855,
            "original_name": "Middlemarch",
            "popularity": 0.6
        },
        {
            "id": 128039,
            "original_name": "Sommerfest fra Telemark",
            "popularity": 0.6
        }
    ]
}