{
    "data": [
        {
            "id": 51761,
            "original_name": "Pyrus: Alletiders julemand",
            "popularity": 1.521
        },
        {
            "id": 62408,
            "original_name": "Lillemand",
            "popularity": 0.6
        },
        {
            "id": 72934,
            "original_name": "Ludvig & julemanden",
            "popularity": 0.929
        },
        {
            "id": 77466,
            "original_name": "En France, \u00e0 l'heure allemande",
            "popularity": 0.6
        },
        {
            "id": 95535,
            "original_name": "Tvillingerne og Julemanden",
            "popularity": 0.6
        },
        {
            "id": 136813,
            "original_name": "Jacob Ditzel og jagten p\u00e5 Julemanden",
            "popularity": 0.6
        }
    ],
    "relations": [],
    "top20": [
        {
            "id": 51761,
            "original_name": "Pyrus: Alletiders julemand",
            "popularity": 1.521
        },
        {
            "id": 62408,
            "original_name": "Lillemand",
            "popularity": 0.6
        },
        {
            "id": 72934,
            "original_name": "Ludvig & julemanden",
            "popularity": 0.929
        },
        {
            "id": 77466,
            "original_name": "En France, \u00e0 l'heure allemande",
            "popularity": 0.6
        },
        {
            "id": 95535,
            "original_name": "Tvillingerne og Julemanden",
            "popularity": 0.6
        },
        {
            "id": 136813,
            "original_name": "Jacob Ditzel og jagten p\u00e5 Julemanden",
            "popularity": 0.6
        }
    ]
}