{
    "data": [
        {
            "id": 22563,
            "original_name": "Tienes Talento",
            "popularity": 0.6
        },
        {
            "id": 24092,
            "original_name": "Talento Argentino",
            "popularity": 0.6
        },
        {
            "id": 31485,
            "original_name": "Ellada Eheis Talento",
            "popularity": 0.6
        },
        {
            "id": 33027,
            "original_name": "Aqui h\u00e1 talento",
            "popularity": 0.6
        },
        {
            "id": 33264,
            "original_name": "Qual \u00e9 o Seu Talento?",
            "popularity": 0.6
        },
        {
            "id": 35045,
            "original_name": "Talento Argentino",
            "popularity": 0.6
        },
        {
            "id": 76146,
            "original_name": "Pulentos",
            "popularity": 1.144
        },
        {
            "id": 81742,
            "original_name": "Ca\u00e7a Talentos",
            "popularity": 5.796
        },
        {
            "id": 94678,
            "original_name": "Tierra de Talento",
            "popularity": 9.158
        },
        {
            "id": 112242,
            "original_name": "Que Talento!",
            "popularity": 0.629
        }
    ],
    "relations": [],
    "top20": [
        {
            "id": 22563,
            "original_name": "Tienes Talento",
            "popularity": 0.6
        },
        {
            "id": 24092,
            "original_name": "Talento Argentino",
            "popularity": 0.6
        },
        {
            "id": 31485,
            "original_name": "Ellada Eheis Talento",
            "popularity": 0.6
        },
        {
            "id": 33027,
            "original_name": "Aqui h\u00e1 talento",
            "popularity": 0.6
        },
        {
            "id": 33264,
            "original_name": "Qual \u00e9 o Seu Talento?",
            "popularity": 0.6
        },
        {
            "id": 35045,
            "original_name": "Talento Argentino",
            "popularity": 0.6
        },
        {
            "id": 76146,
            "original_name": "Pulentos",
            "popularity": 1.144
        },
        {
            "id": 81742,
            "original_name": "Ca\u00e7a Talentos",
            "popularity": 5.796
        },
        {
            "id": 94678,
            "original_name": "Tierra de Talento",
            "popularity": 9.158
        },
        {
            "id": 112242,
            "original_name": "Que Talento!",
            "popularity": 0.629
        }
    ]
}