{
    "data": [
        {
            "id": 1095,
            "original_name": "\u653b\u6bbb\u6a5f\u52d5\u968a STAND ALONE COMPLEX",
            "popularity": 26.746
        },
        {
            "id": 1665,
            "original_name": "Courting Alex",
            "popularity": 0.959
        },
        {
            "id": 1818,
            "original_name": "Lexx",
            "popularity": 15.199
        },
        {
            "id": 3306,
            "original_name": "Alexander the Greatest",
            "popularity": 0.84
        },
        {
            "id": 4289,
            "original_name": "The Secret World of Alex Mack",
            "popularity": 7.729
        },
        {
            "id": 6219,
            "original_name": "Alexei Sayle's Stuff",
            "popularity": 1.657
        },
        {
            "id": 10958,
            "original_name": "Ride with Funkmaster Flex",
            "popularity": 0.6
        },
        {
            "id": 13543,
            "original_name": "Judge Alex",
            "popularity": 0.6
        },
        {
            "id": 17255,
            "original_name": "Alex: The Life of a Child",
            "popularity": 0.6
        },
        {
            "id": 17781,
            "original_name": "The Truth About Alex",
            "popularity": 0.6
        },
        {
            "id": 19074,
            "original_name": "The All New Alexei Sayle Show",
            "popularity": 0.736
        },
        {
            "id": 19146,
            "original_name": "It's On with Alexa Chung",
            "popularity": 1.4
        },
        {
            "id": 19209,
            "original_name": "Alexei Sayle's Merry-Go-Round",
            "popularity": 0.645
        },
        {
            "id": 19391,
            "original_name": "Wij, Alexander",
            "popularity": 0.6
        },
        {
            "id": 19802,
            "original_name": "Alex Haley's Queen",
            "popularity": 3.582
        },
        {
            "id": 20157,
            "original_name": "The Search for Alexander",
            "popularity": 0.6
        },
        {
            "id": 22867,
            "original_name": "In The Footsteps of Alexander the Great",
            "popularity": 0.6
        },
        {
            "id": 24840,
            "original_name": "Alexei Sayle's Liverpool",
            "popularity": 0.6
        },
        {
            "id": 26437,
            "original_name": "Horse People With Alexandra Tolstoy",
            "popularity": 0.6
        },
        {
            "id": 27402,
            "original_name": "The Complex: Malibu",
            "popularity": 0.6
        },
        {
            "id": 28011,
            "original_name": "Alexander Bunyip's Billabong",
            "popularity": 0.6
        },
        {
            "id": 28666,
            "original_name": "A Mask For Alexis",
            "popularity": 0.805
        },
        {
            "id": 33153,
            "original_name": "Fanny och Alexander",
            "popularity": 7.416
        },
        {
            "id": 33742,
            "original_name": "Planet Tolex",
            "popularity": 0.6
        },
        {
            "id": 35440,
            "original_name": "\u3053\u3059\u3077\u308cCOMPLEX",
            "popularity": 0.6
        },
        {
            "id": 36006,
            "original_name": "Klinik am Alex",
            "popularity": 1.731
        },
        {
            "id": 36621,
            "original_name": "Katie and Alex: For Better for Worse",
            "popularity": 0.6
        },
        {
            "id": 37338,
            "original_name": "Funk Flex Full Throttle",
            "popularity": 0.6
        },
        {
            "id": 38355,
            "original_name": "I Am Alex Reid",
            "popularity": 0.6
        },
        {
            "id": 39530,
            "original_name": "Alexander Armstrong's Big Ask",
            "popularity": 1.4
        },
        {
            "id": 41243,
            "original_name": "AleX",
            "popularity": 0.6
        },
        {
            "id": 41832,
            "original_name": "Funk Flex Full Throttle",
            "popularity": 0.6
        },
        {
            "id": 42076,
            "original_name": "Now with Alex Wagner",
            "popularity": 0.84
        },
        {
            "id": 42171,
            "original_name": "Alexander Zwo",
            "popularity": 2.068
        },
        {
            "id": 42376,
            "original_name": "Weekends with Alex Witt",
            "popularity": 0.6
        },
        {
            "id": 43189,
            "original_name": "Berlin Alexanderplatz",
            "popularity": 4.084
        },
        {
            "id": 43197,
            "original_name": "The L.A. Complex",
            "popularity": 4.995
        },
        {
            "id": 43732,
            "original_name": "Vermisst - Alexandra Walch, 17",
            "popularity": 0.6
        },
        {
            "id": 43765,
            "original_name": "Austin Alexander at the Movies",
            "popularity": 0.6
        },
        {
            "id": 44438,
            "original_name": "Alexander Graham Bell: Voice of Invention",
            "popularity": 0.6
        },
        {
            "id": 44792,
            "original_name": "The Alexis de Tocqueville Tour: Exploring Democracy in America",
            "popularity": 0.6
        },
        {
            "id": 46368,
            "original_name": "Dear Alex and Annie",
            "popularity": 0.601
        },
        {
            "id": 46822,
            "original_name": "Alex Polizzi: The Fixer",
            "popularity": 0.6
        },
        {
            "id": 47492,
            "original_name": "Alex in Wonderland",
            "popularity": 0.6
        },
        {
            "id": 47896,
            "original_name": "Komisarz Alex",
            "popularity": 4.226
        },
        {
            "id": 53132,
            "original_name": "Alex Filippenko on the Frontiers of Astronomy",
            "popularity": 0.6
        },
        {
            "id": 58119,
            "original_name": "Tosca: Flexing at 49",
            "popularity": 0.6
        },
        {
            "id": 58675,
            "original_name": "Sid the Kid V. Alexander the Great",
            "popularity": 0.6
        },
        {
            "id": 59999,
            "original_name": "2005 Lexmark Indy 300",
            "popularity": 0.6
        },
        {
            "id": 61684,
            "original_name": "Flex & Shanice",
            "popularity": 0.6
        },
        {
            "id": 62526,
            "original_name": "Alex Polizzi: Chefs on Trial",
            "popularity": 0.6
        },
        {
            "id": 62897,
            "original_name": "Lex",
            "popularity": 1.295
        },
        {
            "id": 65852,
            "original_name": "Alex & Co.",
            "popularity": 4.617
        },
        {
            "id": 67691,
            "original_name": "Alex Hugo",
            "popularity": 3.178
        },
        {
            "id": 69819,
            "original_name": "Leschs Lexikon",
            "popularity": 1.384
        },
        {
            "id": 70751,
            "original_name": "Alex Caine : infiltrateur",
            "popularity": 0.6
        },
        {
            "id": 71763,
            "original_name": "Alex, Inc.",
            "popularity": 7.68
        },
        {
            "id": 71982,
            "original_name": "La loi d'Alexandre",
            "popularity": 0.6
        },
        {
            "id": 72453,
            "original_name": "Alex",
            "popularity": 6.031
        },
        {
            "id": 73059,
            "original_name": "Alem\u00e3o: Os Dois Lados do Complexo",
            "popularity": 1.383
        },
        {
            "id": 75116,
            "original_name": "Stretch Armstrong & the Flex Fighters",
            "popularity": 4.904
        },
        {
            "id": 76682,
            "original_name": "Alex & Sigge: Meningen med livet",
            "popularity": 0.6
        },
        {
            "id": 76874,
            "original_name": "Alexa & Katie",
            "popularity": 22.213
        },
        {
            "id": 78022,
            "original_name": "Alexander der Gro\u00dfe",
            "popularity": 0.6
        },
        {
            "id": 78750,
            "original_name": "Silex and the City",
            "popularity": 2.078
        },
        {
            "id": 78834,
            "original_name": "Alexandra Ehle",
            "popularity": 2.472
        },
        {
            "id": 79806,
            "original_name": "Nicholas and Alexandra",
            "popularity": 1.4
        },
        {
            "id": 80983,
            "original_name": "Alexander und die T\u00f6chter",
            "popularity": 0.6
        },
        {
            "id": 81072,
            "original_name": "Betty & Alexander",
            "popularity": 0.6
        },
        {
            "id": 81929,
            "original_name": "Alexander",
            "popularity": 0.6
        },
        {
            "id": 82727,
            "original_name": "Olivia and Alex Said Yes",
            "popularity": 0.6
        },
        {
            "id": 84500,
            "original_name": "Peter Alexander pr\u00e4sentiert Spezialit\u00e4ten",
            "popularity": 2.324
        },
        {
            "id": 86597,
            "original_name": "Reflexo",
            "popularity": 0.6
        },
        {
            "id": 88827,
            "original_name": "Alexander",
            "popularity": 0.6
        },
        {
            "id": 88971,
            "original_name": "Richter Alexander Hold",
            "popularity": 0.6
        },
        {
            "id": 89658,
            "original_name": "Complexe G",
            "popularity": 1.54
        },
        {
            "id": 91892,
            "original_name": "Alex Santana, n\u00e9gociateur",
            "popularity": 0.6
        },
        {
            "id": 94463,
            "original_name": "The Amelia Gething Complex",
            "popularity": 0.93
        },
        {
            "id": 96592,
            "original_name": "La base : Lex & Wasiu",
            "popularity": 1.4
        },
        {
            "id": 97287,
            "original_name": "Alexander's Lost World",
            "popularity": 0.6
        },
        {
            "id": 97709,
            "original_name": "The Complex",
            "popularity": 0.6
        },
        {
            "id": 98437,
            "original_name": "Alexandre et les conquerants",
            "popularity": 0.6
        },
        {
            "id": 99799,
            "original_name": "Alex Rider",
            "popularity": 59.659
        },
        {
            "id": 100644,
            "original_name": "Best Christmas Ever with Alexander Armstrong",
            "popularity": 0.688
        },
        {
            "id": 100864,
            "original_name": "Alex in the Magic Orchard",
            "popularity": 0.6
        },
        {
            "id": 101542,
            "original_name": "The Complex TV Series",
            "popularity": 0.6
        },
        {
            "id": 104290,
            "original_name": "Alex And Amie",
            "popularity": 0.6
        },
        {
            "id": 104662,
            "original_name": "Complexo",
            "popularity": 0.6
        },
        {
            "id": 107649,
            "original_name": "Deux s\u0153urs et un duplex",
            "popularity": 0.6
        },
        {
            "id": 111828,
            "original_name": "Alex",
            "popularity": 0.6
        },
        {
            "id": 113771,
            "original_name": "Alex og Aune",
            "popularity": 5.298
        },
        {
            "id": 118259,
            "original_name": "ALEX AL HABLA",
            "popularity": 0.937
        },
        {
            "id": 121272,
            "original_name": "Alex Polizzi's Secret Italy",
            "popularity": 0.826
        },
        {
            "id": 121273,
            "original_name": "Alex Polizzi's Italian Islands",
            "popularity": 0.6
        },
        {
            "id": 121911,
            "original_name": "Alex undskylder dick pics",
            "popularity": 0.6
        },
        {
            "id": 122565,
            "original_name": "Alex & Tyler: The Water Brothers - the complete Series",
            "popularity": 0.6
        },
        {
            "id": 125277,
            "original_name": "Alex Tienda en Venezuela",
            "popularity": 0.6
        },
        {
            "id": 126528,
            "original_name": "Elite Hist\u00f3rias Breves: Omar Ander Alexis",
            "popularity": 39.173
        },
        {
            "id": 127147,
            "original_name": "Clumsy Girl's Complex",
            "popularity": 0.6
        },
        {
            "id": 127707,
            "original_name": "Alex Morgan: The Equalizer",
            "popularity": 0.6
        },
        {
            "id": 128047,
            "original_name": "Lexa: Mostra Esse Poder",
            "popularity": 6.453
        },
        {
            "id": 128091,
            "original_name": "Beach Bum: Backstage at 'Escape to Margaritaville' with Paul Alexander Nolan",
            "popularity": 6.695
        },
        {
            "id": 129290,
            "original_name": "Lexa",
            "popularity": 0.6
        },
        {
            "id": 130876,
            "original_name": "Alex Polizzi: My Hotel Nightmare",
            "popularity": 5.098
        },
        {
            "id": 130979,
            "original_name": "Andi & Alex am Sonntag",
            "popularity": 0.6
        },
        {
            "id": 131433,
            "original_name": "On The Edge With Alex Honnold",
            "popularity": 0.6
        },
        {
            "id": 133017,
            "original_name": "Flexe Meiden",
            "popularity": 0.84
        },
        {
            "id": 133026,
            "original_name": "Flexe Gasten",
            "popularity": 0.84
        },
        {
            "id": 133699,
            "original_name": "Gaby & Alex Adventures",
            "popularity": 0.6
        },
        {
            "id": 134889,
            "original_name": "FLEX ZONE",
            "popularity": 0.6
        },
        {
            "id": 136180,
            "original_name": "Super Plex",
            "popularity": 0.897
        },
        {
            "id": 136830,
            "original_name": "Iceland with Alexander Armstrong",
            "popularity": 4.474
        },
        {
            "id": 137876,
            "original_name": "Alex Zane's Funny Rotten Scoundrels",
            "popularity": 0.6
        },
        {
            "id": 139585,
            "original_name": "Lexic Rants & Commentary",
            "popularity": 0.84
        }
    ],
    "relations": [
        {
            "character": "lexx"
        },
        {
            "character": "lexa"
        },
        {
            "character": "lexe"
        },
        {
            "character": "lexi"
        },
        {
            "character": "lexm"
        },
        {
            "character": "lexo"
        }
    ],
    "top20": [
        {
            "id": 99799,
            "original_name": "Alex Rider",
            "popularity": 59.659
        },
        {
            "id": 126528,
            "original_name": "Elite Hist\u00f3rias Breves: Omar Ander Alexis",
            "popularity": 39.173
        },
        {
            "id": 1095,
            "original_name": "\u653b\u6bbb\u6a5f\u52d5\u968a STAND ALONE COMPLEX",
            "popularity": 26.746
        },
        {
            "id": 76874,
            "original_name": "Alexa & Katie",
            "popularity": 22.213
        },
        {
            "id": 1818,
            "original_name": "Lexx",
            "popularity": 15.199
        },
        {
            "id": 4289,
            "original_name": "The Secret World of Alex Mack",
            "popularity": 7.729
        },
        {
            "id": 71763,
            "original_name": "Alex, Inc.",
            "popularity": 7.68
        },
        {
            "id": 33153,
            "original_name": "Fanny och Alexander",
            "popularity": 7.416
        },
        {
            "id": 128091,
            "original_name": "Beach Bum: Backstage at 'Escape to Margaritaville' with Paul Alexander Nolan",
            "popularity": 6.695
        },
        {
            "id": 128047,
            "original_name": "Lexa: Mostra Esse Poder",
            "popularity": 6.453
        },
        {
            "id": 72453,
            "original_name": "Alex",
            "popularity": 6.031
        },
        {
            "id": 113771,
            "original_name": "Alex og Aune",
            "popularity": 5.298
        },
        {
            "id": 130876,
            "original_name": "Alex Polizzi: My Hotel Nightmare",
            "popularity": 5.098
        },
        {
            "id": 43197,
            "original_name": "The L.A. Complex",
            "popularity": 4.995
        },
        {
            "id": 75116,
            "original_name": "Stretch Armstrong & the Flex Fighters",
            "popularity": 4.904
        },
        {
            "id": 65852,
            "original_name": "Alex & Co.",
            "popularity": 4.617
        },
        {
            "id": 136830,
            "original_name": "Iceland with Alexander Armstrong",
            "popularity": 4.474
        },
        {
            "id": 47896,
            "original_name": "Komisarz Alex",
            "popularity": 4.226
        },
        {
            "id": 43189,
            "original_name": "Berlin Alexanderplatz",
            "popularity": 4.084
        },
        {
            "id": 19802,
            "original_name": "Alex Haley's Queen",
            "popularity": 3.582
        }
    ]
}