{
    "data": [
        {
            "id": 2731,
            "original_name": "Three Moons Over Milford",
            "popularity": 2.283
        },
        {
            "id": 12855,
            "original_name": "Alfonso Bonzo",
            "popularity": 0.6
        },
        {
            "id": 23594,
            "original_name": "Telford's Change",
            "popularity": 1.346
        },
        {
            "id": 34369,
            "original_name": "Tutok Tulfo",
            "popularity": 0.6
        },
        {
            "id": 42929,
            "original_name": "Alfons \u00c5berg",
            "popularity": 1.218
        },
        {
            "id": 50015,
            "original_name": "AlForsan",
            "popularity": 0.6
        },
        {
            "id": 65230,
            "original_name": "Adolfo Suarez, El Presidente",
            "popularity": 0.6
        },
        {
            "id": 65231,
            "original_name": "Alfonso, El Principe Maldito",
            "popularity": 0.6
        },
        {
            "id": 78398,
            "original_name": "Alfons Zitterbacke",
            "popularity": 0.6
        },
        {
            "id": 80908,
            "original_name": "Alfons und G\u00e4ste",
            "popularity": 1.96
        },
        {
            "id": 99286,
            "original_name": "Kulfon co z Ciebie Wyro\u015bnie?",
            "popularity": 0.6
        },
        {
            "id": 99288,
            "original_name": "Bardzo Przygodowe Podr\u00f3\u017ce Kulfona",
            "popularity": 0.6
        },
        {
            "id": 109491,
            "original_name": "Rodolfo Valentino - La leggenda",
            "popularity": 0.661
        },
        {
            "id": 116470,
            "original_name": "Kriminalfotograferne",
            "popularity": 0.647
        }
    ],
    "relations": [],
    "top20": [
        {
            "id": 2731,
            "original_name": "Three Moons Over Milford",
            "popularity": 2.283
        },
        {
            "id": 12855,
            "original_name": "Alfonso Bonzo",
            "popularity": 0.6
        },
        {
            "id": 23594,
            "original_name": "Telford's Change",
            "popularity": 1.346
        },
        {
            "id": 34369,
            "original_name": "Tutok Tulfo",
            "popularity": 0.6
        },
        {
            "id": 42929,
            "original_name": "Alfons \u00c5berg",
            "popularity": 1.218
        },
        {
            "id": 50015,
            "original_name": "AlForsan",
            "popularity": 0.6
        },
        {
            "id": 65230,
            "original_name": "Adolfo Suarez, El Presidente",
            "popularity": 0.6
        },
        {
            "id": 65231,
            "original_name": "Alfonso, El Principe Maldito",
            "popularity": 0.6
        },
        {
            "id": 78398,
            "original_name": "Alfons Zitterbacke",
            "popularity": 0.6
        },
        {
            "id": 80908,
            "original_name": "Alfons und G\u00e4ste",
            "popularity": 1.96
        },
        {
            "id": 99286,
            "original_name": "Kulfon co z Ciebie Wyro\u015bnie?",
            "popularity": 0.6
        },
        {
            "id": 99288,
            "original_name": "Bardzo Przygodowe Podr\u00f3\u017ce Kulfona",
            "popularity": 0.6
        },
        {
            "id": 109491,
            "original_name": "Rodolfo Valentino - La leggenda",
            "popularity": 0.661
        },
        {
            "id": 116470,
            "original_name": "Kriminalfotograferne",
            "popularity": 0.647
        }
    ]
}