{
    "data": [
        {
            "id": 804,
            "original_name": "Alfresco",
            "popularity": 2.406
        },
        {
            "id": 1887,
            "original_name": "Alfred J. Kwak",
            "popularity": 4.679
        },
        {
            "id": 2398,
            "original_name": "Girlfriends",
            "popularity": 13.637
        },
        {
            "id": 2751,
            "original_name": "The New Alfred Hitchcock Presents",
            "popularity": 18.8
        },
        {
            "id": 3297,
            "original_name": "Wilfred",
            "popularity": 2.179
        },
        {
            "id": 5273,
            "original_name": "Alfred Hitchcock Presents",
            "popularity": 24.688
        },
        {
            "id": 6640,
            "original_name": "Mr. Palfrey of Westminster",
            "popularity": 1.385
        },
        {
            "id": 16569,
            "original_name": "Belfry Witches",
            "popularity": 0.6
        },
        {
            "id": 18374,
            "original_name": "Search for the Perfect Girlfriend",
            "popularity": 0.966
        },
        {
            "id": 19088,
            "original_name": "Wilfred Owen: A Remembrance Tale",
            "popularity": 0.6
        },
        {
            "id": 21728,
            "original_name": "The Alfred Hitchcock Hour",
            "popularity": 35.19
        },
        {
            "id": 22610,
            "original_name": "Alfred Marks Time",
            "popularity": 0.6
        },
        {
            "id": 30579,
            "original_name": "Test Drive My Girlfriend",
            "popularity": 0.6
        },
        {
            "id": 31074,
            "original_name": "Secret Girlfriend",
            "popularity": 1.911
        },
        {
            "id": 34535,
            "original_name": "The Mysteries of Alfred Hedgehog",
            "popularity": 1.732
        },
        {
            "id": 36931,
            "original_name": "Diary of a Hip Hop Girlfriend",
            "popularity": 0.654
        },
        {
            "id": 39525,
            "original_name": "Wilfred",
            "popularity": 19.863
        },
        {
            "id": 42310,
            "original_name": "Steal Ur Girlfriend",
            "popularity": 0.6
        },
        {
            "id": 43006,
            "original_name": "We Need Girlfriends",
            "popularity": 0.6
        },
        {
            "id": 46643,
            "original_name": "Mr Selfridge",
            "popularity": 7.087
        },
        {
            "id": 55499,
            "original_name": "Girlfri3nds",
            "popularity": 0.6
        },
        {
            "id": 55759,
            "original_name": "Who want's to fuck my girlfriend?",
            "popularity": 0.806
        },
        {
            "id": 57043,
            "original_name": "King Alfred and the Anglo Saxons",
            "popularity": 0.6
        },
        {
            "id": 58941,
            "original_name": "Girlfriend in a Coma",
            "popularity": 0.6
        },
        {
            "id": 59006,
            "original_name": "King Alfred and the Anglo Saxons",
            "popularity": 0.6
        },
        {
            "id": 62187,
            "original_name": "Girlfriends' Guide to Divorce",
            "popularity": 14.394
        },
        {
            "id": 62796,
            "original_name": "Alfredissimo! - Kochen mit Bio",
            "popularity": 8.73
        },
        {
            "id": 63161,
            "original_name": "Crazy Ex-Girlfriend",
            "popularity": 24.03
        },
        {
            "id": 64387,
            "original_name": "The Girlfriend Experience",
            "popularity": 35.902
        },
        {
            "id": 73584,
            "original_name": "Alfred Brehm, un certain regard sur les animaux",
            "popularity": 0.6
        },
        {
            "id": 74652,
            "original_name": "Girlfriend Aku Dari Neraka the Series",
            "popularity": 1.367
        },
        {
            "id": 76106,
            "original_name": "Girlfriends",
            "popularity": 2.539
        },
        {
            "id": 78791,
            "original_name": "A.I.SHA My Virtual Girlfriend",
            "popularity": 0.866
        },
        {
            "id": 81503,
            "original_name": "Girlfriend Friday",
            "popularity": 0.605
        },
        {
            "id": 82078,
            "original_name": "Undercover Girlfriends",
            "popularity": 0.668
        },
        {
            "id": 83158,
            "original_name": "Belfry",
            "popularity": 0.6
        },
        {
            "id": 83159,
            "original_name": "Belfry",
            "popularity": 0.6
        },
        {
            "id": 89497,
            "original_name": "My Girlfriends Secret",
            "popularity": 1.229
        },
        {
            "id": 101133,
            "original_name": "Elleville Elfrid",
            "popularity": 0.976
        },
        {
            "id": 102153,
            "original_name": "Girlfriend Chor",
            "popularity": 0.6
        },
        {
            "id": 114279,
            "original_name": "The Masters of Cinema - Alfred Hitchcock",
            "popularity": 0.6
        },
        {
            "id": 119365,
            "original_name": "The Astonishing Adventures of Alfred",
            "popularity": 0.84
        },
        {
            "id": 121243,
            "original_name": "Playboy Girlfriends",
            "popularity": 1.064
        },
        {
            "id": 122116,
            "original_name": "Sumer Singh Case Files: Girlfriends",
            "popularity": 0.84
        },
        {
            "id": 126025,
            "original_name": "Alfredino - Una storia italiana",
            "popularity": 2.669
        },
        {
            "id": 128293,
            "original_name": "World of Wolfram",
            "popularity": 0.6
        },
        {
            "id": 132781,
            "original_name": "Girlfriend",
            "popularity": 0.6
        }
    ],
    "relations": [
        {
            "character": "lfre"
        },
        {
            "character": "lfri"
        },
        {
            "character": "lfry"
        },
        {
            "character": "lfra"
        }
    ],
    "top20": [
        {
            "id": 64387,
            "original_name": "The Girlfriend Experience",
            "popularity": 35.902
        },
        {
            "id": 21728,
            "original_name": "The Alfred Hitchcock Hour",
            "popularity": 35.19
        },
        {
            "id": 5273,
            "original_name": "Alfred Hitchcock Presents",
            "popularity": 24.688
        },
        {
            "id": 63161,
            "original_name": "Crazy Ex-Girlfriend",
            "popularity": 24.03
        },
        {
            "id": 39525,
            "original_name": "Wilfred",
            "popularity": 19.863
        },
        {
            "id": 2751,
            "original_name": "The New Alfred Hitchcock Presents",
            "popularity": 18.8
        },
        {
            "id": 62187,
            "original_name": "Girlfriends' Guide to Divorce",
            "popularity": 14.394
        },
        {
            "id": 2398,
            "original_name": "Girlfriends",
            "popularity": 13.637
        },
        {
            "id": 62796,
            "original_name": "Alfredissimo! - Kochen mit Bio",
            "popularity": 8.73
        },
        {
            "id": 46643,
            "original_name": "Mr Selfridge",
            "popularity": 7.087
        },
        {
            "id": 1887,
            "original_name": "Alfred J. Kwak",
            "popularity": 4.679
        },
        {
            "id": 126025,
            "original_name": "Alfredino - Una storia italiana",
            "popularity": 2.669
        },
        {
            "id": 76106,
            "original_name": "Girlfriends",
            "popularity": 2.539
        },
        {
            "id": 804,
            "original_name": "Alfresco",
            "popularity": 2.406
        },
        {
            "id": 3297,
            "original_name": "Wilfred",
            "popularity": 2.179
        },
        {
            "id": 31074,
            "original_name": "Secret Girlfriend",
            "popularity": 1.911
        },
        {
            "id": 34535,
            "original_name": "The Mysteries of Alfred Hedgehog",
            "popularity": 1.732
        },
        {
            "id": 6640,
            "original_name": "Mr. Palfrey of Westminster",
            "popularity": 1.385
        },
        {
            "id": 74652,
            "original_name": "Girlfriend Aku Dari Neraka the Series",
            "popularity": 1.367
        },
        {
            "id": 89497,
            "original_name": "My Girlfriends Secret",
            "popularity": 1.229
        }
    ]
}