{
    "data": [
        {
            "id": 87169,
            "original_name": "Colgados",
            "popularity": 0.6
        }
    ],
    "relations": [],
    "top20": [
        {
            "id": 87169,
            "original_name": "Colgados",
            "popularity": 0.6
        }
    ]
}