{
    "data": [
        {
            "id": 63620,
            "original_name": "Libro de Familia",
            "popularity": 0.6
        },
        {
            "id": 75122,
            "original_name": "Superlibro",
            "popularity": 0.6
        },
        {
            "id": 84083,
            "original_name": "Il Grande Libro della Natura",
            "popularity": 0.6
        },
        {
            "id": 138174,
            "original_name": "El Libro de la Chacra",
            "popularity": 1.362
        }
    ],
    "relations": [],
    "top20": [
        {
            "id": 63620,
            "original_name": "Libro de Familia",
            "popularity": 0.6
        },
        {
            "id": 75122,
            "original_name": "Superlibro",
            "popularity": 0.6
        },
        {
            "id": 84083,
            "original_name": "Il Grande Libro della Natura",
            "popularity": 0.6
        },
        {
            "id": 138174,
            "original_name": "El Libro de la Chacra",
            "popularity": 1.362
        }
    ]
}