{
    "data": [
        {
            "id": 40587,
            "original_name": "Die Unverbesserlichen",
            "popularity": 2.921
        },
        {
            "id": 64772,
            "original_name": "Die unsterblichen Methoden des Franz Josef Wanninger",
            "popularity": 2.6
        },
        {
            "id": 65285,
            "original_name": "Die unwahrscheinlichen Ereignisse im Leben von ...",
            "popularity": 1.54
        },
        {
            "id": 83499,
            "original_name": "Mr. Carlis und seine abenteuerlichen Geschichten",
            "popularity": 0.875
        },
        {
            "id": 108435,
            "original_name": "Papa L\u00f6we und seine gl\u00fccklichen Kinder",
            "popularity": 0.841
        },
        {
            "id": 119572,
            "original_name": "Die gl\u00fccklichen Vier",
            "popularity": 0.6
        }
    ],
    "relations": [],
    "top20": [
        {
            "id": 40587,
            "original_name": "Die Unverbesserlichen",
            "popularity": 2.921
        },
        {
            "id": 64772,
            "original_name": "Die unsterblichen Methoden des Franz Josef Wanninger",
            "popularity": 2.6
        },
        {
            "id": 65285,
            "original_name": "Die unwahrscheinlichen Ereignisse im Leben von ...",
            "popularity": 1.54
        },
        {
            "id": 83499,
            "original_name": "Mr. Carlis und seine abenteuerlichen Geschichten",
            "popularity": 0.875
        },
        {
            "id": 108435,
            "original_name": "Papa L\u00f6we und seine gl\u00fccklichen Kinder",
            "popularity": 0.841
        },
        {
            "id": 119572,
            "original_name": "Die gl\u00fccklichen Vier",
            "popularity": 0.6
        }
    ]
}