{
    "data": [
        {
            "id": 5232,
            "original_name": "Intelligence",
            "popularity": 3.35
        },
        {
            "id": 8441,
            "original_name": "Mosaic Intelligence Report",
            "popularity": 0.6
        },
        {
            "id": 12797,
            "original_name": "Medical Intelligence",
            "popularity": 0.6
        },
        {
            "id": 17770,
            "original_name": "\u00c4ntligen hemma",
            "popularity": 0.6
        },
        {
            "id": 41410,
            "original_name": "Intelligence \u2013 Servizi & segreti",
            "popularity": 1.4
        },
        {
            "id": 45723,
            "original_name": "Intelligence Squared Debates",
            "popularity": 0.6
        },
        {
            "id": 47263,
            "original_name": "The Search for Signs of Intelligent Life in the Universe",
            "popularity": 0.6
        },
        {
            "id": 50628,
            "original_name": "Intelligence",
            "popularity": 14.705
        },
        {
            "id": 53714,
            "original_name": "\u00c4ntligen Hi-Tech",
            "popularity": 0.6
        },
        {
            "id": 60523,
            "original_name": "Kim Cattrall: Sexual Intelligence",
            "popularity": 0.6
        },
        {
            "id": 70226,
            "original_name": "V\u00e4nligen: Lars Lerin",
            "popularity": 0.743
        },
        {
            "id": 78686,
            "original_name": "Deadly Intelligence",
            "popularity": 0.6
        },
        {
            "id": 80382,
            "original_name": "Die unfreiwilligen Reisen des Moritz August Benjowski",
            "popularity": 2.067
        },
        {
            "id": 88110,
            "original_name": "Intelligence",
            "popularity": 5.818
        },
        {
            "id": 88652,
            "original_name": "60 jours d'intelligence artificielle",
            "popularity": 1.28
        },
        {
            "id": 106827,
            "original_name": "Collective Intelligence",
            "popularity": 0.6
        },
        {
            "id": 108152,
            "original_name": "Helena. Die K\u00fcnstliche Intelligenz",
            "popularity": 0.6
        }
    ],
    "relations": [],
    "top20": [
        {
            "id": 5232,
            "original_name": "Intelligence",
            "popularity": 3.35
        },
        {
            "id": 8441,
            "original_name": "Mosaic Intelligence Report",
            "popularity": 0.6
        },
        {
            "id": 12797,
            "original_name": "Medical Intelligence",
            "popularity": 0.6
        },
        {
            "id": 17770,
            "original_name": "\u00c4ntligen hemma",
            "popularity": 0.6
        },
        {
            "id": 41410,
            "original_name": "Intelligence \u2013 Servizi & segreti",
            "popularity": 1.4
        },
        {
            "id": 45723,
            "original_name": "Intelligence Squared Debates",
            "popularity": 0.6
        },
        {
            "id": 47263,
            "original_name": "The Search for Signs of Intelligent Life in the Universe",
            "popularity": 0.6
        },
        {
            "id": 50628,
            "original_name": "Intelligence",
            "popularity": 14.705
        },
        {
            "id": 53714,
            "original_name": "\u00c4ntligen Hi-Tech",
            "popularity": 0.6
        },
        {
            "id": 60523,
            "original_name": "Kim Cattrall: Sexual Intelligence",
            "popularity": 0.6
        },
        {
            "id": 70226,
            "original_name": "V\u00e4nligen: Lars Lerin",
            "popularity": 0.743
        },
        {
            "id": 78686,
            "original_name": "Deadly Intelligence",
            "popularity": 0.6
        },
        {
            "id": 80382,
            "original_name": "Die unfreiwilligen Reisen des Moritz August Benjowski",
            "popularity": 2.067
        },
        {
            "id": 88110,
            "original_name": "Intelligence",
            "popularity": 5.818
        },
        {
            "id": 88652,
            "original_name": "60 jours d'intelligence artificielle",
            "popularity": 1.28
        },
        {
            "id": 106827,
            "original_name": "Collective Intelligence",
            "popularity": 0.6
        },
        {
            "id": 108152,
            "original_name": "Helena. Die K\u00fcnstliche Intelligenz",
            "popularity": 0.6
        }
    ]
}