{
    "data": [
        {
            "id": 80429,
            "original_name": "Klikbeet",
            "popularity": 0.6
        }
    ],
    "relations": [],
    "top20": [
        {
            "id": 80429,
            "original_name": "Klikbeet",
            "popularity": 0.6
        }
    ]
}