{
    "data": [
        {
            "id": 152447,
            "original_name": "Trial In The Outback: The Lindy Chamberlain Story",
            "popularity": 0.892
        }
    ],
    "relations": [],
    "top20": [
        {
            "id": 152447,
            "original_name": "Trial In The Outback: The Lindy Chamberlain Story",
            "popularity": 0.892
        }
    ]
}