{
    "data": [
        {
            "id": 782,
            "original_name": "Blind Date",
            "popularity": 1.772
        },
        {
            "id": 3153,
            "original_name": "Flying Blind",
            "popularity": 2.917
        },
        {
            "id": 3959,
            "original_name": "Nick News with Linda Ellerbee",
            "popularity": 1.33
        },
        {
            "id": 9839,
            "original_name": "Blind Date",
            "popularity": 0.6
        },
        {
            "id": 9875,
            "original_name": "Blind Justice",
            "popularity": 3.671
        },
        {
            "id": 11661,
            "original_name": "Lindenstra\u00dfe",
            "popularity": 0.651
        },
        {
            "id": 12656,
            "original_name": "Rosalinda",
            "popularity": 7.816
        },
        {
            "id": 13695,
            "original_name": "Linda Green",
            "popularity": 1.309
        },
        {
            "id": 16802,
            "original_name": "Rock the Blind",
            "popularity": 0.6
        },
        {
            "id": 17346,
            "original_name": "Rosalinda",
            "popularity": 0.6
        },
        {
            "id": 19753,
            "original_name": "Blindpassasjer",
            "popularity": 1.786
        },
        {
            "id": 21786,
            "original_name": "Melinda's Big Night In",
            "popularity": 0.6
        },
        {
            "id": 22133,
            "original_name": "The Hal Lindsey Report",
            "popularity": 0.6
        },
        {
            "id": 22381,
            "original_name": "Matt Flinders and Friends",
            "popularity": 0.6
        },
        {
            "id": 26286,
            "original_name": "The Norman Lindsay Festival",
            "popularity": 0.6
        },
        {
            "id": 26731,
            "original_name": "Blind Men",
            "popularity": 1.174
        },
        {
            "id": 27388,
            "original_name": "Blind Ambition",
            "popularity": 0.6
        },
        {
            "id": 28041,
            "original_name": "Blind Date",
            "popularity": 0.6
        },
        {
            "id": 29049,
            "original_name": "Blind Date (AU)",
            "popularity": 0.6
        },
        {
            "id": 29289,
            "original_name": "Blind Faith",
            "popularity": 1.001
        },
        {
            "id": 31398,
            "original_name": "Blind Young Things",
            "popularity": 0.6
        },
        {
            "id": 31774,
            "original_name": "Rosalinda y Primitivo",
            "popularity": 0.6
        },
        {
            "id": 32701,
            "original_name": "Belinda",
            "popularity": 0.6
        },
        {
            "id": 32756,
            "original_name": "Blind Date",
            "popularity": 0.6
        },
        {
            "id": 38847,
            "original_name": "Single Princess & Blind Date",
            "popularity": 0.6
        },
        {
            "id": 39201,
            "original_name": "The Hal Lindsey Report",
            "popularity": 0.84
        },
        {
            "id": 40897,
            "original_name": "Unter den Linden \u2013 Das Haus Gravenhorst",
            "popularity": 1.182
        },
        {
            "id": 41628,
            "original_name": "Linda e il brigadiere",
            "popularity": 2.566
        },
        {
            "id": 47726,
            "original_name": "Blind Justice",
            "popularity": 0.6
        },
        {
            "id": 49213,
            "original_name": "Linda in Wonderland",
            "popularity": 0.6
        },
        {
            "id": 49651,
            "original_name": "Blind Ambition",
            "popularity": 2.604
        },
        {
            "id": 51091,
            "original_name": "Den blinde vinkel",
            "popularity": 0.6
        },
        {
            "id": 55029,
            "original_name": "Cosita Linda",
            "popularity": 2.412
        },
        {
            "id": 60574,
            "original_name": "Peaky Blinders",
            "popularity": 590.915
        },
        {
            "id": 61385,
            "original_name": "Inga Lindstr\u00f6m",
            "popularity": 12.214
        },
        {
            "id": 62710,
            "original_name": "Blindspot",
            "popularity": 78.619
        },
        {
            "id": 63844,
            "original_name": "Kennen Sie die Lindemanns?",
            "popularity": 1.4
        },
        {
            "id": 71510,
            "original_name": "Linda",
            "popularity": 0.677
        },
        {
            "id": 72856,
            "original_name": "Le Grand Blind Test",
            "popularity": 0.6
        },
        {
            "id": 74059,
            "original_name": "Love Is Blind",
            "popularity": 0.6
        },
        {
            "id": 76186,
            "original_name": "Blind Donna",
            "popularity": 0.6
        },
        {
            "id": 77102,
            "original_name": "Colour Blind",
            "popularity": 0.6
        },
        {
            "id": 78351,
            "original_name": "Blind\u00e9s",
            "popularity": 0.601
        },
        {
            "id": 78755,
            "original_name": "Blind Getrouwd",
            "popularity": 0.792
        },
        {
            "id": 80157,
            "original_name": "Buying Blind",
            "popularity": 0.6
        },
        {
            "id": 81112,
            "original_name": "Der blinde Richter",
            "popularity": 0.68
        },
        {
            "id": 81251,
            "original_name": "Dr. Monika Lindt",
            "popularity": 0.841
        },
        {
            "id": 82902,
            "original_name": "Die Lindstedts",
            "popularity": 0.6
        },
        {
            "id": 83190,
            "original_name": "Blind Date Australia",
            "popularity": 0.6
        },
        {
            "id": 83718,
            "original_name": "Buying It Blind",
            "popularity": 0.6
        },
        {
            "id": 83824,
            "original_name": "Who Killed Belinda Peisley? Uncovered",
            "popularity": 0.89
        },
        {
            "id": 85391,
            "original_name": "Rosa und Rosalind",
            "popularity": 0.6
        },
        {
            "id": 85622,
            "original_name": "Lindsay Lohan's Beach Club",
            "popularity": 0.802
        },
        {
            "id": 86402,
            "original_name": "Lindsay",
            "popularity": 2.16
        },
        {
            "id": 86943,
            "original_name": "Coisa Mais Linda",
            "popularity": 8.365
        },
        {
            "id": 88213,
            "original_name": "Xilindr\u00f3",
            "popularity": 1.236
        },
        {
            "id": 88394,
            "original_name": "Liefde Maakt Blind",
            "popularity": 0.646
        },
        {
            "id": 92739,
            "original_name": "Fartblinda",
            "popularity": 7.798
        },
        {
            "id": 92895,
            "original_name": "Suamiku Mr Blind",
            "popularity": 1.749
        },
        {
            "id": 95301,
            "original_name": "Love is Blind",
            "popularity": 0.6
        },
        {
            "id": 95545,
            "original_name": "Ko\u010dka Linda, poklad rodiny",
            "popularity": 0.6
        },
        {
            "id": 96364,
            "original_name": "Blind Date",
            "popularity": 0.658
        },
        {
            "id": 96956,
            "original_name": "Lindsey Vonn: The Final",
            "popularity": 0.6
        },
        {
            "id": 99353,
            "original_name": "Love Is Blind",
            "popularity": 6.999
        },
        {
            "id": 103146,
            "original_name": "Los Galindo",
            "popularity": 1.472
        },
        {
            "id": 103450,
            "original_name": "Blindboy Undestroys the World",
            "popularity": 0.6
        },
        {
            "id": 104582,
            "original_name": "Unter den Linden",
            "popularity": 5.232
        },
        {
            "id": 106666,
            "original_name": "Knutby: I blind tro",
            "popularity": 1.794
        },
        {
            "id": 107086,
            "original_name": "Pelindung Seorang Puteri",
            "popularity": 0.6
        },
        {
            "id": 109373,
            "original_name": "Blindspotting",
            "popularity": 8.399
        },
        {
            "id": 111516,
            "original_name": "Boligk\u00f8b i blinde",
            "popularity": 0.7
        },
        {
            "id": 115773,
            "original_name": "Mystery at Blind Frog Ranch",
            "popularity": 0.6
        },
        {
            "id": 116732,
            "original_name": "Lindmo",
            "popularity": 10.395
        },
        {
            "id": 118130,
            "original_name": "Lindner's Angling Edge",
            "popularity": 0.847
        },
        {
            "id": 119324,
            "original_name": "Sally Lindsay's Posh Sleepover",
            "popularity": 0.84
        },
        {
            "id": 119601,
            "original_name": "Love is (Not) Blind",
            "popularity": 0.6
        },
        {
            "id": 121253,
            "original_name": "Corazones Blindados",
            "popularity": 4.998
        },
        {
            "id": 121654,
            "original_name": "5 Senses for Love - Heirate dein Blind Date",
            "popularity": 0.6
        },
        {
            "id": 122158,
            "original_name": "Blind Gekocht",
            "popularity": 1.009
        },
        {
            "id": 122918,
            "original_name": "Blind Kotha",
            "popularity": 1.826
        },
        {
            "id": 124715,
            "original_name": "Fly Girl: Backstage at 'Wicked' with Lindsay Mendez",
            "popularity": 6.557
        },
        {
            "id": 126428,
            "original_name": "@elindo",
            "popularity": 0.6
        },
        {
            "id": 127013,
            "original_name": "Think Pink: Backstage at 'Wicked' with Kara Lindsay",
            "popularity": 6.158
        },
        {
            "id": 127316,
            "original_name": "Det alt for store Linda P show",
            "popularity": 0.6
        },
        {
            "id": 128234,
            "original_name": "Blind tillid med Bubber",
            "popularity": 0.601
        },
        {
            "id": 137175,
            "original_name": "Lindsay brunch",
            "popularity": 0.6
        },
        {
            "id": 138436,
            "original_name": "Love is blind: Japan",
            "popularity": 0.6
        },
        {
            "id": 152319,
            "original_name": "Jacky & Lindsay",
            "popularity": 4.856
        },
        {
            "id": 152447,
            "original_name": "Trial In The Outback: The Lindy Chamberlain Story",
            "popularity": 0.892
        }
    ],
    "relations": [
        {
            "character": "linda"
        },
        {
            "character": "linde"
        },
        {
            "character": "lindp"
        },
        {
            "character": "linds"
        },
        {
            "character": "lindt"
        },
        {
            "character": "lindr"
        },
        {
            "character": "lindo"
        },
        {
            "character": "lindb"
        },
        {
            "character": "lindu"
        },
        {
            "character": "lindm"
        },
        {
            "character": "lindn"
        },
        {
            "character": "lindy"
        }
    ],
    "top20": [
        {
            "id": 60574,
            "original_name": "Peaky Blinders",
            "popularity": 590.915
        },
        {
            "id": 62710,
            "original_name": "Blindspot",
            "popularity": 78.619
        },
        {
            "id": 61385,
            "original_name": "Inga Lindstr\u00f6m",
            "popularity": 12.214
        },
        {
            "id": 116732,
            "original_name": "Lindmo",
            "popularity": 10.395
        },
        {
            "id": 109373,
            "original_name": "Blindspotting",
            "popularity": 8.399
        },
        {
            "id": 86943,
            "original_name": "Coisa Mais Linda",
            "popularity": 8.365
        },
        {
            "id": 12656,
            "original_name": "Rosalinda",
            "popularity": 7.816
        },
        {
            "id": 92739,
            "original_name": "Fartblinda",
            "popularity": 7.798
        },
        {
            "id": 99353,
            "original_name": "Love Is Blind",
            "popularity": 6.999
        },
        {
            "id": 124715,
            "original_name": "Fly Girl: Backstage at 'Wicked' with Lindsay Mendez",
            "popularity": 6.557
        },
        {
            "id": 127013,
            "original_name": "Think Pink: Backstage at 'Wicked' with Kara Lindsay",
            "popularity": 6.158
        },
        {
            "id": 104582,
            "original_name": "Unter den Linden",
            "popularity": 5.232
        },
        {
            "id": 121253,
            "original_name": "Corazones Blindados",
            "popularity": 4.998
        },
        {
            "id": 152319,
            "original_name": "Jacky & Lindsay",
            "popularity": 4.856
        },
        {
            "id": 9875,
            "original_name": "Blind Justice",
            "popularity": 3.671
        },
        {
            "id": 3153,
            "original_name": "Flying Blind",
            "popularity": 2.917
        },
        {
            "id": 49651,
            "original_name": "Blind Ambition",
            "popularity": 2.604
        },
        {
            "id": 41628,
            "original_name": "Linda e il brigadiere",
            "popularity": 2.566
        },
        {
            "id": 55029,
            "original_name": "Cosita Linda",
            "popularity": 2.412
        },
        {
            "id": 86402,
            "original_name": "Lindsay",
            "popularity": 2.16
        }
    ]
}