{
    "data": [
        {
            "id": 113962,
            "original_name": "Lioness",
            "popularity": 0.6
        }
    ],
    "relations": [],
    "top20": [
        {
            "id": 113962,
            "original_name": "Lioness",
            "popularity": 0.6
        }
    ]
}