{
    "data": [
        {
            "id": 1684,
            "original_name": "Night Stalker",
            "popularity": 4.179
        },
        {
            "id": 3772,
            "original_name": "Walker, Texas Ranger",
            "popularity": 21.356
        },
        {
            "id": 4293,
            "original_name": "Sleepwalkers",
            "popularity": 2.309
        },
        {
            "id": 5084,
            "original_name": "Kolchak: The Night Stalker",
            "popularity": 11.696
        },
        {
            "id": 5552,
            "original_name": "Agter Elke Man",
            "popularity": 1.211
        },
        {
            "id": 8635,
            "original_name": "The Nancy Walker Show",
            "popularity": 1.164
        },
        {
            "id": 21315,
            "original_name": "Night Walker -\u771f\u591c\u4e2d\u306e\u63a2\u5075-",
            "popularity": 3.128
        },
        {
            "id": 25247,
            "original_name": "Forsthaus Falkenau",
            "popularity": 13.765
        },
        {
            "id": 26308,
            "original_name": "The Kinetic Karnival of Jearl Walker",
            "popularity": 0.6
        },
        {
            "id": 26523,
            "original_name": "Roy Walker's TV Bloomers",
            "popularity": 0.6
        },
        {
            "id": 26681,
            "original_name": "The Six Proud Walkers",
            "popularity": 0.6
        },
        {
            "id": 30282,
            "original_name": "Dark Stalkers",
            "popularity": 0.634
        },
        {
            "id": 38674,
            "original_name": "Stalked: Someone's Watching",
            "popularity": 1.154
        },
        {
            "id": 39374,
            "original_name": "DarkStalkers",
            "popularity": 3.466
        },
        {
            "id": 40218,
            "original_name": "Walker and Ping Ping",
            "popularity": 0.6
        },
        {
            "id": 40916,
            "original_name": "Wolkenstein",
            "popularity": 2.23
        },
        {
            "id": 41000,
            "original_name": "M\u00e4rchen der V\u00f6lker",
            "popularity": 0.6
        },
        {
            "id": 47148,
            "original_name": "Talked to Death",
            "popularity": 0.6
        },
        {
            "id": 49301,
            "original_name": "Kalkofes Mattscheibe - Rekalked",
            "popularity": 1.526
        },
        {
            "id": 55443,
            "original_name": "Folkeopplysningen",
            "popularity": 1.497
        },
        {
            "id": 58006,
            "original_name": "Stalked by a ghost",
            "popularity": 0.6
        },
        {
            "id": 60796,
            "original_name": "Stalker",
            "popularity": 10.098
        },
        {
            "id": 60824,
            "original_name": "Fluch des Falken",
            "popularity": 3.129
        },
        {
            "id": 63222,
            "original_name": "Der Nelkenk\u00f6nig",
            "popularity": 1.677
        },
        {
            "id": 68040,
            "original_name": "Folkets fr\u00e4msta f\u00f6retr\u00e4dare",
            "popularity": 1.4
        },
        {
            "id": 70174,
            "original_name": "Die Juden - Geschichte eines Volkes",
            "popularity": 0.64
        },
        {
            "id": 70951,
            "original_name": "Folkevalgt",
            "popularity": 0.63
        },
        {
            "id": 74582,
            "original_name": "Terra X: Gro\u00dfe V\u00f6lker",
            "popularity": 0.6
        },
        {
            "id": 76680,
            "original_name": "Stalker Files",
            "popularity": 0.632
        },
        {
            "id": 76982,
            "original_name": "Wolken \u00fcber Kaprun",
            "popularity": 0.6
        },
        {
            "id": 78738,
            "original_name": "SK-Talker",
            "popularity": 1.4
        },
        {
            "id": 80284,
            "original_name": "Kennzeichen Rosa Nelke",
            "popularity": 0.84
        },
        {
            "id": 81531,
            "original_name": "Faszination Wolkenkratzer",
            "popularity": 0.6
        },
        {
            "id": 83417,
            "original_name": "Tilda Apfelkern",
            "popularity": 1.437
        },
        {
            "id": 83723,
            "original_name": "Kulipari: Dream Walker",
            "popularity": 2.391
        },
        {
            "id": 85376,
            "original_name": "Rita von Falkenhain",
            "popularity": 0.634
        },
        {
            "id": 86961,
            "original_name": "AlBeet AlKebeer",
            "popularity": 0.6
        },
        {
            "id": 90968,
            "original_name": "F4LKENB3RG \u2013 Mord im Internat?",
            "popularity": 1.489
        },
        {
            "id": 95302,
            "original_name": "Stalkers Who Kill",
            "popularity": 0.6
        },
        {
            "id": 97539,
            "original_name": "Self Made: Inspired by the Life of Madam C.J. Walker",
            "popularity": 13.047
        },
        {
            "id": 99121,
            "original_name": "Walker",
            "popularity": 100.427
        },
        {
            "id": 101237,
            "original_name": "Falkenberg Forever",
            "popularity": 1.4
        },
        {
            "id": 101359,
            "original_name": "The Secret of Skinwalker Ranch",
            "popularity": 14.033
        },
        {
            "id": 104455,
            "original_name": "B\u0171n\u00f6s lelkek",
            "popularity": 0.6
        },
        {
            "id": 108828,
            "original_name": "When Whales Walked: Journeys in Deep Time",
            "popularity": 0.6
        },
        {
            "id": 113012,
            "original_name": "Gro\u00dfe V\u00f6lker der Geschichte",
            "popularity": 0.6
        },
        {
            "id": 113143,
            "original_name": "Die gro\u00dfe ProSieben V\u00f6lkerball Meisterschaft",
            "popularity": 0.645
        },
        {
            "id": 114705,
            "original_name": "Night Stalker: The Hunt for a Serial Killer",
            "popularity": 12.465
        },
        {
            "id": 117948,
            "original_name": "Ghost Stalkers",
            "popularity": 0.6
        },
        {
            "id": 119257,
            "original_name": "Pandeyji Zara Sambhalke",
            "popularity": 0.707
        },
        {
            "id": 121336,
            "original_name": "Lesen! Mit Elke Heidenreich",
            "popularity": 2.066
        },
        {
            "id": 122899,
            "original_name": "Death Walker",
            "popularity": 1.545
        },
        {
            "id": 124272,
            "original_name": "Zeeman Confronteert: Stalkers",
            "popularity": 22.14
        },
        {
            "id": 124368,
            "original_name": "Myrskyn j\u00e4lkeen",
            "popularity": 0.6
        },
        {
            "id": 132792,
            "original_name": "Bolke de Beer",
            "popularity": 0.6
        },
        {
            "id": 133415,
            "original_name": "Stalked: Followed By Fear",
            "popularity": 0.6
        },
        {
            "id": 133760,
            "original_name": "Konspirationsfolket har ordet",
            "popularity": 0.6
        },
        {
            "id": 133849,
            "original_name": "SKZ-TALKER",
            "popularity": 0.6
        },
        {
            "id": 134635,
            "original_name": "Jochem in de Wolken",
            "popularity": 4.588
        },
        {
            "id": 136706,
            "original_name": "Night Stalkers",
            "popularity": 0.6
        }
    ],
    "relations": [
        {
            "character": "lker"
        },
        {
            "character": "lken"
        },
        {
            "character": "lked"
        },
        {
            "character": "lkeo"
        },
        {
            "character": "lket"
        },
        {
            "character": "lkes"
        },
        {
            "character": "lkev"
        },
        {
            "character": "lkeb"
        },
        {
            "character": "lkek"
        },
        {
            "character": "lkee"
        }
    ],
    "top20": [
        {
            "id": 99121,
            "original_name": "Walker",
            "popularity": 100.427
        },
        {
            "id": 124272,
            "original_name": "Zeeman Confronteert: Stalkers",
            "popularity": 22.14
        },
        {
            "id": 3772,
            "original_name": "Walker, Texas Ranger",
            "popularity": 21.356
        },
        {
            "id": 101359,
            "original_name": "The Secret of Skinwalker Ranch",
            "popularity": 14.033
        },
        {
            "id": 25247,
            "original_name": "Forsthaus Falkenau",
            "popularity": 13.765
        },
        {
            "id": 97539,
            "original_name": "Self Made: Inspired by the Life of Madam C.J. Walker",
            "popularity": 13.047
        },
        {
            "id": 114705,
            "original_name": "Night Stalker: The Hunt for a Serial Killer",
            "popularity": 12.465
        },
        {
            "id": 5084,
            "original_name": "Kolchak: The Night Stalker",
            "popularity": 11.696
        },
        {
            "id": 60796,
            "original_name": "Stalker",
            "popularity": 10.098
        },
        {
            "id": 134635,
            "original_name": "Jochem in de Wolken",
            "popularity": 4.588
        },
        {
            "id": 1684,
            "original_name": "Night Stalker",
            "popularity": 4.179
        },
        {
            "id": 39374,
            "original_name": "DarkStalkers",
            "popularity": 3.466
        },
        {
            "id": 60824,
            "original_name": "Fluch des Falken",
            "popularity": 3.129
        },
        {
            "id": 21315,
            "original_name": "Night Walker -\u771f\u591c\u4e2d\u306e\u63a2\u5075-",
            "popularity": 3.128
        },
        {
            "id": 83723,
            "original_name": "Kulipari: Dream Walker",
            "popularity": 2.391
        },
        {
            "id": 4293,
            "original_name": "Sleepwalkers",
            "popularity": 2.309
        },
        {
            "id": 40916,
            "original_name": "Wolkenstein",
            "popularity": 2.23
        },
        {
            "id": 121336,
            "original_name": "Lesen! Mit Elke Heidenreich",
            "popularity": 2.066
        },
        {
            "id": 63222,
            "original_name": "Der Nelkenk\u00f6nig",
            "popularity": 1.677
        },
        {
            "id": 122899,
            "original_name": "Death Walker",
            "popularity": 1.545
        }
    ]
}