{
    "data": [
        {
            "id": 57061,
            "original_name": "Bought with Love: The Secret History of British Art Collections",
            "popularity": 0.6
        },
        {
            "id": 113677,
            "original_name": "The History Channel Ultimate Collections: World War II",
            "popularity": 0.6
        }
    ],
    "relations": [],
    "top20": [
        {
            "id": 57061,
            "original_name": "Bought with Love: The Secret History of British Art Collections",
            "popularity": 0.6
        },
        {
            "id": 113677,
            "original_name": "The History Channel Ultimate Collections: World War II",
            "popularity": 0.6
        }
    ]
}