{
    "data": [
        {
            "id": 24560,
            "original_name": "Alleen nog een man",
            "popularity": 0.6
        },
        {
            "id": 28899,
            "original_name": "Millee",
            "popularity": 0.6
        },
        {
            "id": 66225,
            "original_name": "Alleen Elvis blijft bestaan",
            "popularity": 1.136
        },
        {
            "id": 71064,
            "original_name": "Ahornallee",
            "popularity": 0.601
        },
        {
            "id": 75891,
            "original_name": "Alleen op de wereld",
            "popularity": 0.904
        },
        {
            "id": 137629,
            "original_name": "Colleen Stan, la fille dans la bo\u00eete",
            "popularity": 0.6
        }
    ],
    "relations": [],
    "top20": [
        {
            "id": 24560,
            "original_name": "Alleen nog een man",
            "popularity": 0.6
        },
        {
            "id": 28899,
            "original_name": "Millee",
            "popularity": 0.6
        },
        {
            "id": 66225,
            "original_name": "Alleen Elvis blijft bestaan",
            "popularity": 1.136
        },
        {
            "id": 71064,
            "original_name": "Ahornallee",
            "popularity": 0.601
        },
        {
            "id": 75891,
            "original_name": "Alleen op de wereld",
            "popularity": 0.904
        },
        {
            "id": 137629,
            "original_name": "Colleen Stan, la fille dans la bo\u00eete",
            "popularity": 0.6
        }
    ]
}