{
    "data": [
        {
            "id": 16248,
            "original_name": "The CollegeHumor Show",
            "popularity": 0.653
        },
        {
            "id": 49531,
            "original_name": "CollegeHumor Originals",
            "popularity": 0.6
        }
    ],
    "relations": [],
    "top20": [
        {
            "id": 16248,
            "original_name": "The CollegeHumor Show",
            "popularity": 0.653
        },
        {
            "id": 49531,
            "original_name": "CollegeHumor Originals",
            "popularity": 0.6
        }
    ]
}