{
    "data": [
        {
            "id": 113834,
            "original_name": "No Pillowfights",
            "popularity": 1.4
        }
    ],
    "relations": [],
    "top20": [
        {
            "id": 113834,
            "original_name": "No Pillowfights",
            "popularity": 1.4
        }
    ]
}