{
    "data": [
        {
            "id": 3578,
            "original_name": "The Herculoids",
            "popularity": 3.649
        },
        {
            "id": 16520,
            "original_name": "Tabloid Wars",
            "popularity": 0.6
        },
        {
            "id": 28359,
            "original_name": "Tabloid",
            "popularity": 0.6
        },
        {
            "id": 33229,
            "original_name": "Tabloid",
            "popularity": 0.6
        },
        {
            "id": 36009,
            "original_name": "American Tabloid",
            "popularity": 0.6
        },
        {
            "id": 36113,
            "original_name": "The Celluloid World Of Dezmond Rezillo",
            "popularity": 0.6
        },
        {
            "id": 120496,
            "original_name": "The Royals and the Tabloids",
            "popularity": 0.885
        }
    ],
    "relations": [],
    "top20": [
        {
            "id": 3578,
            "original_name": "The Herculoids",
            "popularity": 3.649
        },
        {
            "id": 16520,
            "original_name": "Tabloid Wars",
            "popularity": 0.6
        },
        {
            "id": 28359,
            "original_name": "Tabloid",
            "popularity": 0.6
        },
        {
            "id": 33229,
            "original_name": "Tabloid",
            "popularity": 0.6
        },
        {
            "id": 36009,
            "original_name": "American Tabloid",
            "popularity": 0.6
        },
        {
            "id": 36113,
            "original_name": "The Celluloid World Of Dezmond Rezillo",
            "popularity": 0.6
        },
        {
            "id": 120496,
            "original_name": "The Royals and the Tabloids",
            "popularity": 0.885
        }
    ]
}