{
    "data": [
        {
            "id": 31186,
            "original_name": "Sikat Ka! Iloilo",
            "popularity": 0.6
        }
    ],
    "relations": [],
    "top20": [
        {
            "id": 31186,
            "original_name": "Sikat Ka! Iloilo",
            "popularity": 0.6
        }
    ]
}