{
    "data": [
        {
            "id": 5742,
            "original_name": "Return to Lonesome Dove",
            "popularity": 4.465
        },
        {
            "id": 24974,
            "original_name": "Lonesome Dove: The Outlaw Years",
            "popularity": 3.214
        },
        {
            "id": 25075,
            "original_name": "Lonesome Dove: The Series",
            "popularity": 2.32
        },
        {
            "id": 41692,
            "original_name": "Lonesome Dove",
            "popularity": 12.11
        },
        {
            "id": 59867,
            "original_name": "Mujer con pantalones",
            "popularity": 0.6
        },
        {
            "id": 77420,
            "original_name": "Game of Clones",
            "popularity": 0.6
        },
        {
            "id": 111501,
            "original_name": "Game dos Clones",
            "popularity": 0.84
        }
    ],
    "relations": [],
    "top20": [
        {
            "id": 5742,
            "original_name": "Return to Lonesome Dove",
            "popularity": 4.465
        },
        {
            "id": 24974,
            "original_name": "Lonesome Dove: The Outlaw Years",
            "popularity": 3.214
        },
        {
            "id": 25075,
            "original_name": "Lonesome Dove: The Series",
            "popularity": 2.32
        },
        {
            "id": 41692,
            "original_name": "Lonesome Dove",
            "popularity": 12.11
        },
        {
            "id": 59867,
            "original_name": "Mujer con pantalones",
            "popularity": 0.6
        },
        {
            "id": 77420,
            "original_name": "Game of Clones",
            "popularity": 0.6
        },
        {
            "id": 111501,
            "original_name": "Game dos Clones",
            "popularity": 0.84
        }
    ]
}