{
    "data": [
        {
            "id": 4213,
            "original_name": "Il \u00e9tait une fois\u2026 Les Explorateurs",
            "popularity": 2.129
        },
        {
            "id": 21721,
            "original_name": "Explorations",
            "popularity": 0.6
        },
        {
            "id": 24669,
            "original_name": "Polo, l'explorateur de l'imaginaire",
            "popularity": 0.6
        },
        {
            "id": 25160,
            "original_name": "Sexplorations",
            "popularity": 0.6
        },
        {
            "id": 25586,
            "original_name": "Exploration with Richard Wiese",
            "popularity": 0.6
        },
        {
            "id": 31693,
            "original_name": "Animal Exploration with Jarod Miller",
            "popularity": 0.6
        },
        {
            "id": 57711,
            "original_name": "Jacques Cousteau - River Explorations",
            "popularity": 0.6
        },
        {
            "id": 72245,
            "original_name": "Deep Web Exploration",
            "popularity": 0.6
        },
        {
            "id": 74528,
            "original_name": "Xploration Earth 2050",
            "popularity": 0.84
        },
        {
            "id": 74530,
            "original_name": "Xploration Outer Space",
            "popularity": 1.396
        },
        {
            "id": 77425,
            "original_name": "Les Nouveaux explorateurs",
            "popularity": 0.6
        },
        {
            "id": 93558,
            "original_name": "NASA 50 Years of Space Exploration",
            "popularity": 0.6
        },
        {
            "id": 94701,
            "original_name": "Xploration DIY Sci",
            "popularity": 0.6
        },
        {
            "id": 101039,
            "original_name": "Zenith: Advances in Space Exploration",
            "popularity": 0.6
        },
        {
            "id": 114427,
            "original_name": "Xploration Awesome Planet",
            "popularity": 0.6
        },
        {
            "id": 114595,
            "original_name": "James Cook, l'explorateur du Pacifique",
            "popularity": 0.6
        },
        {
            "id": 115843,
            "original_name": "Terres d'exploration",
            "popularity": 0.662
        },
        {
            "id": 121502,
            "original_name": "Xploration Nature Knows Best",
            "popularity": 0.6
        }
    ],
    "relations": [],
    "top20": [
        {
            "id": 4213,
            "original_name": "Il \u00e9tait une fois\u2026 Les Explorateurs",
            "popularity": 2.129
        },
        {
            "id": 21721,
            "original_name": "Explorations",
            "popularity": 0.6
        },
        {
            "id": 24669,
            "original_name": "Polo, l'explorateur de l'imaginaire",
            "popularity": 0.6
        },
        {
            "id": 25160,
            "original_name": "Sexplorations",
            "popularity": 0.6
        },
        {
            "id": 25586,
            "original_name": "Exploration with Richard Wiese",
            "popularity": 0.6
        },
        {
            "id": 31693,
            "original_name": "Animal Exploration with Jarod Miller",
            "popularity": 0.6
        },
        {
            "id": 57711,
            "original_name": "Jacques Cousteau - River Explorations",
            "popularity": 0.6
        },
        {
            "id": 72245,
            "original_name": "Deep Web Exploration",
            "popularity": 0.6
        },
        {
            "id": 74528,
            "original_name": "Xploration Earth 2050",
            "popularity": 0.84
        },
        {
            "id": 74530,
            "original_name": "Xploration Outer Space",
            "popularity": 1.396
        },
        {
            "id": 77425,
            "original_name": "Les Nouveaux explorateurs",
            "popularity": 0.6
        },
        {
            "id": 93558,
            "original_name": "NASA 50 Years of Space Exploration",
            "popularity": 0.6
        },
        {
            "id": 94701,
            "original_name": "Xploration DIY Sci",
            "popularity": 0.6
        },
        {
            "id": 101039,
            "original_name": "Zenith: Advances in Space Exploration",
            "popularity": 0.6
        },
        {
            "id": 114427,
            "original_name": "Xploration Awesome Planet",
            "popularity": 0.6
        },
        {
            "id": 114595,
            "original_name": "James Cook, l'explorateur du Pacifique",
            "popularity": 0.6
        },
        {
            "id": 115843,
            "original_name": "Terres d'exploration",
            "popularity": 0.662
        },
        {
            "id": 121502,
            "original_name": "Xploration Nature Knows Best",
            "popularity": 0.6
        }
    ]
}