{
    "data": [
        {
            "id": 4213,
            "original_name": "Il \u00e9tait une fois\u2026 Les Explorateurs",
            "popularity": 2.129
        },
        {
            "id": 12680,
            "original_name": "Los ricos tambi\u00e9n lloran",
            "popularity": 2.186
        },
        {
            "id": 13023,
            "original_name": "El Chapul\u00edn Colorado",
            "popularity": 29.612
        },
        {
            "id": 20273,
            "original_name": "Chris Colorado",
            "popularity": 1.091
        },
        {
            "id": 21721,
            "original_name": "Explorations",
            "popularity": 0.6
        },
        {
            "id": 24669,
            "original_name": "Polo, l'explorateur de l'imaginaire",
            "popularity": 0.6
        },
        {
            "id": 25160,
            "original_name": "Sexplorations",
            "popularity": 0.6
        },
        {
            "id": 25586,
            "original_name": "Exploration with Richard Wiese",
            "popularity": 0.6
        },
        {
            "id": 31693,
            "original_name": "Animal Exploration with Jarod Miller",
            "popularity": 0.6
        },
        {
            "id": 37046,
            "original_name": "Family Food Fight with Flora",
            "popularity": 0.6
        },
        {
            "id": 39987,
            "original_name": "exploracise-gymathtics",
            "popularity": 0.6
        },
        {
            "id": 44922,
            "original_name": "Cuando quiero llorar no lloro",
            "popularity": 1.327
        },
        {
            "id": 46722,
            "original_name": "Colorado Shooting",
            "popularity": 0.6
        },
        {
            "id": 57711,
            "original_name": "Jacques Cousteau - River Explorations",
            "popularity": 0.6
        },
        {
            "id": 62551,
            "original_name": "Los Hombres tambi\u00e9n lloran",
            "popularity": 0.6
        },
        {
            "id": 66470,
            "original_name": "Colorado",
            "popularity": 0.6
        },
        {
            "id": 68340,
            "original_name": "El Chapul\u00edn Colorado animado",
            "popularity": 2.894
        },
        {
            "id": 70460,
            "original_name": "Sexplora",
            "popularity": 1.638
        },
        {
            "id": 72245,
            "original_name": "Deep Web Exploration",
            "popularity": 0.6
        },
        {
            "id": 74528,
            "original_name": "Xploration Earth 2050",
            "popularity": 0.84
        },
        {
            "id": 74530,
            "original_name": "Xploration Outer Space",
            "popularity": 1.396
        },
        {
            "id": 75649,
            "original_name": "Mama Flora's Family",
            "popularity": 2.944
        },
        {
            "id": 77425,
            "original_name": "Les Nouveaux explorateurs",
            "popularity": 0.6
        },
        {
            "id": 93558,
            "original_name": "NASA 50 Years of Space Exploration",
            "popularity": 0.6
        },
        {
            "id": 93696,
            "original_name": "Flora y fauna",
            "popularity": 0.6
        },
        {
            "id": 94701,
            "original_name": "Xploration DIY Sci",
            "popularity": 0.6
        },
        {
            "id": 98295,
            "original_name": "Poilorama",
            "popularity": 0.6
        },
        {
            "id": 100478,
            "original_name": "Chapul\u00edn Colorado",
            "popularity": 5.677
        },
        {
            "id": 101039,
            "original_name": "Zenith: Advances in Space Exploration",
            "popularity": 0.6
        },
        {
            "id": 102685,
            "original_name": "Helga y Flora",
            "popularity": 1.785
        },
        {
            "id": 114427,
            "original_name": "Xploration Awesome Planet",
            "popularity": 0.6
        },
        {
            "id": 114595,
            "original_name": "James Cook, l'explorateur du Pacifique",
            "popularity": 0.6
        },
        {
            "id": 115843,
            "original_name": "Terres d'exploration",
            "popularity": 0.662
        },
        {
            "id": 117018,
            "original_name": "Colorado Experience",
            "popularity": 0.788
        },
        {
            "id": 119599,
            "original_name": "Building The Dream Colorado",
            "popularity": 0.6
        },
        {
            "id": 120915,
            "original_name": "Beau in Floradorp",
            "popularity": 0.703
        },
        {
            "id": 121502,
            "original_name": "Xploration Nature Knows Best",
            "popularity": 0.6
        },
        {
            "id": 123946,
            "original_name": "Pour toi Flora",
            "popularity": 0.6
        },
        {
            "id": 133142,
            "original_name": "Heart of the World: Colorado's National Parks",
            "popularity": 0.6
        }
    ],
    "relations": [
        {
            "character": "lorat"
        },
        {
            "character": "loran"
        },
        {
            "character": "lorad"
        },
        {
            "character": "lorac"
        },
        {
            "character": "lorar"
        },
        {
            "character": "loram"
        }
    ],
    "top20": [
        {
            "id": 13023,
            "original_name": "El Chapul\u00edn Colorado",
            "popularity": 29.612
        },
        {
            "id": 100478,
            "original_name": "Chapul\u00edn Colorado",
            "popularity": 5.677
        },
        {
            "id": 75649,
            "original_name": "Mama Flora's Family",
            "popularity": 2.944
        },
        {
            "id": 68340,
            "original_name": "El Chapul\u00edn Colorado animado",
            "popularity": 2.894
        },
        {
            "id": 12680,
            "original_name": "Los ricos tambi\u00e9n lloran",
            "popularity": 2.186
        },
        {
            "id": 4213,
            "original_name": "Il \u00e9tait une fois\u2026 Les Explorateurs",
            "popularity": 2.129
        },
        {
            "id": 102685,
            "original_name": "Helga y Flora",
            "popularity": 1.785
        },
        {
            "id": 70460,
            "original_name": "Sexplora",
            "popularity": 1.638
        },
        {
            "id": 74530,
            "original_name": "Xploration Outer Space",
            "popularity": 1.396
        },
        {
            "id": 44922,
            "original_name": "Cuando quiero llorar no lloro",
            "popularity": 1.327
        },
        {
            "id": 20273,
            "original_name": "Chris Colorado",
            "popularity": 1.091
        },
        {
            "id": 74528,
            "original_name": "Xploration Earth 2050",
            "popularity": 0.84
        },
        {
            "id": 117018,
            "original_name": "Colorado Experience",
            "popularity": 0.788
        },
        {
            "id": 120915,
            "original_name": "Beau in Floradorp",
            "popularity": 0.703
        },
        {
            "id": 115843,
            "original_name": "Terres d'exploration",
            "popularity": 0.662
        },
        {
            "id": 31693,
            "original_name": "Animal Exploration with Jarod Miller",
            "popularity": 0.6
        },
        {
            "id": 21721,
            "original_name": "Explorations",
            "popularity": 0.6
        },
        {
            "id": 25586,
            "original_name": "Exploration with Richard Wiese",
            "popularity": 0.6
        },
        {
            "id": 25160,
            "original_name": "Sexplorations",
            "popularity": 0.6
        },
        {
            "id": 24669,
            "original_name": "Polo, l'explorateur de l'imaginaire",
            "popularity": 0.6
        }
    ]
}