{
    "data": [
        {
            "id": 59964,
            "original_name": "Lotfan Dor Nazanim",
            "popularity": 0.6
        }
    ],
    "relations": [],
    "top20": [
        {
            "id": 59964,
            "original_name": "Lotfan Dor Nazanim",
            "popularity": 0.6
        }
    ]
}