{
    "data": [
        {
            "id": 92178,
            "original_name": "Operation Klotty",
            "popularity": 0.6
        }
    ],
    "relations": [],
    "top20": [
        {
            "id": 92178,
            "original_name": "Operation Klotty",
            "popularity": 0.6
        }
    ]
}