{
    "data": [
        {
            "id": 27075,
            "original_name": "High Adventure with Lowell Thomas",
            "popularity": 0.6
        },
        {
            "id": 29505,
            "original_name": "It's Christopher Lowell",
            "popularity": 2.377
        },
        {
            "id": 45625,
            "original_name": "Interior Motives with Christopher Lowell",
            "popularity": 0.6
        }
    ],
    "relations": [],
    "top20": [
        {
            "id": 27075,
            "original_name": "High Adventure with Lowell Thomas",
            "popularity": 0.6
        },
        {
            "id": 29505,
            "original_name": "It's Christopher Lowell",
            "popularity": 2.377
        },
        {
            "id": 45625,
            "original_name": "Interior Motives with Christopher Lowell",
            "popularity": 0.6
        }
    ]
}