{
    "data": [
        {
            "id": 57446,
            "original_name": "Eurovision laulukilpailu 2011 - Suomen Karsinta",
            "popularity": 0.6
        },
        {
            "id": 120473,
            "original_name": "Uuden Musiikin Kilpailu",
            "popularity": 0.94
        }
    ],
    "relations": [],
    "top20": [
        {
            "id": 57446,
            "original_name": "Eurovision laulukilpailu 2011 - Suomen Karsinta",
            "popularity": 0.6
        },
        {
            "id": 120473,
            "original_name": "Uuden Musiikin Kilpailu",
            "popularity": 0.94
        }
    ]
}