{
    "data": [
        {
            "id": 63286,
            "original_name": "Jack Dee's Election Helpdesk",
            "popularity": 0.6
        }
    ],
    "relations": [],
    "top20": [
        {
            "id": 63286,
            "original_name": "Jack Dee's Election Helpdesk",
            "popularity": 0.6
        }
    ]
}