{
    "data": [
        {
            "id": 4349,
            "original_name": "Melrose Place",
            "popularity": 41.525
        },
        {
            "id": 18109,
            "original_name": "Melrose Place",
            "popularity": 5.709
        },
        {
            "id": 59767,
            "original_name": "Dukes of Melrose",
            "popularity": 0.6
        },
        {
            "id": 72787,
            "original_name": "Patrick Melrose",
            "popularity": 14.944
        }
    ],
    "relations": [],
    "top20": [
        {
            "id": 4349,
            "original_name": "Melrose Place",
            "popularity": 41.525
        },
        {
            "id": 18109,
            "original_name": "Melrose Place",
            "popularity": 5.709
        },
        {
            "id": 59767,
            "original_name": "Dukes of Melrose",
            "popularity": 0.6
        },
        {
            "id": 72787,
            "original_name": "Patrick Melrose",
            "popularity": 14.944
        }
    ]
}