{
    "data": [
        {
            "id": 5931,
            "original_name": "Style with Elsa Klensch",
            "popularity": 0.6
        },
        {
            "id": 35021,
            "original_name": "Bolsaya zadnitsa",
            "popularity": 0.6
        },
        {
            "id": 45130,
            "original_name": "Idea Jalsa",
            "popularity": 0.6
        },
        {
            "id": 46118,
            "original_name": "Salsa e Merengue",
            "popularity": 0.6
        },
        {
            "id": 48092,
            "original_name": "Bir Bulut Olsam",
            "popularity": 0.862
        },
        {
            "id": 48664,
            "original_name": "Ah Polis Olsam",
            "popularity": 0.6
        },
        {
            "id": 49388,
            "original_name": "Ah Bir Zengin Olsam",
            "popularity": 0.6
        },
        {
            "id": 49390,
            "original_name": "Ayr\u0131lsak da Beraberiz",
            "popularity": 2.129
        },
        {
            "id": 49731,
            "original_name": "Ah bir zengin olsam",
            "popularity": 0.6
        },
        {
            "id": 49812,
            "original_name": "Polsat Play",
            "popularity": 0.6
        },
        {
            "id": 50257,
            "original_name": "Cinta Salsabilla",
            "popularity": 0.6
        },
        {
            "id": 52668,
            "original_name": "Diwan AlSabeel",
            "popularity": 0.6
        },
        {
            "id": 54110,
            "original_name": "Mia zoe gia tin Elsa",
            "popularity": 0.6
        },
        {
            "id": 54839,
            "original_name": "Harb Alsanawat Alarba'",
            "popularity": 0.6
        },
        {
            "id": 55155,
            "original_name": "Balsakovskiy Vozrast",
            "popularity": 0.6
        },
        {
            "id": 65512,
            "original_name": "Pulsaciones",
            "popularity": 0.895
        },
        {
            "id": 75178,
            "original_name": "Joseph Balsamo",
            "popularity": 0.946
        },
        {
            "id": 77380,
            "original_name": "Les Alsaciens ou les deux Mathilde",
            "popularity": 1.921
        },
        {
            "id": 82809,
            "original_name": "Falsa identidad",
            "popularity": 162.617
        },
        {
            "id": 87703,
            "original_name": "Beet ElSalayef",
            "popularity": 0.6
        },
        {
            "id": 90646,
            "original_name": "Allsang p\u00e5 grensen",
            "popularity": 1.146
        },
        {
            "id": 110536,
            "original_name": "Marcelo Bielsa, le film",
            "popularity": 0.6
        },
        {
            "id": 121373,
            "original_name": "Tillsammans med Str\u00f6mstedts",
            "popularity": 0.6
        },
        {
            "id": 121378,
            "original_name": "SchicksalsAKTE",
            "popularity": 1.095
        },
        {
            "id": 123805,
            "original_name": "Ayr\u0131lsak da Beraberiz",
            "popularity": 0.6
        },
        {
            "id": 125317,
            "original_name": "La balsamine",
            "popularity": 0.6
        },
        {
            "id": 125647,
            "original_name": "Walibi Belgium presents PULSAR",
            "popularity": 0.6
        },
        {
            "id": 129076,
            "original_name": "Love Elsa",
            "popularity": 0.979
        },
        {
            "id": 135184,
            "original_name": "ORELSAN : Montre jamais \u00e7a \u00e0 personne",
            "popularity": 6.464
        },
        {
            "id": 137086,
            "original_name": "Un sue\u00f1o llamado Salsa",
            "popularity": 1.4
        }
    ],
    "relations": [
        {
            "character": "lsay"
        },
        {
            "character": "lsam"
        },
        {
            "character": "lsak"
        },
        {
            "character": "lsat"
        },
        {
            "character": "lsab"
        },
        {
            "character": "lsan"
        },
        {
            "character": "lsac"
        },
        {
            "character": "lsal"
        },
        {
            "character": "lsar"
        }
    ],
    "top20": [
        {
            "id": 82809,
            "original_name": "Falsa identidad",
            "popularity": 162.617
        },
        {
            "id": 135184,
            "original_name": "ORELSAN : Montre jamais \u00e7a \u00e0 personne",
            "popularity": 6.464
        },
        {
            "id": 49390,
            "original_name": "Ayr\u0131lsak da Beraberiz",
            "popularity": 2.129
        },
        {
            "id": 77380,
            "original_name": "Les Alsaciens ou les deux Mathilde",
            "popularity": 1.921
        },
        {
            "id": 137086,
            "original_name": "Un sue\u00f1o llamado Salsa",
            "popularity": 1.4
        },
        {
            "id": 90646,
            "original_name": "Allsang p\u00e5 grensen",
            "popularity": 1.146
        },
        {
            "id": 121378,
            "original_name": "SchicksalsAKTE",
            "popularity": 1.095
        },
        {
            "id": 129076,
            "original_name": "Love Elsa",
            "popularity": 0.979
        },
        {
            "id": 75178,
            "original_name": "Joseph Balsamo",
            "popularity": 0.946
        },
        {
            "id": 65512,
            "original_name": "Pulsaciones",
            "popularity": 0.895
        },
        {
            "id": 48092,
            "original_name": "Bir Bulut Olsam",
            "popularity": 0.862
        },
        {
            "id": 49388,
            "original_name": "Ah Bir Zengin Olsam",
            "popularity": 0.6
        },
        {
            "id": 48664,
            "original_name": "Ah Polis Olsam",
            "popularity": 0.6
        },
        {
            "id": 50257,
            "original_name": "Cinta Salsabilla",
            "popularity": 0.6
        },
        {
            "id": 46118,
            "original_name": "Salsa e Merengue",
            "popularity": 0.6
        },
        {
            "id": 45130,
            "original_name": "Idea Jalsa",
            "popularity": 0.6
        },
        {
            "id": 5931,
            "original_name": "Style with Elsa Klensch",
            "popularity": 0.6
        },
        {
            "id": 35021,
            "original_name": "Bolsaya zadnitsa",
            "popularity": 0.6
        },
        {
            "id": 49731,
            "original_name": "Ah bir zengin olsam",
            "popularity": 0.6
        },
        {
            "id": 49812,
            "original_name": "Polsat Play",
            "popularity": 0.6
        }
    ]
}