{
    "data": [
        {
            "id": 52523,
            "original_name": "Dedd AlTayyar",
            "popularity": 0.6
        }
    ],
    "relations": [],
    "top20": [
        {
            "id": 52523,
            "original_name": "Dedd AlTayyar",
            "popularity": 0.6
        }
    ]
}