{
    "data": [
        {
            "id": 22814,
            "original_name": "Juanita, la soltera",
            "popularity": 0.6
        },
        {
            "id": 66665,
            "original_name": "Alterados por Pi",
            "popularity": 1.213
        },
        {
            "id": 97937,
            "original_name": "Soltera otra vez",
            "popularity": 5.295
        },
        {
            "id": 124651,
            "original_name": "Alterations",
            "popularity": 0.6
        }
    ],
    "relations": [],
    "top20": [
        {
            "id": 22814,
            "original_name": "Juanita, la soltera",
            "popularity": 0.6
        },
        {
            "id": 66665,
            "original_name": "Alterados por Pi",
            "popularity": 1.213
        },
        {
            "id": 97937,
            "original_name": "Soltera otra vez",
            "popularity": 5.295
        },
        {
            "id": 124651,
            "original_name": "Alterations",
            "popularity": 0.6
        }
    ]
}