{
    "data": [
        {
            "id": 36520,
            "original_name": "Altijd Wat",
            "popularity": 0.6
        },
        {
            "id": 64317,
            "original_name": "Altijd Prijs",
            "popularity": 0.884
        },
        {
            "id": 133185,
            "original_name": "Voor altijd Kampioen!",
            "popularity": 0.6
        },
        {
            "id": 136066,
            "original_name": "Ronnie: Voor Altijd Samen",
            "popularity": 0.6
        }
    ],
    "relations": [],
    "top20": [
        {
            "id": 36520,
            "original_name": "Altijd Wat",
            "popularity": 0.6
        },
        {
            "id": 64317,
            "original_name": "Altijd Prijs",
            "popularity": 0.884
        },
        {
            "id": 133185,
            "original_name": "Voor altijd Kampioen!",
            "popularity": 0.6
        },
        {
            "id": 136066,
            "original_name": "Ronnie: Voor Altijd Samen",
            "popularity": 0.6
        }
    ]
}