{
    "data": [
        {
            "id": 19323,
            "original_name": "Guilty!",
            "popularity": 0.6
        }
    ],
    "relations": [],
    "top20": [
        {
            "id": 19323,
            "original_name": "Guilty!",
            "popularity": 0.6
        }
    ]
}