{
    "data": [
        {
            "id": 20626,
            "original_name": "Luci's Toyshop",
            "popularity": 0.6
        },
        {
            "id": 27970,
            "original_name": "The Lucie Arnaz Show",
            "popularity": 0.602
        },
        {
            "id": 29297,
            "original_name": "Lucia en de liefde",
            "popularity": 0.92
        },
        {
            "id": 33860,
            "original_name": "Mapp & Lucia",
            "popularity": 2.337
        },
        {
            "id": 38874,
            "original_name": "Lucidity",
            "popularity": 0.6
        },
        {
            "id": 60361,
            "original_name": "The Private War of Lucinda Smith",
            "popularity": 0.6
        },
        {
            "id": 63174,
            "original_name": "Lucifer",
            "popularity": 822.867
        },
        {
            "id": 69356,
            "original_name": "Mapp and Lucia",
            "popularity": 2.745
        },
        {
            "id": 78720,
            "original_name": "La revolucion Rusa en color",
            "popularity": 0.6
        },
        {
            "id": 83931,
            "original_name": "45 Revoluciones",
            "popularity": 3.491
        },
        {
            "id": 91919,
            "original_name": "Ctn\u00e1 pan\u00ed Lucie",
            "popularity": 1.4
        },
        {
            "id": 92324,
            "original_name": "La Revoluci\u00f3n Americana",
            "popularity": 0.6
        },
        {
            "id": 93132,
            "original_name": "\u010cert\u00edk Lucifuk",
            "popularity": 0.6
        },
        {
            "id": 94059,
            "original_name": "Kluci v akci",
            "popularity": 2.746
        },
        {
            "id": 96454,
            "original_name": "Papa Luciani, il sorriso di Dio",
            "popularity": 1.236
        },
        {
            "id": 98115,
            "original_name": "Non \u00e9lucid\u00e9",
            "popularity": 0.6
        },
        {
            "id": 103321,
            "original_name": "Kluci ze z\u00e1mku",
            "popularity": 0.6
        },
        {
            "id": 103645,
            "original_name": "Lucinda Brayford",
            "popularity": 0.969
        },
        {
            "id": 113410,
            "original_name": "Lucie. L\u00e4uft doch!",
            "popularity": 0.968
        },
        {
            "id": 115569,
            "original_name": "SanPa: luci e tenebre di San Patrignano",
            "popularity": 8.353
        },
        {
            "id": 117930,
            "original_name": "Un crime \u00e0 \u00e9lucider : l'Affaire Robinson",
            "popularity": 0.6
        },
        {
            "id": 132421,
            "original_name": "Revolucionarne zabave na\u0161ih mladosti",
            "popularity": 1.38
        },
        {
            "id": 137202,
            "original_name": "Las noches de Luciana",
            "popularity": 0.6
        }
    ],
    "relations": [
        {
            "character": "lucie"
        },
        {
            "character": "lucia"
        },
        {
            "character": "lucid"
        },
        {
            "character": "lucin"
        },
        {
            "character": "lucif"
        },
        {
            "character": "lucio"
        }
    ],
    "top20": [
        {
            "id": 63174,
            "original_name": "Lucifer",
            "popularity": 822.867
        },
        {
            "id": 115569,
            "original_name": "SanPa: luci e tenebre di San Patrignano",
            "popularity": 8.353
        },
        {
            "id": 83931,
            "original_name": "45 Revoluciones",
            "popularity": 3.491
        },
        {
            "id": 94059,
            "original_name": "Kluci v akci",
            "popularity": 2.746
        },
        {
            "id": 69356,
            "original_name": "Mapp and Lucia",
            "popularity": 2.745
        },
        {
            "id": 33860,
            "original_name": "Mapp & Lucia",
            "popularity": 2.337
        },
        {
            "id": 91919,
            "original_name": "Ctn\u00e1 pan\u00ed Lucie",
            "popularity": 1.4
        },
        {
            "id": 132421,
            "original_name": "Revolucionarne zabave na\u0161ih mladosti",
            "popularity": 1.38
        },
        {
            "id": 96454,
            "original_name": "Papa Luciani, il sorriso di Dio",
            "popularity": 1.236
        },
        {
            "id": 103645,
            "original_name": "Lucinda Brayford",
            "popularity": 0.969
        },
        {
            "id": 113410,
            "original_name": "Lucie. L\u00e4uft doch!",
            "popularity": 0.968
        },
        {
            "id": 29297,
            "original_name": "Lucia en de liefde",
            "popularity": 0.92
        },
        {
            "id": 27970,
            "original_name": "The Lucie Arnaz Show",
            "popularity": 0.602
        },
        {
            "id": 92324,
            "original_name": "La Revoluci\u00f3n Americana",
            "popularity": 0.6
        },
        {
            "id": 60361,
            "original_name": "The Private War of Lucinda Smith",
            "popularity": 0.6
        },
        {
            "id": 38874,
            "original_name": "Lucidity",
            "popularity": 0.6
        },
        {
            "id": 98115,
            "original_name": "Non \u00e9lucid\u00e9",
            "popularity": 0.6
        },
        {
            "id": 20626,
            "original_name": "Luci's Toyshop",
            "popularity": 0.6
        },
        {
            "id": 93132,
            "original_name": "\u010cert\u00edk Lucifuk",
            "popularity": 0.6
        },
        {
            "id": 78720,
            "original_name": "La revolucion Rusa en color",
            "popularity": 0.6
        }
    ]
}