{
    "data": [
        {
            "id": 138925,
            "original_name": "Ludmilla: Rainha da Favela",
            "popularity": 1.987
        }
    ],
    "relations": [],
    "top20": [
        {
            "id": 138925,
            "original_name": "Ludmilla: Rainha da Favela",
            "popularity": 1.987
        }
    ]
}