{
    "data": [
        {
            "id": 46994,
            "original_name": "Slugterra",
            "popularity": 52.464
        },
        {
            "id": 114434,
            "original_name": "Peter Madsens flugt",
            "popularity": 0.6
        },
        {
            "id": 116657,
            "original_name": "Jaget Vildt: Kendte p\u00e5 Flugt",
            "popularity": 2.923
        }
    ],
    "relations": [],
    "top20": [
        {
            "id": 46994,
            "original_name": "Slugterra",
            "popularity": 52.464
        },
        {
            "id": 114434,
            "original_name": "Peter Madsens flugt",
            "popularity": 0.6
        },
        {
            "id": 116657,
            "original_name": "Jaget Vildt: Kendte p\u00e5 Flugt",
            "popularity": 2.923
        }
    ]
}