{
    "data": [
        {
            "id": 14569,
            "original_name": "Silverwing",
            "popularity": 0.943
        }
    ],
    "relations": [],
    "top20": [
        {
            "id": 14569,
            "original_name": "Silverwing",
            "popularity": 0.943
        }
    ]
}