{
    "data": [
        {
            "id": 63886,
            "original_name": "Der Salzbaron",
            "popularity": 1.4
        },
        {
            "id": 63996,
            "original_name": "Salzburger Nockerln",
            "popularity": 1.34
        },
        {
            "id": 138166,
            "original_name": "Die Toten von Salzburg",
            "popularity": 0.6
        }
    ],
    "relations": [],
    "top20": [
        {
            "id": 63886,
            "original_name": "Der Salzbaron",
            "popularity": 1.4
        },
        {
            "id": 63996,
            "original_name": "Salzburger Nockerln",
            "popularity": 1.34
        },
        {
            "id": 138166,
            "original_name": "Die Toten von Salzburg",
            "popularity": 0.6
        }
    ]
}