{
    "data": [
        {
            "id": 106555,
            "original_name": "ONE DREAM.TXT",
            "popularity": 0.84
        }
    ],
    "relations": [],
    "top20": [
        {
            "id": 106555,
            "original_name": "ONE DREAM.TXT",
            "popularity": 0.84
        }
    ]
}