{
    "data": [
        {
            "id": 932,
            "original_name": "Beast Machines: Transformers",
            "popularity": 7.761
        },
        {
            "id": 1490,
            "original_name": "Time Machine",
            "popularity": 0.6
        },
        {
            "id": 3655,
            "original_name": "The George Michael Sports Machine",
            "popularity": 0.6
        },
        {
            "id": 3759,
            "original_name": "The Magnificent Marble Machine",
            "popularity": 0.6
        },
        {
            "id": 5121,
            "original_name": "Man, Moment, Machine",
            "popularity": 0.6
        },
        {
            "id": 5302,
            "original_name": "Gorgeous Tiny Chicken Machine Show",
            "popularity": 0.6
        },
        {
            "id": 5930,
            "original_name": "The Harlem Globetrotters Popcorn Machine",
            "popularity": 0.6
        },
        {
            "id": 6165,
            "original_name": "Marlo and the Magic Movie Machine",
            "popularity": 0.6
        },
        {
            "id": 7494,
            "original_name": "Dance Machine",
            "popularity": 0.805
        },
        {
            "id": 8472,
            "original_name": "Jeremy Clarkson's Extreme Machines",
            "popularity": 0.6
        },
        {
            "id": 8896,
            "original_name": "The Money Machine",
            "popularity": 0.6
        },
        {
            "id": 9704,
            "original_name": "Machine Robo: Battle Hackers",
            "popularity": 0.6
        },
        {
            "id": 10097,
            "original_name": "Dastardly and Muttley in Their Flying Machines",
            "popularity": 10.592
        },
        {
            "id": 10210,
            "original_name": "VH1 Dance Machine",
            "popularity": 0.6
        },
        {
            "id": 11643,
            "original_name": "Bigfoot and the Muscle Machines",
            "popularity": 0.6
        },
        {
            "id": 11921,
            "original_name": "Mighty Machines",
            "popularity": 0.726
        },
        {
            "id": 12485,
            "original_name": "Mann & Machine",
            "popularity": 2.632
        },
        {
            "id": 13357,
            "original_name": "Billy Bean and His Funny Machine",
            "popularity": 0.6
        },
        {
            "id": 14674,
            "original_name": "The Great American Dream Machine",
            "popularity": 0.6
        },
        {
            "id": 15761,
            "original_name": "Extreme Machines",
            "popularity": 2.61
        },
        {
            "id": 16632,
            "original_name": "Future Fighting Machines",
            "popularity": 0.6
        },
        {
            "id": 16810,
            "original_name": "Machine Robo Rescue",
            "popularity": 2.198
        },
        {
            "id": 17378,
            "original_name": "The Marty Feldman Comedy Machine",
            "popularity": 0.6
        },
        {
            "id": 18824,
            "original_name": "Moon Machines",
            "popularity": 0.6
        },
        {
            "id": 19990,
            "original_name": "Time Machine: The Journey Back",
            "popularity": 0.6
        },
        {
            "id": 20551,
            "original_name": "The Amber Time Machine",
            "popularity": 0.6
        },
        {
            "id": 20645,
            "original_name": "The Spy Machine",
            "popularity": 0.6
        },
        {
            "id": 22925,
            "original_name": "Mean Machines of War",
            "popularity": 0.6
        },
        {
            "id": 25619,
            "original_name": "The Mating Machine",
            "popularity": 0.6
        },
        {
            "id": 25765,
            "original_name": "The Party Machine With Nia Peeples",
            "popularity": 1.852
        },
        {
            "id": 26747,
            "original_name": "The Joke Machine",
            "popularity": 1.127
        },
        {
            "id": 26808,
            "original_name": "Machines of Malice",
            "popularity": 0.6
        },
        {
            "id": 26929,
            "original_name": "The Last Machine",
            "popularity": 0.726
        },
        {
            "id": 29373,
            "original_name": "Mean Green Machines",
            "popularity": 0.6
        },
        {
            "id": 34712,
            "original_name": "The Secret Life of Machines",
            "popularity": 0.6
        },
        {
            "id": 34889,
            "original_name": "The Machine Gunners",
            "popularity": 1.4
        },
        {
            "id": 37369,
            "original_name": "Machines!",
            "popularity": 0.6
        },
        {
            "id": 37860,
            "original_name": "Future Fighting Machines",
            "popularity": 0.6
        },
        {
            "id": 38490,
            "original_name": "Frontline Battle Machines with Mike Brewer",
            "popularity": 0.6
        },
        {
            "id": 44045,
            "original_name": "All Watched Over by Machines of Loving Grace",
            "popularity": 3.356
        },
        {
            "id": 44350,
            "original_name": "Mighty Machines: Revvved Up!",
            "popularity": 0.6
        },
        {
            "id": 44424,
            "original_name": "Mega-Excavators: Machines That Reshape the World",
            "popularity": 0.6
        },
        {
            "id": 45086,
            "original_name": "The Love Machine",
            "popularity": 0.84
        },
        {
            "id": 47968,
            "original_name": "The Gene Machine",
            "popularity": 0.6
        },
        {
            "id": 48097,
            "original_name": "The Dream Machine",
            "popularity": 0.6
        },
        {
            "id": 49357,
            "original_name": "The Hollywood Fashion Machine",
            "popularity": 0.6
        },
        {
            "id": 50096,
            "original_name": "Britain's Greatest Machines With Chris Barrie",
            "popularity": 0.6
        },
        {
            "id": 50181,
            "original_name": "Extreme Machines \u2013 The Need For Speed",
            "popularity": 0.6
        },
        {
            "id": 51470,
            "original_name": "Blood & Iron: The Story of the German War Machine",
            "popularity": 0.6
        },
        {
            "id": 51490,
            "original_name": "Dirty Great Machines",
            "popularity": 0.6
        },
        {
            "id": 51939,
            "original_name": "The Mind of a Leader I Based on Niccol\u00f2 Machiavelli's 'The Prince'",
            "popularity": 0.6
        },
        {
            "id": 55357,
            "original_name": "Machines of Glory",
            "popularity": 0.6
        },
        {
            "id": 55862,
            "original_name": "Machigawarechatta Otoko",
            "popularity": 0.846
        },
        {
            "id": 56150,
            "original_name": "Terminator Salvation: The Machinima Series",
            "popularity": 4.056
        },
        {
            "id": 58678,
            "original_name": "Human Body: Ultimate Machine",
            "popularity": 0.6
        },
        {
            "id": 59716,
            "original_name": "The Party Machine with Nia Peeples",
            "popularity": 0.6
        },
        {
            "id": 59777,
            "original_name": "The Body Machine",
            "popularity": 0.6
        },
        {
            "id": 60398,
            "original_name": "Dream Machines",
            "popularity": 0.6
        },
        {
            "id": 61279,
            "original_name": "Rise of the Machines",
            "popularity": 0.6
        },
        {
            "id": 64198,
            "original_name": "Blaze and the Monster Machines",
            "popularity": 26.173
        },
        {
            "id": 64413,
            "original_name": "Boy Machine",
            "popularity": 0.6
        },
        {
            "id": 65691,
            "original_name": "The Amazing World of War Machines",
            "popularity": 0.6
        },
        {
            "id": 66411,
            "original_name": "Alaska Mega Machines",
            "popularity": 0.6
        },
        {
            "id": 68939,
            "original_name": "Les aventures du Pharmachien",
            "popularity": 3.27
        },
        {
            "id": 73122,
            "original_name": "Killing Machines",
            "popularity": 0.6
        },
        {
            "id": 73522,
            "original_name": "Machines How They Work",
            "popularity": 0.6
        },
        {
            "id": 77418,
            "original_name": "Mega Machines",
            "popularity": 0.882
        },
        {
            "id": 85406,
            "original_name": "21st Century War Machines",
            "popularity": 0.6
        },
        {
            "id": 89618,
            "original_name": "Inside Mighty Machines",
            "popularity": 0.6
        },
        {
            "id": 90070,
            "original_name": "Machine Gun: History Down the Barrel of a Gun",
            "popularity": 0.6
        },
        {
            "id": 95297,
            "original_name": "War Machines - Welt der Waffen",
            "popularity": 0.6
        },
        {
            "id": 96669,
            "original_name": "Nazi War Machines: Secrets Uncovered",
            "popularity": 1.145
        },
        {
            "id": 97217,
            "original_name": "Hitler's Propaganda Machine",
            "popularity": 0.6
        },
        {
            "id": 97221,
            "original_name": "Inside Hitler's Killing Machine",
            "popularity": 0.6
        },
        {
            "id": 98551,
            "original_name": "Machines de combat",
            "popularity": 0.6
        },
        {
            "id": 98863,
            "original_name": "Gorillaz present Song Machine",
            "popularity": 3.02
        },
        {
            "id": 98879,
            "original_name": "Machinery of War",
            "popularity": 1.387
        },
        {
            "id": 99987,
            "original_name": "Eine Zeitreise: Die Europe Time Machine",
            "popularity": 0.6
        },
        {
            "id": 100908,
            "original_name": "Mega Machines: Sea Giants",
            "popularity": 0.6
        },
        {
            "id": 101397,
            "original_name": "Catie's Amazing Machines",
            "popularity": 1.4
        },
        {
            "id": 101399,
            "original_name": "Grace's Amazing Machines",
            "popularity": 1.4
        },
        {
            "id": 102644,
            "original_name": "Sword, Musket & Machine Gun: Britain's Armed History",
            "popularity": 0.6
        },
        {
            "id": 104251,
            "original_name": "Inside Hitler's kiilling machine",
            "popularity": 0.6
        },
        {
            "id": 104295,
            "original_name": "Chris Barrie's Massive Machines",
            "popularity": 0.6
        },
        {
            "id": 104361,
            "original_name": "Blood Machines",
            "popularity": 2.379
        },
        {
            "id": 106194,
            "original_name": "Andr\u00e9 van Duin\u2019s Pretmachine",
            "popularity": 0.6
        },
        {
            "id": 107833,
            "original_name": "Eaten By an Escalator: When Machines Bite Back",
            "popularity": 0.6
        },
        {
            "id": 110730,
            "original_name": "Extreme Ice Machines",
            "popularity": 1.006
        },
        {
            "id": 111715,
            "original_name": "Song Machine Radio",
            "popularity": 0.6
        },
        {
            "id": 114842,
            "original_name": "Time Machine",
            "popularity": 0.6
        },
        {
            "id": 118165,
            "original_name": "Talks Machina",
            "popularity": 11.198
        },
        {
            "id": 119460,
            "original_name": "Mega Marine Machines",
            "popularity": 0.6
        },
        {
            "id": 119533,
            "original_name": "War Machines",
            "popularity": 0.6
        },
        {
            "id": 124142,
            "original_name": "Love Machine The Series",
            "popularity": 0.6
        },
        {
            "id": 125881,
            "original_name": "Hit Machine",
            "popularity": 2.054
        },
        {
            "id": 126943,
            "original_name": "The Machines That Built America",
            "popularity": 5.625
        },
        {
            "id": 130975,
            "original_name": "Machine & Machinette",
            "popularity": 0.6
        },
        {
            "id": 131276,
            "original_name": "Chiyu Mahou no Machigatta Tsukaikata",
            "popularity": 1.34
        },
        {
            "id": 132170,
            "original_name": "The Machines That Built America: Snack Sized",
            "popularity": 0.6
        },
        {
            "id": 133087,
            "original_name": "Max & Billy's Drill Machine Girl",
            "popularity": 0.6
        },
        {
            "id": 134290,
            "original_name": "The Machine",
            "popularity": 0.6
        },
        {
            "id": 135345,
            "original_name": "Adrift | A Star Citizen Machinima",
            "popularity": 0.84
        },
        {
            "id": 135934,
            "original_name": "The Legend of Vox Machina",
            "popularity": 2.654
        },
        {
            "id": 139393,
            "original_name": "Dance Machine",
            "popularity": 0.6
        },
        {
            "id": 152501,
            "original_name": "Tobidase! Machine Hiryuu",
            "popularity": 1.21
        }
    ],
    "relations": [
        {
            "character": "machin"
        },
        {
            "character": "machia"
        },
        {
            "character": "machig"
        },
        {
            "character": "machie"
        }
    ],
    "top20": [
        {
            "id": 64198,
            "original_name": "Blaze and the Monster Machines",
            "popularity": 26.173
        },
        {
            "id": 118165,
            "original_name": "Talks Machina",
            "popularity": 11.198
        },
        {
            "id": 10097,
            "original_name": "Dastardly and Muttley in Their Flying Machines",
            "popularity": 10.592
        },
        {
            "id": 932,
            "original_name": "Beast Machines: Transformers",
            "popularity": 7.761
        },
        {
            "id": 126943,
            "original_name": "The Machines That Built America",
            "popularity": 5.625
        },
        {
            "id": 56150,
            "original_name": "Terminator Salvation: The Machinima Series",
            "popularity": 4.056
        },
        {
            "id": 44045,
            "original_name": "All Watched Over by Machines of Loving Grace",
            "popularity": 3.356
        },
        {
            "id": 68939,
            "original_name": "Les aventures du Pharmachien",
            "popularity": 3.27
        },
        {
            "id": 98863,
            "original_name": "Gorillaz present Song Machine",
            "popularity": 3.02
        },
        {
            "id": 135934,
            "original_name": "The Legend of Vox Machina",
            "popularity": 2.654
        },
        {
            "id": 12485,
            "original_name": "Mann & Machine",
            "popularity": 2.632
        },
        {
            "id": 15761,
            "original_name": "Extreme Machines",
            "popularity": 2.61
        },
        {
            "id": 104361,
            "original_name": "Blood Machines",
            "popularity": 2.379
        },
        {
            "id": 16810,
            "original_name": "Machine Robo Rescue",
            "popularity": 2.198
        },
        {
            "id": 125881,
            "original_name": "Hit Machine",
            "popularity": 2.054
        },
        {
            "id": 25765,
            "original_name": "The Party Machine With Nia Peeples",
            "popularity": 1.852
        },
        {
            "id": 34889,
            "original_name": "The Machine Gunners",
            "popularity": 1.4
        },
        {
            "id": 101399,
            "original_name": "Grace's Amazing Machines",
            "popularity": 1.4
        },
        {
            "id": 101397,
            "original_name": "Catie's Amazing Machines",
            "popularity": 1.4
        },
        {
            "id": 98879,
            "original_name": "Machinery of War",
            "popularity": 1.387
        }
    ]
}