{
    "data": [
        {
            "id": 627,
            "original_name": "Science Magazine",
            "popularity": 0.6
        },
        {
            "id": 4833,
            "original_name": "Fox Magazine",
            "popularity": 0.6
        },
        {
            "id": 6282,
            "original_name": "Evening Magazine",
            "popularity": 0.6
        },
        {
            "id": 11323,
            "original_name": "WRC Rally Magazine",
            "popularity": 0.6
        },
        {
            "id": 11412,
            "original_name": "In Focus: Siskiyou Magazine",
            "popularity": 0.6
        },
        {
            "id": 12087,
            "original_name": "PM Magazine",
            "popularity": 0.6
        },
        {
            "id": 13251,
            "original_name": "EPCOT Magazine",
            "popularity": 0.6
        },
        {
            "id": 15485,
            "original_name": "CBC News Magazine",
            "popularity": 0.6
        },
        {
            "id": 16162,
            "original_name": "Magazine Culturel",
            "popularity": 0.6
        },
        {
            "id": 16177,
            "original_name": "Discover Magazine",
            "popularity": 0.84
        },
        {
            "id": 16741,
            "original_name": "Nets Magazine",
            "popularity": 0.6
        },
        {
            "id": 17861,
            "original_name": "Yankees Magazine",
            "popularity": 0.6
        },
        {
            "id": 20798,
            "original_name": "Weekend Magazine",
            "popularity": 0.6
        },
        {
            "id": 21066,
            "original_name": "Television Screen Magazine",
            "popularity": 0.6
        },
        {
            "id": 21448,
            "original_name": "CE News Magazine",
            "popularity": 0.6
        },
        {
            "id": 26854,
            "original_name": "Jackie Gleason and His American Scene Magazine",
            "popularity": 4.308
        },
        {
            "id": 28243,
            "original_name": "Road Test Magazine",
            "popularity": 0.6
        },
        {
            "id": 29936,
            "original_name": "Magazine",
            "popularity": 0.6
        },
        {
            "id": 30709,
            "original_name": "Money Magazine",
            "popularity": 0.6
        },
        {
            "id": 34979,
            "original_name": "Junior Magazine",
            "popularity": 0.6
        },
        {
            "id": 35479,
            "original_name": "Black Jack Motion Magazine",
            "popularity": 0.6
        },
        {
            "id": 35480,
            "original_name": "Astro Boy Motion Magazine",
            "popularity": 0.6
        },
        {
            "id": 35481,
            "original_name": "Phoenix Motion Magazine",
            "popularity": 0.6
        },
        {
            "id": 37329,
            "original_name": "RTL Snowmagazine",
            "popularity": 0.6
        },
        {
            "id": 39885,
            "original_name": "Movie Magazine",
            "popularity": 0.6
        },
        {
            "id": 41426,
            "original_name": "Hank Parker's Outdoor Magazine",
            "popularity": 0.6
        },
        {
            "id": 41452,
            "original_name": "Lifestyle Magazine",
            "popularity": 0.6
        },
        {
            "id": 41768,
            "original_name": "The Dub Magazine Project",
            "popularity": 0.6
        },
        {
            "id": 45361,
            "original_name": "T: The New York Times Style Magazine",
            "popularity": 0.6
        },
        {
            "id": 45786,
            "original_name": "Hour Magazine",
            "popularity": 0.6
        },
        {
            "id": 46361,
            "original_name": "ABC Minute Magazine",
            "popularity": 0.6
        },
        {
            "id": 56638,
            "original_name": "Magazine of the Week",
            "popularity": 0.6
        },
        {
            "id": 75673,
            "original_name": "Paper Giants: Magazine Wars",
            "popularity": 1.4
        },
        {
            "id": 76458,
            "original_name": "People Magazine Investigates",
            "popularity": 5.94
        },
        {
            "id": 82909,
            "original_name": "Gato Fedorento  - Diz que \u00e9 uma Esp\u00e9cie de Magazine",
            "popularity": 1.083
        },
        {
            "id": 88217,
            "original_name": "La vie n'est pas un magazine",
            "popularity": 1.4
        },
        {
            "id": 90634,
            "original_name": "People Magazine Investigates: Cults",
            "popularity": 0.86
        },
        {
            "id": 125842,
            "original_name": "People Magazine Investigates: Crimes of Fashion",
            "popularity": 0.6
        },
        {
            "id": 130131,
            "original_name": "BiTS, magazine presque culte",
            "popularity": 0.6
        }
    ],
    "relations": [],
    "top20": [
        {
            "id": 76458,
            "original_name": "People Magazine Investigates",
            "popularity": 5.94
        },
        {
            "id": 26854,
            "original_name": "Jackie Gleason and His American Scene Magazine",
            "popularity": 4.308
        },
        {
            "id": 88217,
            "original_name": "La vie n'est pas un magazine",
            "popularity": 1.4
        },
        {
            "id": 75673,
            "original_name": "Paper Giants: Magazine Wars",
            "popularity": 1.4
        },
        {
            "id": 82909,
            "original_name": "Gato Fedorento  - Diz que \u00e9 uma Esp\u00e9cie de Magazine",
            "popularity": 1.083
        },
        {
            "id": 90634,
            "original_name": "People Magazine Investigates: Cults",
            "popularity": 0.86
        },
        {
            "id": 16177,
            "original_name": "Discover Magazine",
            "popularity": 0.84
        },
        {
            "id": 17861,
            "original_name": "Yankees Magazine",
            "popularity": 0.6
        },
        {
            "id": 11412,
            "original_name": "In Focus: Siskiyou Magazine",
            "popularity": 0.6
        },
        {
            "id": 627,
            "original_name": "Science Magazine",
            "popularity": 0.6
        },
        {
            "id": 4833,
            "original_name": "Fox Magazine",
            "popularity": 0.6
        },
        {
            "id": 11323,
            "original_name": "WRC Rally Magazine",
            "popularity": 0.6
        },
        {
            "id": 16162,
            "original_name": "Magazine Culturel",
            "popularity": 0.6
        },
        {
            "id": 13251,
            "original_name": "EPCOT Magazine",
            "popularity": 0.6
        },
        {
            "id": 29936,
            "original_name": "Magazine",
            "popularity": 0.6
        },
        {
            "id": 21066,
            "original_name": "Television Screen Magazine",
            "popularity": 0.6
        },
        {
            "id": 15485,
            "original_name": "CBC News Magazine",
            "popularity": 0.6
        },
        {
            "id": 20798,
            "original_name": "Weekend Magazine",
            "popularity": 0.6
        },
        {
            "id": 12087,
            "original_name": "PM Magazine",
            "popularity": 0.6
        },
        {
            "id": 16741,
            "original_name": "Nets Magazine",
            "popularity": 0.6
        }
    ]
}