{
    "data": [
        {
            "id": 63388,
            "original_name": "Geheimagent Tegtmeier",
            "popularity": 0.6
        },
        {
            "id": 98558,
            "original_name": "Magenta",
            "popularity": 0.6
        },
        {
            "id": 105570,
            "original_name": "Imagens da Hist\u00f3ria",
            "popularity": 0.6
        },
        {
            "id": 138793,
            "original_name": "Imagens do Estado Novo 1937-45 (2015) Vers\u00e3o Seriada",
            "popularity": 0.6
        }
    ],
    "relations": [],
    "top20": [
        {
            "id": 63388,
            "original_name": "Geheimagent Tegtmeier",
            "popularity": 0.6
        },
        {
            "id": 98558,
            "original_name": "Magenta",
            "popularity": 0.6
        },
        {
            "id": 105570,
            "original_name": "Imagens da Hist\u00f3ria",
            "popularity": 0.6
        },
        {
            "id": 138793,
            "original_name": "Imagens do Estado Novo 1937-45 (2015) Vers\u00e3o Seriada",
            "popularity": 0.6
        }
    ]
}