{
    "data": [
        {
            "id": 2040,
            "original_name": "Spitting Image",
            "popularity": 7.445
        },
        {
            "id": 4920,
            "original_name": "Damages",
            "popularity": 19.591
        },
        {
            "id": 7433,
            "original_name": "Reviewmageddon",
            "popularity": 0.6
        },
        {
            "id": 12372,
            "original_name": "Damage Control",
            "popularity": 0.754
        },
        {
            "id": 17527,
            "original_name": "Animal Armageddon",
            "popularity": 0.6
        },
        {
            "id": 18302,
            "original_name": "Fromage",
            "popularity": 0.6
        },
        {
            "id": 20105,
            "original_name": "Scholastic Scrimmage",
            "popularity": 0.6
        },
        {
            "id": 21252,
            "original_name": "Pilgrimage",
            "popularity": 0.6
        },
        {
            "id": 25230,
            "original_name": "NAACP Image Awards",
            "popularity": 0.6
        },
        {
            "id": 26520,
            "original_name": "Avoiding Armageddon",
            "popularity": 0.6
        },
        {
            "id": 28436,
            "original_name": "Mooney And Magee",
            "popularity": 0.6
        },
        {
            "id": 28959,
            "original_name": "Body Image",
            "popularity": 0.6
        },
        {
            "id": 42932,
            "original_name": "The important thing to Mage",
            "popularity": 0.6
        },
        {
            "id": 43836,
            "original_name": "The Real Magees",
            "popularity": 0.6
        },
        {
            "id": 48844,
            "original_name": "Screenwriters: Words Into Image",
            "popularity": 0.6
        },
        {
            "id": 56030,
            "original_name": "Pilgrimage of Wealth",
            "popularity": 0.6
        },
        {
            "id": 58004,
            "original_name": "Hamagefa",
            "popularity": 0.6
        },
        {
            "id": 58944,
            "original_name": "Pilgrimage of Wealth 2",
            "popularity": 0.6
        },
        {
            "id": 59040,
            "original_name": "Spell-Mageddon",
            "popularity": 0.627
        },
        {
            "id": 59502,
            "original_name": "Images of Canada",
            "popularity": 0.6
        },
        {
            "id": 59760,
            "original_name": "First Ladies: Influence & Image",
            "popularity": 0.6
        },
        {
            "id": 63388,
            "original_name": "Geheimagent Tegtmeier",
            "popularity": 0.6
        },
        {
            "id": 64813,
            "original_name": "Commissaire Magellan",
            "popularity": 4.074
        },
        {
            "id": 65247,
            "original_name": "Marvel's Damage Control",
            "popularity": 0.6
        },
        {
            "id": 67799,
            "original_name": "Gold: The Web Series That Does Double Damage",
            "popularity": 0.806
        },
        {
            "id": 77478,
            "original_name": "La Guerre du Vietnam - images inconnues",
            "popularity": 1.4
        },
        {
            "id": 79404,
            "original_name": "Magere Zeiten",
            "popularity": 1.078
        },
        {
            "id": 81202,
            "original_name": "Damaged",
            "popularity": 0.949
        },
        {
            "id": 83094,
            "original_name": "Die Magermilchbande",
            "popularity": 1.164
        },
        {
            "id": 84955,
            "original_name": "Airmageddon",
            "popularity": 0.849
        },
        {
            "id": 88534,
            "original_name": "Adam's Pasta Pilgrimage",
            "popularity": 0.6
        },
        {
            "id": 95399,
            "original_name": "Battle Damage",
            "popularity": 0.6
        },
        {
            "id": 98558,
            "original_name": "Magenta",
            "popularity": 0.6
        },
        {
            "id": 98802,
            "original_name": "39-40 : La Guerre des Images",
            "popularity": 0.6
        },
        {
            "id": 100397,
            "original_name": "Age of the Image",
            "popularity": 0.935
        },
        {
            "id": 101506,
            "original_name": "Pilgrimage: The Road to Istanbul",
            "popularity": 0.965
        },
        {
            "id": 105570,
            "original_name": "Imagens da Hist\u00f3ria",
            "popularity": 0.6
        },
        {
            "id": 110982,
            "original_name": "Spitting Image",
            "popularity": 5.65
        },
        {
            "id": 115992,
            "original_name": "The Damage Report with John Iadarola",
            "popularity": 28.64
        },
        {
            "id": 116027,
            "original_name": "Umage",
            "popularity": 6.5
        },
        {
            "id": 118028,
            "original_name": "Dan Cruickshank On The Road To Armageddon",
            "popularity": 0.6
        },
        {
            "id": 125165,
            "original_name": "Eva Braun, images intimes",
            "popularity": 0.805
        },
        {
            "id": 128680,
            "original_name": "Aggressiv Amager",
            "popularity": 0.6
        },
        {
            "id": 132784,
            "original_name": "Pilgrimage with Simon Reeve",
            "popularity": 0.6
        },
        {
            "id": 133978,
            "original_name": "Spitting Image: The Krauts' Edition",
            "popularity": 1.235
        },
        {
            "id": 135696,
            "original_name": "SINNLICH KOCHEN - EINE HOMMAGE ANS LEBEN",
            "popularity": 0.815
        },
        {
            "id": 138793,
            "original_name": "Imagens do Estado Novo 1937-45 (2015) Vers\u00e3o Seriada",
            "popularity": 0.6
        },
        {
            "id": 139505,
            "original_name": "Amagermanden",
            "popularity": 2.611
        },
        {
            "id": 139621,
            "original_name": "Camille & Images",
            "popularity": 10.704
        }
    ],
    "relations": [
        {
            "character": "mages"
        },
        {
            "character": "maged"
        },
        {
            "character": "magee"
        },
        {
            "character": "magef"
        },
        {
            "character": "magen"
        },
        {
            "character": "magel"
        },
        {
            "character": "mager"
        }
    ],
    "top20": [
        {
            "id": 115992,
            "original_name": "The Damage Report with John Iadarola",
            "popularity": 28.64
        },
        {
            "id": 4920,
            "original_name": "Damages",
            "popularity": 19.591
        },
        {
            "id": 139621,
            "original_name": "Camille & Images",
            "popularity": 10.704
        },
        {
            "id": 2040,
            "original_name": "Spitting Image",
            "popularity": 7.445
        },
        {
            "id": 116027,
            "original_name": "Umage",
            "popularity": 6.5
        },
        {
            "id": 110982,
            "original_name": "Spitting Image",
            "popularity": 5.65
        },
        {
            "id": 64813,
            "original_name": "Commissaire Magellan",
            "popularity": 4.074
        },
        {
            "id": 139505,
            "original_name": "Amagermanden",
            "popularity": 2.611
        },
        {
            "id": 77478,
            "original_name": "La Guerre du Vietnam - images inconnues",
            "popularity": 1.4
        },
        {
            "id": 133978,
            "original_name": "Spitting Image: The Krauts' Edition",
            "popularity": 1.235
        },
        {
            "id": 83094,
            "original_name": "Die Magermilchbande",
            "popularity": 1.164
        },
        {
            "id": 79404,
            "original_name": "Magere Zeiten",
            "popularity": 1.078
        },
        {
            "id": 101506,
            "original_name": "Pilgrimage: The Road to Istanbul",
            "popularity": 0.965
        },
        {
            "id": 81202,
            "original_name": "Damaged",
            "popularity": 0.949
        },
        {
            "id": 100397,
            "original_name": "Age of the Image",
            "popularity": 0.935
        },
        {
            "id": 84955,
            "original_name": "Airmageddon",
            "popularity": 0.849
        },
        {
            "id": 135696,
            "original_name": "SINNLICH KOCHEN - EINE HOMMAGE ANS LEBEN",
            "popularity": 0.815
        },
        {
            "id": 67799,
            "original_name": "Gold: The Web Series That Does Double Damage",
            "popularity": 0.806
        },
        {
            "id": 125165,
            "original_name": "Eva Braun, images intimes",
            "popularity": 0.805
        },
        {
            "id": 12372,
            "original_name": "Damage Control",
            "popularity": 0.754
        }
    ]
}