{
    "data": [
        {
            "id": 29716,
            "original_name": "\u30a2\u30f3\u30c9\u30ed\u30a4\u30c9\u30fb\u30a2\u30ca MAICO 2010",
            "popularity": 0.841
        },
        {
            "id": 32455,
            "original_name": "Jamaica Inn",
            "popularity": 0.84
        },
        {
            "id": 34462,
            "original_name": "Smile Jamaica",
            "popularity": 0.6
        },
        {
            "id": 58327,
            "original_name": "Boxing From Jamaica Arena",
            "popularity": 0.6
        },
        {
            "id": 61245,
            "original_name": "Jamaica Inn",
            "popularity": 3.761
        }
    ],
    "relations": [],
    "top20": [
        {
            "id": 29716,
            "original_name": "\u30a2\u30f3\u30c9\u30ed\u30a4\u30c9\u30fb\u30a2\u30ca MAICO 2010",
            "popularity": 0.841
        },
        {
            "id": 32455,
            "original_name": "Jamaica Inn",
            "popularity": 0.84
        },
        {
            "id": 34462,
            "original_name": "Smile Jamaica",
            "popularity": 0.6
        },
        {
            "id": 58327,
            "original_name": "Boxing From Jamaica Arena",
            "popularity": 0.6
        },
        {
            "id": 61245,
            "original_name": "Jamaica Inn",
            "popularity": 3.761
        }
    ]
}