{
    "data": [
        {
            "id": 274,
            "original_name": "Majika",
            "popularity": 0.6
        },
        {
            "id": 1893,
            "original_name": "Major League Baseball on CBS",
            "popularity": 0.6
        },
        {
            "id": 3047,
            "original_name": "ESPN Major League Baseball",
            "popularity": 0.6
        },
        {
            "id": 3064,
            "original_name": "30 p\u0159\u00edpad\u016f majora Zemana",
            "popularity": 1.114
        },
        {
            "id": 3484,
            "original_name": "Major Dad",
            "popularity": 8.203
        },
        {
            "id": 5215,
            "original_name": "ESPN Major League Soccer",
            "popularity": 0.6
        },
        {
            "id": 6620,
            "original_name": "Major League Baseball on ABC",
            "popularity": 0.6
        },
        {
            "id": 6624,
            "original_name": "Major League Baseball on NBC",
            "popularity": 0.6
        },
        {
            "id": 6776,
            "original_name": "Major League Baseball Game of the Week",
            "popularity": 0.6
        },
        {
            "id": 10689,
            "original_name": "Major League Baseball: An Inside Look",
            "popularity": 0.6
        },
        {
            "id": 16637,
            "original_name": "Major Astro",
            "popularity": 0.6
        },
        {
            "id": 17954,
            "original_name": "Major Dell Conway of the Flying Tigers",
            "popularity": 0.6
        },
        {
            "id": 19385,
            "original_name": "History of the Major League Baseball Game of the Week",
            "popularity": 0.6
        },
        {
            "id": 19715,
            "original_name": "Live From Her Majesty's",
            "popularity": 0.6
        },
        {
            "id": 19828,
            "original_name": "Apna Hi Ghar Samajhiye",
            "popularity": 0.6
        },
        {
            "id": 20306,
            "original_name": "Shima Shima Tora no Shimajir\u014d",
            "popularity": 0.878
        },
        {
            "id": 23633,
            "original_name": "The Gospel of Music with Jeff Majors",
            "popularity": 0.6
        },
        {
            "id": 23922,
            "original_name": "Major League Gaming",
            "popularity": 0.6
        },
        {
            "id": 24237,
            "original_name": "Majority Rule",
            "popularity": 0.6
        },
        {
            "id": 29669,
            "original_name": "Major League Remodel",
            "popularity": 0.6
        },
        {
            "id": 30578,
            "original_name": "Her Majesty's Pleasure",
            "popularity": 1.4
        },
        {
            "id": 33741,
            "original_name": "New Majority",
            "popularity": 0.6
        },
        {
            "id": 34866,
            "original_name": "Mr. Majeika",
            "popularity": 0.654
        },
        {
            "id": 36186,
            "original_name": "Majka",
            "popularity": 1.192
        },
        {
            "id": 37563,
            "original_name": "Major League Wrestling: Underground TV",
            "popularity": 0.6
        },
        {
            "id": 37671,
            "original_name": "Majority Rules!",
            "popularity": 1.198
        },
        {
            "id": 38173,
            "original_name": "Ponti Anak Remaja",
            "popularity": 0.6
        },
        {
            "id": 39134,
            "original_name": "Majors & Minors",
            "popularity": 1.126
        },
        {
            "id": 39483,
            "original_name": "Major Crimes",
            "popularity": 27.009
        },
        {
            "id": 39577,
            "original_name": "Ammaji Ki Galli",
            "popularity": 0.6
        },
        {
            "id": 43338,
            "original_name": "LasseMajas detektivbyr\u00e5",
            "popularity": 0.878
        },
        {
            "id": 45933,
            "original_name": "Majotachi no 22 ji",
            "popularity": 0.6
        },
        {
            "id": 48906,
            "original_name": "Szymon Majewski show",
            "popularity": 0.6
        },
        {
            "id": 50595,
            "original_name": "Majurat See Nam Pueng",
            "popularity": 0.6
        },
        {
            "id": 50853,
            "original_name": "Majurat See Nam Pueng",
            "popularity": 0.6
        },
        {
            "id": 50854,
            "original_name": "Majurat See Nam Pueng",
            "popularity": 0.6
        },
        {
            "id": 50855,
            "original_name": "Majurat See Nam Pueng",
            "popularity": 0.6
        },
        {
            "id": 51254,
            "original_name": "Maj & Charlie",
            "popularity": 0.6
        },
        {
            "id": 52480,
            "original_name": "Romantika Remaja",
            "popularity": 0.6
        },
        {
            "id": 53750,
            "original_name": "Majken",
            "popularity": 0.657
        },
        {
            "id": 53803,
            "original_name": "Pengantin Remaja",
            "popularity": 0.6
        },
        {
            "id": 54014,
            "original_name": "Cinta Anak Majikan",
            "popularity": 0.6
        },
        {
            "id": 55683,
            "original_name": "Majumder Manor",
            "popularity": 0.6
        },
        {
            "id": 55752,
            "original_name": "Her Majesty's Prison: Aylesbury",
            "popularity": 0.6
        },
        {
            "id": 59187,
            "original_name": "Majoria Absoluta",
            "popularity": 2.493
        },
        {
            "id": 61740,
            "original_name": "Die Biene Maja",
            "popularity": 9.816
        },
        {
            "id": 61802,
            "original_name": "Ramajetterne",
            "popularity": 1.096
        },
        {
            "id": 62744,
            "original_name": "Major Lazer",
            "popularity": 1.4
        },
        {
            "id": 71438,
            "original_name": "The Detectives: Inside the Major Crimes Team",
            "popularity": 0.666
        },
        {
            "id": 75256,
            "original_name": "Aadat Se Majboor",
            "popularity": 0.6
        },
        {
            "id": 76279,
            "original_name": "Mahkota Majapahit",
            "popularity": 1.4
        },
        {
            "id": 76415,
            "original_name": "Alpimaja",
            "popularity": 0.6
        },
        {
            "id": 76957,
            "original_name": "Layla Majnun",
            "popularity": 0.6
        },
        {
            "id": 77941,
            "original_name": "Iron Majdan",
            "popularity": 0.6
        },
        {
            "id": 82392,
            "original_name": "Ramajetternes jul",
            "popularity": 3.335
        },
        {
            "id": 85066,
            "original_name": "Heaters of Major Sokolov",
            "popularity": 0.6
        },
        {
            "id": 85816,
            "original_name": "Str\u00e1\u017emajster Topinka",
            "popularity": 1.395
        },
        {
            "id": 86590,
            "original_name": "Majide! Japan X",
            "popularity": 0.6
        },
        {
            "id": 87685,
            "original_name": "TAOMAJ",
            "popularity": 0.6
        },
        {
            "id": 92943,
            "original_name": "Autiste, bient\u00f4t majeur",
            "popularity": 0.673
        },
        {
            "id": 98439,
            "original_name": "Les \u00celes de sa majest\u00e9",
            "popularity": 0.6
        },
        {
            "id": 102683,
            "original_name": "Majalah 3",
            "popularity": 0.6
        },
        {
            "id": 103363,
            "original_name": "Szale\u0144stwo Majki Skowron",
            "popularity": 0.875
        },
        {
            "id": 106383,
            "original_name": "Greh njene majke",
            "popularity": 0.6
        },
        {
            "id": 106747,
            "original_name": "Stormsk\u00e4rs Maja",
            "popularity": 0.6
        },
        {
            "id": 107698,
            "original_name": "Objavy Majstra N",
            "popularity": 0.6
        },
        {
            "id": 108497,
            "original_name": "Autiste, maintenant majeur",
            "popularity": 0.723
        },
        {
            "id": 108908,
            "original_name": "Rannamaja",
            "popularity": 0.6
        },
        {
            "id": 112137,
            "original_name": "Rannamaja Raju Reede",
            "popularity": 0.6
        },
        {
            "id": 113680,
            "original_name": "The Fight for Freedom Major Battles of WWII",
            "popularity": 0.6
        },
        {
            "id": 115266,
            "original_name": "LasseMajas Detektivbyr\u00e5",
            "popularity": 1.796
        },
        {
            "id": 118897,
            "original_name": "Sex med Maja",
            "popularity": 4.666
        },
        {
            "id": 130064,
            "original_name": "Majesty and Mortar: Britain's Great Palaces",
            "popularity": 0.6
        },
        {
            "id": 131443,
            "original_name": "Penelope Keith at Her Majesty's Service",
            "popularity": 0.6
        }
    ],
    "relations": [
        {
            "character": "maji"
        },
        {
            "character": "majo"
        },
        {
            "character": "maje"
        },
        {
            "character": "majh"
        },
        {
            "character": "majk"
        },
        {
            "character": "maja"
        },
        {
            "character": "maju"
        },
        {
            "character": "majb"
        },
        {
            "character": "majn"
        },
        {
            "character": "majd"
        },
        {
            "character": "majs"
        }
    ],
    "top20": [
        {
            "id": 39483,
            "original_name": "Major Crimes",
            "popularity": 27.009
        },
        {
            "id": 61740,
            "original_name": "Die Biene Maja",
            "popularity": 9.816
        },
        {
            "id": 3484,
            "original_name": "Major Dad",
            "popularity": 8.203
        },
        {
            "id": 118897,
            "original_name": "Sex med Maja",
            "popularity": 4.666
        },
        {
            "id": 82392,
            "original_name": "Ramajetternes jul",
            "popularity": 3.335
        },
        {
            "id": 59187,
            "original_name": "Majoria Absoluta",
            "popularity": 2.493
        },
        {
            "id": 115266,
            "original_name": "LasseMajas Detektivbyr\u00e5",
            "popularity": 1.796
        },
        {
            "id": 62744,
            "original_name": "Major Lazer",
            "popularity": 1.4
        },
        {
            "id": 30578,
            "original_name": "Her Majesty's Pleasure",
            "popularity": 1.4
        },
        {
            "id": 76279,
            "original_name": "Mahkota Majapahit",
            "popularity": 1.4
        },
        {
            "id": 85816,
            "original_name": "Str\u00e1\u017emajster Topinka",
            "popularity": 1.395
        },
        {
            "id": 37671,
            "original_name": "Majority Rules!",
            "popularity": 1.198
        },
        {
            "id": 36186,
            "original_name": "Majka",
            "popularity": 1.192
        },
        {
            "id": 39134,
            "original_name": "Majors & Minors",
            "popularity": 1.126
        },
        {
            "id": 3064,
            "original_name": "30 p\u0159\u00edpad\u016f majora Zemana",
            "popularity": 1.114
        },
        {
            "id": 61802,
            "original_name": "Ramajetterne",
            "popularity": 1.096
        },
        {
            "id": 43338,
            "original_name": "LasseMajas detektivbyr\u00e5",
            "popularity": 0.878
        },
        {
            "id": 20306,
            "original_name": "Shima Shima Tora no Shimajir\u014d",
            "popularity": 0.878
        },
        {
            "id": 103363,
            "original_name": "Szale\u0144stwo Majki Skowron",
            "popularity": 0.875
        },
        {
            "id": 108497,
            "original_name": "Autiste, maintenant majeur",
            "popularity": 0.723
        }
    ]
}