{
    "data": [
        {
            "id": 1111,
            "original_name": "Making Waves",
            "popularity": 1.59
        },
        {
            "id": 2758,
            "original_name": "Making the Band",
            "popularity": 1.423
        },
        {
            "id": 4840,
            "original_name": "Alan Keyes Is Making Sense",
            "popularity": 0.6
        },
        {
            "id": 4977,
            "original_name": "Makin' It",
            "popularity": 1.47
        },
        {
            "id": 7257,
            "original_name": "Makita Ka Lang Muli",
            "popularity": 0.6
        },
        {
            "id": 8422,
            "original_name": "Makin' Jake",
            "popularity": 0.6
        },
        {
            "id": 9125,
            "original_name": "Making the Video",
            "popularity": 4.068
        },
        {
            "id": 9393,
            "original_name": "Making Miracles",
            "popularity": 0.6
        },
        {
            "id": 9710,
            "original_name": "Making News",
            "popularity": 1.46
        },
        {
            "id": 9820,
            "original_name": "The One: Making a Music Star",
            "popularity": 0.842
        },
        {
            "id": 10179,
            "original_name": "Dallas Cowboys Cheerleaders: Making the Team",
            "popularity": 4.429
        },
        {
            "id": 11475,
            "original_name": "Making the Cut: Last Man Standing",
            "popularity": 0.842
        },
        {
            "id": 13005,
            "original_name": "Making News: Texas Style",
            "popularity": 0.6
        },
        {
            "id": 13276,
            "original_name": "Making the Most of the Micro",
            "popularity": 0.6
        },
        {
            "id": 14514,
            "original_name": "Making Menudo",
            "popularity": 0.6
        },
        {
            "id": 14526,
            "original_name": "Making Fiends",
            "popularity": 0.963
        },
        {
            "id": 15837,
            "original_name": "Making News: Savannah Style",
            "popularity": 0.6
        },
        {
            "id": 16429,
            "original_name": "The Making of Milwaukee",
            "popularity": 0.6
        },
        {
            "id": 17323,
            "original_name": "Dynasty: The Making of a Guilty Pleasure",
            "popularity": 0.6
        },
        {
            "id": 17624,
            "original_name": "Making It! Minority Success Stories",
            "popularity": 0.6
        },
        {
            "id": 18975,
            "original_name": "The Making of 'Silent Running'",
            "popularity": 0.6
        },
        {
            "id": 19419,
            "original_name": "Aangename kennismaking",
            "popularity": 0.6
        },
        {
            "id": 20130,
            "original_name": "Making Out",
            "popularity": 2.387
        },
        {
            "id": 20684,
            "original_name": "Slavery and the Making of America",
            "popularity": 1.229
        },
        {
            "id": 21167,
            "original_name": "Making the Grade",
            "popularity": 1.555
        },
        {
            "id": 21333,
            "original_name": "The Making of a Continent",
            "popularity": 0.6
        },
        {
            "id": 22293,
            "original_name": "We Have Ways Of Making You Laugh",
            "popularity": 0.896
        },
        {
            "id": 23087,
            "original_name": "Making Slough Happy",
            "popularity": 0.6
        },
        {
            "id": 23352,
            "original_name": "John Barrowman: The Making of Me",
            "popularity": 0.6
        },
        {
            "id": 23755,
            "original_name": "CMT Making the Video",
            "popularity": 0.6
        },
        {
            "id": 23784,
            "original_name": "Making It Together",
            "popularity": 0.6
        },
        {
            "id": 23991,
            "original_name": "Making the Band 4",
            "popularity": 2.847
        },
        {
            "id": 24563,
            "original_name": "Bump & Grind: The Making of a Burlesque Diva",
            "popularity": 0.6
        },
        {
            "id": 24952,
            "original_name": "Making It Home: Greensburg",
            "popularity": 0.6
        },
        {
            "id": 26750,
            "original_name": "Making Faces",
            "popularity": 0.6
        },
        {
            "id": 26853,
            "original_name": "Making Whoopee",
            "popularity": 0.6
        },
        {
            "id": 26995,
            "original_name": "Making Tracks",
            "popularity": 0.6
        },
        {
            "id": 27380,
            "original_name": "Making a Scene",
            "popularity": 0.6
        },
        {
            "id": 28210,
            "original_name": "Making His Band",
            "popularity": 0.6
        },
        {
            "id": 29177,
            "original_name": "Jewelry Making",
            "popularity": 0.6
        },
        {
            "id": 29285,
            "original_name": "Making Over America with Trinny & Susannah",
            "popularity": 0.6
        },
        {
            "id": 29361,
            "original_name": "Making the Monkees",
            "popularity": 0.6
        },
        {
            "id": 30183,
            "original_name": "Making the Band 2",
            "popularity": 0.778
        },
        {
            "id": 30541,
            "original_name": "Making Friends With Black People",
            "popularity": 0.6
        },
        {
            "id": 31381,
            "original_name": "Andrew Marr's The Making of Modern Britain",
            "popularity": 0.603
        },
        {
            "id": 34080,
            "original_name": "Midori no Makiba\u014d",
            "popularity": 2.667
        },
        {
            "id": 34707,
            "original_name": "Unnatural Causes: Is Inequality Making Us Sick?",
            "popularity": 0.6
        },
        {
            "id": 38090,
            "original_name": "Making Scotland's Landscape",
            "popularity": 0.6
        },
        {
            "id": 39766,
            "original_name": "Making a Scene",
            "popularity": 0.6
        },
        {
            "id": 42469,
            "original_name": "Making 'The Shining'",
            "popularity": 0.98
        },
        {
            "id": 43369,
            "original_name": "The Making of Me",
            "popularity": 1.097
        },
        {
            "id": 44216,
            "original_name": "Making of...",
            "popularity": 0.6
        },
        {
            "id": 45061,
            "original_name": "Taburakashi: Daikou Joyuugyou Maki",
            "popularity": 0.6
        },
        {
            "id": 45169,
            "original_name": "Surf's Up For Dogs: The Making of the World's Longest and Heaviest Float",
            "popularity": 0.6
        },
        {
            "id": 47105,
            "original_name": "The Making of 'A Charlie Brown Christmas'",
            "popularity": 0.6
        },
        {
            "id": 49119,
            "original_name": "The Making of Raiders of the Lost Ark",
            "popularity": 0.6
        },
        {
            "id": 49434,
            "original_name": "Making M*A*S*H",
            "popularity": 0.6
        },
        {
            "id": 50696,
            "original_name": "Haber Makinas\u0131",
            "popularity": 0.6
        },
        {
            "id": 50697,
            "original_name": "Makina",
            "popularity": 0.6
        },
        {
            "id": 50698,
            "original_name": "Televizyon Makinas\u0131",
            "popularity": 0.6
        },
        {
            "id": 50831,
            "original_name": "Jalan Makin Membara",
            "popularity": 0.6
        },
        {
            "id": 51558,
            "original_name": "Making Australia Happy",
            "popularity": 0.6
        },
        {
            "id": 52144,
            "original_name": "Makin Sayang",
            "popularity": 0.6
        },
        {
            "id": 54279,
            "original_name": "Zaman Mekan Makinesi",
            "popularity": 0.6
        },
        {
            "id": 54768,
            "original_name": "Making the Artist",
            "popularity": 0.6
        },
        {
            "id": 55803,
            "original_name": "Making Couples Happy",
            "popularity": 0.6
        },
        {
            "id": 56244,
            "original_name": "The Making of the President: 1964",
            "popularity": 0.6
        },
        {
            "id": 56292,
            "original_name": "The Making of the President: 1960",
            "popularity": 0.6
        },
        {
            "id": 57227,
            "original_name": "Putting It Together: The Making of the Broadway Album",
            "popularity": 0.6
        },
        {
            "id": 58213,
            "original_name": "Hot Toxic Love: The Making of The Toxic Avenger Musical",
            "popularity": 0.6
        },
        {
            "id": 60357,
            "original_name": "Trudeau II: Maverick in the Making",
            "popularity": 0.935
        },
        {
            "id": 61736,
            "original_name": "The Sprint: Making Halo 5",
            "popularity": 0.6
        },
        {
            "id": 62336,
            "original_name": "The Making of The Mob",
            "popularity": 4.299
        },
        {
            "id": 64439,
            "original_name": "Making a Murderer",
            "popularity": 7.879
        },
        {
            "id": 65216,
            "original_name": "Making Babies",
            "popularity": 0.6
        },
        {
            "id": 67991,
            "original_name": "Making History",
            "popularity": 3.832
        },
        {
            "id": 70111,
            "original_name": "Making Families Happy",
            "popularity": 0.6
        },
        {
            "id": 73798,
            "original_name": "Making A Scene",
            "popularity": 0.6
        },
        {
            "id": 74040,
            "original_name": "Making It",
            "popularity": 2.126
        },
        {
            "id": 76136,
            "original_name": "Making a Model With Yolanda Hadid",
            "popularity": 0.6
        },
        {
            "id": 77201,
            "original_name": "Blood and Gold: The Making of Spain with Simon Sebag Montefiore",
            "popularity": 0.627
        },
        {
            "id": 78198,
            "original_name": "Makinavaja: La serie",
            "popularity": 1.4
        },
        {
            "id": 78429,
            "original_name": "Countdown to Life: The Extraordinary Making of You",
            "popularity": 0.847
        },
        {
            "id": 79495,
            "original_name": "The Making of a Song",
            "popularity": 0.632
        },
        {
            "id": 79496,
            "original_name": "The Making of a Song",
            "popularity": 0.6
        },
        {
            "id": 82564,
            "original_name": "Jerusalem: The Making of a Holy City",
            "popularity": 0.6
        },
        {
            "id": 83106,
            "original_name": "A Christmas Miracle: The Making of a Charlie Brown Christmas",
            "popularity": 0.823
        },
        {
            "id": 84092,
            "original_name": "Fake Kyoto Bijutsu Jiken Emaki",
            "popularity": 1.093
        },
        {
            "id": 86109,
            "original_name": "Making Child Prodigies",
            "popularity": 0.6
        },
        {
            "id": 86492,
            "original_name": "Railways: The Making of a Nation",
            "popularity": 0.6
        },
        {
            "id": 86777,
            "original_name": "Making Magic",
            "popularity": 0.608
        },
        {
            "id": 87111,
            "original_name": "Making Perfect",
            "popularity": 0.871
        },
        {
            "id": 87885,
            "original_name": "#FinalClash - The Making",
            "popularity": 0.6
        },
        {
            "id": 94195,
            "original_name": "Making Good",
            "popularity": 0.6
        },
        {
            "id": 94399,
            "original_name": "Samvidhaan: The Making of the Constitution of India",
            "popularity": 0.6
        },
        {
            "id": 94402,
            "original_name": "Making Sense of the Sixties",
            "popularity": 0.6
        },
        {
            "id": 99311,
            "original_name": "Making a Monster",
            "popularity": 0.6
        },
        {
            "id": 101046,
            "original_name": "Making the Cut",
            "popularity": 2.994
        },
        {
            "id": 101195,
            "original_name": "History in the Making",
            "popularity": 0.6
        },
        {
            "id": 103465,
            "original_name": "Into the Unknown: Making Frozen II",
            "popularity": 13.545
        },
        {
            "id": 104476,
            "original_name": "The Making Of (Mourinho)",
            "popularity": 0.6
        },
        {
            "id": 105496,
            "original_name": "National Geographic Making History",
            "popularity": 0.6
        },
        {
            "id": 105689,
            "original_name": "Indian Matchmaking",
            "popularity": 9.015
        },
        {
            "id": 105711,
            "original_name": "Making it Home with Kortney and Dave",
            "popularity": 0.6
        },
        {
            "id": 105729,
            "original_name": "The Making Of...",
            "popularity": 0.6
        },
        {
            "id": 110657,
            "original_name": "The Making Of The Drew Barrymore Show",
            "popularity": 0.6
        },
        {
            "id": 111891,
            "original_name": "Zaman Makinesi",
            "popularity": 0.603
        },
        {
            "id": 112215,
            "original_name": "Making North America",
            "popularity": 0.6
        },
        {
            "id": 114624,
            "original_name": "Making Their Mark",
            "popularity": 0.84
        },
        {
            "id": 118570,
            "original_name": "Supervillain: The Making of Tekashi 6ix9ine",
            "popularity": 2.638
        },
        {
            "id": 119070,
            "original_name": "Efteling: The Making Of Max & Moritz",
            "popularity": 0.6
        },
        {
            "id": 119073,
            "original_name": "Efteling: The Making Of De Zes Zwanen",
            "popularity": 0.6
        },
        {
            "id": 119240,
            "original_name": "Smaki polskie",
            "popularity": 0.611
        },
        {
            "id": 119254,
            "original_name": "Klasztorne smaki",
            "popularity": 0.6
        },
        {
            "id": 119380,
            "original_name": "In the Making",
            "popularity": 0.6
        },
        {
            "id": 119402,
            "original_name": "The Making of The Legend of Zelda: Breath of the Wild",
            "popularity": 1.4
        },
        {
            "id": 119470,
            "original_name": "True Evil: The Making of A Nazi",
            "popularity": 0.6
        },
        {
            "id": 123843,
            "original_name": "Making Of",
            "popularity": 0.655
        },
        {
            "id": 125352,
            "original_name": "\u0130lber Ortayl\u0131 ile Zaman Makinesi",
            "popularity": 0.67
        },
        {
            "id": 125740,
            "original_name": "The World Is Not Enough: The Making of a Blockbuster",
            "popularity": 0.6
        },
        {
            "id": 127873,
            "original_name": "Makinium",
            "popularity": 8.859
        },
        {
            "id": 128633,
            "original_name": "Making a Dictator",
            "popularity": 0.6
        },
        {
            "id": 131027,
            "original_name": "Canals: The Making of a Nation",
            "popularity": 0.6
        },
        {
            "id": 132871,
            "original_name": "Making It Australia",
            "popularity": 1.001
        },
        {
            "id": 138000,
            "original_name": "An Engineering Marvel in the Making",
            "popularity": 0.805
        },
        {
            "id": 139478,
            "original_name": "Making Monsters",
            "popularity": 0.6
        }
    ],
    "relations": [
        {
            "character": "makin"
        },
        {
            "character": "makit"
        },
        {
            "character": "makib"
        }
    ],
    "top20": [
        {
            "id": 103465,
            "original_name": "Into the Unknown: Making Frozen II",
            "popularity": 13.545
        },
        {
            "id": 105689,
            "original_name": "Indian Matchmaking",
            "popularity": 9.015
        },
        {
            "id": 127873,
            "original_name": "Makinium",
            "popularity": 8.859
        },
        {
            "id": 64439,
            "original_name": "Making a Murderer",
            "popularity": 7.879
        },
        {
            "id": 10179,
            "original_name": "Dallas Cowboys Cheerleaders: Making the Team",
            "popularity": 4.429
        },
        {
            "id": 62336,
            "original_name": "The Making of The Mob",
            "popularity": 4.299
        },
        {
            "id": 9125,
            "original_name": "Making the Video",
            "popularity": 4.068
        },
        {
            "id": 67991,
            "original_name": "Making History",
            "popularity": 3.832
        },
        {
            "id": 101046,
            "original_name": "Making the Cut",
            "popularity": 2.994
        },
        {
            "id": 23991,
            "original_name": "Making the Band 4",
            "popularity": 2.847
        },
        {
            "id": 34080,
            "original_name": "Midori no Makiba\u014d",
            "popularity": 2.667
        },
        {
            "id": 118570,
            "original_name": "Supervillain: The Making of Tekashi 6ix9ine",
            "popularity": 2.638
        },
        {
            "id": 20130,
            "original_name": "Making Out",
            "popularity": 2.387
        },
        {
            "id": 74040,
            "original_name": "Making It",
            "popularity": 2.126
        },
        {
            "id": 1111,
            "original_name": "Making Waves",
            "popularity": 1.59
        },
        {
            "id": 21167,
            "original_name": "Making the Grade",
            "popularity": 1.555
        },
        {
            "id": 4977,
            "original_name": "Makin' It",
            "popularity": 1.47
        },
        {
            "id": 9710,
            "original_name": "Making News",
            "popularity": 1.46
        },
        {
            "id": 2758,
            "original_name": "Making the Band",
            "popularity": 1.423
        },
        {
            "id": 78198,
            "original_name": "Makinavaja: La serie",
            "popularity": 1.4
        }
    ]
}