{
    "data": [
        {
            "id": 31808,
            "original_name": "Gumapang Ka Sa Lusak",
            "popularity": 0.6
        },
        {
            "id": 63076,
            "original_name": "Ca\u00eddos del mapa",
            "popularity": 0.6
        },
        {
            "id": 76260,
            "original_name": "Karmapala",
            "popularity": 1.677
        },
        {
            "id": 83088,
            "original_name": "O Mapa da Mina",
            "popularity": 2.979
        },
        {
            "id": 93694,
            "original_name": "Nuestro Mapa",
            "popularity": 0.6
        },
        {
            "id": 105702,
            "original_name": "MaPa",
            "popularity": 0.6
        },
        {
            "id": 138765,
            "original_name": "Fuera del mapa",
            "popularity": 12.715
        }
    ],
    "relations": [],
    "top20": [
        {
            "id": 31808,
            "original_name": "Gumapang Ka Sa Lusak",
            "popularity": 0.6
        },
        {
            "id": 63076,
            "original_name": "Ca\u00eddos del mapa",
            "popularity": 0.6
        },
        {
            "id": 76260,
            "original_name": "Karmapala",
            "popularity": 1.677
        },
        {
            "id": 83088,
            "original_name": "O Mapa da Mina",
            "popularity": 2.979
        },
        {
            "id": 93694,
            "original_name": "Nuestro Mapa",
            "popularity": 0.6
        },
        {
            "id": 105702,
            "original_name": "MaPa",
            "popularity": 0.6
        },
        {
            "id": 138765,
            "original_name": "Fuera del mapa",
            "popularity": 12.715
        }
    ]
}