{
    "data": [
        {
            "id": 24059,
            "original_name": "Marcia's Music",
            "popularity": 0.6
        },
        {
            "id": 78170,
            "original_name": "Marcia Clark Investigates The First 48",
            "popularity": 0.6
        },
        {
            "id": 96666,
            "original_name": "Marcinelle",
            "popularity": 2.185
        }
    ],
    "relations": [],
    "top20": [
        {
            "id": 24059,
            "original_name": "Marcia's Music",
            "popularity": 0.6
        },
        {
            "id": 78170,
            "original_name": "Marcia Clark Investigates The First 48",
            "popularity": 0.6
        },
        {
            "id": 96666,
            "original_name": "Marcinelle",
            "popularity": 2.185
        }
    ]
}