{
    "data": [
        {
            "id": 44113,
            "original_name": "Movers & Shakers Masala Markey",
            "popularity": 0.6
        }
    ],
    "relations": [],
    "top20": [
        {
            "id": 44113,
            "original_name": "Movers & Shakers Masala Markey",
            "popularity": 0.6
        }
    ]
}