{
    "data": [
        {
            "id": 53762,
            "original_name": "Masaele Aaliyah Gedan",
            "popularity": 0.6
        }
    ],
    "relations": [],
    "top20": [
        {
            "id": 53762,
            "original_name": "Masaele Aaliyah Gedan",
            "popularity": 0.6
        }
    ]
}