{
    "data": [
        {
            "id": 33980,
            "original_name": "Masr El-Nahrda",
            "popularity": 0.6
        },
        {
            "id": 50198,
            "original_name": "Mahmoud Al-Masri",
            "popularity": 0.6
        },
        {
            "id": 52795,
            "original_name": "Masr Alyoum",
            "popularity": 0.6
        },
        {
            "id": 55049,
            "original_name": "Joha elmasry",
            "popularity": 0.6
        },
        {
            "id": 59559,
            "original_name": "Baladna bel Masry",
            "popularity": 0.6
        }
    ],
    "relations": [],
    "top20": [
        {
            "id": 33980,
            "original_name": "Masr El-Nahrda",
            "popularity": 0.6
        },
        {
            "id": 50198,
            "original_name": "Mahmoud Al-Masri",
            "popularity": 0.6
        },
        {
            "id": 52795,
            "original_name": "Masr Alyoum",
            "popularity": 0.6
        },
        {
            "id": 55049,
            "original_name": "Joha elmasry",
            "popularity": 0.6
        },
        {
            "id": 59559,
            "original_name": "Baladna bel Masry",
            "popularity": 0.6
        }
    ]
}