{
    "data": [
        {
            "id": 11889,
            "original_name": "MasterChef",
            "popularity": 5.442
        },
        {
            "id": 16395,
            "original_name": "MasterChef Australia",
            "popularity": 12.497
        },
        {
            "id": 24285,
            "original_name": "Masterchef: The Professionals",
            "popularity": 52.445
        },
        {
            "id": 25229,
            "original_name": "Junior Masterchef",
            "popularity": 1.801
        },
        {
            "id": 25992,
            "original_name": "Masterchef",
            "popularity": 4.623
        },
        {
            "id": 26870,
            "original_name": "Celebrity Masterchef",
            "popularity": 6.636
        },
        {
            "id": 30784,
            "original_name": "Celebrity MasterChef Australia",
            "popularity": 2.437
        },
        {
            "id": 31780,
            "original_name": "MasterChef New Zealand",
            "popularity": 0.651
        },
        {
            "id": 33160,
            "original_name": "Junior MasterChef Australia",
            "popularity": 1.448
        },
        {
            "id": 33982,
            "original_name": "MasterChef India",
            "popularity": 1.951
        },
        {
            "id": 37220,
            "original_name": "Masterchef Holland",
            "popularity": 0.6
        },
        {
            "id": 37690,
            "original_name": "MasterChef Indonesia",
            "popularity": 0.6
        },
        {
            "id": 37713,
            "original_name": "Junior MasterChef Pinoy Edition",
            "popularity": 0.6
        },
        {
            "id": 37757,
            "original_name": "MasterChef Greece",
            "popularity": 2.582
        },
        {
            "id": 38958,
            "original_name": "MasterChef Malaysia",
            "popularity": 0.6
        },
        {
            "id": 39012,
            "original_name": "MasterChef Croatia",
            "popularity": 0.6
        },
        {
            "id": 40290,
            "original_name": "MasterChef",
            "popularity": 26.449
        },
        {
            "id": 40453,
            "original_name": "MasterChef Ireland",
            "popularity": 0.6
        },
        {
            "id": 40459,
            "original_name": "Junior MasterChef Greece",
            "popularity": 0.6
        },
        {
            "id": 40466,
            "original_name": "MasterChef Pinoy Edition",
            "popularity": 0.6
        },
        {
            "id": 44996,
            "original_name": "MasterChef",
            "popularity": 7.704
        },
        {
            "id": 46997,
            "original_name": "MasterChef Rom\u00e2nia",
            "popularity": 1.121
        },
        {
            "id": 49982,
            "original_name": "MasterChef",
            "popularity": 3.06
        },
        {
            "id": 50122,
            "original_name": "Vua \u0111\u1ea7u b\u1ebfp: MasterChef Vietnam",
            "popularity": 1.384
        },
        {
            "id": 55630,
            "original_name": "MasterChef Italia",
            "popularity": 2.861
        },
        {
            "id": 55639,
            "original_name": "MasterChef: The Professionals: Michel's Classics",
            "popularity": 0.6
        },
        {
            "id": 57222,
            "original_name": "MasterChef Norge",
            "popularity": 0.6
        },
        {
            "id": 57755,
            "original_name": "MasterChef Junior",
            "popularity": 3.963
        },
        {
            "id": 57860,
            "original_name": "Junior Masterchef India",
            "popularity": 0.6
        },
        {
            "id": 58693,
            "original_name": "MasterChef Australia: The Professionals",
            "popularity": 1.147
        },
        {
            "id": 59810,
            "original_name": "Celebrity MasterChef",
            "popularity": 0.6
        },
        {
            "id": 62370,
            "original_name": "Junior MasterChef Italia",
            "popularity": 0.964
        },
        {
            "id": 64203,
            "original_name": "MasterChef",
            "popularity": 8.133
        },
        {
            "id": 64204,
            "original_name": "MasterChef Junior",
            "popularity": 0.6
        },
        {
            "id": 64958,
            "original_name": "MasterChef Canada",
            "popularity": 3.691
        },
        {
            "id": 65840,
            "original_name": "MasterChef Junior",
            "popularity": 0.989
        },
        {
            "id": 66239,
            "original_name": "Junior MasterChef Chile",
            "popularity": 0.6
        },
        {
            "id": 68689,
            "original_name": "MasterChef: Profissionais",
            "popularity": 1.4
        },
        {
            "id": 69020,
            "original_name": "MasterChef Celebrity",
            "popularity": 7.638
        },
        {
            "id": 69303,
            "original_name": "MasterChef Junior",
            "popularity": 0.967
        },
        {
            "id": 70068,
            "original_name": "MasterChef",
            "popularity": 0.6
        },
        {
            "id": 70780,
            "original_name": "Celebrity MasterChef Italia",
            "popularity": 1.133
        },
        {
            "id": 72185,
            "original_name": "MasterChef - Norges beste hobbykokk",
            "popularity": 0.6
        },
        {
            "id": 72195,
            "original_name": "Masterchef Uruguay",
            "popularity": 1.18
        },
        {
            "id": 73101,
            "original_name": "MasterChef",
            "popularity": 2.378
        },
        {
            "id": 75027,
            "original_name": "MasterChef J\u00fanior",
            "popularity": 0.602
        },
        {
            "id": 76327,
            "original_name": "MasterChef Latino",
            "popularity": 0.649
        },
        {
            "id": 82117,
            "original_name": "MasterChef T\u00fcrkiye",
            "popularity": 1.266
        },
        {
            "id": 85241,
            "original_name": "MasterChef \u0411\u044a\u043b\u0433\u0430\u0440\u0438\u044f",
            "popularity": 1.091
        },
        {
            "id": 85601,
            "original_name": "MasterChef All Stars Italia",
            "popularity": 0.6
        },
        {
            "id": 86144,
            "original_name": "MasterChef",
            "popularity": 0.6
        },
        {
            "id": 94011,
            "original_name": "MasterChef Mexico",
            "popularity": 5.194
        },
        {
            "id": 94036,
            "original_name": "Masterchef Paraguay Profesionales",
            "popularity": 0.6
        },
        {
            "id": 98940,
            "original_name": "MasterChef Thailand",
            "popularity": 0.6
        },
        {
            "id": 100446,
            "original_name": "Masterchef Uruguay Profesionales",
            "popularity": 0.6
        },
        {
            "id": 100579,
            "original_name": "Masterchef Paraguay",
            "popularity": 0.611
        },
        {
            "id": 100633,
            "original_name": "Masterchef Argentina",
            "popularity": 1.4
        },
        {
            "id": 100712,
            "original_name": "Masterchef Brasil: A Revanche",
            "popularity": 1.115
        },
        {
            "id": 100772,
            "original_name": "Masterchef Brasil: Para Tudo",
            "popularity": 0.6
        },
        {
            "id": 101547,
            "original_name": "MasterChef \u010cesko",
            "popularity": 3.005
        },
        {
            "id": 103265,
            "original_name": "MasterChef France",
            "popularity": 1.151
        },
        {
            "id": 103268,
            "original_name": "MasterChef se met \u00e0 table",
            "popularity": 0.845
        },
        {
            "id": 104337,
            "original_name": "MasterChef Jul",
            "popularity": 1.913
        },
        {
            "id": 108674,
            "original_name": "MasterChef Norge",
            "popularity": 0.6
        },
        {
            "id": 112879,
            "original_name": "MasterChef Suomi",
            "popularity": 0.6
        },
        {
            "id": 112904,
            "original_name": "MasterChef Singapore",
            "popularity": 0.6
        },
        {
            "id": 112951,
            "original_name": "MasterChef Celebrity Argentina",
            "popularity": 1.275
        },
        {
            "id": 115892,
            "original_name": "MasterChef Junior",
            "popularity": 0.6
        },
        {
            "id": 117408,
            "original_name": "Celebrity MasterChef: A Recipe for Success",
            "popularity": 0.96
        },
        {
            "id": 119997,
            "original_name": "MasterChef VIP",
            "popularity": 0.6
        },
        {
            "id": 126592,
            "original_name": "MasterChef Australia All-Stars",
            "popularity": 0.631
        },
        {
            "id": 127881,
            "original_name": "Masterchef Celebrity Colombia",
            "popularity": 3.255
        },
        {
            "id": 127982,
            "original_name": "MasterChef Celebrity",
            "popularity": 0.943
        },
        {
            "id": 130386,
            "original_name": "MasterChef Tamil",
            "popularity": 3.186
        },
        {
            "id": 132832,
            "original_name": "MasterChef India \u2013 Tamil",
            "popularity": 0.6
        },
        {
            "id": 137108,
            "original_name": "MasterChef UA",
            "popularity": 0.6
        },
        {
            "id": 138022,
            "original_name": "MasterChef South Africa",
            "popularity": 0.6
        },
        {
            "id": 138972,
            "original_name": "MasterChef Portugal",
            "popularity": 8.156
        },
        {
            "id": 152373,
            "original_name": "Masterchef Celebrity Colombia 2018",
            "popularity": 0.6
        },
        {
            "id": 152375,
            "original_name": "MasterChef Celebrity Colombia",
            "popularity": 1.646
        }
    ],
    "relations": [],
    "top20": [
        {
            "id": 24285,
            "original_name": "Masterchef: The Professionals",
            "popularity": 52.445
        },
        {
            "id": 40290,
            "original_name": "MasterChef",
            "popularity": 26.449
        },
        {
            "id": 16395,
            "original_name": "MasterChef Australia",
            "popularity": 12.497
        },
        {
            "id": 138972,
            "original_name": "MasterChef Portugal",
            "popularity": 8.156
        },
        {
            "id": 64203,
            "original_name": "MasterChef",
            "popularity": 8.133
        },
        {
            "id": 44996,
            "original_name": "MasterChef",
            "popularity": 7.704
        },
        {
            "id": 69020,
            "original_name": "MasterChef Celebrity",
            "popularity": 7.638
        },
        {
            "id": 26870,
            "original_name": "Celebrity Masterchef",
            "popularity": 6.636
        },
        {
            "id": 11889,
            "original_name": "MasterChef",
            "popularity": 5.442
        },
        {
            "id": 94011,
            "original_name": "MasterChef Mexico",
            "popularity": 5.194
        },
        {
            "id": 25992,
            "original_name": "Masterchef",
            "popularity": 4.623
        },
        {
            "id": 57755,
            "original_name": "MasterChef Junior",
            "popularity": 3.963
        },
        {
            "id": 64958,
            "original_name": "MasterChef Canada",
            "popularity": 3.691
        },
        {
            "id": 127881,
            "original_name": "Masterchef Celebrity Colombia",
            "popularity": 3.255
        },
        {
            "id": 130386,
            "original_name": "MasterChef Tamil",
            "popularity": 3.186
        },
        {
            "id": 49982,
            "original_name": "MasterChef",
            "popularity": 3.06
        },
        {
            "id": 101547,
            "original_name": "MasterChef \u010cesko",
            "popularity": 3.005
        },
        {
            "id": 55630,
            "original_name": "MasterChef Italia",
            "popularity": 2.861
        },
        {
            "id": 37757,
            "original_name": "MasterChef Greece",
            "popularity": 2.582
        },
        {
            "id": 30784,
            "original_name": "Celebrity MasterChef Australia",
            "popularity": 2.437
        }
    ]
}