{
    "data": [
        {
            "id": 4395,
            "original_name": "Matador",
            "popularity": 3.69
        },
        {
            "id": 61225,
            "original_name": "Matador",
            "popularity": 5.301
        },
        {
            "id": 85677,
            "original_name": "Matadero",
            "popularity": 3.616
        }
    ],
    "relations": [],
    "top20": [
        {
            "id": 4395,
            "original_name": "Matador",
            "popularity": 3.69
        },
        {
            "id": 61225,
            "original_name": "Matador",
            "popularity": 5.301
        },
        {
            "id": 85677,
            "original_name": "Matadero",
            "popularity": 3.616
        }
    ]
}