{
    "data": [
        {
            "id": 4,
            "original_name": "The Amazing Mrs Pritchard",
            "popularity": 4.411
        },
        {
            "id": 1026,
            "original_name": "Amazing Stories",
            "popularity": 18.576
        },
        {
            "id": 1269,
            "original_name": "Spider-Man and His Amazing Friends",
            "popularity": 40.512
        },
        {
            "id": 3258,
            "original_name": "Amazing Vacation Homes",
            "popularity": 0.6
        },
        {
            "id": 4256,
            "original_name": "The Amazing Race Asia",
            "popularity": 0.935
        },
        {
            "id": 4552,
            "original_name": "The Amazing Spider-Man",
            "popularity": 14.823
        },
        {
            "id": 4770,
            "original_name": "The Amazing Race: A Corrida Milion\u00e1ria",
            "popularity": 0.6
        },
        {
            "id": 6884,
            "original_name": "Kap's Amazing Stories",
            "popularity": 0.6
        },
        {
            "id": 10043,
            "original_name": "The Amazing Live Sea Monkeys",
            "popularity": 1.1
        },
        {
            "id": 10347,
            "original_name": "The Amazing Chan and the Chan Clan",
            "popularity": 6.251
        },
        {
            "id": 11071,
            "original_name": "World's Most Amazing Videos",
            "popularity": 3.117
        },
        {
            "id": 11887,
            "original_name": "The Amazing Race Central Europe",
            "popularity": 0.6
        },
        {
            "id": 12287,
            "original_name": "A*mazing",
            "popularity": 0.6
        },
        {
            "id": 12386,
            "original_name": "Rubik, the Amazing Cube",
            "popularity": 1.156
        },
        {
            "id": 13267,
            "original_name": "The Amazing Extraordinary Friends",
            "popularity": 0.6
        },
        {
            "id": 13661,
            "original_name": "The Amazing Adrenalini Brothers",
            "popularity": 0.6
        },
        {
            "id": 14326,
            "original_name": "Billy Webb's Amazing Stories",
            "popularity": 0.6
        },
        {
            "id": 14681,
            "original_name": "Henry's Amazing Animals",
            "popularity": 0.741
        },
        {
            "id": 15400,
            "original_name": "Amazing Medical Stories",
            "popularity": 0.6
        },
        {
            "id": 16572,
            "original_name": "Those Amazing Animals",
            "popularity": 1.09
        },
        {
            "id": 18067,
            "original_name": "The Amazing Spiez!",
            "popularity": 2.284
        },
        {
            "id": 19076,
            "original_name": "Amazing Adventures of a Nobody",
            "popularity": 0.6
        },
        {
            "id": 19275,
            "original_name": "Amazing Animal Videos",
            "popularity": 0.6
        },
        {
            "id": 19571,
            "original_name": "Amazing Wedding Cakes",
            "popularity": 0.806
        },
        {
            "id": 20073,
            "original_name": "The Amazing 3",
            "popularity": 0.6
        },
        {
            "id": 21124,
            "original_name": "The Amazing Race (Latin America)",
            "popularity": 0.6
        },
        {
            "id": 21865,
            "original_name": "The Amazing Mrs. Novak",
            "popularity": 1.213
        },
        {
            "id": 22472,
            "original_name": "The Amazing Dunninger",
            "popularity": 0.6
        },
        {
            "id": 23149,
            "original_name": "My Big Amazing Renovation",
            "popularity": 0.6
        },
        {
            "id": 24366,
            "original_name": "The Amazing Mr. Malone",
            "popularity": 0.655
        },
        {
            "id": 24709,
            "original_name": "The Amazing World Of Kreskin",
            "popularity": 0.654
        },
        {
            "id": 27015,
            "original_name": "Amazing Grace",
            "popularity": 1.432
        },
        {
            "id": 27204,
            "original_name": "The National Lottery Amazing Luck Stories",
            "popularity": 0.6
        },
        {
            "id": 27287,
            "original_name": "Amazing Sports Stories",
            "popularity": 0.6
        },
        {
            "id": 27514,
            "original_name": "My Space is an Amazing Place",
            "popularity": 0.6
        },
        {
            "id": 30030,
            "original_name": "Amazing Screw-On Head",
            "popularity": 1.4
        },
        {
            "id": 30137,
            "original_name": "Rolf's Amazing World Of Animals",
            "popularity": 0.6
        },
        {
            "id": 30225,
            "original_name": "The Amazing Adrenalini Brothers",
            "popularity": 0.6
        },
        {
            "id": 30957,
            "original_name": "The Amazing Race",
            "popularity": 14.35
        },
        {
            "id": 32174,
            "original_name": "Amazing Discoveries",
            "popularity": 0.6
        },
        {
            "id": 37606,
            "original_name": "The Amazing World of Gumball",
            "popularity": 121.144
        },
        {
            "id": 39097,
            "original_name": "Amazing Cooking Kids",
            "popularity": 0.6
        },
        {
            "id": 43094,
            "original_name": "The Amazing Race: China Rush",
            "popularity": 0.6
        },
        {
            "id": 43134,
            "original_name": "Amazing the Lion",
            "popularity": 0.6
        },
        {
            "id": 43649,
            "original_name": "Amazing Earth",
            "popularity": 1.4
        },
        {
            "id": 44453,
            "original_name": "Amazing Eats",
            "popularity": 0.6
        },
        {
            "id": 44568,
            "original_name": "The Amazing Race Philippines",
            "popularity": 0.6
        },
        {
            "id": 45257,
            "original_name": "The Amazing Race Norge",
            "popularity": 1.245
        },
        {
            "id": 45665,
            "original_name": "The Amazing Race Australia",
            "popularity": 2.951
        },
        {
            "id": 47168,
            "original_name": "Hollywood's Amazing Animal Actors",
            "popularity": 0.6
        },
        {
            "id": 47858,
            "original_name": "The Amazing Adventures of Morph",
            "popularity": 0.6
        },
        {
            "id": 49186,
            "original_name": "The Who's Tommy, the Amazing Journey",
            "popularity": 0.6
        },
        {
            "id": 49740,
            "original_name": "The Amazing Howard Hughes",
            "popularity": 0.6
        },
        {
            "id": 51349,
            "original_name": "The Amazing Mod",
            "popularity": 0.6
        },
        {
            "id": 51909,
            "original_name": "AMAZING ANIMALS!",
            "popularity": 0.6
        },
        {
            "id": 55549,
            "original_name": "George Clarke's Amazing Spaces",
            "popularity": 1.927
        },
        {
            "id": 57132,
            "original_name": "The Amazing Strategist Liu Bowen",
            "popularity": 0.84
        },
        {
            "id": 57156,
            "original_name": "Australia\u2019s Got Amazing Talent!",
            "popularity": 0.6
        },
        {
            "id": 57427,
            "original_name": "Secret Murder, Amazing Cases",
            "popularity": 0.6
        },
        {
            "id": 59138,
            "original_name": "The Amazing Race Canada",
            "popularity": 3.238
        },
        {
            "id": 64112,
            "original_name": "Sooty's Amazing Adventures",
            "popularity": 4.488
        },
        {
            "id": 65691,
            "original_name": "The Amazing World of War Machines",
            "popularity": 0.6
        },
        {
            "id": 73460,
            "original_name": "Officially Amazing",
            "popularity": 0.843
        },
        {
            "id": 73715,
            "original_name": "Amazing Hotels: Life Beyond the Lobby",
            "popularity": 14.509
        },
        {
            "id": 75596,
            "original_name": "Amazingness",
            "popularity": 0.6
        },
        {
            "id": 77681,
            "original_name": "Monkeys: An Amazing Animal Family",
            "popularity": 0.6
        },
        {
            "id": 77782,
            "original_name": "Amazing Gravity",
            "popularity": 0.6
        },
        {
            "id": 78139,
            "original_name": "Big Cats: An Amazing Animal Family",
            "popularity": 1.226
        },
        {
            "id": 81001,
            "original_name": "Amazing Interiors",
            "popularity": 0.659
        },
        {
            "id": 82342,
            "original_name": "Amazing Interiors",
            "popularity": 0.6
        },
        {
            "id": 87692,
            "original_name": "\u8d85\u53ef\u52d5\u30ac\u30fc\u30eb\u2159 AMAZING STRANGER",
            "popularity": 17.353
        },
        {
            "id": 88531,
            "original_name": "Amazing Facts",
            "popularity": 0.6
        },
        {
            "id": 88540,
            "original_name": "Australia's Amazing Homes",
            "popularity": 0.6
        },
        {
            "id": 91599,
            "original_name": "Dogs: An Amazing Animal Family",
            "popularity": 0.6
        },
        {
            "id": 91700,
            "original_name": "Amazing Dogs",
            "popularity": 0.84
        },
        {
            "id": 94927,
            "original_name": "\u7d76\u6ec5\u5371\u611a\u5c11\u5973 Amazing Twins",
            "popularity": 1.884
        },
        {
            "id": 95064,
            "original_name": "The Most Amazing Woman on Earth. Miss Multiverse",
            "popularity": 0.6
        },
        {
            "id": 95303,
            "original_name": "Human Life: Our Amazing Cells",
            "popularity": 0.6
        },
        {
            "id": 95862,
            "original_name": "Amazing Planet",
            "popularity": 1.158
        },
        {
            "id": 96688,
            "original_name": "Amazing Nuts!",
            "popularity": 0.902
        },
        {
            "id": 98178,
            "original_name": "Amazing Stories",
            "popularity": 20.177
        },
        {
            "id": 101397,
            "original_name": "Catie's Amazing Machines",
            "popularity": 1.4
        },
        {
            "id": 101399,
            "original_name": "Grace's Amazing Machines",
            "popularity": 1.4
        },
        {
            "id": 102197,
            "original_name": "Amazing Dinoworld",
            "popularity": 0.6
        },
        {
            "id": 110559,
            "original_name": "The Amazing World of Aviation",
            "popularity": 0.6
        },
        {
            "id": 112610,
            "original_name": "Amazing Cakes & Bakes",
            "popularity": 0.6
        },
        {
            "id": 119925,
            "original_name": "Amazing Grace",
            "popularity": 2.1
        },
        {
            "id": 124782,
            "original_name": "\u7f8e\u4e3d\u4e2d\u56fd Amazing China",
            "popularity": 0.6
        },
        {
            "id": 127635,
            "original_name": "Marvel's Spidey and His Amazing Friends",
            "popularity": 50.961
        },
        {
            "id": 127723,
            "original_name": "The World's Most Amazing Vacation Rentals",
            "popularity": 8.307
        },
        {
            "id": 132011,
            "original_name": "The Amazing World of Dinosaurs",
            "popularity": 0.6
        },
        {
            "id": 132320,
            "original_name": "Amazing Planet: Lava Driven World",
            "popularity": 0.6
        },
        {
            "id": 134161,
            "original_name": "Amazing Sisters",
            "popularity": 6.36
        },
        {
            "id": 136529,
            "original_name": "Amazing Spaces Shed of the Year",
            "popularity": 0.6
        },
        {
            "id": 139313,
            "original_name": "Amazing Animal Families",
            "popularity": 0.6
        }
    ],
    "relations": [
        {
            "character": "mazingn"
        }
    ],
    "top20": [
        {
            "id": 37606,
            "original_name": "The Amazing World of Gumball",
            "popularity": 121.144
        },
        {
            "id": 127635,
            "original_name": "Marvel's Spidey and His Amazing Friends",
            "popularity": 50.961
        },
        {
            "id": 1269,
            "original_name": "Spider-Man and His Amazing Friends",
            "popularity": 40.512
        },
        {
            "id": 98178,
            "original_name": "Amazing Stories",
            "popularity": 20.177
        },
        {
            "id": 1026,
            "original_name": "Amazing Stories",
            "popularity": 18.576
        },
        {
            "id": 87692,
            "original_name": "\u8d85\u53ef\u52d5\u30ac\u30fc\u30eb\u2159 AMAZING STRANGER",
            "popularity": 17.353
        },
        {
            "id": 4552,
            "original_name": "The Amazing Spider-Man",
            "popularity": 14.823
        },
        {
            "id": 73715,
            "original_name": "Amazing Hotels: Life Beyond the Lobby",
            "popularity": 14.509
        },
        {
            "id": 30957,
            "original_name": "The Amazing Race",
            "popularity": 14.35
        },
        {
            "id": 127723,
            "original_name": "The World's Most Amazing Vacation Rentals",
            "popularity": 8.307
        },
        {
            "id": 134161,
            "original_name": "Amazing Sisters",
            "popularity": 6.36
        },
        {
            "id": 10347,
            "original_name": "The Amazing Chan and the Chan Clan",
            "popularity": 6.251
        },
        {
            "id": 64112,
            "original_name": "Sooty's Amazing Adventures",
            "popularity": 4.488
        },
        {
            "id": 4,
            "original_name": "The Amazing Mrs Pritchard",
            "popularity": 4.411
        },
        {
            "id": 59138,
            "original_name": "The Amazing Race Canada",
            "popularity": 3.238
        },
        {
            "id": 11071,
            "original_name": "World's Most Amazing Videos",
            "popularity": 3.117
        },
        {
            "id": 45665,
            "original_name": "The Amazing Race Australia",
            "popularity": 2.951
        },
        {
            "id": 18067,
            "original_name": "The Amazing Spiez!",
            "popularity": 2.284
        },
        {
            "id": 119925,
            "original_name": "Amazing Grace",
            "popularity": 2.1
        },
        {
            "id": 55549,
            "original_name": "George Clarke's Amazing Spaces",
            "popularity": 1.927
        }
    ]
}