{
    "data": [
        {
            "id": 3278,
            "original_name": "Numberjacks",
            "popularity": 4.925
        }
    ],
    "relations": [],
    "top20": [
        {
            "id": 3278,
            "original_name": "Numberjacks",
            "popularity": 4.925
        }
    ]
}