{
    "data": [
        {
            "id": 36735,
            "original_name": "The Grumbleweeds Radio Show",
            "popularity": 0.6
        }
    ],
    "relations": [],
    "top20": [
        {
            "id": 36735,
            "original_name": "The Grumbleweeds Radio Show",
            "popularity": 0.6
        }
    ]
}