{
    "data": [
        {
            "id": 404,
            "original_name": "Fimbles",
            "popularity": 2.42
        },
        {
            "id": 8064,
            "original_name": "As the Cookie Crumbles",
            "popularity": 0.6
        },
        {
            "id": 13426,
            "original_name": "The Shambles",
            "popularity": 0.6
        },
        {
            "id": 15122,
            "original_name": "The Wombles",
            "popularity": 3.976
        },
        {
            "id": 40375,
            "original_name": "The Wombles",
            "popularity": 0.6
        },
        {
            "id": 67329,
            "original_name": "Bottersnikes & Gumbles",
            "popularity": 3.247
        },
        {
            "id": 136572,
            "original_name": "Iain Robertson Rambles",
            "popularity": 0.84
        }
    ],
    "relations": [],
    "top20": [
        {
            "id": 404,
            "original_name": "Fimbles",
            "popularity": 2.42
        },
        {
            "id": 8064,
            "original_name": "As the Cookie Crumbles",
            "popularity": 0.6
        },
        {
            "id": 13426,
            "original_name": "The Shambles",
            "popularity": 0.6
        },
        {
            "id": 15122,
            "original_name": "The Wombles",
            "popularity": 3.976
        },
        {
            "id": 40375,
            "original_name": "The Wombles",
            "popularity": 0.6
        },
        {
            "id": 67329,
            "original_name": "Bottersnikes & Gumbles",
            "popularity": 3.247
        },
        {
            "id": 136572,
            "original_name": "Iain Robertson Rambles",
            "popularity": 0.84
        }
    ]
}