{
    "data": [
        {
            "id": 1999,
            "original_name": "The Comeback",
            "popularity": 6.65
        },
        {
            "id": 5509,
            "original_name": "Barnaby Flowers Comeback Special",
            "popularity": 0.6
        },
        {
            "id": 19384,
            "original_name": "Comeback",
            "popularity": 1.297
        },
        {
            "id": 39151,
            "original_name": "The Comeback Story",
            "popularity": 0.6
        },
        {
            "id": 57421,
            "original_name": "Ihmebantu",
            "popularity": 2.997
        },
        {
            "id": 76482,
            "original_name": "Heimebane",
            "popularity": 4.939
        },
        {
            "id": 116164,
            "original_name": "Undercover Billionaire: Comeback City",
            "popularity": 1.346
        },
        {
            "id": 118113,
            "original_name": "The Voice Comeback Stage",
            "popularity": 0.677
        },
        {
            "id": 120914,
            "original_name": "Comeback oder weg?",
            "popularity": 0.664
        },
        {
            "id": 125541,
            "original_name": "Comeback - Live og Kristine",
            "popularity": 0.93
        },
        {
            "id": 138665,
            "original_name": "COMEBACK SOLID Into the Light",
            "popularity": 0.6
        },
        {
            "id": 138690,
            "original_name": "TOMORROW X TOGETHER Comeback Show : Blue Hour",
            "popularity": 0.681
        },
        {
            "id": 138717,
            "original_name": "MAMAMOO COMEBACK SHOW",
            "popularity": 1.136
        },
        {
            "id": 138795,
            "original_name": "VICTON COMEBACK SHOW [The future is now]",
            "popularity": 0.6
        },
        {
            "id": 138805,
            "original_name": "BTS COMEBACKSHOW - HIGHLIGHT REEL",
            "popularity": 1.712
        },
        {
            "id": 139220,
            "original_name": "Heize COMEBACK SHOW \ubc14\ub78c",
            "popularity": 0.6
        },
        {
            "id": 139233,
            "original_name": "GHOST9 COMEBACK SHOWCASE [W.ALL] \uc778 \ubd80\uc0b0",
            "popularity": 0.6
        },
        {
            "id": 139242,
            "original_name": "AB6IX COMEBACK SHOW \ube44\ube44\ub4dc",
            "popularity": 0.6
        },
        {
            "id": 139249,
            "original_name": "\uc6cc\ub108\uc6d0 COMEBACK",
            "popularity": 0.6
        },
        {
            "id": 139250,
            "original_name": "NU\u2032EST Comeback Show \ub354 \ub179\ud134",
            "popularity": 0.6
        },
        {
            "id": 139699,
            "original_name": "BTS COMEBACK SHOW DNA",
            "popularity": 0.883
        },
        {
            "id": 146088,
            "original_name": "2PM COMEBACK SHOW : MUST (\uba38\uc2a4\ud2b8)",
            "popularity": 0.6
        },
        {
            "id": 146101,
            "original_name": "COMEBACK IZ*ONE : BLOOM*IZ \ucef4\ubc31 \uc544\uc774\uc988\uc6d0",
            "popularity": 0.6
        },
        {
            "id": 152247,
            "original_name": "COMEBACK WANNA ONE : Nothing Without You",
            "popularity": 0.6
        }
    ],
    "relations": [
        {
            "character": "mebac"
        },
        {
            "character": "meban"
        }
    ],
    "top20": [
        {
            "id": 1999,
            "original_name": "The Comeback",
            "popularity": 6.65
        },
        {
            "id": 76482,
            "original_name": "Heimebane",
            "popularity": 4.939
        },
        {
            "id": 57421,
            "original_name": "Ihmebantu",
            "popularity": 2.997
        },
        {
            "id": 138805,
            "original_name": "BTS COMEBACKSHOW - HIGHLIGHT REEL",
            "popularity": 1.712
        },
        {
            "id": 116164,
            "original_name": "Undercover Billionaire: Comeback City",
            "popularity": 1.346
        },
        {
            "id": 19384,
            "original_name": "Comeback",
            "popularity": 1.297
        },
        {
            "id": 138717,
            "original_name": "MAMAMOO COMEBACK SHOW",
            "popularity": 1.136
        },
        {
            "id": 125541,
            "original_name": "Comeback - Live og Kristine",
            "popularity": 0.93
        },
        {
            "id": 139699,
            "original_name": "BTS COMEBACK SHOW DNA",
            "popularity": 0.883
        },
        {
            "id": 138690,
            "original_name": "TOMORROW X TOGETHER Comeback Show : Blue Hour",
            "popularity": 0.681
        },
        {
            "id": 118113,
            "original_name": "The Voice Comeback Stage",
            "popularity": 0.677
        },
        {
            "id": 120914,
            "original_name": "Comeback oder weg?",
            "popularity": 0.664
        },
        {
            "id": 5509,
            "original_name": "Barnaby Flowers Comeback Special",
            "popularity": 0.6
        },
        {
            "id": 138665,
            "original_name": "COMEBACK SOLID Into the Light",
            "popularity": 0.6
        },
        {
            "id": 139242,
            "original_name": "AB6IX COMEBACK SHOW \ube44\ube44\ub4dc",
            "popularity": 0.6
        },
        {
            "id": 138795,
            "original_name": "VICTON COMEBACK SHOW [The future is now]",
            "popularity": 0.6
        },
        {
            "id": 139220,
            "original_name": "Heize COMEBACK SHOW \ubc14\ub78c",
            "popularity": 0.6
        },
        {
            "id": 139249,
            "original_name": "\uc6cc\ub108\uc6d0 COMEBACK",
            "popularity": 0.6
        },
        {
            "id": 39151,
            "original_name": "The Comeback Story",
            "popularity": 0.6
        },
        {
            "id": 139233,
            "original_name": "GHOST9 COMEBACK SHOWCASE [W.ALL] \uc778 \ubd80\uc0b0",
            "popularity": 0.6
        }
    ]
}