{
    "data": [
        {
            "id": 20422,
            "original_name": "Megamaths",
            "popularity": 0.6
        },
        {
            "id": 45454,
            "original_name": "\u5973\u795e\u5929\u56fd MEGAMI PARADISE",
            "popularity": 1.288
        },
        {
            "id": 78592,
            "original_name": "a Megami-sama Sorezore No Tsubasa (2006)",
            "popularity": 0.6
        },
        {
            "id": 127760,
            "original_name": "Australiens megametro",
            "popularity": 0.6
        }
    ],
    "relations": [],
    "top20": [
        {
            "id": 20422,
            "original_name": "Megamaths",
            "popularity": 0.6
        },
        {
            "id": 45454,
            "original_name": "\u5973\u795e\u5929\u56fd MEGAMI PARADISE",
            "popularity": 1.288
        },
        {
            "id": 78592,
            "original_name": "a Megami-sama Sorezore No Tsubasa (2006)",
            "popularity": 0.6
        },
        {
            "id": 127760,
            "original_name": "Australiens megametro",
            "popularity": 0.6
        }
    ]
}