{
    "data": [
        {
            "id": 22043,
            "original_name": "MegaWorld",
            "popularity": 0.6
        },
        {
            "id": 68245,
            "original_name": "WWII Megaweapons",
            "popularity": 0.6
        }
    ],
    "relations": [],
    "top20": [
        {
            "id": 22043,
            "original_name": "MegaWorld",
            "popularity": 0.6
        },
        {
            "id": 68245,
            "original_name": "WWII Megaweapons",
            "popularity": 0.6
        }
    ]
}