{
    "data": [
        {
            "id": 83297,
            "original_name": "Meiberger Im Kopf des T\u00e4ters",
            "popularity": 3.235
        }
    ],
    "relations": [],
    "top20": [
        {
            "id": 83297,
            "original_name": "Meiberger Im Kopf des T\u00e4ters",
            "popularity": 3.235
        }
    ]
}