{
    "data": [
        {
            "id": 46008,
            "original_name": "Mini Moni's Brementown Musicians",
            "popularity": 0.6
        }
    ],
    "relations": [],
    "top20": [
        {
            "id": 46008,
            "original_name": "Mini Moni's Brementown Musicians",
            "popularity": 0.6
        }
    ]
}