{
    "data": [
        {
            "id": 37190,
            "original_name": "Koi no Tamerai",
            "popularity": 0.6
        },
        {
            "id": 50330,
            "original_name": "Ketika Cintah Bertasbih Meraih Ridho Ilahi",
            "popularity": 0.6
        }
    ],
    "relations": [],
    "top20": [
        {
            "id": 37190,
            "original_name": "Koi no Tamerai",
            "popularity": 0.6
        },
        {
            "id": 50330,
            "original_name": "Ketika Cintah Bertasbih Meraih Ridho Ilahi",
            "popularity": 0.6
        }
    ]
}