{
    "data": [
        {
            "id": 989,
            "original_name": "Emergency Vets",
            "popularity": 0.6
        },
        {
            "id": 1512,
            "original_name": "Emergency",
            "popularity": 0.6
        },
        {
            "id": 1784,
            "original_name": "In Case of Emergency",
            "popularity": 3.434
        },
        {
            "id": 2884,
            "original_name": "Emergency +4",
            "popularity": 0.6
        },
        {
            "id": 3338,
            "original_name": "Medical Emergency",
            "popularity": 7.633
        },
        {
            "id": 5375,
            "original_name": "Emergency!",
            "popularity": 21.599
        },
        {
            "id": 7035,
            "original_name": "Animal Emergency",
            "popularity": 0.6
        },
        {
            "id": 12184,
            "original_name": "Emergency",
            "popularity": 0.6
        },
        {
            "id": 13344,
            "original_name": "Emergency \u2013 Ward 10",
            "popularity": 3.83
        },
        {
            "id": 19492,
            "original_name": "Highland Emergency",
            "popularity": 0.6
        },
        {
            "id": 22539,
            "original_name": "Air Emergency",
            "popularity": 0.6
        },
        {
            "id": 24061,
            "original_name": "EMmergency Line",
            "popularity": 0.6
        },
        {
            "id": 24480,
            "original_name": "Total Emergency",
            "popularity": 0.6
        },
        {
            "id": 28615,
            "original_name": "Emergency Heroes",
            "popularity": 0.6
        },
        {
            "id": 31905,
            "original_name": "One Night in Emergency",
            "popularity": 0.6
        },
        {
            "id": 34572,
            "original_name": "Children's Emergency",
            "popularity": 0.6
        },
        {
            "id": 36110,
            "original_name": "Emergency Bikers",
            "popularity": 0.6
        },
        {
            "id": 37007,
            "original_name": "Emergency Sex and Other Desperate Measures",
            "popularity": 0.6
        },
        {
            "id": 41642,
            "original_name": "Pronto Emergenza",
            "popularity": 0.6
        },
        {
            "id": 41888,
            "original_name": "Emergency Call",
            "popularity": 0.6
        },
        {
            "id": 44560,
            "original_name": "Emergency with Angela Griffin",
            "popularity": 0.681
        },
        {
            "id": 46346,
            "original_name": "H.E.L.P! - Dr. Henry's Emergency Lessons for People",
            "popularity": 0.6
        },
        {
            "id": 58966,
            "original_name": "Emergency",
            "popularity": 0.6
        },
        {
            "id": 59577,
            "original_name": "999: What's Your Emergency?",
            "popularity": 2.196
        },
        {
            "id": 77505,
            "original_name": "Emergency",
            "popularity": 1.265
        },
        {
            "id": 78395,
            "original_name": "Emergency Helicopter Medics",
            "popularity": 0.646
        },
        {
            "id": 90863,
            "original_name": "Shocking Emergency Calls",
            "popularity": 0.6
        },
        {
            "id": 91962,
            "original_name": "Emergence",
            "popularity": 16.136
        },
        {
            "id": 91986,
            "original_name": "Paranormal Emergency",
            "popularity": 1.693
        },
        {
            "id": 93710,
            "original_name": "Live rescue:Emergency response",
            "popularity": 0.6
        },
        {
            "id": 99683,
            "original_name": "Australia on Fire: Climate Emergency",
            "popularity": 0.6
        },
        {
            "id": 106376,
            "original_name": "Emergency",
            "popularity": 1.484
        },
        {
            "id": 108875,
            "original_name": "Emergency Call",
            "popularity": 0.91
        },
        {
            "id": 109758,
            "original_name": "Emergency Rescue Air, Land & Sea",
            "popularity": 0.6
        },
        {
            "id": 132877,
            "original_name": "Pasaje de emergencia",
            "popularity": 0.6
        },
        {
            "id": 133038,
            "original_name": "Emergency Rescue Down Under",
            "popularity": 0.6
        },
        {
            "id": 133468,
            "original_name": "TOKYO MER: Emergency Lifesaving Room That Does Not Run",
            "popularity": 0.6
        },
        {
            "id": 136130,
            "original_name": "Weee:mergency",
            "popularity": 0.6
        },
        {
            "id": 136856,
            "original_name": "EMERGENCY",
            "popularity": 0.6
        },
        {
            "id": 152382,
            "original_name": "Emergency: LA",
            "popularity": 0.6
        }
    ],
    "relations": [
        {
            "character": "mergenc"
        },
        {
            "character": "mergenz"
        }
    ],
    "top20": [
        {
            "id": 5375,
            "original_name": "Emergency!",
            "popularity": 21.599
        },
        {
            "id": 91962,
            "original_name": "Emergence",
            "popularity": 16.136
        },
        {
            "id": 3338,
            "original_name": "Medical Emergency",
            "popularity": 7.633
        },
        {
            "id": 13344,
            "original_name": "Emergency \u2013 Ward 10",
            "popularity": 3.83
        },
        {
            "id": 1784,
            "original_name": "In Case of Emergency",
            "popularity": 3.434
        },
        {
            "id": 59577,
            "original_name": "999: What's Your Emergency?",
            "popularity": 2.196
        },
        {
            "id": 91986,
            "original_name": "Paranormal Emergency",
            "popularity": 1.693
        },
        {
            "id": 106376,
            "original_name": "Emergency",
            "popularity": 1.484
        },
        {
            "id": 77505,
            "original_name": "Emergency",
            "popularity": 1.265
        },
        {
            "id": 108875,
            "original_name": "Emergency Call",
            "popularity": 0.91
        },
        {
            "id": 44560,
            "original_name": "Emergency with Angela Griffin",
            "popularity": 0.681
        },
        {
            "id": 78395,
            "original_name": "Emergency Helicopter Medics",
            "popularity": 0.646
        },
        {
            "id": 989,
            "original_name": "Emergency Vets",
            "popularity": 0.6
        },
        {
            "id": 2884,
            "original_name": "Emergency +4",
            "popularity": 0.6
        },
        {
            "id": 12184,
            "original_name": "Emergency",
            "popularity": 0.6
        },
        {
            "id": 24061,
            "original_name": "EMmergency Line",
            "popularity": 0.6
        },
        {
            "id": 22539,
            "original_name": "Air Emergency",
            "popularity": 0.6
        },
        {
            "id": 7035,
            "original_name": "Animal Emergency",
            "popularity": 0.6
        },
        {
            "id": 19492,
            "original_name": "Highland Emergency",
            "popularity": 0.6
        },
        {
            "id": 1512,
            "original_name": "Emergency",
            "popularity": 0.6
        }
    ]
}