{
    "data": [
        {
            "id": 41330,
            "original_name": "Familie Merian",
            "popularity": 1.185
        },
        {
            "id": 131773,
            "original_name": "Kingdoms of Sumeria",
            "popularity": 0.6
        }
    ],
    "relations": [],
    "top20": [
        {
            "id": 41330,
            "original_name": "Familie Merian",
            "popularity": 1.185
        },
        {
            "id": 131773,
            "original_name": "Kingdoms of Sumeria",
            "popularity": 0.6
        }
    ]
}