{
    "data": [
        {
            "id": 50365,
            "original_name": "Mertua dan Menantu",
            "popularity": 0.6
        }
    ],
    "relations": [],
    "top20": [
        {
            "id": 50365,
            "original_name": "Mertua dan Menantu",
            "popularity": 0.6
        }
    ]
}