{
    "data": [
        {
            "id": 3,
            "original_name": "The Message",
            "popularity": 0.872
        },
        {
            "id": 297,
            "original_name": "Get the Message",
            "popularity": 0.6
        },
        {
            "id": 20883,
            "original_name": "Message Stick",
            "popularity": 0.6
        },
        {
            "id": 32714,
            "original_name": "The Message",
            "popularity": 0.6
        },
        {
            "id": 71062,
            "original_name": "Le message de Mad\u00e9nian et VDB",
            "popularity": 0.6
        },
        {
            "id": 76091,
            "original_name": "Message \u00e0 caract\u00e8re informatif",
            "popularity": 0.905
        },
        {
            "id": 77648,
            "original_name": "Message Received",
            "popularity": 0.6
        },
        {
            "id": 96170,
            "original_name": "La vita promessa",
            "popularity": 0.743
        },
        {
            "id": 110315,
            "original_name": "Kal Penn Approves This Message",
            "popularity": 0.84
        }
    ],
    "relations": [],
    "top20": [
        {
            "id": 3,
            "original_name": "The Message",
            "popularity": 0.872
        },
        {
            "id": 297,
            "original_name": "Get the Message",
            "popularity": 0.6
        },
        {
            "id": 20883,
            "original_name": "Message Stick",
            "popularity": 0.6
        },
        {
            "id": 32714,
            "original_name": "The Message",
            "popularity": 0.6
        },
        {
            "id": 71062,
            "original_name": "Le message de Mad\u00e9nian et VDB",
            "popularity": 0.6
        },
        {
            "id": 76091,
            "original_name": "Message \u00e0 caract\u00e8re informatif",
            "popularity": 0.905
        },
        {
            "id": 77648,
            "original_name": "Message Received",
            "popularity": 0.6
        },
        {
            "id": 96170,
            "original_name": "La vita promessa",
            "popularity": 0.743
        },
        {
            "id": 110315,
            "original_name": "Kal Penn Approves This Message",
            "popularity": 0.84
        }
    ]
}