{
    "data": [
        {
            "id": 14970,
            "original_name": "Sunrise Semester",
            "popularity": 0.6
        },
        {
            "id": 41943,
            "original_name": "Semesterferien",
            "popularity": 0.848
        },
        {
            "id": 51035,
            "original_name": "Mesternes Mester",
            "popularity": 0.661
        },
        {
            "id": 68064,
            "original_name": "Amat\u00f8renes mester",
            "popularity": 1.149
        },
        {
            "id": 68975,
            "original_name": "Homestead Rescue",
            "popularity": 11.185
        },
        {
            "id": 83831,
            "original_name": "Mekk Elek, az ezermester",
            "popularity": 0.6
        },
        {
            "id": 84233,
            "original_name": "Semester",
            "popularity": 1.502
        },
        {
            "id": 87809,
            "original_name": "Stormester",
            "popularity": 5.778
        },
        {
            "id": 91971,
            "original_name": "K\u00fazeln\u00e9 meste\u010dko",
            "popularity": 0.84
        },
        {
            "id": 105780,
            "original_name": "Quizmester",
            "popularity": 0.6
        },
        {
            "id": 111195,
            "original_name": "Homestead Rescue: Raney Ranch",
            "popularity": 0.693
        },
        {
            "id": 112662,
            "original_name": "Mesterlige ombygninger",
            "popularity": 0.64
        },
        {
            "id": 114976,
            "original_name": "O meste\u010dku za hradbami",
            "popularity": 0.6
        },
        {
            "id": 120345,
            "original_name": "MesterSkaberne",
            "popularity": 0.6
        },
        {
            "id": 120869,
            "original_name": "AaB Mesterskabss\u00e6son",
            "popularity": 0.6
        },
        {
            "id": 127067,
            "original_name": "Symesterskapet",
            "popularity": 0.6
        },
        {
            "id": 128820,
            "original_name": "Mestercukr\u00e1sz",
            "popularity": 0.969
        }
    ],
    "relations": [],
    "top20": [
        {
            "id": 14970,
            "original_name": "Sunrise Semester",
            "popularity": 0.6
        },
        {
            "id": 41943,
            "original_name": "Semesterferien",
            "popularity": 0.848
        },
        {
            "id": 51035,
            "original_name": "Mesternes Mester",
            "popularity": 0.661
        },
        {
            "id": 68064,
            "original_name": "Amat\u00f8renes mester",
            "popularity": 1.149
        },
        {
            "id": 68975,
            "original_name": "Homestead Rescue",
            "popularity": 11.185
        },
        {
            "id": 83831,
            "original_name": "Mekk Elek, az ezermester",
            "popularity": 0.6
        },
        {
            "id": 84233,
            "original_name": "Semester",
            "popularity": 1.502
        },
        {
            "id": 87809,
            "original_name": "Stormester",
            "popularity": 5.778
        },
        {
            "id": 91971,
            "original_name": "K\u00fazeln\u00e9 meste\u010dko",
            "popularity": 0.84
        },
        {
            "id": 105780,
            "original_name": "Quizmester",
            "popularity": 0.6
        },
        {
            "id": 111195,
            "original_name": "Homestead Rescue: Raney Ranch",
            "popularity": 0.693
        },
        {
            "id": 112662,
            "original_name": "Mesterlige ombygninger",
            "popularity": 0.64
        },
        {
            "id": 114976,
            "original_name": "O meste\u010dku za hradbami",
            "popularity": 0.6
        },
        {
            "id": 120345,
            "original_name": "MesterSkaberne",
            "popularity": 0.6
        },
        {
            "id": 120869,
            "original_name": "AaB Mesterskabss\u00e6son",
            "popularity": 0.6
        },
        {
            "id": 127067,
            "original_name": "Symesterskapet",
            "popularity": 0.6
        },
        {
            "id": 128820,
            "original_name": "Mestercukr\u00e1sz",
            "popularity": 0.969
        }
    ]
}