{
    "data": [
        {
            "id": 70436,
            "original_name": "Awesometacular",
            "popularity": 0.6
        }
    ],
    "relations": [],
    "top20": [
        {
            "id": 70436,
            "original_name": "Awesometacular",
            "popularity": 0.6
        }
    ]
}