{
    "data": [
        {
            "id": 653,
            "original_name": "Metalocalypse",
            "popularity": 24.859
        },
        {
            "id": 5149,
            "original_name": "Metal Mania",
            "popularity": 0.6
        },
        {
            "id": 5657,
            "original_name": "Metal Mickey",
            "popularity": 0.957
        },
        {
            "id": 6368,
            "original_name": "Full Metal Challenge",
            "popularity": 2.308
        },
        {
            "id": 6608,
            "original_name": "Ten Years of Tomb Raider: A GameTap Retrospective",
            "popularity": 0.6
        },
        {
            "id": 7393,
            "original_name": "Murder Music: A History of Black Metal",
            "popularity": 0.6
        },
        {
            "id": 9680,
            "original_name": "Heavy: The Story of Metal",
            "popularity": 1.4
        },
        {
            "id": 10174,
            "original_name": "Metal Asylum",
            "popularity": 0.6
        },
        {
            "id": 10633,
            "original_name": "Slave to the Metal",
            "popularity": 0.6
        },
        {
            "id": 11063,
            "original_name": "WWE Jakked/Metal",
            "popularity": 2.572
        },
        {
            "id": 12424,
            "original_name": "The Glam Metal Detectives",
            "popularity": 1.172
        },
        {
            "id": 16734,
            "original_name": "That Metal Show",
            "popularity": 3.3
        },
        {
            "id": 16792,
            "original_name": "Hot Metal",
            "popularity": 1.765
        },
        {
            "id": 19196,
            "original_name": "Flying Heavy Metal",
            "popularity": 0.6
        },
        {
            "id": 22763,
            "original_name": "Talking Metal",
            "popularity": 0.6
        },
        {
            "id": 23702,
            "original_name": "Soreyuke! Gedou Otometai",
            "popularity": 0.604
        },
        {
            "id": 23826,
            "original_name": "Metamorphoses",
            "popularity": 0.6
        },
        {
            "id": 30699,
            "original_name": "Talking Metal On Fuse",
            "popularity": 0.84
        },
        {
            "id": 31280,
            "original_name": "The History of Heavy Metal",
            "popularity": 0.6
        },
        {
            "id": 31911,
            "original_name": "\u92fc\u306e\u932c\u91d1\u8853\u5e2b FULLMETAL ALCHEMIST",
            "popularity": 71.71
        },
        {
            "id": 33302,
            "original_name": "MetaJets",
            "popularity": 0.6
        },
        {
            "id": 36332,
            "original_name": "Dakeshimetai",
            "popularity": 0.6
        },
        {
            "id": 37312,
            "original_name": "Tsumetai Tsuki",
            "popularity": 0.6
        },
        {
            "id": 42277,
            "original_name": "Metal Evolution",
            "popularity": 1.691
        },
        {
            "id": 42770,
            "original_name": "Full Metal Jousting",
            "popularity": 1.404
        },
        {
            "id": 45658,
            "original_name": "Metal Hurlant Chronicles",
            "popularity": 7.127
        },
        {
            "id": 53501,
            "original_name": "Tung metal",
            "popularity": 0.6
        },
        {
            "id": 54404,
            "original_name": "Heavy Metal Task Force",
            "popularity": 0.6
        },
        {
            "id": 55696,
            "original_name": "MetaDating",
            "popularity": 0.6
        },
        {
            "id": 70436,
            "original_name": "Awesometacular",
            "popularity": 0.6
        },
        {
            "id": 71458,
            "original_name": "Metal Gear Scanlon",
            "popularity": 0.6
        },
        {
            "id": 75151,
            "original_name": "No te metas en pol\u00edtica",
            "popularity": 0.84
        },
        {
            "id": 75950,
            "original_name": "Texas Metal",
            "popularity": 1.708
        },
        {
            "id": 81590,
            "original_name": "Metanol",
            "popularity": 2.265
        },
        {
            "id": 94447,
            "original_name": "Meta Runner",
            "popularity": 1.483
        },
        {
            "id": 101654,
            "original_name": "Story of Metal",
            "popularity": 0.6
        },
        {
            "id": 110861,
            "original_name": "Helvete: Historien om Norsk Black Metal",
            "popularity": 1.989
        },
        {
            "id": 113761,
            "original_name": "Metamorphosis",
            "popularity": 0.6
        },
        {
            "id": 115427,
            "original_name": "Tung Metal",
            "popularity": 0.6
        },
        {
            "id": 117806,
            "original_name": "Metagame",
            "popularity": 0.6
        },
        {
            "id": 123566,
            "original_name": "Metal Family",
            "popularity": 30.191
        },
        {
            "id": 130969,
            "original_name": "Metal Shop Masters",
            "popularity": 7.132
        },
        {
            "id": 132718,
            "original_name": "Weekendowa metamorfoza",
            "popularity": 0.6
        },
        {
            "id": 133748,
            "original_name": "Twisted Metal",
            "popularity": 0.626
        },
        {
            "id": 134316,
            "original_name": "Metalworks!",
            "popularity": 0.6
        },
        {
            "id": 134361,
            "original_name": "Fullmetal Alchemist: 4-Koma Theater",
            "popularity": 2.324
        },
        {
            "id": 135180,
            "original_name": "Metallica: Some Kind of Monster",
            "popularity": 0.6
        },
        {
            "id": 135288,
            "original_name": "\u0160\u00e9f na smetan\u011b",
            "popularity": 0.6
        },
        {
            "id": 138930,
            "original_name": "MasterClass: Metallica Teaches Being a Band",
            "popularity": 0.84
        },
        {
            "id": 152458,
            "original_name": "Full Metal Banquette",
            "popularity": 1.96
        }
    ],
    "relations": [
        {
            "character": "metal"
        },
        {
            "character": "metap"
        },
        {
            "character": "metai"
        },
        {
            "character": "metam"
        },
        {
            "character": "metaj"
        },
        {
            "character": "metad"
        },
        {
            "character": "metac"
        },
        {
            "character": "metas"
        },
        {
            "character": "metan"
        },
        {
            "character": "metag"
        }
    ],
    "top20": [
        {
            "id": 31911,
            "original_name": "\u92fc\u306e\u932c\u91d1\u8853\u5e2b FULLMETAL ALCHEMIST",
            "popularity": 71.71
        },
        {
            "id": 123566,
            "original_name": "Metal Family",
            "popularity": 30.191
        },
        {
            "id": 653,
            "original_name": "Metalocalypse",
            "popularity": 24.859
        },
        {
            "id": 130969,
            "original_name": "Metal Shop Masters",
            "popularity": 7.132
        },
        {
            "id": 45658,
            "original_name": "Metal Hurlant Chronicles",
            "popularity": 7.127
        },
        {
            "id": 16734,
            "original_name": "That Metal Show",
            "popularity": 3.3
        },
        {
            "id": 11063,
            "original_name": "WWE Jakked/Metal",
            "popularity": 2.572
        },
        {
            "id": 134361,
            "original_name": "Fullmetal Alchemist: 4-Koma Theater",
            "popularity": 2.324
        },
        {
            "id": 6368,
            "original_name": "Full Metal Challenge",
            "popularity": 2.308
        },
        {
            "id": 81590,
            "original_name": "Metanol",
            "popularity": 2.265
        },
        {
            "id": 110861,
            "original_name": "Helvete: Historien om Norsk Black Metal",
            "popularity": 1.989
        },
        {
            "id": 152458,
            "original_name": "Full Metal Banquette",
            "popularity": 1.96
        },
        {
            "id": 16792,
            "original_name": "Hot Metal",
            "popularity": 1.765
        },
        {
            "id": 75950,
            "original_name": "Texas Metal",
            "popularity": 1.708
        },
        {
            "id": 42277,
            "original_name": "Metal Evolution",
            "popularity": 1.691
        },
        {
            "id": 94447,
            "original_name": "Meta Runner",
            "popularity": 1.483
        },
        {
            "id": 42770,
            "original_name": "Full Metal Jousting",
            "popularity": 1.404
        },
        {
            "id": 9680,
            "original_name": "Heavy: The Story of Metal",
            "popularity": 1.4
        },
        {
            "id": 12424,
            "original_name": "The Glam Metal Detectives",
            "popularity": 1.172
        },
        {
            "id": 5657,
            "original_name": "Metal Mickey",
            "popularity": 0.957
        }
    ]
}