{
    "data": [
        {
            "id": 9133,
            "original_name": "They Came From Somewhere Else",
            "popularity": 1.125
        },
        {
            "id": 15594,
            "original_name": "A River Somewhere",
            "popularity": 0.6
        },
        {
            "id": 31151,
            "original_name": "Somewhere in My Heart",
            "popularity": 0.6
        },
        {
            "id": 70390,
            "original_name": "Somewhere Between",
            "popularity": 11.418
        },
        {
            "id": 86252,
            "original_name": "Timothy Spall: Somewhere at Sea",
            "popularity": 0.831
        },
        {
            "id": 89096,
            "original_name": "Somewhere Over the Sky",
            "popularity": 0.6
        },
        {
            "id": 106308,
            "original_name": "Somebody Somewhere",
            "popularity": 1.285
        }
    ],
    "relations": [],
    "top20": [
        {
            "id": 9133,
            "original_name": "They Came From Somewhere Else",
            "popularity": 1.125
        },
        {
            "id": 15594,
            "original_name": "A River Somewhere",
            "popularity": 0.6
        },
        {
            "id": 31151,
            "original_name": "Somewhere in My Heart",
            "popularity": 0.6
        },
        {
            "id": 70390,
            "original_name": "Somewhere Between",
            "popularity": 11.418
        },
        {
            "id": 86252,
            "original_name": "Timothy Spall: Somewhere at Sea",
            "popularity": 0.831
        },
        {
            "id": 89096,
            "original_name": "Somewhere Over the Sky",
            "popularity": 0.6
        },
        {
            "id": 106308,
            "original_name": "Somebody Somewhere",
            "popularity": 1.285
        }
    ]
}