{
    "data": [
        {
            "id": 1271,
            "original_name": "Hardcastle and McCormick",
            "popularity": 12.14
        },
        {
            "id": 1965,
            "original_name": "The Mick Molloy Show",
            "popularity": 0.6
        },
        {
            "id": 2208,
            "original_name": "The Mickey Mouse Club",
            "popularity": 7.25
        },
        {
            "id": 2330,
            "original_name": "Mickey Mouse Works",
            "popularity": 7.258
        },
        {
            "id": 3654,
            "original_name": "Mickey Spillane's Mike Hammer",
            "popularity": 4.374
        },
        {
            "id": 3934,
            "original_name": "Mickey Mouse Clubhouse",
            "popularity": 52.933
        },
        {
            "id": 5657,
            "original_name": "Metal Mickey",
            "popularity": 0.957
        },
        {
            "id": 5945,
            "original_name": "Mickey",
            "popularity": 1.49
        },
        {
            "id": 8544,
            "original_name": "Devan Mickell's My New BFF",
            "popularity": 0.6
        },
        {
            "id": 9852,
            "original_name": "Mickey's Mouse Tracks",
            "popularity": 0.6
        },
        {
            "id": 10292,
            "original_name": "Good Morning, Mickey!",
            "popularity": 0.6
        },
        {
            "id": 19768,
            "original_name": "Mickey's 60th Birthday",
            "popularity": 0.653
        },
        {
            "id": 22703,
            "original_name": "Mick And Mac",
            "popularity": 0.6
        },
        {
            "id": 22798,
            "original_name": "Mick And Montmorency / Jobstoppers",
            "popularity": 0.6
        },
        {
            "id": 34358,
            "original_name": "Mickie Finn's",
            "popularity": 0.6
        },
        {
            "id": 39035,
            "original_name": "Mickey's Farm",
            "popularity": 0.6
        },
        {
            "id": 46879,
            "original_name": "Mickey Mouse",
            "popularity": 30.754
        },
        {
            "id": 55057,
            "original_name": "The New Mickey Mouse Club",
            "popularity": 0.697
        },
        {
            "id": 60890,
            "original_name": "The Legend of Mick Dodge",
            "popularity": 2.374
        },
        {
            "id": 66551,
            "original_name": "The Mick",
            "popularity": 14.611
        },
        {
            "id": 70823,
            "original_name": "Mickey and the Roadster Racers",
            "popularity": 13.447
        },
        {
            "id": 73930,
            "original_name": "Mickey Mouse Club",
            "popularity": 0.6
        },
        {
            "id": 81760,
            "original_name": "Die Gimmicks",
            "popularity": 1.09
        },
        {
            "id": 89515,
            "original_name": "Micky Flanagan's Detour de France",
            "popularity": 0.6
        },
        {
            "id": 101286,
            "original_name": "Mickey Mouse: \u00a1 Vamos de aventura!",
            "popularity": 0.6
        },
        {
            "id": 105979,
            "original_name": "Micky Flanagan: Thinking Aloud",
            "popularity": 0.6
        },
        {
            "id": 109930,
            "original_name": "The Wonderful World of Mickey Mouse",
            "popularity": 20.374
        },
        {
            "id": 116160,
            "original_name": "Danny and Mick",
            "popularity": 0.6
        },
        {
            "id": 117074,
            "original_name": "Mickey Go Local",
            "popularity": 1.266
        },
        {
            "id": 117132,
            "original_name": "Mickey Mania",
            "popularity": 0.961
        },
        {
            "id": 127633,
            "original_name": "Mickey Mouse Funhouse",
            "popularity": 24.151
        },
        {
            "id": 131692,
            "original_name": "Mickey Mouse: Hot Diggity Dog Tales",
            "popularity": 1.751
        },
        {
            "id": 133820,
            "original_name": "Mickey's Mousekersize",
            "popularity": 0.6
        },
        {
            "id": 138973,
            "original_name": "Club Mickey Mouse",
            "popularity": 1.4
        },
        {
            "id": 139612,
            "original_name": "Mickey Mouse Mixed-Up Adventures",
            "popularity": 3.479
        }
    ],
    "relations": [
        {
            "character": "micke"
        },
        {
            "character": "micki"
        },
        {
            "character": "micks"
        },
        {
            "character": "micky"
        }
    ],
    "top20": [
        {
            "id": 3934,
            "original_name": "Mickey Mouse Clubhouse",
            "popularity": 52.933
        },
        {
            "id": 46879,
            "original_name": "Mickey Mouse",
            "popularity": 30.754
        },
        {
            "id": 127633,
            "original_name": "Mickey Mouse Funhouse",
            "popularity": 24.151
        },
        {
            "id": 109930,
            "original_name": "The Wonderful World of Mickey Mouse",
            "popularity": 20.374
        },
        {
            "id": 66551,
            "original_name": "The Mick",
            "popularity": 14.611
        },
        {
            "id": 70823,
            "original_name": "Mickey and the Roadster Racers",
            "popularity": 13.447
        },
        {
            "id": 1271,
            "original_name": "Hardcastle and McCormick",
            "popularity": 12.14
        },
        {
            "id": 2330,
            "original_name": "Mickey Mouse Works",
            "popularity": 7.258
        },
        {
            "id": 2208,
            "original_name": "The Mickey Mouse Club",
            "popularity": 7.25
        },
        {
            "id": 3654,
            "original_name": "Mickey Spillane's Mike Hammer",
            "popularity": 4.374
        },
        {
            "id": 139612,
            "original_name": "Mickey Mouse Mixed-Up Adventures",
            "popularity": 3.479
        },
        {
            "id": 60890,
            "original_name": "The Legend of Mick Dodge",
            "popularity": 2.374
        },
        {
            "id": 131692,
            "original_name": "Mickey Mouse: Hot Diggity Dog Tales",
            "popularity": 1.751
        },
        {
            "id": 5945,
            "original_name": "Mickey",
            "popularity": 1.49
        },
        {
            "id": 138973,
            "original_name": "Club Mickey Mouse",
            "popularity": 1.4
        },
        {
            "id": 117074,
            "original_name": "Mickey Go Local",
            "popularity": 1.266
        },
        {
            "id": 81760,
            "original_name": "Die Gimmicks",
            "popularity": 1.09
        },
        {
            "id": 117132,
            "original_name": "Mickey Mania",
            "popularity": 0.961
        },
        {
            "id": 5657,
            "original_name": "Metal Mickey",
            "popularity": 0.957
        },
        {
            "id": 55057,
            "original_name": "The New Mickey Mouse Club",
            "popularity": 0.697
        }
    ]
}