{
    "data": [
        {
            "id": 3567,
            "original_name": "Friday Night Premiere Thunder",
            "popularity": 0.6
        },
        {
            "id": 6738,
            "original_name": "Dino: World Premiere Toons",
            "popularity": 0.6
        },
        {
            "id": 20946,
            "original_name": "Comedy Premieres",
            "popularity": 0.6
        },
        {
            "id": 21598,
            "original_name": "Alcoa Premiere",
            "popularity": 4.294
        },
        {
            "id": 24857,
            "original_name": "DR2 Premiere",
            "popularity": 0.6
        },
        {
            "id": 25572,
            "original_name": "F'N MTV Premieres",
            "popularity": 0.6
        },
        {
            "id": 27258,
            "original_name": "Hollywood Premiere",
            "popularity": 0.6
        },
        {
            "id": 30613,
            "original_name": "Premiere",
            "popularity": 0.781
        },
        {
            "id": 51914,
            "original_name": "SWEET DEN OF PREMIERE",
            "popularity": 0.6
        },
        {
            "id": 54191,
            "original_name": "Comedy Premiere",
            "popularity": 0.6
        },
        {
            "id": 54520,
            "original_name": "Premiere",
            "popularity": 0.6
        },
        {
            "id": 121921,
            "original_name": "Den Store Premiere",
            "popularity": 0.939
        },
        {
            "id": 152246,
            "original_name": "IZ*ONE One-reeler Premiere",
            "popularity": 0.6
        }
    ],
    "relations": [],
    "top20": [
        {
            "id": 3567,
            "original_name": "Friday Night Premiere Thunder",
            "popularity": 0.6
        },
        {
            "id": 6738,
            "original_name": "Dino: World Premiere Toons",
            "popularity": 0.6
        },
        {
            "id": 20946,
            "original_name": "Comedy Premieres",
            "popularity": 0.6
        },
        {
            "id": 21598,
            "original_name": "Alcoa Premiere",
            "popularity": 4.294
        },
        {
            "id": 24857,
            "original_name": "DR2 Premiere",
            "popularity": 0.6
        },
        {
            "id": 25572,
            "original_name": "F'N MTV Premieres",
            "popularity": 0.6
        },
        {
            "id": 27258,
            "original_name": "Hollywood Premiere",
            "popularity": 0.6
        },
        {
            "id": 30613,
            "original_name": "Premiere",
            "popularity": 0.781
        },
        {
            "id": 51914,
            "original_name": "SWEET DEN OF PREMIERE",
            "popularity": 0.6
        },
        {
            "id": 54191,
            "original_name": "Comedy Premiere",
            "popularity": 0.6
        },
        {
            "id": 54520,
            "original_name": "Premiere",
            "popularity": 0.6
        },
        {
            "id": 121921,
            "original_name": "Den Store Premiere",
            "popularity": 0.939
        },
        {
            "id": 152246,
            "original_name": "IZ*ONE One-reeler Premiere",
            "popularity": 0.6
        }
    ]
}