{
    "data": [
        {
            "id": 12861,
            "original_name": "Amigas y rivales",
            "popularity": 4.645
        },
        {
            "id": 15666,
            "original_name": "Querida Enemiga",
            "popularity": 0.6
        },
        {
            "id": 16269,
            "original_name": "Amada enemiga",
            "popularity": 0.6
        },
        {
            "id": 16798,
            "original_name": "Dulce Enemiga",
            "popularity": 0.6
        },
        {
            "id": 22149,
            "original_name": "Legendz: Yomigaeru Ryuuou Densetsu",
            "popularity": 1.231
        },
        {
            "id": 38063,
            "original_name": "Yomigaeru Kinro",
            "popularity": 1.134
        },
        {
            "id": 54913,
            "original_name": "O tzitzikas kai o mermigas",
            "popularity": 0.6
        },
        {
            "id": 55580,
            "original_name": "Iron Chef Yomigaeru",
            "popularity": 0.6
        },
        {
            "id": 98892,
            "original_name": "Schmigadoon!",
            "popularity": 21.438
        },
        {
            "id": 120992,
            "original_name": "Mi amigo hormiga",
            "popularity": 1.148
        },
        {
            "id": 123840,
            "original_name": "Velhas Amigas",
            "popularity": 0.931
        },
        {
            "id": 135388,
            "original_name": "Amigas & Rivais",
            "popularity": 0.6
        }
    ],
    "relations": [],
    "top20": [
        {
            "id": 12861,
            "original_name": "Amigas y rivales",
            "popularity": 4.645
        },
        {
            "id": 15666,
            "original_name": "Querida Enemiga",
            "popularity": 0.6
        },
        {
            "id": 16269,
            "original_name": "Amada enemiga",
            "popularity": 0.6
        },
        {
            "id": 16798,
            "original_name": "Dulce Enemiga",
            "popularity": 0.6
        },
        {
            "id": 22149,
            "original_name": "Legendz: Yomigaeru Ryuuou Densetsu",
            "popularity": 1.231
        },
        {
            "id": 38063,
            "original_name": "Yomigaeru Kinro",
            "popularity": 1.134
        },
        {
            "id": 54913,
            "original_name": "O tzitzikas kai o mermigas",
            "popularity": 0.6
        },
        {
            "id": 55580,
            "original_name": "Iron Chef Yomigaeru",
            "popularity": 0.6
        },
        {
            "id": 98892,
            "original_name": "Schmigadoon!",
            "popularity": 21.438
        },
        {
            "id": 120992,
            "original_name": "Mi amigo hormiga",
            "popularity": 1.148
        },
        {
            "id": 123840,
            "original_name": "Velhas Amigas",
            "popularity": 0.931
        },
        {
            "id": 135388,
            "original_name": "Amigas & Rivais",
            "popularity": 0.6
        }
    ]
}