{
    "data": [
        {
            "id": 41002,
            "original_name": "Die Komiker",
            "popularity": 0.6
        },
        {
            "id": 54301,
            "original_name": "En komikers uppv\u00e4xt",
            "popularity": 0.6
        },
        {
            "id": 55290,
            "original_name": "Komiker i Arbeid",
            "popularity": 0.6
        },
        {
            "id": 104320,
            "original_name": "Komiker for en aften",
            "popularity": 0.903
        }
    ],
    "relations": [],
    "top20": [
        {
            "id": 41002,
            "original_name": "Die Komiker",
            "popularity": 0.6
        },
        {
            "id": 54301,
            "original_name": "En komikers uppv\u00e4xt",
            "popularity": 0.6
        },
        {
            "id": 55290,
            "original_name": "Komiker i Arbeid",
            "popularity": 0.6
        },
        {
            "id": 104320,
            "original_name": "Komiker for en aften",
            "popularity": 0.903
        }
    ]
}