{
    "data": [
        {
            "id": 3377,
            "original_name": "The Andy Milonakis Show",
            "popularity": 1.374
        },
        {
            "id": 24845,
            "original_name": "Wet volgens Milo, De",
            "popularity": 0.6
        },
        {
            "id": 47579,
            "original_name": "The Fall of Milosevic",
            "popularity": 0.6
        },
        {
            "id": 48071,
            "original_name": "Tylko milosc",
            "popularity": 0.6
        },
        {
            "id": 67549,
            "original_name": "Milo Murphy's Law",
            "popularity": 17.565
        },
        {
            "id": 70703,
            "original_name": "A vous de jouer milord",
            "popularity": 1.001
        },
        {
            "id": 77399,
            "original_name": "Milot Land",
            "popularity": 0.6
        },
        {
            "id": 89429,
            "original_name": "A Loja do Camilo",
            "popularity": 0.915
        },
        {
            "id": 100856,
            "original_name": "Camilo, O Pendura",
            "popularity": 0.6
        },
        {
            "id": 108830,
            "original_name": "Milovn\u00edci v\u00edna",
            "popularity": 0.6
        },
        {
            "id": 108913,
            "original_name": "Eesti Krimilood",
            "popularity": 0.6
        },
        {
            "id": 115820,
            "original_name": "Vedat Milor \u0130le En \u0130yisi",
            "popularity": 0.6
        },
        {
            "id": 126908,
            "original_name": "Camilo & Filho Lda.",
            "popularity": 0.6
        },
        {
            "id": 133438,
            "original_name": "As Aventuras de Camilo",
            "popularity": 0.6
        },
        {
            "id": 138911,
            "original_name": "Camilo - O Presidente",
            "popularity": 0.6
        }
    ],
    "relations": [],
    "top20": [
        {
            "id": 3377,
            "original_name": "The Andy Milonakis Show",
            "popularity": 1.374
        },
        {
            "id": 24845,
            "original_name": "Wet volgens Milo, De",
            "popularity": 0.6
        },
        {
            "id": 47579,
            "original_name": "The Fall of Milosevic",
            "popularity": 0.6
        },
        {
            "id": 48071,
            "original_name": "Tylko milosc",
            "popularity": 0.6
        },
        {
            "id": 67549,
            "original_name": "Milo Murphy's Law",
            "popularity": 17.565
        },
        {
            "id": 70703,
            "original_name": "A vous de jouer milord",
            "popularity": 1.001
        },
        {
            "id": 77399,
            "original_name": "Milot Land",
            "popularity": 0.6
        },
        {
            "id": 89429,
            "original_name": "A Loja do Camilo",
            "popularity": 0.915
        },
        {
            "id": 100856,
            "original_name": "Camilo, O Pendura",
            "popularity": 0.6
        },
        {
            "id": 108830,
            "original_name": "Milovn\u00edci v\u00edna",
            "popularity": 0.6
        },
        {
            "id": 108913,
            "original_name": "Eesti Krimilood",
            "popularity": 0.6
        },
        {
            "id": 115820,
            "original_name": "Vedat Milor \u0130le En \u0130yisi",
            "popularity": 0.6
        },
        {
            "id": 126908,
            "original_name": "Camilo & Filho Lda.",
            "popularity": 0.6
        },
        {
            "id": 133438,
            "original_name": "As Aventuras de Camilo",
            "popularity": 0.6
        },
        {
            "id": 138911,
            "original_name": "Camilo - O Presidente",
            "popularity": 0.6
        }
    ]
}