{
    "data": [
        {
            "id": 21842,
            "original_name": "Zes minuten",
            "popularity": 0.6
        },
        {
            "id": 54889,
            "original_name": "Minuten",
            "popularity": 0.6
        },
        {
            "id": 60658,
            "original_name": "En unge i minuten",
            "popularity": 0.6
        },
        {
            "id": 68729,
            "original_name": "30 minuten",
            "popularity": 0.6
        },
        {
            "id": 68730,
            "original_name": "30 minuten",
            "popularity": 0.6
        },
        {
            "id": 68731,
            "original_name": "30 minuten",
            "popularity": 0.6
        },
        {
            "id": 68732,
            "original_name": "30 minuten",
            "popularity": 0.6
        },
        {
            "id": 90782,
            "original_name": "30 Minuten Deutschland",
            "popularity": 1.576
        },
        {
            "id": 99033,
            "original_name": "2 Minuten 2 Millionen - Die PULS 4 Start Up Show",
            "popularity": 0.6
        },
        {
            "id": 105654,
            "original_name": "Andr\u00e9 Van Duin revue - Een reis om de wereld in 180 minuten (20 jaar Andr\u00e9)",
            "popularity": 0.6
        },
        {
            "id": 108916,
            "original_name": "60 Minuten Politik",
            "popularity": 0.609
        },
        {
            "id": 120730,
            "original_name": "2 Minuten",
            "popularity": 0.976
        },
        {
            "id": 132476,
            "original_name": "5 Minuten Harry Podcast",
            "popularity": 0.6
        }
    ],
    "relations": [],
    "top20": [
        {
            "id": 21842,
            "original_name": "Zes minuten",
            "popularity": 0.6
        },
        {
            "id": 54889,
            "original_name": "Minuten",
            "popularity": 0.6
        },
        {
            "id": 60658,
            "original_name": "En unge i minuten",
            "popularity": 0.6
        },
        {
            "id": 68729,
            "original_name": "30 minuten",
            "popularity": 0.6
        },
        {
            "id": 68730,
            "original_name": "30 minuten",
            "popularity": 0.6
        },
        {
            "id": 68731,
            "original_name": "30 minuten",
            "popularity": 0.6
        },
        {
            "id": 68732,
            "original_name": "30 minuten",
            "popularity": 0.6
        },
        {
            "id": 90782,
            "original_name": "30 Minuten Deutschland",
            "popularity": 1.576
        },
        {
            "id": 99033,
            "original_name": "2 Minuten 2 Millionen - Die PULS 4 Start Up Show",
            "popularity": 0.6
        },
        {
            "id": 105654,
            "original_name": "Andr\u00e9 Van Duin revue - Een reis om de wereld in 180 minuten (20 jaar Andr\u00e9)",
            "popularity": 0.6
        },
        {
            "id": 108916,
            "original_name": "60 Minuten Politik",
            "popularity": 0.609
        },
        {
            "id": 120730,
            "original_name": "2 Minuten",
            "popularity": 0.976
        },
        {
            "id": 132476,
            "original_name": "5 Minuten Harry Podcast",
            "popularity": 0.6
        }
    ]
}