{
    "data": [
        {
            "id": 84423,
            "original_name": "Za sv\u011bdky minulosti",
            "popularity": 0.6
        }
    ],
    "relations": [],
    "top20": [
        {
            "id": 84423,
            "original_name": "Za sv\u011bdky minulosti",
            "popularity": 0.6
        }
    ]
}