{
    "data": [
        {
            "id": 11622,
            "original_name": "Raising Miranda",
            "popularity": 1.51
        },
        {
            "id": 31500,
            "original_name": "Miranda",
            "popularity": 8.637
        },
        {
            "id": 104380,
            "original_name": "Hotel Almirante",
            "popularity": 0.68
        }
    ],
    "relations": [],
    "top20": [
        {
            "id": 11622,
            "original_name": "Raising Miranda",
            "popularity": 1.51
        },
        {
            "id": 31500,
            "original_name": "Miranda",
            "popularity": 8.637
        },
        {
            "id": 104380,
            "original_name": "Hotel Almirante",
            "popularity": 0.68
        }
    ]
}