{
    "data": [
        {
            "id": 27360,
            "original_name": "Hakusen Nagashi~Yume Miro Goro Sugitemo",
            "popularity": 0.6
        },
        {
            "id": 59878,
            "original_name": "Julia Zemiro's Home Delivery",
            "popularity": 2.775
        },
        {
            "id": 79083,
            "original_name": "Oxxxymiron",
            "popularity": 0.6
        },
        {
            "id": 91357,
            "original_name": "Le Regard dans le miroir",
            "popularity": 1.096
        },
        {
            "id": 93130,
            "original_name": "3 plus 1 s Miroslavem Donutilem",
            "popularity": 0.6
        },
        {
            "id": 97356,
            "original_name": "V\u016fn\u011b alb\u00e1nsk\u00e9 kuchyn\u011b s Miroslavem Donutilem",
            "popularity": 1.367
        },
        {
            "id": 100516,
            "original_name": "Le Miroir de l'eau",
            "popularity": 0.6
        },
        {
            "id": 113777,
            "original_name": "Yougoslavie, de l'autre c\u00f4t\u00e9 du miroir",
            "popularity": 0.6
        },
        {
            "id": 116433,
            "original_name": "\u865a\u7121\u6226\u53f2MIROKU",
            "popularity": 0.6
        },
        {
            "id": 122418,
            "original_name": "Les Sesterain ou le miroir 2000",
            "popularity": 0.6
        }
    ],
    "relations": [],
    "top20": [
        {
            "id": 27360,
            "original_name": "Hakusen Nagashi~Yume Miro Goro Sugitemo",
            "popularity": 0.6
        },
        {
            "id": 59878,
            "original_name": "Julia Zemiro's Home Delivery",
            "popularity": 2.775
        },
        {
            "id": 79083,
            "original_name": "Oxxxymiron",
            "popularity": 0.6
        },
        {
            "id": 91357,
            "original_name": "Le Regard dans le miroir",
            "popularity": 1.096
        },
        {
            "id": 93130,
            "original_name": "3 plus 1 s Miroslavem Donutilem",
            "popularity": 0.6
        },
        {
            "id": 97356,
            "original_name": "V\u016fn\u011b alb\u00e1nsk\u00e9 kuchyn\u011b s Miroslavem Donutilem",
            "popularity": 1.367
        },
        {
            "id": 100516,
            "original_name": "Le Miroir de l'eau",
            "popularity": 0.6
        },
        {
            "id": 113777,
            "original_name": "Yougoslavie, de l'autre c\u00f4t\u00e9 du miroir",
            "popularity": 0.6
        },
        {
            "id": 116433,
            "original_name": "\u865a\u7121\u6226\u53f2MIROKU",
            "popularity": 0.6
        },
        {
            "id": 122418,
            "original_name": "Les Sesterain ou le miroir 2000",
            "popularity": 0.6
        }
    ]
}