{
    "data": [
        {
            "id": 78625,
            "original_name": "The Mitsi Show",
            "popularity": 0.6
        }
    ],
    "relations": [],
    "top20": [
        {
            "id": 78625,
            "original_name": "The Mitsi Show",
            "popularity": 0.6
        }
    ]
}