{
    "data": [
        {
            "id": 11471,
            "original_name": "Ulica Sezamkowa",
            "popularity": 0.6
        },
        {
            "id": 76762,
            "original_name": "Geheimkommando Bumerang",
            "popularity": 0.933
        },
        {
            "id": 137993,
            "original_name": "Geheimkommando Spree",
            "popularity": 0.6
        },
        {
            "id": 137997,
            "original_name": "Geheimkommando Ciupaga",
            "popularity": 0.6
        }
    ],
    "relations": [],
    "top20": [
        {
            "id": 11471,
            "original_name": "Ulica Sezamkowa",
            "popularity": 0.6
        },
        {
            "id": 76762,
            "original_name": "Geheimkommando Bumerang",
            "popularity": 0.933
        },
        {
            "id": 137993,
            "original_name": "Geheimkommando Spree",
            "popularity": 0.6
        },
        {
            "id": 137997,
            "original_name": "Geheimkommando Ciupaga",
            "popularity": 0.6
        }
    ]
}