{
    "data": [
        {
            "id": 7175,
            "original_name": "Nass Mlah City",
            "popularity": 0.6
        },
        {
            "id": 7194,
            "original_name": "Nass Mlah City 2",
            "popularity": 0.6
        },
        {
            "id": 7197,
            "original_name": "Nass Mlah City 3",
            "popularity": 0.6
        },
        {
            "id": 52681,
            "original_name": "Aglah Wa Amlah",
            "popularity": 0.6
        }
    ],
    "relations": [],
    "top20": [
        {
            "id": 7175,
            "original_name": "Nass Mlah City",
            "popularity": 0.6
        },
        {
            "id": 7194,
            "original_name": "Nass Mlah City 2",
            "popularity": 0.6
        },
        {
            "id": 7197,
            "original_name": "Nass Mlah City 3",
            "popularity": 0.6
        },
        {
            "id": 52681,
            "original_name": "Aglah Wa Amlah",
            "popularity": 0.6
        }
    ]
}