{
    "data": [
        {
            "id": 93199,
            "original_name": "Gli Sgommati",
            "popularity": 0.843
        },
        {
            "id": 113339,
            "original_name": "Une petite histoire de la consommation",
            "popularity": 0.6
        }
    ],
    "relations": [],
    "top20": [
        {
            "id": 93199,
            "original_name": "Gli Sgommati",
            "popularity": 0.843
        },
        {
            "id": 113339,
            "original_name": "Une petite histoire de la consommation",
            "popularity": 0.6
        }
    ]
}