{
    "data": [
        {
            "id": 51279,
            "original_name": "Vammena kokkina mallia",
            "popularity": 0.6
        }
    ],
    "relations": [],
    "top20": [
        {
            "id": 51279,
            "original_name": "Vammena kokkina mallia",
            "popularity": 0.6
        }
    ]
}