{
    "data": [
        {
            "id": 19629,
            "original_name": "Moguls",
            "popularity": 0.6
        },
        {
            "id": 23659,
            "original_name": "TV Land Moguls",
            "popularity": 2.744
        },
        {
            "id": 26963,
            "original_name": "Harimogu Harry",
            "popularity": 1.4
        },
        {
            "id": 31307,
            "original_name": "Indy Mogul",
            "popularity": 0.6
        },
        {
            "id": 36422,
            "original_name": "American Mogul: Russell Simmons",
            "popularity": 0.6
        },
        {
            "id": 46691,
            "original_name": "Moguls & Movie Stars: A History of Hollywood",
            "popularity": 2.995
        },
        {
            "id": 95830,
            "original_name": "Middle School Moguls",
            "popularity": 1.924
        },
        {
            "id": 128500,
            "original_name": "Myth and Mogul: John DeLorean",
            "popularity": 11.107
        }
    ],
    "relations": [],
    "top20": [
        {
            "id": 19629,
            "original_name": "Moguls",
            "popularity": 0.6
        },
        {
            "id": 23659,
            "original_name": "TV Land Moguls",
            "popularity": 2.744
        },
        {
            "id": 26963,
            "original_name": "Harimogu Harry",
            "popularity": 1.4
        },
        {
            "id": 31307,
            "original_name": "Indy Mogul",
            "popularity": 0.6
        },
        {
            "id": 36422,
            "original_name": "American Mogul: Russell Simmons",
            "popularity": 0.6
        },
        {
            "id": 46691,
            "original_name": "Moguls & Movie Stars: A History of Hollywood",
            "popularity": 2.995
        },
        {
            "id": 95830,
            "original_name": "Middle School Moguls",
            "popularity": 1.924
        },
        {
            "id": 128500,
            "original_name": "Myth and Mogul: John DeLorean",
            "popularity": 11.107
        }
    ]
}