{
    "data": [
        {
            "id": 2834,
            "original_name": "Sticky Moments",
            "popularity": 0.6
        },
        {
            "id": 3008,
            "original_name": "100 Biggest Weather Moments",
            "popularity": 0.6
        },
        {
            "id": 5729,
            "original_name": "100 Greatest Sporting Moments",
            "popularity": 0.6
        },
        {
            "id": 6360,
            "original_name": "Most Outrageous Moments",
            "popularity": 0.6
        },
        {
            "id": 8683,
            "original_name": "Great Wildlife Moments",
            "popularity": 0.6
        },
        {
            "id": 11104,
            "original_name": "Game Show Moments Gone Bananas",
            "popularity": 0.6
        },
        {
            "id": 13611,
            "original_name": "100 Greatest Christmas Moments",
            "popularity": 0.6
        },
        {
            "id": 14524,
            "original_name": "100 Greatest Scary Moments",
            "popularity": 0.6
        },
        {
            "id": 17127,
            "original_name": "Morecambe & Wise: Greatest Moments",
            "popularity": 0.6
        },
        {
            "id": 20145,
            "original_name": "Perfect Moments",
            "popularity": 0.6
        },
        {
            "id": 21994,
            "original_name": "Great Moments In History",
            "popularity": 0.6
        },
        {
            "id": 22143,
            "original_name": "Degrassi's 40 Most Go There-est Moments",
            "popularity": 0.6
        },
        {
            "id": 27578,
            "original_name": "The Most Annoying Pop Moments... We Hate to Love",
            "popularity": 0.6
        },
        {
            "id": 27800,
            "original_name": "Moments of Impact",
            "popularity": 0.6
        },
        {
            "id": 28711,
            "original_name": "Life Moments",
            "popularity": 0.6
        },
        {
            "id": 29070,
            "original_name": "101 Most Embarrassing Moments in Entertainment",
            "popularity": 0.6
        },
        {
            "id": 30733,
            "original_name": "The World's Funniest Moments",
            "popularity": 1.093
        },
        {
            "id": 31986,
            "original_name": "100 Greatest TV Moments from Hell",
            "popularity": 0.6
        },
        {
            "id": 32929,
            "original_name": "Most Outrageous Game Show Moments",
            "popularity": 0.6
        },
        {
            "id": 35151,
            "original_name": "100 Greatest TV Moments",
            "popularity": 0.6
        },
        {
            "id": 35546,
            "original_name": "30 Even Scarier Movie Moments",
            "popularity": 4.393
        },
        {
            "id": 35779,
            "original_name": "100 Most Shocking Music Moments",
            "popularity": 1.194
        },
        {
            "id": 37451,
            "original_name": "Meals in Moments",
            "popularity": 0.6
        },
        {
            "id": 37923,
            "original_name": "Coronation Street - 50 Years, 50 Moments",
            "popularity": 0.843
        },
        {
            "id": 42011,
            "original_name": "Moments",
            "popularity": 0.6
        },
        {
            "id": 42922,
            "original_name": "Heartbeat: Moments",
            "popularity": 0.6
        },
        {
            "id": 45670,
            "original_name": "AMC's Hollywood Moments",
            "popularity": 0.6
        },
        {
            "id": 46463,
            "original_name": "Moments in Time",
            "popularity": 0.6
        },
        {
            "id": 46780,
            "original_name": "Great Moments From The Campaign Trail",
            "popularity": 0.6
        },
        {
            "id": 50646,
            "original_name": "100 Scariest Movie Moments",
            "popularity": 4.326
        },
        {
            "id": 55690,
            "original_name": "Harry and Paul's Magnificent Sporting Moments",
            "popularity": 0.6
        },
        {
            "id": 56620,
            "original_name": "Greatest Moments in Sports",
            "popularity": 0.6
        },
        {
            "id": 58316,
            "original_name": "Mark's Moments",
            "popularity": 0.6
        },
        {
            "id": 71638,
            "original_name": "Doctor Who Greatest Moments",
            "popularity": 4.978
        },
        {
            "id": 80327,
            "original_name": "Snatches: Moments from Women's Lives",
            "popularity": 2.859
        },
        {
            "id": 80861,
            "original_name": "Magic Moments Of Motorsport: Bathurst 1981",
            "popularity": 0.6
        },
        {
            "id": 80862,
            "original_name": "Magic Moments Of Motorsport - Bathurst 1982",
            "popularity": 0.6
        },
        {
            "id": 105224,
            "original_name": "Defining Moments with OZY",
            "popularity": 0.6
        },
        {
            "id": 105856,
            "original_name": "Football's Greatest Moments",
            "popularity": 0.6
        },
        {
            "id": 110521,
            "original_name": "Muppet Moments",
            "popularity": 1.813
        },
        {
            "id": 114994,
            "original_name": "The Moments That Made...",
            "popularity": 0.6
        },
        {
            "id": 122494,
            "original_name": "Hall of Flame: Top 100 Comedy Central Roast Moments",
            "popularity": 0.6
        },
        {
            "id": 124235,
            "original_name": "Les moments parfaits",
            "popularity": 7.409
        },
        {
            "id": 126138,
            "original_name": "Intimate Moments - ASMR Gay Web Series",
            "popularity": 1.983
        },
        {
            "id": 126720,
            "original_name": "History's Greatest Moments in Football",
            "popularity": 0.6
        },
        {
            "id": 129993,
            "original_name": "MLB Epic Moments",
            "popularity": 0.6
        },
        {
            "id": 131858,
            "original_name": "Sweet Moments with Hello Kitty",
            "popularity": 0.6
        },
        {
            "id": 135749,
            "original_name": "Unbelievable Moments, Caught on Camera",
            "popularity": 0.6
        }
    ],
    "relations": [
        {
            "character": "moments."
        }
    ],
    "top20": [
        {
            "id": 124235,
            "original_name": "Les moments parfaits",
            "popularity": 7.409
        },
        {
            "id": 71638,
            "original_name": "Doctor Who Greatest Moments",
            "popularity": 4.978
        },
        {
            "id": 35546,
            "original_name": "30 Even Scarier Movie Moments",
            "popularity": 4.393
        },
        {
            "id": 50646,
            "original_name": "100 Scariest Movie Moments",
            "popularity": 4.326
        },
        {
            "id": 80327,
            "original_name": "Snatches: Moments from Women's Lives",
            "popularity": 2.859
        },
        {
            "id": 126138,
            "original_name": "Intimate Moments - ASMR Gay Web Series",
            "popularity": 1.983
        },
        {
            "id": 110521,
            "original_name": "Muppet Moments",
            "popularity": 1.813
        },
        {
            "id": 35779,
            "original_name": "100 Most Shocking Music Moments",
            "popularity": 1.194
        },
        {
            "id": 30733,
            "original_name": "The World's Funniest Moments",
            "popularity": 1.093
        },
        {
            "id": 37923,
            "original_name": "Coronation Street - 50 Years, 50 Moments",
            "popularity": 0.843
        },
        {
            "id": 6360,
            "original_name": "Most Outrageous Moments",
            "popularity": 0.6
        },
        {
            "id": 42011,
            "original_name": "Moments",
            "popularity": 0.6
        },
        {
            "id": 14524,
            "original_name": "100 Greatest Scary Moments",
            "popularity": 0.6
        },
        {
            "id": 11104,
            "original_name": "Game Show Moments Gone Bananas",
            "popularity": 0.6
        },
        {
            "id": 2834,
            "original_name": "Sticky Moments",
            "popularity": 0.6
        },
        {
            "id": 3008,
            "original_name": "100 Biggest Weather Moments",
            "popularity": 0.6
        },
        {
            "id": 17127,
            "original_name": "Morecambe & Wise: Greatest Moments",
            "popularity": 0.6
        },
        {
            "id": 8683,
            "original_name": "Great Wildlife Moments",
            "popularity": 0.6
        },
        {
            "id": 13611,
            "original_name": "100 Greatest Christmas Moments",
            "popularity": 0.6
        },
        {
            "id": 5729,
            "original_name": "100 Greatest Sporting Moments",
            "popularity": 0.6
        }
    ]
}