{
    "data": [
        {
            "id": 28880,
            "original_name": "Momento",
            "popularity": 0.6
        },
        {
            "id": 118251,
            "original_name": "Momentos Decisivos",
            "popularity": 0.6
        },
        {
            "id": 127241,
            "original_name": "Violetta: Momentos favoritos",
            "popularity": 7.307
        }
    ],
    "relations": [],
    "top20": [
        {
            "id": 28880,
            "original_name": "Momento",
            "popularity": 0.6
        },
        {
            "id": 118251,
            "original_name": "Momentos Decisivos",
            "popularity": 0.6
        },
        {
            "id": 127241,
            "original_name": "Violetta: Momentos favoritos",
            "popularity": 7.307
        }
    ]
}