{
    "data": [
        {
            "id": 40378,
            "original_name": "Monga Yao Hui",
            "popularity": 0.6
        }
    ],
    "relations": [],
    "top20": [
        {
            "id": 40378,
            "original_name": "Monga Yao Hui",
            "popularity": 0.6
        }
    ]
}