{
    "data": [
        {
            "id": 11584,
            "original_name": "Pandamonium",
            "popularity": 1.306
        },
        {
            "id": 11898,
            "original_name": "Hey Monie!",
            "popularity": 1.531
        },
        {
            "id": 13242,
            "original_name": "Que Hay de Nuevo: Con Monica Noguera",
            "popularity": 0.6
        },
        {
            "id": 15656,
            "original_name": "El \u00daltimo Matrimonio Feliz",
            "popularity": 1.098
        },
        {
            "id": 16416,
            "original_name": "Monica Mogre",
            "popularity": 0.6
        },
        {
            "id": 16965,
            "original_name": "Adorable Monica",
            "popularity": 0.6
        },
        {
            "id": 18730,
            "original_name": "Lincoln Presents:  Leonard Bernstein and the New York Philharmonic",
            "popularity": 0.6
        },
        {
            "id": 19860,
            "original_name": "Fandemonium",
            "popularity": 0.855
        },
        {
            "id": 20938,
            "original_name": "Monitor",
            "popularity": 0.6
        },
        {
            "id": 25404,
            "original_name": "Monica: Still Standing",
            "popularity": 0.6
        },
        {
            "id": 25648,
            "original_name": "Harmonia",
            "popularity": 0.6
        },
        {
            "id": 30472,
            "original_name": "Monica's Gang",
            "popularity": 1.388
        },
        {
            "id": 31173,
            "original_name": "Monica: Still Standing",
            "popularity": 0.6
        },
        {
            "id": 32161,
            "original_name": "Escenas de matrimonio",
            "popularity": 4.713
        },
        {
            "id": 45288,
            "original_name": "Harmonic Wealth",
            "popularity": 0.6
        },
        {
            "id": 46008,
            "original_name": "Mini Moni's Brementown Musicians",
            "popularity": 0.6
        },
        {
            "id": 47132,
            "original_name": "Centennial Olympic Games: Opening Ceremonies",
            "popularity": 0.6
        },
        {
            "id": 48159,
            "original_name": "Monitor",
            "popularity": 0.6
        },
        {
            "id": 54555,
            "original_name": "Adam Richman's Fandemonium",
            "popularity": 0.6
        },
        {
            "id": 56368,
            "original_name": "Leonard Bernstein and the New York Philharmonic in Japan",
            "popularity": 0.6
        },
        {
            "id": 56374,
            "original_name": "Leonard Bernstein and the New York Philharmonic in Berlin",
            "popularity": 0.6
        },
        {
            "id": 56382,
            "original_name": "Leonard Bernstein and the New York Philharmonic in Moscow",
            "popularity": 0.6
        },
        {
            "id": 62501,
            "original_name": "\u00c1ngel o demonio",
            "popularity": 4.639
        },
        {
            "id": 63831,
            "original_name": "Monica The Medium",
            "popularity": 0.689
        },
        {
            "id": 64692,
            "original_name": "Summoning Insight",
            "popularity": 0.6
        },
        {
            "id": 66749,
            "original_name": "Matrimoni e altre follie",
            "popularity": 2.188
        },
        {
            "id": 67614,
            "original_name": "Pr\u00e9monitions",
            "popularity": 2.666
        },
        {
            "id": 69737,
            "original_name": "Un matrimonio",
            "popularity": 1.465
        },
        {
            "id": 71344,
            "original_name": "Monica Chef",
            "popularity": 0.6
        },
        {
            "id": 74628,
            "original_name": "Hors Pistes Chamonix",
            "popularity": 0.6
        },
        {
            "id": 81251,
            "original_name": "Dr. Monika Lindt",
            "popularity": 0.841
        },
        {
            "id": 81813,
            "original_name": "Japandemonium",
            "popularity": 0.6
        },
        {
            "id": 85957,
            "original_name": "Philharmonia",
            "popularity": 3.743
        },
        {
            "id": 90525,
            "original_name": "El Testimonio de cada persona",
            "popularity": 0.6
        },
        {
            "id": 91130,
            "original_name": "New York Philharmonic Young People's Concerts",
            "popularity": 1.139
        },
        {
            "id": 91617,
            "original_name": "Il castello delle cerimonie",
            "popularity": 1.104
        },
        {
            "id": 98675,
            "original_name": "Casamonica - Le mani su Roma",
            "popularity": 0.94
        },
        {
            "id": 100653,
            "original_name": "Like Monica",
            "popularity": 0.752
        },
        {
            "id": 102284,
            "original_name": "Turma da Monica - LIBRAS",
            "popularity": 0.6
        },
        {
            "id": 113819,
            "original_name": "3615 Monique",
            "popularity": 1.526
        },
        {
            "id": 114814,
            "original_name": "Harmonijka ustna i blues",
            "popularity": 0.6
        },
        {
            "id": 118836,
            "original_name": "C\u00e9r\u00e9monie des Victoires de la musique",
            "popularity": 0.667
        },
        {
            "id": 120157,
            "original_name": "Matrimonio con hijos",
            "popularity": 1.166
        },
        {
            "id": 120958,
            "original_name": "Streets Of Dreams With Marcus Lemonis",
            "popularity": 0.6
        },
        {
            "id": 125664,
            "original_name": "Jockei Monika",
            "popularity": 0.6
        },
        {
            "id": 131534,
            "original_name": "De Monitor",
            "popularity": 0.6
        },
        {
            "id": 133227,
            "original_name": "Hegemonic Wife",
            "popularity": 0.839
        },
        {
            "id": 135979,
            "original_name": "Pandemonium",
            "popularity": 0.6
        },
        {
            "id": 136376,
            "original_name": "Casamonica - La Resa dei Conti",
            "popularity": 0.6
        }
    ],
    "relations": [
        {
            "character": "moniu"
        },
        {
            "character": "monie"
        },
        {
            "character": "monic"
        },
        {
            "character": "monio"
        },
        {
            "character": "monit"
        },
        {
            "character": "monia"
        },
        {
            "character": "monin"
        },
        {
            "character": "monix"
        },
        {
            "character": "monik"
        },
        {
            "character": "moniq"
        },
        {
            "character": "monij"
        },
        {
            "character": "monis"
        }
    ],
    "top20": [
        {
            "id": 32161,
            "original_name": "Escenas de matrimonio",
            "popularity": 4.713
        },
        {
            "id": 62501,
            "original_name": "\u00c1ngel o demonio",
            "popularity": 4.639
        },
        {
            "id": 85957,
            "original_name": "Philharmonia",
            "popularity": 3.743
        },
        {
            "id": 67614,
            "original_name": "Pr\u00e9monitions",
            "popularity": 2.666
        },
        {
            "id": 66749,
            "original_name": "Matrimoni e altre follie",
            "popularity": 2.188
        },
        {
            "id": 11898,
            "original_name": "Hey Monie!",
            "popularity": 1.531
        },
        {
            "id": 113819,
            "original_name": "3615 Monique",
            "popularity": 1.526
        },
        {
            "id": 69737,
            "original_name": "Un matrimonio",
            "popularity": 1.465
        },
        {
            "id": 30472,
            "original_name": "Monica's Gang",
            "popularity": 1.388
        },
        {
            "id": 11584,
            "original_name": "Pandamonium",
            "popularity": 1.306
        },
        {
            "id": 120157,
            "original_name": "Matrimonio con hijos",
            "popularity": 1.166
        },
        {
            "id": 91130,
            "original_name": "New York Philharmonic Young People's Concerts",
            "popularity": 1.139
        },
        {
            "id": 91617,
            "original_name": "Il castello delle cerimonie",
            "popularity": 1.104
        },
        {
            "id": 15656,
            "original_name": "El \u00daltimo Matrimonio Feliz",
            "popularity": 1.098
        },
        {
            "id": 98675,
            "original_name": "Casamonica - Le mani su Roma",
            "popularity": 0.94
        },
        {
            "id": 19860,
            "original_name": "Fandemonium",
            "popularity": 0.855
        },
        {
            "id": 81251,
            "original_name": "Dr. Monika Lindt",
            "popularity": 0.841
        },
        {
            "id": 133227,
            "original_name": "Hegemonic Wife",
            "popularity": 0.839
        },
        {
            "id": 100653,
            "original_name": "Like Monica",
            "popularity": 0.752
        },
        {
            "id": 63831,
            "original_name": "Monica The Medium",
            "popularity": 0.689
        }
    ]
}