{
    "data": [
        {
            "id": 114818,
            "original_name": "Montebello Camping",
            "popularity": 0.6
        }
    ],
    "relations": [],
    "top20": [
        {
            "id": 114818,
            "original_name": "Montebello Camping",
            "popularity": 0.6
        }
    ]
}