{
    "data": [
        {
            "id": 671,
            "original_name": "Moolah Beach",
            "popularity": 0.6
        }
    ],
    "relations": [],
    "top20": [
        {
            "id": 671,
            "original_name": "Moolah Beach",
            "popularity": 0.6
        }
    ]
}