{
    "data": [
        {
            "id": 122987,
            "original_name": "Katie Morag",
            "popularity": 0.6
        }
    ],
    "relations": [],
    "top20": [
        {
            "id": 122987,
            "original_name": "Katie Morag",
            "popularity": 0.6
        }
    ]
}