{
    "data": [
        {
            "id": 98421,
            "original_name": "Mordus de course",
            "popularity": 0.864
        },
        {
            "id": 100492,
            "original_name": "Mordu de toi",
            "popularity": 0.6
        }
    ],
    "relations": [],
    "top20": [
        {
            "id": 98421,
            "original_name": "Mordus de course",
            "popularity": 0.864
        },
        {
            "id": 100492,
            "original_name": "Mordu de toi",
            "popularity": 0.6
        }
    ]
}