{
    "data": [
        {
            "id": 34086,
            "original_name": "Mission Implausible",
            "popularity": 0.6
        }
    ],
    "relations": [],
    "top20": [
        {
            "id": 34086,
            "original_name": "Mission Implausible",
            "popularity": 0.6
        }
    ]
}