{
    "data": [
        {
            "id": 86520,
            "original_name": "Travels in Trumpland with Ed Balls",
            "popularity": 1.104
        },
        {
            "id": 118587,
            "original_name": "La Templanza",
            "popularity": 3.795
        }
    ],
    "relations": [],
    "top20": [
        {
            "id": 86520,
            "original_name": "Travels in Trumpland with Ed Balls",
            "popularity": 1.104
        },
        {
            "id": 118587,
            "original_name": "La Templanza",
            "popularity": 3.795
        }
    ]
}