{
    "data": [
        {
            "id": 53364,
            "original_name": "I lampsi ton astron",
            "popularity": 0.6
        },
        {
            "id": 54918,
            "original_name": "Lampsi",
            "popularity": 0.6
        }
    ],
    "relations": [],
    "top20": [
        {
            "id": 53364,
            "original_name": "I lampsi ton astron",
            "popularity": 0.6
        },
        {
            "id": 54918,
            "original_name": "Lampsi",
            "popularity": 0.6
        }
    ]
}