{
    "data": [
        {
            "id": 2823,
            "original_name": "Empty Nest",
            "popularity": 13.684
        },
        {
            "id": 6817,
            "original_name": "Empty",
            "popularity": 0.632
        },
        {
            "id": 55771,
            "original_name": "Britain's Empty Homes Revisited",
            "popularity": 0.6
        },
        {
            "id": 56924,
            "original_name": "Running on Empty",
            "popularity": 0.6
        },
        {
            "id": 70562,
            "original_name": "Humpty's Big Adventure",
            "popularity": 0.6
        },
        {
            "id": 78806,
            "original_name": "Half-Empty",
            "popularity": 0.6
        },
        {
            "id": 124988,
            "original_name": "Since September : empty seats tour",
            "popularity": 0.6
        }
    ],
    "relations": [],
    "top20": [
        {
            "id": 2823,
            "original_name": "Empty Nest",
            "popularity": 13.684
        },
        {
            "id": 6817,
            "original_name": "Empty",
            "popularity": 0.632
        },
        {
            "id": 55771,
            "original_name": "Britain's Empty Homes Revisited",
            "popularity": 0.6
        },
        {
            "id": 56924,
            "original_name": "Running on Empty",
            "popularity": 0.6
        },
        {
            "id": 70562,
            "original_name": "Humpty's Big Adventure",
            "popularity": 0.6
        },
        {
            "id": 78806,
            "original_name": "Half-Empty",
            "popularity": 0.6
        },
        {
            "id": 124988,
            "original_name": "Since September : empty seats tour",
            "popularity": 0.6
        }
    ]
}