{
    "data": [
        {
            "id": 117,
            "original_name": "The Dreamstone",
            "popularity": 2.478
        },
        {
            "id": 1349,
            "original_name": "The Mavis Bramston Show",
            "popularity": 0.6
        },
        {
            "id": 2229,
            "original_name": "Brimstone",
            "popularity": 6.314
        },
        {
            "id": 5844,
            "original_name": "H\u00f6gsta domstolen",
            "popularity": 0.6
        },
        {
            "id": 60050,
            "original_name": "Doomstown",
            "popularity": 0.6
        },
        {
            "id": 82782,
            "original_name": "The Righteous Gemstones",
            "popularity": 8.034
        },
        {
            "id": 92585,
            "original_name": "Domstolen",
            "popularity": 0.6
        },
        {
            "id": 116699,
            "original_name": "Brimstone Terrace",
            "popularity": 0.6
        }
    ],
    "relations": [],
    "top20": [
        {
            "id": 117,
            "original_name": "The Dreamstone",
            "popularity": 2.478
        },
        {
            "id": 1349,
            "original_name": "The Mavis Bramston Show",
            "popularity": 0.6
        },
        {
            "id": 2229,
            "original_name": "Brimstone",
            "popularity": 6.314
        },
        {
            "id": 5844,
            "original_name": "H\u00f6gsta domstolen",
            "popularity": 0.6
        },
        {
            "id": 60050,
            "original_name": "Doomstown",
            "popularity": 0.6
        },
        {
            "id": 82782,
            "original_name": "The Righteous Gemstones",
            "popularity": 8.034
        },
        {
            "id": 92585,
            "original_name": "Domstolen",
            "popularity": 0.6
        },
        {
            "id": 116699,
            "original_name": "Brimstone Terrace",
            "popularity": 0.6
        }
    ]
}