{
    "data": [
        {
            "id": 115996,
            "original_name": "Limitless with Chris Hemsworth",
            "popularity": 5.165
        }
    ],
    "relations": [],
    "top20": [
        {
            "id": 115996,
            "original_name": "Limitless with Chris Hemsworth",
            "popularity": 5.165
        }
    ]
}