{
    "data": [
        {
            "id": 136080,
            "original_name": "Murabba",
            "popularity": 0.6
        }
    ],
    "relations": [],
    "top20": [
        {
            "id": 136080,
            "original_name": "Murabba",
            "popularity": 0.6
        }
    ]
}