{
    "data": [
        {
            "id": 35134,
            "original_name": "Duro contra el muro",
            "popularity": 0.842
        },
        {
            "id": 35801,
            "original_name": "El Muro Infernal (ES)",
            "popularity": 0.6
        },
        {
            "id": 77422,
            "original_name": "Al otro Lado del Muro",
            "popularity": 1.589
        }
    ],
    "relations": [],
    "top20": [
        {
            "id": 35134,
            "original_name": "Duro contra el muro",
            "popularity": 0.842
        },
        {
            "id": 35801,
            "original_name": "El Muro Infernal (ES)",
            "popularity": 0.6
        },
        {
            "id": 77422,
            "original_name": "Al otro Lado del Muro",
            "popularity": 1.589
        }
    ]
}