{
    "data": [
        {
            "id": 138883,
            "original_name": "Gemusetto",
            "popularity": 0.6
        }
    ],
    "relations": [],
    "top20": [
        {
            "id": 138883,
            "original_name": "Gemusetto",
            "popularity": 0.6
        }
    ]
}