{
    "data": [
        {
            "id": 54685,
            "original_name": "Musikhj\u00e4lpen",
            "popularity": 0.6
        }
    ],
    "relations": [],
    "top20": [
        {
            "id": 54685,
            "original_name": "Musikhj\u00e4lpen",
            "popularity": 0.6
        }
    ]
}