{
    "data": [
        {
            "id": 104075,
            "original_name": "Muzzled the Musical",
            "popularity": 0.635
        },
        {
            "id": 124617,
            "original_name": "The New Muzzy: Mandarin Chinese",
            "popularity": 0.6
        },
        {
            "id": 128573,
            "original_name": "Muzzy in Gondoland",
            "popularity": 0.6
        }
    ],
    "relations": [],
    "top20": [
        {
            "id": 104075,
            "original_name": "Muzzled the Musical",
            "popularity": 0.635
        },
        {
            "id": 124617,
            "original_name": "The New Muzzy: Mandarin Chinese",
            "popularity": 0.6
        },
        {
            "id": 128573,
            "original_name": "Muzzy in Gondoland",
            "popularity": 0.6
        }
    ]
}