{
    "data": [
        {
            "id": 3100,
            "original_name": "MythQuest",
            "popularity": 1.247
        }
    ],
    "relations": [],
    "top20": [
        {
            "id": 3100,
            "original_name": "MythQuest",
            "popularity": 1.247
        }
    ]
}