{
    "data": [
        {
            "id": 115499,
            "original_name": "Het Leven.doc",
            "popularity": 0.738
        }
    ],
    "relations": [],
    "top20": [
        {
            "id": 115499,
            "original_name": "Het Leven.doc",
            "popularity": 0.738
        }
    ]
}