{
    "data": [
        {
            "id": 86244,
            "original_name": "P.O.R.N.O.",
            "popularity": 2.777
        }
    ],
    "relations": [],
    "top20": [
        {
            "id": 86244,
            "original_name": "P.O.R.N.O.",
            "popularity": 2.777
        }
    ]
}