{
    "data": [
        {
            "id": 32120,
            "original_name": "Cannabis Planet",
            "popularity": 0.6
        },
        {
            "id": 38567,
            "original_name": "Cannabis: What's the Harm?",
            "popularity": 0.6
        },
        {
            "id": 61471,
            "original_name": "Sono Hanabira ni Kuchizuke wo : Reo x Mai Diaries",
            "popularity": 2.554
        },
        {
            "id": 68738,
            "original_name": "Cannabis",
            "popularity": 2.778
        },
        {
            "id": 73197,
            "original_name": "Les Incroyables Aventures de Nabilla & Thomas",
            "popularity": 0.6
        },
        {
            "id": 91138,
            "original_name": "Cannabiz",
            "popularity": 0.6
        },
        {
            "id": 92988,
            "original_name": "All\u00f4 Nabilla",
            "popularity": 0.6
        },
        {
            "id": 100357,
            "original_name": "HINABINGO!",
            "popularity": 1.016
        },
        {
            "id": 102246,
            "original_name": "Cooked With Cannabis",
            "popularity": 1.182
        },
        {
            "id": 119511,
            "original_name": "Cannabis",
            "popularity": 0.6
        },
        {
            "id": 126239,
            "original_name": "The Future is Cannabis",
            "popularity": 0.6
        },
        {
            "id": 127991,
            "original_name": "Cannabismanden fra Holb\u00e6k",
            "popularity": 0.6
        },
        {
            "id": 136363,
            "original_name": "Operation Cannabis",
            "popularity": 0.6
        },
        {
            "id": 136546,
            "original_name": "Operation Canabis",
            "popularity": 1.4
        },
        {
            "id": 139141,
            "original_name": "Nabilla : Sans filtre",
            "popularity": 2.992
        }
    ],
    "relations": [],
    "top20": [
        {
            "id": 32120,
            "original_name": "Cannabis Planet",
            "popularity": 0.6
        },
        {
            "id": 38567,
            "original_name": "Cannabis: What's the Harm?",
            "popularity": 0.6
        },
        {
            "id": 61471,
            "original_name": "Sono Hanabira ni Kuchizuke wo : Reo x Mai Diaries",
            "popularity": 2.554
        },
        {
            "id": 68738,
            "original_name": "Cannabis",
            "popularity": 2.778
        },
        {
            "id": 73197,
            "original_name": "Les Incroyables Aventures de Nabilla & Thomas",
            "popularity": 0.6
        },
        {
            "id": 91138,
            "original_name": "Cannabiz",
            "popularity": 0.6
        },
        {
            "id": 92988,
            "original_name": "All\u00f4 Nabilla",
            "popularity": 0.6
        },
        {
            "id": 100357,
            "original_name": "HINABINGO!",
            "popularity": 1.016
        },
        {
            "id": 102246,
            "original_name": "Cooked With Cannabis",
            "popularity": 1.182
        },
        {
            "id": 119511,
            "original_name": "Cannabis",
            "popularity": 0.6
        },
        {
            "id": 126239,
            "original_name": "The Future is Cannabis",
            "popularity": 0.6
        },
        {
            "id": 127991,
            "original_name": "Cannabismanden fra Holb\u00e6k",
            "popularity": 0.6
        },
        {
            "id": 136363,
            "original_name": "Operation Cannabis",
            "popularity": 0.6
        },
        {
            "id": 136546,
            "original_name": "Operation Canabis",
            "popularity": 1.4
        },
        {
            "id": 139141,
            "original_name": "Nabilla : Sans filtre",
            "popularity": 2.992
        }
    ]
}