{
    "data": [
        {
            "id": 4743,
            "original_name": "El internado",
            "popularity": 63.645
        },
        {
            "id": 17533,
            "original_name": "Coronado 9",
            "popularity": 4.54
        },
        {
            "id": 18930,
            "original_name": "Tornado! 4:40 pm, Xenia, Ohio",
            "popularity": 0.6
        },
        {
            "id": 29093,
            "original_name": "Tornado Road",
            "popularity": 0.6
        },
        {
            "id": 37625,
            "original_name": "Rencor apasionado",
            "popularity": 0.6
        },
        {
            "id": 38789,
            "original_name": "Tornado",
            "popularity": 0.6
        },
        {
            "id": 50333,
            "original_name": "Anadolu kaplani",
            "popularity": 1.34
        },
        {
            "id": 56439,
            "original_name": "Los Pensionados",
            "popularity": 5.086
        },
        {
            "id": 60853,
            "original_name": "Tornado Chasers",
            "popularity": 2.56
        },
        {
            "id": 66307,
            "original_name": "Pratos Combinados",
            "popularity": 1.888
        },
        {
            "id": 69391,
            "original_name": "Tornado Hunters",
            "popularity": 0.6
        },
        {
            "id": 70242,
            "original_name": "Tornado - en tittarstorm",
            "popularity": 1.22
        },
        {
            "id": 76940,
            "original_name": "Tornado - Der Zorn des Himmels",
            "popularity": 1.188
        },
        {
            "id": 77417,
            "original_name": "Terminadores",
            "popularity": 0.6
        },
        {
            "id": 77521,
            "original_name": "APPaixonados",
            "popularity": 0.6
        },
        {
            "id": 84452,
            "original_name": "Nicky Jam: El Ganador",
            "popularity": 31.954
        },
        {
            "id": 93159,
            "original_name": "O Doutrinador \u2013 A S\u00e9rie",
            "popularity": 3.098
        },
        {
            "id": 97513,
            "original_name": "El internado: Las Cumbres",
            "popularity": 93.183
        },
        {
            "id": 107081,
            "original_name": "Coraz\u00f3n Traicionado",
            "popularity": 0.707
        },
        {
            "id": 107509,
            "original_name": "Di\u00e1rio de um Confinado",
            "popularity": 1.498
        },
        {
            "id": 116887,
            "original_name": "Exterminadores do Al\u00e9m",
            "popularity": 4.921
        },
        {
            "id": 117362,
            "original_name": "Desconfinados",
            "popularity": 0.6
        },
        {
            "id": 119759,
            "original_name": "Predestinado",
            "popularity": 0.909
        },
        {
            "id": 125696,
            "original_name": "Gupt Gyaan Swapnadosh",
            "popularity": 0.6
        },
        {
            "id": 137199,
            "original_name": "Corazon apasionado",
            "popularity": 0.806
        },
        {
            "id": 138856,
            "original_name": "Nado \uba39\uc744\ub798",
            "popularity": 0.6
        },
        {
            "id": 139207,
            "original_name": "Turbinados",
            "popularity": 0.6
        }
    ],
    "relations": [
        {
            "character": "nado!"
        },
        {
            "character": "nadol"
        },
        {
            "character": "nados"
        },
        {
            "character": "nador"
        }
    ],
    "top20": [
        {
            "id": 97513,
            "original_name": "El internado: Las Cumbres",
            "popularity": 93.183
        },
        {
            "id": 4743,
            "original_name": "El internado",
            "popularity": 63.645
        },
        {
            "id": 84452,
            "original_name": "Nicky Jam: El Ganador",
            "popularity": 31.954
        },
        {
            "id": 56439,
            "original_name": "Los Pensionados",
            "popularity": 5.086
        },
        {
            "id": 116887,
            "original_name": "Exterminadores do Al\u00e9m",
            "popularity": 4.921
        },
        {
            "id": 17533,
            "original_name": "Coronado 9",
            "popularity": 4.54
        },
        {
            "id": 93159,
            "original_name": "O Doutrinador \u2013 A S\u00e9rie",
            "popularity": 3.098
        },
        {
            "id": 60853,
            "original_name": "Tornado Chasers",
            "popularity": 2.56
        },
        {
            "id": 66307,
            "original_name": "Pratos Combinados",
            "popularity": 1.888
        },
        {
            "id": 107509,
            "original_name": "Di\u00e1rio de um Confinado",
            "popularity": 1.498
        },
        {
            "id": 50333,
            "original_name": "Anadolu kaplani",
            "popularity": 1.34
        },
        {
            "id": 70242,
            "original_name": "Tornado - en tittarstorm",
            "popularity": 1.22
        },
        {
            "id": 76940,
            "original_name": "Tornado - Der Zorn des Himmels",
            "popularity": 1.188
        },
        {
            "id": 119759,
            "original_name": "Predestinado",
            "popularity": 0.909
        },
        {
            "id": 137199,
            "original_name": "Corazon apasionado",
            "popularity": 0.806
        },
        {
            "id": 107081,
            "original_name": "Coraz\u00f3n Traicionado",
            "popularity": 0.707
        },
        {
            "id": 18930,
            "original_name": "Tornado! 4:40 pm, Xenia, Ohio",
            "popularity": 0.6
        },
        {
            "id": 29093,
            "original_name": "Tornado Road",
            "popularity": 0.6
        },
        {
            "id": 38789,
            "original_name": "Tornado",
            "popularity": 0.6
        },
        {
            "id": 37625,
            "original_name": "Rencor apasionado",
            "popularity": 0.6
        }
    ]
}