{
    "data": [
        {
            "id": 33482,
            "original_name": "Himnaera Him!",
            "popularity": 0.6
        }
    ],
    "relations": [],
    "top20": [
        {
            "id": 33482,
            "original_name": "Himnaera Him!",
            "popularity": 0.6
        }
    ]
}