{
    "data": [
        {
            "id": 39041,
            "original_name": "Mga Nagbabagang Bulaklak",
            "popularity": 0.6
        },
        {
            "id": 133234,
            "original_name": "Nagbabagang Luha",
            "popularity": 0.6
        }
    ],
    "relations": [],
    "top20": [
        {
            "id": 39041,
            "original_name": "Mga Nagbabagang Bulaklak",
            "popularity": 0.6
        },
        {
            "id": 133234,
            "original_name": "Nagbabagang Luha",
            "popularity": 0.6
        }
    ]
}