{
    "data": [
        {
            "id": 64569,
            "original_name": "Vinagre",
            "popularity": 0.6
        }
    ],
    "relations": [],
    "top20": [
        {
            "id": 64569,
            "original_name": "Vinagre",
            "popularity": 0.6
        }
    ]
}