{
    "data": [
        {
            "id": 51679,
            "original_name": "O vagiannis xanahtypa",
            "popularity": 0.6
        },
        {
            "id": 53969,
            "original_name": "Tele Anahtar",
            "popularity": 0.6
        }
    ],
    "relations": [],
    "top20": [
        {
            "id": 51679,
            "original_name": "O vagiannis xanahtypa",
            "popularity": 0.6
        },
        {
            "id": 53969,
            "original_name": "Tele Anahtar",
            "popularity": 0.6
        }
    ]
}