{
    "data": [
        {
            "id": 125684,
            "original_name": "Roteiros do Desconfinamento",
            "popularity": 1.383
        }
    ],
    "relations": [],
    "top20": [
        {
            "id": 125684,
            "original_name": "Roteiros do Desconfinamento",
            "popularity": 1.383
        }
    ]
}