{
    "data": [
        {
            "id": 3756,
            "original_name": "Nanna's Cottage",
            "popularity": 0.6
        }
    ],
    "relations": [],
    "top20": [
        {
            "id": 3756,
            "original_name": "Nanna's Cottage",
            "popularity": 0.6
        }
    ]
}