{
    "data": [
        {
            "id": 50298,
            "original_name": "Kakek-Kakek Narsis",
            "popularity": 0.6
        },
        {
            "id": 84467,
            "original_name": "Na k\u0142opoty... Bednarski",
            "popularity": 0.6
        },
        {
            "id": 98898,
            "original_name": "The Big Narstie Show",
            "popularity": 2.675
        }
    ],
    "relations": [],
    "top20": [
        {
            "id": 50298,
            "original_name": "Kakek-Kakek Narsis",
            "popularity": 0.6
        },
        {
            "id": 84467,
            "original_name": "Na k\u0142opoty... Bednarski",
            "popularity": 0.6
        },
        {
            "id": 98898,
            "original_name": "The Big Narstie Show",
            "popularity": 2.675
        }
    ]
}