{
    "data": [
        {
            "id": 26984,
            "original_name": "Shinai Naru Mono e",
            "popularity": 1.098
        },
        {
            "id": 27454,
            "original_name": "Shizuka Naru Don",
            "popularity": 1.271
        },
        {
            "id": 43168,
            "original_name": "Naruto SD[\u3059\u3054\u3044\u3069\u308a\u3087\u304f] \u30ed\u30c3\u30af\u30fb\u30ea\u30fc\u306e\u9752\u6625\u30d5\u30eb\u30d1\u30ef\u30fc\u5fcd\u4f1d",
            "popularity": 62.209
        },
        {
            "id": 45941,
            "original_name": "Sonoki ni naru made",
            "popularity": 0.6
        },
        {
            "id": 52845,
            "original_name": "Naruk",
            "popularity": 0.6
        },
        {
            "id": 56509,
            "original_name": "Naruhodo! The World",
            "popularity": 0.6
        },
        {
            "id": 70881,
            "original_name": "BORUTO-\u30dc\u30eb\u30c8- NARUTO NEXT GENERATONS",
            "popularity": 46.408
        },
        {
            "id": 100098,
            "original_name": "Amane!: Tomodachinchi de Konna Koto ni Naru Nante!",
            "popularity": 0.636
        },
        {
            "id": 123191,
            "original_name": "Keiji Narusawa Ryou \u5211\u4e8b\u30fb\u9cf4\u6ca2\u4e86",
            "popularity": 1.123
        },
        {
            "id": 139379,
            "original_name": "Naruto",
            "popularity": 45.565
        }
    ],
    "relations": [],
    "top20": [
        {
            "id": 26984,
            "original_name": "Shinai Naru Mono e",
            "popularity": 1.098
        },
        {
            "id": 27454,
            "original_name": "Shizuka Naru Don",
            "popularity": 1.271
        },
        {
            "id": 43168,
            "original_name": "Naruto SD[\u3059\u3054\u3044\u3069\u308a\u3087\u304f] \u30ed\u30c3\u30af\u30fb\u30ea\u30fc\u306e\u9752\u6625\u30d5\u30eb\u30d1\u30ef\u30fc\u5fcd\u4f1d",
            "popularity": 62.209
        },
        {
            "id": 45941,
            "original_name": "Sonoki ni naru made",
            "popularity": 0.6
        },
        {
            "id": 52845,
            "original_name": "Naruk",
            "popularity": 0.6
        },
        {
            "id": 56509,
            "original_name": "Naruhodo! The World",
            "popularity": 0.6
        },
        {
            "id": 70881,
            "original_name": "BORUTO-\u30dc\u30eb\u30c8- NARUTO NEXT GENERATONS",
            "popularity": 46.408
        },
        {
            "id": 100098,
            "original_name": "Amane!: Tomodachinchi de Konna Koto ni Naru Nante!",
            "popularity": 0.636
        },
        {
            "id": 123191,
            "original_name": "Keiji Narusawa Ryou \u5211\u4e8b\u30fb\u9cf4\u6ca2\u4e86",
            "popularity": 1.123
        },
        {
            "id": 139379,
            "original_name": "Naruto",
            "popularity": 45.565
        }
    ]
}