{
    "data": [
        {
            "id": 281,
            "original_name": "NASCAR Racers",
            "popularity": 3.356
        },
        {
            "id": 1331,
            "original_name": "NASCAR Countdown",
            "popularity": 0.6
        },
        {
            "id": 2375,
            "original_name": "NASCAR Victory Lane",
            "popularity": 0.6
        },
        {
            "id": 2944,
            "original_name": "NASCAR Inside Nextel Cup",
            "popularity": 0.6
        },
        {
            "id": 3106,
            "original_name": "NASCAR in Primetime",
            "popularity": 0.6
        },
        {
            "id": 3649,
            "original_name": "NASCAR on ESPN",
            "popularity": 0.6
        },
        {
            "id": 6317,
            "original_name": "NASCAR Now",
            "popularity": 0.6
        },
        {
            "id": 7095,
            "original_name": "NASCAR Trackside",
            "popularity": 0.6
        },
        {
            "id": 8517,
            "original_name": "This Week in NASCAR",
            "popularity": 0.6
        },
        {
            "id": 10328,
            "original_name": "NASCAR on Fox",
            "popularity": 0.6
        },
        {
            "id": 10617,
            "original_name": "NASCAR on TNT",
            "popularity": 0.6
        },
        {
            "id": 10903,
            "original_name": "NASCAR on NBC",
            "popularity": 0.6
        },
        {
            "id": 11086,
            "original_name": "NASCAR Drivers: Non-Stop",
            "popularity": 0.6
        },
        {
            "id": 11425,
            "original_name": "Totally NASCAR",
            "popularity": 0.6
        },
        {
            "id": 13129,
            "original_name": "NASCAR Gold",
            "popularity": 0.6
        },
        {
            "id": 13133,
            "original_name": "NASCAR on CBS",
            "popularity": 0.6
        },
        {
            "id": 13149,
            "original_name": "NASCAR Beyond the Wheel",
            "popularity": 0.6
        },
        {
            "id": 13154,
            "original_name": "NASCAR Nation",
            "popularity": 0.6
        },
        {
            "id": 19369,
            "original_name": "NASCAR on TNN",
            "popularity": 0.6
        },
        {
            "id": 19373,
            "original_name": "NASCAR on TBS",
            "popularity": 0.6
        },
        {
            "id": 21105,
            "original_name": "NASCAR Angels",
            "popularity": 0.6
        },
        {
            "id": 25832,
            "original_name": "NASCAR: Driven To Win",
            "popularity": 0.872
        },
        {
            "id": 30899,
            "original_name": "NASCAR Classics",
            "popularity": 0.6
        },
        {
            "id": 32660,
            "original_name": "NASCAR on Speed",
            "popularity": 0.6
        },
        {
            "id": 33724,
            "original_name": "Inside NASCAR",
            "popularity": 0.6
        },
        {
            "id": 36278,
            "original_name": "Sounds of NASCAR",
            "popularity": 0.6
        },
        {
            "id": 36756,
            "original_name": "Quest for the NASCAR Sprint Cup",
            "popularity": 0.6
        },
        {
            "id": 37280,
            "original_name": "NASCAR Garage",
            "popularity": 0.6
        },
        {
            "id": 38079,
            "original_name": "NASCAR in a Hurry Monday Edition",
            "popularity": 0.6
        },
        {
            "id": 41440,
            "original_name": "NASCAR Outdoors",
            "popularity": 0.6
        },
        {
            "id": 41637,
            "original_name": "NASCAR Race Hub",
            "popularity": 0.6
        },
        {
            "id": 45759,
            "original_name": "Renascer",
            "popularity": 0.6
        },
        {
            "id": 58649,
            "original_name": "NASCAR on USA",
            "popularity": 0.6
        },
        {
            "id": 79886,
            "original_name": "Onde Nascem os Fortes",
            "popularity": 2.19
        },
        {
            "id": 80283,
            "original_name": "Sol Nascente",
            "popularity": 5.329
        },
        {
            "id": 112917,
            "original_name": "Nasce Uma Rainha",
            "popularity": 6.775
        },
        {
            "id": 113230,
            "original_name": "The Motor Trend 500: NASCAR Heads West (2020)",
            "popularity": 0.6
        },
        {
            "id": 117389,
            "original_name": "NASCAR 2020: Under Pressure",
            "popularity": 0.6
        },
        {
            "id": 122000,
            "original_name": "Cronache dal Rinascimento",
            "popularity": 0.6
        },
        {
            "id": 124910,
            "original_name": "O Direito de Nascer",
            "popularity": 1.142
        },
        {
            "id": 131894,
            "original_name": "Nasca Lines: Ancient Secrets",
            "popularity": 1.136
        }
    ],
    "relations": [
        {
            "character": "nasca"
        },
        {
            "character": "nasce"
        },
        {
            "character": "nasci"
        }
    ],
    "top20": [
        {
            "id": 112917,
            "original_name": "Nasce Uma Rainha",
            "popularity": 6.775
        },
        {
            "id": 80283,
            "original_name": "Sol Nascente",
            "popularity": 5.329
        },
        {
            "id": 281,
            "original_name": "NASCAR Racers",
            "popularity": 3.356
        },
        {
            "id": 79886,
            "original_name": "Onde Nascem os Fortes",
            "popularity": 2.19
        },
        {
            "id": 124910,
            "original_name": "O Direito de Nascer",
            "popularity": 1.142
        },
        {
            "id": 131894,
            "original_name": "Nasca Lines: Ancient Secrets",
            "popularity": 1.136
        },
        {
            "id": 25832,
            "original_name": "NASCAR: Driven To Win",
            "popularity": 0.872
        },
        {
            "id": 10903,
            "original_name": "NASCAR on NBC",
            "popularity": 0.6
        },
        {
            "id": 11086,
            "original_name": "NASCAR Drivers: Non-Stop",
            "popularity": 0.6
        },
        {
            "id": 7095,
            "original_name": "NASCAR Trackside",
            "popularity": 0.6
        },
        {
            "id": 6317,
            "original_name": "NASCAR Now",
            "popularity": 0.6
        },
        {
            "id": 11425,
            "original_name": "Totally NASCAR",
            "popularity": 0.6
        },
        {
            "id": 3106,
            "original_name": "NASCAR in Primetime",
            "popularity": 0.6
        },
        {
            "id": 10328,
            "original_name": "NASCAR on Fox",
            "popularity": 0.6
        },
        {
            "id": 3649,
            "original_name": "NASCAR on ESPN",
            "popularity": 0.6
        },
        {
            "id": 10617,
            "original_name": "NASCAR on TNT",
            "popularity": 0.6
        },
        {
            "id": 2944,
            "original_name": "NASCAR Inside Nextel Cup",
            "popularity": 0.6
        },
        {
            "id": 1331,
            "original_name": "NASCAR Countdown",
            "popularity": 0.6
        },
        {
            "id": 2375,
            "original_name": "NASCAR Victory Lane",
            "popularity": 0.6
        },
        {
            "id": 8517,
            "original_name": "This Week in NASCAR",
            "popularity": 0.6
        }
    ]
}