{
    "data": [
        {
            "id": 33000,
            "original_name": "Ja imam talenat!",
            "popularity": 0.6
        }
    ],
    "relations": [],
    "top20": [
        {
            "id": 33000,
            "original_name": "Ja imam talenat!",
            "popularity": 0.6
        }
    ]
}