{
    "data": [
        {
            "id": 12567,
            "original_name": "Alienated",
            "popularity": 2.836
        },
        {
            "id": 12757,
            "original_name": "The Passionate Eye",
            "popularity": 1.444
        },
        {
            "id": 14063,
            "original_name": "Nate on Drums",
            "popularity": 0.6
        },
        {
            "id": 16013,
            "original_name": "Internatet",
            "popularity": 0.6
        },
        {
            "id": 25131,
            "original_name": "Fascinate My Heart",
            "popularity": 0.6
        },
        {
            "id": 32652,
            "original_name": "Frank Skinner's Opinionated",
            "popularity": 1.4
        },
        {
            "id": 33362,
            "original_name": "Flight \u2013 The Passionate Affair",
            "popularity": 0.6
        },
        {
            "id": 33410,
            "original_name": "The Nate Berkus Show",
            "popularity": 0.604
        },
        {
            "id": 35115,
            "original_name": "A Passionate Woman",
            "popularity": 2.173
        },
        {
            "id": 40191,
            "original_name": "The Fortunate Pilgrim",
            "popularity": 2.385
        },
        {
            "id": 41951,
            "original_name": "The CfC-Stanbic Bank Magnate",
            "popularity": 0.6
        },
        {
            "id": 49725,
            "original_name": "A Sensitive, Passionate Man",
            "popularity": 0.6
        },
        {
            "id": 57361,
            "original_name": "The Mystery of Babylon: An Alternate View",
            "popularity": 0.6
        },
        {
            "id": 59548,
            "original_name": "The Passionate Canadians",
            "popularity": 0.6
        },
        {
            "id": 64632,
            "original_name": "The Player I'm Passionate About",
            "popularity": 0.6
        },
        {
            "id": 65294,
            "original_name": "A Series of Unfortunate Events",
            "popularity": 33.972
        },
        {
            "id": 67026,
            "original_name": "Designated Survivor",
            "popularity": 39.412
        },
        {
            "id": 70907,
            "original_name": "Nate & Jeremiah by Design",
            "popularity": 1.109
        },
        {
            "id": 74144,
            "original_name": "A Fortunate Life",
            "popularity": 1.027
        },
        {
            "id": 86723,
            "original_name": "Le cinque giornate di Milano",
            "popularity": 0.962
        },
        {
            "id": 94246,
            "original_name": "12 Jahre, 3 Monate, 9 Tage - Die Jahreschronik des Dritten Reichs",
            "popularity": 0.6
        },
        {
            "id": 95656,
            "original_name": "Return of Fortunate Bok",
            "popularity": 0.6
        },
        {
            "id": 95775,
            "original_name": "Nate Is Late",
            "popularity": 1.529
        },
        {
            "id": 97523,
            "original_name": "Fortunate Son",
            "popularity": 2.285
        },
        {
            "id": 101179,
            "original_name": "Kiss, Date, Eliminate",
            "popularity": 0.6
        },
        {
            "id": 102255,
            "original_name": "Nate and Jeremiah Save My House",
            "popularity": 0.6
        },
        {
            "id": 110614,
            "original_name": "Alternate Route",
            "popularity": 0.6
        },
        {
            "id": 117441,
            "original_name": "Passionate love",
            "popularity": 0.6
        },
        {
            "id": 117909,
            "original_name": "Exterminate All the Brutes",
            "popularity": 4.817
        },
        {
            "id": 119747,
            "original_name": "Granaten wie wir",
            "popularity": 0.95
        },
        {
            "id": 135921,
            "original_name": "The Nate and Jeremiah Home Project",
            "popularity": 4.848
        }
    ],
    "relations": [
        {
            "character": "nated"
        },
        {
            "character": "natet"
        },
        {
            "character": "naten"
        }
    ],
    "top20": [
        {
            "id": 67026,
            "original_name": "Designated Survivor",
            "popularity": 39.412
        },
        {
            "id": 65294,
            "original_name": "A Series of Unfortunate Events",
            "popularity": 33.972
        },
        {
            "id": 135921,
            "original_name": "The Nate and Jeremiah Home Project",
            "popularity": 4.848
        },
        {
            "id": 117909,
            "original_name": "Exterminate All the Brutes",
            "popularity": 4.817
        },
        {
            "id": 12567,
            "original_name": "Alienated",
            "popularity": 2.836
        },
        {
            "id": 40191,
            "original_name": "The Fortunate Pilgrim",
            "popularity": 2.385
        },
        {
            "id": 97523,
            "original_name": "Fortunate Son",
            "popularity": 2.285
        },
        {
            "id": 35115,
            "original_name": "A Passionate Woman",
            "popularity": 2.173
        },
        {
            "id": 95775,
            "original_name": "Nate Is Late",
            "popularity": 1.529
        },
        {
            "id": 12757,
            "original_name": "The Passionate Eye",
            "popularity": 1.444
        },
        {
            "id": 32652,
            "original_name": "Frank Skinner's Opinionated",
            "popularity": 1.4
        },
        {
            "id": 70907,
            "original_name": "Nate & Jeremiah by Design",
            "popularity": 1.109
        },
        {
            "id": 74144,
            "original_name": "A Fortunate Life",
            "popularity": 1.027
        },
        {
            "id": 86723,
            "original_name": "Le cinque giornate di Milano",
            "popularity": 0.962
        },
        {
            "id": 119747,
            "original_name": "Granaten wie wir",
            "popularity": 0.95
        },
        {
            "id": 33410,
            "original_name": "The Nate Berkus Show",
            "popularity": 0.604
        },
        {
            "id": 33362,
            "original_name": "Flight \u2013 The Passionate Affair",
            "popularity": 0.6
        },
        {
            "id": 16013,
            "original_name": "Internatet",
            "popularity": 0.6
        },
        {
            "id": 14063,
            "original_name": "Nate on Drums",
            "popularity": 0.6
        },
        {
            "id": 25131,
            "original_name": "Fascinate My Heart",
            "popularity": 0.6
        }
    ]
}