{
    "data": [
        {
            "id": 100592,
            "original_name": "Betsu ni Anta no Tame ni Ookiku Nattan Janain Dakara ne!!",
            "popularity": 0.6
        },
        {
            "id": 112765,
            "original_name": "Natta, Norge",
            "popularity": 0.6
        },
        {
            "id": 120578,
            "original_name": "Nattarbeiderne",
            "popularity": 0.6
        }
    ],
    "relations": [],
    "top20": [
        {
            "id": 100592,
            "original_name": "Betsu ni Anta no Tame ni Ookiku Nattan Janain Dakara ne!!",
            "popularity": 0.6
        },
        {
            "id": 112765,
            "original_name": "Natta, Norge",
            "popularity": 0.6
        },
        {
            "id": 120578,
            "original_name": "Nattarbeiderne",
            "popularity": 0.6
        }
    ]
}