{
    "data": [
        {
            "id": 63122,
            "original_name": "Amerikas Naturwunder",
            "popularity": 0.6
        },
        {
            "id": 118943,
            "original_name": "Die gro\u00dfe Show der Naturwunder",
            "popularity": 0.879
        },
        {
            "id": 122258,
            "original_name": "Norwegens Naturwunder",
            "popularity": 0.6
        }
    ],
    "relations": [],
    "top20": [
        {
            "id": 63122,
            "original_name": "Amerikas Naturwunder",
            "popularity": 0.6
        },
        {
            "id": 118943,
            "original_name": "Die gro\u00dfe Show der Naturwunder",
            "popularity": 0.879
        },
        {
            "id": 122258,
            "original_name": "Norwegens Naturwunder",
            "popularity": 0.6
        }
    ]
}