{
    "data": [
        {
            "id": 40510,
            "original_name": "Berliner Schnauzen",
            "popularity": 0.6
        },
        {
            "id": 40973,
            "original_name": "Ostsee-Schnauzen",
            "popularity": 0.6
        },
        {
            "id": 40998,
            "original_name": "Dresdner Schnauzen",
            "popularity": 0.6
        },
        {
            "id": 41118,
            "original_name": "N\u00fcrnberger Schnauzen",
            "popularity": 0.6
        },
        {
            "id": 83534,
            "original_name": "Mit Herz und Schnauze",
            "popularity": 0.677
        },
        {
            "id": 117743,
            "original_name": "Frei Schnauze",
            "popularity": 1.547
        }
    ],
    "relations": [],
    "top20": [
        {
            "id": 40510,
            "original_name": "Berliner Schnauzen",
            "popularity": 0.6
        },
        {
            "id": 40973,
            "original_name": "Ostsee-Schnauzen",
            "popularity": 0.6
        },
        {
            "id": 40998,
            "original_name": "Dresdner Schnauzen",
            "popularity": 0.6
        },
        {
            "id": 41118,
            "original_name": "N\u00fcrnberger Schnauzen",
            "popularity": 0.6
        },
        {
            "id": 83534,
            "original_name": "Mit Herz und Schnauze",
            "popularity": 0.677
        },
        {
            "id": 117743,
            "original_name": "Frei Schnauze",
            "popularity": 1.547
        }
    ]
}