{
    "data": [
        {
            "id": 104527,
            "original_name": "Filmemigration aus Nazideutschland",
            "popularity": 1.991
        }
    ],
    "relations": [],
    "top20": [
        {
            "id": 104527,
            "original_name": "Filmemigration aus Nazideutschland",
            "popularity": 1.991
        }
    ]
}