{
    "data": [
        {
            "id": 67220,
            "original_name": "Vive les vacances!",
            "popularity": 0.891
        }
    ],
    "relations": [],
    "top20": [
        {
            "id": 67220,
            "original_name": "Vive les vacances!",
            "popularity": 0.891
        }
    ]
}