{
    "data": [
        {
            "id": 5423,
            "original_name": "Manchester Today",
            "popularity": 0.6
        },
        {
            "id": 9060,
            "original_name": "No Manches",
            "popularity": 0.6
        },
        {
            "id": 18765,
            "original_name": "8:15 from Manchester",
            "popularity": 1.517
        },
        {
            "id": 18827,
            "original_name": "Back Benches",
            "popularity": 0.6
        },
        {
            "id": 24849,
            "original_name": "Manchester Prep",
            "popularity": 0.884
        },
        {
            "id": 32253,
            "original_name": "Trenches",
            "popularity": 0.6
        },
        {
            "id": 35478,
            "original_name": "Manchester Passion",
            "popularity": 0.6
        },
        {
            "id": 38132,
            "original_name": "Three Inches",
            "popularity": 0.809
        },
        {
            "id": 42059,
            "original_name": "Children in Need Rocks Manchester",
            "popularity": 0.6
        },
        {
            "id": 53107,
            "original_name": "Manchester Orchestra's Mean Everything to Nothing: A Visual Journey in Eleven Acts",
            "popularity": 0.6
        },
        {
            "id": 57531,
            "original_name": "Trenches: Battleground WWI",
            "popularity": 0.6
        },
        {
            "id": 69508,
            "original_name": "Manchester United matches",
            "popularity": 0.6
        },
        {
            "id": 73815,
            "original_name": "Educating Greater Manchester",
            "popularity": 0.6
        },
        {
            "id": 81705,
            "original_name": "All or Nothing: Manchester City",
            "popularity": 6.111
        },
        {
            "id": 95021,
            "original_name": "CULT-TASTIC: Tales From The Trenches With Roger And Julie Corman",
            "popularity": 0.6
        },
        {
            "id": 107406,
            "original_name": "Inside Missguided: Made In Manchester",
            "popularity": 0.6
        },
        {
            "id": 111173,
            "original_name": "Les beaux dimanches",
            "popularity": 0.6
        },
        {
            "id": 113847,
            "original_name": "Wenches julekalender",
            "popularity": 0.6
        },
        {
            "id": 119696,
            "original_name": "War Above the Trenches",
            "popularity": 0.6
        },
        {
            "id": 128113,
            "original_name": "The Winchesters",
            "popularity": 1.21
        },
        {
            "id": 137546,
            "original_name": "Manchester United - All 2000 Premier League Goals",
            "popularity": 0.6
        }
    ],
    "relations": [
        {
            "character": "nchest"
        }
    ],
    "top20": [
        {
            "id": 81705,
            "original_name": "All or Nothing: Manchester City",
            "popularity": 6.111
        },
        {
            "id": 18765,
            "original_name": "8:15 from Manchester",
            "popularity": 1.517
        },
        {
            "id": 128113,
            "original_name": "The Winchesters",
            "popularity": 1.21
        },
        {
            "id": 24849,
            "original_name": "Manchester Prep",
            "popularity": 0.884
        },
        {
            "id": 38132,
            "original_name": "Three Inches",
            "popularity": 0.809
        },
        {
            "id": 73815,
            "original_name": "Educating Greater Manchester",
            "popularity": 0.6
        },
        {
            "id": 69508,
            "original_name": "Manchester United matches",
            "popularity": 0.6
        },
        {
            "id": 57531,
            "original_name": "Trenches: Battleground WWI",
            "popularity": 0.6
        },
        {
            "id": 113847,
            "original_name": "Wenches julekalender",
            "popularity": 0.6
        },
        {
            "id": 111173,
            "original_name": "Les beaux dimanches",
            "popularity": 0.6
        },
        {
            "id": 95021,
            "original_name": "CULT-TASTIC: Tales From The Trenches With Roger And Julie Corman",
            "popularity": 0.6
        },
        {
            "id": 42059,
            "original_name": "Children in Need Rocks Manchester",
            "popularity": 0.6
        },
        {
            "id": 9060,
            "original_name": "No Manches",
            "popularity": 0.6
        },
        {
            "id": 107406,
            "original_name": "Inside Missguided: Made In Manchester",
            "popularity": 0.6
        },
        {
            "id": 32253,
            "original_name": "Trenches",
            "popularity": 0.6
        },
        {
            "id": 35478,
            "original_name": "Manchester Passion",
            "popularity": 0.6
        },
        {
            "id": 18827,
            "original_name": "Back Benches",
            "popularity": 0.6
        },
        {
            "id": 5423,
            "original_name": "Manchester Today",
            "popularity": 0.6
        },
        {
            "id": 119696,
            "original_name": "War Above the Trenches",
            "popularity": 0.6
        },
        {
            "id": 53107,
            "original_name": "Manchester Orchestra's Mean Everything to Nothing: A Visual Journey in Eleven Acts",
            "popularity": 0.6
        }
    ]
}