{
    "data": [
        {
            "id": 82662,
            "original_name": "Die K\u00fcchenchefs",
            "popularity": 0.6
        }
    ],
    "relations": [],
    "top20": [
        {
            "id": 82662,
            "original_name": "Die K\u00fcchenchefs",
            "popularity": 0.6
        }
    ]
}