{
    "data": [
        {
            "id": 4928,
            "original_name": "The Tony Hancock Show",
            "popularity": 0.6
        },
        {
            "id": 9758,
            "original_name": "Hancock's Half Hour",
            "popularity": 3.045
        },
        {
            "id": 27133,
            "original_name": "But Seriously, It's Sheila Hancock",
            "popularity": 0.6
        },
        {
            "id": 29223,
            "original_name": "Hancock's",
            "popularity": 0.6
        },
        {
            "id": 30559,
            "original_name": "Hancock",
            "popularity": 0.6
        },
        {
            "id": 66815,
            "original_name": "House of Hancock",
            "popularity": 0.6
        }
    ],
    "relations": [],
    "top20": [
        {
            "id": 4928,
            "original_name": "The Tony Hancock Show",
            "popularity": 0.6
        },
        {
            "id": 9758,
            "original_name": "Hancock's Half Hour",
            "popularity": 3.045
        },
        {
            "id": 27133,
            "original_name": "But Seriously, It's Sheila Hancock",
            "popularity": 0.6
        },
        {
            "id": 29223,
            "original_name": "Hancock's",
            "popularity": 0.6
        },
        {
            "id": 30559,
            "original_name": "Hancock",
            "popularity": 0.6
        },
        {
            "id": 66815,
            "original_name": "House of Hancock",
            "popularity": 0.6
        }
    ]
}