{
    "data": [
        {
            "id": 131321,
            "original_name": "Incredibly Small World",
            "popularity": 0.6
        },
        {
            "id": 133103,
            "original_name": "The Incredibly Strange Film Show",
            "popularity": 0.6
        }
    ],
    "relations": [],
    "top20": [
        {
            "id": 131321,
            "original_name": "Incredibly Small World",
            "popularity": 0.6
        },
        {
            "id": 133103,
            "original_name": "The Incredibly Strange Film Show",
            "popularity": 0.6
        }
    ]
}