{
    "data": [
        {
            "id": 18119,
            "original_name": "Ninja Pandav",
            "popularity": 0.6
        },
        {
            "id": 21802,
            "original_name": "Flash Nick From Jindavick",
            "popularity": 0.6
        },
        {
            "id": 46926,
            "original_name": "La Mujer del Vendaval",
            "popularity": 3.34
        },
        {
            "id": 85271,
            "original_name": "WandaVision",
            "popularity": 191.862
        }
    ],
    "relations": [],
    "top20": [
        {
            "id": 18119,
            "original_name": "Ninja Pandav",
            "popularity": 0.6
        },
        {
            "id": 21802,
            "original_name": "Flash Nick From Jindavick",
            "popularity": 0.6
        },
        {
            "id": 46926,
            "original_name": "La Mujer del Vendaval",
            "popularity": 3.34
        },
        {
            "id": 85271,
            "original_name": "WandaVision",
            "popularity": 191.862
        }
    ]
}