{
    "data": [
        {
            "id": 70707,
            "original_name": "Bunkers Brutalism and Bloodymindedness",
            "popularity": 0.6
        },
        {
            "id": 137512,
            "original_name": "Bunkers, Brutalism and Bloodymindedness: Concrete Poetry with Jonathan Meades",
            "popularity": 0.6
        }
    ],
    "relations": [],
    "top20": [
        {
            "id": 70707,
            "original_name": "Bunkers Brutalism and Bloodymindedness",
            "popularity": 0.6
        },
        {
            "id": 137512,
            "original_name": "Bunkers, Brutalism and Bloodymindedness: Concrete Poetry with Jonathan Meades",
            "popularity": 0.6
        }
    ]
}