{
    "data": [
        {
            "id": 83740,
            "original_name": "Fair handeln - Unterwegs mit Hannes Jaenicke",
            "popularity": 1.4
        },
        {
            "id": 136109,
            "original_name": "Insats torsk - sexhandeln inifr\u00e5n",
            "popularity": 1.429
        }
    ],
    "relations": [],
    "top20": [
        {
            "id": 83740,
            "original_name": "Fair handeln - Unterwegs mit Hannes Jaenicke",
            "popularity": 1.4
        },
        {
            "id": 136109,
            "original_name": "Insats torsk - sexhandeln inifr\u00e5n",
            "popularity": 1.429
        }
    ]
}