{
    "data": [
        {
            "id": 27487,
            "original_name": "Ever Wondered About Food",
            "popularity": 0.6
        }
    ],
    "relations": [],
    "top20": [
        {
            "id": 27487,
            "original_name": "Ever Wondered About Food",
            "popularity": 0.6
        }
    ]
}