{
    "data": [
        {
            "id": 13545,
            "original_name": "The Undersea Adventures of Captain Nemo",
            "popularity": 1.808
        },
        {
            "id": 16606,
            "original_name": "Hans Christian Andersen: My Life as a Fairytale",
            "popularity": 1.548
        },
        {
            "id": 32655,
            "original_name": "Young Andersen",
            "popularity": 0.6
        },
        {
            "id": 41638,
            "original_name": "The Underseas Explorers",
            "popularity": 0.6
        },
        {
            "id": 43617,
            "original_name": "Andersens julehemmelighed",
            "popularity": 0.6
        },
        {
            "id": 97459,
            "original_name": "The Undersea Adventures of Ripples and His Friends",
            "popularity": 0.6
        },
        {
            "id": 98715,
            "original_name": "Andersen's Fairy Tales",
            "popularity": 0.6
        }
    ],
    "relations": [],
    "top20": [
        {
            "id": 13545,
            "original_name": "The Undersea Adventures of Captain Nemo",
            "popularity": 1.808
        },
        {
            "id": 16606,
            "original_name": "Hans Christian Andersen: My Life as a Fairytale",
            "popularity": 1.548
        },
        {
            "id": 32655,
            "original_name": "Young Andersen",
            "popularity": 0.6
        },
        {
            "id": 41638,
            "original_name": "The Underseas Explorers",
            "popularity": 0.6
        },
        {
            "id": 43617,
            "original_name": "Andersens julehemmelighed",
            "popularity": 0.6
        },
        {
            "id": 97459,
            "original_name": "The Undersea Adventures of Ripples and His Friends",
            "popularity": 0.6
        },
        {
            "id": 98715,
            "original_name": "Andersen's Fairy Tales",
            "popularity": 0.6
        }
    ]
}