{
    "data": [
        {
            "id": 393,
            "original_name": "Patent Bending",
            "popularity": 0.6
        },
        {
            "id": 402,
            "original_name": "Still Standing",
            "popularity": 8.849
        },
        {
            "id": 661,
            "original_name": "The Young Indiana Jones Chronicles",
            "popularity": 24.016
        },
        {
            "id": 965,
            "original_name": "Where in the World Is Carmen Sandiego?",
            "popularity": 3.403
        },
        {
            "id": 1301,
            "original_name": "Shabaash India",
            "popularity": 0.6
        },
        {
            "id": 1327,
            "original_name": "The Undisclosed",
            "popularity": 0.6
        },
        {
            "id": 1479,
            "original_name": "Tales from the Neverending Story",
            "popularity": 2.948
        },
        {
            "id": 1699,
            "original_name": "Last Comic Standing",
            "popularity": 3.32
        },
        {
            "id": 2463,
            "original_name": "Bandila",
            "popularity": 0.6
        },
        {
            "id": 2595,
            "original_name": "Knots Landing",
            "popularity": 12.318
        },
        {
            "id": 2854,
            "original_name": "Dice: Undisputed",
            "popularity": 0.6
        },
        {
            "id": 3686,
            "original_name": "Last Man Standing",
            "popularity": 1.222
        },
        {
            "id": 3945,
            "original_name": "Where on Earth is Carmen Sandiego?",
            "popularity": 10.487
        },
        {
            "id": 4045,
            "original_name": "Eerie, Indiana",
            "popularity": 6.126
        },
        {
            "id": 4091,
            "original_name": "Where in Time Is Carmen Sandiego?",
            "popularity": 2.862
        },
        {
            "id": 4178,
            "original_name": "Bondi Rescue",
            "popularity": 6.579
        },
        {
            "id": 5628,
            "original_name": "Moondial",
            "popularity": 0.87
        },
        {
            "id": 5818,
            "original_name": "Candid Camera",
            "popularity": 2.981
        },
        {
            "id": 7144,
            "original_name": "La Energ\u00eda de Sonric'slandia",
            "popularity": 0.6
        },
        {
            "id": 7273,
            "original_name": "So You Think You Can Dance Scandinavia",
            "popularity": 0.6
        },
        {
            "id": 7364,
            "original_name": "Blondie",
            "popularity": 1.422
        },
        {
            "id": 7384,
            "original_name": "Last Choir Standing",
            "popularity": 0.6
        },
        {
            "id": 7421,
            "original_name": "Klondike",
            "popularity": 1.608
        },
        {
            "id": 7582,
            "original_name": "STAR Voice of India 2",
            "popularity": 0.6
        },
        {
            "id": 7914,
            "original_name": "Mehndi Tere Naam Ki",
            "popularity": 0.6
        },
        {
            "id": 7936,
            "original_name": "India Calling",
            "popularity": 0.6
        },
        {
            "id": 7979,
            "original_name": "Caminho das \u00cdndias",
            "popularity": 11.708
        },
        {
            "id": 8284,
            "original_name": "India's Best Cinestars Ki Khoj",
            "popularity": 0.6
        },
        {
            "id": 8380,
            "original_name": "Dance India Dance",
            "popularity": 1.4
        },
        {
            "id": 8516,
            "original_name": "\u30a6\u30eb\u30c8\u30e9\u30ae\u30e3\u30e9\u30af\u30b7\u30fc\u5927\u602a\u7363\u30d0\u30c8\u30eb NEVER ENDING ODYSSEY",
            "popularity": 0.6
        },
        {
            "id": 8536,
            "original_name": "Hindi Mo Ako Kayang Tapakan",
            "popularity": 0.6
        },
        {
            "id": 9004,
            "original_name": "The Great Indian Comedy Show",
            "popularity": 0.6
        },
        {
            "id": 10265,
            "original_name": "Across Indiana",
            "popularity": 0.6
        },
        {
            "id": 10395,
            "original_name": "Amul STAR Voice of India",
            "popularity": 0.6
        },
        {
            "id": 10407,
            "original_name": "Minding the Store",
            "popularity": 0.6
        },
        {
            "id": 10637,
            "original_name": "New Scandinavian Cooking",
            "popularity": 0.6
        },
        {
            "id": 10986,
            "original_name": "The NeverEnding Story",
            "popularity": 3.43
        },
        {
            "id": 11202,
            "original_name": "Shindig!",
            "popularity": 8.973
        },
        {
            "id": 11429,
            "original_name": "Bindi, the Jungle Girl",
            "popularity": 0.915
        },
        {
            "id": 11475,
            "original_name": "Making the Cut: Last Man Standing",
            "popularity": 0.842
        },
        {
            "id": 11979,
            "original_name": "Scandinavia's Next Top Model",
            "popularity": 0.6
        },
        {
            "id": 12361,
            "original_name": "Australia You're Standing In It",
            "popularity": 0.84
        },
        {
            "id": 12927,
            "original_name": "A Oscuras Pero Encendidos",
            "popularity": 0.6
        },
        {
            "id": 13316,
            "original_name": "Thumb Bandits",
            "popularity": 0.6
        },
        {
            "id": 13676,
            "original_name": "We Can Be Heroes: Finding The Australian of the Year",
            "popularity": 1.832
        },
        {
            "id": 13700,
            "original_name": "Indian Idol",
            "popularity": 4.365
        },
        {
            "id": 14072,
            "original_name": "India's Most Wanted",
            "popularity": 0.6
        },
        {
            "id": 14512,
            "original_name": "Last Man Standing",
            "popularity": 0.6
        },
        {
            "id": 14936,
            "original_name": "Standing Room Only",
            "popularity": 0.6
        },
        {
            "id": 15154,
            "original_name": "Imagining Indians",
            "popularity": 0.6
        },
        {
            "id": 15293,
            "original_name": "Indian School",
            "popularity": 0.6
        },
        {
            "id": 15314,
            "original_name": "Durgesh Nandinii",
            "popularity": 0.6
        },
        {
            "id": 15449,
            "original_name": "Jjhoom India",
            "popularity": 0.6
        },
        {
            "id": 15481,
            "original_name": "American Candidate",
            "popularity": 0.6
        },
        {
            "id": 15648,
            "original_name": "Indiadhanush",
            "popularity": 0.6
        },
        {
            "id": 15747,
            "original_name": "Lead India",
            "popularity": 0.6
        },
        {
            "id": 16242,
            "original_name": "Bandidas",
            "popularity": 0.6
        },
        {
            "id": 16378,
            "original_name": "Bandini",
            "popularity": 0.605
        },
        {
            "id": 16396,
            "original_name": "Dhoop Mein Thandi Chaav...Maa",
            "popularity": 0.6
        },
        {
            "id": 16402,
            "original_name": "Candies",
            "popularity": 0.6
        },
        {
            "id": 16406,
            "original_name": "Brave Man Standing",
            "popularity": 0.6
        },
        {
            "id": 16431,
            "original_name": "Epic Conditions",
            "popularity": 0.6
        },
        {
            "id": 16536,
            "original_name": "Understanding",
            "popularity": 0.6
        },
        {
            "id": 16775,
            "original_name": "Gudesens Conditori",
            "popularity": 0.6
        },
        {
            "id": 16999,
            "original_name": "Bandit",
            "popularity": 0.6
        },
        {
            "id": 17082,
            "original_name": "Eerie, Indiana: The Other Dimension",
            "popularity": 3.835
        },
        {
            "id": 17222,
            "original_name": "Finding John Christmas",
            "popularity": 0.6
        },
        {
            "id": 17251,
            "original_name": "APM: The Splendid Table",
            "popularity": 0.6
        },
        {
            "id": 17446,
            "original_name": "Bondi Vet",
            "popularity": 1.468
        },
        {
            "id": 17512,
            "original_name": "Fear Factor India",
            "popularity": 0.6
        },
        {
            "id": 17684,
            "original_name": "Standing Room Only",
            "popularity": 0.6
        },
        {
            "id": 17798,
            "original_name": "Neneh and Andi Dish it Up",
            "popularity": 0.6
        },
        {
            "id": 17876,
            "original_name": "Brian Regan: Standing Up",
            "popularity": 0.6
        },
        {
            "id": 18108,
            "original_name": "Hindi Hai Hum",
            "popularity": 0.6
        },
        {
            "id": 18574,
            "original_name": "One Nation Indivisible",
            "popularity": 0.6
        },
        {
            "id": 18579,
            "original_name": "The Negro in Indianapolis",
            "popularity": 0.6
        },
        {
            "id": 18676,
            "original_name": "MTV Force India The Fast and The Gorgeous",
            "popularity": 0.6
        },
        {
            "id": 19300,
            "original_name": "Blondie",
            "popularity": 1.435
        },
        {
            "id": 19305,
            "original_name": "The Syndicate",
            "popularity": 4.278
        },
        {
            "id": 19406,
            "original_name": "The Story of India",
            "popularity": 0.743
        },
        {
            "id": 19457,
            "original_name": "India's Got Talent",
            "popularity": 4.141
        },
        {
            "id": 19670,
            "original_name": "The Syndicate",
            "popularity": 0.6
        },
        {
            "id": 19685,
            "original_name": "Knots Landing: Back to the Cul-de-Sac",
            "popularity": 0.6
        },
        {
            "id": 19912,
            "original_name": "Playhouse Disney India",
            "popularity": 0.6
        },
        {
            "id": 19944,
            "original_name": "Indique \u2013 Untold Stories of Contemporary India",
            "popularity": 0.6
        },
        {
            "id": 20379,
            "original_name": "Indigotv",
            "popularity": 0.6
        },
        {
            "id": 20470,
            "original_name": "Paul Merton in India",
            "popularity": 0.6
        },
        {
            "id": 21201,
            "original_name": "Bandit",
            "popularity": 0.6
        },
        {
            "id": 21710,
            "original_name": "I Survived: Hindi Sumusuko Ang Pinoy",
            "popularity": 0.6
        },
        {
            "id": 21833,
            "original_name": "Destruction Of The Indian",
            "popularity": 0.6
        },
        {
            "id": 22282,
            "original_name": "Sounding Brass",
            "popularity": 0.6
        },
        {
            "id": 22494,
            "original_name": "Happy Endings (UK)",
            "popularity": 0.6
        },
        {
            "id": 22568,
            "original_name": "Klondike: The Quest for Gold",
            "popularity": 0.6
        },
        {
            "id": 24273,
            "original_name": "Bandits vs. Smokies",
            "popularity": 0.6
        },
        {
            "id": 24349,
            "original_name": "Contrabandits",
            "popularity": 0.6
        },
        {
            "id": 24522,
            "original_name": "Indian Finishing School",
            "popularity": 0.6
        },
        {
            "id": 25194,
            "original_name": "The Train Now Standing",
            "popularity": 1.4
        },
        {
            "id": 25195,
            "original_name": "Blandings Castle",
            "popularity": 1.396
        },
        {
            "id": 25404,
            "original_name": "Monica: Still Standing",
            "popularity": 0.6
        },
        {
            "id": 25466,
            "original_name": "Last One Standing",
            "popularity": 1.092
        },
        {
            "id": 26042,
            "original_name": "Celebrity Rides: Burt Builds a Bandit",
            "popularity": 0.6
        },
        {
            "id": 29261,
            "original_name": "Bondi Banquet",
            "popularity": 0.6
        },
        {
            "id": 29468,
            "original_name": "Lending a Hand: A Habitat Neighborhood",
            "popularity": 0.6
        },
        {
            "id": 30319,
            "original_name": "Candid Camera (AU)",
            "popularity": 0.6
        },
        {
            "id": 30569,
            "original_name": "Spending Other People's Money",
            "popularity": 0.6
        },
        {
            "id": 31173,
            "original_name": "Monica: Still Standing",
            "popularity": 0.6
        },
        {
            "id": 31275,
            "original_name": "How to Be Indie",
            "popularity": 1.961
        },
        {
            "id": 31747,
            "original_name": "Indie Sex",
            "popularity": 12.041
        },
        {
            "id": 32014,
            "original_name": "Agua Bendita",
            "popularity": 0.6
        },
        {
            "id": 32564,
            "original_name": "Dance India Dance Li'l Masters",
            "popularity": 0.6
        },
        {
            "id": 32606,
            "original_name": "Kandidato",
            "popularity": 0.6
        },
        {
            "id": 32829,
            "original_name": "Happy Endings",
            "popularity": 20.287
        },
        {
            "id": 32840,
            "original_name": "Bailando por un Sue\u00f1o: Segundo Campeonato Mundial de Baile",
            "popularity": 0.6
        },
        {
            "id": 33189,
            "original_name": "Apocalypse - La 2\u00e8me guerre mondiale",
            "popularity": 11.043
        },
        {
            "id": 33556,
            "original_name": "Candid Eye",
            "popularity": 0.6
        },
        {
            "id": 33635,
            "original_name": "FIFA Futbol Mundial",
            "popularity": 0.6
        },
        {
            "id": 33657,
            "original_name": "Tales of the Klondike",
            "popularity": 0.6
        },
        {
            "id": 33922,
            "original_name": "Portlandia",
            "popularity": 13.973
        },
        {
            "id": 33982,
            "original_name": "MasterChef India",
            "popularity": 1.951
        },
        {
            "id": 34078,
            "original_name": "Showbiz India",
            "popularity": 0.6
        },
        {
            "id": 34427,
            "original_name": "India's Magic Star",
            "popularity": 0.6
        },
        {
            "id": 34463,
            "original_name": "Founding Emperor of Ming Dynasty",
            "popularity": 0.6
        },
        {
            "id": 34503,
            "original_name": "The Indian Doctor",
            "popularity": 4.19
        },
        {
            "id": 34546,
            "original_name": "Mehndi",
            "popularity": 0.6
        },
        {
            "id": 35066,
            "original_name": "Candice Tells All",
            "popularity": 1.144
        },
        {
            "id": 35251,
            "original_name": "2001 Indian Telly Awards",
            "popularity": 0.6
        },
        {
            "id": 35303,
            "original_name": "Dance India Dance Doubles",
            "popularity": 0.6
        },
        {
            "id": 35585,
            "original_name": "Indian Summer: The Oka Crisis",
            "popularity": 0.855
        },
        {
            "id": 36171,
            "original_name": "Stundin okkar",
            "popularity": 0.6
        },
        {
            "id": 36512,
            "original_name": "Crime Syndicated",
            "popularity": 0.6
        },
        {
            "id": 36545,
            "original_name": "Indian Food Made Easy",
            "popularity": 0.6
        },
        {
            "id": 36566,
            "original_name": "Lifandi!",
            "popularity": 0.6
        },
        {
            "id": 36971,
            "original_name": "Steindinn okkar",
            "popularity": 0.6
        },
        {
            "id": 37234,
            "original_name": "Undir sama \u00feaki",
            "popularity": 0.6
        },
        {
            "id": 37612,
            "original_name": "X-Factor India",
            "popularity": 0.6
        },
        {
            "id": 37654,
            "original_name": "Road Bandit",
            "popularity": 0.6
        },
        {
            "id": 38374,
            "original_name": "Caroline Quentin: A Passage Through India",
            "popularity": 0.6
        },
        {
            "id": 38549,
            "original_name": "Last Woman Standing (US)",
            "popularity": 0.6
        },
        {
            "id": 39297,
            "original_name": "Last Man Standing",
            "popularity": 31.145
        },
        {
            "id": 39467,
            "original_name": "The Hills Live: A Hollywood Ending",
            "popularity": 0.6
        },
        {
            "id": 39882,
            "original_name": "Finding Bigfoot",
            "popularity": 1.986
        },
        {
            "id": 39908,
            "original_name": "Adrian der Tulpendieb",
            "popularity": 1.391
        },
        {
            "id": 40305,
            "original_name": "Guinness World Records \u2013 Ab India Todega",
            "popularity": 0.6
        },
        {
            "id": 40481,
            "original_name": "India, Tierra de Pasi\u00f3n",
            "popularity": 0.6
        },
        {
            "id": 40831,
            "original_name": "What's Trending",
            "popularity": 1.126
        },
        {
            "id": 41563,
            "original_name": "Grandi domani",
            "popularity": 0.973
        },
        {
            "id": 41590,
            "original_name": "Sweet India",
            "popularity": 0.6
        },
        {
            "id": 42104,
            "original_name": "Kara Ben Nemsi Effendi",
            "popularity": 1.4
        },
        {
            "id": 42378,
            "original_name": "Who's Still Standing?",
            "popularity": 0.844
        },
        {
            "id": 42495,
            "original_name": "The Sandie Shaw Supplement",
            "popularity": 0.6
        },
        {
            "id": 42706,
            "original_name": "Indian Ocean with Simon Reeve",
            "popularity": 0.624
        },
        {
            "id": 42937,
            "original_name": "Vivement Lundi !",
            "popularity": 0.6
        },
        {
            "id": 43166,
            "original_name": "La 2eme Guerre Mondiale en couleur",
            "popularity": 0.6
        },
        {
            "id": 43221,
            "original_name": "Finding Your Roots",
            "popularity": 10.679
        },
        {
            "id": 43433,
            "original_name": "Standing on the Edge of the Noise",
            "popularity": 0.6
        },
        {
            "id": 43502,
            "original_name": "Blondie: Live by Request",
            "popularity": 0.6
        },
        {
            "id": 43658,
            "original_name": "Puccini: La Rondine",
            "popularity": 0.6
        },
        {
            "id": 43869,
            "original_name": "Trending Topics",
            "popularity": 0.6
        },
        {
            "id": 44105,
            "original_name": "Nandito Ako",
            "popularity": 0.6
        },
        {
            "id": 44355,
            "original_name": "Story Store: Who's Minding the Store?",
            "popularity": 0.6
        },
        {
            "id": 44542,
            "original_name": "Hindi Ka Na Mag-iisa",
            "popularity": 0.6
        },
        {
            "id": 44816,
            "original_name": "Survivor India \u2013 The Ultimate Battle",
            "popularity": 0.6
        },
        {
            "id": 45031,
            "original_name": "Dr. C\u00e1ndido P\u00e9rez",
            "popularity": 0.99
        },
        {
            "id": 45188,
            "original_name": "Klondike Kat",
            "popularity": 0.6
        },
        {
            "id": 45300,
            "original_name": "Descending",
            "popularity": 0.69
        },
        {
            "id": 45919,
            "original_name": "Mobilnye Blondinki",
            "popularity": 0.6
        },
        {
            "id": 46714,
            "original_name": "Global National -Johnsons Landing Slide",
            "popularity": 0.6
        },
        {
            "id": 46762,
            "original_name": "Descending",
            "popularity": 0.6
        },
        {
            "id": 47139,
            "original_name": "Finding Stuff Out",
            "popularity": 0.6
        },
        {
            "id": 47343,
            "original_name": "24: India",
            "popularity": 2.089
        },
        {
            "id": 48009,
            "original_name": "Finding Out - Edward Lear",
            "popularity": 0.6
        },
        {
            "id": 48034,
            "original_name": "Moon Landing Special",
            "popularity": 0.6
        },
        {
            "id": 48330,
            "original_name": "Kinali kuzular: Bedeli \u00c7anakkale'de \u00f6dendi",
            "popularity": 0.6
        },
        {
            "id": 48812,
            "original_name": "Happy Endings",
            "popularity": 0.6
        },
        {
            "id": 49291,
            "original_name": "Wild Skandinavia",
            "popularity": 0.6
        },
        {
            "id": 50250,
            "original_name": "Andini",
            "popularity": 0.6
        },
        {
            "id": 50695,
            "original_name": "Bu Sizi \u0130lgilendiriyor",
            "popularity": 0.6
        },
        {
            "id": 51231,
            "original_name": "Double Sounding Cannon",
            "popularity": 0.6
        },
        {
            "id": 51547,
            "original_name": "Last Car Standing",
            "popularity": 0.6
        },
        {
            "id": 52102,
            "original_name": "Wildest India",
            "popularity": 0.601
        },
        {
            "id": 52127,
            "original_name": "Rick Stein's India",
            "popularity": 8.516
        },
        {
            "id": 52939,
            "original_name": "Madhur Jaffrey's Flavours of India",
            "popularity": 0.6
        },
        {
            "id": 53024,
            "original_name": "Finding Me: The Series",
            "popularity": 0.6
        },
        {
            "id": 53108,
            "original_name": "Welcome To Sanditon",
            "popularity": 0.682
        },
        {
            "id": 53853,
            "original_name": "Al-Bahhar Mondi",
            "popularity": 0.6
        },
        {
            "id": 54955,
            "original_name": "K\u00e4ndisdjungeln",
            "popularity": 0.6
        },
        {
            "id": 55109,
            "original_name": "P\u00e5 togt med Troels Kl\u00f8vedal - Nordkaperen i det indiske ocean",
            "popularity": 0.6
        },
        {
            "id": 55633,
            "original_name": "Skandinavien von oben",
            "popularity": 0.6
        },
        {
            "id": 55732,
            "original_name": "Kandit",
            "popularity": 0.6
        },
        {
            "id": 55866,
            "original_name": "Candice Renoir",
            "popularity": 25.686
        },
        {
            "id": 56569,
            "original_name": "Candid Camera",
            "popularity": 0.6
        },
        {
            "id": 56702,
            "original_name": "The Never-Ending Battle Between Mother-and-Daughter-in-Law",
            "popularity": 0.6
        },
        {
            "id": 56970,
            "original_name": "One Track Minds, Understanding Autism",
            "popularity": 0.6
        },
        {
            "id": 57129,
            "original_name": "71\u00b0 nord - Norges t\u00f8ffeste kjendis",
            "popularity": 6.264
        },
        {
            "id": 57389,
            "original_name": "Klondike",
            "popularity": 4.946
        },
        {
            "id": 57510,
            "original_name": "Blondi tuli taloon",
            "popularity": 0.6
        },
        {
            "id": 57535,
            "original_name": "Banditskiy Peterburg",
            "popularity": 0.6
        },
        {
            "id": 57600,
            "original_name": "La segunda guerra mundial en color",
            "popularity": 0.6
        },
        {
            "id": 57860,
            "original_name": "Junior Masterchef India",
            "popularity": 0.6
        },
        {
            "id": 57959,
            "original_name": "Last Call Indian",
            "popularity": 0.6
        },
        {
            "id": 58093,
            "original_name": "Understanding Islam",
            "popularity": 0.6
        },
        {
            "id": 58391,
            "original_name": "I Luv My India",
            "popularity": 0.6
        },
        {
            "id": 58742,
            "original_name": "Las Bandidas",
            "popularity": 0.6
        },
        {
            "id": 58783,
            "original_name": "Finding the Fallen",
            "popularity": 0.6
        },
        {
            "id": 58943,
            "original_name": "India Reborn",
            "popularity": 0.6
        },
        {
            "id": 59166,
            "original_name": "Facing Evil with Candice DeLong",
            "popularity": 0.6
        },
        {
            "id": 59351,
            "original_name": "India with Sanjeev Bhaskar",
            "popularity": 0.6
        },
        {
            "id": 59440,
            "original_name": "Blandings",
            "popularity": 1.604
        },
        {
            "id": 59536,
            "original_name": "Cyndi Lauper: Still So Unusual",
            "popularity": 0.6
        },
        {
            "id": 59701,
            "original_name": "Finding Sarah",
            "popularity": 0.6
        },
        {
            "id": 59741,
            "original_name": "The Kandi Factory",
            "popularity": 0.6
        },
        {
            "id": 59976,
            "original_name": "Keb Pandin",
            "popularity": 0.6
        },
        {
            "id": 60289,
            "original_name": "Superheroes: A Never-Ending Battle",
            "popularity": 2.54
        },
        {
            "id": 60344,
            "original_name": "Bindi's Bootcamp",
            "popularity": 0.6
        },
        {
            "id": 60363,
            "original_name": "One Dead Indian",
            "popularity": 0.6
        },
        {
            "id": 61135,
            "original_name": "Finding Carter",
            "popularity": 18.378
        },
        {
            "id": 61314,
            "original_name": "Apocalypse, la Premi\u00e8re Guerre Mondiale",
            "popularity": 9.807
        },
        {
            "id": 62088,
            "original_name": "Indian Summers",
            "popularity": 5.311
        },
        {
            "id": 62752,
            "original_name": "Finding Jesus: Faith. Fact. Forgery",
            "popularity": 4.0
        },
        {
            "id": 63016,
            "original_name": "Candidly Nicole",
            "popularity": 0.847
        },
        {
            "id": 63221,
            "original_name": "Die Stadtindianer",
            "popularity": 0.6
        },
        {
            "id": 63690,
            "original_name": "Peter Voss, der Millionendieb",
            "popularity": 0.6
        },
        {
            "id": 64703,
            "original_name": "Das M\u00e4dchen mit dem indischen Smaragd",
            "popularity": 1.24
        },
        {
            "id": 65041,
            "original_name": "Vriendinnen",
            "popularity": 1.182
        },
        {
            "id": 65058,
            "original_name": "Hotel India",
            "popularity": 0.606
        },
        {
            "id": 65069,
            "original_name": "Welcome to India",
            "popularity": 0.6
        },
        {
            "id": 65960,
            "original_name": "Art of Scandinavia",
            "popularity": 0.6
        },
        {
            "id": 66086,
            "original_name": "Destination Flavour Scandinavia",
            "popularity": 0.6
        },
        {
            "id": 66922,
            "original_name": "Still Standing",
            "popularity": 0.782
        },
        {
            "id": 67372,
            "original_name": "The Voice India",
            "popularity": 0.6
        },
        {
            "id": 67383,
            "original_name": "The Barefoot Bandits",
            "popularity": 0.61
        },
        {
            "id": 67410,
            "original_name": "Catturandi - Nel Nome del Padre",
            "popularity": 3.224
        },
        {
            "id": 67608,
            "original_name": "Top Model India",
            "popularity": 0.6
        },
        {
            "id": 67754,
            "original_name": "Finding Prince Charming",
            "popularity": 1.924
        },
        {
            "id": 68488,
            "original_name": "Last Squad Standing",
            "popularity": 0.6
        },
        {
            "id": 68760,
            "original_name": "Moundir & les Apprentis Aventuriers",
            "popularity": 2.815
        },
        {
            "id": 68795,
            "original_name": "The Rubberbandits Guide to Everything",
            "popularity": 0.6
        },
        {
            "id": 69214,
            "original_name": "Spy Trader Kim Chul Soo's Recent Condition",
            "popularity": 0.6
        },
        {
            "id": 69721,
            "original_name": "Anh Does Scandinavia",
            "popularity": 0.6
        },
        {
            "id": 69772,
            "original_name": "Heimsendir",
            "popularity": 1.4
        },
        {
            "id": 70049,
            "original_name": "Founding Brothers",
            "popularity": 1.091
        },
        {
            "id": 70245,
            "original_name": "Les Appendices",
            "popularity": 3.227
        },
        {
            "id": 70272,
            "original_name": "Meine Freundin Conni",
            "popularity": 2.05
        },
        {
            "id": 70335,
            "original_name": "Wildes Skandinavien",
            "popularity": 1.051
        },
        {
            "id": 70540,
            "original_name": "Andi Mack",
            "popularity": 20.312
        },
        {
            "id": 70565,
            "original_name": "Bondi Ink Tattoo Crew",
            "popularity": 1.83
        },
        {
            "id": 70732,
            "original_name": "Mai Dire Mundial",
            "popularity": 0.6
        },
        {
            "id": 71130,
            "original_name": "Standing Ovation",
            "popularity": 0.6
        },
        {
            "id": 72230,
            "original_name": "Farmen Kjendis",
            "popularity": 4.168
        },
        {
            "id": 72386,
            "original_name": "India: Nature's Wonderland",
            "popularity": 0.963
        },
        {
            "id": 72412,
            "original_name": "Chandra Nandini",
            "popularity": 7.581
        },
        {
            "id": 72655,
            "original_name": "Joanna Lumley's India",
            "popularity": 0.888
        },
        {
            "id": 72734,
            "original_name": "The Indian Detective",
            "popularity": 2.77
        },
        {
            "id": 72795,
            "original_name": "Mai dire Mondiali",
            "popularity": 0.6
        },
        {
            "id": 72845,
            "original_name": "El Aprendiz",
            "popularity": 0.6
        },
        {
            "id": 72994,
            "original_name": "Mai dire Candid",
            "popularity": 0.6
        },
        {
            "id": 73374,
            "original_name": "Meine Freundin, ihre Familie und ich",
            "popularity": 0.6
        },
        {
            "id": 73382,
            "original_name": "Inhuman Condition",
            "popularity": 0.6
        },
        {
            "id": 73731,
            "original_name": "Kjendisrestauranten",
            "popularity": 0.6
        },
        {
            "id": 73871,
            "original_name": "L'indice Mc$ween",
            "popularity": 4.128
        },
        {
            "id": 74026,
            "original_name": "Hanna badar med en k\u00e4ndis",
            "popularity": 0.811
        },
        {
            "id": 74533,
            "original_name": "An Klondike",
            "popularity": 1.261
        },
        {
            "id": 74728,
            "original_name": "Carmen Sandiego",
            "popularity": 19.169
        },
        {
            "id": 74848,
            "original_name": "Finding Escobar's Millions",
            "popularity": 14.97
        },
        {
            "id": 74924,
            "original_name": "Skandinavien: Der Ruf der Natur",
            "popularity": 0.6
        },
        {
            "id": 75314,
            "original_name": "Dance India Dance",
            "popularity": 0.6
        },
        {
            "id": 75315,
            "original_name": "The Voice India Kids",
            "popularity": 0.908
        },
        {
            "id": 75627,
            "original_name": "La candidata",
            "popularity": 2.224
        },
        {
            "id": 75749,
            "original_name": "The Great Indian Laughter Challenge",
            "popularity": 0.6
        },
        {
            "id": 75752,
            "original_name": "TED Talks India",
            "popularity": 1.045
        },
        {
            "id": 75795,
            "original_name": "Indian Hill Railways",
            "popularity": 0.6
        },
        {
            "id": 75833,
            "original_name": "The Great Indian Laughter Challenge",
            "popularity": 2.898
        },
        {
            "id": 76221,
            "original_name": "Indi\u00e1nske rozpr\u00e1vky",
            "popularity": 1.126
        },
        {
            "id": 76363,
            "original_name": "India's Next Superstars",
            "popularity": 1.4
        },
        {
            "id": 76422,
            "original_name": "Secrets of Wild India",
            "popularity": 0.6
        },
        {
            "id": 76550,
            "original_name": "Indianapolis 500",
            "popularity": 0.6
        },
        {
            "id": 76635,
            "original_name": "Sex Mundi, la aventura del sexo",
            "popularity": 2.793
        },
        {
            "id": 76861,
            "original_name": "Our Guy in India",
            "popularity": 0.626
        },
        {
            "id": 77122,
            "original_name": "Indigo Ignited",
            "popularity": 0.6
        },
        {
            "id": 77273,
            "original_name": "Commanding Heights: The Battle for the World Economy",
            "popularity": 0.6
        },
        {
            "id": 77814,
            "original_name": "Curious Minds: Understanding Memory",
            "popularity": 0.6
        },
        {
            "id": 78572,
            "original_name": "Great Indian Railway Journeys",
            "popularity": 0.68
        },
        {
            "id": 79364,
            "original_name": "Mundillo",
            "popularity": 0.6
        },
        {
            "id": 79701,
            "original_name": "La Segunda Guerra Mundial",
            "popularity": 1.97
        },
        {
            "id": 80597,
            "original_name": "La leggenda del bandito e del campione",
            "popularity": 0.6
        },
        {
            "id": 81489,
            "original_name": "Terre Indigo",
            "popularity": 1.4
        },
        {
            "id": 81525,
            "original_name": "Punklandia",
            "popularity": 0.6
        },
        {
            "id": 81615,
            "original_name": "Savdhaan India @11, Crime Alert",
            "popularity": 0.702
        },
        {
            "id": 81642,
            "original_name": "F2 Finding Football",
            "popularity": 0.6
        },
        {
            "id": 81702,
            "original_name": "Niklas Ekstedt: Ny skandinavisk mat",
            "popularity": 0.6
        },
        {
            "id": 82837,
            "original_name": "V\u00e4rldens s\u00e4msta indier",
            "popularity": 0.677
        },
        {
            "id": 82866,
            "original_name": "Romolo + Giuly: La guerra mondiale italiana",
            "popularity": 0.915
        },
        {
            "id": 83044,
            "original_name": "200 els\u0151 randi",
            "popularity": 2.272
        },
        {
            "id": 83130,
            "original_name": "Imprescindibles",
            "popularity": 0.623
        },
        {
            "id": 83434,
            "original_name": "140 secondi",
            "popularity": 0.6
        },
        {
            "id": 83465,
            "original_name": "Kandi Koated Nights",
            "popularity": 0.602
        },
        {
            "id": 84462,
            "original_name": "The X Factor India",
            "popularity": 0.6
        },
        {
            "id": 84884,
            "original_name": "Finding Joy",
            "popularity": 1.594
        },
        {
            "id": 85111,
            "original_name": "Candidate For Bride",
            "popularity": 0.6
        },
        {
            "id": 85222,
            "original_name": "Defending the Guilty",
            "popularity": 3.314
        },
        {
            "id": 85330,
            "original_name": "Freundinnen - Jetzt erst recht",
            "popularity": 0.84
        },
        {
            "id": 85382,
            "original_name": "Ciranda, Cirandinha",
            "popularity": 0.6
        },
        {
            "id": 85495,
            "original_name": "The Great Indian Dysfunctional Family",
            "popularity": 0.646
        },
        {
            "id": 85496,
            "original_name": "The Great Indian Dysfunctional Family",
            "popularity": 1.385
        },
        {
            "id": 85638,
            "original_name": "Cavendish",
            "popularity": 1.05
        },
        {
            "id": 85733,
            "original_name": "Finding Home",
            "popularity": 0.6
        },
        {
            "id": 85874,
            "original_name": "Det vilda Skandinavien",
            "popularity": 0.6
        },
        {
            "id": 86002,
            "original_name": "Tough Rides: India",
            "popularity": 0.6
        },
        {
            "id": 86420,
            "original_name": "Maid in India",
            "popularity": 0.6
        },
        {
            "id": 86714,
            "original_name": "Torpet Kjendis",
            "popularity": 2.43
        },
        {
            "id": 87070,
            "original_name": "Cricket Fever: Mumbai Indians",
            "popularity": 0.667
        },
        {
            "id": 87075,
            "original_name": "Il candidato va alle elezioni",
            "popularity": 0.852
        },
        {
            "id": 87145,
            "original_name": "Crazy Trip Tailandia",
            "popularity": 0.6
        },
        {
            "id": 87666,
            "original_name": "Familieduellen Kjendis",
            "popularity": 0.6
        },
        {
            "id": 87672,
            "original_name": "Bendita Mentira",
            "popularity": 2.159
        },
        {
            "id": 87784,
            "original_name": "Defending Jacob",
            "popularity": 33.251
        },
        {
            "id": 87865,
            "original_name": "Rendidos",
            "popularity": 0.6
        },
        {
            "id": 88475,
            "original_name": "Finding Justice",
            "popularity": 0.6
        },
        {
            "id": 88512,
            "original_name": "Bonding",
            "popularity": 21.44
        },
        {
            "id": 88560,
            "original_name": "Carandiru, Outras Hist\u00f3rias",
            "popularity": 0.878
        },
        {
            "id": 88870,
            "original_name": "Indiens wilde Sch\u00f6nheit",
            "popularity": 0.6
        },
        {
            "id": 88949,
            "original_name": "L'India vista da Rossellini",
            "popularity": 0.6
        },
        {
            "id": 89222,
            "original_name": "L'Aquila - Grandi speranze",
            "popularity": 2.212
        },
        {
            "id": 89647,
            "original_name": "Simi Selects India's Most Desirable",
            "popularity": 1.538
        },
        {
            "id": 89899,
            "original_name": "Bandidos na TV",
            "popularity": 1.944
        },
        {
            "id": 89986,
            "original_name": "Guy Martin's D-Day Landing",
            "popularity": 0.609
        },
        {
            "id": 90153,
            "original_name": "I grandi Papi",
            "popularity": 0.617
        },
        {
            "id": 90163,
            "original_name": "Truth Behind the Moon Landing",
            "popularity": 0.995
        },
        {
            "id": 90673,
            "original_name": "Hola India",
            "popularity": 0.6
        },
        {
            "id": 90685,
            "original_name": "Bandish",
            "popularity": 0.6
        },
        {
            "id": 91385,
            "original_name": "Vai Fernandinha",
            "popularity": 0.6
        },
        {
            "id": 92331,
            "original_name": "El infierno de la Primera Guerra Mundial",
            "popularity": 0.966
        },
        {
            "id": 92342,
            "original_name": "Cuerpos de \u00c9lite de la Segunda Guerra Mundial",
            "popularity": 0.6
        },
        {
            "id": 92569,
            "original_name": "Bandidos en el tiempo",
            "popularity": 8.667
        },
        {
            "id": 92587,
            "original_name": "Ghar Ek Mandir",
            "popularity": 0.787
        },
        {
            "id": 92817,
            "original_name": "Il y a plusieurs locataires \u00e0 l'adresse indiqu\u00e9e",
            "popularity": 0.6
        },
        {
            "id": 92875,
            "original_name": "Sanditon",
            "popularity": 10.944
        },
        {
            "id": 93075,
            "original_name": "Corde Sensible : Indignation",
            "popularity": 1.148
        },
        {
            "id": 93155,
            "original_name": "Anima Mundi Brasil",
            "popularity": 0.6
        },
        {
            "id": 93639,
            "original_name": "Zuzubal\u00e2ndia",
            "popularity": 0.6
        },
        {
            "id": 93840,
            "original_name": "Dave Gorman: Terms and Conditions Apply",
            "popularity": 2.414
        },
        {
            "id": 94150,
            "original_name": "Un bandido honrado",
            "popularity": 2.889
        },
        {
            "id": 94183,
            "original_name": "Trabantem z Indie a\u017e dom\u016f",
            "popularity": 0.6
        },
        {
            "id": 94399,
            "original_name": "Samvidhaan: The Making of the Constitution of India",
            "popularity": 0.6
        },
        {
            "id": 95187,
            "original_name": "Finding Our Fathers: Lost Heroes of World War II",
            "popularity": 0.6
        },
        {
            "id": 95611,
            "original_name": "Pornol\u00e2ndia",
            "popularity": 0.6
        },
        {
            "id": 96059,
            "original_name": "Romolo + Giuly: la guerra mondiale italiana",
            "popularity": 0.6
        },
        {
            "id": 96528,
            "original_name": "Tokyo Toni\u2019s Finding Love ASAP",
            "popularity": 0.6
        },
        {
            "id": 96681,
            "original_name": "Trending Fear",
            "popularity": 0.6
        },
        {
            "id": 96775,
            "original_name": "Do\u011fdu\u011fun Ev Kaderindir",
            "popularity": 56.025
        },
        {
            "id": 96789,
            "original_name": "Hidden India",
            "popularity": 0.6
        },
        {
            "id": 96880,
            "original_name": "BVNDITv",
            "popularity": 0.6
        },
        {
            "id": 97056,
            "original_name": "Hundidos",
            "popularity": 0.6
        },
        {
            "id": 97543,
            "original_name": "My Perfect Landing",
            "popularity": 2.457
        },
        {
            "id": 97563,
            "original_name": "The Adventures of Young Indiana Jones",
            "popularity": 3.286
        },
        {
            "id": 97712,
            "original_name": "Adam Thorn Presents: The Last King of India",
            "popularity": 0.6
        },
        {
            "id": 97736,
            "original_name": "Bad Indian",
            "popularity": 0.6
        },
        {
            "id": 98304,
            "original_name": "Les Dessous de la mondialisation",
            "popularity": 0.6
        },
        {
            "id": 98533,
            "original_name": "62: Historia de un mundial",
            "popularity": 1.814
        },
        {
            "id": 98544,
            "original_name": "Grandir sur la Route de la Soie",
            "popularity": 0.6
        },
        {
            "id": 98594,
            "original_name": "\u00c0 l'ombre de la Seconde Guerre mondiale",
            "popularity": 0.6
        },
        {
            "id": 98783,
            "original_name": "La Premi\u00e8re Guerre mondiale en couleurs",
            "popularity": 0.6
        },
        {
            "id": 98871,
            "original_name": "Yoga in India - A Journey with Esther Schweins",
            "popularity": 0.61
        },
        {
            "id": 98875,
            "original_name": "Mais o\u00f9 se cache Carmen Sandiego ?",
            "popularity": 0.681
        },
        {
            "id": 99031,
            "original_name": "I Grandi Classici di Gino il Pollo",
            "popularity": 0.6
        },
        {
            "id": 99065,
            "original_name": "Vindication",
            "popularity": 1.4
        },
        {
            "id": 99128,
            "original_name": "Rendicion",
            "popularity": 0.6
        },
        {
            "id": 99517,
            "original_name": "The Expanding Universe of Ashley Garcia",
            "popularity": 10.23
        },
        {
            "id": 99598,
            "original_name": "Wild Cats of India",
            "popularity": 1.4
        },
        {
            "id": 99918,
            "original_name": "India's Best Dancer",
            "popularity": 0.773
        },
        {
            "id": 100180,
            "original_name": "Scandinavian Star",
            "popularity": 0.964
        },
        {
            "id": 100646,
            "original_name": "Candide",
            "popularity": 0.6
        },
        {
            "id": 100741,
            "original_name": "Rumble: The Indians Who Rocked the World",
            "popularity": 0.612
        },
        {
            "id": 101064,
            "original_name": "El candidato Rayo",
            "popularity": 0.6
        },
        {
            "id": 101224,
            "original_name": "Le Syndic du Donjon",
            "popularity": 0.6
        },
        {
            "id": 101597,
            "original_name": "Baandi",
            "popularity": 0.924
        },
        {
            "id": 101664,
            "original_name": "La Segunda Guerra Mundial en color",
            "popularity": 1.4
        },
        {
            "id": 102330,
            "original_name": "Indien Collection",
            "popularity": 0.6
        },
        {
            "id": 102508,
            "original_name": "Absolutely India: Mancs in Mumbai",
            "popularity": 0.623
        },
        {
            "id": 103222,
            "original_name": "Indices",
            "popularity": 0.705
        },
        {
            "id": 103538,
            "original_name": "Case Jaundice",
            "popularity": 0.6
        },
        {
            "id": 103727,
            "original_name": "La reina de Indias y el Conquistador",
            "popularity": 2.535
        },
        {
            "id": 103956,
            "original_name": "Olimpiadas a escondidas",
            "popularity": 0.6
        },
        {
            "id": 104097,
            "original_name": "Dangerous Borders; A Journey across India & Pakistan",
            "popularity": 0.6
        },
        {
            "id": 104435,
            "original_name": "India's Frontier Railways",
            "popularity": 0.6
        },
        {
            "id": 104664,
            "original_name": "Kandi's Ski Trip",
            "popularity": 0.6
        },
        {
            "id": 104837,
            "original_name": "El estilo kinding",
            "popularity": 0.6
        },
        {
            "id": 105141,
            "original_name": "Stray Kids: Finding SKZ",
            "popularity": 0.6
        },
        {
            "id": 105508,
            "original_name": "Gandi Baat 4",
            "popularity": 0.6
        },
        {
            "id": 105606,
            "original_name": "Life Lafde Aur Bandiyan",
            "popularity": 0.6
        },
        {
            "id": 105689,
            "original_name": "Indian Matchmaking",
            "popularity": 9.015
        },
        {
            "id": 105722,
            "original_name": "Car Crews With Supercar Blondie",
            "popularity": 0.6
        },
        {
            "id": 106108,
            "original_name": "El Candidato",
            "popularity": 8.973
        },
        {
            "id": 106150,
            "original_name": "Unconditional",
            "popularity": 0.6
        },
        {
            "id": 106294,
            "original_name": "The Never-Ending Saga",
            "popularity": 0.6
        },
        {
            "id": 106552,
            "original_name": "Founding Fathers",
            "popularity": 0.6
        },
        {
            "id": 106895,
            "original_name": "Pocahontas: Princess of the American Indians",
            "popularity": 0.6
        },
        {
            "id": 106984,
            "original_name": "India from Above",
            "popularity": 2.639
        },
        {
            "id": 107168,
            "original_name": "Encounter (Indian TV series)",
            "popularity": 0.6
        },
        {
            "id": 107243,
            "original_name": "Bu\u010f Bindi",
            "popularity": 0.6
        },
        {
            "id": 108343,
            "original_name": "Nandini The Popular Sun Tv Show Sun Bangla",
            "popularity": 0.6
        },
        {
            "id": 108643,
            "original_name": "Finding Clickton",
            "popularity": 0.6
        },
        {
            "id": 108675,
            "original_name": "Synn\u00f8ve Rydder Opp -  Kjendis",
            "popularity": 1.042
        },
        {
            "id": 108695,
            "original_name": "Indiawaali Maa",
            "popularity": 0.6
        },
        {
            "id": 108956,
            "original_name": "Crimes et Indices",
            "popularity": 1.029
        },
        {
            "id": 109146,
            "original_name": "Skandinavien i Hitlers jerngreb",
            "popularity": 0.6
        },
        {
            "id": 110921,
            "original_name": "The Real Housewives of Atlanta: Kandi's Wedding",
            "popularity": 0.6
        },
        {
            "id": 110977,
            "original_name": "Critical Condition",
            "popularity": 0.6
        },
        {
            "id": 111086,
            "original_name": "Bad Boy Billionaires: India",
            "popularity": 0.903
        },
        {
            "id": 111847,
            "original_name": "Indice UV",
            "popularity": 2.54
        },
        {
            "id": 112041,
            "original_name": "O Aprendiz",
            "popularity": 0.607
        },
        {
            "id": 112072,
            "original_name": "Smokey and the Bandit",
            "popularity": 0.888
        },
        {
            "id": 112364,
            "original_name": "Una pezza di Lundini",
            "popularity": 12.251
        },
        {
            "id": 112525,
            "original_name": "Les appendices : de retour apr\u00e8s la pause",
            "popularity": 1.188
        },
        {
            "id": 112541,
            "original_name": "Sweet Revenge Hindi Dubbed",
            "popularity": 0.6
        },
        {
            "id": 113014,
            "original_name": "Pierre Bellemare raconte la seconde guerre mondiale",
            "popularity": 0.845
        },
        {
            "id": 113262,
            "original_name": "#Riprendiamoci",
            "popularity": 0.6
        },
        {
            "id": 113515,
            "original_name": "Finding Ourselves",
            "popularity": 0.6
        },
        {
            "id": 113558,
            "original_name": "Pandillas guerra y paz",
            "popularity": 7.315
        },
        {
            "id": 113901,
            "original_name": "Maradona: Sue\u00f1o bendito",
            "popularity": 974.753
        },
        {
            "id": 114587,
            "original_name": "Enqu\u00eates incendies",
            "popularity": 0.939
        },
        {
            "id": 114924,
            "original_name": "Time Bandits",
            "popularity": 0.6
        },
        {
            "id": 115367,
            "original_name": "\u30a4\u30f3\u30d5\u30a7\u30ea\u30a6\u30b9\u60d1\u661f\u6226\u53f2\u5916\u4f1d CONDITION GREEN",
            "popularity": 0.6
        },
        {
            "id": 115640,
            "original_name": "Science of Stupid India",
            "popularity": 0.6
        },
        {
            "id": 115689,
            "original_name": "La bandida",
            "popularity": 57.597
        },
        {
            "id": 116151,
            "original_name": "Mijn Slechtste Beste Vriendin",
            "popularity": 2.81
        },
        {
            "id": 116620,
            "original_name": "Finding Alice",
            "popularity": 3.677
        },
        {
            "id": 116659,
            "original_name": "Engle eller banditter",
            "popularity": 0.841
        },
        {
            "id": 117557,
            "original_name": "Kjendis-VM",
            "popularity": 0.6
        },
        {
            "id": 118217,
            "original_name": "India: Una Historia de Amor",
            "popularity": 0.6
        },
        {
            "id": 118284,
            "original_name": "India's Most Sansanikhez Kahaniyan",
            "popularity": 1.845
        },
        {
            "id": 118468,
            "original_name": "Bella Bandida",
            "popularity": 0.938
        },
        {
            "id": 118591,
            "original_name": "Parang Kayo Pero Hindi",
            "popularity": 2.198
        },
        {
            "id": 118911,
            "original_name": "Auf schmaler Spur durch Indien",
            "popularity": 0.6
        },
        {
            "id": 118918,
            "original_name": "Mendirman Celaleddin",
            "popularity": 1.787
        },
        {
            "id": 119336,
            "original_name": "The Deadly Type With Candice DeLong",
            "popularity": 0.84
        },
        {
            "id": 119486,
            "original_name": "NASA Mars Landing",
            "popularity": 0.6
        },
        {
            "id": 119767,
            "original_name": "Indian Pro Music League",
            "popularity": 0.657
        },
        {
            "id": 119852,
            "original_name": "Finding Love in Quarantine",
            "popularity": 1.21
        },
        {
            "id": 120023,
            "original_name": "The Indian Wars - A Change of Worlds",
            "popularity": 0.6
        },
        {
            "id": 120100,
            "original_name": "Standing on Sacred Ground",
            "popularity": 0.6
        },
        {
            "id": 120112,
            "original_name": "Mehndi Hai Rachne Waali",
            "popularity": 4.029
        },
        {
            "id": 120149,
            "original_name": "Undiscovered Vistas",
            "popularity": 0.62
        },
        {
            "id": 120214,
            "original_name": "Bondi Vet: Coast to Coast",
            "popularity": 0.61
        },
        {
            "id": 121036,
            "original_name": "Into the Wild: India",
            "popularity": 0.6
        },
        {
            "id": 121041,
            "original_name": "Kendisfamilier",
            "popularity": 0.6
        },
        {
            "id": 121384,
            "original_name": "\u00cdndigo",
            "popularity": 0.6
        },
        {
            "id": 121511,
            "original_name": "Beni Kendimden Koru",
            "popularity": 0.6
        },
        {
            "id": 122096,
            "original_name": "Understanding Art: Impressionism",
            "popularity": 0.6
        },
        {
            "id": 122114,
            "original_name": "Parveen's Indian Kitchen",
            "popularity": 0.6
        },
        {
            "id": 122336,
            "original_name": "Les Indiens",
            "popularity": 0.6
        },
        {
            "id": 122957,
            "original_name": "Extraordinary Escapes with Sandi Toksvig",
            "popularity": 0.84
        },
        {
            "id": 123280,
            "original_name": "Indian Television Academy Awards",
            "popularity": 0.6
        },
        {
            "id": 123370,
            "original_name": "Kendimize Do\u011fru",
            "popularity": 0.6
        },
        {
            "id": 123836,
            "original_name": "Reluctant Bandit",
            "popularity": 0.6
        },
        {
            "id": 124249,
            "original_name": "ATN's Tribute to 100 Years of Indian Cinema",
            "popularity": 0.6
        },
        {
            "id": 124314,
            "original_name": "La maison o\u00f9 j\u2019ai grandi",
            "popularity": 15.141
        },
        {
            "id": 124745,
            "original_name": "Nev's Indian Call Centre",
            "popularity": 0.6
        },
        {
            "id": 124876,
            "original_name": "2. Verdenskrig i Skandinavien",
            "popularity": 0.6
        },
        {
            "id": 125032,
            "original_name": "National Geographic : Secrets of Wild India",
            "popularity": 0.6
        },
        {
            "id": 125103,
            "original_name": "Elizabeth Smart: Finding Justice",
            "popularity": 0.6
        },
        {
            "id": 125360,
            "original_name": "Hela K\u00e4ndis-Sverige Bakar",
            "popularity": 0.923
        },
        {
            "id": 125507,
            "original_name": "Modus Operandi",
            "popularity": 0.6
        },
        {
            "id": 125594,
            "original_name": "Understanding Art: Hidden Lives of Works of Art",
            "popularity": 0.6
        },
        {
            "id": 125692,
            "original_name": "The Trending Spot",
            "popularity": 0.84
        },
        {
            "id": 125945,
            "original_name": "The Vindicators",
            "popularity": 0.6
        },
        {
            "id": 126557,
            "original_name": "Il Candidato",
            "popularity": 0.6
        },
        {
            "id": 126879,
            "original_name": "1945-1953, de la Guerre Mondiale \u00e0 la Guerre Froide",
            "popularity": 0.6
        },
        {
            "id": 127185,
            "original_name": "Finding You",
            "popularity": 0.6
        },
        {
            "id": 127624,
            "original_name": "Finding the Archibald",
            "popularity": 5.17
        },
        {
            "id": 127891,
            "original_name": "La 2e\u0300me Guerre Mondiale en Chiffres",
            "popularity": 0.6
        },
        {
            "id": 128203,
            "original_name": "Indisputable with Dr. Rashad Richey",
            "popularity": 1.45
        },
        {
            "id": 128207,
            "original_name": "The Light of Dawn: The Normandy Landings",
            "popularity": 0.6
        },
        {
            "id": 128242,
            "original_name": "La 2e\u0300me Guerre Mondiale - Les Derniers Secrets",
            "popularity": 0.6
        },
        {
            "id": 128574,
            "original_name": "Apocalypse, la Seconde Guerre mondiale",
            "popularity": 0.6
        },
        {
            "id": 129048,
            "original_name": "Forts of India",
            "popularity": 0.6
        },
        {
            "id": 129373,
            "original_name": "Dr. C\u00e1ndido P\u00e9rez",
            "popularity": 1.764
        },
        {
            "id": 129560,
            "original_name": "Trevor McDonald\u2019s Indian Train Adventure",
            "popularity": 0.6
        },
        {
            "id": 129825,
            "original_name": "The Birth of Empire: The East India Company",
            "popularity": 0.6
        },
        {
            "id": 129990,
            "original_name": "India on Four Wheels",
            "popularity": 0.6
        },
        {
            "id": 130034,
            "original_name": "Fluttering India",
            "popularity": 0.6
        },
        {
            "id": 130490,
            "original_name": "Pandian Stores",
            "popularity": 0.6
        },
        {
            "id": 130922,
            "original_name": "Firepower: Defending India",
            "popularity": 0.6
        },
        {
            "id": 130979,
            "original_name": "Andi & Alex am Sonntag",
            "popularity": 0.6
        },
        {
            "id": 131029,
            "original_name": "America's Founding Fathers",
            "popularity": 0.6
        },
        {
            "id": 131134,
            "original_name": "P.O.W. Bandi Yuddh Ke",
            "popularity": 0.636
        },
        {
            "id": 131211,
            "original_name": "Syndics",
            "popularity": 12.154
        },
        {
            "id": 131266,
            "original_name": "Pandian Stores",
            "popularity": 0.6
        },
        {
            "id": 131543,
            "original_name": "Tuk Tuk Indija",
            "popularity": 0.6
        },
        {
            "id": 131889,
            "original_name": "1945-1953 : de la Guerre Mondiale \u00e0 la Guerre Froide",
            "popularity": 0.6
        },
        {
            "id": 132325,
            "original_name": "Ca\u00efds Story, un si\u00e8cle de grand banditisme",
            "popularity": 0.6
        },
        {
            "id": 132340,
            "original_name": "Moon Landings: Greatest Hoax?",
            "popularity": 1.136
        },
        {
            "id": 132583,
            "original_name": "Crime Stories: India Detectives",
            "popularity": 1.4
        },
        {
            "id": 132832,
            "original_name": "MasterChef India \u2013 Tamil",
            "popularity": 0.6
        },
        {
            "id": 132999,
            "original_name": "Finding Bigfoot: The Search Continues",
            "popularity": 0.6
        },
        {
            "id": 133323,
            "original_name": "A nagyesz\u0171 s\u00fcndiszn\u00f3cska",
            "popularity": 0.6
        },
        {
            "id": 133440,
            "original_name": "Spirit of India: The Festivals",
            "popularity": 0.6
        },
        {
            "id": 134111,
            "original_name": "El candidato / La candidata",
            "popularity": 1.345
        },
        {
            "id": 134915,
            "original_name": "HMS Splendid",
            "popularity": 0.6
        },
        {
            "id": 135243,
            "original_name": "II Guerra Mundial: Batallas de Europa",
            "popularity": 0.634
        },
        {
            "id": 135375,
            "original_name": "Finding Andrea",
            "popularity": 0.684
        },
        {
            "id": 135814,
            "original_name": "Olhar Indiscreto",
            "popularity": 3.819
        },
        {
            "id": 136610,
            "original_name": "The Lord of the Rings - The Appendices",
            "popularity": 1.777
        },
        {
            "id": 136694,
            "original_name": "La storia del carro armato nelle guerre mondiali",
            "popularity": 0.6
        },
        {
            "id": 137034,
            "original_name": "The Hobbit: An Unexpected Journey - The Appendices",
            "popularity": 0.919
        },
        {
            "id": 137038,
            "original_name": "Last Singer Standing",
            "popularity": 7.319
        },
        {
            "id": 137072,
            "original_name": "L'\u00c9t\u00e9 indien",
            "popularity": 0.6
        },
        {
            "id": 137181,
            "original_name": "Ghost Blows Out the Light: Finding Hu Ba Yi",
            "popularity": 0.6
        },
        {
            "id": 137579,
            "original_name": "Candidato, lleg\u00f3 tu hora",
            "popularity": 20.478
        },
        {
            "id": 137798,
            "original_name": "O Mal Entendido",
            "popularity": 0.6
        },
        {
            "id": 137799,
            "original_name": "O Mal Entendido",
            "popularity": 0.6
        },
        {
            "id": 137817,
            "original_name": "The Hobbit: The Desolation of Smaug - The Appendices",
            "popularity": 0.6
        },
        {
            "id": 137822,
            "original_name": "The Hobbit: The Battle of the Five Armies - The Appendices",
            "popularity": 0.6
        },
        {
            "id": 138123,
            "original_name": "China Trending Now",
            "popularity": 13.122
        },
        {
            "id": 138637,
            "original_name": "De club van Sinterklaas: het Pietendiploma",
            "popularity": 0.6
        },
        {
            "id": 138993,
            "original_name": "Hard Knocks In Season: The Indianapolis Colts",
            "popularity": 5.282
        },
        {
            "id": 139087,
            "original_name": "Finding Magic Mike",
            "popularity": 4.04
        },
        {
            "id": 139564,
            "original_name": "Candified: Home For The Holidays",
            "popularity": 4.829
        },
        {
            "id": 139675,
            "original_name": "It Happens Only in India",
            "popularity": 2.711
        },
        {
            "id": 152287,
            "original_name": "Scandimania",
            "popularity": 0.6
        },
        {
            "id": 152470,
            "original_name": "Bondi Slayer",
            "popularity": 0.6
        }
    ],
    "relations": [
        {
            "character": "ndin"
        },
        {
            "character": "ndia"
        },
        {
            "character": "ndie"
        },
        {
            "character": "ndis"
        },
        {
            "character": "ndil"
        },
        {
            "character": "ndid"
        },
        {
            "character": "ndik"
        },
        {
            "character": "ndig"
        },
        {
            "character": "ndit"
        },
        {
            "character": "ndiv"
        },
        {
            "character": "ndic"
        },
        {
            "character": "ndiq"
        },
        {
            "character": "ndi!"
        },
        {
            "character": "ndir"
        },
        {
            "character": "ndiz"
        },
        {
            "character": "ndib"
        },
        {
            "character": "ndiy"
        },
        {
            "character": "ndim"
        },
        {
            "character": "ndij"
        },
        {
            "character": "ndip"
        },
        {
            "character": "ndif"
        }
    ],
    "top20": [
        {
            "id": 113901,
            "original_name": "Maradona: Sue\u00f1o bendito",
            "popularity": 974.753
        },
        {
            "id": 115689,
            "original_name": "La bandida",
            "popularity": 57.597
        },
        {
            "id": 96775,
            "original_name": "Do\u011fdu\u011fun Ev Kaderindir",
            "popularity": 56.025
        },
        {
            "id": 87784,
            "original_name": "Defending Jacob",
            "popularity": 33.251
        },
        {
            "id": 39297,
            "original_name": "Last Man Standing",
            "popularity": 31.145
        },
        {
            "id": 55866,
            "original_name": "Candice Renoir",
            "popularity": 25.686
        },
        {
            "id": 661,
            "original_name": "The Young Indiana Jones Chronicles",
            "popularity": 24.016
        },
        {
            "id": 88512,
            "original_name": "Bonding",
            "popularity": 21.44
        },
        {
            "id": 137579,
            "original_name": "Candidato, lleg\u00f3 tu hora",
            "popularity": 20.478
        },
        {
            "id": 70540,
            "original_name": "Andi Mack",
            "popularity": 20.312
        },
        {
            "id": 32829,
            "original_name": "Happy Endings",
            "popularity": 20.287
        },
        {
            "id": 74728,
            "original_name": "Carmen Sandiego",
            "popularity": 19.169
        },
        {
            "id": 61135,
            "original_name": "Finding Carter",
            "popularity": 18.378
        },
        {
            "id": 124314,
            "original_name": "La maison o\u00f9 j\u2019ai grandi",
            "popularity": 15.141
        },
        {
            "id": 74848,
            "original_name": "Finding Escobar's Millions",
            "popularity": 14.97
        },
        {
            "id": 33922,
            "original_name": "Portlandia",
            "popularity": 13.973
        },
        {
            "id": 138123,
            "original_name": "China Trending Now",
            "popularity": 13.122
        },
        {
            "id": 2595,
            "original_name": "Knots Landing",
            "popularity": 12.318
        },
        {
            "id": 112364,
            "original_name": "Una pezza di Lundini",
            "popularity": 12.251
        },
        {
            "id": 131211,
            "original_name": "Syndics",
            "popularity": 12.154
        }
    ]
}