{
    "data": [
        {
            "id": 139564,
            "original_name": "Candified: Home For The Holidays",
            "popularity": 4.829
        }
    ],
    "relations": [],
    "top20": [
        {
            "id": 139564,
            "original_name": "Candified: Home For The Holidays",
            "popularity": 4.829
        }
    ]
}