{
    "data": [
        {
            "id": 23505,
            "original_name": "Il Figlio di Sandokan",
            "popularity": 0.6
        },
        {
            "id": 25483,
            "original_name": "Dromendokter, De",
            "popularity": 0.6
        },
        {
            "id": 40808,
            "original_name": "Il Ritorno di Sandokan",
            "popularity": 1.284
        },
        {
            "id": 43966,
            "original_name": "Sandokan",
            "popularity": 3.441
        },
        {
            "id": 80040,
            "original_name": "Desaf\u00edo Champions Sendokai",
            "popularity": 10.954
        },
        {
            "id": 81085,
            "original_name": "Sandokan",
            "popularity": 1.608
        },
        {
            "id": 91191,
            "original_name": "Sandokan, la tigre della Malesia",
            "popularity": 0.959
        },
        {
            "id": 96435,
            "original_name": "Sandokan - La tigre ruggisce ancora",
            "popularity": 1.091
        },
        {
            "id": 96437,
            "original_name": "Sandokan - Le due tigri",
            "popularity": 0.6
        }
    ],
    "relations": [],
    "top20": [
        {
            "id": 23505,
            "original_name": "Il Figlio di Sandokan",
            "popularity": 0.6
        },
        {
            "id": 25483,
            "original_name": "Dromendokter, De",
            "popularity": 0.6
        },
        {
            "id": 40808,
            "original_name": "Il Ritorno di Sandokan",
            "popularity": 1.284
        },
        {
            "id": 43966,
            "original_name": "Sandokan",
            "popularity": 3.441
        },
        {
            "id": 80040,
            "original_name": "Desaf\u00edo Champions Sendokai",
            "popularity": 10.954
        },
        {
            "id": 81085,
            "original_name": "Sandokan",
            "popularity": 1.608
        },
        {
            "id": 91191,
            "original_name": "Sandokan, la tigre della Malesia",
            "popularity": 0.959
        },
        {
            "id": 96435,
            "original_name": "Sandokan - La tigre ruggisce ancora",
            "popularity": 1.091
        },
        {
            "id": 96437,
            "original_name": "Sandokan - Le due tigri",
            "popularity": 0.6
        }
    ]
}