{
    "data": [
        {
            "id": 103024,
            "original_name": "Sandugo",
            "popularity": 0.6
        }
    ],
    "relations": [],
    "top20": [
        {
            "id": 103024,
            "original_name": "Sandugo",
            "popularity": 0.6
        }
    ]
}