{
    "data": [
        {
            "id": 1598,
            "original_name": "Podnebesnaya",
            "popularity": 0.6
        },
        {
            "id": 11269,
            "original_name": "Ber nebo neber",
            "popularity": 0.6
        },
        {
            "id": 40549,
            "original_name": "Till, der Junge von nebenan",
            "popularity": 0.633
        },
        {
            "id": 40563,
            "original_name": "Die Wicherts von nebenan",
            "popularity": 3.433
        },
        {
            "id": 40903,
            "original_name": "Emil i L\u00f6nneberga",
            "popularity": 3.374
        },
        {
            "id": 40913,
            "original_name": "Der Fall von nebenan",
            "popularity": 0.96
        },
        {
            "id": 64154,
            "original_name": "Genial daneben",
            "popularity": 10.534
        },
        {
            "id": 66667,
            "original_name": "Voll daneben - Gags mit Diether Krebs",
            "popularity": 0.804
        },
        {
            "id": 90549,
            "original_name": "Willkommen bei Carmen Nebel",
            "popularity": 5.1
        },
        {
            "id": 91005,
            "original_name": "Genial daneben - Das Quiz",
            "popularity": 4.412
        },
        {
            "id": 108666,
            "original_name": "Mongolsko \u2013 zem\u011b modr\u00e9ho nebe",
            "popularity": 0.662
        },
        {
            "id": 118576,
            "original_name": "Die Sch\u00f6neberger Show",
            "popularity": 2.045
        },
        {
            "id": 118613,
            "original_name": "Neben der Spur",
            "popularity": 1.002
        },
        {
            "id": 120885,
            "original_name": "Nebezpe\u010d\u00ed smyku",
            "popularity": 0.6
        },
        {
            "id": 130263,
            "original_name": "Verbrechen von nebenan",
            "popularity": 0.6
        }
    ],
    "relations": [],
    "top20": [
        {
            "id": 1598,
            "original_name": "Podnebesnaya",
            "popularity": 0.6
        },
        {
            "id": 11269,
            "original_name": "Ber nebo neber",
            "popularity": 0.6
        },
        {
            "id": 40549,
            "original_name": "Till, der Junge von nebenan",
            "popularity": 0.633
        },
        {
            "id": 40563,
            "original_name": "Die Wicherts von nebenan",
            "popularity": 3.433
        },
        {
            "id": 40903,
            "original_name": "Emil i L\u00f6nneberga",
            "popularity": 3.374
        },
        {
            "id": 40913,
            "original_name": "Der Fall von nebenan",
            "popularity": 0.96
        },
        {
            "id": 64154,
            "original_name": "Genial daneben",
            "popularity": 10.534
        },
        {
            "id": 66667,
            "original_name": "Voll daneben - Gags mit Diether Krebs",
            "popularity": 0.804
        },
        {
            "id": 90549,
            "original_name": "Willkommen bei Carmen Nebel",
            "popularity": 5.1
        },
        {
            "id": 91005,
            "original_name": "Genial daneben - Das Quiz",
            "popularity": 4.412
        },
        {
            "id": 108666,
            "original_name": "Mongolsko \u2013 zem\u011b modr\u00e9ho nebe",
            "popularity": 0.662
        },
        {
            "id": 118576,
            "original_name": "Die Sch\u00f6neberger Show",
            "popularity": 2.045
        },
        {
            "id": 118613,
            "original_name": "Neben der Spur",
            "popularity": 1.002
        },
        {
            "id": 120885,
            "original_name": "Nebezpe\u010d\u00ed smyku",
            "popularity": 0.6
        },
        {
            "id": 130263,
            "original_name": "Verbrechen von nebenan",
            "popularity": 0.6
        }
    ]
}