{
    "data": [
        {
            "id": 29795,
            "original_name": "Wat vindt Nederland?",
            "popularity": 0.6
        }
    ],
    "relations": [],
    "top20": [
        {
            "id": 29795,
            "original_name": "Wat vindt Nederland?",
            "popularity": 0.6
        }
    ]
}