{
    "data": [
        {
            "id": 91434,
            "original_name": "El Contenedor",
            "popularity": 0.6
        },
        {
            "id": 112944,
            "original_name": "Dronedout",
            "popularity": 0.6
        }
    ],
    "relations": [],
    "top20": [
        {
            "id": 91434,
            "original_name": "El Contenedor",
            "popularity": 0.6
        },
        {
            "id": 112944,
            "original_name": "Dronedout",
            "popularity": 0.6
        }
    ]
}