{
    "data": [
        {
            "id": 7825,
            "original_name": "Banegi Apni Baat",
            "popularity": 1.696
        },
        {
            "id": 17793,
            "original_name": "Carlin at Carnegie",
            "popularity": 0.6
        },
        {
            "id": 33949,
            "original_name": "Julie and Carol at Carnegie Hall",
            "popularity": 0.6
        },
        {
            "id": 45484,
            "original_name": "From the Top at Carnegie Hall",
            "popularity": 1.181
        },
        {
            "id": 47874,
            "original_name": "Carnegie Hall: The Grand Reopening",
            "popularity": 0.6
        },
        {
            "id": 51740,
            "original_name": "Carnegie Hall Opening Night 1994",
            "popularity": 0.6
        },
        {
            "id": 55976,
            "original_name": "Vladimir Horowitz: A Television Concert at Carnegie Hall",
            "popularity": 0.805
        }
    ],
    "relations": [],
    "top20": [
        {
            "id": 7825,
            "original_name": "Banegi Apni Baat",
            "popularity": 1.696
        },
        {
            "id": 17793,
            "original_name": "Carlin at Carnegie",
            "popularity": 0.6
        },
        {
            "id": 33949,
            "original_name": "Julie and Carol at Carnegie Hall",
            "popularity": 0.6
        },
        {
            "id": 45484,
            "original_name": "From the Top at Carnegie Hall",
            "popularity": 1.181
        },
        {
            "id": 47874,
            "original_name": "Carnegie Hall: The Grand Reopening",
            "popularity": 0.6
        },
        {
            "id": 51740,
            "original_name": "Carnegie Hall Opening Night 1994",
            "popularity": 0.6
        },
        {
            "id": 55976,
            "original_name": "Vladimir Horowitz: A Television Concert at Carnegie Hall",
            "popularity": 0.805
        }
    ]
}