{
    "data": [
        {
            "id": 3701,
            "original_name": "Fonejacker",
            "popularity": 2.265
        },
        {
            "id": 14750,
            "original_name": "Na Wsp\u00f3lnej",
            "popularity": 15.733
        },
        {
            "id": 36034,
            "original_name": "Nejv\u011bt\u0161\u00ed z Pierot\u016f",
            "popularity": 0.958
        },
        {
            "id": 83615,
            "original_name": "Kafeneja jon\u00eb",
            "popularity": 1.724
        },
        {
            "id": 87975,
            "original_name": "Alpami nejen za sn\u011bhem",
            "popularity": 0.6
        },
        {
            "id": 88613,
            "original_name": "Nejmen\u0161\u00ed slon na sv\u011bt\u011b",
            "popularity": 0.6
        },
        {
            "id": 89616,
            "original_name": "Nejv\u011bt\u0161\u00ed \u010cech",
            "popularity": 0.6
        },
        {
            "id": 92190,
            "original_name": "Gazda z Diabelnej",
            "popularity": 1.4
        },
        {
            "id": 93964,
            "original_name": "Piotrek zgubi\u0142 dziadka oko, a Jasiek chce do\u017cy\u0107 spokojnej staro\u015bci",
            "popularity": 0.6
        },
        {
            "id": 97745,
            "original_name": "El amor lo manejo yo",
            "popularity": 0.6
        },
        {
            "id": 106858,
            "original_name": "Conejo Ricochet y Coyote Droop-a-Long",
            "popularity": 0.887
        },
        {
            "id": 107503,
            "original_name": "Feti\u0161e Ne\u017enej revol\u00facie",
            "popularity": 0.6
        },
        {
            "id": 118643,
            "original_name": "Dom niespokojnej staro\u015bci",
            "popularity": 0.6
        },
        {
            "id": 123998,
            "original_name": "\u010ceskem nejen za sportem",
            "popularity": 0.6
        }
    ],
    "relations": [],
    "top20": [
        {
            "id": 3701,
            "original_name": "Fonejacker",
            "popularity": 2.265
        },
        {
            "id": 14750,
            "original_name": "Na Wsp\u00f3lnej",
            "popularity": 15.733
        },
        {
            "id": 36034,
            "original_name": "Nejv\u011bt\u0161\u00ed z Pierot\u016f",
            "popularity": 0.958
        },
        {
            "id": 83615,
            "original_name": "Kafeneja jon\u00eb",
            "popularity": 1.724
        },
        {
            "id": 87975,
            "original_name": "Alpami nejen za sn\u011bhem",
            "popularity": 0.6
        },
        {
            "id": 88613,
            "original_name": "Nejmen\u0161\u00ed slon na sv\u011bt\u011b",
            "popularity": 0.6
        },
        {
            "id": 89616,
            "original_name": "Nejv\u011bt\u0161\u00ed \u010cech",
            "popularity": 0.6
        },
        {
            "id": 92190,
            "original_name": "Gazda z Diabelnej",
            "popularity": 1.4
        },
        {
            "id": 93964,
            "original_name": "Piotrek zgubi\u0142 dziadka oko, a Jasiek chce do\u017cy\u0107 spokojnej staro\u015bci",
            "popularity": 0.6
        },
        {
            "id": 97745,
            "original_name": "El amor lo manejo yo",
            "popularity": 0.6
        },
        {
            "id": 106858,
            "original_name": "Conejo Ricochet y Coyote Droop-a-Long",
            "popularity": 0.887
        },
        {
            "id": 107503,
            "original_name": "Feti\u0161e Ne\u017enej revol\u00facie",
            "popularity": 0.6
        },
        {
            "id": 118643,
            "original_name": "Dom niespokojnej staro\u015bci",
            "popularity": 0.6
        },
        {
            "id": 123998,
            "original_name": "\u010ceskem nejen za sportem",
            "popularity": 0.6
        }
    ]
}