{
    "data": [
        {
            "id": 28182,
            "original_name": "Suomen Unelmien poikamies",
            "popularity": 0.6
        },
        {
            "id": 123518,
            "original_name": "The Fake News with Ted Nelms",
            "popularity": 0.6
        }
    ],
    "relations": [],
    "top20": [
        {
            "id": 28182,
            "original_name": "Suomen Unelmien poikamies",
            "popularity": 0.6
        },
        {
            "id": 123518,
            "original_name": "The Fake News with Ted Nelms",
            "popularity": 0.6
        }
    ]
}