{
    "data": [
        {
            "id": 27559,
            "original_name": "Vanessa's Real Lives",
            "popularity": 0.6
        },
        {
            "id": 29257,
            "original_name": "The Vanessa Show",
            "popularity": 0.854
        },
        {
            "id": 38686,
            "original_name": "The Vanessa Show",
            "popularity": 0.6
        },
        {
            "id": 51237,
            "original_name": "Vanessa and the Magic of Dreams",
            "popularity": 0.6
        },
        {
            "id": 58754,
            "original_name": "Vanessa",
            "popularity": 0.6
        },
        {
            "id": 59421,
            "original_name": "The Vanessa Show",
            "popularity": 0.6
        },
        {
            "id": 75180,
            "original_name": "L'amaro caso della Baronessa di Carini",
            "popularity": 0.675
        },
        {
            "id": 79204,
            "original_name": "Vanessa & Jan",
            "popularity": 0.6
        },
        {
            "id": 87506,
            "original_name": "keed elnessa",
            "popularity": 0.6
        },
        {
            "id": 115702,
            "original_name": "Ella Wishes You a Swinging Christmas with Vanessa Williams",
            "popularity": 1.261
        }
    ],
    "relations": [],
    "top20": [
        {
            "id": 27559,
            "original_name": "Vanessa's Real Lives",
            "popularity": 0.6
        },
        {
            "id": 29257,
            "original_name": "The Vanessa Show",
            "popularity": 0.854
        },
        {
            "id": 38686,
            "original_name": "The Vanessa Show",
            "popularity": 0.6
        },
        {
            "id": 51237,
            "original_name": "Vanessa and the Magic of Dreams",
            "popularity": 0.6
        },
        {
            "id": 58754,
            "original_name": "Vanessa",
            "popularity": 0.6
        },
        {
            "id": 59421,
            "original_name": "The Vanessa Show",
            "popularity": 0.6
        },
        {
            "id": 75180,
            "original_name": "L'amaro caso della Baronessa di Carini",
            "popularity": 0.675
        },
        {
            "id": 79204,
            "original_name": "Vanessa & Jan",
            "popularity": 0.6
        },
        {
            "id": 87506,
            "original_name": "keed elnessa",
            "popularity": 0.6
        },
        {
            "id": 115702,
            "original_name": "Ella Wishes You a Swinging Christmas with Vanessa Williams",
            "popularity": 1.261
        }
    ]
}