{
    "data": [
        {
            "id": 100699,
            "original_name": "Niall Ferguson's NetWorld",
            "popularity": 0.655
        }
    ],
    "relations": [],
    "top20": [
        {
            "id": 100699,
            "original_name": "Niall Ferguson's NetWorld",
            "popularity": 0.655
        }
    ]
}