{
    "data": [
        {
            "id": 361,
            "original_name": "Never Mind the Full Stops",
            "popularity": 0.872
        },
        {
            "id": 1479,
            "original_name": "Tales from the Neverending Story",
            "popularity": 2.948
        },
        {
            "id": 1847,
            "original_name": "Never Mind the Buzzcocks",
            "popularity": 34.016
        },
        {
            "id": 4510,
            "original_name": "Princess Gwenevere and the Jewel Riders",
            "popularity": 2.613
        },
        {
            "id": 4563,
            "original_name": "Never the Twain",
            "popularity": 5.074
        },
        {
            "id": 8516,
            "original_name": "\u30a6\u30eb\u30c8\u30e9\u30ae\u30e3\u30e9\u30af\u30b7\u30fc\u5927\u602a\u7363\u30d0\u30c8\u30eb NEVER ENDING ODYSSEY",
            "popularity": 0.6
        },
        {
            "id": 9266,
            "original_name": "Never Mind the Horrocks",
            "popularity": 0.6
        },
        {
            "id": 10986,
            "original_name": "The NeverEnding Story",
            "popularity": 3.43
        },
        {
            "id": 11128,
            "original_name": "Guinevere Jones",
            "popularity": 2.03
        },
        {
            "id": 11867,
            "original_name": "Never Mind the Quality, Feel the Width",
            "popularity": 0.939
        },
        {
            "id": 13418,
            "original_name": "Neverwhere",
            "popularity": 4.82
        },
        {
            "id": 13522,
            "original_name": "Untold: The Greatest Sports Stories Never Told",
            "popularity": 0.677
        },
        {
            "id": 14067,
            "original_name": "Neveneffecten",
            "popularity": 0.6
        },
        {
            "id": 14198,
            "original_name": "Never Too Young",
            "popularity": 10.095
        },
        {
            "id": 14209,
            "original_name": "Never Better",
            "popularity": 1.305
        },
        {
            "id": 16722,
            "original_name": "It'll Never Work",
            "popularity": 0.6
        },
        {
            "id": 17532,
            "original_name": "I've Never Seen Star Wars",
            "popularity": 0.843
        },
        {
            "id": 19288,
            "original_name": "It's Now or Never",
            "popularity": 0.6
        },
        {
            "id": 22901,
            "original_name": "Never A Cross Word",
            "popularity": 1.4
        },
        {
            "id": 22992,
            "original_name": "Never Say Die",
            "popularity": 0.6
        },
        {
            "id": 23096,
            "original_name": "Never Say Die",
            "popularity": 0.6
        },
        {
            "id": 23626,
            "original_name": "Never Mind the Buzzcocks",
            "popularity": 1.583
        },
        {
            "id": 26879,
            "original_name": "Never Land",
            "popularity": 0.6
        },
        {
            "id": 27991,
            "original_name": "Things a Man Should Never Do Past 30",
            "popularity": 0.6
        },
        {
            "id": 28188,
            "original_name": "Knevel & Van den Brink",
            "popularity": 3.34
        },
        {
            "id": 28641,
            "original_name": "Sometime, Never",
            "popularity": 0.6
        },
        {
            "id": 28645,
            "original_name": "You'd Never Believe It",
            "popularity": 0.6
        },
        {
            "id": 31574,
            "original_name": "Now or Neverland",
            "popularity": 0.6
        },
        {
            "id": 32448,
            "original_name": "Nightmare in the City That Never Sleeps",
            "popularity": 0.6
        },
        {
            "id": 34657,
            "original_name": "Nevermind Nirvana",
            "popularity": 0.6
        },
        {
            "id": 34891,
            "original_name": "Jake and the Never Land Pirates",
            "popularity": 16.874
        },
        {
            "id": 36663,
            "original_name": "The Man Who Never Was",
            "popularity": 2.819
        },
        {
            "id": 42632,
            "original_name": "Your Friends Will Never Believe You",
            "popularity": 0.6
        },
        {
            "id": 43720,
            "original_name": "Neverland",
            "popularity": 9.696
        },
        {
            "id": 46372,
            "original_name": "Never Say Goodbye",
            "popularity": 0.6
        },
        {
            "id": 47619,
            "original_name": "Never Never",
            "popularity": 0.6
        },
        {
            "id": 48047,
            "original_name": "It Never Seemed To Rain",
            "popularity": 0.6
        },
        {
            "id": 49953,
            "original_name": "Alice Nevers, le juge est une femme",
            "popularity": 11.221
        },
        {
            "id": 54473,
            "original_name": "The Town That Never Retired",
            "popularity": 0.6
        },
        {
            "id": 56702,
            "original_name": "The Never-Ending Battle Between Mother-and-Daughter-in-Law",
            "popularity": 0.6
        },
        {
            "id": 59192,
            "original_name": "Planes That Never Flew",
            "popularity": 0.905
        },
        {
            "id": 59484,
            "original_name": "Numbers Never Lie",
            "popularity": 0.6
        },
        {
            "id": 59685,
            "original_name": "Never Ever Do This at Home",
            "popularity": 1.009
        },
        {
            "id": 60246,
            "original_name": "Never Tell Me Never",
            "popularity": 0.6
        },
        {
            "id": 60289,
            "original_name": "Superheroes: A Never-Ending Battle",
            "popularity": 2.54
        },
        {
            "id": 62783,
            "original_name": "Best Friends Whenever",
            "popularity": 12.438
        },
        {
            "id": 66824,
            "original_name": "INXS : Never Tear Us Apart",
            "popularity": 1.681
        },
        {
            "id": 67216,
            "original_name": "Az \u00e9n nevem Jimmy",
            "popularity": 0.6
        },
        {
            "id": 67217,
            "original_name": "Az \u00e9n nevem Jimmy",
            "popularity": 0.6
        },
        {
            "id": 67218,
            "original_name": "Az \u00e9n nevem Jimmy",
            "popularity": 0.6
        },
        {
            "id": 67556,
            "original_name": "Better Late Than Never",
            "popularity": 4.264
        },
        {
            "id": 67836,
            "original_name": "Jim & Chrissy: Vow or Never",
            "popularity": 0.6
        },
        {
            "id": 68021,
            "original_name": "The Nevermore Chronicles",
            "popularity": 0.6
        },
        {
            "id": 74861,
            "original_name": "100 jaar Sonneveld",
            "popularity": 0.6
        },
        {
            "id": 80828,
            "original_name": "The Nevers",
            "popularity": 37.866
        },
        {
            "id": 85979,
            "original_name": "I Never Knew That About Britain",
            "popularity": 0.86
        },
        {
            "id": 86951,
            "original_name": "Leaving Neverland",
            "popularity": 9.597
        },
        {
            "id": 88588,
            "original_name": "Petra As You Have Never Seen",
            "popularity": 0.6
        },
        {
            "id": 89465,
            "original_name": "Never Apart",
            "popularity": 0.6
        },
        {
            "id": 90784,
            "original_name": "Nevera po slovensky",
            "popularity": 1.742
        },
        {
            "id": 97222,
            "original_name": "Almost Never",
            "popularity": 0.922
        },
        {
            "id": 98575,
            "original_name": "Never Kiss Your Best Friend",
            "popularity": 4.075
        },
        {
            "id": 100883,
            "original_name": "Never Have I Ever",
            "popularity": 61.25
        },
        {
            "id": 105736,
            "original_name": "Never Say Goodbye",
            "popularity": 0.6
        },
        {
            "id": 106294,
            "original_name": "The Never-Ending Saga",
            "popularity": 0.6
        },
        {
            "id": 108570,
            "original_name": "Never - Webs\u00e9rie",
            "popularity": 0.6
        },
        {
            "id": 117496,
            "original_name": "Brennpunkt: Millioneventyret",
            "popularity": 0.678
        },
        {
            "id": 120040,
            "original_name": "Nevenka",
            "popularity": 0.936
        },
        {
            "id": 128671,
            "original_name": "Le neveu d'Am\u00e9rique",
            "popularity": 0.6
        },
        {
            "id": 133428,
            "original_name": "Stories From The Heart: Never Say Goodbye",
            "popularity": 0.6
        },
        {
            "id": 133647,
            "original_name": "Pavitra Rishta - It's Never too Late",
            "popularity": 1.176
        },
        {
            "id": 133855,
            "original_name": "Never Mind the Buzzcocks",
            "popularity": 1.669
        },
        {
            "id": 135287,
            "original_name": "A Hero Never Dies",
            "popularity": 0.6
        },
        {
            "id": 135862,
            "original_name": "Mummies Never Die",
            "popularity": 0.6
        },
        {
            "id": 135863,
            "original_name": "Mummies Never Die",
            "popularity": 0.6
        },
        {
            "id": 152515,
            "original_name": "55:15 Never Too Late",
            "popularity": 1.96
        }
    ],
    "relations": [
        {
            "character": "never"
        },
        {
            "character": "neven"
        },
        {
            "character": "nevel"
        },
        {
            "character": "nevem"
        },
        {
            "character": "neveu"
        }
    ],
    "top20": [
        {
            "id": 100883,
            "original_name": "Never Have I Ever",
            "popularity": 61.25
        },
        {
            "id": 80828,
            "original_name": "The Nevers",
            "popularity": 37.866
        },
        {
            "id": 1847,
            "original_name": "Never Mind the Buzzcocks",
            "popularity": 34.016
        },
        {
            "id": 34891,
            "original_name": "Jake and the Never Land Pirates",
            "popularity": 16.874
        },
        {
            "id": 62783,
            "original_name": "Best Friends Whenever",
            "popularity": 12.438
        },
        {
            "id": 49953,
            "original_name": "Alice Nevers, le juge est une femme",
            "popularity": 11.221
        },
        {
            "id": 14198,
            "original_name": "Never Too Young",
            "popularity": 10.095
        },
        {
            "id": 43720,
            "original_name": "Neverland",
            "popularity": 9.696
        },
        {
            "id": 86951,
            "original_name": "Leaving Neverland",
            "popularity": 9.597
        },
        {
            "id": 4563,
            "original_name": "Never the Twain",
            "popularity": 5.074
        },
        {
            "id": 13418,
            "original_name": "Neverwhere",
            "popularity": 4.82
        },
        {
            "id": 67556,
            "original_name": "Better Late Than Never",
            "popularity": 4.264
        },
        {
            "id": 98575,
            "original_name": "Never Kiss Your Best Friend",
            "popularity": 4.075
        },
        {
            "id": 10986,
            "original_name": "The NeverEnding Story",
            "popularity": 3.43
        },
        {
            "id": 28188,
            "original_name": "Knevel & Van den Brink",
            "popularity": 3.34
        },
        {
            "id": 1479,
            "original_name": "Tales from the Neverending Story",
            "popularity": 2.948
        },
        {
            "id": 36663,
            "original_name": "The Man Who Never Was",
            "popularity": 2.819
        },
        {
            "id": 4510,
            "original_name": "Princess Gwenevere and the Jewel Riders",
            "popularity": 2.613
        },
        {
            "id": 60289,
            "original_name": "Superheroes: A Never-Ending Battle",
            "popularity": 2.54
        },
        {
            "id": 11128,
            "original_name": "Guinevere Jones",
            "popularity": 2.03
        }
    ]
}