{
    "data": [
        {
            "id": 24048,
            "original_name": "Newfoundland Holiday",
            "popularity": 0.6
        },
        {
            "id": 33687,
            "original_name": "Newfoundland Holiday",
            "popularity": 0.6
        },
        {
            "id": 59113,
            "original_name": "CBC News: Newfoundland Crash",
            "popularity": 0.6
        }
    ],
    "relations": [],
    "top20": [
        {
            "id": 24048,
            "original_name": "Newfoundland Holiday",
            "popularity": 0.6
        },
        {
            "id": 33687,
            "original_name": "Newfoundland Holiday",
            "popularity": 0.6
        },
        {
            "id": 59113,
            "original_name": "CBC News: Newfoundland Crash",
            "popularity": 0.6
        }
    ]
}