{
    "data": [
        {
            "id": 19428,
            "original_name": "FTL Newsfeed",
            "popularity": 0.6
        },
        {
            "id": 33710,
            "original_name": "Newsfile",
            "popularity": 0.6
        },
        {
            "id": 44748,
            "original_name": "NewsForce",
            "popularity": 0.6
        },
        {
            "id": 69069,
            "original_name": "WHIH Newsfront",
            "popularity": 3.158
        }
    ],
    "relations": [],
    "top20": [
        {
            "id": 19428,
            "original_name": "FTL Newsfeed",
            "popularity": 0.6
        },
        {
            "id": 33710,
            "original_name": "Newsfile",
            "popularity": 0.6
        },
        {
            "id": 44748,
            "original_name": "NewsForce",
            "popularity": 0.6
        },
        {
            "id": 69069,
            "original_name": "WHIH Newsfront",
            "popularity": 3.158
        }
    ]
}