{
    "data": [
        {
            "id": 100983,
            "original_name": "Hvorfor er Ludwig ikke konge?",
            "popularity": 0.6
        }
    ],
    "relations": [],
    "top20": [
        {
            "id": 100983,
            "original_name": "Hvorfor er Ludwig ikke konge?",
            "popularity": 0.6
        }
    ]
}