{
    "data": [
        {
            "id": 8436,
            "original_name": "Mormor og de \u00e5tte ungene",
            "popularity": 0.6
        },
        {
            "id": 20809,
            "original_name": "Drengene fra Angora",
            "popularity": 0.891
        },
        {
            "id": 38590,
            "original_name": "Gullungene",
            "popularity": 0.6
        },
        {
            "id": 38781,
            "original_name": "Fangene P\u00e5 Fortet",
            "popularity": 1.244
        },
        {
            "id": 114607,
            "original_name": "Gjengene i Oslo",
            "popularity": 0.6
        },
        {
            "id": 114788,
            "original_name": "Jegertvillingene",
            "popularity": 1.183
        },
        {
            "id": 118136,
            "original_name": "Tag pengene og l\u00f8b",
            "popularity": 0.603
        },
        {
            "id": 120750,
            "original_name": "Gulddrengene",
            "popularity": 0.6
        },
        {
            "id": 127228,
            "original_name": "Drengene p\u00e5 kanten",
            "popularity": 0.6
        },
        {
            "id": 136284,
            "original_name": "Casper og drengene fra Brasilien",
            "popularity": 0.6
        },
        {
            "id": 137714,
            "original_name": "Eva - Bak Sperringene",
            "popularity": 2.12
        },
        {
            "id": 138535,
            "original_name": "Fangene p\u00e5 Fortet 2021",
            "popularity": 4.991
        },
        {
            "id": 139554,
            "original_name": "Das Gefangenenexperiment",
            "popularity": 5.165
        }
    ],
    "relations": [],
    "top20": [
        {
            "id": 8436,
            "original_name": "Mormor og de \u00e5tte ungene",
            "popularity": 0.6
        },
        {
            "id": 20809,
            "original_name": "Drengene fra Angora",
            "popularity": 0.891
        },
        {
            "id": 38590,
            "original_name": "Gullungene",
            "popularity": 0.6
        },
        {
            "id": 38781,
            "original_name": "Fangene P\u00e5 Fortet",
            "popularity": 1.244
        },
        {
            "id": 114607,
            "original_name": "Gjengene i Oslo",
            "popularity": 0.6
        },
        {
            "id": 114788,
            "original_name": "Jegertvillingene",
            "popularity": 1.183
        },
        {
            "id": 118136,
            "original_name": "Tag pengene og l\u00f8b",
            "popularity": 0.603
        },
        {
            "id": 120750,
            "original_name": "Gulddrengene",
            "popularity": 0.6
        },
        {
            "id": 127228,
            "original_name": "Drengene p\u00e5 kanten",
            "popularity": 0.6
        },
        {
            "id": 136284,
            "original_name": "Casper og drengene fra Brasilien",
            "popularity": 0.6
        },
        {
            "id": 137714,
            "original_name": "Eva - Bak Sperringene",
            "popularity": 2.12
        },
        {
            "id": 138535,
            "original_name": "Fangene p\u00e5 Fortet 2021",
            "popularity": 4.991
        },
        {
            "id": 139554,
            "original_name": "Das Gefangenenexperiment",
            "popularity": 5.165
        }
    ]
}