{
    "data": [
        {
            "id": 68204,
            "original_name": "Hongey Judaa Na Hum",
            "popularity": 0.624
        }
    ],
    "relations": [],
    "top20": [
        {
            "id": 68204,
            "original_name": "Hongey Judaa Na Hum",
            "popularity": 0.624
        }
    ]
}