{
    "data": [
        {
            "id": 50146,
            "original_name": "Cinta Itu Nggak Buta",
            "popularity": 0.6
        }
    ],
    "relations": [],
    "top20": [
        {
            "id": 50146,
            "original_name": "Cinta Itu Nggak Buta",
            "popularity": 0.6
        }
    ]
}