{
    "data": [
        {
            "id": 6240,
            "original_name": "Nginiig",
            "popularity": 0.6
        },
        {
            "id": 14270,
            "original_name": "Ardhangini",
            "popularity": 0.6
        },
        {
            "id": 33499,
            "original_name": "Sanjog Se Bani Sangini",
            "popularity": 0.84
        },
        {
            "id": 82980,
            "original_name": "Ardhangini- \u0985\u09f0\u09cd\u09a7\u09be\u0999\u09cd\u0997\u09bf\u09a8\u09c0",
            "popularity": 0.6
        }
    ],
    "relations": [],
    "top20": [
        {
            "id": 6240,
            "original_name": "Nginiig",
            "popularity": 0.6
        },
        {
            "id": 14270,
            "original_name": "Ardhangini",
            "popularity": 0.6
        },
        {
            "id": 33499,
            "original_name": "Sanjog Se Bani Sangini",
            "popularity": 0.84
        },
        {
            "id": 82980,
            "original_name": "Ardhangini- \u0985\u09f0\u09cd\u09a7\u09be\u0999\u09cd\u0997\u09bf\u09a8\u09c0",
            "popularity": 0.6
        }
    ]
}