{
    "data": [
        {
            "id": 54307,
            "original_name": "SHINee's Yunhanam",
            "popularity": 0.6
        },
        {
            "id": 111969,
            "original_name": "Let's Roll with Tony Greenhand",
            "popularity": 0.6
        }
    ],
    "relations": [],
    "top20": [
        {
            "id": 54307,
            "original_name": "SHINee's Yunhanam",
            "popularity": 0.6
        },
        {
            "id": 111969,
            "original_name": "Let's Roll with Tony Greenhand",
            "popularity": 0.6
        }
    ]
}