{
    "data": [
        {
            "id": 10947,
            "original_name": "The Anna Nicole Show",
            "popularity": 2.58
        },
        {
            "id": 16711,
            "original_name": "With Nicola McLean",
            "popularity": 0.6
        },
        {
            "id": 45682,
            "original_name": "Eagle Scout: The Story of Henry Nicols",
            "popularity": 0.6
        },
        {
            "id": 48816,
            "original_name": "Nicole Kidman: An American Cinematheque Tribute",
            "popularity": 0.6
        },
        {
            "id": 55163,
            "original_name": "Nicolas Le Floch",
            "popularity": 2.642
        },
        {
            "id": 63016,
            "original_name": "Candidly Nicole",
            "popularity": 0.847
        },
        {
            "id": 64319,
            "original_name": "Ein Sommer mit Nicole",
            "popularity": 1.192
        },
        {
            "id": 66010,
            "original_name": "Nicole & Jionni's Shore Flip",
            "popularity": 0.6
        },
        {
            "id": 66222,
            "original_name": "Le Petit Nicolas",
            "popularity": 2.797
        },
        {
            "id": 67696,
            "original_name": "Loosely Exactly Nicole",
            "popularity": 3.136
        },
        {
            "id": 76860,
            "original_name": "Nutritiously Nicola",
            "popularity": 1.103
        },
        {
            "id": 117838,
            "original_name": "Nicolette \u2013 Unzensiert und ungeniert!",
            "popularity": 0.6
        }
    ],
    "relations": [],
    "top20": [
        {
            "id": 10947,
            "original_name": "The Anna Nicole Show",
            "popularity": 2.58
        },
        {
            "id": 16711,
            "original_name": "With Nicola McLean",
            "popularity": 0.6
        },
        {
            "id": 45682,
            "original_name": "Eagle Scout: The Story of Henry Nicols",
            "popularity": 0.6
        },
        {
            "id": 48816,
            "original_name": "Nicole Kidman: An American Cinematheque Tribute",
            "popularity": 0.6
        },
        {
            "id": 55163,
            "original_name": "Nicolas Le Floch",
            "popularity": 2.642
        },
        {
            "id": 63016,
            "original_name": "Candidly Nicole",
            "popularity": 0.847
        },
        {
            "id": 64319,
            "original_name": "Ein Sommer mit Nicole",
            "popularity": 1.192
        },
        {
            "id": 66010,
            "original_name": "Nicole & Jionni's Shore Flip",
            "popularity": 0.6
        },
        {
            "id": 66222,
            "original_name": "Le Petit Nicolas",
            "popularity": 2.797
        },
        {
            "id": 67696,
            "original_name": "Loosely Exactly Nicole",
            "popularity": 3.136
        },
        {
            "id": 76860,
            "original_name": "Nutritiously Nicola",
            "popularity": 1.103
        },
        {
            "id": 117838,
            "original_name": "Nicolette \u2013 Unzensiert und ungeniert!",
            "popularity": 0.6
        }
    ]
}