{
    "data": [
        {
            "id": 7821,
            "original_name": "El Chavo Animado",
            "popularity": 27.549
        },
        {
            "id": 68340,
            "original_name": "El Chapul\u00edn Colorado animado",
            "popularity": 2.894
        },
        {
            "id": 71208,
            "original_name": "El Zorro: Serie Animada",
            "popularity": 5.95
        },
        {
            "id": 78092,
            "original_name": "Kofi: La serie animada",
            "popularity": 0.602
        },
        {
            "id": 80815,
            "original_name": "Desenhos da b\u00edblia serie animada",
            "popularity": 0.6
        },
        {
            "id": 80816,
            "original_name": "Desenhos da b\u00edblia serie animada",
            "popularity": 0.6
        },
        {
            "id": 80817,
            "original_name": "Desenhos da b\u00edblia serie animada",
            "popularity": 0.6
        },
        {
            "id": 93247,
            "original_name": "Animadores",
            "popularity": 0.877
        },
        {
            "id": 100614,
            "original_name": "Mortadelo y Filem\u00f3n. Cortos animados",
            "popularity": 0.62
        },
        {
            "id": 126081,
            "original_name": "Tripula\u00e7\u00e3o de Cor - Colorida Desenhos Animados",
            "popularity": 0.6
        },
        {
            "id": 127202,
            "original_name": "As Can\u00e7\u00f5es Animadas Do Reino Infantil",
            "popularity": 0.6
        }
    ],
    "relations": [],
    "top20": [
        {
            "id": 7821,
            "original_name": "El Chavo Animado",
            "popularity": 27.549
        },
        {
            "id": 68340,
            "original_name": "El Chapul\u00edn Colorado animado",
            "popularity": 2.894
        },
        {
            "id": 71208,
            "original_name": "El Zorro: Serie Animada",
            "popularity": 5.95
        },
        {
            "id": 78092,
            "original_name": "Kofi: La serie animada",
            "popularity": 0.602
        },
        {
            "id": 80815,
            "original_name": "Desenhos da b\u00edblia serie animada",
            "popularity": 0.6
        },
        {
            "id": 80816,
            "original_name": "Desenhos da b\u00edblia serie animada",
            "popularity": 0.6
        },
        {
            "id": 80817,
            "original_name": "Desenhos da b\u00edblia serie animada",
            "popularity": 0.6
        },
        {
            "id": 93247,
            "original_name": "Animadores",
            "popularity": 0.877
        },
        {
            "id": 100614,
            "original_name": "Mortadelo y Filem\u00f3n. Cortos animados",
            "popularity": 0.62
        },
        {
            "id": 126081,
            "original_name": "Tripula\u00e7\u00e3o de Cor - Colorida Desenhos Animados",
            "popularity": 0.6
        },
        {
            "id": 127202,
            "original_name": "As Can\u00e7\u00f5es Animadas Do Reino Infantil",
            "popularity": 0.6
        }
    ]
}