{
    "data": [
        {
            "id": 40504,
            "original_name": "The Bill Cunningham Show",
            "popularity": 0.6
        },
        {
            "id": 46698,
            "original_name": "Randy Cunningham: 9th Grade Ninja",
            "popularity": 6.012
        }
    ],
    "relations": [],
    "top20": [
        {
            "id": 40504,
            "original_name": "The Bill Cunningham Show",
            "popularity": 0.6
        },
        {
            "id": 46698,
            "original_name": "Randy Cunningham: 9th Grade Ninja",
            "popularity": 6.012
        }
    ]
}