{
    "data": [
        {
            "id": 77552,
            "original_name": "Urlaub auf italienisch",
            "popularity": 0.6
        },
        {
            "id": 82374,
            "original_name": "Das kalifornische Quartett",
            "popularity": 0.909
        },
        {
            "id": 98510,
            "original_name": "Onisciente",
            "popularity": 5.698
        },
        {
            "id": 130376,
            "original_name": "Well Done with Sebastian Maniscalco",
            "popularity": 6.806
        }
    ],
    "relations": [],
    "top20": [
        {
            "id": 77552,
            "original_name": "Urlaub auf italienisch",
            "popularity": 0.6
        },
        {
            "id": 82374,
            "original_name": "Das kalifornische Quartett",
            "popularity": 0.909
        },
        {
            "id": 98510,
            "original_name": "Onisciente",
            "popularity": 5.698
        },
        {
            "id": 130376,
            "original_name": "Well Done with Sebastian Maniscalco",
            "popularity": 6.806
        }
    ]
}