{
    "data": [
        {
            "id": 10102,
            "original_name": "Definition",
            "popularity": 0.6
        },
        {
            "id": 27364,
            "original_name": "Higher Definition",
            "popularity": 0.6
        },
        {
            "id": 33178,
            "original_name": "IPW Ignition",
            "popularity": 0.6
        },
        {
            "id": 47659,
            "original_name": "Out of Ammunition...God save the King Arnhem 50 Years On",
            "popularity": 0.6
        },
        {
            "id": 67614,
            "original_name": "Pr\u00e9monitions",
            "popularity": 2.666
        }
    ],
    "relations": [],
    "top20": [
        {
            "id": 10102,
            "original_name": "Definition",
            "popularity": 0.6
        },
        {
            "id": 27364,
            "original_name": "Higher Definition",
            "popularity": 0.6
        },
        {
            "id": 33178,
            "original_name": "IPW Ignition",
            "popularity": 0.6
        },
        {
            "id": 47659,
            "original_name": "Out of Ammunition...God save the King Arnhem 50 Years On",
            "popularity": 0.6
        },
        {
            "id": 67614,
            "original_name": "Pr\u00e9monitions",
            "popularity": 2.666
        }
    ]
}