{
    "data": [
        {
            "id": 883,
            "original_name": "The Day the Universe Changed",
            "popularity": 0.6
        },
        {
            "id": 931,
            "original_name": "He-Man and the Masters of the Universe",
            "popularity": 25.248
        },
        {
            "id": 1013,
            "original_name": "Voltron: Defender of the Universe",
            "popularity": 6.71
        },
        {
            "id": 1460,
            "original_name": "Andy Richter Controls the Universe",
            "popularity": 4.931
        },
        {
            "id": 2162,
            "original_name": "College University",
            "popularity": 0.6
        },
        {
            "id": 2622,
            "original_name": "The Universe",
            "popularity": 16.406
        },
        {
            "id": 3035,
            "original_name": "He-Man and the Masters of the Universe",
            "popularity": 12.491
        },
        {
            "id": 5148,
            "original_name": "Stargate Universe",
            "popularity": 19.652
        },
        {
            "id": 5266,
            "original_name": "University Challenge",
            "popularity": 1.955
        },
        {
            "id": 6865,
            "original_name": "Georgetown University Forum",
            "popularity": 0.6
        },
        {
            "id": 7544,
            "original_name": "Anniversary Game",
            "popularity": 0.6
        },
        {
            "id": 7878,
            "original_name": "TVB Anniversary Awards",
            "popularity": 0.6
        },
        {
            "id": 7989,
            "original_name": "TVB Anniversary Awards",
            "popularity": 0.6
        },
        {
            "id": 8008,
            "original_name": "TVB Anniversary Awards",
            "popularity": 0.84
        },
        {
            "id": 9366,
            "original_name": "Stephen Hawking's Universe",
            "popularity": 0.6
        },
        {
            "id": 9898,
            "original_name": "Center of the Universe",
            "popularity": 5.225
        },
        {
            "id": 10542,
            "original_name": "Marvel Action Universe",
            "popularity": 0.951
        },
        {
            "id": 12410,
            "original_name": "University of the Air",
            "popularity": 0.6
        },
        {
            "id": 12421,
            "original_name": "University Challenge",
            "popularity": 0.631
        },
        {
            "id": 13498,
            "original_name": "Commando Cody: Sky Marshal of the Universe",
            "popularity": 1.916
        },
        {
            "id": 13686,
            "original_name": "The Mechanical Universe",
            "popularity": 0.9
        },
        {
            "id": 16008,
            "original_name": "Elisas univers",
            "popularity": 0.6
        },
        {
            "id": 16638,
            "original_name": "Happy Anniversary, Charlie Brown",
            "popularity": 0.699
        },
        {
            "id": 17383,
            "original_name": "TVB Anniversary Awards",
            "popularity": 0.6
        },
        {
            "id": 18993,
            "original_name": "Walter Cronkite's Universe",
            "popularity": 0.6
        },
        {
            "id": 20224,
            "original_name": "Aniversario",
            "popularity": 0.6
        },
        {
            "id": 20912,
            "original_name": "Scooby Universe",
            "popularity": 0.6
        },
        {
            "id": 21098,
            "original_name": "Arthur C. Clarke's Mysterious Universe",
            "popularity": 1.502
        },
        {
            "id": 21444,
            "original_name": "The Elegant Universe",
            "popularity": 1.258
        },
        {
            "id": 22148,
            "original_name": "Crime Scene University",
            "popularity": 0.6
        },
        {
            "id": 24054,
            "original_name": "University Challenge Reunited",
            "popularity": 0.6
        },
        {
            "id": 24114,
            "original_name": "Blaster's Universe",
            "popularity": 1.211
        },
        {
            "id": 25025,
            "original_name": "The David Niven Show",
            "popularity": 0.883
        },
        {
            "id": 26435,
            "original_name": "Known Universe",
            "popularity": 0.948
        },
        {
            "id": 26740,
            "original_name": "University Hospital",
            "popularity": 1.602
        },
        {
            "id": 27335,
            "original_name": "University Challenge - The Professionals",
            "popularity": 0.6
        },
        {
            "id": 30807,
            "original_name": "Blaster's Universe",
            "popularity": 0.6
        },
        {
            "id": 31070,
            "original_name": "Miss Indonesia Universe",
            "popularity": 0.6
        },
        {
            "id": 31403,
            "original_name": "TVB Anniversary Awards",
            "popularity": 0.6
        },
        {
            "id": 32276,
            "original_name": "Bubble Universe",
            "popularity": 0.6
        },
        {
            "id": 32283,
            "original_name": "NBC Weather Plus University",
            "popularity": 0.6
        },
        {
            "id": 32609,
            "original_name": "Into the Universe with Stephen Hawking",
            "popularity": 7.931
        },
        {
            "id": 33827,
            "original_name": "How the Universe Works",
            "popularity": 11.233
        },
        {
            "id": 37596,
            "original_name": "Universe: The Infinite Frontier",
            "popularity": 0.6
        },
        {
            "id": 37783,
            "original_name": "Wonders of the Universe",
            "popularity": 3.229
        },
        {
            "id": 38277,
            "original_name": "IMDb's 20th Anniversary Star of the Day",
            "popularity": 0.6
        },
        {
            "id": 38463,
            "original_name": "Underwater Universe",
            "popularity": 0.6
        },
        {
            "id": 38673,
            "original_name": "Extreme Universe",
            "popularity": 0.6
        },
        {
            "id": 39993,
            "original_name": "University of Andy",
            "popularity": 0.6
        },
        {
            "id": 41914,
            "original_name": "Strange Universe",
            "popularity": 0.6
        },
        {
            "id": 42402,
            "original_name": "Miss Universe",
            "popularity": 1.367
        },
        {
            "id": 43131,
            "original_name": "Anthony Bourdain's Alternation Universe",
            "popularity": 0.6
        },
        {
            "id": 43791,
            "original_name": "Bad Universe",
            "popularity": 0.6
        },
        {
            "id": 43796,
            "original_name": "Barbecue University",
            "popularity": 0.84
        },
        {
            "id": 45529,
            "original_name": "9/11 Memorial from Ground Zero 5th Anniversary",
            "popularity": 0.6
        },
        {
            "id": 46922,
            "original_name": "Ben 10: Omniverse",
            "popularity": 41.959
        },
        {
            "id": 47041,
            "original_name": "UniverSoul Circus",
            "popularity": 0.6
        },
        {
            "id": 47263,
            "original_name": "The Search for Signs of Intelligent Life in the Universe",
            "popularity": 0.6
        },
        {
            "id": 47459,
            "original_name": "The Songwriter's Hall of Fame 20th Anniversary... The Magic of Music",
            "popularity": 0.6
        },
        {
            "id": 47558,
            "original_name": "Las Vegas: An All-Star 75th Anniversary",
            "popularity": 0.6
        },
        {
            "id": 48116,
            "original_name": "Fred Hoyle's Universe",
            "popularity": 0.6
        },
        {
            "id": 48215,
            "original_name": "Dunkirk Anniversary",
            "popularity": 0.804
        },
        {
            "id": 49689,
            "original_name": "Stephen Hawking: Master of the Universe",
            "popularity": 0.6
        },
        {
            "id": 49692,
            "original_name": "General Electric's All-Star Anniversary",
            "popularity": 0.6
        },
        {
            "id": 50872,
            "original_name": "DWDD University: De Wereld van Kl\u00f6pping",
            "popularity": 0.6
        },
        {
            "id": 52104,
            "original_name": "DWDD University: De oerknal",
            "popularity": 0.6
        },
        {
            "id": 52105,
            "original_name": "DWDD University: Het allerkleinste",
            "popularity": 0.6
        },
        {
            "id": 54397,
            "original_name": "University",
            "popularity": 0.6
        },
        {
            "id": 55542,
            "original_name": "R\u00fcttens Bullshit Universum",
            "popularity": 0.6
        },
        {
            "id": 56490,
            "original_name": "General Motors 50th Anniversary Show",
            "popularity": 0.6
        },
        {
            "id": 56636,
            "original_name": "KFI-TV University",
            "popularity": 0.6
        },
        {
            "id": 57472,
            "original_name": "The Brain: Our Universe Within",
            "popularity": 0.6
        },
        {
            "id": 57477,
            "original_name": "My Favorite Universe",
            "popularity": 0.6
        },
        {
            "id": 60465,
            "original_name": "CBC News: 60th Anniversary of V-E Day",
            "popularity": 0.6
        },
        {
            "id": 61175,
            "original_name": "Steven Universe",
            "popularity": 145.231
        },
        {
            "id": 61592,
            "original_name": "Human Universe",
            "popularity": 2.324
        },
        {
            "id": 62615,
            "original_name": "DWDD University: Het Brein",
            "popularity": 0.6
        },
        {
            "id": 64345,
            "original_name": "Universum History",
            "popularity": 1.345
        },
        {
            "id": 66064,
            "original_name": "The Beginning and End of the Universe",
            "popularity": 0.998
        },
        {
            "id": 66757,
            "original_name": "Universum",
            "popularity": 2.319
        },
        {
            "id": 67841,
            "original_name": "Niveau 4",
            "popularity": 0.647
        },
        {
            "id": 68721,
            "original_name": "Wives with Knives",
            "popularity": 1.005
        },
        {
            "id": 69662,
            "original_name": "Das Universum der Ozeane",
            "popularity": 1.4
        },
        {
            "id": 70726,
            "original_name": "Brian Cox: Life Of A Universe",
            "popularity": 1.062
        },
        {
            "id": 71408,
            "original_name": "Her Universe Fashion Show",
            "popularity": 0.6
        },
        {
            "id": 71775,
            "original_name": "Wallace and Ladmo 50th Anniversary",
            "popularity": 0.6
        },
        {
            "id": 71776,
            "original_name": "Wallace and Ladmo 50th Anniversary",
            "popularity": 0.6
        },
        {
            "id": 71777,
            "original_name": "Wallace and Ladmo 50th Anniversary",
            "popularity": 0.6
        },
        {
            "id": 72466,
            "original_name": "Obras maestras de la pintura universal",
            "popularity": 0.6
        },
        {
            "id": 73817,
            "original_name": "En direct de l'univers",
            "popularity": 8.674
        },
        {
            "id": 74259,
            "original_name": "The Inexplicable Universe: Unsolved Mysteries",
            "popularity": 1.555
        },
        {
            "id": 77729,
            "original_name": "Cutie Honey Universe",
            "popularity": 5.083
        },
        {
            "id": 77815,
            "original_name": "Curious Minds: The Universe",
            "popularity": 0.6
        },
        {
            "id": 77848,
            "original_name": "Invisible Universe",
            "popularity": 0.6
        },
        {
            "id": 79305,
            "original_name": "Financail Peace University",
            "popularity": 0.6
        },
        {
            "id": 82461,
            "original_name": "A Otro Nivel",
            "popularity": 0.809
        },
        {
            "id": 82726,
            "original_name": "DC Universe Presents",
            "popularity": 1.784
        },
        {
            "id": 83775,
            "original_name": "University Challenge",
            "popularity": 0.6
        },
        {
            "id": 84477,
            "original_name": "Honto ni Atta Kowai Hanashi 2009 10th Anniversary",
            "popularity": 0.6
        },
        {
            "id": 85347,
            "original_name": "Marvel's Eat the Universe",
            "popularity": 0.6
        },
        {
            "id": 85944,
            "original_name": "Sci_Xpert \u2013 Leschs Universum",
            "popularity": 1.092
        },
        {
            "id": 87271,
            "original_name": "Avalon Universe",
            "popularity": 0.6
        },
        {
            "id": 87287,
            "original_name": "Avalon Universe: A Star Trek Fan Production",
            "popularity": 1.158
        },
        {
            "id": 87309,
            "original_name": "The Anniversary Surprise",
            "popularity": 1.396
        },
        {
            "id": 87872,
            "original_name": "Secrets of the Universe",
            "popularity": 0.643
        },
        {
            "id": 88767,
            "original_name": "YOUniverse \u0e08\u0e31\u0e01\u0e23\u0e27\u0e32\u0e25\u0e40\u0e18\u0e2d",
            "popularity": 0.6
        },
        {
            "id": 89919,
            "original_name": "Ozone Univerzum - Nemzetk\u00f6zi \u0171rh\u00edrek",
            "popularity": 2.036
        },
        {
            "id": 92397,
            "original_name": "Faszination Universum",
            "popularity": 0.881
        },
        {
            "id": 93652,
            "original_name": "Connivence",
            "popularity": 1.736
        },
        {
            "id": 94280,
            "original_name": "Steven Universe Future",
            "popularity": 81.494
        },
        {
            "id": 96658,
            "original_name": "Masters of the Universe: Revelation",
            "popularity": 73.593
        },
        {
            "id": 96659,
            "original_name": "He-Man and the Masters of the Universe",
            "popularity": 42.566
        },
        {
            "id": 97607,
            "original_name": "Universo matem\u00e1tico",
            "popularity": 0.6
        },
        {
            "id": 97697,
            "original_name": "Vuelta por el Universo",
            "popularity": 0.6
        },
        {
            "id": 98068,
            "original_name": "Cyborgs Universe",
            "popularity": 1.4
        },
        {
            "id": 98443,
            "original_name": "Inside : L\u2019Univers des drogues",
            "popularity": 0.6
        },
        {
            "id": 99517,
            "original_name": "The Expanding Universe of Ashley Garcia",
            "popularity": 10.23
        },
        {
            "id": 102429,
            "original_name": "Med kniven for struben",
            "popularity": 0.637
        },
        {
            "id": 102975,
            "original_name": "Unser Universum - Geburt und Untergang",
            "popularity": 0.6
        },
        {
            "id": 104131,
            "original_name": "Faszination Universum",
            "popularity": 0.6
        },
        {
            "id": 105497,
            "original_name": "Einstein and  Hawking: Masters of Our Universe",
            "popularity": 1.505
        },
        {
            "id": 108354,
            "original_name": "Los L\u00edmites del Universo",
            "popularity": 0.6
        },
        {
            "id": 109312,
            "original_name": "Mysteries of the Universe: Our Solar System",
            "popularity": 1.137
        },
        {
            "id": 111772,
            "original_name": "Agent Binky: Pets of the Universe",
            "popularity": 1.165
        },
        {
            "id": 113016,
            "original_name": "Hubble - Mission Universum",
            "popularity": 0.6
        },
        {
            "id": 113775,
            "original_name": "The Whoniverse",
            "popularity": 0.6
        },
        {
            "id": 113956,
            "original_name": "Growing Up in the Universe",
            "popularity": 0.6
        },
        {
            "id": 115590,
            "original_name": "Universum: \u00d6sterreich \u2013 Die Kraft des Wassers",
            "popularity": 0.6
        },
        {
            "id": 115988,
            "original_name": "Universum: Wildes Griechenland",
            "popularity": 0.6
        },
        {
            "id": 116255,
            "original_name": "Universum: Russlands wildes Meer",
            "popularity": 0.6
        },
        {
            "id": 116672,
            "original_name": "Universe Unravelled With The Stephen Hawking Centre",
            "popularity": 0.6
        },
        {
            "id": 117503,
            "original_name": "Halivan University",
            "popularity": 0.6
        },
        {
            "id": 119205,
            "original_name": "Size Comparison of the Universe",
            "popularity": 0.6
        },
        {
            "id": 119695,
            "original_name": "Universum: Die Kanarischen Inseln",
            "popularity": 0.6
        },
        {
            "id": 120377,
            "original_name": "Bugs Bunny 80th Anniversary Collection",
            "popularity": 1.259
        },
        {
            "id": 122679,
            "original_name": "Roots 30th Anniversary Edition",
            "popularity": 0.6
        },
        {
            "id": 123957,
            "original_name": "Tilo Neumann und das Universum",
            "popularity": 1.101
        },
        {
            "id": 124483,
            "original_name": "Universo Valdano",
            "popularity": 0.84
        },
        {
            "id": 125803,
            "original_name": "Universo Z",
            "popularity": 0.6
        },
        {
            "id": 129662,
            "original_name": "Revelations: The Masters of the Universe: Revelation Aftershow",
            "popularity": 3.303
        },
        {
            "id": 130048,
            "original_name": "Queen of the Universe",
            "popularity": 16.635
        },
        {
            "id": 130910,
            "original_name": "Universe of Gods",
            "popularity": 0.84
        },
        {
            "id": 131113,
            "original_name": "Edge of the Universe",
            "popularity": 0.6
        },
        {
            "id": 131310,
            "original_name": "Kniven Mot Strupen",
            "popularity": 0.6
        },
        {
            "id": 134209,
            "original_name": "Who Wants to Be a Millionaire? 10th Anniversary Prime Time Special",
            "popularity": 0.6
        },
        {
            "id": 134252,
            "original_name": "Sal & Gabi Break the Universe",
            "popularity": 0.6
        },
        {
            "id": 135136,
            "original_name": "Elvira's 40th Anniversary, Very Scary, Very Special Special",
            "popularity": 4.74
        },
        {
            "id": 135405,
            "original_name": "El Universo (serie de televisi\u00f3n) (2007)",
            "popularity": 0.84
        },
        {
            "id": 135849,
            "original_name": "Tokyo University Love Story",
            "popularity": 0.6
        },
        {
            "id": 136919,
            "original_name": "Universe",
            "popularity": 6.485
        },
        {
            "id": 137430,
            "original_name": "Mila no Multiuniverso",
            "popularity": 1.4
        },
        {
            "id": 139156,
            "original_name": "NOVA Universe Revealed",
            "popularity": 1.621
        }
    ],
    "relations": [
        {
            "character": "niver"
        },
        {
            "character": "niven"
        },
        {
            "character": "nivea"
        },
        {
            "character": "nives"
        },
        {
            "character": "nivel"
        }
    ],
    "top20": [
        {
            "id": 61175,
            "original_name": "Steven Universe",
            "popularity": 145.231
        },
        {
            "id": 94280,
            "original_name": "Steven Universe Future",
            "popularity": 81.494
        },
        {
            "id": 96658,
            "original_name": "Masters of the Universe: Revelation",
            "popularity": 73.593
        },
        {
            "id": 96659,
            "original_name": "He-Man and the Masters of the Universe",
            "popularity": 42.566
        },
        {
            "id": 46922,
            "original_name": "Ben 10: Omniverse",
            "popularity": 41.959
        },
        {
            "id": 931,
            "original_name": "He-Man and the Masters of the Universe",
            "popularity": 25.248
        },
        {
            "id": 5148,
            "original_name": "Stargate Universe",
            "popularity": 19.652
        },
        {
            "id": 130048,
            "original_name": "Queen of the Universe",
            "popularity": 16.635
        },
        {
            "id": 2622,
            "original_name": "The Universe",
            "popularity": 16.406
        },
        {
            "id": 3035,
            "original_name": "He-Man and the Masters of the Universe",
            "popularity": 12.491
        },
        {
            "id": 33827,
            "original_name": "How the Universe Works",
            "popularity": 11.233
        },
        {
            "id": 99517,
            "original_name": "The Expanding Universe of Ashley Garcia",
            "popularity": 10.23
        },
        {
            "id": 73817,
            "original_name": "En direct de l'univers",
            "popularity": 8.674
        },
        {
            "id": 32609,
            "original_name": "Into the Universe with Stephen Hawking",
            "popularity": 7.931
        },
        {
            "id": 1013,
            "original_name": "Voltron: Defender of the Universe",
            "popularity": 6.71
        },
        {
            "id": 136919,
            "original_name": "Universe",
            "popularity": 6.485
        },
        {
            "id": 9898,
            "original_name": "Center of the Universe",
            "popularity": 5.225
        },
        {
            "id": 77729,
            "original_name": "Cutie Honey Universe",
            "popularity": 5.083
        },
        {
            "id": 1460,
            "original_name": "Andy Richter Controls the Universe",
            "popularity": 4.931
        },
        {
            "id": 135136,
            "original_name": "Elvira's 40th Anniversary, Very Scary, Very Special Special",
            "popularity": 4.74
        }
    ]
}