{
    "data": [
        {
            "id": 32432,
            "original_name": "Huo Yuanjia",
            "popularity": 0.6
        },
        {
            "id": 49206,
            "original_name": "Da Guanjia",
            "popularity": 0.654
        }
    ],
    "relations": [],
    "top20": [
        {
            "id": 32432,
            "original_name": "Huo Yuanjia",
            "popularity": 0.6
        },
        {
            "id": 49206,
            "original_name": "Da Guanjia",
            "popularity": 0.654
        }
    ]
}