{
    "data": [
        {
            "id": 27895,
            "original_name": "Cowboys & Injuns",
            "popularity": 0.6
        },
        {
            "id": 28537,
            "original_name": "Conjugal Rites",
            "popularity": 1.233
        },
        {
            "id": 32851,
            "original_name": "Injustice",
            "popularity": 0.6
        },
        {
            "id": 36033,
            "original_name": "Yokohama Shinju",
            "popularity": 0.6
        },
        {
            "id": 37193,
            "original_name": "Fastir li\u00f0ir... eins og venjulega",
            "popularity": 0.6
        },
        {
            "id": 38255,
            "original_name": "The Injustice Files",
            "popularity": 0.6
        },
        {
            "id": 39604,
            "original_name": "Injustice",
            "popularity": 4.505
        },
        {
            "id": 43140,
            "original_name": "Kronjuvelerna",
            "popularity": 0.6
        },
        {
            "id": 45284,
            "original_name": "KO Seiki Beast Sanjuushi",
            "popularity": 0.6
        },
        {
            "id": 48854,
            "original_name": "Shinjuku Swan",
            "popularity": 0.654
        },
        {
            "id": 50416,
            "original_name": "Tersanjung",
            "popularity": 0.626
        },
        {
            "id": 52469,
            "original_name": "Tunjuk Satu Bintang",
            "popularity": 0.6
        },
        {
            "id": 74700,
            "original_name": "Korpelan kujanjuoksu",
            "popularity": 0.635
        },
        {
            "id": 80292,
            "original_name": "Enjuto Mojamuto",
            "popularity": 2.089
        },
        {
            "id": 90688,
            "original_name": "Empat Penjuru",
            "popularity": 0.859
        },
        {
            "id": 101291,
            "original_name": "Le bonheur conjugal",
            "popularity": 0.6
        },
        {
            "id": 113597,
            "original_name": "Injustice With Nancy Grace",
            "popularity": 0.6
        },
        {
            "id": 127187,
            "original_name": "The Great Conjunction - A Robots And Magic Powers Docuseries",
            "popularity": 0.6
        },
        {
            "id": 128700,
            "original_name": "Personal Injury Court",
            "popularity": 0.6
        },
        {
            "id": 137619,
            "original_name": "Kenjusho: Mitsukuni Ko to Ore",
            "popularity": 6.218
        },
        {
            "id": 139528,
            "original_name": "Violence conjugale : l'histoire de Mia",
            "popularity": 1.886
        },
        {
            "id": 152533,
            "original_name": "Tersanjung The Series",
            "popularity": 1.4
        }
    ],
    "relations": [
        {
            "character": "njun"
        },
        {
            "character": "njug"
        },
        {
            "character": "njus"
        },
        {
            "character": "njul"
        },
        {
            "character": "njuv"
        },
        {
            "character": "njuu"
        },
        {
            "character": "njuk"
        },
        {
            "character": "njuo"
        },
        {
            "character": "njut"
        },
        {
            "character": "njur"
        }
    ],
    "top20": [
        {
            "id": 137619,
            "original_name": "Kenjusho: Mitsukuni Ko to Ore",
            "popularity": 6.218
        },
        {
            "id": 39604,
            "original_name": "Injustice",
            "popularity": 4.505
        },
        {
            "id": 80292,
            "original_name": "Enjuto Mojamuto",
            "popularity": 2.089
        },
        {
            "id": 139528,
            "original_name": "Violence conjugale : l'histoire de Mia",
            "popularity": 1.886
        },
        {
            "id": 152533,
            "original_name": "Tersanjung The Series",
            "popularity": 1.4
        },
        {
            "id": 28537,
            "original_name": "Conjugal Rites",
            "popularity": 1.233
        },
        {
            "id": 90688,
            "original_name": "Empat Penjuru",
            "popularity": 0.859
        },
        {
            "id": 48854,
            "original_name": "Shinjuku Swan",
            "popularity": 0.654
        },
        {
            "id": 74700,
            "original_name": "Korpelan kujanjuoksu",
            "popularity": 0.635
        },
        {
            "id": 50416,
            "original_name": "Tersanjung",
            "popularity": 0.626
        },
        {
            "id": 52469,
            "original_name": "Tunjuk Satu Bintang",
            "popularity": 0.6
        },
        {
            "id": 36033,
            "original_name": "Yokohama Shinju",
            "popularity": 0.6
        },
        {
            "id": 37193,
            "original_name": "Fastir li\u00f0ir... eins og venjulega",
            "popularity": 0.6
        },
        {
            "id": 27895,
            "original_name": "Cowboys & Injuns",
            "popularity": 0.6
        },
        {
            "id": 43140,
            "original_name": "Kronjuvelerna",
            "popularity": 0.6
        },
        {
            "id": 113597,
            "original_name": "Injustice With Nancy Grace",
            "popularity": 0.6
        },
        {
            "id": 38255,
            "original_name": "The Injustice Files",
            "popularity": 0.6
        },
        {
            "id": 32851,
            "original_name": "Injustice",
            "popularity": 0.6
        },
        {
            "id": 101291,
            "original_name": "Le bonheur conjugal",
            "popularity": 0.6
        },
        {
            "id": 45284,
            "original_name": "KO Seiki Beast Sanjuushi",
            "popularity": 0.6
        }
    ]
}