{
    "data": [
        {
            "id": 28537,
            "original_name": "Conjugal Rites",
            "popularity": 1.233
        },
        {
            "id": 101291,
            "original_name": "Le bonheur conjugal",
            "popularity": 0.6
        },
        {
            "id": 139528,
            "original_name": "Violence conjugale : l'histoire de Mia",
            "popularity": 1.886
        }
    ],
    "relations": [],
    "top20": [
        {
            "id": 28537,
            "original_name": "Conjugal Rites",
            "popularity": 1.233
        },
        {
            "id": 101291,
            "original_name": "Le bonheur conjugal",
            "popularity": 0.6
        },
        {
            "id": 139528,
            "original_name": "Violence conjugale : l'histoire de Mia",
            "popularity": 1.886
        }
    ]
}