{
    "data": [
        {
            "id": 137720,
            "original_name": "Frankeldas Book of Spooks",
            "popularity": 47.971
        }
    ],
    "relations": [],
    "top20": [
        {
            "id": 137720,
            "original_name": "Frankeldas Book of Spooks",
            "popularity": 47.971
        }
    ]
}