{
    "data": [
        {
            "id": 5730,
            "original_name": "Macy's Thanksgiving Day Parade",
            "popularity": 1.58
        },
        {
            "id": 8846,
            "original_name": "Intergalactic Thanksgiving",
            "popularity": 0.6
        },
        {
            "id": 29165,
            "original_name": "B.C.: The First Thanksgiving",
            "popularity": 0.6
        },
        {
            "id": 29657,
            "original_name": "The Thanksgiving That Almost Wasn't",
            "popularity": 0.6
        },
        {
            "id": 38628,
            "original_name": "McDonald's Thanksgiving Parade",
            "popularity": 0.6
        },
        {
            "id": 38658,
            "original_name": "The Thanksgiving Day Parade on CBS",
            "popularity": 0.6
        },
        {
            "id": 38938,
            "original_name": "America's Thanksgiving Parade",
            "popularity": 0.6
        },
        {
            "id": 41697,
            "original_name": "6abc Dunkin' Donuts Thanksgiving Day Parade",
            "popularity": 0.6
        },
        {
            "id": 44696,
            "original_name": "Thanksgiving Live!",
            "popularity": 0.6
        },
        {
            "id": 44896,
            "original_name": "85th Annual Macy's Thanksgiving Day Parade",
            "popularity": 0.6
        },
        {
            "id": 45233,
            "original_name": "84th Annual Macy's Thanksgiving Day Parade",
            "popularity": 0.6
        },
        {
            "id": 45353,
            "original_name": "82nd Annual Macy's Thanksgiving Day Parade",
            "popularity": 0.6
        },
        {
            "id": 45457,
            "original_name": "81st Annual Macy's Thanksgiving Day Parade",
            "popularity": 0.6
        },
        {
            "id": 45506,
            "original_name": "80th Annual Macy's Thanksgiving Day Parade",
            "popularity": 0.6
        },
        {
            "id": 45533,
            "original_name": "78th Annual Macy's Thanksgiving Day Parade",
            "popularity": 0.6
        },
        {
            "id": 45546,
            "original_name": "Macy's Thanksgiving Day Parade",
            "popularity": 0.6
        },
        {
            "id": 45555,
            "original_name": "75th Annual Macy's Thanksgiving Day Parade",
            "popularity": 0.6
        },
        {
            "id": 45864,
            "original_name": "Macy's Thanksgiving Day Parade 1982",
            "popularity": 0.6
        },
        {
            "id": 49366,
            "original_name": "A Walton Thanksgiving Reunion",
            "popularity": 0.6
        },
        {
            "id": 51855,
            "original_name": "86th Annual Macy's Thanksgiving Day Parade",
            "popularity": 0.6
        },
        {
            "id": 55938,
            "original_name": "The Thanksgiving Visitor",
            "popularity": 0.6
        },
        {
            "id": 56475,
            "original_name": "CBS All-American Thanksgiving Day Parade",
            "popularity": 0.6
        },
        {
            "id": 83754,
            "original_name": "Ultimate Thanksgiving Challenge",
            "popularity": 0.6
        },
        {
            "id": 86986,
            "original_name": "Thanksgiving",
            "popularity": 1.4
        }
    ],
    "relations": [
        {
            "character": "nksgi"
        }
    ],
    "top20": [
        {
            "id": 5730,
            "original_name": "Macy's Thanksgiving Day Parade",
            "popularity": 1.58
        },
        {
            "id": 86986,
            "original_name": "Thanksgiving",
            "popularity": 1.4
        },
        {
            "id": 29165,
            "original_name": "B.C.: The First Thanksgiving",
            "popularity": 0.6
        },
        {
            "id": 38658,
            "original_name": "The Thanksgiving Day Parade on CBS",
            "popularity": 0.6
        },
        {
            "id": 29657,
            "original_name": "The Thanksgiving That Almost Wasn't",
            "popularity": 0.6
        },
        {
            "id": 45864,
            "original_name": "Macy's Thanksgiving Day Parade 1982",
            "popularity": 0.6
        },
        {
            "id": 38628,
            "original_name": "McDonald's Thanksgiving Parade",
            "popularity": 0.6
        },
        {
            "id": 45555,
            "original_name": "75th Annual Macy's Thanksgiving Day Parade",
            "popularity": 0.6
        },
        {
            "id": 45506,
            "original_name": "80th Annual Macy's Thanksgiving Day Parade",
            "popularity": 0.6
        },
        {
            "id": 45353,
            "original_name": "82nd Annual Macy's Thanksgiving Day Parade",
            "popularity": 0.6
        },
        {
            "id": 38938,
            "original_name": "America's Thanksgiving Parade",
            "popularity": 0.6
        },
        {
            "id": 45233,
            "original_name": "84th Annual Macy's Thanksgiving Day Parade",
            "popularity": 0.6
        },
        {
            "id": 8846,
            "original_name": "Intergalactic Thanksgiving",
            "popularity": 0.6
        },
        {
            "id": 45533,
            "original_name": "78th Annual Macy's Thanksgiving Day Parade",
            "popularity": 0.6
        },
        {
            "id": 45457,
            "original_name": "81st Annual Macy's Thanksgiving Day Parade",
            "popularity": 0.6
        },
        {
            "id": 49366,
            "original_name": "A Walton Thanksgiving Reunion",
            "popularity": 0.6
        },
        {
            "id": 41697,
            "original_name": "6abc Dunkin' Donuts Thanksgiving Day Parade",
            "popularity": 0.6
        },
        {
            "id": 44896,
            "original_name": "85th Annual Macy's Thanksgiving Day Parade",
            "popularity": 0.6
        },
        {
            "id": 44696,
            "original_name": "Thanksgiving Live!",
            "popularity": 0.6
        },
        {
            "id": 45546,
            "original_name": "Macy's Thanksgiving Day Parade",
            "popularity": 0.6
        }
    ]
}