{
    "data": [
        {
            "id": 105706,
            "original_name": "FAUST - AGENTENLEBEN",
            "popularity": 0.6
        }
    ],
    "relations": [],
    "top20": [
        {
            "id": 105706,
            "original_name": "FAUST - AGENTENLEBEN",
            "popularity": 0.6
        }
    ]
}