{
    "data": [
        {
            "id": 971,
            "original_name": "WKRP in Cincinnati",
            "popularity": 13.64
        },
        {
            "id": 1086,
            "original_name": "John from Cincinnati",
            "popularity": 6.21
        },
        {
            "id": 3912,
            "original_name": "Unnatural Acts",
            "popularity": 1.223
        },
        {
            "id": 10134,
            "original_name": "The New WKRP in Cincinnati",
            "popularity": 4.922
        },
        {
            "id": 19977,
            "original_name": "Le Championnat",
            "popularity": 0.6
        },
        {
            "id": 29344,
            "original_name": "Unnatural Causes",
            "popularity": 1.4
        },
        {
            "id": 32616,
            "original_name": "Unnatural History",
            "popularity": 2.436
        },
        {
            "id": 33989,
            "original_name": "Midsummer Rock: The Cincinnati Pop Festival 1970",
            "popularity": 0.6
        },
        {
            "id": 34707,
            "original_name": "Unnatural Causes: Is Inequality Making Us Sick?",
            "popularity": 0.6
        },
        {
            "id": 35364,
            "original_name": "Police Women of Cincinnati",
            "popularity": 0.6
        },
        {
            "id": 36791,
            "original_name": "Duncan Bannatyne's Seaside Rescue",
            "popularity": 0.6
        },
        {
            "id": 39291,
            "original_name": "Unnatural Histories",
            "popularity": 0.6
        },
        {
            "id": 41482,
            "original_name": "Natsu ni Koisuru Onnatachi",
            "popularity": 0.6
        },
        {
            "id": 47152,
            "original_name": "China\u2019s Unnatural Disaster: The Tears of Sichuan Province",
            "popularity": 0.6
        },
        {
            "id": 47677,
            "original_name": "Unnatural Pursuits",
            "popularity": 0.932
        },
        {
            "id": 50068,
            "original_name": "Kinnat El Sham",
            "popularity": 0.84
        },
        {
            "id": 69575,
            "original_name": "Sex: An Unnatural History",
            "popularity": 0.6
        },
        {
            "id": 94647,
            "original_name": "Unnatural Selection",
            "popularity": 3.564
        },
        {
            "id": 116934,
            "original_name": "Le Pensionnat",
            "popularity": 1.135
        }
    ],
    "relations": [],
    "top20": [
        {
            "id": 971,
            "original_name": "WKRP in Cincinnati",
            "popularity": 13.64
        },
        {
            "id": 1086,
            "original_name": "John from Cincinnati",
            "popularity": 6.21
        },
        {
            "id": 3912,
            "original_name": "Unnatural Acts",
            "popularity": 1.223
        },
        {
            "id": 10134,
            "original_name": "The New WKRP in Cincinnati",
            "popularity": 4.922
        },
        {
            "id": 19977,
            "original_name": "Le Championnat",
            "popularity": 0.6
        },
        {
            "id": 29344,
            "original_name": "Unnatural Causes",
            "popularity": 1.4
        },
        {
            "id": 32616,
            "original_name": "Unnatural History",
            "popularity": 2.436
        },
        {
            "id": 33989,
            "original_name": "Midsummer Rock: The Cincinnati Pop Festival 1970",
            "popularity": 0.6
        },
        {
            "id": 34707,
            "original_name": "Unnatural Causes: Is Inequality Making Us Sick?",
            "popularity": 0.6
        },
        {
            "id": 35364,
            "original_name": "Police Women of Cincinnati",
            "popularity": 0.6
        },
        {
            "id": 36791,
            "original_name": "Duncan Bannatyne's Seaside Rescue",
            "popularity": 0.6
        },
        {
            "id": 39291,
            "original_name": "Unnatural Histories",
            "popularity": 0.6
        },
        {
            "id": 41482,
            "original_name": "Natsu ni Koisuru Onnatachi",
            "popularity": 0.6
        },
        {
            "id": 47152,
            "original_name": "China\u2019s Unnatural Disaster: The Tears of Sichuan Province",
            "popularity": 0.6
        },
        {
            "id": 47677,
            "original_name": "Unnatural Pursuits",
            "popularity": 0.932
        },
        {
            "id": 50068,
            "original_name": "Kinnat El Sham",
            "popularity": 0.84
        },
        {
            "id": 69575,
            "original_name": "Sex: An Unnatural History",
            "popularity": 0.6
        },
        {
            "id": 94647,
            "original_name": "Unnatural Selection",
            "popularity": 3.564
        },
        {
            "id": 116934,
            "original_name": "Le Pensionnat",
            "popularity": 1.135
        }
    ]
}