{
    "data": [
        {
            "id": 13404,
            "original_name": "Tennessee Tuxedo and His Tales",
            "popularity": 2.223
        },
        {
            "id": 14915,
            "original_name": "The Guinness Game",
            "popularity": 0.6
        },
        {
            "id": 16146,
            "original_name": "Guinness World Records Primetime",
            "popularity": 1.186
        },
        {
            "id": 18338,
            "original_name": "Guinness World Records Smashed",
            "popularity": 0.6
        },
        {
            "id": 23912,
            "original_name": "100 Guinness Book of World Records",
            "popularity": 0.6
        },
        {
            "id": 35644,
            "original_name": "NZ Smashes Guinness World Records",
            "popularity": 0.6
        },
        {
            "id": 40305,
            "original_name": "Guinness World Records \u2013 Ab India Todega",
            "popularity": 0.6
        },
        {
            "id": 47175,
            "original_name": "Neil Diamond: Under a Tennessee Moon",
            "popularity": 0.6
        },
        {
            "id": 49006,
            "original_name": "David Frost Presents: The Fourth International Guinness Book of World Records",
            "popularity": 0.6
        },
        {
            "id": 57015,
            "original_name": "Inside Guinness World Records",
            "popularity": 0.6
        },
        {
            "id": 58576,
            "original_name": "Ghostland Tennessee",
            "popularity": 0.6
        },
        {
            "id": 59313,
            "original_name": "Guinness World Records Gone Wild",
            "popularity": 0.6
        },
        {
            "id": 67071,
            "original_name": "Complimenti per la connessione",
            "popularity": 0.703
        },
        {
            "id": 83496,
            "original_name": "Online - Connessioni pericolose",
            "popularity": 0.901
        },
        {
            "id": 117296,
            "original_name": "Tennessee Civil War 150",
            "popularity": 0.6
        },
        {
            "id": 152566,
            "original_name": "Paddy and Christine McGuinness: Our Family and Autism",
            "popularity": 1.4
        }
    ],
    "relations": [],
    "top20": [
        {
            "id": 13404,
            "original_name": "Tennessee Tuxedo and His Tales",
            "popularity": 2.223
        },
        {
            "id": 14915,
            "original_name": "The Guinness Game",
            "popularity": 0.6
        },
        {
            "id": 16146,
            "original_name": "Guinness World Records Primetime",
            "popularity": 1.186
        },
        {
            "id": 18338,
            "original_name": "Guinness World Records Smashed",
            "popularity": 0.6
        },
        {
            "id": 23912,
            "original_name": "100 Guinness Book of World Records",
            "popularity": 0.6
        },
        {
            "id": 35644,
            "original_name": "NZ Smashes Guinness World Records",
            "popularity": 0.6
        },
        {
            "id": 40305,
            "original_name": "Guinness World Records \u2013 Ab India Todega",
            "popularity": 0.6
        },
        {
            "id": 47175,
            "original_name": "Neil Diamond: Under a Tennessee Moon",
            "popularity": 0.6
        },
        {
            "id": 49006,
            "original_name": "David Frost Presents: The Fourth International Guinness Book of World Records",
            "popularity": 0.6
        },
        {
            "id": 57015,
            "original_name": "Inside Guinness World Records",
            "popularity": 0.6
        },
        {
            "id": 58576,
            "original_name": "Ghostland Tennessee",
            "popularity": 0.6
        },
        {
            "id": 59313,
            "original_name": "Guinness World Records Gone Wild",
            "popularity": 0.6
        },
        {
            "id": 67071,
            "original_name": "Complimenti per la connessione",
            "popularity": 0.703
        },
        {
            "id": 83496,
            "original_name": "Online - Connessioni pericolose",
            "popularity": 0.901
        },
        {
            "id": 117296,
            "original_name": "Tennessee Civil War 150",
            "popularity": 0.6
        },
        {
            "id": 152566,
            "original_name": "Paddy and Christine McGuinness: Our Family and Autism",
            "popularity": 1.4
        }
    ]
}