{
    "data": [
        {
            "id": 82220,
            "original_name": "Kann es Johannes?",
            "popularity": 0.6
        }
    ],
    "relations": [],
    "top20": [
        {
            "id": 82220,
            "original_name": "Kann es Johannes?",
            "popularity": 0.6
        }
    ]
}