{
    "data": [
        {
            "id": 43286,
            "original_name": "Finney",
            "popularity": 1.09
        },
        {
            "id": 46783,
            "original_name": "From Spain With Love with Annie Sibonney",
            "popularity": 0.6
        }
    ],
    "relations": [],
    "top20": [
        {
            "id": 43286,
            "original_name": "Finney",
            "popularity": 1.09
        },
        {
            "id": 46783,
            "original_name": "From Spain With Love with Annie Sibonney",
            "popularity": 0.6
        }
    ]
}