{
    "data": [
        {
            "id": 77678,
            "original_name": "Venise, recit d'un naufrage annonce",
            "popularity": 0.6
        }
    ],
    "relations": [],
    "top20": [
        {
            "id": 77678,
            "original_name": "Venise, recit d'un naufrage annonce",
            "popularity": 0.6
        }
    ]
}