{
    "data": [
        {
            "id": 56319,
            "original_name": "Annie Lennox: Live in Central Park",
            "popularity": 0.6
        }
    ],
    "relations": [],
    "top20": [
        {
            "id": 56319,
            "original_name": "Annie Lennox: Live in Central Park",
            "popularity": 0.6
        }
    ]
}