{
    "data": [
        {
            "id": 37233,
            "original_name": "Sunnudags\u00fe\u00e1tturinn",
            "popularity": 0.6
        }
    ],
    "relations": [],
    "top20": [
        {
            "id": 37233,
            "original_name": "Sunnudags\u00fe\u00e1tturinn",
            "popularity": 0.6
        }
    ]
}