{
    "data": [
        {
            "id": 42504,
            "original_name": "NO.6",
            "popularity": 11.581
        }
    ],
    "relations": [],
    "top20": [
        {
            "id": 42504,
            "original_name": "NO.6",
            "popularity": 11.581
        }
    ]
}