{
    "data": [
        {
            "id": 20456,
            "original_name": "Noggin the Nog",
            "popularity": 1.001
        }
    ],
    "relations": [],
    "top20": [
        {
            "id": 20456,
            "original_name": "Noggin the Nog",
            "popularity": 1.001
        }
    ]
}