{
    "data": [
        {
            "id": 88382,
            "original_name": "As Noivas de Copacabana",
            "popularity": 2.402
        },
        {
            "id": 93099,
            "original_name": "Vende-se Um V\u00e9u de Noiva",
            "popularity": 0.6
        },
        {
            "id": 108406,
            "original_name": "O Noivo \u00c9 Que Sabe",
            "popularity": 1.5
        },
        {
            "id": 139205,
            "original_name": "Prova de Noiva",
            "popularity": 0.6
        }
    ],
    "relations": [],
    "top20": [
        {
            "id": 88382,
            "original_name": "As Noivas de Copacabana",
            "popularity": 2.402
        },
        {
            "id": 93099,
            "original_name": "Vende-se Um V\u00e9u de Noiva",
            "popularity": 0.6
        },
        {
            "id": 108406,
            "original_name": "O Noivo \u00c9 Que Sabe",
            "popularity": 1.5
        },
        {
            "id": 139205,
            "original_name": "Prova de Noiva",
            "popularity": 0.6
        }
    ]
}