{
    "data": [
        {
            "id": 2095,
            "original_name": "Billy Connolly's World Tour of Australia",
            "popularity": 0.689
        },
        {
            "id": 3510,
            "original_name": "Billy Connolly's World Tour of New Zealand",
            "popularity": 0.908
        },
        {
            "id": 5163,
            "original_name": "Billy Connolly's World Tour of England, Ireland and Wales",
            "popularity": 0.6
        },
        {
            "id": 8196,
            "original_name": "Nollaig No. 1",
            "popularity": 0.6
        },
        {
            "id": 28713,
            "original_name": "Billy Connolly: Journey to the Edge of the World",
            "popularity": 1.581
        },
        {
            "id": 39649,
            "original_name": "Dave Knoll Finds His Soul",
            "popularity": 0.6
        },
        {
            "id": 43208,
            "original_name": "Billy Connolly's Route 66",
            "popularity": 0.999
        },
        {
            "id": 47604,
            "original_name": "30 Years of Billy Connolly",
            "popularity": 0.6
        },
        {
            "id": 66258,
            "original_name": "Billy Connolly's Tracks Across America",
            "popularity": 0.701
        },
        {
            "id": 66596,
            "original_name": "Ettor och Nollor",
            "popularity": 1.386
        },
        {
            "id": 85372,
            "original_name": "Billy Connolly: Made in Scotland",
            "popularity": 0.986
        },
        {
            "id": 85375,
            "original_name": "Billy Connolly's Big Send Off",
            "popularity": 0.6
        },
        {
            "id": 93583,
            "original_name": "Billy Connolly's Great American Trail",
            "popularity": 0.648
        },
        {
            "id": 137119,
            "original_name": "Luonnollinen kuolema",
            "popularity": 0.6
        },
        {
            "id": 139702,
            "original_name": "Billy Connolly In His Own Words",
            "popularity": 2.608
        }
    ],
    "relations": [],
    "top20": [
        {
            "id": 2095,
            "original_name": "Billy Connolly's World Tour of Australia",
            "popularity": 0.689
        },
        {
            "id": 3510,
            "original_name": "Billy Connolly's World Tour of New Zealand",
            "popularity": 0.908
        },
        {
            "id": 5163,
            "original_name": "Billy Connolly's World Tour of England, Ireland and Wales",
            "popularity": 0.6
        },
        {
            "id": 8196,
            "original_name": "Nollaig No. 1",
            "popularity": 0.6
        },
        {
            "id": 28713,
            "original_name": "Billy Connolly: Journey to the Edge of the World",
            "popularity": 1.581
        },
        {
            "id": 39649,
            "original_name": "Dave Knoll Finds His Soul",
            "popularity": 0.6
        },
        {
            "id": 43208,
            "original_name": "Billy Connolly's Route 66",
            "popularity": 0.999
        },
        {
            "id": 47604,
            "original_name": "30 Years of Billy Connolly",
            "popularity": 0.6
        },
        {
            "id": 66258,
            "original_name": "Billy Connolly's Tracks Across America",
            "popularity": 0.701
        },
        {
            "id": 66596,
            "original_name": "Ettor och Nollor",
            "popularity": 1.386
        },
        {
            "id": 85372,
            "original_name": "Billy Connolly: Made in Scotland",
            "popularity": 0.986
        },
        {
            "id": 85375,
            "original_name": "Billy Connolly's Big Send Off",
            "popularity": 0.6
        },
        {
            "id": 93583,
            "original_name": "Billy Connolly's Great American Trail",
            "popularity": 0.648
        },
        {
            "id": 137119,
            "original_name": "Luonnollinen kuolema",
            "popularity": 0.6
        },
        {
            "id": 139702,
            "original_name": "Billy Connolly In His Own Words",
            "popularity": 2.608
        }
    ]
}