{
    "data": [
        {
            "id": 30055,
            "original_name": "Sonouchi Kekkon Suru Kimi e",
            "popularity": 0.626
        }
    ],
    "relations": [],
    "top20": [
        {
            "id": 30055,
            "original_name": "Sonouchi Kekkon Suru Kimi e",
            "popularity": 0.626
        }
    ]
}