{
    "data": [
        {
            "id": 2881,
            "original_name": "Sine Novela",
            "popularity": 0.6
        },
        {
            "id": 8076,
            "original_name": "Sine Novela: Kaputol Ng Isang Awit",
            "popularity": 0.6
        },
        {
            "id": 8866,
            "original_name": "Protagonistas de Novela",
            "popularity": 0.6
        },
        {
            "id": 13147,
            "original_name": "MyNetworkTV telenovelas",
            "popularity": 0.6
        },
        {
            "id": 20918,
            "original_name": "El Noveno mandamiento",
            "popularity": 3.119
        },
        {
            "id": 32961,
            "original_name": "InOverOurHeads",
            "popularity": 0.6
        },
        {
            "id": 39651,
            "original_name": "Mario Puzo's The Godfather: The Complete Novel for Television",
            "popularity": 9.441
        },
        {
            "id": 54100,
            "original_name": "Henover midten",
            "popularity": 0.6
        },
        {
            "id": 63327,
            "original_name": "Die Kriminalnovelle",
            "popularity": 0.847
        },
        {
            "id": 63636,
            "original_name": "Novellen aus dem wilden Westen",
            "popularity": 0.742
        },
        {
            "id": 64498,
            "original_name": "Svenska noveller",
            "popularity": 1.465
        },
        {
            "id": 64541,
            "original_name": "Telenovela",
            "popularity": 5.116
        },
        {
            "id": 67957,
            "original_name": "My Life is a Telenovela",
            "popularity": 0.6
        },
        {
            "id": 70891,
            "original_name": "Onnovelas",
            "popularity": 0.894
        },
        {
            "id": 74512,
            "original_name": "Falklands Hero: Bravo November",
            "popularity": 0.6
        },
        {
            "id": 79932,
            "original_name": "13 novembre : Fluctuat nec mergitur",
            "popularity": 3.904
        },
        {
            "id": 85455,
            "original_name": "Caminando por la Agonia Novela Turca",
            "popularity": 0.606
        },
        {
            "id": 88886,
            "original_name": "Vendre ou r\u00e9nover au Qu\u00e9bec",
            "popularity": 2.641
        },
        {
            "id": 89288,
            "original_name": "Comment r\u00e9nover quand on m\u00e8ne une vie de fou!",
            "popularity": 0.6
        },
        {
            "id": 89782,
            "original_name": "Comment r\u00e9nover... sans trop se chicaner!",
            "popularity": 0.658
        },
        {
            "id": 96073,
            "original_name": "R\u00e9nover pour louer",
            "popularity": 0.6
        },
        {
            "id": 96109,
            "original_name": "Synvain R\u00e9nove",
            "popularity": 2.111
        },
        {
            "id": 112768,
            "original_name": "Uma Vila de Novela",
            "popularity": 0.6
        },
        {
            "id": 113531,
            "original_name": "Telenovela Pecados Capitales",
            "popularity": 5.846
        },
        {
            "id": 114066,
            "original_name": "The G Word with Adam Conover",
            "popularity": 0.6
        },
        {
            "id": 117817,
            "original_name": "Tajna vinove loze",
            "popularity": 0.84
        },
        {
            "id": 123455,
            "original_name": "Novelmore",
            "popularity": 0.6
        },
        {
            "id": 127821,
            "original_name": "Jojo Nove e Meia",
            "popularity": 1.079
        },
        {
            "id": 130215,
            "original_name": "Sin novedad",
            "popularity": 6.809
        },
        {
            "id": 130845,
            "original_name": "Novela",
            "popularity": 0.634
        },
        {
            "id": 136466,
            "original_name": "A Suspense Novelist's Trail of Deceptions",
            "popularity": 0.6
        },
        {
            "id": 147048,
            "original_name": "\u00c9 Tudo Novela!",
            "popularity": 8.855
        }
    ],
    "relations": [
        {
            "character": "novel"
        },
        {
            "character": "noven"
        },
        {
            "character": "nover"
        },
        {
            "character": "novem"
        },
        {
            "character": "noved"
        }
    ],
    "top20": [
        {
            "id": 39651,
            "original_name": "Mario Puzo's The Godfather: The Complete Novel for Television",
            "popularity": 9.441
        },
        {
            "id": 147048,
            "original_name": "\u00c9 Tudo Novela!",
            "popularity": 8.855
        },
        {
            "id": 130215,
            "original_name": "Sin novedad",
            "popularity": 6.809
        },
        {
            "id": 113531,
            "original_name": "Telenovela Pecados Capitales",
            "popularity": 5.846
        },
        {
            "id": 64541,
            "original_name": "Telenovela",
            "popularity": 5.116
        },
        {
            "id": 79932,
            "original_name": "13 novembre : Fluctuat nec mergitur",
            "popularity": 3.904
        },
        {
            "id": 20918,
            "original_name": "El Noveno mandamiento",
            "popularity": 3.119
        },
        {
            "id": 88886,
            "original_name": "Vendre ou r\u00e9nover au Qu\u00e9bec",
            "popularity": 2.641
        },
        {
            "id": 96109,
            "original_name": "Synvain R\u00e9nove",
            "popularity": 2.111
        },
        {
            "id": 64498,
            "original_name": "Svenska noveller",
            "popularity": 1.465
        },
        {
            "id": 127821,
            "original_name": "Jojo Nove e Meia",
            "popularity": 1.079
        },
        {
            "id": 70891,
            "original_name": "Onnovelas",
            "popularity": 0.894
        },
        {
            "id": 63327,
            "original_name": "Die Kriminalnovelle",
            "popularity": 0.847
        },
        {
            "id": 117817,
            "original_name": "Tajna vinove loze",
            "popularity": 0.84
        },
        {
            "id": 63636,
            "original_name": "Novellen aus dem wilden Westen",
            "popularity": 0.742
        },
        {
            "id": 89782,
            "original_name": "Comment r\u00e9nover... sans trop se chicaner!",
            "popularity": 0.658
        },
        {
            "id": 130845,
            "original_name": "Novela",
            "popularity": 0.634
        },
        {
            "id": 85455,
            "original_name": "Caminando por la Agonia Novela Turca",
            "popularity": 0.606
        },
        {
            "id": 2881,
            "original_name": "Sine Novela",
            "popularity": 0.6
        },
        {
            "id": 8076,
            "original_name": "Sine Novela: Kaputol Ng Isang Awit",
            "popularity": 0.6
        }
    ]
}