{
    "data": [
        {
            "id": 39149,
            "original_name": "Sanskaar Laxmi",
            "popularity": 0.6
        },
        {
            "id": 69791,
            "original_name": "Sinskaari",
            "popularity": 0.6
        }
    ],
    "relations": [],
    "top20": [
        {
            "id": 39149,
            "original_name": "Sanskaar Laxmi",
            "popularity": 0.6
        },
        {
            "id": 69791,
            "original_name": "Sinskaari",
            "popularity": 0.6
        }
    ]
}