{
    "data": [
        {
            "id": 23484,
            "original_name": "Outrageous and Contagious Viral Videos",
            "popularity": 0.6
        }
    ],
    "relations": [],
    "top20": [
        {
            "id": 23484,
            "original_name": "Outrageous and Contagious Viral Videos",
            "popularity": 0.6
        }
    ]
}