{
    "data": [
        {
            "id": 55935,
            "original_name": "Spontaneous Saturday",
            "popularity": 0.6
        },
        {
            "id": 87190,
            "original_name": "Tramontane",
            "popularity": 0.6
        },
        {
            "id": 100490,
            "original_name": "Julien Fontanes, magistrat",
            "popularity": 0.96
        }
    ],
    "relations": [],
    "top20": [
        {
            "id": 55935,
            "original_name": "Spontaneous Saturday",
            "popularity": 0.6
        },
        {
            "id": 87190,
            "original_name": "Tramontane",
            "popularity": 0.6
        },
        {
            "id": 100490,
            "original_name": "Julien Fontanes, magistrat",
            "popularity": 0.96
        }
    ]
}