{
    "data": [
        {
            "id": 36872,
            "original_name": "Gemeentebelangen",
            "popularity": 0.6
        },
        {
            "id": 51401,
            "original_name": "Victory at Entebbe",
            "popularity": 0.6
        },
        {
            "id": 114818,
            "original_name": "Montebello Camping",
            "popularity": 0.6
        }
    ],
    "relations": [],
    "top20": [
        {
            "id": 36872,
            "original_name": "Gemeentebelangen",
            "popularity": 0.6
        },
        {
            "id": 51401,
            "original_name": "Victory at Entebbe",
            "popularity": 0.6
        },
        {
            "id": 114818,
            "original_name": "Montebello Camping",
            "popularity": 0.6
        }
    ]
}