{
    "data": [
        {
            "id": 19944,
            "original_name": "Indique \u2013 Untold Stories of Contemporary India",
            "popularity": 0.6
        },
        {
            "id": 61927,
            "original_name": "Trabantem Ji\u017en\u00ed Amerikou",
            "popularity": 0.6
        },
        {
            "id": 65998,
            "original_name": "Mes chers contemporains",
            "popularity": 0.758
        },
        {
            "id": 68253,
            "original_name": "Trabantem z Austr\u00e1lie do Asie",
            "popularity": 0.6
        },
        {
            "id": 68842,
            "original_name": "Discovering Spirit Contemporary",
            "popularity": 0.6
        },
        {
            "id": 78717,
            "original_name": "In Contempt",
            "popularity": 3.01
        },
        {
            "id": 82933,
            "original_name": "Os Contempor\u00e2neos",
            "popularity": 1.777
        },
        {
            "id": 84706,
            "original_name": "Tuntematon sotilas",
            "popularity": 3.913
        },
        {
            "id": 94183,
            "original_name": "Trabantem z Indie a\u017e dom\u016f",
            "popularity": 0.6
        },
        {
            "id": 98239,
            "original_name": "Mieszkaniec zegara z kurantem",
            "popularity": 0.6
        },
        {
            "id": 102009,
            "original_name": "Sarah's Music: Contemporary Classical",
            "popularity": 0.6
        },
        {
            "id": 125331,
            "original_name": "Les printemps arabes : de l'espoir au d\u00e9sespoir",
            "popularity": 0.6
        },
        {
            "id": 127927,
            "original_name": "Les enfants du printemps",
            "popularity": 0.6
        }
    ],
    "relations": [],
    "top20": [
        {
            "id": 19944,
            "original_name": "Indique \u2013 Untold Stories of Contemporary India",
            "popularity": 0.6
        },
        {
            "id": 61927,
            "original_name": "Trabantem Ji\u017en\u00ed Amerikou",
            "popularity": 0.6
        },
        {
            "id": 65998,
            "original_name": "Mes chers contemporains",
            "popularity": 0.758
        },
        {
            "id": 68253,
            "original_name": "Trabantem z Austr\u00e1lie do Asie",
            "popularity": 0.6
        },
        {
            "id": 68842,
            "original_name": "Discovering Spirit Contemporary",
            "popularity": 0.6
        },
        {
            "id": 78717,
            "original_name": "In Contempt",
            "popularity": 3.01
        },
        {
            "id": 82933,
            "original_name": "Os Contempor\u00e2neos",
            "popularity": 1.777
        },
        {
            "id": 84706,
            "original_name": "Tuntematon sotilas",
            "popularity": 3.913
        },
        {
            "id": 94183,
            "original_name": "Trabantem z Indie a\u017e dom\u016f",
            "popularity": 0.6
        },
        {
            "id": 98239,
            "original_name": "Mieszkaniec zegara z kurantem",
            "popularity": 0.6
        },
        {
            "id": 102009,
            "original_name": "Sarah's Music: Contemporary Classical",
            "popularity": 0.6
        },
        {
            "id": 125331,
            "original_name": "Les printemps arabes : de l'espoir au d\u00e9sespoir",
            "popularity": 0.6
        },
        {
            "id": 127927,
            "original_name": "Les enfants du printemps",
            "popularity": 0.6
        }
    ]
}