{
    "data": [
        {
            "id": 59617,
            "original_name": "El Puntero",
            "popularity": 4.457
        }
    ],
    "relations": [],
    "top20": [
        {
            "id": 59617,
            "original_name": "El Puntero",
            "popularity": 4.457
        }
    ]
}