{
    "data": [
        {
            "id": 1902,
            "original_name": "Pardon the Interruption",
            "popularity": 2.872
        },
        {
            "id": 34508,
            "original_name": "The Benson Interruption",
            "popularity": 1.663
        },
        {
            "id": 37123,
            "original_name": "Rudely Interrupted",
            "popularity": 0.6
        },
        {
            "id": 56885,
            "original_name": "Pardon the Interruption Australia",
            "popularity": 0.6
        },
        {
            "id": 70080,
            "original_name": "Interrupt This Program",
            "popularity": 0.6
        },
        {
            "id": 76137,
            "original_name": "The Interrogation Room",
            "popularity": 0.611
        },
        {
            "id": 81187,
            "original_name": "The Shop: Uninterrupted",
            "popularity": 6.849
        },
        {
            "id": 86677,
            "original_name": "Go-Go Boy Interrupted",
            "popularity": 1.317
        },
        {
            "id": 96488,
            "original_name": "Interrogation",
            "popularity": 19.12
        },
        {
            "id": 98848,
            "original_name": "The Interrogator",
            "popularity": 0.6
        },
        {
            "id": 122031,
            "original_name": "Enterrement de vie de jeune fille",
            "popularity": 0.6
        }
    ],
    "relations": [],
    "top20": [
        {
            "id": 1902,
            "original_name": "Pardon the Interruption",
            "popularity": 2.872
        },
        {
            "id": 34508,
            "original_name": "The Benson Interruption",
            "popularity": 1.663
        },
        {
            "id": 37123,
            "original_name": "Rudely Interrupted",
            "popularity": 0.6
        },
        {
            "id": 56885,
            "original_name": "Pardon the Interruption Australia",
            "popularity": 0.6
        },
        {
            "id": 70080,
            "original_name": "Interrupt This Program",
            "popularity": 0.6
        },
        {
            "id": 76137,
            "original_name": "The Interrogation Room",
            "popularity": 0.611
        },
        {
            "id": 81187,
            "original_name": "The Shop: Uninterrupted",
            "popularity": 6.849
        },
        {
            "id": 86677,
            "original_name": "Go-Go Boy Interrupted",
            "popularity": 1.317
        },
        {
            "id": 96488,
            "original_name": "Interrogation",
            "popularity": 19.12
        },
        {
            "id": 98848,
            "original_name": "The Interrogator",
            "popularity": 0.6
        },
        {
            "id": 122031,
            "original_name": "Enterrement de vie de jeune fille",
            "popularity": 0.6
        }
    ]
}