{
    "data": [
        {
            "id": 1387,
            "original_name": "Entertainment Tonight",
            "popularity": 2.09
        },
        {
            "id": 2186,
            "original_name": "Sidewalks Entertainment",
            "popularity": 3.973
        },
        {
            "id": 4509,
            "original_name": "Nuts Entertainment",
            "popularity": 0.6
        },
        {
            "id": 6237,
            "original_name": "Entertainment Konek",
            "popularity": 0.6
        },
        {
            "id": 6488,
            "original_name": "That's Entertainment",
            "popularity": 0.6
        },
        {
            "id": 6725,
            "original_name": "Entertainment Live",
            "popularity": 0.916
        },
        {
            "id": 8559,
            "original_name": "Inside Entertainment",
            "popularity": 0.6
        },
        {
            "id": 10399,
            "original_name": "Entertainment Tonight Canada",
            "popularity": 0.6
        },
        {
            "id": 11014,
            "original_name": "Entertainment Tonight UK",
            "popularity": 0.6
        },
        {
            "id": 11663,
            "original_name": "Entertainment Spotlight",
            "popularity": 0.6
        },
        {
            "id": 12102,
            "original_name": "Inside Entertainment",
            "popularity": 0.6
        },
        {
            "id": 12540,
            "original_name": "Entertainment Desk",
            "popularity": 0.6
        },
        {
            "id": 18672,
            "original_name": "Entertainment Ke Liye Kuch Bhi Karega",
            "popularity": 0.6
        },
        {
            "id": 18776,
            "original_name": "ABC's Wide World of Entertainment",
            "popularity": 0.6
        },
        {
            "id": 23321,
            "original_name": "Nuts Entertainment",
            "popularity": 0.6
        },
        {
            "id": 24361,
            "original_name": "A Question Of Entertainment",
            "popularity": 0.728
        },
        {
            "id": 24573,
            "original_name": "Entertainment as a Second Language with Carlos",
            "popularity": 0.6
        },
        {
            "id": 24899,
            "original_name": "Bring Me The Head Of Light Entertainment",
            "popularity": 0.6
        },
        {
            "id": 26773,
            "original_name": "The Story of Light Entertainment",
            "popularity": 1.588
        },
        {
            "id": 27982,
            "original_name": "Operation: Entertainment",
            "popularity": 0.6
        },
        {
            "id": 29070,
            "original_name": "101 Most Embarrassing Moments in Entertainment",
            "popularity": 0.6
        },
        {
            "id": 31425,
            "original_name": "Bring Me the Head of Light Entertainment",
            "popularity": 0.6
        },
        {
            "id": 33015,
            "original_name": "100% Entertainment",
            "popularity": 0.6
        },
        {
            "id": 48370,
            "original_name": "Azio Entertainment News",
            "popularity": 0.6
        },
        {
            "id": 48568,
            "original_name": "Here's Television Entertainment",
            "popularity": 0.6
        },
        {
            "id": 48683,
            "original_name": "Entertainment USA",
            "popularity": 0.6
        },
        {
            "id": 55846,
            "original_name": "Illumination Entertainment Short Films",
            "popularity": 0.6
        },
        {
            "id": 56040,
            "original_name": "i-CABLE Entertainment News",
            "popularity": 0.6
        },
        {
            "id": 58074,
            "original_name": "J-entertainment",
            "popularity": 0.6
        },
        {
            "id": 62616,
            "original_name": "Nick Helm's Heavy Entertainment",
            "popularity": 0.676
        },
        {
            "id": 66681,
            "original_name": "Entertainment",
            "popularity": 0.6
        },
        {
            "id": 75144,
            "original_name": "Entertainment Ki Raat",
            "popularity": 0.6
        },
        {
            "id": 88900,
            "original_name": "The Count by Branded Entertainment",
            "popularity": 0.6
        },
        {
            "id": 105228,
            "original_name": "Kermode and Mayo\u2019s Home Entertainment Service",
            "popularity": 1.024
        },
        {
            "id": 132174,
            "original_name": "What a Performance! Pioneers of Popular Entertainment",
            "popularity": 0.6
        },
        {
            "id": 138168,
            "original_name": "Epic Wrestling Entertainment  Present's Garage Wars",
            "popularity": 0.6
        }
    ],
    "relations": [],
    "top20": [
        {
            "id": 2186,
            "original_name": "Sidewalks Entertainment",
            "popularity": 3.973
        },
        {
            "id": 1387,
            "original_name": "Entertainment Tonight",
            "popularity": 2.09
        },
        {
            "id": 26773,
            "original_name": "The Story of Light Entertainment",
            "popularity": 1.588
        },
        {
            "id": 105228,
            "original_name": "Kermode and Mayo\u2019s Home Entertainment Service",
            "popularity": 1.024
        },
        {
            "id": 6725,
            "original_name": "Entertainment Live",
            "popularity": 0.916
        },
        {
            "id": 24361,
            "original_name": "A Question Of Entertainment",
            "popularity": 0.728
        },
        {
            "id": 62616,
            "original_name": "Nick Helm's Heavy Entertainment",
            "popularity": 0.676
        },
        {
            "id": 4509,
            "original_name": "Nuts Entertainment",
            "popularity": 0.6
        },
        {
            "id": 8559,
            "original_name": "Inside Entertainment",
            "popularity": 0.6
        },
        {
            "id": 18672,
            "original_name": "Entertainment Ke Liye Kuch Bhi Karega",
            "popularity": 0.6
        },
        {
            "id": 11014,
            "original_name": "Entertainment Tonight UK",
            "popularity": 0.6
        },
        {
            "id": 23321,
            "original_name": "Nuts Entertainment",
            "popularity": 0.6
        },
        {
            "id": 6237,
            "original_name": "Entertainment Konek",
            "popularity": 0.6
        },
        {
            "id": 24573,
            "original_name": "Entertainment as a Second Language with Carlos",
            "popularity": 0.6
        },
        {
            "id": 12540,
            "original_name": "Entertainment Desk",
            "popularity": 0.6
        },
        {
            "id": 6488,
            "original_name": "That's Entertainment",
            "popularity": 0.6
        },
        {
            "id": 12102,
            "original_name": "Inside Entertainment",
            "popularity": 0.6
        },
        {
            "id": 10399,
            "original_name": "Entertainment Tonight Canada",
            "popularity": 0.6
        },
        {
            "id": 18776,
            "original_name": "ABC's Wide World of Entertainment",
            "popularity": 0.6
        },
        {
            "id": 11663,
            "original_name": "Entertainment Spotlight",
            "popularity": 0.6
        }
    ]
}