{
    "data": [
        {
            "id": 51330,
            "original_name": "I ekdikisi tis xanthias",
            "popularity": 0.6
        },
        {
            "id": 51489,
            "original_name": "Cynthia or the Rhythm of Life",
            "popularity": 0.6
        },
        {
            "id": 104392,
            "original_name": "Inthi Nimma Asha",
            "popularity": 0.6
        },
        {
            "id": 109221,
            "original_name": "Quaranthings",
            "popularity": 11.065
        },
        {
            "id": 135454,
            "original_name": "Acesso Total: Corinthians",
            "popularity": 0.6
        }
    ],
    "relations": [],
    "top20": [
        {
            "id": 51330,
            "original_name": "I ekdikisi tis xanthias",
            "popularity": 0.6
        },
        {
            "id": 51489,
            "original_name": "Cynthia or the Rhythm of Life",
            "popularity": 0.6
        },
        {
            "id": 104392,
            "original_name": "Inthi Nimma Asha",
            "popularity": 0.6
        },
        {
            "id": 109221,
            "original_name": "Quaranthings",
            "popularity": 11.065
        },
        {
            "id": 135454,
            "original_name": "Acesso Total: Corinthians",
            "popularity": 0.6
        }
    ]
}