{
    "data": [
        {
            "id": 39940,
            "original_name": "Intentional Talk",
            "popularity": 0.84
        },
        {
            "id": 46357,
            "original_name": "Detentionaire",
            "popularity": 2.265
        }
    ],
    "relations": [],
    "top20": [
        {
            "id": 39940,
            "original_name": "Intentional Talk",
            "popularity": 0.84
        },
        {
            "id": 46357,
            "original_name": "Detentionaire",
            "popularity": 2.265
        }
    ]
}