{
    "data": [
        {
            "id": 43641,
            "original_name": "AntiTV",
            "popularity": 0.6
        }
    ],
    "relations": [],
    "top20": [
        {
            "id": 43641,
            "original_name": "AntiTV",
            "popularity": 0.6
        }
    ]
}