{
    "data": [
        {
            "id": 39106,
            "original_name": "NTSF:SD:SUV::",
            "popularity": 6.577
        }
    ],
    "relations": [],
    "top20": [
        {
            "id": 39106,
            "original_name": "NTSF:SD:SUV::",
            "popularity": 6.577
        }
    ]
}