{
    "data": [
        {
            "id": 1348,
            "original_name": "Century Sonny",
            "popularity": 0.6
        },
        {
            "id": 2443,
            "original_name": "Buck Rogers in the 25th Century",
            "popularity": 22.635
        },
        {
            "id": 2588,
            "original_name": "Sale of the Century",
            "popularity": 0.6
        },
        {
            "id": 2634,
            "original_name": "Century Falls",
            "popularity": 1.128
        },
        {
            "id": 4089,
            "original_name": "Peter and Dan Snow: 20th Century Battlefields",
            "popularity": 0.6
        },
        {
            "id": 5028,
            "original_name": "Storm of the Century",
            "popularity": 11.478
        },
        {
            "id": 6355,
            "original_name": "Century City",
            "popularity": 5.411
        },
        {
            "id": 6713,
            "original_name": "James May's 20th Century",
            "popularity": 1.022
        },
        {
            "id": 7620,
            "original_name": "Travellers' Century",
            "popularity": 0.6
        },
        {
            "id": 8446,
            "original_name": "Disasters of the Century",
            "popularity": 0.6
        },
        {
            "id": 9225,
            "original_name": "Lost Animals of the 20th Century",
            "popularity": 0.6
        },
        {
            "id": 9235,
            "original_name": "People's Century",
            "popularity": 0.6
        },
        {
            "id": 9975,
            "original_name": "Sale of the Century",
            "popularity": 0.6
        },
        {
            "id": 10429,
            "original_name": "SportsCentury",
            "popularity": 2.843
        },
        {
            "id": 10642,
            "original_name": "The 20th Century Fox Hour",
            "popularity": 10.63
        },
        {
            "id": 10684,
            "original_name": "Sherlock Holmes in the 22nd Century",
            "popularity": 2.69
        },
        {
            "id": 11694,
            "original_name": "Sale of the Century",
            "popularity": 3.368
        },
        {
            "id": 13805,
            "original_name": "A Girl's Guide to 21st Century Sex",
            "popularity": 8.548
        },
        {
            "id": 17269,
            "original_name": "A Century of Women",
            "popularity": 0.6
        },
        {
            "id": 17989,
            "original_name": "The Living Century",
            "popularity": 0.6
        },
        {
            "id": 18285,
            "original_name": "Century Witness",
            "popularity": 0.6
        },
        {
            "id": 18889,
            "original_name": "The Great War and the Shaping of the 20th Century",
            "popularity": 2.235
        },
        {
            "id": 18915,
            "original_name": "I'll Make Me a World: A Century of African-American Arts",
            "popularity": 0.6
        },
        {
            "id": 19048,
            "original_name": "She's Nobody's Baby: The History of American Women in the 20th Century",
            "popularity": 0.6
        },
        {
            "id": 19194,
            "original_name": "The Twentieth Century",
            "popularity": 12.959
        },
        {
            "id": 20874,
            "original_name": "War of the Century",
            "popularity": 1.312
        },
        {
            "id": 20896,
            "original_name": "The Century: America's Time",
            "popularity": 0.6
        },
        {
            "id": 20936,
            "original_name": "Fame in the 20th Century",
            "popularity": 0.6
        },
        {
            "id": 20944,
            "original_name": "The Pacific Century",
            "popularity": 0.6
        },
        {
            "id": 21342,
            "original_name": "A Walk Through the 20th Century With Bill Moyers",
            "popularity": 0.6
        },
        {
            "id": 21560,
            "original_name": "Stories of the Century",
            "popularity": 2.507
        },
        {
            "id": 22509,
            "original_name": "This Fabulous Century",
            "popularity": 0.6
        },
        {
            "id": 24246,
            "original_name": "Love in the 21st Century",
            "popularity": 2.309
        },
        {
            "id": 26319,
            "original_name": "Schaefer Century Theater",
            "popularity": 0.6
        },
        {
            "id": 26594,
            "original_name": "Massive Landmarks Of The Twentieth Century",
            "popularity": 0.6
        },
        {
            "id": 27164,
            "original_name": "22nd Century",
            "popularity": 0.6
        },
        {
            "id": 29120,
            "original_name": "20th Century Roadshow",
            "popularity": 0.6
        },
        {
            "id": 29128,
            "original_name": "The Almost Complete History of the 20th Century",
            "popularity": 1.4
        },
        {
            "id": 30556,
            "original_name": "1914-18: The Great War and the Shaping of the 20th Century",
            "popularity": 0.6
        },
        {
            "id": 31748,
            "original_name": "The Century of Warfare",
            "popularity": 0.626
        },
        {
            "id": 32375,
            "original_name": "21st Century",
            "popularity": 0.6
        },
        {
            "id": 44471,
            "original_name": "Century of Country",
            "popularity": 0.6
        },
        {
            "id": 44954,
            "original_name": "21st Century Child",
            "popularity": 0.6
        },
        {
            "id": 45478,
            "original_name": "The Century",
            "popularity": 0.6
        },
        {
            "id": 47166,
            "original_name": "Crime of the Century",
            "popularity": 0.6
        },
        {
            "id": 47504,
            "original_name": "20th Century Greats",
            "popularity": 1.978
        },
        {
            "id": 47859,
            "original_name": "20th Century Box",
            "popularity": 0.6
        },
        {
            "id": 48819,
            "original_name": "Eubie Blake: A Century of Music Kennedy Center Tonight",
            "popularity": 0.6
        },
        {
            "id": 52073,
            "original_name": "Texaco Presents: A Quarter Century of Bob Hope on Television",
            "popularity": 0.6
        },
        {
            "id": 53141,
            "original_name": "Love and Marriage - A 20th Century Romance",
            "popularity": 0.6
        },
        {
            "id": 55740,
            "original_name": "The Sound and the Fury: A Century of Music",
            "popularity": 0.6
        },
        {
            "id": 55849,
            "original_name": "The Century that Wrote Itself",
            "popularity": 0.6
        },
        {
            "id": 60014,
            "original_name": "Harlots, Housewives and Heroines: A 17th Century History for Girls",
            "popularity": 0.6
        },
        {
            "id": 60399,
            "original_name": "Generations: A Century on the Siksika Reserve",
            "popularity": 0.6
        },
        {
            "id": 64616,
            "original_name": "That's So Last Century",
            "popularity": 0.6
        },
        {
            "id": 71901,
            "original_name": "The 101 Who Made The Twentieth Century",
            "popularity": 0.6
        },
        {
            "id": 75770,
            "original_name": "The Century of the Self",
            "popularity": 5.312
        },
        {
            "id": 76095,
            "original_name": "20th Century with Mike Wallace",
            "popularity": 1.091
        },
        {
            "id": 79179,
            "original_name": "The Roman Empire in the First Century",
            "popularity": 0.6
        },
        {
            "id": 81196,
            "original_name": "A Century With Cars",
            "popularity": 0.6
        },
        {
            "id": 82610,
            "original_name": "Explorers: Adventures of the Century",
            "popularity": 0.849
        },
        {
            "id": 84005,
            "original_name": "21st Century Serial Killer",
            "popularity": 0.671
        },
        {
            "id": 84091,
            "original_name": "A Century of Fatherhood",
            "popularity": 0.6
        },
        {
            "id": 85406,
            "original_name": "21st Century War Machines",
            "popularity": 0.6
        },
        {
            "id": 85711,
            "original_name": "A Century of Royal Dutch Shell",
            "popularity": 0.62
        },
        {
            "id": 85934,
            "original_name": "Witch Hunt: A Century of Murder",
            "popularity": 0.6
        },
        {
            "id": 91428,
            "original_name": "101 Events That Made The 20th Century",
            "popularity": 0.6
        },
        {
            "id": 96656,
            "original_name": "Great Mysteries and Myths of the Twentieth Century",
            "popularity": 0.6
        },
        {
            "id": 99965,
            "original_name": "Crimes of the Century",
            "popularity": 0.6
        },
        {
            "id": 113665,
            "original_name": "Encyclopedia of the 20th Century, Days that shook the world",
            "popularity": 0.6
        },
        {
            "id": 114658,
            "original_name": "The Asian Century",
            "popularity": 0.6
        },
        {
            "id": 115643,
            "original_name": "Stephen Fry\u2019s 21st Century Firsts",
            "popularity": 0.644
        },
        {
            "id": 116555,
            "original_name": "Celebrity: A 21st Century Story",
            "popularity": 0.6
        },
        {
            "id": 117048,
            "original_name": "16th & 17th Century Turning Points in U.S. History",
            "popularity": 0.6
        },
        {
            "id": 117049,
            "original_name": "18th Century Turning Points in U.S. History",
            "popularity": 1.341
        },
        {
            "id": 117050,
            "original_name": "19th Century Turning Points in U.S. History",
            "popularity": 0.6
        },
        {
            "id": 117051,
            "original_name": "20th Century Turning Points in U.S. History",
            "popularity": 0.6
        },
        {
            "id": 117052,
            "original_name": "21st Century Turning Points in U.S. History",
            "popularity": 0.6
        },
        {
            "id": 117068,
            "original_name": "America in the 20th Century",
            "popularity": 0.6
        },
        {
            "id": 119142,
            "original_name": "The Crime of the Century",
            "popularity": 2.952
        },
        {
            "id": 126586,
            "original_name": "The Big Boss: A 21st Century Criminal",
            "popularity": 0.6
        },
        {
            "id": 137375,
            "original_name": "The Storm of the Century",
            "popularity": 0.6
        }
    ],
    "relations": [],
    "top20": [
        {
            "id": 2443,
            "original_name": "Buck Rogers in the 25th Century",
            "popularity": 22.635
        },
        {
            "id": 19194,
            "original_name": "The Twentieth Century",
            "popularity": 12.959
        },
        {
            "id": 5028,
            "original_name": "Storm of the Century",
            "popularity": 11.478
        },
        {
            "id": 10642,
            "original_name": "The 20th Century Fox Hour",
            "popularity": 10.63
        },
        {
            "id": 13805,
            "original_name": "A Girl's Guide to 21st Century Sex",
            "popularity": 8.548
        },
        {
            "id": 6355,
            "original_name": "Century City",
            "popularity": 5.411
        },
        {
            "id": 75770,
            "original_name": "The Century of the Self",
            "popularity": 5.312
        },
        {
            "id": 11694,
            "original_name": "Sale of the Century",
            "popularity": 3.368
        },
        {
            "id": 119142,
            "original_name": "The Crime of the Century",
            "popularity": 2.952
        },
        {
            "id": 10429,
            "original_name": "SportsCentury",
            "popularity": 2.843
        },
        {
            "id": 10684,
            "original_name": "Sherlock Holmes in the 22nd Century",
            "popularity": 2.69
        },
        {
            "id": 21560,
            "original_name": "Stories of the Century",
            "popularity": 2.507
        },
        {
            "id": 24246,
            "original_name": "Love in the 21st Century",
            "popularity": 2.309
        },
        {
            "id": 18889,
            "original_name": "The Great War and the Shaping of the 20th Century",
            "popularity": 2.235
        },
        {
            "id": 47504,
            "original_name": "20th Century Greats",
            "popularity": 1.978
        },
        {
            "id": 29128,
            "original_name": "The Almost Complete History of the 20th Century",
            "popularity": 1.4
        },
        {
            "id": 117049,
            "original_name": "18th Century Turning Points in U.S. History",
            "popularity": 1.341
        },
        {
            "id": 20874,
            "original_name": "War of the Century",
            "popularity": 1.312
        },
        {
            "id": 2634,
            "original_name": "Century Falls",
            "popularity": 1.128
        },
        {
            "id": 76095,
            "original_name": "20th Century with Mike Wallace",
            "popularity": 1.091
        }
    ]
}