{
    "data": [
        {
            "id": 12646,
            "original_name": "Nuansa Pagi",
            "popularity": 0.6
        },
        {
            "id": 97682,
            "original_name": "Ranuan kummit",
            "popularity": 1.074
        },
        {
            "id": 97960,
            "original_name": "50 Nuances de Grecs",
            "popularity": 2.401
        }
    ],
    "relations": [],
    "top20": [
        {
            "id": 12646,
            "original_name": "Nuansa Pagi",
            "popularity": 0.6
        },
        {
            "id": 97682,
            "original_name": "Ranuan kummit",
            "popularity": 1.074
        },
        {
            "id": 97960,
            "original_name": "50 Nuances de Grecs",
            "popularity": 2.401
        }
    ]
}