{
    "data": [
        {
            "id": 51333,
            "original_name": "Khanuengha 240 Wan Mai Tun Ham Jai",
            "popularity": 0.6
        },
        {
            "id": 51993,
            "original_name": "Nueng Nai Suang",
            "popularity": 0.6
        },
        {
            "id": 71358,
            "original_name": "Wannueng Jaa Pben Superstar",
            "popularity": 0.6
        }
    ],
    "relations": [],
    "top20": [
        {
            "id": 51333,
            "original_name": "Khanuengha 240 Wan Mai Tun Ham Jai",
            "popularity": 0.6
        },
        {
            "id": 51993,
            "original_name": "Nueng Nai Suang",
            "popularity": 0.6
        },
        {
            "id": 71358,
            "original_name": "Wannueng Jaa Pben Superstar",
            "popularity": 0.6
        }
    ]
}