{
    "data": [
        {
            "id": 5317,
            "original_name": "Nurses",
            "popularity": 6.226
        },
        {
            "id": 5641,
            "original_name": "Nursery Rhymes",
            "popularity": 0.6
        },
        {
            "id": 7357,
            "original_name": "Nuremberg: Nazis on Trial",
            "popularity": 2.836
        },
        {
            "id": 7389,
            "original_name": "Nuremberg",
            "popularity": 10.247
        },
        {
            "id": 11955,
            "original_name": "RAN Remote Area Nurse",
            "popularity": 1.342
        },
        {
            "id": 13898,
            "original_name": "The District Nurse",
            "popularity": 1.23
        },
        {
            "id": 14431,
            "original_name": "The Nurses",
            "popularity": 0.6
        },
        {
            "id": 16800,
            "original_name": "Doctors and Nurses",
            "popularity": 1.229
        },
        {
            "id": 18053,
            "original_name": "Nurse Jackie",
            "popularity": 16.937
        },
        {
            "id": 18480,
            "original_name": "The Nurses",
            "popularity": 2.667
        },
        {
            "id": 20443,
            "original_name": "Nurse TV",
            "popularity": 0.6
        },
        {
            "id": 22126,
            "original_name": "Nurse",
            "popularity": 3.409
        },
        {
            "id": 22656,
            "original_name": "Janet Dean, Registered Nurse",
            "popularity": 0.6
        },
        {
            "id": 24334,
            "original_name": "Nursery School Time",
            "popularity": 0.6
        },
        {
            "id": 26414,
            "original_name": "Create Your Baby's Nursery",
            "popularity": 0.6
        },
        {
            "id": 26666,
            "original_name": "Nurses (AU)",
            "popularity": 0.924
        },
        {
            "id": 29284,
            "original_name": "Doctors and Nurses at War",
            "popularity": 0.6
        },
        {
            "id": 33685,
            "original_name": "Nursery School Time",
            "popularity": 0.6
        },
        {
            "id": 33722,
            "original_name": "Nurse Jeffrey",
            "popularity": 1.42
        },
        {
            "id": 34199,
            "original_name": "Nurse Angel Ririka SOS",
            "popularity": 1.954
        },
        {
            "id": 38304,
            "original_name": "Mr Bloom's Nursery",
            "popularity": 0.88
        },
        {
            "id": 39835,
            "original_name": "Albert sagt\u2026 Natur \u2013 aber nur!",
            "popularity": 0.6
        },
        {
            "id": 41447,
            "original_name": "Nur Kasih",
            "popularity": 0.6
        },
        {
            "id": 43852,
            "original_name": "NurseTV",
            "popularity": 0.6
        },
        {
            "id": 50816,
            "original_name": "Nuri",
            "popularity": 0.6
        },
        {
            "id": 51124,
            "original_name": "Snurre Snups S\u00f8ndagsklub",
            "popularity": 0.6
        },
        {
            "id": 52615,
            "original_name": "Datuk Siti Nurhaliza bersama Idola Kecil 3",
            "popularity": 0.6
        },
        {
            "id": 52618,
            "original_name": "Konsert Sesuci Lebaran Datuk Siti Nurhaliza",
            "popularity": 0.6
        },
        {
            "id": 52619,
            "original_name": "Citarasa Bersama Dato' Siti Nurhaliza",
            "popularity": 0.6
        },
        {
            "id": 52620,
            "original_name": "Teratak Siti Nurhaliza",
            "popularity": 0.6
        },
        {
            "id": 52621,
            "original_name": "Rendezvouz with Siti Nurhaliza & Erwin Gutawa",
            "popularity": 0.6
        },
        {
            "id": 52622,
            "original_name": "Konsert Idul Fitri Siti Nurhaliza",
            "popularity": 0.6
        },
        {
            "id": 52623,
            "original_name": "Konsert Fenomena Siti Nurhaliza & Saiful Apek",
            "popularity": 0.6
        },
        {
            "id": 52625,
            "original_name": "Siaran Langsung Perkahwinan Siti Nurhaliza & Datuk K",
            "popularity": 0.6
        },
        {
            "id": 52629,
            "original_name": "Siti Nurhaliza \u2013 Indonesian Tour",
            "popularity": 0.6
        },
        {
            "id": 52631,
            "original_name": "Konsert Akustik Siti Nurhaliza",
            "popularity": 0.6
        },
        {
            "id": 52632,
            "original_name": "Eksklusif Melanesia Siti Nurhaliza",
            "popularity": 0.6
        },
        {
            "id": 52633,
            "original_name": "Siti Nurhaliza Special",
            "popularity": 0.6
        },
        {
            "id": 52634,
            "original_name": "Sang Idola Siti Nurhaliza",
            "popularity": 0.6
        },
        {
            "id": 53174,
            "original_name": "Nurhaliza",
            "popularity": 0.6
        },
        {
            "id": 54108,
            "original_name": "Sitti Nurbaya",
            "popularity": 0.6
        },
        {
            "id": 55666,
            "original_name": "Nursing the Nation",
            "popularity": 0.6
        },
        {
            "id": 55729,
            "original_name": "Mr Bloom's Nursery Get Set Grow",
            "popularity": 0.6
        },
        {
            "id": 58673,
            "original_name": "Nureyev",
            "popularity": 0.6
        },
        {
            "id": 62164,
            "original_name": "Nurse",
            "popularity": 1.373
        },
        {
            "id": 63047,
            "original_name": "Wir sind auch nur ein Volk",
            "popularity": 1.532
        },
        {
            "id": 68995,
            "original_name": "Efteling: De Opening van Aquanura",
            "popularity": 0.6
        },
        {
            "id": 73213,
            "original_name": "Nurses Who Kill",
            "popularity": 1.432
        },
        {
            "id": 76451,
            "original_name": "Nur eine kleine Aff\u00e4re",
            "popularity": 1.064
        },
        {
            "id": 82291,
            "original_name": "Jede Woche hat nur einen Sonntag",
            "popularity": 0.992
        },
        {
            "id": 84387,
            "original_name": "Disney Junior Music Nursery Rhymes",
            "popularity": 1.4
        },
        {
            "id": 91003,
            "original_name": "Es kann nur E1NEN geben",
            "popularity": 2.648
        },
        {
            "id": 92610,
            "original_name": "Nur",
            "popularity": 2.22
        },
        {
            "id": 95386,
            "original_name": "Nurses",
            "popularity": 12.29
        },
        {
            "id": 98385,
            "original_name": "Zoo nursery Berlin",
            "popularity": 0.6
        },
        {
            "id": 103676,
            "original_name": "Learning Songs by Little Baby Bum  Nursery Rhyme Friends",
            "popularity": 0.6
        },
        {
            "id": 107630,
            "original_name": "...18 - 20 nur nicht passen",
            "popularity": 1.092
        },
        {
            "id": 110300,
            "original_name": "Play School Nursery Rhyme News Time",
            "popularity": 0.6
        },
        {
            "id": 115100,
            "original_name": "Naughty Nursery",
            "popularity": 0.6
        },
        {
            "id": 120606,
            "original_name": "Britain's Naughtiest Nursery",
            "popularity": 0.6
        },
        {
            "id": 120866,
            "original_name": "Pocoy\u00f3 Nursery Rhymes",
            "popularity": 1.178
        },
        {
            "id": 123511,
            "original_name": "De Nuremberg \u00e0 Nuremberg",
            "popularity": 0.6
        },
        {
            "id": 129413,
            "original_name": "Saving Our Nurses",
            "popularity": 0.6
        },
        {
            "id": 133040,
            "original_name": "Nurses",
            "popularity": 0.6
        }
    ],
    "relations": [
        {
            "character": "nurs"
        },
        {
            "character": "nure"
        },
        {
            "character": "nur!"
        },
        {
            "character": "nuri"
        },
        {
            "character": "nurr"
        },
        {
            "character": "nurh"
        },
        {
            "character": "nurb"
        },
        {
            "character": "nura"
        }
    ],
    "top20": [
        {
            "id": 18053,
            "original_name": "Nurse Jackie",
            "popularity": 16.937
        },
        {
            "id": 95386,
            "original_name": "Nurses",
            "popularity": 12.29
        },
        {
            "id": 7389,
            "original_name": "Nuremberg",
            "popularity": 10.247
        },
        {
            "id": 5317,
            "original_name": "Nurses",
            "popularity": 6.226
        },
        {
            "id": 22126,
            "original_name": "Nurse",
            "popularity": 3.409
        },
        {
            "id": 7357,
            "original_name": "Nuremberg: Nazis on Trial",
            "popularity": 2.836
        },
        {
            "id": 18480,
            "original_name": "The Nurses",
            "popularity": 2.667
        },
        {
            "id": 91003,
            "original_name": "Es kann nur E1NEN geben",
            "popularity": 2.648
        },
        {
            "id": 92610,
            "original_name": "Nur",
            "popularity": 2.22
        },
        {
            "id": 34199,
            "original_name": "Nurse Angel Ririka SOS",
            "popularity": 1.954
        },
        {
            "id": 63047,
            "original_name": "Wir sind auch nur ein Volk",
            "popularity": 1.532
        },
        {
            "id": 73213,
            "original_name": "Nurses Who Kill",
            "popularity": 1.432
        },
        {
            "id": 33722,
            "original_name": "Nurse Jeffrey",
            "popularity": 1.42
        },
        {
            "id": 84387,
            "original_name": "Disney Junior Music Nursery Rhymes",
            "popularity": 1.4
        },
        {
            "id": 62164,
            "original_name": "Nurse",
            "popularity": 1.373
        },
        {
            "id": 11955,
            "original_name": "RAN Remote Area Nurse",
            "popularity": 1.342
        },
        {
            "id": 13898,
            "original_name": "The District Nurse",
            "popularity": 1.23
        },
        {
            "id": 16800,
            "original_name": "Doctors and Nurses",
            "popularity": 1.229
        },
        {
            "id": 120866,
            "original_name": "Pocoy\u00f3 Nursery Rhymes",
            "popularity": 1.178
        },
        {
            "id": 107630,
            "original_name": "...18 - 20 nur nicht passen",
            "popularity": 1.092
        }
    ]
}