{
    "data": [
        {
            "id": 3042,
            "original_name": "Far Out Space Nuts",
            "popularity": 1.3
        },
        {
            "id": 4509,
            "original_name": "Nuts Entertainment",
            "popularity": 0.6
        },
        {
            "id": 14205,
            "original_name": "Nuts and Bolts",
            "popularity": 0.6
        },
        {
            "id": 20352,
            "original_name": "Playing for Peanuts",
            "popularity": 0.6
        },
        {
            "id": 22060,
            "original_name": "May Contain Nuts",
            "popularity": 0.666
        },
        {
            "id": 22700,
            "original_name": "Assaulted Nuts",
            "popularity": 0.84
        },
        {
            "id": 23321,
            "original_name": "Nuts Entertainment",
            "popularity": 0.6
        },
        {
            "id": 26580,
            "original_name": "WingNuts",
            "popularity": 0.6
        },
        {
            "id": 33856,
            "original_name": "Peanuts and Popcorn",
            "popularity": 1.34
        },
        {
            "id": 35766,
            "original_name": "Tough Nuts: Australia's Hardest Criminals",
            "popularity": 0.844
        },
        {
            "id": 36317,
            "original_name": "Gun Nuts",
            "popularity": 0.6
        },
        {
            "id": 38805,
            "original_name": "Will Work For Nuts",
            "popularity": 0.6
        },
        {
            "id": 39713,
            "original_name": "Roseanne's Nuts",
            "popularity": 0.883
        },
        {
            "id": 41697,
            "original_name": "6abc Dunkin' Donuts Thanksgiving Day Parade",
            "popularity": 0.6
        },
        {
            "id": 46854,
            "original_name": "Caution: May Contain Nuts",
            "popularity": 0.6
        },
        {
            "id": 59389,
            "original_name": "Assaulted Nuts",
            "popularity": 0.6
        },
        {
            "id": 66514,
            "original_name": "Peanuts",
            "popularity": 2.985
        },
        {
            "id": 69632,
            "original_name": "Superior Donuts",
            "popularity": 10.147
        },
        {
            "id": 72703,
            "original_name": "Nuts + Bolts",
            "popularity": 0.631
        },
        {
            "id": 93461,
            "original_name": "Peanuts Motion Comics",
            "popularity": 0.667
        },
        {
            "id": 94600,
            "original_name": "Kurzgesagt - In a Nutshell",
            "popularity": 9.944
        },
        {
            "id": 96688,
            "original_name": "Amazing Nuts!",
            "popularity": 0.902
        },
        {
            "id": 98128,
            "original_name": "PEANUTS \u30b9\u30cc\u30fc\u30d4\u30fc \u30b7\u30e7\u30fc\u30c8\u30a2\u30cb\u30e1",
            "popularity": 0.6
        },
        {
            "id": 100558,
            "original_name": "Nuts Nuts Nuts",
            "popularity": 0.6
        },
        {
            "id": 122904,
            "original_name": "The Nutshack",
            "popularity": 0.6
        }
    ],
    "relations": [
        {
            "character": "nutsh"
        },
        {
            "character": "nuts!"
        }
    ],
    "top20": [
        {
            "id": 69632,
            "original_name": "Superior Donuts",
            "popularity": 10.147
        },
        {
            "id": 94600,
            "original_name": "Kurzgesagt - In a Nutshell",
            "popularity": 9.944
        },
        {
            "id": 66514,
            "original_name": "Peanuts",
            "popularity": 2.985
        },
        {
            "id": 33856,
            "original_name": "Peanuts and Popcorn",
            "popularity": 1.34
        },
        {
            "id": 3042,
            "original_name": "Far Out Space Nuts",
            "popularity": 1.3
        },
        {
            "id": 96688,
            "original_name": "Amazing Nuts!",
            "popularity": 0.902
        },
        {
            "id": 39713,
            "original_name": "Roseanne's Nuts",
            "popularity": 0.883
        },
        {
            "id": 35766,
            "original_name": "Tough Nuts: Australia's Hardest Criminals",
            "popularity": 0.844
        },
        {
            "id": 22700,
            "original_name": "Assaulted Nuts",
            "popularity": 0.84
        },
        {
            "id": 93461,
            "original_name": "Peanuts Motion Comics",
            "popularity": 0.667
        },
        {
            "id": 22060,
            "original_name": "May Contain Nuts",
            "popularity": 0.666
        },
        {
            "id": 72703,
            "original_name": "Nuts + Bolts",
            "popularity": 0.631
        },
        {
            "id": 4509,
            "original_name": "Nuts Entertainment",
            "popularity": 0.6
        },
        {
            "id": 36317,
            "original_name": "Gun Nuts",
            "popularity": 0.6
        },
        {
            "id": 26580,
            "original_name": "WingNuts",
            "popularity": 0.6
        },
        {
            "id": 14205,
            "original_name": "Nuts and Bolts",
            "popularity": 0.6
        },
        {
            "id": 20352,
            "original_name": "Playing for Peanuts",
            "popularity": 0.6
        },
        {
            "id": 23321,
            "original_name": "Nuts Entertainment",
            "popularity": 0.6
        },
        {
            "id": 41697,
            "original_name": "6abc Dunkin' Donuts Thanksgiving Day Parade",
            "popularity": 0.6
        },
        {
            "id": 38805,
            "original_name": "Will Work For Nuts",
            "popularity": 0.6
        }
    ]
}