{
    "data": [
        {
            "id": 37163,
            "original_name": "Conveyor Belt of Love",
            "popularity": 0.6
        }
    ],
    "relations": [],
    "top20": [
        {
            "id": 37163,
            "original_name": "Conveyor Belt of Love",
            "popularity": 0.6
        }
    ]
}