{
    "data": [
        {
            "id": 80277,
            "original_name": "Invizimals",
            "popularity": 1.13
        }
    ],
    "relations": [],
    "top20": [
        {
            "id": 80277,
            "original_name": "Invizimals",
            "popularity": 1.13
        }
    ]
}