{
    "data": [
        {
            "id": 40561,
            "original_name": "K\u00fcstenwache",
            "popularity": 26.357
        }
    ],
    "relations": [],
    "top20": [
        {
            "id": 40561,
            "original_name": "K\u00fcstenwache",
            "popularity": 26.357
        }
    ]
}