{
    "data": [
        {
            "id": 69558,
            "original_name": "N\u00f3s crian\u00e7as de M\u00f6wenweg",
            "popularity": 0.6
        }
    ],
    "relations": [],
    "top20": [
        {
            "id": 69558,
            "original_name": "N\u00f3s crian\u00e7as de M\u00f6wenweg",
            "popularity": 0.6
        }
    ]
}