{
    "data": [
        {
            "id": 40959,
            "original_name": "Ein ehrenwertes Haus",
            "popularity": 1.091
        },
        {
            "id": 81552,
            "original_name": "Finkenwerder Geschichten",
            "popularity": 1.4
        }
    ],
    "relations": [],
    "top20": [
        {
            "id": 40959,
            "original_name": "Ein ehrenwertes Haus",
            "popularity": 1.091
        },
        {
            "id": 81552,
            "original_name": "Finkenwerder Geschichten",
            "popularity": 1.4
        }
    ]
}