{
    "data": [
        {
            "id": 123742,
            "original_name": "Rindu Awak Separuh Nyawa",
            "popularity": 2.312
        }
    ],
    "relations": [],
    "top20": [
        {
            "id": 123742,
            "original_name": "Rindu Awak Separuh Nyawa",
            "popularity": 2.312
        }
    ]
}