{
    "data": [
        {
            "id": 7977,
            "original_name": "Anonymous",
            "popularity": 0.6
        },
        {
            "id": 25610,
            "original_name": "Roger Doesn't Live Here Anymore",
            "popularity": 0.6
        },
        {
            "id": 28410,
            "original_name": "Anonymous",
            "popularity": 1.093
        },
        {
            "id": 43325,
            "original_name": "Rag Nymph",
            "popularity": 1.701
        },
        {
            "id": 55588,
            "original_name": "Geeks and Gamers Anonymous",
            "popularity": 0.6
        },
        {
            "id": 62329,
            "original_name": "Nymfit",
            "popularity": 5.813
        },
        {
            "id": 118750,
            "original_name": "Pod wsp\u00f3lnym niebem",
            "popularity": 0.6
        },
        {
            "id": 119596,
            "original_name": "Bar Pod Z\u0142amanym Skrzyd\u0142em",
            "popularity": 0.6
        },
        {
            "id": 121025,
            "original_name": "Anonymous",
            "popularity": 0.726
        },
        {
            "id": 122670,
            "original_name": "AnyMoodys",
            "popularity": 0.6
        }
    ],
    "relations": [],
    "top20": [
        {
            "id": 7977,
            "original_name": "Anonymous",
            "popularity": 0.6
        },
        {
            "id": 25610,
            "original_name": "Roger Doesn't Live Here Anymore",
            "popularity": 0.6
        },
        {
            "id": 28410,
            "original_name": "Anonymous",
            "popularity": 1.093
        },
        {
            "id": 43325,
            "original_name": "Rag Nymph",
            "popularity": 1.701
        },
        {
            "id": 55588,
            "original_name": "Geeks and Gamers Anonymous",
            "popularity": 0.6
        },
        {
            "id": 62329,
            "original_name": "Nymfit",
            "popularity": 5.813
        },
        {
            "id": 118750,
            "original_name": "Pod wsp\u00f3lnym niebem",
            "popularity": 0.6
        },
        {
            "id": 119596,
            "original_name": "Bar Pod Z\u0142amanym Skrzyd\u0142em",
            "popularity": 0.6
        },
        {
            "id": 121025,
            "original_name": "Anonymous",
            "popularity": 0.726
        },
        {
            "id": 122670,
            "original_name": "AnyMoodys",
            "popularity": 0.6
        }
    ]
}