{
    "data": [
        {
            "id": 1170,
            "original_name": "InZer0",
            "popularity": 0.6
        },
        {
            "id": 11863,
            "original_name": "Aktenzeichen XY \u2026 ungel\u00f6st",
            "popularity": 53.257
        },
        {
            "id": 35944,
            "original_name": "Pengo! Steinzeit!",
            "popularity": 0.6
        },
        {
            "id": 36174,
            "original_name": "Grenzeloos verliefd",
            "popularity": 0.84
        },
        {
            "id": 38821,
            "original_name": "Ron's grote ganzenbord",
            "popularity": 0.6
        },
        {
            "id": 41003,
            "original_name": "Monaco Franze",
            "popularity": 2.705
        },
        {
            "id": 41366,
            "original_name": "Der Winzerk\u00f6nig",
            "popularity": 2.378
        },
        {
            "id": 48145,
            "original_name": "Times Of Bronze And Jade",
            "popularity": 0.6
        },
        {
            "id": 48863,
            "original_name": "Peter Panzerfaust",
            "popularity": 0.84
        },
        {
            "id": 52888,
            "original_name": "Benzemez Kimse Sana",
            "popularity": 0.6
        },
        {
            "id": 53684,
            "original_name": "Benzemez Kimse Sana",
            "popularity": 0.6
        },
        {
            "id": 60668,
            "original_name": "Dagboek van Onze Helden",
            "popularity": 0.6
        },
        {
            "id": 60817,
            "original_name": "Kenzen Robo Daimidaler",
            "popularity": 5.158
        },
        {
            "id": 61837,
            "original_name": "Zwei Halbe sind noch lange kein Ganzes",
            "popularity": 1.263
        },
        {
            "id": 61947,
            "original_name": "Chinas Grenzen",
            "popularity": 0.6
        },
        {
            "id": 62525,
            "original_name": "Im Krug zum gr\u00fcnen Kranze",
            "popularity": 0.6
        },
        {
            "id": 63572,
            "original_name": "Donauprinzessin",
            "popularity": 1.995
        },
        {
            "id": 63973,
            "original_name": "Es geschah an der Grenze",
            "popularity": 1.96
        },
        {
            "id": 64022,
            "original_name": "Prinzessin Lillifee",
            "popularity": 0.6
        },
        {
            "id": 64148,
            "original_name": "Onze man in Teheran",
            "popularity": 0.853
        },
        {
            "id": 64611,
            "original_name": "Toate p\u00eenzele sus",
            "popularity": 0.746
        },
        {
            "id": 65226,
            "original_name": "Professione vacanze",
            "popularity": 0.803
        },
        {
            "id": 66447,
            "original_name": "Il mostro di Firenze",
            "popularity": 2.83
        },
        {
            "id": 66554,
            "original_name": "Beutolom\u00e4us und die Prinzessin",
            "popularity": 1.212
        },
        {
            "id": 68762,
            "original_name": "Conv\u00e9nZeme",
            "popularity": 0.638
        },
        {
            "id": 70047,
            "original_name": "Rapunzel's Tangled Adventure",
            "popularity": 26.763
        },
        {
            "id": 70978,
            "original_name": "Janzen &amp; van Dijk: voor al uw bruiloften en partijen",
            "popularity": 0.6
        },
        {
            "id": 74155,
            "original_name": "Zorc \u2013 Der Mann ohne Grenzen",
            "popularity": 0.633
        },
        {
            "id": 75536,
            "original_name": "Adieu mes quinze ans",
            "popularity": 0.665
        },
        {
            "id": 75602,
            "original_name": "\u00dcber die Grenze",
            "popularity": 1.747
        },
        {
            "id": 75972,
            "original_name": "Onze missie in Afghanistan",
            "popularity": 0.6
        },
        {
            "id": 77139,
            "original_name": "Yesterday - vacanze al mare",
            "popularity": 1.293
        },
        {
            "id": 77850,
            "original_name": "Curious Minds: The Bronze Age",
            "popularity": 0.6
        },
        {
            "id": 79924,
            "original_name": "Sing meinen Song \u2013 Das Tauschkonzert",
            "popularity": 3.882
        },
        {
            "id": 80284,
            "original_name": "Kennzeichen Rosa Nelke",
            "popularity": 0.84
        },
        {
            "id": 80780,
            "original_name": "Wir sind das Volk - Liebe kennt keine Grenzen",
            "popularity": 1.551
        },
        {
            "id": 80833,
            "original_name": "Das Dorf an der Grenze",
            "popularity": 0.6
        },
        {
            "id": 81445,
            "original_name": "Die Eisprinzessin",
            "popularity": 0.6
        },
        {
            "id": 81770,
            "original_name": "Grenzenlos \u2013 Die Welt entdecken",
            "popularity": 0.622
        },
        {
            "id": 81833,
            "original_name": "Hart an der Grenze",
            "popularity": 0.6
        },
        {
            "id": 84429,
            "original_name": "Kaya Yanar & Paul Panzer - Stars bei der Arbeit",
            "popularity": 2.304
        },
        {
            "id": 84430,
            "original_name": "Paul Panzers Comedy Spieleabend",
            "popularity": 1.142
        },
        {
            "id": 84431,
            "original_name": "Paul Panzers 33",
            "popularity": 0.6
        },
        {
            "id": 85998,
            "original_name": "Die Seilt\u00e4nzer",
            "popularity": 0.84
        },
        {
            "id": 86518,
            "original_name": "Spiel ohne Grenzen",
            "popularity": 0.621
        },
        {
            "id": 87943,
            "original_name": "Panzer!",
            "popularity": 0.6
        },
        {
            "id": 89037,
            "original_name": "Panzerkrieg gegen Hitler",
            "popularity": 0.6
        },
        {
            "id": 89222,
            "original_name": "L'Aquila - Grandi speranze",
            "popularity": 2.212
        },
        {
            "id": 89568,
            "original_name": "Garantiert unzensiert",
            "popularity": 0.6
        },
        {
            "id": 93414,
            "original_name": "Roter Stahl - Der Panzer-Clan",
            "popularity": 0.648
        },
        {
            "id": 93917,
            "original_name": "Missie F-16: onze strijd tegen terrorisme",
            "popularity": 1.359
        },
        {
            "id": 94351,
            "original_name": "R\u00e4tsel der Steinzeit",
            "popularity": 0.6
        },
        {
            "id": 104856,
            "original_name": "Die Steinzeitkinder",
            "popularity": 0.6
        },
        {
            "id": 105674,
            "original_name": "J\u00f4 Soares Onze e Meia",
            "popularity": 0.6
        },
        {
            "id": 106337,
            "original_name": "Das Sonntagskonzert",
            "popularity": 1.748
        },
        {
            "id": 108449,
            "original_name": "Panzer \u2013 Mythos und Wahrheit",
            "popularity": 0.6
        },
        {
            "id": 113659,
            "original_name": "Onze boerderij",
            "popularity": 5.972
        },
        {
            "id": 115540,
            "original_name": "Geh aufs Ganze!",
            "popularity": 0.6
        },
        {
            "id": 116469,
            "original_name": "Onze Straat",
            "popularity": 0.843
        },
        {
            "id": 117838,
            "original_name": "Nicolette \u2013 Unzensiert und ungeniert!",
            "popularity": 0.6
        },
        {
            "id": 119401,
            "original_name": "Linzer Eiszauber",
            "popularity": 0.6
        },
        {
            "id": 119489,
            "original_name": "Kat Zonder Grenzen",
            "popularity": 0.6
        },
        {
            "id": 120255,
            "original_name": "Voorbij de grenzen van Saoedi-Arabi\u00eb",
            "popularity": 0.6
        },
        {
            "id": 121182,
            "original_name": "Onze boerderij in Europa",
            "popularity": 0.921
        },
        {
            "id": 121790,
            "original_name": "Grenzenlos - Das 3-L\u00e4nder-Magazin",
            "popularity": 1.341
        },
        {
            "id": 126710,
            "original_name": "\u00dcber Grenzen - mit Vollgas in den Ruhestand",
            "popularity": 0.6
        },
        {
            "id": 131917,
            "original_name": "Einfach unzertrennlich",
            "popularity": 0.6
        },
        {
            "id": 132896,
            "original_name": "Unzensiert",
            "popularity": 2.136
        },
        {
            "id": 135392,
            "original_name": "Benzemez Kimse Bize",
            "popularity": 0.84
        },
        {
            "id": 135490,
            "original_name": "Sing meinen Song - Das Schweizer Tauschkonzert",
            "popularity": 0.6
        },
        {
            "id": 135778,
            "original_name": "Famke & Denzel",
            "popularity": 0.6
        },
        {
            "id": 137359,
            "original_name": "Unzensiert \u2013 Bushido\u2019s Wahrheit",
            "popularity": 8.007
        },
        {
            "id": 137938,
            "original_name": "Rescued Chimpanzees of the Congo with Jane Goodall",
            "popularity": 0.6
        },
        {
            "id": 152522,
            "original_name": "Over Grenzen",
            "popularity": 1.96
        }
    ],
    "relations": [
        {
            "character": "nzer"
        },
        {
            "character": "nzei"
        },
        {
            "character": "nzel"
        },
        {
            "character": "nzen"
        },
        {
            "character": "nzem"
        },
        {
            "character": "nzes"
        },
        {
            "character": "nze!"
        },
        {
            "character": "nzee"
        }
    ],
    "top20": [
        {
            "id": 11863,
            "original_name": "Aktenzeichen XY \u2026 ungel\u00f6st",
            "popularity": 53.257
        },
        {
            "id": 70047,
            "original_name": "Rapunzel's Tangled Adventure",
            "popularity": 26.763
        },
        {
            "id": 137359,
            "original_name": "Unzensiert \u2013 Bushido\u2019s Wahrheit",
            "popularity": 8.007
        },
        {
            "id": 113659,
            "original_name": "Onze boerderij",
            "popularity": 5.972
        },
        {
            "id": 60817,
            "original_name": "Kenzen Robo Daimidaler",
            "popularity": 5.158
        },
        {
            "id": 79924,
            "original_name": "Sing meinen Song \u2013 Das Tauschkonzert",
            "popularity": 3.882
        },
        {
            "id": 66447,
            "original_name": "Il mostro di Firenze",
            "popularity": 2.83
        },
        {
            "id": 41003,
            "original_name": "Monaco Franze",
            "popularity": 2.705
        },
        {
            "id": 41366,
            "original_name": "Der Winzerk\u00f6nig",
            "popularity": 2.378
        },
        {
            "id": 84429,
            "original_name": "Kaya Yanar & Paul Panzer - Stars bei der Arbeit",
            "popularity": 2.304
        },
        {
            "id": 89222,
            "original_name": "L'Aquila - Grandi speranze",
            "popularity": 2.212
        },
        {
            "id": 132896,
            "original_name": "Unzensiert",
            "popularity": 2.136
        },
        {
            "id": 63572,
            "original_name": "Donauprinzessin",
            "popularity": 1.995
        },
        {
            "id": 63973,
            "original_name": "Es geschah an der Grenze",
            "popularity": 1.96
        },
        {
            "id": 152522,
            "original_name": "Over Grenzen",
            "popularity": 1.96
        },
        {
            "id": 106337,
            "original_name": "Das Sonntagskonzert",
            "popularity": 1.748
        },
        {
            "id": 75602,
            "original_name": "\u00dcber die Grenze",
            "popularity": 1.747
        },
        {
            "id": 80780,
            "original_name": "Wir sind das Volk - Liebe kennt keine Grenzen",
            "popularity": 1.551
        },
        {
            "id": 93917,
            "original_name": "Missie F-16: onze strijd tegen terrorisme",
            "popularity": 1.359
        },
        {
            "id": 121790,
            "original_name": "Grenzenlos - Das 3-L\u00e4nder-Magazin",
            "popularity": 1.341
        }
    ]
}