{
    "data": [
        {
            "id": 120871,
            "original_name": "Bronzov\u00e1 spir\u00e1la",
            "popularity": 0.6
        }
    ],
    "relations": [],
    "top20": [
        {
            "id": 120871,
            "original_name": "Bronzov\u00e1 spir\u00e1la",
            "popularity": 0.6
        }
    ]
}