{
    "data": [
        {
            "id": 14018,
            "original_name": "Oasis",
            "popularity": 0.6
        },
        {
            "id": 22255,
            "original_name": "Club Oasis",
            "popularity": 0.6
        },
        {
            "id": 35375,
            "original_name": "Club Oasis",
            "popularity": 0.6
        },
        {
            "id": 39914,
            "original_name": "Oscar's Oasis",
            "popularity": 3.058
        },
        {
            "id": 45871,
            "original_name": "Vis a Vis: El Oasis",
            "popularity": 43.295
        },
        {
            "id": 49892,
            "original_name": "Cousteau: Oasis in Space",
            "popularity": 0.6
        },
        {
            "id": 59012,
            "original_name": "The Oasis",
            "popularity": 0.6
        },
        {
            "id": 70793,
            "original_name": "Oasis",
            "popularity": 4.003
        },
        {
            "id": 98380,
            "original_name": "Oasis urbaines",
            "popularity": 0.6
        },
        {
            "id": 114051,
            "original_name": "Waterhole: Africa's Animal Oasis",
            "popularity": 0.84
        }
    ],
    "relations": [],
    "top20": [
        {
            "id": 14018,
            "original_name": "Oasis",
            "popularity": 0.6
        },
        {
            "id": 22255,
            "original_name": "Club Oasis",
            "popularity": 0.6
        },
        {
            "id": 35375,
            "original_name": "Club Oasis",
            "popularity": 0.6
        },
        {
            "id": 39914,
            "original_name": "Oscar's Oasis",
            "popularity": 3.058
        },
        {
            "id": 45871,
            "original_name": "Vis a Vis: El Oasis",
            "popularity": 43.295
        },
        {
            "id": 49892,
            "original_name": "Cousteau: Oasis in Space",
            "popularity": 0.6
        },
        {
            "id": 59012,
            "original_name": "The Oasis",
            "popularity": 0.6
        },
        {
            "id": 70793,
            "original_name": "Oasis",
            "popularity": 4.003
        },
        {
            "id": 98380,
            "original_name": "Oasis urbaines",
            "popularity": 0.6
        },
        {
            "id": 114051,
            "original_name": "Waterhole: Africa's Animal Oasis",
            "popularity": 0.84
        }
    ]
}