{
    "data": [
        {
            "id": 16302,
            "original_name": "The Robinsons",
            "popularity": 2.068
        }
    ],
    "relations": [],
    "top20": [
        {
            "id": 16302,
            "original_name": "The Robinsons",
            "popularity": 2.068
        }
    ]
}