{
    "data": [
        {
            "id": 115608,
            "original_name": "Retrospectiva 2020: Edi\u00e7\u00e3o Globoplay",
            "popularity": 0.6
        }
    ],
    "relations": [],
    "top20": [
        {
            "id": 115608,
            "original_name": "Retrospectiva 2020: Edi\u00e7\u00e3o Globoplay",
            "popularity": 0.6
        }
    ]
}