{
    "data": [
        {
            "id": 49293,
            "original_name": "Choccywoccydoodah",
            "popularity": 0.6
        }
    ],
    "relations": [],
    "top20": [
        {
            "id": 49293,
            "original_name": "Choccywoccydoodah",
            "popularity": 0.6
        }
    ]
}