{
    "data": [
        {
            "id": 36627,
            "original_name": "Clochemerle",
            "popularity": 1.126
        },
        {
            "id": 134635,
            "original_name": "Jochem in de Wolken",
            "popularity": 4.588
        }
    ],
    "relations": [],
    "top20": [
        {
            "id": 36627,
            "original_name": "Clochemerle",
            "popularity": 1.126
        },
        {
            "id": 134635,
            "original_name": "Jochem in de Wolken",
            "popularity": 4.588
        }
    ]
}