{
    "data": [
        {
            "id": 43656,
            "original_name": "America's Historic Trails with Tom Bodett",
            "popularity": 0.6
        },
        {
            "id": 120596,
            "original_name": "Stemmene i hodet",
            "popularity": 0.6
        },
        {
            "id": 121793,
            "original_name": "Benzin i blodet",
            "popularity": 0.6
        },
        {
            "id": 127772,
            "original_name": "Dans i blodet",
            "popularity": 0.6
        },
        {
            "id": 132144,
            "original_name": "Hodet i klemme",
            "popularity": 1.147
        }
    ],
    "relations": [],
    "top20": [
        {
            "id": 43656,
            "original_name": "America's Historic Trails with Tom Bodett",
            "popularity": 0.6
        },
        {
            "id": 120596,
            "original_name": "Stemmene i hodet",
            "popularity": 0.6
        },
        {
            "id": 121793,
            "original_name": "Benzin i blodet",
            "popularity": 0.6
        },
        {
            "id": 127772,
            "original_name": "Dans i blodet",
            "popularity": 0.6
        },
        {
            "id": 132144,
            "original_name": "Hodet i klemme",
            "popularity": 1.147
        }
    ]
}