{
    "data": [
        {
            "id": 216,
            "original_name": "Duck Dodgers",
            "popularity": 18.4
        },
        {
            "id": 516,
            "original_name": "The Artful Dodger",
            "popularity": 0.655
        },
        {
            "id": 1688,
            "original_name": "The Podge and Rodge Show",
            "popularity": 1.594
        },
        {
            "id": 2848,
            "original_name": "Bodger and Badger",
            "popularity": 1.307
        },
        {
            "id": 6735,
            "original_name": "Dodger, Bonzo and the Rest",
            "popularity": 0.6
        },
        {
            "id": 7592,
            "original_name": "Escape of the Artful Dodger",
            "popularity": 0.665
        },
        {
            "id": 11177,
            "original_name": "Extreme Dodgeball",
            "popularity": 2.786
        },
        {
            "id": 13337,
            "original_name": "Hodgepodge Lodge",
            "popularity": 0.6
        },
        {
            "id": 24737,
            "original_name": "Holiday Lodge",
            "popularity": 0.6
        },
        {
            "id": 26282,
            "original_name": "Russ Hodges' Scoreboard",
            "popularity": 0.6
        },
        {
            "id": 31265,
            "original_name": "Podge & Rodge's Stickit Inn",
            "popularity": 0.6
        },
        {
            "id": 48949,
            "original_name": "Rodgers & Hammerstein: The Sound of Movies",
            "popularity": 0.6
        },
        {
            "id": 50858,
            "original_name": "America Salutes Richard Rodgers: The Sound of His Music",
            "popularity": 0.6
        },
        {
            "id": 58108,
            "original_name": "TSN The Reporters with Dave Hodge",
            "popularity": 0.6
        },
        {
            "id": 60890,
            "original_name": "The Legend of Mick Dodge",
            "popularity": 2.374
        },
        {
            "id": 68324,
            "original_name": "The Lodge",
            "popularity": 4.041
        },
        {
            "id": 72684,
            "original_name": "Timber Creek Lodge",
            "popularity": 0.63
        },
        {
            "id": 80925,
            "original_name": "Lodge 49",
            "popularity": 12.142
        },
        {
            "id": 94606,
            "original_name": "Fare Dodgers: At War with the Law",
            "popularity": 0.6
        },
        {
            "id": 107832,
            "original_name": "Dodgeball Thunderdome",
            "popularity": 9.202
        },
        {
            "id": 108368,
            "original_name": "Lodgers For Codgers",
            "popularity": 0.6
        },
        {
            "id": 115465,
            "original_name": "Gold Rush: Freddy Dodge\u2019s Mine Rescue",
            "popularity": 2.203
        }
    ],
    "relations": [
        {
            "character": "odger"
        },
        {
            "character": "odgeb"
        },
        {
            "character": "odgep"
        },
        {
            "character": "odges"
        }
    ],
    "top20": [
        {
            "id": 216,
            "original_name": "Duck Dodgers",
            "popularity": 18.4
        },
        {
            "id": 80925,
            "original_name": "Lodge 49",
            "popularity": 12.142
        },
        {
            "id": 107832,
            "original_name": "Dodgeball Thunderdome",
            "popularity": 9.202
        },
        {
            "id": 68324,
            "original_name": "The Lodge",
            "popularity": 4.041
        },
        {
            "id": 11177,
            "original_name": "Extreme Dodgeball",
            "popularity": 2.786
        },
        {
            "id": 60890,
            "original_name": "The Legend of Mick Dodge",
            "popularity": 2.374
        },
        {
            "id": 115465,
            "original_name": "Gold Rush: Freddy Dodge\u2019s Mine Rescue",
            "popularity": 2.203
        },
        {
            "id": 1688,
            "original_name": "The Podge and Rodge Show",
            "popularity": 1.594
        },
        {
            "id": 2848,
            "original_name": "Bodger and Badger",
            "popularity": 1.307
        },
        {
            "id": 7592,
            "original_name": "Escape of the Artful Dodger",
            "popularity": 0.665
        },
        {
            "id": 516,
            "original_name": "The Artful Dodger",
            "popularity": 0.655
        },
        {
            "id": 72684,
            "original_name": "Timber Creek Lodge",
            "popularity": 0.63
        },
        {
            "id": 31265,
            "original_name": "Podge & Rodge's Stickit Inn",
            "popularity": 0.6
        },
        {
            "id": 24737,
            "original_name": "Holiday Lodge",
            "popularity": 0.6
        },
        {
            "id": 13337,
            "original_name": "Hodgepodge Lodge",
            "popularity": 0.6
        },
        {
            "id": 58108,
            "original_name": "TSN The Reporters with Dave Hodge",
            "popularity": 0.6
        },
        {
            "id": 6735,
            "original_name": "Dodger, Bonzo and the Rest",
            "popularity": 0.6
        },
        {
            "id": 26282,
            "original_name": "Russ Hodges' Scoreboard",
            "popularity": 0.6
        },
        {
            "id": 50858,
            "original_name": "America Salutes Richard Rodgers: The Sound of His Music",
            "popularity": 0.6
        },
        {
            "id": 48949,
            "original_name": "Rodgers & Hammerstein: The Sound of Movies",
            "popularity": 0.6
        }
    ]
}