{
    "data": [
        {
            "id": 11874,
            "original_name": "Foodini the Great",
            "popularity": 0.6
        }
    ],
    "relations": [],
    "top20": [
        {
            "id": 11874,
            "original_name": "Foodini the Great",
            "popularity": 0.6
        }
    ]
}