{
    "data": [
        {
            "id": 20972,
            "original_name": "Bela Hodod",
            "popularity": 0.6
        }
    ],
    "relations": [],
    "top20": [
        {
            "id": 20972,
            "original_name": "Bela Hodod",
            "popularity": 0.6
        }
    ]
}