{
    "data": [
        {
            "id": 1196,
            "original_name": "In\u017een\u00fdrsk\u00e1 odysea",
            "popularity": 0.6
        }
    ],
    "relations": [],
    "top20": [
        {
            "id": 1196,
            "original_name": "In\u017een\u00fdrsk\u00e1 odysea",
            "popularity": 0.6
        }
    ]
}