{
    "data": [
        {
            "id": 1093,
            "original_name": "2001: A Space Road Odyssey",
            "popularity": 0.6
        },
        {
            "id": 1196,
            "original_name": "In\u017een\u00fdrsk\u00e1 odysea",
            "popularity": 0.6
        },
        {
            "id": 1898,
            "original_name": "Odyssey 5",
            "popularity": 5.535
        },
        {
            "id": 2873,
            "original_name": "\u00d8rnen: En Krimi Odyss\u00e8",
            "popularity": 5.466
        },
        {
            "id": 4080,
            "original_name": "Star Trek: Odyssey",
            "popularity": 0.84
        },
        {
            "id": 6300,
            "original_name": "Space Odyssey: Voyage To The Planets",
            "popularity": 2.238
        },
        {
            "id": 8516,
            "original_name": "\u30a6\u30eb\u30c8\u30e9\u30ae\u30e3\u30e9\u30af\u30b7\u30fc\u5927\u602a\u7363\u30d0\u30c8\u30eb NEVER ENDING ODYSSEY",
            "popularity": 0.6
        },
        {
            "id": 9687,
            "original_name": "The Odyssey",
            "popularity": 12.897
        },
        {
            "id": 9779,
            "original_name": "BodyShaping",
            "popularity": 0.6
        },
        {
            "id": 11121,
            "original_name": "The Odyssey",
            "popularity": 4.218
        },
        {
            "id": 17421,
            "original_name": "ODYSSEY: Driving Around the World",
            "popularity": 0.6
        },
        {
            "id": 18890,
            "original_name": "Odyssey of Life",
            "popularity": 0.6
        },
        {
            "id": 20591,
            "original_name": "Cosmic Odyssey",
            "popularity": 1.4
        },
        {
            "id": 23210,
            "original_name": "Bodysurfer",
            "popularity": 0.703
        },
        {
            "id": 27613,
            "original_name": "Rick Stein's Far Eastern Odyssey",
            "popularity": 0.6
        },
        {
            "id": 37535,
            "original_name": "Costa's Garden Odyssey",
            "popularity": 0.6
        },
        {
            "id": 44445,
            "original_name": "A Science Odyssey",
            "popularity": 0.6
        },
        {
            "id": 45571,
            "original_name": "The Story of Film: An Odyssey",
            "popularity": 2.681
        },
        {
            "id": 46625,
            "original_name": "Ellis Island: The Odyssey of a Dream",
            "popularity": 0.6
        },
        {
            "id": 47275,
            "original_name": "The Hermitage: A Russian Odyssey",
            "popularity": 0.6
        },
        {
            "id": 49338,
            "original_name": "The Cousteau Odyssey",
            "popularity": 1.171
        },
        {
            "id": 57695,
            "original_name": "Joanna Lumleys Greek Odyssey",
            "popularity": 0.6
        },
        {
            "id": 59263,
            "original_name": "Ocean Odyssey",
            "popularity": 0.6
        },
        {
            "id": 60160,
            "original_name": "Ocean Odyssey: The Blue Realm",
            "popularity": 1.38
        },
        {
            "id": 61155,
            "original_name": "Space Pirate Captain Herlock: Outside Legend - The Endless Odyssey",
            "popularity": 2.888
        },
        {
            "id": 61702,
            "original_name": "American Odyssey",
            "popularity": 13.022
        },
        {
            "id": 64627,
            "original_name": "The Moodys",
            "popularity": 5.446
        },
        {
            "id": 64936,
            "original_name": "Odysseus",
            "popularity": 3.413
        },
        {
            "id": 78856,
            "original_name": "Bigfoot Odyssey",
            "popularity": 0.6
        },
        {
            "id": 78857,
            "original_name": "Bigfoot Odyssey",
            "popularity": 0.602
        },
        {
            "id": 85230,
            "original_name": "Turtle, Eagle, Cheetah: A Slow Odyssey",
            "popularity": 0.6
        },
        {
            "id": 90142,
            "original_name": "Islands in Time: A Wildlife Odyssey",
            "popularity": 0.887
        },
        {
            "id": 90684,
            "original_name": "The Great Human Odyssey",
            "popularity": 0.6
        },
        {
            "id": 93534,
            "original_name": "Rick Stein's Seafood Odyssey",
            "popularity": 0.6
        },
        {
            "id": 95681,
            "original_name": "The Moodys",
            "popularity": 6.887
        },
        {
            "id": 100297,
            "original_name": "L'odyss\u00e9e des chiens : nos plus fid\u00e8les compagnons",
            "popularity": 0.6
        },
        {
            "id": 104522,
            "original_name": "My Greek Odyssey",
            "popularity": 0.6
        },
        {
            "id": 105006,
            "original_name": "Australia's Ocean Odyssey: A journey down the East Australian Current",
            "popularity": 0.677
        },
        {
            "id": 105040,
            "original_name": "Odysso - Wissen entdecken",
            "popularity": 1.493
        },
        {
            "id": 108537,
            "original_name": "L'Odyss\u00e9e de l'esp\u00e8ce",
            "popularity": 0.88
        },
        {
            "id": 110649,
            "original_name": "Joanna Lumley's Greek Odyssey",
            "popularity": 0.6
        },
        {
            "id": 111948,
            "original_name": "Espace, l'odyss\u00e9e du futur",
            "popularity": 0.6
        },
        {
            "id": 112209,
            "original_name": "Rick Stein's French Odyssey",
            "popularity": 0.6
        },
        {
            "id": 112666,
            "original_name": "Greek Island Odyssey",
            "popularity": 0.84
        },
        {
            "id": 113259,
            "original_name": "L\u2019Odyss\u00e9e de l'\u00e9criture",
            "popularity": 0.869
        },
        {
            "id": 116870,
            "original_name": "Les grands mythes - L'Odyss\u00e9e",
            "popularity": 0.6
        },
        {
            "id": 121467,
            "original_name": "Volcanic Odysseys",
            "popularity": 0.6
        },
        {
            "id": 122670,
            "original_name": "AnyMoodys",
            "popularity": 0.6
        },
        {
            "id": 123733,
            "original_name": "L'Odyss\u00e9e de Klassik",
            "popularity": 0.6
        },
        {
            "id": 126658,
            "original_name": "Mission Odyssey",
            "popularity": 0.6
        },
        {
            "id": 126775,
            "original_name": "Straight to Video: The B-Movie Odyssey",
            "popularity": 0.6
        },
        {
            "id": 134317,
            "original_name": "Earth Odyssey with Dylan Dreyer",
            "popularity": 1.752
        },
        {
            "id": 152578,
            "original_name": "Carol Klein's Plant Odysseys",
            "popularity": 0.6
        }
    ],
    "relations": [
        {
            "character": "odyss"
        },
        {
            "character": "odyse"
        },
        {
            "character": "odysh"
        },
        {
            "character": "odysu"
        }
    ],
    "top20": [
        {
            "id": 61702,
            "original_name": "American Odyssey",
            "popularity": 13.022
        },
        {
            "id": 9687,
            "original_name": "The Odyssey",
            "popularity": 12.897
        },
        {
            "id": 95681,
            "original_name": "The Moodys",
            "popularity": 6.887
        },
        {
            "id": 1898,
            "original_name": "Odyssey 5",
            "popularity": 5.535
        },
        {
            "id": 2873,
            "original_name": "\u00d8rnen: En Krimi Odyss\u00e8",
            "popularity": 5.466
        },
        {
            "id": 64627,
            "original_name": "The Moodys",
            "popularity": 5.446
        },
        {
            "id": 11121,
            "original_name": "The Odyssey",
            "popularity": 4.218
        },
        {
            "id": 64936,
            "original_name": "Odysseus",
            "popularity": 3.413
        },
        {
            "id": 61155,
            "original_name": "Space Pirate Captain Herlock: Outside Legend - The Endless Odyssey",
            "popularity": 2.888
        },
        {
            "id": 45571,
            "original_name": "The Story of Film: An Odyssey",
            "popularity": 2.681
        },
        {
            "id": 6300,
            "original_name": "Space Odyssey: Voyage To The Planets",
            "popularity": 2.238
        },
        {
            "id": 134317,
            "original_name": "Earth Odyssey with Dylan Dreyer",
            "popularity": 1.752
        },
        {
            "id": 105040,
            "original_name": "Odysso - Wissen entdecken",
            "popularity": 1.493
        },
        {
            "id": 20591,
            "original_name": "Cosmic Odyssey",
            "popularity": 1.4
        },
        {
            "id": 60160,
            "original_name": "Ocean Odyssey: The Blue Realm",
            "popularity": 1.38
        },
        {
            "id": 49338,
            "original_name": "The Cousteau Odyssey",
            "popularity": 1.171
        },
        {
            "id": 90142,
            "original_name": "Islands in Time: A Wildlife Odyssey",
            "popularity": 0.887
        },
        {
            "id": 108537,
            "original_name": "L'Odyss\u00e9e de l'esp\u00e8ce",
            "popularity": 0.88
        },
        {
            "id": 113259,
            "original_name": "L\u2019Odyss\u00e9e de l'\u00e9criture",
            "popularity": 0.869
        },
        {
            "id": 4080,
            "original_name": "Star Trek: Odyssey",
            "popularity": 0.84
        }
    ]
}