{
    "data": [
        {
            "id": 20756,
            "original_name": "Koefnoen",
            "popularity": 1.4
        },
        {
            "id": 55337,
            "original_name": "Proefkonijnen",
            "popularity": 1.4
        },
        {
            "id": 103217,
            "original_name": "Gewoon Boef",
            "popularity": 0.6
        },
        {
            "id": 113447,
            "original_name": "Placeboeffekt",
            "popularity": 0.6
        },
        {
            "id": 113958,
            "original_name": "De proefkeuken",
            "popularity": 0.639
        }
    ],
    "relations": [],
    "top20": [
        {
            "id": 20756,
            "original_name": "Koefnoen",
            "popularity": 1.4
        },
        {
            "id": 55337,
            "original_name": "Proefkonijnen",
            "popularity": 1.4
        },
        {
            "id": 103217,
            "original_name": "Gewoon Boef",
            "popularity": 0.6
        },
        {
            "id": 113447,
            "original_name": "Placeboeffekt",
            "popularity": 0.6
        },
        {
            "id": 113958,
            "original_name": "De proefkeuken",
            "popularity": 0.639
        }
    ]
}