{
    "data": [
        {
            "id": 126800,
            "original_name": "Hayley Goes...",
            "popularity": 0.6
        }
    ],
    "relations": [],
    "top20": [
        {
            "id": 126800,
            "original_name": "Hayley Goes...",
            "popularity": 0.6
        }
    ]
}