{
    "data": [
        {
            "id": 103443,
            "original_name": "Nofilter",
            "popularity": 0.6
        },
        {
            "id": 119949,
            "original_name": "Dating #NoFilter",
            "popularity": 0.6
        }
    ],
    "relations": [],
    "top20": [
        {
            "id": 103443,
            "original_name": "Nofilter",
            "popularity": 0.6
        },
        {
            "id": 119949,
            "original_name": "Dating #NoFilter",
            "popularity": 0.6
        }
    ]
}