{
    "data": [
        {
            "id": 62769,
            "original_name": "Pofti\u021bi Pe La Noi",
            "popularity": 0.6
        },
        {
            "id": 115871,
            "original_name": "Poftiti La Circ",
            "popularity": 1.4
        },
        {
            "id": 115872,
            "original_name": "Pofti\u021bi la Nea M\u0103rin",
            "popularity": 0.884
        },
        {
            "id": 152542,
            "original_name": "Pofti\u021bi pe la noi: Pofti\u021bi prin \u021bar\u0103",
            "popularity": 1.4
        }
    ],
    "relations": [],
    "top20": [
        {
            "id": 62769,
            "original_name": "Pofti\u021bi Pe La Noi",
            "popularity": 0.6
        },
        {
            "id": 115871,
            "original_name": "Poftiti La Circ",
            "popularity": 1.4
        },
        {
            "id": 115872,
            "original_name": "Pofti\u021bi la Nea M\u0103rin",
            "popularity": 0.884
        },
        {
            "id": 152542,
            "original_name": "Pofti\u021bi pe la noi: Pofti\u021bi prin \u021bar\u0103",
            "popularity": 1.4
        }
    ]
}