{
    "data": [
        {
            "id": 139416,
            "original_name": "Acesso Total: Botafogo",
            "popularity": 15.378
        },
        {
            "id": 128251,
            "original_name": "Brincando com Fogo: Brasil",
            "popularity": 8.766
        },
        {
            "id": 109219,
            "original_name": "Ludzie i bogowie",
            "popularity": 7.866
        },
        {
            "id": 30986,
            "original_name": "Mahha GoGoGo",
            "popularity": 4.573
        },
        {
            "id": 64035,
            "original_name": "Michel Strogoff",
            "popularity": 4.472
        },
        {
            "id": 40330,
            "original_name": "Rosa Fogo",
            "popularity": 3.197
        },
        {
            "id": 37568,
            "original_name": "\u30de\u30c3\u30cfGoGoGo",
            "popularity": 2.354
        },
        {
            "id": 61754,
            "original_name": "El sex\u00f3logo",
            "popularity": 1.905
        },
        {
            "id": 95112,
            "original_name": "GOGO DINO",
            "popularity": 1.74
        },
        {
            "id": 60561,
            "original_name": "Smogovci",
            "popularity": 1.728
        },
        {
            "id": 123331,
            "original_name": "Roda de Fogo",
            "popularity": 1.641
        },
        {
            "id": 41275,
            "original_name": "Pogo 1104",
            "popularity": 1.34
        },
        {
            "id": 78970,
            "original_name": "aiseki MOGOL GIRL",
            "popularity": 1.222
        },
        {
            "id": 63817,
            "original_name": "A Regra do Jogo",
            "popularity": 1.072
        },
        {
            "id": 174187,
            "original_name": "gogo\u4f53\u80b2\u3010\u7f54\u82b7jy01,cc\u3011_\u767e\u5ea6\u77e5\u9053e",
            "popularity": 1.015
        },
        {
            "id": 58014,
            "original_name": "Pogovori so Mnoyu o Lyubvi",
            "popularity": 0.845
        },
        {
            "id": 175827,
            "original_name": "gogo\u4f53\u80b2\u3010\u7f54\u82b7jy01,cc\u3011_\u767e\u5ea6\u77e5\u9053s",
            "popularity": 0.765
        },
        {
            "id": 916,
            "original_name": "The Pogo Special Birthday Special",
            "popularity": 0.6
        },
        {
            "id": 15190,
            "original_name": "The Rudy and Gogo World Famous Cartoon Show",
            "popularity": 0.6
        },
        {
            "id": 28991,
            "original_name": "Pogoda na pi\u0105tek",
            "popularity": 0.6
        },
        {
            "id": 40469,
            "original_name": "The Ancient Dogoo Girl",
            "popularity": 0.6
        },
        {
            "id": 52707,
            "original_name": "Leladala Wogouh Katheera",
            "popularity": 0.6
        },
        {
            "id": 53998,
            "original_name": "Rogol Al Akdar",
            "popularity": 0.6
        },
        {
            "id": 54427,
            "original_name": "Volshebnik Izumrudnogo Goroda",
            "popularity": 0.6
        },
        {
            "id": 54471,
            "original_name": "Vyzyvaem Ogon na Sebya",
            "popularity": 0.6
        },
        {
            "id": 54744,
            "original_name": "Emra'a Wa Thalath Wogouh",
            "popularity": 0.6
        },
        {
            "id": 57900,
            "original_name": "Dobrogo ranku, Ukrayino!",
            "popularity": 0.6
        },
        {
            "id": 59163,
            "original_name": "Theologo '67",
            "popularity": 0.6
        },
        {
            "id": 59825,
            "original_name": "Googoosh Music Academy",
            "popularity": 0.6
        },
        {
            "id": 75220,
            "original_name": "Jogo Duplo",
            "popularity": 0.6
        },
        {
            "id": 77069,
            "original_name": "Das Ist So Togo",
            "popularity": 0.6
        },
        {
            "id": 78993,
            "original_name": "GoGo\u2019s Adventures with English",
            "popularity": 0.6
        },
        {
            "id": 86763,
            "original_name": "Michele Strogoff - Il corriere dello zar",
            "popularity": 0.6
        },
        {
            "id": 88105,
            "original_name": "Kairong Mothey Gogol",
            "popularity": 0.6
        },
        {
            "id": 88301,
            "original_name": "The Adventures of Gogol",
            "popularity": 0.6
        },
        {
            "id": 94477,
            "original_name": "Jogo de Todos os Jogos",
            "popularity": 0.6
        },
        {
            "id": 95542,
            "original_name": "Michel Strogoff",
            "popularity": 0.6
        },
        {
            "id": 97389,
            "original_name": "Il-Misteru ta l Ghogol tad-Deheb",
            "popularity": 0.6
        },
        {
            "id": 103275,
            "original_name": "Gogo a Figi",
            "popularity": 0.6
        },
        {
            "id": 105114,
            "original_name": "Iznogoud",
            "popularity": 0.6
        },
        {
            "id": 122656,
            "original_name": "Top 2000 a gogo",
            "popularity": 0.6
        },
        {
            "id": 123125,
            "original_name": "Iznogoud the Infamous",
            "popularity": 0.6
        },
        {
            "id": 129892,
            "original_name": "GizmoGO!",
            "popularity": 0.6
        },
        {
            "id": 132187,
            "original_name": "GoGoBus and TeamSteam",
            "popularity": 0.6
        },
        {
            "id": 132441,
            "original_name": "Pogoda",
            "popularity": 0.6
        },
        {
            "id": 139452,
            "original_name": "Logo",
            "popularity": 0.6
        }
    ],
    "relations": [
        {
            "character": "ogod"
        },
        {
            "character": "ogog"
        },
        {
            "character": "ogoo"
        },
        {
            "character": "ogou"
        },
        {
            "character": "ogol"
        },
        {
            "character": "ogon"
        },
        {
            "character": "ogov"
        },
        {
            "character": "ogof"
        },
        {
            "character": "ogos"
        },
        {
            "character": "ogow"
        },
        {
            "character": "ogo!"
        },
        {
            "character": "ogob"
        }
    ],
    "top20": [
        {
            "id": 139416,
            "original_name": "Acesso Total: Botafogo",
            "popularity": 15.378
        },
        {
            "id": 128251,
            "original_name": "Brincando com Fogo: Brasil",
            "popularity": 8.766
        },
        {
            "id": 109219,
            "original_name": "Ludzie i bogowie",
            "popularity": 7.866
        },
        {
            "id": 30986,
            "original_name": "Mahha GoGoGo",
            "popularity": 4.573
        },
        {
            "id": 64035,
            "original_name": "Michel Strogoff",
            "popularity": 4.472
        },
        {
            "id": 40330,
            "original_name": "Rosa Fogo",
            "popularity": 3.197
        },
        {
            "id": 37568,
            "original_name": "\u30de\u30c3\u30cfGoGoGo",
            "popularity": 2.354
        },
        {
            "id": 61754,
            "original_name": "El sex\u00f3logo",
            "popularity": 1.905
        },
        {
            "id": 95112,
            "original_name": "GOGO DINO",
            "popularity": 1.74
        },
        {
            "id": 60561,
            "original_name": "Smogovci",
            "popularity": 1.728
        },
        {
            "id": 123331,
            "original_name": "Roda de Fogo",
            "popularity": 1.641
        },
        {
            "id": 41275,
            "original_name": "Pogo 1104",
            "popularity": 1.34
        },
        {
            "id": 78970,
            "original_name": "aiseki MOGOL GIRL",
            "popularity": 1.222
        },
        {
            "id": 63817,
            "original_name": "A Regra do Jogo",
            "popularity": 1.072
        },
        {
            "id": 174187,
            "original_name": "gogo\u4f53\u80b2\u3010\u7f54\u82b7jy01,cc\u3011_\u767e\u5ea6\u77e5\u9053e",
            "popularity": 1.015
        },
        {
            "id": 58014,
            "original_name": "Pogovori so Mnoyu o Lyubvi",
            "popularity": 0.845
        },
        {
            "id": 175827,
            "original_name": "gogo\u4f53\u80b2\u3010\u7f54\u82b7jy01,cc\u3011_\u767e\u5ea6\u77e5\u9053s",
            "popularity": 0.765
        },
        {
            "id": 916,
            "original_name": "The Pogo Special Birthday Special",
            "popularity": 0.6
        },
        {
            "id": 52707,
            "original_name": "Leladala Wogouh Katheera",
            "popularity": 0.6
        },
        {
            "id": 40469,
            "original_name": "The Ancient Dogoo Girl",
            "popularity": 0.6
        }
    ]
}