{
    "data": [
        {
            "id": 901,
            "original_name": "The Sarah Silverman Program",
            "popularity": 5.656
        },
        {
            "id": 1245,
            "original_name": "Harry Enfield's Television Programme",
            "popularity": 1.8
        },
        {
            "id": 1756,
            "original_name": "Pob's Programme",
            "popularity": 1.232
        },
        {
            "id": 4994,
            "original_name": "Biography",
            "popularity": 7.343
        },
        {
            "id": 6023,
            "original_name": "Chefography",
            "popularity": 0.6
        },
        {
            "id": 6152,
            "original_name": "The Goddamn George Liquor Program",
            "popularity": 0.6
        },
        {
            "id": 8161,
            "original_name": "90 TV Program",
            "popularity": 0.6
        },
        {
            "id": 8218,
            "original_name": "Current programmes",
            "popularity": 0.6
        },
        {
            "id": 8279,
            "original_name": "Former programmes",
            "popularity": 0.6
        },
        {
            "id": 9702,
            "original_name": "Yankeeography",
            "popularity": 0.6
        },
        {
            "id": 10151,
            "original_name": "The Jack Benny Program",
            "popularity": 5.777
        },
        {
            "id": 10453,
            "original_name": "The Micallef P(r)ogram(me)",
            "popularity": 0.759
        },
        {
            "id": 11320,
            "original_name": "Soapography",
            "popularity": 0.6
        },
        {
            "id": 12569,
            "original_name": "NBA Basketballography",
            "popularity": 0.6
        },
        {
            "id": 14314,
            "original_name": "The Money Programme",
            "popularity": 1.237
        },
        {
            "id": 14860,
            "original_name": "The Computer Programme",
            "popularity": 0.6
        },
        {
            "id": 15250,
            "original_name": "Borat's Television Programme",
            "popularity": 1.4
        },
        {
            "id": 15929,
            "original_name": "National Geographic: Situation Critical",
            "popularity": 0.6
        },
        {
            "id": 16300,
            "original_name": "Not So Much a Programme, More a Way of Life",
            "popularity": 4.955
        },
        {
            "id": 16664,
            "original_name": "Kids' WB Television Programming",
            "popularity": 0.6
        },
        {
            "id": 18926,
            "original_name": "Sadat: Action Biography",
            "popularity": 0.6
        },
        {
            "id": 20022,
            "original_name": "Programa do J\u00f4",
            "popularity": 0.6
        },
        {
            "id": 21069,
            "original_name": "Geographically Speaking",
            "popularity": 0.6
        },
        {
            "id": 22382,
            "original_name": "Liography",
            "popularity": 1.4
        },
        {
            "id": 22877,
            "original_name": "Sciography",
            "popularity": 0.859
        },
        {
            "id": 23407,
            "original_name": "The Genius of Photography",
            "popularity": 0.6
        },
        {
            "id": 25880,
            "original_name": "A CARography",
            "popularity": 0.6
        },
        {
            "id": 26401,
            "original_name": "The Morning Program",
            "popularity": 0.6
        },
        {
            "id": 27842,
            "original_name": "Action Autographs",
            "popularity": 0.6
        },
        {
            "id": 28167,
            "original_name": "The 1st 13th Annual Fancy Anvil Award Show Program Special... Liv",
            "popularity": 0.6
        },
        {
            "id": 29831,
            "original_name": "Program X",
            "popularity": 0.6
        },
        {
            "id": 31658,
            "original_name": "A Program About Unusual Buildings & Other Roadside Stuff",
            "popularity": 0.6
        },
        {
            "id": 32661,
            "original_name": "Paid Programming",
            "popularity": 0.84
        },
        {
            "id": 32680,
            "original_name": "Photographic Horizons",
            "popularity": 0.6
        },
        {
            "id": 33825,
            "original_name": "Program X",
            "popularity": 0.6
        },
        {
            "id": 36282,
            "original_name": "Food(ography)",
            "popularity": 0.6
        },
        {
            "id": 36768,
            "original_name": "TVography",
            "popularity": 0.6
        },
        {
            "id": 38501,
            "original_name": "Pornography: The Secret History Of Civilization",
            "popularity": 8.619
        },
        {
            "id": 38795,
            "original_name": "En himla m\u00e5nga program",
            "popularity": 0.871
        },
        {
            "id": 43961,
            "original_name": "The Sarah Millican Television Programme",
            "popularity": 1.4
        },
        {
            "id": 44289,
            "original_name": "National Geographic's Most Incredible Photos",
            "popularity": 0.6
        },
        {
            "id": 45191,
            "original_name": "The Frost Programme",
            "popularity": 0.6
        },
        {
            "id": 45820,
            "original_name": "Programa Silvio Santos",
            "popularity": 0.6
        },
        {
            "id": 47613,
            "original_name": "The Football World Cup Final Program",
            "popularity": 0.6
        },
        {
            "id": 47724,
            "original_name": "The English Programme",
            "popularity": 0.6
        },
        {
            "id": 48168,
            "original_name": "Kilka fotografii",
            "popularity": 0.6
        },
        {
            "id": 48346,
            "original_name": "Geographical Eye Over Europe",
            "popularity": 0.6
        },
        {
            "id": 48789,
            "original_name": "Pogranicze w ogniu",
            "popularity": 0.6
        },
        {
            "id": 48849,
            "original_name": "The World's Most Photographed",
            "popularity": 0.6
        },
        {
            "id": 49469,
            "original_name": "Frankie Boyle's Rehabilitation Programme",
            "popularity": 0.6
        },
        {
            "id": 50957,
            "original_name": "The Autobiography of Miss Jane Pittman",
            "popularity": 0.6
        },
        {
            "id": 51104,
            "original_name": "Autograf",
            "popularity": 0.6
        },
        {
            "id": 51445,
            "original_name": "Kun for mennesker! - et program om Johan Otto von Spreckelsen",
            "popularity": 0.6
        },
        {
            "id": 51495,
            "original_name": "National Geographic Nordic Wild",
            "popularity": 0.6
        },
        {
            "id": 51789,
            "original_name": "Mr Hologram",
            "popularity": 0.6
        },
        {
            "id": 54001,
            "original_name": "Ramez Desert Fox Program",
            "popularity": 0.6
        },
        {
            "id": 55944,
            "original_name": "CBS Sports Programs",
            "popularity": 0.6
        },
        {
            "id": 56749,
            "original_name": "The Sarah Silverman Program: Nuggets",
            "popularity": 0.6
        },
        {
            "id": 56968,
            "original_name": "AUSTAR\u2019s Switched on schools program",
            "popularity": 0.6
        },
        {
            "id": 57593,
            "original_name": "Paul OGrady's Working Britain",
            "popularity": 0.6
        },
        {
            "id": 58357,
            "original_name": "National Geographic: Best of 125 Years",
            "popularity": 0.6
        },
        {
            "id": 59260,
            "original_name": "Program Playhouse",
            "popularity": 0.6
        },
        {
            "id": 60228,
            "original_name": "Premios Fotogramas de Plata",
            "popularity": 0.6
        },
        {
            "id": 63050,
            "original_name": "Der Fotograf oder Das Auge Gottes",
            "popularity": 0.6
        },
        {
            "id": 64877,
            "original_name": "Pawnography",
            "popularity": 0.986
        },
        {
            "id": 65202,
            "original_name": "Fotografi",
            "popularity": 0.6
        },
        {
            "id": 66947,
            "original_name": "Master of Photography",
            "popularity": 3.305
        },
        {
            "id": 68303,
            "original_name": "O \u00daltimo Programa do Mundo",
            "popularity": 0.6
        },
        {
            "id": 70054,
            "original_name": "American Cinematographers Awards",
            "popularity": 0.6
        },
        {
            "id": 70080,
            "original_name": "Interrupt This Program",
            "popularity": 0.6
        },
        {
            "id": 72641,
            "original_name": "Mencintaimu Mr Photographer",
            "popularity": 2.129
        },
        {
            "id": 74030,
            "original_name": "Il Cartografo",
            "popularity": 0.6
        },
        {
            "id": 77863,
            "original_name": "Beijing: Biography Of An Imperial Capital",
            "popularity": 0.6
        },
        {
            "id": 80338,
            "original_name": "The Horne Section Television Programme",
            "popularity": 0.6
        },
        {
            "id": 83606,
            "original_name": "National Geographic Masters of Photography",
            "popularity": 0.6
        },
        {
            "id": 83808,
            "original_name": "National Geographic Extraterrestrial",
            "popularity": 0.6
        },
        {
            "id": 84668,
            "original_name": "BOUNTY HUNTERS \u2013 FINISHED PROGRAMME",
            "popularity": 1.4
        },
        {
            "id": 86030,
            "original_name": "Advanced Lighting for Adventure Photography",
            "popularity": 0.6
        },
        {
            "id": 86436,
            "original_name": "FOTOGRAFIE - verst\u00e4ndlich erkl\u00e4rt",
            "popularity": 0.6
        },
        {
            "id": 87076,
            "original_name": "Programa da Maisa",
            "popularity": 1.4
        },
        {
            "id": 88380,
            "original_name": "100 Photographs: The Most Influential Photographs Of All Time",
            "popularity": 0.6
        },
        {
            "id": 88414,
            "original_name": "Elizabeth Smart: Autobiography",
            "popularity": 0.601
        },
        {
            "id": 91227,
            "original_name": "National Geographic: Nature Untamed",
            "popularity": 0.6
        },
        {
            "id": 93144,
            "original_name": "Biography: The Trump Dynasty",
            "popularity": 0.6
        },
        {
            "id": 93441,
            "original_name": "Geografia - Professor Giordano",
            "popularity": 0.6
        },
        {
            "id": 94649,
            "original_name": "\uff1cInfinite Dendrogram\uff1e-\u30a4\u30f3\u30d5\u30a3\u30cb\u30c3\u30c8\u30fb\u30c7\u30f3\u30c9\u30ed\u30b0\u30e9\u30e0-",
            "popularity": 6.953
        },
        {
            "id": 96086,
            "original_name": "Unauthorized Biographies with Peter Graves",
            "popularity": 0.6
        },
        {
            "id": 96886,
            "original_name": "El siguiente programa",
            "popularity": 0.871
        },
        {
            "id": 97162,
            "original_name": "Biographies: Icons of History",
            "popularity": 0.6
        },
        {
            "id": 97487,
            "original_name": "National Geographic 100 Years",
            "popularity": 0.894
        },
        {
            "id": 100532,
            "original_name": "National Geographic Specials",
            "popularity": 0.6
        },
        {
            "id": 101043,
            "original_name": "Geograf\u00eda del deseo",
            "popularity": 1.555
        },
        {
            "id": 102346,
            "original_name": "The Brain Fitness Program",
            "popularity": 0.6
        },
        {
            "id": 102417,
            "original_name": "One & Done Workout Program",
            "popularity": 0.612
        },
        {
            "id": 103019,
            "original_name": "Geografens Testamente: Norden",
            "popularity": 1.345
        },
        {
            "id": 103607,
            "original_name": "Geografens Testamente",
            "popularity": 0.6
        },
        {
            "id": 105381,
            "original_name": "Jem and the Holograms",
            "popularity": 1.739
        },
        {
            "id": 105496,
            "original_name": "National Geographic Making History",
            "popularity": 0.6
        },
        {
            "id": 105716,
            "original_name": "Retrograde",
            "popularity": 0.84
        },
        {
            "id": 106030,
            "original_name": "Preziveti Beograd",
            "popularity": 0.671
        },
        {
            "id": 110814,
            "original_name": "National Geographic Explorer",
            "popularity": 0.6
        },
        {
            "id": 111986,
            "original_name": "\u5927\u7063\u5340\u768411\u7a2e\u9b45\u529b Greater Bay Area Programmes",
            "popularity": 0.6
        },
        {
            "id": 113242,
            "original_name": "O Programa do Aleixo",
            "popularity": 0.6
        },
        {
            "id": 114021,
            "original_name": "Crash Course Geography",
            "popularity": 2.646
        },
        {
            "id": 114716,
            "original_name": "Votre beau programme",
            "popularity": 2.141
        },
        {
            "id": 115673,
            "original_name": "National Geographic Presents: IMPACT with Gal Gadot",
            "popularity": 4.453
        },
        {
            "id": 116470,
            "original_name": "Kriminalfotograferne",
            "popularity": 0.647
        },
        {
            "id": 116560,
            "original_name": "Auto Biography: Racing Legends",
            "popularity": 0.66
        },
        {
            "id": 119037,
            "original_name": "Programa m\u00e1s o menos multiplicado o dividido",
            "popularity": 0.6
        },
        {
            "id": 119985,
            "original_name": "Biography: WWE Legends",
            "popularity": 2.369
        },
        {
            "id": 120220,
            "original_name": "Earth: The Biography",
            "popularity": 1.4
        },
        {
            "id": 121881,
            "original_name": "Biography: Farrah Fawcett Forever",
            "popularity": 0.6
        },
        {
            "id": 123179,
            "original_name": "Five-star program",
            "popularity": 0.6
        },
        {
            "id": 123816,
            "original_name": "Los Kim: radiografia de Corea del Norte",
            "popularity": 0.607
        },
        {
            "id": 125032,
            "original_name": "National Geographic : Secrets of Wild India",
            "popularity": 0.6
        },
        {
            "id": 126267,
            "original_name": "Biography: \"Stone Cold\" Steve Austin",
            "popularity": 0.6
        },
        {
            "id": 126555,
            "original_name": "Biograf\u00edas",
            "popularity": 0.66
        },
        {
            "id": 126740,
            "original_name": "Great British Photography Challenge",
            "popularity": 1.316
        },
        {
            "id": 127117,
            "original_name": "A Minha Sogra \u00e9 Uma Bruxa",
            "popularity": 0.84
        },
        {
            "id": 128310,
            "original_name": "Biography: KISStory",
            "popularity": 1.645
        },
        {
            "id": 128895,
            "original_name": "Auto/Biography: Cold Cases",
            "popularity": 0.6
        },
        {
            "id": 130039,
            "original_name": "Doctors: The History of Scientific Medicine Revealed Through Biography",
            "popularity": 0.6
        },
        {
            "id": 130387,
            "original_name": "The Program: Prison Detox",
            "popularity": 0.827
        },
        {
            "id": 130487,
            "original_name": "Marvi H\u00e4mmer pr\u00e4sentiert National Geographic World",
            "popularity": 0.6
        },
        {
            "id": 130632,
            "original_name": "Britain in Focus: A Photographic History",
            "popularity": 0.6
        },
        {
            "id": 131738,
            "original_name": "Programa Cautelar",
            "popularity": 0.6
        },
        {
            "id": 134140,
            "original_name": "Programa Cujo Nome Estamos Legalmente Impedidos de Dizer",
            "popularity": 0.6
        },
        {
            "id": 134641,
            "original_name": "Auto/Biography",
            "popularity": 0.6
        }
    ],
    "relations": [
        {
            "character": "ogram"
        },
        {
            "character": "ograp"
        },
        {
            "character": "ograf"
        },
        {
            "character": "ogran"
        },
        {
            "character": "ograd"
        }
    ],
    "top20": [
        {
            "id": 38501,
            "original_name": "Pornography: The Secret History Of Civilization",
            "popularity": 8.619
        },
        {
            "id": 4994,
            "original_name": "Biography",
            "popularity": 7.343
        },
        {
            "id": 94649,
            "original_name": "\uff1cInfinite Dendrogram\uff1e-\u30a4\u30f3\u30d5\u30a3\u30cb\u30c3\u30c8\u30fb\u30c7\u30f3\u30c9\u30ed\u30b0\u30e9\u30e0-",
            "popularity": 6.953
        },
        {
            "id": 10151,
            "original_name": "The Jack Benny Program",
            "popularity": 5.777
        },
        {
            "id": 901,
            "original_name": "The Sarah Silverman Program",
            "popularity": 5.656
        },
        {
            "id": 16300,
            "original_name": "Not So Much a Programme, More a Way of Life",
            "popularity": 4.955
        },
        {
            "id": 115673,
            "original_name": "National Geographic Presents: IMPACT with Gal Gadot",
            "popularity": 4.453
        },
        {
            "id": 66947,
            "original_name": "Master of Photography",
            "popularity": 3.305
        },
        {
            "id": 114021,
            "original_name": "Crash Course Geography",
            "popularity": 2.646
        },
        {
            "id": 119985,
            "original_name": "Biography: WWE Legends",
            "popularity": 2.369
        },
        {
            "id": 114716,
            "original_name": "Votre beau programme",
            "popularity": 2.141
        },
        {
            "id": 72641,
            "original_name": "Mencintaimu Mr Photographer",
            "popularity": 2.129
        },
        {
            "id": 1245,
            "original_name": "Harry Enfield's Television Programme",
            "popularity": 1.8
        },
        {
            "id": 105381,
            "original_name": "Jem and the Holograms",
            "popularity": 1.739
        },
        {
            "id": 128310,
            "original_name": "Biography: KISStory",
            "popularity": 1.645
        },
        {
            "id": 101043,
            "original_name": "Geograf\u00eda del deseo",
            "popularity": 1.555
        },
        {
            "id": 15250,
            "original_name": "Borat's Television Programme",
            "popularity": 1.4
        },
        {
            "id": 84668,
            "original_name": "BOUNTY HUNTERS \u2013 FINISHED PROGRAMME",
            "popularity": 1.4
        },
        {
            "id": 43961,
            "original_name": "The Sarah Millican Television Programme",
            "popularity": 1.4
        },
        {
            "id": 22382,
            "original_name": "Liography",
            "popularity": 1.4
        }
    ]
}