{
    "data": [
        {
            "id": 9458,
            "original_name": "The Last of the Mohicans",
            "popularity": 2.841
        },
        {
            "id": 13718,
            "original_name": "Hawkeye and the Last of the Mohicans",
            "popularity": 7.916
        },
        {
            "id": 70701,
            "original_name": "Les Mohicans de Paris",
            "popularity": 0.6
        },
        {
            "id": 75976,
            "original_name": "Last of the Mohicans",
            "popularity": 0.654
        },
        {
            "id": 121927,
            "original_name": "The Last of the Mohicans",
            "popularity": 0.6
        }
    ],
    "relations": [],
    "top20": [
        {
            "id": 9458,
            "original_name": "The Last of the Mohicans",
            "popularity": 2.841
        },
        {
            "id": 13718,
            "original_name": "Hawkeye and the Last of the Mohicans",
            "popularity": 7.916
        },
        {
            "id": 70701,
            "original_name": "Les Mohicans de Paris",
            "popularity": 0.6
        },
        {
            "id": 75976,
            "original_name": "Last of the Mohicans",
            "popularity": 0.654
        },
        {
            "id": 121927,
            "original_name": "The Last of the Mohicans",
            "popularity": 0.6
        }
    ]
}