{
    "data": [
        {
            "id": 53418,
            "original_name": "To spiti me ton foinika",
            "popularity": 0.6
        },
        {
            "id": 69977,
            "original_name": "Toini ja Heikki Haaman Show",
            "popularity": 1.534
        }
    ],
    "relations": [],
    "top20": [
        {
            "id": 53418,
            "original_name": "To spiti me ton foinika",
            "popularity": 0.6
        },
        {
            "id": 69977,
            "original_name": "Toini ja Heikki Haaman Show",
            "popularity": 1.534
        }
    ]
}