{
    "data": [
        {
            "id": 84321,
            "original_name": "Hanzai Shokogun",
            "popularity": 1.1
        }
    ],
    "relations": [],
    "top20": [
        {
            "id": 84321,
            "original_name": "Hanzai Shokogun",
            "popularity": 1.1
        }
    ]
}