{
    "data": [
        {
            "id": 100113,
            "original_name": "Kafa Doktoru",
            "popularity": 0.6
        }
    ],
    "relations": [],
    "top20": [
        {
            "id": 100113,
            "original_name": "Kafa Doktoru",
            "popularity": 0.6
        }
    ]
}