{
    "data": [
        {
            "id": 51566,
            "original_name": "Tokubetsu Kokuzei Choushukan",
            "popularity": 0.6
        }
    ],
    "relations": [],
    "top20": [
        {
            "id": 51566,
            "original_name": "Tokubetsu Kokuzei Choushukan",
            "popularity": 0.6
        }
    ]
}