{
    "data": [
        {
            "id": 1644,
            "original_name": "The Collector",
            "popularity": 7.856
        },
        {
            "id": 4687,
            "original_name": "Collectors",
            "popularity": 0.927
        },
        {
            "id": 6435,
            "original_name": "The Collectors",
            "popularity": 0.6
        },
        {
            "id": 9541,
            "original_name": "Artist Collection",
            "popularity": 0.6
        },
        {
            "id": 11964,
            "original_name": "The American Collection",
            "popularity": 0.6
        },
        {
            "id": 14174,
            "original_name": "The Collector",
            "popularity": 0.6
        },
        {
            "id": 16633,
            "original_name": "Collectors Lot",
            "popularity": 0.6
        },
        {
            "id": 18970,
            "original_name": "The American Short Story Collection",
            "popularity": 0.6
        },
        {
            "id": 19206,
            "original_name": "Ultimate Collectors",
            "popularity": 0.6
        },
        {
            "id": 23562,
            "original_name": "The Crowther Collection",
            "popularity": 0.6
        },
        {
            "id": 29364,
            "original_name": "Collectible Treasures",
            "popularity": 0.6
        },
        {
            "id": 29466,
            "original_name": "Collector Inspector",
            "popularity": 0.6
        },
        {
            "id": 34525,
            "original_name": "The Cool Stuff Collective",
            "popularity": 0.6
        },
        {
            "id": 35145,
            "original_name": "The Dave Gorman Collection",
            "popularity": 0.672
        },
        {
            "id": 38301,
            "original_name": "Big Cat Week Collection",
            "popularity": 0.674
        },
        {
            "id": 39404,
            "original_name": "Haunted Collector",
            "popularity": 0.685
        },
        {
            "id": 43784,
            "original_name": "Lion Books Collection",
            "popularity": 0.6
        },
        {
            "id": 44103,
            "original_name": "La collection Cousteau",
            "popularity": 1.419
        },
        {
            "id": 46610,
            "original_name": "The Living Bible Collection",
            "popularity": 0.6
        },
        {
            "id": 49705,
            "original_name": "The Sentry Collection Presents Ben Vereen: His Roots",
            "popularity": 0.6
        },
        {
            "id": 53143,
            "original_name": "The Krzysztof Kieslowski Collection",
            "popularity": 0.6
        },
        {
            "id": 53837,
            "original_name": "Fred Dibnah's Building Collection",
            "popularity": 0.6
        },
        {
            "id": 55189,
            "original_name": "British Transport Films Collection",
            "popularity": 0.6
        },
        {
            "id": 56020,
            "original_name": "Japanese Anime Classic Collection",
            "popularity": 0.6
        },
        {
            "id": 57061,
            "original_name": "Bought with Love: The Secret History of British Art Collections",
            "popularity": 0.6
        },
        {
            "id": 58149,
            "original_name": "Michael Waddell's Bone Collector",
            "popularity": 0.84
        },
        {
            "id": 60107,
            "original_name": "The Upchat Collection",
            "popularity": 0.6
        },
        {
            "id": 65092,
            "original_name": "Collectaholics",
            "popularity": 0.6
        },
        {
            "id": 67169,
            "original_name": "The Collection",
            "popularity": 5.651
        },
        {
            "id": 74623,
            "original_name": "Ernest et C\u00e9lestine, La Collection",
            "popularity": 0.877
        },
        {
            "id": 78415,
            "original_name": "The Cities: Skylines Collection",
            "popularity": 0.6
        },
        {
            "id": 79262,
            "original_name": "Mister Rogers' Neighborhood: It's a Beautiful Day Collection",
            "popularity": 1.091
        },
        {
            "id": 88257,
            "original_name": "Collector's Call",
            "popularity": 0.858
        },
        {
            "id": 89228,
            "original_name": "Women of Rock Oral History Project at the Sophia Smith Collection, Smith College",
            "popularity": 0.6
        },
        {
            "id": 93979,
            "original_name": "Rick Steves' Europe - The Complete Collection",
            "popularity": 1.164
        },
        {
            "id": 95272,
            "original_name": "Lincoln Rhyme: Hunt for the Bone Collector",
            "popularity": 14.099
        },
        {
            "id": 96524,
            "original_name": "Sister Wendy's American Collection",
            "popularity": 0.6
        },
        {
            "id": 97142,
            "original_name": "Arnhem 1944 A Bridge Too Far Collection",
            "popularity": 0.6
        },
        {
            "id": 97181,
            "original_name": "Doug Jones Travelogue Collection",
            "popularity": 0.6
        },
        {
            "id": 97229,
            "original_name": "Modern Warfare: Wars in the Middle East Collection",
            "popularity": 0.6
        },
        {
            "id": 97460,
            "original_name": "The Vietnam War Collection",
            "popularity": 0.6
        },
        {
            "id": 102330,
            "original_name": "Indien Collection",
            "popularity": 0.6
        },
        {
            "id": 103331,
            "original_name": "Highlight Collection",
            "popularity": 0.6
        },
        {
            "id": 103444,
            "original_name": "Fred Dibnah's Railway Collection",
            "popularity": 0.6
        },
        {
            "id": 106827,
            "original_name": "Collective Intelligence",
            "popularity": 0.6
        },
        {
            "id": 107483,
            "original_name": "The Coronation Street Character Collection",
            "popularity": 0.6
        },
        {
            "id": 108887,
            "original_name": "Collector's Quest",
            "popularity": 0.6
        },
        {
            "id": 113677,
            "original_name": "The History Channel Ultimate Collections: World War II",
            "popularity": 0.6
        },
        {
            "id": 116911,
            "original_name": "Belle Collective",
            "popularity": 0.794
        },
        {
            "id": 119216,
            "original_name": "90 Day Lovers' Collection",
            "popularity": 0.6
        },
        {
            "id": 120377,
            "original_name": "Bugs Bunny 80th Anniversary Collection",
            "popularity": 1.259
        },
        {
            "id": 120681,
            "original_name": "Art, Passion & Power: The Story of the Royal Collection",
            "popularity": 0.6
        },
        {
            "id": 129813,
            "original_name": "Chibi Maruko-chan: Classic Collection",
            "popularity": 0.6
        },
        {
            "id": 132299,
            "original_name": "Butterfly Collectors",
            "popularity": 0.6
        },
        {
            "id": 138327,
            "original_name": "Kinshasa Collection",
            "popularity": 0.6
        },
        {
            "id": 139805,
            "original_name": "The Twilight Zone Collection of Various Twilight Zone episodes",
            "popularity": 0.6
        }
    ],
    "relations": [
        {
            "character": "ollect"
        }
    ],
    "top20": [
        {
            "id": 95272,
            "original_name": "Lincoln Rhyme: Hunt for the Bone Collector",
            "popularity": 14.099
        },
        {
            "id": 1644,
            "original_name": "The Collector",
            "popularity": 7.856
        },
        {
            "id": 67169,
            "original_name": "The Collection",
            "popularity": 5.651
        },
        {
            "id": 44103,
            "original_name": "La collection Cousteau",
            "popularity": 1.419
        },
        {
            "id": 120377,
            "original_name": "Bugs Bunny 80th Anniversary Collection",
            "popularity": 1.259
        },
        {
            "id": 93979,
            "original_name": "Rick Steves' Europe - The Complete Collection",
            "popularity": 1.164
        },
        {
            "id": 79262,
            "original_name": "Mister Rogers' Neighborhood: It's a Beautiful Day Collection",
            "popularity": 1.091
        },
        {
            "id": 4687,
            "original_name": "Collectors",
            "popularity": 0.927
        },
        {
            "id": 74623,
            "original_name": "Ernest et C\u00e9lestine, La Collection",
            "popularity": 0.877
        },
        {
            "id": 88257,
            "original_name": "Collector's Call",
            "popularity": 0.858
        },
        {
            "id": 58149,
            "original_name": "Michael Waddell's Bone Collector",
            "popularity": 0.84
        },
        {
            "id": 116911,
            "original_name": "Belle Collective",
            "popularity": 0.794
        },
        {
            "id": 39404,
            "original_name": "Haunted Collector",
            "popularity": 0.685
        },
        {
            "id": 38301,
            "original_name": "Big Cat Week Collection",
            "popularity": 0.674
        },
        {
            "id": 35145,
            "original_name": "The Dave Gorman Collection",
            "popularity": 0.672
        },
        {
            "id": 9541,
            "original_name": "Artist Collection",
            "popularity": 0.6
        },
        {
            "id": 11964,
            "original_name": "The American Collection",
            "popularity": 0.6
        },
        {
            "id": 14174,
            "original_name": "The Collector",
            "popularity": 0.6
        },
        {
            "id": 16633,
            "original_name": "Collectors Lot",
            "popularity": 0.6
        },
        {
            "id": 6435,
            "original_name": "The Collectors",
            "popularity": 0.6
        }
    ]
}