{
    "data": [
        {
            "id": 5010,
            "original_name": "Camp Orange: Slimey Hollow",
            "popularity": 0.6
        },
        {
            "id": 7371,
            "original_name": "The Hollowmen",
            "popularity": 0.84
        },
        {
            "id": 8140,
            "original_name": "Rocky Hollow",
            "popularity": 0.6
        },
        {
            "id": 8652,
            "original_name": "The Hollow Men",
            "popularity": 1.625
        },
        {
            "id": 10572,
            "original_name": "Rupert Bear, Follow the Magic...",
            "popularity": 0.6
        },
        {
            "id": 14040,
            "original_name": "Follow the Sun",
            "popularity": 2.412
        },
        {
            "id": 16849,
            "original_name": "Follow Me!",
            "popularity": 0.6
        },
        {
            "id": 19771,
            "original_name": "Follow Your Nose",
            "popularity": 0.6
        },
        {
            "id": 21354,
            "original_name": "The Hollow Victory: Vietnam Under Communism",
            "popularity": 0.6
        },
        {
            "id": 26243,
            "original_name": "Follow That Food",
            "popularity": 0.6
        },
        {
            "id": 26754,
            "original_name": "Follow Your Heart",
            "popularity": 0.6
        },
        {
            "id": 28611,
            "original_name": "Holloway",
            "popularity": 0.6
        },
        {
            "id": 28642,
            "original_name": "Follow That Dog",
            "popularity": 0.6
        },
        {
            "id": 35978,
            "original_name": "The Follower",
            "popularity": 0.6
        },
        {
            "id": 39436,
            "original_name": "Vanished with Beth Holloway",
            "popularity": 0.6
        },
        {
            "id": 42549,
            "original_name": "Buster Keaton: A Hard Act to Follow",
            "popularity": 1.151
        },
        {
            "id": 44037,
            "original_name": "The Hollow Crown",
            "popularity": 14.71
        },
        {
            "id": 45094,
            "original_name": "The Following",
            "popularity": 21.651
        },
        {
            "id": 49260,
            "original_name": "American Hollow",
            "popularity": 0.6
        },
        {
            "id": 50825,
            "original_name": "Sleepy Hollow",
            "popularity": 26.331
        },
        {
            "id": 58099,
            "original_name": "Follow Me",
            "popularity": 0.6
        },
        {
            "id": 73387,
            "original_name": "The Disappearance of Natalee Holloway",
            "popularity": 0.631
        },
        {
            "id": 78409,
            "original_name": "Pixie Hollow Preview",
            "popularity": 0.6
        },
        {
            "id": 79948,
            "original_name": "The Hollow",
            "popularity": 7.686
        },
        {
            "id": 81852,
            "original_name": "Follow This",
            "popularity": 1.061
        },
        {
            "id": 84009,
            "original_name": "#Struggles: Following Jesus in a Selfie-Centered World",
            "popularity": 0.6
        },
        {
            "id": 86922,
            "original_name": "Following Twain With Oscar Kightley",
            "popularity": 0.6
        },
        {
            "id": 90041,
            "original_name": "Follow San Francisco",
            "popularity": 0.612
        },
        {
            "id": 98772,
            "original_name": "Followers",
            "popularity": 6.668
        },
        {
            "id": 117625,
            "original_name": "Follow Me",
            "popularity": 1.235
        },
        {
            "id": 124139,
            "original_name": "Follow de SOA",
            "popularity": 8.966
        },
        {
            "id": 126574,
            "original_name": "Follow the food",
            "popularity": 0.6
        },
        {
            "id": 131319,
            "original_name": "Follow me around, with Michelle Salas",
            "popularity": 0.6
        },
        {
            "id": 133415,
            "original_name": "Stalked: Followed By Fear",
            "popularity": 0.6
        },
        {
            "id": 135147,
            "original_name": "Follow the Leader",
            "popularity": 0.6
        },
        {
            "id": 138507,
            "original_name": "Witches of the Hollow",
            "popularity": 1.207
        }
    ],
    "relations": [
        {
            "character": "ollowm"
        },
        {
            "character": "ollowa"
        },
        {
            "character": "ollowe"
        },
        {
            "character": "ollowi"
        }
    ],
    "top20": [
        {
            "id": 50825,
            "original_name": "Sleepy Hollow",
            "popularity": 26.331
        },
        {
            "id": 45094,
            "original_name": "The Following",
            "popularity": 21.651
        },
        {
            "id": 44037,
            "original_name": "The Hollow Crown",
            "popularity": 14.71
        },
        {
            "id": 124139,
            "original_name": "Follow de SOA",
            "popularity": 8.966
        },
        {
            "id": 79948,
            "original_name": "The Hollow",
            "popularity": 7.686
        },
        {
            "id": 98772,
            "original_name": "Followers",
            "popularity": 6.668
        },
        {
            "id": 14040,
            "original_name": "Follow the Sun",
            "popularity": 2.412
        },
        {
            "id": 8652,
            "original_name": "The Hollow Men",
            "popularity": 1.625
        },
        {
            "id": 117625,
            "original_name": "Follow Me",
            "popularity": 1.235
        },
        {
            "id": 138507,
            "original_name": "Witches of the Hollow",
            "popularity": 1.207
        },
        {
            "id": 42549,
            "original_name": "Buster Keaton: A Hard Act to Follow",
            "popularity": 1.151
        },
        {
            "id": 81852,
            "original_name": "Follow This",
            "popularity": 1.061
        },
        {
            "id": 7371,
            "original_name": "The Hollowmen",
            "popularity": 0.84
        },
        {
            "id": 73387,
            "original_name": "The Disappearance of Natalee Holloway",
            "popularity": 0.631
        },
        {
            "id": 90041,
            "original_name": "Follow San Francisco",
            "popularity": 0.612
        },
        {
            "id": 5010,
            "original_name": "Camp Orange: Slimey Hollow",
            "popularity": 0.6
        },
        {
            "id": 19771,
            "original_name": "Follow Your Nose",
            "popularity": 0.6
        },
        {
            "id": 10572,
            "original_name": "Rupert Bear, Follow the Magic...",
            "popularity": 0.6
        },
        {
            "id": 8140,
            "original_name": "Rocky Hollow",
            "popularity": 0.6
        },
        {
            "id": 16849,
            "original_name": "Follow Me!",
            "popularity": 0.6
        }
    ]
}