{
    "data": [
        {
            "id": 6002,
            "original_name": "Danger! 50,000 Volts!",
            "popularity": 0.6
        },
        {
            "id": 14205,
            "original_name": "Nuts and Bolts",
            "popularity": 0.6
        },
        {
            "id": 26070,
            "original_name": "Guts & Bolts",
            "popularity": 0.6
        },
        {
            "id": 49682,
            "original_name": "Who Are the DeBolts? And Where Did They Get Nineteen Kids?",
            "popularity": 0.6
        },
        {
            "id": 56758,
            "original_name": "Wrong Volts",
            "popularity": 0.6
        },
        {
            "id": 58110,
            "original_name": "Bolts and Blip",
            "popularity": 0.65
        },
        {
            "id": 60124,
            "original_name": "Colts: The Complete History",
            "popularity": 0.6
        },
        {
            "id": 72703,
            "original_name": "Nuts + Bolts",
            "popularity": 0.631
        },
        {
            "id": 124915,
            "original_name": "220 Volts",
            "popularity": 0.6
        },
        {
            "id": 138993,
            "original_name": "Hard Knocks In Season: The Indianapolis Colts",
            "popularity": 5.282
        }
    ],
    "relations": [],
    "top20": [
        {
            "id": 6002,
            "original_name": "Danger! 50,000 Volts!",
            "popularity": 0.6
        },
        {
            "id": 14205,
            "original_name": "Nuts and Bolts",
            "popularity": 0.6
        },
        {
            "id": 26070,
            "original_name": "Guts & Bolts",
            "popularity": 0.6
        },
        {
            "id": 49682,
            "original_name": "Who Are the DeBolts? And Where Did They Get Nineteen Kids?",
            "popularity": 0.6
        },
        {
            "id": 56758,
            "original_name": "Wrong Volts",
            "popularity": 0.6
        },
        {
            "id": 58110,
            "original_name": "Bolts and Blip",
            "popularity": 0.65
        },
        {
            "id": 60124,
            "original_name": "Colts: The Complete History",
            "popularity": 0.6
        },
        {
            "id": 72703,
            "original_name": "Nuts + Bolts",
            "popularity": 0.631
        },
        {
            "id": 124915,
            "original_name": "220 Volts",
            "popularity": 0.6
        },
        {
            "id": 138993,
            "original_name": "Hard Knocks In Season: The Indianapolis Colts",
            "popularity": 5.282
        }
    ]
}