{
    "data": [
        {
            "id": 14280,
            "original_name": "The Mad, Mad, Mad Comedians",
            "popularity": 0.6
        },
        {
            "id": 19051,
            "original_name": "The Comedians",
            "popularity": 2.971
        },
        {
            "id": 20491,
            "original_name": "Musicomedia",
            "popularity": 0.6
        },
        {
            "id": 24216,
            "original_name": "Comedians of Comedy",
            "popularity": 1.232
        },
        {
            "id": 25129,
            "original_name": "Three Comedies of Marriage",
            "popularity": 0.6
        },
        {
            "id": 26886,
            "original_name": "Young Comedians",
            "popularity": 0.6
        },
        {
            "id": 36051,
            "original_name": "Comedians of Chelsea Lately",
            "popularity": 0.6
        },
        {
            "id": 49926,
            "original_name": "Komedi Dukkani",
            "popularity": 1.176
        },
        {
            "id": 52989,
            "original_name": "The Comedian Thailand",
            "popularity": 0.6
        },
        {
            "id": 54678,
            "original_name": "Acts of Love and Other Comedies",
            "popularity": 0.6
        },
        {
            "id": 55675,
            "original_name": "Comedian vindt werk",
            "popularity": 0.6
        },
        {
            "id": 59717,
            "original_name": "Comedians in Cars Getting Coffee",
            "popularity": 10.669
        },
        {
            "id": 60386,
            "original_name": "Who Wants to Date a Comedian?",
            "popularity": 0.654
        },
        {
            "id": 61589,
            "original_name": "El Club de la Comedia",
            "popularity": 8.085
        },
        {
            "id": 62180,
            "original_name": "The Comedians",
            "popularity": 3.077
        },
        {
            "id": 68936,
            "original_name": "Comedians in Cars Getting Coffee: Single Shot",
            "popularity": 1.93
        },
        {
            "id": 71091,
            "original_name": "El fin de la comedia",
            "popularity": 0.6
        },
        {
            "id": 75913,
            "original_name": "The Comedians",
            "popularity": 0.888
        },
        {
            "id": 75927,
            "original_name": "BadComedian",
            "popularity": 0.903
        },
        {
            "id": 84485,
            "original_name": "Romesh: Talking to Comedians",
            "popularity": 0.854
        },
        {
            "id": 85418,
            "original_name": "COMEDIANS of the world",
            "popularity": 2.269
        },
        {
            "id": 93273,
            "original_name": "Comedians Giving Lectures",
            "popularity": 23.71
        },
        {
            "id": 97251,
            "original_name": "Bonne f\u00eate ComediHa!",
            "popularity": 0.6
        },
        {
            "id": 98175,
            "original_name": "La Comedia Musical Espa\u00f1ola",
            "popularity": 1.4
        },
        {
            "id": 98654,
            "original_name": "El club de la comedia",
            "popularity": 3.762
        },
        {
            "id": 101034,
            "original_name": "La Fiesta de los Comediantes",
            "popularity": 0.6
        },
        {
            "id": 101322,
            "original_name": "Sucupira, la comedia",
            "popularity": 1.883
        },
        {
            "id": 113649,
            "original_name": "Comedians: Home Alone",
            "popularity": 0.6
        },
        {
            "id": 114337,
            "original_name": "Komedianter",
            "popularity": 0.6
        },
        {
            "id": 114846,
            "original_name": "Wifi Comedie Club",
            "popularity": 0.6
        },
        {
            "id": 116367,
            "original_name": "House Hunters Comedians On Couches: Unfiltered",
            "popularity": 0.6
        }
    ],
    "relations": [
        {
            "character": "omedia"
        },
        {
            "character": "omedie"
        },
        {
            "character": "omedih"
        }
    ],
    "top20": [
        {
            "id": 93273,
            "original_name": "Comedians Giving Lectures",
            "popularity": 23.71
        },
        {
            "id": 59717,
            "original_name": "Comedians in Cars Getting Coffee",
            "popularity": 10.669
        },
        {
            "id": 61589,
            "original_name": "El Club de la Comedia",
            "popularity": 8.085
        },
        {
            "id": 98654,
            "original_name": "El club de la comedia",
            "popularity": 3.762
        },
        {
            "id": 62180,
            "original_name": "The Comedians",
            "popularity": 3.077
        },
        {
            "id": 19051,
            "original_name": "The Comedians",
            "popularity": 2.971
        },
        {
            "id": 85418,
            "original_name": "COMEDIANS of the world",
            "popularity": 2.269
        },
        {
            "id": 68936,
            "original_name": "Comedians in Cars Getting Coffee: Single Shot",
            "popularity": 1.93
        },
        {
            "id": 101322,
            "original_name": "Sucupira, la comedia",
            "popularity": 1.883
        },
        {
            "id": 98175,
            "original_name": "La Comedia Musical Espa\u00f1ola",
            "popularity": 1.4
        },
        {
            "id": 24216,
            "original_name": "Comedians of Comedy",
            "popularity": 1.232
        },
        {
            "id": 49926,
            "original_name": "Komedi Dukkani",
            "popularity": 1.176
        },
        {
            "id": 75927,
            "original_name": "BadComedian",
            "popularity": 0.903
        },
        {
            "id": 75913,
            "original_name": "The Comedians",
            "popularity": 0.888
        },
        {
            "id": 84485,
            "original_name": "Romesh: Talking to Comedians",
            "popularity": 0.854
        },
        {
            "id": 60386,
            "original_name": "Who Wants to Date a Comedian?",
            "popularity": 0.654
        },
        {
            "id": 20491,
            "original_name": "Musicomedia",
            "popularity": 0.6
        },
        {
            "id": 14280,
            "original_name": "The Mad, Mad, Mad Comedians",
            "popularity": 0.6
        },
        {
            "id": 26886,
            "original_name": "Young Comedians",
            "popularity": 0.6
        },
        {
            "id": 25129,
            "original_name": "Three Comedies of Marriage",
            "popularity": 0.6
        }
    ]
}