{
    "data": [
        {
            "id": 3139,
            "original_name": "Bloomers",
            "popularity": 0.6
        },
        {
            "id": 5243,
            "original_name": "Somerset",
            "popularity": 9.938
        },
        {
            "id": 9082,
            "original_name": "11 Somerset",
            "popularity": 0.6
        },
        {
            "id": 14828,
            "original_name": "The Newcomers",
            "popularity": 0.6
        },
        {
            "id": 15043,
            "original_name": "The Newcomers",
            "popularity": 0.84
        },
        {
            "id": 18336,
            "original_name": "Auntie's Bloomers",
            "popularity": 0.6
        },
        {
            "id": 22946,
            "original_name": "Somerset Maugham Theatre",
            "popularity": 1.4
        },
        {
            "id": 24577,
            "original_name": "The CBS Newcomers",
            "popularity": 0.84
        },
        {
            "id": 26523,
            "original_name": "Roy Walker's TV Bloomers",
            "popularity": 0.6
        },
        {
            "id": 26864,
            "original_name": "The Daryl Somers Show",
            "popularity": 0.6
        },
        {
            "id": 29854,
            "original_name": "Somerset Maugham Hour",
            "popularity": 0.6
        },
        {
            "id": 36718,
            "original_name": "Cowboy Customers",
            "popularity": 0.6
        },
        {
            "id": 45772,
            "original_name": "W. Somerset Maugham",
            "popularity": 0.6
        },
        {
            "id": 47417,
            "original_name": "The Astronomers",
            "popularity": 0.6
        },
        {
            "id": 47910,
            "original_name": "Brazil - City Of Newcomers",
            "popularity": 0.6
        },
        {
            "id": 48813,
            "original_name": "Suzanne Somers... And 10,000 G.I.'s",
            "popularity": 0.6
        },
        {
            "id": 66029,
            "original_name": "Boomers",
            "popularity": 2.223
        },
        {
            "id": 92167,
            "original_name": "My Customers",
            "popularity": 0.6
        },
        {
            "id": 128873,
            "original_name": "De Verwondering Zomerdromers",
            "popularity": 0.6
        },
        {
            "id": 133979,
            "original_name": "Twee Zomers",
            "popularity": 1.121
        }
    ],
    "relations": [],
    "top20": [
        {
            "id": 3139,
            "original_name": "Bloomers",
            "popularity": 0.6
        },
        {
            "id": 5243,
            "original_name": "Somerset",
            "popularity": 9.938
        },
        {
            "id": 9082,
            "original_name": "11 Somerset",
            "popularity": 0.6
        },
        {
            "id": 14828,
            "original_name": "The Newcomers",
            "popularity": 0.6
        },
        {
            "id": 15043,
            "original_name": "The Newcomers",
            "popularity": 0.84
        },
        {
            "id": 18336,
            "original_name": "Auntie's Bloomers",
            "popularity": 0.6
        },
        {
            "id": 22946,
            "original_name": "Somerset Maugham Theatre",
            "popularity": 1.4
        },
        {
            "id": 24577,
            "original_name": "The CBS Newcomers",
            "popularity": 0.84
        },
        {
            "id": 26523,
            "original_name": "Roy Walker's TV Bloomers",
            "popularity": 0.6
        },
        {
            "id": 26864,
            "original_name": "The Daryl Somers Show",
            "popularity": 0.6
        },
        {
            "id": 29854,
            "original_name": "Somerset Maugham Hour",
            "popularity": 0.6
        },
        {
            "id": 36718,
            "original_name": "Cowboy Customers",
            "popularity": 0.6
        },
        {
            "id": 45772,
            "original_name": "W. Somerset Maugham",
            "popularity": 0.6
        },
        {
            "id": 47417,
            "original_name": "The Astronomers",
            "popularity": 0.6
        },
        {
            "id": 47910,
            "original_name": "Brazil - City Of Newcomers",
            "popularity": 0.6
        },
        {
            "id": 48813,
            "original_name": "Suzanne Somers... And 10,000 G.I.'s",
            "popularity": 0.6
        },
        {
            "id": 66029,
            "original_name": "Boomers",
            "popularity": 2.223
        },
        {
            "id": 92167,
            "original_name": "My Customers",
            "popularity": 0.6
        },
        {
            "id": 128873,
            "original_name": "De Verwondering Zomerdromers",
            "popularity": 0.6
        },
        {
            "id": 133979,
            "original_name": "Twee Zomers",
            "popularity": 1.121
        }
    ]
}