{
    "data": [
        {
            "id": 1448,
            "original_name": "thirtysomething",
            "popularity": 16.003
        },
        {
            "id": 3651,
            "original_name": "Do Something Different",
            "popularity": 0.6
        },
        {
            "id": 3933,
            "original_name": "Desperately Seeking Something",
            "popularity": 0.6
        },
        {
            "id": 5252,
            "original_name": "We'll Think of Something",
            "popularity": 0.6
        },
        {
            "id": 9355,
            "original_name": "Something Special",
            "popularity": 1.239
        },
        {
            "id": 9382,
            "original_name": "Something Stupid",
            "popularity": 0.6
        },
        {
            "id": 11051,
            "original_name": "The Girl with Something Extra",
            "popularity": 2.949
        },
        {
            "id": 11972,
            "original_name": "There's Something About Miriam",
            "popularity": 0.84
        },
        {
            "id": 12517,
            "original_name": "Something Is Out There",
            "popularity": 3.385
        },
        {
            "id": 13651,
            "original_name": "Something for the Weekend",
            "popularity": 0.6
        },
        {
            "id": 14411,
            "original_name": "Something So Right",
            "popularity": 2.612
        },
        {
            "id": 15008,
            "original_name": "Something in the Air",
            "popularity": 6.877
        },
        {
            "id": 16298,
            "original_name": "Something Wilder",
            "popularity": 3.415
        },
        {
            "id": 18038,
            "original_name": "Something Evil",
            "popularity": 0.6
        },
        {
            "id": 20931,
            "original_name": "Twenty something tv",
            "popularity": 0.6
        },
        {
            "id": 21007,
            "original_name": "Fortysomething",
            "popularity": 3.893
        },
        {
            "id": 21129,
            "original_name": "Something Else",
            "popularity": 0.6
        },
        {
            "id": 21516,
            "original_name": "Something Remote",
            "popularity": 0.6
        },
        {
            "id": 22911,
            "original_name": "Up To Something",
            "popularity": 0.6
        },
        {
            "id": 23384,
            "original_name": "Now - Something Else",
            "popularity": 1.091
        },
        {
            "id": 28542,
            "original_name": "Something In The City",
            "popularity": 0.6
        },
        {
            "id": 29801,
            "original_name": "Too Something",
            "popularity": 1.925
        },
        {
            "id": 31048,
            "original_name": "Something in Common",
            "popularity": 0.6
        },
        {
            "id": 32221,
            "original_name": "Something Theater",
            "popularity": 0.6
        },
        {
            "id": 36657,
            "original_name": "The Do Something Awards",
            "popularity": 0.6
        },
        {
            "id": 39866,
            "original_name": "Too Something",
            "popularity": 0.6
        },
        {
            "id": 40287,
            "original_name": "twentysomething",
            "popularity": 0.6
        },
        {
            "id": 47368,
            "original_name": "Something About Amelia",
            "popularity": 0.6
        },
        {
            "id": 55551,
            "original_name": "Something Special - We're All Friends",
            "popularity": 0.6
        },
        {
            "id": 59473,
            "original_name": "Something for the Weekend",
            "popularity": 0.6
        },
        {
            "id": 59505,
            "original_name": "Something Borrowed, Something New",
            "popularity": 0.6
        },
        {
            "id": 63275,
            "original_name": "Was It Something I Said?",
            "popularity": 2.436
        },
        {
            "id": 68609,
            "original_name": "30 Something Grandma",
            "popularity": 0.6
        },
        {
            "id": 77275,
            "original_name": "Something Is Out There",
            "popularity": 1.664
        },
        {
            "id": 86023,
            "original_name": "Something's Killing Me",
            "popularity": 3.204
        },
        {
            "id": 92696,
            "original_name": "There's Something About Movies",
            "popularity": 1.292
        },
        {
            "id": 100346,
            "original_name": "Something Else To Wrestle",
            "popularity": 0.604
        },
        {
            "id": 123319,
            "original_name": "Show About Something Stupid",
            "popularity": 1.4
        },
        {
            "id": 128903,
            "original_name": "Something is Killing the Children",
            "popularity": 0.6
        },
        {
            "id": 134324,
            "original_name": "Something Undone",
            "popularity": 0.84
        }
    ],
    "relations": [
        {
            "character": "omething"
        }
    ],
    "top20": [
        {
            "id": 1448,
            "original_name": "thirtysomething",
            "popularity": 16.003
        },
        {
            "id": 15008,
            "original_name": "Something in the Air",
            "popularity": 6.877
        },
        {
            "id": 21007,
            "original_name": "Fortysomething",
            "popularity": 3.893
        },
        {
            "id": 16298,
            "original_name": "Something Wilder",
            "popularity": 3.415
        },
        {
            "id": 12517,
            "original_name": "Something Is Out There",
            "popularity": 3.385
        },
        {
            "id": 86023,
            "original_name": "Something's Killing Me",
            "popularity": 3.204
        },
        {
            "id": 11051,
            "original_name": "The Girl with Something Extra",
            "popularity": 2.949
        },
        {
            "id": 14411,
            "original_name": "Something So Right",
            "popularity": 2.612
        },
        {
            "id": 63275,
            "original_name": "Was It Something I Said?",
            "popularity": 2.436
        },
        {
            "id": 29801,
            "original_name": "Too Something",
            "popularity": 1.925
        },
        {
            "id": 77275,
            "original_name": "Something Is Out There",
            "popularity": 1.664
        },
        {
            "id": 123319,
            "original_name": "Show About Something Stupid",
            "popularity": 1.4
        },
        {
            "id": 92696,
            "original_name": "There's Something About Movies",
            "popularity": 1.292
        },
        {
            "id": 9355,
            "original_name": "Something Special",
            "popularity": 1.239
        },
        {
            "id": 23384,
            "original_name": "Now - Something Else",
            "popularity": 1.091
        },
        {
            "id": 11972,
            "original_name": "There's Something About Miriam",
            "popularity": 0.84
        },
        {
            "id": 134324,
            "original_name": "Something Undone",
            "popularity": 0.84
        },
        {
            "id": 100346,
            "original_name": "Something Else To Wrestle",
            "popularity": 0.604
        },
        {
            "id": 3933,
            "original_name": "Desperately Seeking Something",
            "popularity": 0.6
        },
        {
            "id": 3651,
            "original_name": "Do Something Different",
            "popularity": 0.6
        }
    ]
}