{
    "data": [
        {
            "id": 994,
            "original_name": "Kommissar Rex",
            "popularity": 32.882
        },
        {
            "id": 1698,
            "original_name": "Der Kommissar",
            "popularity": 10.19
        },
        {
            "id": 7676,
            "original_name": "Commissaire Moulin",
            "popularity": 8.027
        },
        {
            "id": 11906,
            "original_name": "Die Kommissarin",
            "popularity": 6.754
        },
        {
            "id": 20777,
            "original_name": "Kommissar Stolberg",
            "popularity": 6.322
        },
        {
            "id": 37290,
            "original_name": "Il Commissario Montalbano",
            "popularity": 15.523
        },
        {
            "id": 40627,
            "original_name": "Kommissarin Lucas",
            "popularity": 4.245
        },
        {
            "id": 40772,
            "original_name": "Niedrig und Kuhnt \u2013 Kommissare ermitteln",
            "popularity": 2.072
        },
        {
            "id": 40805,
            "original_name": "K11 \u2013 Kommissare im Einsatz",
            "popularity": 2.659
        },
        {
            "id": 40820,
            "original_name": "Un commissario a Roma",
            "popularity": 0.6
        },
        {
            "id": 40837,
            "original_name": "Kommissar Brahm",
            "popularity": 1.396
        },
        {
            "id": 40889,
            "original_name": "Il commissario Manara",
            "popularity": 1.43
        },
        {
            "id": 40954,
            "original_name": "Il commissario Corso",
            "popularity": 0.6
        },
        {
            "id": 41047,
            "original_name": "Commissario Laurenti",
            "popularity": 1.261
        },
        {
            "id": 41083,
            "original_name": "Kommissar Freytag",
            "popularity": 1.523
        },
        {
            "id": 41248,
            "original_name": "Il commissario De Vincenzi",
            "popularity": 0.6
        },
        {
            "id": 41261,
            "original_name": "Der Kommissar und das Meer",
            "popularity": 3.708
        },
        {
            "id": 41278,
            "original_name": "Il commissario",
            "popularity": 1.716
        },
        {
            "id": 41582,
            "original_name": "Io e mio figlio \u2013 Nuove storie per il commissario Vivaldi",
            "popularity": 0.939
        },
        {
            "id": 50730,
            "original_name": "Le inchieste del commissario Maigret",
            "popularity": 1.224
        },
        {
            "id": 52169,
            "original_name": "Kommissarie Winter",
            "popularity": 1.788
        },
        {
            "id": 58153,
            "original_name": "Kommissar Isaksen",
            "popularity": 0.6
        },
        {
            "id": 60746,
            "original_name": "Kommissar Klefisch",
            "popularity": 0.757
        },
        {
            "id": 61597,
            "original_name": "Kommissarin Heller",
            "popularity": 3.753
        },
        {
            "id": 62965,
            "original_name": "Kommissar Schimpanski",
            "popularity": 1.525
        },
        {
            "id": 63105,
            "original_name": "Elvis und der Kommissar",
            "popularity": 1.304
        },
        {
            "id": 63125,
            "original_name": "Kommissariat 9",
            "popularity": 4.223
        },
        {
            "id": 63172,
            "original_name": "Kommissarin Goedeke",
            "popularity": 0.884
        },
        {
            "id": 64813,
            "original_name": "Commissaire Magellan",
            "popularity": 4.074
        },
        {
            "id": 65509,
            "original_name": "Il commissario De Luca",
            "popularity": 0.6
        },
        {
            "id": 66638,
            "original_name": "Commissaires-priseurs !",
            "popularity": 0.6
        },
        {
            "id": 67438,
            "original_name": "Commissariat Central",
            "popularity": 1.387
        },
        {
            "id": 70597,
            "original_name": "Les Enqu\u00eates du commissaire Maigret",
            "popularity": 3.95
        },
        {
            "id": 71770,
            "original_name": "Maltese - Il Romanzo del Commissario",
            "popularity": 3.142
        },
        {
            "id": 75047,
            "original_name": "Il Commissario Zagaria",
            "popularity": 0.6
        },
        {
            "id": 75217,
            "original_name": "Commissaire Cordier",
            "popularity": 0.6
        },
        {
            "id": 77251,
            "original_name": "Les Enqu\u00eates du commissaire Laviolette",
            "popularity": 0.707
        },
        {
            "id": 81333,
            "original_name": "Einsatz in K\u00f6ln \u2013 Die Kommissare",
            "popularity": 1.098
        },
        {
            "id": 82311,
            "original_name": "Die Jugendcops - Kommissariat 105 im Einsatz",
            "popularity": 0.6
        },
        {
            "id": 82612,
            "original_name": "Kommissar Zufall",
            "popularity": 0.914
        },
        {
            "id": 82613,
            "original_name": "Kommissarin Seiler ermittelt",
            "popularity": 1.39
        },
        {
            "id": 85093,
            "original_name": "Il Commissario Nardone",
            "popularity": 0.6
        },
        {
            "id": 95926,
            "original_name": "Il commissario Rex",
            "popularity": 3.337
        },
        {
            "id": 100789,
            "original_name": "Kommissarie Winter",
            "popularity": 0.84
        },
        {
            "id": 101295,
            "original_name": "Commissaire Valence",
            "popularity": 0.6
        },
        {
            "id": 101607,
            "original_name": "Gr\u00fcnberg und Kuhnt - Kommissare ermitteln",
            "popularity": 0.6
        },
        {
            "id": 101959,
            "original_name": "Commissariat Bastille",
            "popularity": 0.6
        },
        {
            "id": 103911,
            "original_name": "Kommissar LaBr\u00e9a",
            "popularity": 1.4
        },
        {
            "id": 111878,
            "original_name": "Une enqu\u00eate du commissaire Pr\u00e9v\u00f4t",
            "popularity": 0.66
        },
        {
            "id": 116179,
            "original_name": "Il Commissario Ricciardi",
            "popularity": 1.779
        },
        {
            "id": 136859,
            "original_name": "Commissaire Dupin",
            "popularity": 0.6
        }
    ],
    "relations": [
        {
            "character": "ommissar"
        },
        {
            "character": "ommissai"
        }
    ],
    "top20": [
        {
            "id": 994,
            "original_name": "Kommissar Rex",
            "popularity": 32.882
        },
        {
            "id": 37290,
            "original_name": "Il Commissario Montalbano",
            "popularity": 15.523
        },
        {
            "id": 1698,
            "original_name": "Der Kommissar",
            "popularity": 10.19
        },
        {
            "id": 7676,
            "original_name": "Commissaire Moulin",
            "popularity": 8.027
        },
        {
            "id": 11906,
            "original_name": "Die Kommissarin",
            "popularity": 6.754
        },
        {
            "id": 20777,
            "original_name": "Kommissar Stolberg",
            "popularity": 6.322
        },
        {
            "id": 40627,
            "original_name": "Kommissarin Lucas",
            "popularity": 4.245
        },
        {
            "id": 63125,
            "original_name": "Kommissariat 9",
            "popularity": 4.223
        },
        {
            "id": 64813,
            "original_name": "Commissaire Magellan",
            "popularity": 4.074
        },
        {
            "id": 70597,
            "original_name": "Les Enqu\u00eates du commissaire Maigret",
            "popularity": 3.95
        },
        {
            "id": 61597,
            "original_name": "Kommissarin Heller",
            "popularity": 3.753
        },
        {
            "id": 41261,
            "original_name": "Der Kommissar und das Meer",
            "popularity": 3.708
        },
        {
            "id": 95926,
            "original_name": "Il commissario Rex",
            "popularity": 3.337
        },
        {
            "id": 71770,
            "original_name": "Maltese - Il Romanzo del Commissario",
            "popularity": 3.142
        },
        {
            "id": 40805,
            "original_name": "K11 \u2013 Kommissare im Einsatz",
            "popularity": 2.659
        },
        {
            "id": 40772,
            "original_name": "Niedrig und Kuhnt \u2013 Kommissare ermitteln",
            "popularity": 2.072
        },
        {
            "id": 52169,
            "original_name": "Kommissarie Winter",
            "popularity": 1.788
        },
        {
            "id": 116179,
            "original_name": "Il Commissario Ricciardi",
            "popularity": 1.779
        },
        {
            "id": 41278,
            "original_name": "Il commissario",
            "popularity": 1.716
        },
        {
            "id": 62965,
            "original_name": "Kommissar Schimpanski",
            "popularity": 1.525
        }
    ]
}