{
    "data": [
        {
            "id": 681,
            "original_name": "The Girl from Tomorrow",
            "popularity": 3.961
        },
        {
            "id": 1550,
            "original_name": "The Tomorrow People",
            "popularity": 2.872
        },
        {
            "id": 1597,
            "original_name": "Search for Tomorrow",
            "popularity": 7.742
        },
        {
            "id": 1987,
            "original_name": "Beyond Tomorrow",
            "popularity": 1.439
        },
        {
            "id": 2757,
            "original_name": "Tomorrow's Pioneers",
            "popularity": 0.6
        },
        {
            "id": 4117,
            "original_name": "It Could Happen Tomorrow",
            "popularity": 0.6
        },
        {
            "id": 4159,
            "original_name": "Tomorrow",
            "popularity": 0.62
        },
        {
            "id": 4648,
            "original_name": "Baseball King Tomorrow",
            "popularity": 0.78
        },
        {
            "id": 5557,
            "original_name": "This Time Tomorrow",
            "popularity": 0.6
        },
        {
            "id": 7710,
            "original_name": "Sports Stars of Tomorrow",
            "popularity": 0.6
        },
        {
            "id": 9437,
            "original_name": "Until Tomorrow",
            "popularity": 0.6
        },
        {
            "id": 13293,
            "original_name": "The New Tomorrow",
            "popularity": 0.652
        },
        {
            "id": 14673,
            "original_name": "Play for Tomorrow",
            "popularity": 0.6
        },
        {
            "id": 15060,
            "original_name": "The Day After Tomorrow",
            "popularity": 0.89
        },
        {
            "id": 15157,
            "original_name": "Tomorrow's World",
            "popularity": 4.698
        },
        {
            "id": 15487,
            "original_name": "Tales of Tomorrow",
            "popularity": 8.754
        },
        {
            "id": 18261,
            "original_name": "Verdict for Tomorrow: The Eichmann Trial on Television",
            "popularity": 0.6
        },
        {
            "id": 19223,
            "original_name": "The World Tomorrow",
            "popularity": 0.6
        },
        {
            "id": 20665,
            "original_name": "A Promise for Tomorrow",
            "popularity": 0.654
        },
        {
            "id": 21325,
            "original_name": "Xiu Min\u2019s Tennis King Tomorrow",
            "popularity": 0.6
        },
        {
            "id": 24189,
            "original_name": "Beyond Tomorrow (US)",
            "popularity": 0.6
        },
        {
            "id": 24519,
            "original_name": "The Man from Tomorrow",
            "popularity": 0.6
        },
        {
            "id": 26725,
            "original_name": "If Tomorrow Comes",
            "popularity": 10.092
        },
        {
            "id": 30475,
            "original_name": "Tomorrow's Child",
            "popularity": 0.6
        },
        {
            "id": 39010,
            "original_name": "Stars of Tomorrow",
            "popularity": 0.6
        },
        {
            "id": 39122,
            "original_name": "Gomorron",
            "popularity": 0.966
        },
        {
            "id": 42526,
            "original_name": "The World Tomorrow",
            "popularity": 0.6
        },
        {
            "id": 48860,
            "original_name": "The Tomorrow People",
            "popularity": 27.554
        },
        {
            "id": 53885,
            "original_name": "Tomorrow is better",
            "popularity": 0.6
        },
        {
            "id": 57084,
            "original_name": "Tomorrow in Chains",
            "popularity": 0.6
        },
        {
            "id": 57201,
            "original_name": "If There's Still A Tomorrow",
            "popularity": 0.6
        },
        {
            "id": 59663,
            "original_name": "Through the Eyes of Tomorrow",
            "popularity": 0.6
        },
        {
            "id": 61068,
            "original_name": "Gomorra - La serie",
            "popularity": 52.391
        },
        {
            "id": 62181,
            "original_name": "Miles from Tomorrowland",
            "popularity": 6.626
        },
        {
            "id": 62643,
            "original_name": "DC's Legends of Tomorrow",
            "popularity": 151.429
        },
        {
            "id": 64516,
            "original_name": "Tomorrow",
            "popularity": 1.342
        },
        {
            "id": 65919,
            "original_name": "Tomorrow When the War Began",
            "popularity": 4.263
        },
        {
            "id": 67134,
            "original_name": "No Tomorrow",
            "popularity": 12.364
        },
        {
            "id": 77813,
            "original_name": "Cities Of Tomorrow",
            "popularity": 0.6
        },
        {
            "id": 80558,
            "original_name": "We Were Tomorrow",
            "popularity": 2.667
        },
        {
            "id": 82661,
            "original_name": "Saving My Tomorrow",
            "popularity": 0.6
        },
        {
            "id": 84023,
            "original_name": "Tomorrow Tonight",
            "popularity": 0.6
        },
        {
            "id": 90668,
            "original_name": "Futuropolis: Mapping the City of Tomorrow",
            "popularity": 0.858
        },
        {
            "id": 102866,
            "original_name": "People Of Tomorrow",
            "popularity": 0.6
        },
        {
            "id": 110195,
            "original_name": "TO DO X TOMORROW X TOGETHER",
            "popularity": 1.445
        },
        {
            "id": 113255,
            "original_name": "Tomorrow's Worlds: The Unearthly History of Science Fiction",
            "popularity": 0.6
        },
        {
            "id": 114251,
            "original_name": "The Tomorrow People",
            "popularity": 0.6
        },
        {
            "id": 120774,
            "original_name": "Space Tomorrow",
            "popularity": 0.6
        },
        {
            "id": 125000,
            "original_name": "Hello Tomorrow!",
            "popularity": 8.041
        },
        {
            "id": 128897,
            "original_name": "Gli Effetti di Gomorra La Serie sulla Gente",
            "popularity": 2.771
        },
        {
            "id": 130805,
            "original_name": "Marvel Knights: Wolverine Weapon X: Tomorrow Dies Today",
            "popularity": 1.547
        },
        {
            "id": 136863,
            "original_name": "Una storia chiamata Gomorra - La serie",
            "popularity": 3.508
        },
        {
            "id": 138690,
            "original_name": "TOMORROW X TOGETHER Comeback Show : Blue Hour",
            "popularity": 0.681
        },
        {
            "id": 138693,
            "original_name": "TOMORROW X TOGETHER Debut Celebration Show presented by Mnet",
            "popularity": 0.6
        },
        {
            "id": 139234,
            "original_name": "TOMORROW X TOGETHER \uc6f0\ucef4\ubc31\uc1fc",
            "popularity": 0.6
        },
        {
            "id": 139236,
            "original_name": "TOMORROW X TOGETHER \ucef4\ubc31\uc1fc",
            "popularity": 0.6
        },
        {
            "id": 146091,
            "original_name": "TOMORROW X TOGETHER \ucef4\ubc31\uc1fc \u2032FREEZE\u2032 (\ud504\ub9ac\uc988)",
            "popularity": 0.6
        }
    ],
    "relations": [
        {
            "character": "omorro"
        },
        {
            "character": "omorra"
        }
    ],
    "top20": [
        {
            "id": 62643,
            "original_name": "DC's Legends of Tomorrow",
            "popularity": 151.429
        },
        {
            "id": 61068,
            "original_name": "Gomorra - La serie",
            "popularity": 52.391
        },
        {
            "id": 48860,
            "original_name": "The Tomorrow People",
            "popularity": 27.554
        },
        {
            "id": 67134,
            "original_name": "No Tomorrow",
            "popularity": 12.364
        },
        {
            "id": 26725,
            "original_name": "If Tomorrow Comes",
            "popularity": 10.092
        },
        {
            "id": 15487,
            "original_name": "Tales of Tomorrow",
            "popularity": 8.754
        },
        {
            "id": 125000,
            "original_name": "Hello Tomorrow!",
            "popularity": 8.041
        },
        {
            "id": 1597,
            "original_name": "Search for Tomorrow",
            "popularity": 7.742
        },
        {
            "id": 62181,
            "original_name": "Miles from Tomorrowland",
            "popularity": 6.626
        },
        {
            "id": 15157,
            "original_name": "Tomorrow's World",
            "popularity": 4.698
        },
        {
            "id": 65919,
            "original_name": "Tomorrow When the War Began",
            "popularity": 4.263
        },
        {
            "id": 681,
            "original_name": "The Girl from Tomorrow",
            "popularity": 3.961
        },
        {
            "id": 136863,
            "original_name": "Una storia chiamata Gomorra - La serie",
            "popularity": 3.508
        },
        {
            "id": 1550,
            "original_name": "The Tomorrow People",
            "popularity": 2.872
        },
        {
            "id": 128897,
            "original_name": "Gli Effetti di Gomorra La Serie sulla Gente",
            "popularity": 2.771
        },
        {
            "id": 80558,
            "original_name": "We Were Tomorrow",
            "popularity": 2.667
        },
        {
            "id": 130805,
            "original_name": "Marvel Knights: Wolverine Weapon X: Tomorrow Dies Today",
            "popularity": 1.547
        },
        {
            "id": 110195,
            "original_name": "TO DO X TOMORROW X TOGETHER",
            "popularity": 1.445
        },
        {
            "id": 1987,
            "original_name": "Beyond Tomorrow",
            "popularity": 1.439
        },
        {
            "id": 64516,
            "original_name": "Tomorrow",
            "popularity": 1.342
        }
    ]
}