{
    "data": [
        {
            "id": 61068,
            "original_name": "Gomorra - La serie",
            "popularity": 52.391
        },
        {
            "id": 128897,
            "original_name": "Gli Effetti di Gomorra La Serie sulla Gente",
            "popularity": 2.771
        },
        {
            "id": 136863,
            "original_name": "Una storia chiamata Gomorra - La serie",
            "popularity": 3.508
        }
    ],
    "relations": [],
    "top20": [
        {
            "id": 61068,
            "original_name": "Gomorra - La serie",
            "popularity": 52.391
        },
        {
            "id": 128897,
            "original_name": "Gli Effetti di Gomorra La Serie sulla Gente",
            "popularity": 2.771
        },
        {
            "id": 136863,
            "original_name": "Una storia chiamata Gomorra - La serie",
            "popularity": 3.508
        }
    ]
}