{
    "data": [
        {
            "id": 28518,
            "original_name": "Stephen Tompkinson's African Balloon Adventure",
            "popularity": 0.6
        },
        {
            "id": 64126,
            "original_name": "Stephen Tompkinson's Australian Balloon Adventure",
            "popularity": 0.6
        }
    ],
    "relations": [],
    "top20": [
        {
            "id": 28518,
            "original_name": "Stephen Tompkinson's African Balloon Adventure",
            "popularity": 0.6
        },
        {
            "id": 64126,
            "original_name": "Stephen Tompkinson's Australian Balloon Adventure",
            "popularity": 0.6
        }
    ]
}