{
    "data": [
        {
            "id": 5959,
            "original_name": "Kto vozmyot million?",
            "popularity": 0.6
        },
        {
            "id": 33317,
            "original_name": "Are You Putting Me On?",
            "popularity": 0.6
        },
        {
            "id": 39390,
            "original_name": "Iss Pyaar Ko Kya Naam Doon?",
            "popularity": 9.213
        },
        {
            "id": 48490,
            "original_name": "Missing: Have You Seen This Person?",
            "popularity": 0.6
        },
        {
            "id": 50077,
            "original_name": "How Many Miles to Babylon?",
            "popularity": 0.6
        },
        {
            "id": 67378,
            "original_name": "Have You Been Paying Attention?",
            "popularity": 5.497
        },
        {
            "id": 88828,
            "original_name": "Combien vaut cette maison?",
            "popularity": 1.038
        },
        {
            "id": 92969,
            "original_name": "Have You Been Paying Attention?",
            "popularity": 5.126
        },
        {
            "id": 112264,
            "original_name": "Yo, Ron?",
            "popularity": 0.6
        },
        {
            "id": 113895,
            "original_name": "Food: Fact or Fiction?",
            "popularity": 0.6
        }
    ],
    "relations": [],
    "top20": [
        {
            "id": 5959,
            "original_name": "Kto vozmyot million?",
            "popularity": 0.6
        },
        {
            "id": 33317,
            "original_name": "Are You Putting Me On?",
            "popularity": 0.6
        },
        {
            "id": 39390,
            "original_name": "Iss Pyaar Ko Kya Naam Doon?",
            "popularity": 9.213
        },
        {
            "id": 48490,
            "original_name": "Missing: Have You Seen This Person?",
            "popularity": 0.6
        },
        {
            "id": 50077,
            "original_name": "How Many Miles to Babylon?",
            "popularity": 0.6
        },
        {
            "id": 67378,
            "original_name": "Have You Been Paying Attention?",
            "popularity": 5.497
        },
        {
            "id": 88828,
            "original_name": "Combien vaut cette maison?",
            "popularity": 1.038
        },
        {
            "id": 92969,
            "original_name": "Have You Been Paying Attention?",
            "popularity": 5.126
        },
        {
            "id": 112264,
            "original_name": "Yo, Ron?",
            "popularity": 0.6
        },
        {
            "id": 113895,
            "original_name": "Food: Fact or Fiction?",
            "popularity": 0.6
        }
    ]
}