{
    "data": [
        {
            "id": 1942,
            "original_name": "Astronauts",
            "popularity": 0.629
        },
        {
            "id": 25406,
            "original_name": "Jason and the Argonauts",
            "popularity": 7.168
        },
        {
            "id": 26142,
            "original_name": "Outer Space Astronauts",
            "popularity": 0.713
        },
        {
            "id": 37472,
            "original_name": "Octonauts",
            "popularity": 20.762
        },
        {
            "id": 41209,
            "original_name": "Die Hydronauten",
            "popularity": 0.6
        },
        {
            "id": 41349,
            "original_name": "SOKO Donau",
            "popularity": 8.618
        },
        {
            "id": 58369,
            "original_name": "Fishtronaut",
            "popularity": 0.873
        },
        {
            "id": 60091,
            "original_name": "Octonauts: Creature Reports",
            "popularity": 0.6
        },
        {
            "id": 60784,
            "original_name": "Donaugeschichten",
            "popularity": 1.298
        },
        {
            "id": 62458,
            "original_name": "The Astronaut Wives Club",
            "popularity": 6.288
        },
        {
            "id": 63572,
            "original_name": "Donauprinzessin",
            "popularity": 1.995
        },
        {
            "id": 76994,
            "original_name": "Astronaut Diaries: Year in Space",
            "popularity": 0.6
        },
        {
            "id": 79311,
            "original_name": "Psiconautas",
            "popularity": 1.605
        },
        {
            "id": 79805,
            "original_name": "Les plus beaux parcs nationaux d'Asie",
            "popularity": 0.6
        },
        {
            "id": 85739,
            "original_name": "Astronauts: Do You Have What It Takes?",
            "popularity": 1.101
        },
        {
            "id": 88545,
            "original_name": "Parconaute",
            "popularity": 1.393
        },
        {
            "id": 93030,
            "original_name": "3 Amigonauts",
            "popularity": 0.6
        },
        {
            "id": 95132,
            "original_name": "Homemade Astronauts",
            "popularity": 1.04
        },
        {
            "id": 100534,
            "original_name": "Les Argonautes",
            "popularity": 0.6
        },
        {
            "id": 106154,
            "original_name": "Peixonauta",
            "popularity": 0.84
        },
        {
            "id": 108398,
            "original_name": "Donau Polizei",
            "popularity": 0.6
        },
        {
            "id": 110345,
            "original_name": "Les premiers cosmonautes",
            "popularity": 0.6
        },
        {
            "id": 112718,
            "original_name": "The Astronauts",
            "popularity": 12.626
        },
        {
            "id": 117701,
            "original_name": "Les Grabonautes",
            "popularity": 0.666
        },
        {
            "id": 124751,
            "original_name": "Kosmonaut Nr. 1",
            "popularity": 0.6
        },
        {
            "id": 124946,
            "original_name": "H\u00f8gh og astronauten - min krop til gr\u00e6nsen",
            "popularity": 0.676
        },
        {
            "id": 127308,
            "original_name": "Nilba e os Desastronautas",
            "popularity": 0.6
        },
        {
            "id": 128271,
            "original_name": "Giulionautas: La serie",
            "popularity": 0.6
        },
        {
            "id": 132983,
            "original_name": "Octonauts: Above & Beyond",
            "popularity": 6.487
        }
    ],
    "relations": [
        {
            "character": "onaut"
        },
        {
            "character": "onaug"
        },
        {
            "character": "onaup"
        },
        {
            "character": "onaux"
        }
    ],
    "top20": [
        {
            "id": 37472,
            "original_name": "Octonauts",
            "popularity": 20.762
        },
        {
            "id": 112718,
            "original_name": "The Astronauts",
            "popularity": 12.626
        },
        {
            "id": 41349,
            "original_name": "SOKO Donau",
            "popularity": 8.618
        },
        {
            "id": 25406,
            "original_name": "Jason and the Argonauts",
            "popularity": 7.168
        },
        {
            "id": 132983,
            "original_name": "Octonauts: Above & Beyond",
            "popularity": 6.487
        },
        {
            "id": 62458,
            "original_name": "The Astronaut Wives Club",
            "popularity": 6.288
        },
        {
            "id": 63572,
            "original_name": "Donauprinzessin",
            "popularity": 1.995
        },
        {
            "id": 79311,
            "original_name": "Psiconautas",
            "popularity": 1.605
        },
        {
            "id": 88545,
            "original_name": "Parconaute",
            "popularity": 1.393
        },
        {
            "id": 60784,
            "original_name": "Donaugeschichten",
            "popularity": 1.298
        },
        {
            "id": 85739,
            "original_name": "Astronauts: Do You Have What It Takes?",
            "popularity": 1.101
        },
        {
            "id": 95132,
            "original_name": "Homemade Astronauts",
            "popularity": 1.04
        },
        {
            "id": 58369,
            "original_name": "Fishtronaut",
            "popularity": 0.873
        },
        {
            "id": 106154,
            "original_name": "Peixonauta",
            "popularity": 0.84
        },
        {
            "id": 26142,
            "original_name": "Outer Space Astronauts",
            "popularity": 0.713
        },
        {
            "id": 124946,
            "original_name": "H\u00f8gh og astronauten - min krop til gr\u00e6nsen",
            "popularity": 0.676
        },
        {
            "id": 117701,
            "original_name": "Les Grabonautes",
            "popularity": 0.666
        },
        {
            "id": 1942,
            "original_name": "Astronauts",
            "popularity": 0.629
        },
        {
            "id": 60091,
            "original_name": "Octonauts: Creature Reports",
            "popularity": 0.6
        },
        {
            "id": 41209,
            "original_name": "Die Hydronauten",
            "popularity": 0.6
        }
    ]
}