{
    "data": [
        {
            "id": 84631,
            "original_name": "Iconique Chateau Frontenac",
            "popularity": 0.6
        },
        {
            "id": 90030,
            "original_name": "Les chroniques scientifiques de Jean-Ren\u00e9 Dufort",
            "popularity": 0.6
        },
        {
            "id": 93317,
            "original_name": "Chroniques animales",
            "popularity": 0.6
        },
        {
            "id": 98302,
            "original_name": "Les Chroniques du chaos",
            "popularity": 0.6
        },
        {
            "id": 98392,
            "original_name": "Chroniques v\u00e9g\u00e9tales",
            "popularity": 0.6
        },
        {
            "id": 98908,
            "original_name": "Minichronique",
            "popularity": 2.145
        },
        {
            "id": 99481,
            "original_name": "Les Chroniques de l'Afrique Sauvage",
            "popularity": 0.6
        },
        {
            "id": 113819,
            "original_name": "3615 Monique",
            "popularity": 1.526
        },
        {
            "id": 114037,
            "original_name": "Chroniques criminelles",
            "popularity": 0.6
        },
        {
            "id": 136358,
            "original_name": "Platonique",
            "popularity": 0.6
        },
        {
            "id": 136360,
            "original_name": "Strictement platonique",
            "popularity": 1.252
        }
    ],
    "relations": [],
    "top20": [
        {
            "id": 84631,
            "original_name": "Iconique Chateau Frontenac",
            "popularity": 0.6
        },
        {
            "id": 90030,
            "original_name": "Les chroniques scientifiques de Jean-Ren\u00e9 Dufort",
            "popularity": 0.6
        },
        {
            "id": 93317,
            "original_name": "Chroniques animales",
            "popularity": 0.6
        },
        {
            "id": 98302,
            "original_name": "Les Chroniques du chaos",
            "popularity": 0.6
        },
        {
            "id": 98392,
            "original_name": "Chroniques v\u00e9g\u00e9tales",
            "popularity": 0.6
        },
        {
            "id": 98908,
            "original_name": "Minichronique",
            "popularity": 2.145
        },
        {
            "id": 99481,
            "original_name": "Les Chroniques de l'Afrique Sauvage",
            "popularity": 0.6
        },
        {
            "id": 113819,
            "original_name": "3615 Monique",
            "popularity": 1.526
        },
        {
            "id": 114037,
            "original_name": "Chroniques criminelles",
            "popularity": 0.6
        },
        {
            "id": 136358,
            "original_name": "Platonique",
            "popularity": 0.6
        },
        {
            "id": 136360,
            "original_name": "Strictement platonique",
            "popularity": 1.252
        }
    ]
}