{
    "data": [
        {
            "id": 882,
            "original_name": "Connections",
            "popularity": 1.487
        },
        {
            "id": 884,
            "original_name": "Connections 2",
            "popularity": 0.87
        },
        {
            "id": 885,
            "original_name": "Connections 3",
            "popularity": 0.6
        },
        {
            "id": 2220,
            "original_name": "Comedy Connections",
            "popularity": 2.209
        },
        {
            "id": 3601,
            "original_name": "Make the Connection",
            "popularity": 0.6
        },
        {
            "id": 4827,
            "original_name": "Connected: Coast to Coast",
            "popularity": 0.6
        },
        {
            "id": 4923,
            "original_name": "Capital Connection",
            "popularity": 0.6
        },
        {
            "id": 5480,
            "original_name": "The Beiderbecke Connection",
            "popularity": 1.213
        },
        {
            "id": 6654,
            "original_name": "Love Connection",
            "popularity": 0.6
        },
        {
            "id": 7905,
            "original_name": "Richard Hammond's Engineering Connections",
            "popularity": 2.228
        },
        {
            "id": 8425,
            "original_name": "Only Connect",
            "popularity": 11.637
        },
        {
            "id": 10239,
            "original_name": "Hollywood Connection",
            "popularity": 0.6
        },
        {
            "id": 10924,
            "original_name": "Connections",
            "popularity": 0.6
        },
        {
            "id": 11782,
            "original_name": "California Connected",
            "popularity": 0.6
        },
        {
            "id": 12373,
            "original_name": "Agro's Cartoon Connection",
            "popularity": 0.6
        },
        {
            "id": 13209,
            "original_name": "Drama Connections",
            "popularity": 0.842
        },
        {
            "id": 14029,
            "original_name": "Movie Connections",
            "popularity": 2.025
        },
        {
            "id": 15984,
            "original_name": "GetConnected",
            "popularity": 0.6
        },
        {
            "id": 17056,
            "original_name": "Dis/Connected",
            "popularity": 1.644
        },
        {
            "id": 17370,
            "original_name": "Rainbow Connection",
            "popularity": 0.6
        },
        {
            "id": 19820,
            "original_name": "GED Connection",
            "popularity": 0.6
        },
        {
            "id": 20403,
            "original_name": "Connections",
            "popularity": 0.6
        },
        {
            "id": 22390,
            "original_name": "The Upchat Connection",
            "popularity": 0.664
        },
        {
            "id": 23610,
            "original_name": "The Devlin Connection",
            "popularity": 0.659
        },
        {
            "id": 24338,
            "original_name": "The Belzer Connection",
            "popularity": 0.6
        },
        {
            "id": 31436,
            "original_name": "Connect with Mark Kelley",
            "popularity": 0.6
        },
        {
            "id": 32378,
            "original_name": "Outreach Connection",
            "popularity": 1.343
        },
        {
            "id": 33014,
            "original_name": "Mad Movies with the L.A. Connection",
            "popularity": 0.6
        },
        {
            "id": 35540,
            "original_name": "Connect With English",
            "popularity": 0.6
        },
        {
            "id": 37413,
            "original_name": "Weird Connections",
            "popularity": 0.639
        },
        {
            "id": 37889,
            "original_name": "The New York Connection",
            "popularity": 0.6
        },
        {
            "id": 39559,
            "original_name": "Baba's Cross Connection",
            "popularity": 0.6
        },
        {
            "id": 40027,
            "original_name": "Daily Connection",
            "popularity": 0.6
        },
        {
            "id": 48796,
            "original_name": "Oriental Horizon\u2022Horizon Connection",
            "popularity": 0.6
        },
        {
            "id": 54376,
            "original_name": "Crime Connections",
            "popularity": 0.6
        },
        {
            "id": 56482,
            "original_name": "The Cartoon Connection",
            "popularity": 0.6
        },
        {
            "id": 57795,
            "original_name": "The French African Connection",
            "popularity": 0.6
        },
        {
            "id": 59771,
            "original_name": "Connected Hum Tum",
            "popularity": 0.6
        },
        {
            "id": 59891,
            "original_name": "Sportsnet Connected",
            "popularity": 0.6
        },
        {
            "id": 71889,
            "original_name": "Love Connection",
            "popularity": 0.765
        },
        {
            "id": 85809,
            "original_name": "Die Inka Connection",
            "popularity": 0.633
        },
        {
            "id": 90936,
            "original_name": "The Big Bong Connection",
            "popularity": 0.6
        },
        {
            "id": 93819,
            "original_name": "ACTORS -Songs Connection-",
            "popularity": 1.392
        },
        {
            "id": 94535,
            "original_name": "Scalletti: Girona Connection",
            "popularity": 0.6
        },
        {
            "id": 98331,
            "original_name": "Mafia Connection",
            "popularity": 0.6
        },
        {
            "id": 105166,
            "original_name": "Mixed Connections",
            "popularity": 0.6
        },
        {
            "id": 105604,
            "original_name": "Kiran Konnection",
            "popularity": 0.6
        },
        {
            "id": 106525,
            "original_name": "Connected",
            "popularity": 4.456
        },
        {
            "id": 109608,
            "original_name": "Connecting...",
            "popularity": 1.675
        },
        {
            "id": 120803,
            "original_name": "Ivan & Zoran \u2013 Die Balkan-Car-Connection",
            "popularity": 0.84
        },
        {
            "id": 123999,
            "original_name": "Kathmandu Connection",
            "popularity": 1.071
        },
        {
            "id": 128878,
            "original_name": "Disconnected",
            "popularity": 0.6
        },
        {
            "id": 129240,
            "original_name": "Die Obert Connection",
            "popularity": 0.6
        }
    ],
    "relations": [
        {
            "character": "onnect"
        }
    ],
    "top20": [
        {
            "id": 8425,
            "original_name": "Only Connect",
            "popularity": 11.637
        },
        {
            "id": 106525,
            "original_name": "Connected",
            "popularity": 4.456
        },
        {
            "id": 7905,
            "original_name": "Richard Hammond's Engineering Connections",
            "popularity": 2.228
        },
        {
            "id": 2220,
            "original_name": "Comedy Connections",
            "popularity": 2.209
        },
        {
            "id": 14029,
            "original_name": "Movie Connections",
            "popularity": 2.025
        },
        {
            "id": 109608,
            "original_name": "Connecting...",
            "popularity": 1.675
        },
        {
            "id": 17056,
            "original_name": "Dis/Connected",
            "popularity": 1.644
        },
        {
            "id": 882,
            "original_name": "Connections",
            "popularity": 1.487
        },
        {
            "id": 93819,
            "original_name": "ACTORS -Songs Connection-",
            "popularity": 1.392
        },
        {
            "id": 32378,
            "original_name": "Outreach Connection",
            "popularity": 1.343
        },
        {
            "id": 5480,
            "original_name": "The Beiderbecke Connection",
            "popularity": 1.213
        },
        {
            "id": 123999,
            "original_name": "Kathmandu Connection",
            "popularity": 1.071
        },
        {
            "id": 884,
            "original_name": "Connections 2",
            "popularity": 0.87
        },
        {
            "id": 13209,
            "original_name": "Drama Connections",
            "popularity": 0.842
        },
        {
            "id": 120803,
            "original_name": "Ivan & Zoran \u2013 Die Balkan-Car-Connection",
            "popularity": 0.84
        },
        {
            "id": 71889,
            "original_name": "Love Connection",
            "popularity": 0.765
        },
        {
            "id": 22390,
            "original_name": "The Upchat Connection",
            "popularity": 0.664
        },
        {
            "id": 23610,
            "original_name": "The Devlin Connection",
            "popularity": 0.659
        },
        {
            "id": 37413,
            "original_name": "Weird Connections",
            "popularity": 0.639
        },
        {
            "id": 85809,
            "original_name": "Die Inka Connection",
            "popularity": 0.633
        }
    ]
}