{
    "data": [
        {
            "id": 95008,
            "original_name": "Monstrum",
            "popularity": 2.04
        }
    ],
    "relations": [],
    "top20": [
        {
            "id": 95008,
            "original_name": "Monstrum",
            "popularity": 2.04
        }
    ]
}