{
    "data": [
        {
            "id": 46366,
            "original_name": "Kahit Konting Pagtingin",
            "popularity": 1.344
        },
        {
            "id": 120984,
            "original_name": "Confronting a Serial Killer",
            "popularity": 2.36
        }
    ],
    "relations": [],
    "top20": [
        {
            "id": 46366,
            "original_name": "Kahit Konting Pagtingin",
            "popularity": 1.344
        },
        {
            "id": 120984,
            "original_name": "Confronting a Serial Killer",
            "popularity": 2.36
        }
    ]
}