{
    "data": [
        {
            "id": 39127,
            "original_name": "Kontoret",
            "popularity": 0.745
        },
        {
            "id": 54932,
            "original_name": "Trygdekontoret",
            "popularity": 4.341
        },
        {
            "id": 112456,
            "original_name": "K\u00e4ttemaksukontor",
            "popularity": 1.4
        },
        {
            "id": 114982,
            "original_name": "Trygdekontoret - Dokumentar",
            "popularity": 0.6
        }
    ],
    "relations": [],
    "top20": [
        {
            "id": 39127,
            "original_name": "Kontoret",
            "popularity": 0.745
        },
        {
            "id": 54932,
            "original_name": "Trygdekontoret",
            "popularity": 4.341
        },
        {
            "id": 112456,
            "original_name": "K\u00e4ttemaksukontor",
            "popularity": 1.4
        },
        {
            "id": 114982,
            "original_name": "Trygdekontoret - Dokumentar",
            "popularity": 0.6
        }
    ]
}