{
    "data": [
        {
            "id": 124,
            "original_name": "Nationwide",
            "popularity": 7.45
        },
        {
            "id": 8079,
            "original_name": "StarStruck: The Nationwide Invasion",
            "popularity": 0.6
        },
        {
            "id": 18766,
            "original_name": "Nationwide",
            "popularity": 0.6
        }
    ],
    "relations": [],
    "top20": [
        {
            "id": 124,
            "original_name": "Nationwide",
            "popularity": 7.45
        },
        {
            "id": 8079,
            "original_name": "StarStruck: The Nationwide Invasion",
            "popularity": 0.6
        },
        {
            "id": 18766,
            "original_name": "Nationwide",
            "popularity": 0.6
        }
    ]
}