{
    "data": [
        {
            "id": 20117,
            "original_name": "Woof!",
            "popularity": 2.741
        },
        {
            "id": 70082,
            "original_name": "Wishenpoof!",
            "popularity": 1.532
        }
    ],
    "relations": [],
    "top20": [
        {
            "id": 20117,
            "original_name": "Woof!",
            "popularity": 2.741
        },
        {
            "id": 70082,
            "original_name": "Wishenpoof!",
            "popularity": 1.532
        }
    ]
}