{
    "data": [
        {
            "id": 14,
            "original_name": "Shuriken School",
            "popularity": 3.908
        },
        {
            "id": 72,
            "original_name": "Only Fools and Horses",
            "popularity": 12.747
        },
        {
            "id": 415,
            "original_name": "Kool Ka Lang",
            "popularity": 0.6
        },
        {
            "id": 671,
            "original_name": "Moolah Beach",
            "popularity": 0.6
        },
        {
            "id": 968,
            "original_name": "Groovie Goolies",
            "popularity": 1.284
        },
        {
            "id": 1023,
            "original_name": "Blackpool",
            "popularity": 3.643
        },
        {
            "id": 1248,
            "original_name": "Safari School",
            "popularity": 0.846
        },
        {
            "id": 1600,
            "original_name": "Ned's Declassified School Survival Guide",
            "popularity": 29.308
        },
        {
            "id": 1888,
            "original_name": "High School Showcase",
            "popularity": 0.6
        },
        {
            "id": 2346,
            "original_name": "Cool Zone",
            "popularity": 0.6
        },
        {
            "id": 2896,
            "original_name": "Monster Sunday School",
            "popularity": 0.6
        },
        {
            "id": 2907,
            "original_name": "Elly & Jools",
            "popularity": 0.952
        },
        {
            "id": 3099,
            "original_name": "Pool TV",
            "popularity": 0.6
        },
        {
            "id": 3417,
            "original_name": "Play School",
            "popularity": 0.6
        },
        {
            "id": 3455,
            "original_name": "Rock School",
            "popularity": 1.267
        },
        {
            "id": 3502,
            "original_name": "Poolside Chats",
            "popularity": 0.6
        },
        {
            "id": 3642,
            "original_name": "Cool McCool",
            "popularity": 2.065
        },
        {
            "id": 4010,
            "original_name": "Carpoolers",
            "popularity": 3.83
        },
        {
            "id": 4055,
            "original_name": "Celebrity Dog School",
            "popularity": 0.6
        },
        {
            "id": 4070,
            "original_name": "Play School",
            "popularity": 0.6
        },
        {
            "id": 4220,
            "original_name": "Knight School",
            "popularity": 0.6
        },
        {
            "id": 4611,
            "original_name": "I Pity the Fool",
            "popularity": 1.092
        },
        {
            "id": 4623,
            "original_name": "The Emperor's New School",
            "popularity": 12.154
        },
        {
            "id": 4647,
            "original_name": "Kamehameha Schools Song Contest",
            "popularity": 0.6
        },
        {
            "id": 4764,
            "original_name": "Galaxy High School",
            "popularity": 1.842
        },
        {
            "id": 4794,
            "original_name": "Magic School & Friends",
            "popularity": 0.6
        },
        {
            "id": 4925,
            "original_name": "Fight School",
            "popularity": 0.6
        },
        {
            "id": 5380,
            "original_name": "Idool 2004",
            "popularity": 0.6
        },
        {
            "id": 5397,
            "original_name": "Idool 2007",
            "popularity": 0.6
        },
        {
            "id": 5409,
            "original_name": "Ice-T's Rap School",
            "popularity": 0.842
        },
        {
            "id": 5761,
            "original_name": "Crash My School",
            "popularity": 0.6
        },
        {
            "id": 5806,
            "original_name": "Howard Stern: The High School Years",
            "popularity": 0.6
        },
        {
            "id": 5879,
            "original_name": "Cool and the Crazy",
            "popularity": 0.6
        },
        {
            "id": 5881,
            "original_name": "School's Out",
            "popularity": 0.6
        },
        {
            "id": 6173,
            "original_name": "My Coolest Years",
            "popularity": 2.104
        },
        {
            "id": 6334,
            "original_name": "As Schools Match Wits",
            "popularity": 0.6
        },
        {
            "id": 6666,
            "original_name": "Knight School",
            "popularity": 0.6
        },
        {
            "id": 6822,
            "original_name": "The School House",
            "popularity": 0.6
        },
        {
            "id": 7135,
            "original_name": "Flavor of Love Girls: Charm School",
            "popularity": 0.842
        },
        {
            "id": 7248,
            "original_name": "The Magic School Bus",
            "popularity": 11.272
        },
        {
            "id": 7350,
            "original_name": "High School Musical: Get in the Picture",
            "popularity": 2.507
        },
        {
            "id": 7852,
            "original_name": "Hairspray: The School Musical",
            "popularity": 1.209
        },
        {
            "id": 7918,
            "original_name": "Ensign O'Toole",
            "popularity": 2.78
        },
        {
            "id": 8127,
            "original_name": "High School Musical: A Sele\u00e7\u00e3o",
            "popularity": 0.838
        },
        {
            "id": 8497,
            "original_name": "Tool Academy",
            "popularity": 0.6
        },
        {
            "id": 8541,
            "original_name": "Sipahi Maqbool Hussain",
            "popularity": 0.6
        },
        {
            "id": 9239,
            "original_name": "Schoolyard Safari",
            "popularity": 0.6
        },
        {
            "id": 9277,
            "original_name": "Creepschool",
            "popularity": 1.516
        },
        {
            "id": 9313,
            "original_name": "After School ICU",
            "popularity": 0.6
        },
        {
            "id": 9341,
            "original_name": "Jerry Yarnell School of Fine Art",
            "popularity": 0.6
        },
        {
            "id": 9582,
            "original_name": "King Koopa's Kool Kartoons",
            "popularity": 0.6
        },
        {
            "id": 10077,
            "original_name": "Schoolhouse Rock!",
            "popularity": 2.631
        },
        {
            "id": 10217,
            "original_name": "CBS Schoolbreak Special",
            "popularity": 2.961
        },
        {
            "id": 10248,
            "original_name": "After school special",
            "popularity": 0.6
        },
        {
            "id": 10351,
            "original_name": "My Name's McGooley, What's Yours?",
            "popularity": 1.131
        },
        {
            "id": 10959,
            "original_name": "Later with Jools Holland",
            "popularity": 1.175
        },
        {
            "id": 11059,
            "original_name": "Rugrats Pre-School Daze",
            "popularity": 0.6
        },
        {
            "id": 11233,
            "original_name": "Acme School of Stuff",
            "popularity": 0.6
        },
        {
            "id": 11248,
            "original_name": "High School Dance",
            "popularity": 0.6
        },
        {
            "id": 11333,
            "original_name": "Cool Stuff: How It Works",
            "popularity": 0.87
        },
        {
            "id": 11486,
            "original_name": "Cool Million",
            "popularity": 2.922
        },
        {
            "id": 11516,
            "original_name": "Cool for Cats",
            "popularity": 0.6
        },
        {
            "id": 11518,
            "original_name": "High School Stories",
            "popularity": 0.621
        },
        {
            "id": 11646,
            "original_name": "The Tomfoolery Show",
            "popularity": 0.6
        },
        {
            "id": 11691,
            "original_name": "Only Fools on Horses",
            "popularity": 0.6
        },
        {
            "id": 11815,
            "original_name": "Howie Meeker's Hockey School",
            "popularity": 0.6
        },
        {
            "id": 11846,
            "original_name": "Toolbelt Diva",
            "popularity": 0.6
        },
        {
            "id": 12508,
            "original_name": "Foolish Heart",
            "popularity": 1.091
        },
        {
            "id": 12521,
            "original_name": "Flight Attendant School",
            "popularity": 1.09
        },
        {
            "id": 13076,
            "original_name": "Small Business School",
            "popularity": 0.6
        },
        {
            "id": 13220,
            "original_name": "Play School",
            "popularity": 1.522
        },
        {
            "id": 13292,
            "original_name": "School's Out",
            "popularity": 1.218
        },
        {
            "id": 13399,
            "original_name": "Timothy Goes to School",
            "popularity": 3.494
        },
        {
            "id": 13609,
            "original_name": "Musicool",
            "popularity": 0.6
        },
        {
            "id": 13631,
            "original_name": "Ding Dong School",
            "popularity": 0.6
        },
        {
            "id": 14142,
            "original_name": "Rosemary Shrager's School for Cooks",
            "popularity": 1.213
        },
        {
            "id": 14179,
            "original_name": "I Want to Look Like a High School Cheerleader Again",
            "popularity": 0.842
        },
        {
            "id": 14262,
            "original_name": "Chef School",
            "popularity": 0.6
        },
        {
            "id": 14393,
            "original_name": "Fool Around With",
            "popularity": 0.6
        },
        {
            "id": 15293,
            "original_name": "Indian School",
            "popularity": 0.6
        },
        {
            "id": 15634,
            "original_name": "High School Confidential",
            "popularity": 0.6
        },
        {
            "id": 15985,
            "original_name": "Tom Brown's Schooldays",
            "popularity": 2.326
        },
        {
            "id": 16092,
            "original_name": "Tom Brown's Schooldays",
            "popularity": 0.6
        },
        {
            "id": 16888,
            "original_name": "The Hot Rod Dogs and Cool Car Cats",
            "popularity": 1.689
        },
        {
            "id": 16972,
            "original_name": "Spy School",
            "popularity": 0.6
        },
        {
            "id": 17125,
            "original_name": "School of Chef",
            "popularity": 0.6
        },
        {
            "id": 17155,
            "original_name": "Old Skool with Terry and Gita",
            "popularity": 0.6
        },
        {
            "id": 17422,
            "original_name": "Liverpool 1",
            "popularity": 0.6
        },
        {
            "id": 17621,
            "original_name": "Cool Center",
            "popularity": 0.6
        },
        {
            "id": 17697,
            "original_name": "ATL Rock School",
            "popularity": 0.6
        },
        {
            "id": 17884,
            "original_name": "Rule the School",
            "popularity": 0.6
        },
        {
            "id": 18068,
            "original_name": "I Love CHS: Charm School 2",
            "popularity": 0.6
        },
        {
            "id": 18090,
            "original_name": "Rockschool",
            "popularity": 0.6
        },
        {
            "id": 18162,
            "original_name": "ABC Afterschool Special",
            "popularity": 9.939
        },
        {
            "id": 18194,
            "original_name": "Charm School with Ricki Lake",
            "popularity": 0.629
        },
        {
            "id": 18354,
            "original_name": "Combat School",
            "popularity": 0.6
        },
        {
            "id": 18412,
            "original_name": "Carpool",
            "popularity": 1.4
        },
        {
            "id": 18413,
            "original_name": "School of Class",
            "popularity": 0.6
        },
        {
            "id": 18510,
            "original_name": "School Daze",
            "popularity": 0.6
        },
        {
            "id": 18639,
            "original_name": "Mitwa Phool Kamal Ke",
            "popularity": 0.6
        },
        {
            "id": 18728,
            "original_name": "Know Your Schools",
            "popularity": 0.6
        },
        {
            "id": 18879,
            "original_name": "Tool Academy",
            "popularity": 0.6
        },
        {
            "id": 19067,
            "original_name": "The Dooley and Pals Show",
            "popularity": 1.863
        },
        {
            "id": 19200,
            "original_name": "Cool Aid",
            "popularity": 0.6
        },
        {
            "id": 19212,
            "original_name": "Cool In Your Code",
            "popularity": 0.6
        },
        {
            "id": 19408,
            "original_name": "Skooled",
            "popularity": 0.654
        },
        {
            "id": 19682,
            "original_name": "Midnight Horror School",
            "popularity": 0.6
        },
        {
            "id": 19792,
            "original_name": "Vet School Confidential",
            "popularity": 0.6
        },
        {
            "id": 19932,
            "original_name": "Joya's Fun School",
            "popularity": 0.6
        },
        {
            "id": 20125,
            "original_name": "Driving School",
            "popularity": 0.6
        },
        {
            "id": 20239,
            "original_name": "Art School Girls of Doom",
            "popularity": 0.6
        },
        {
            "id": 20242,
            "original_name": "Nick Takes Over Your School",
            "popularity": 0.6
        },
        {
            "id": 20546,
            "original_name": "High School Reunion",
            "popularity": 1.137
        },
        {
            "id": 21290,
            "original_name": "Jamie's School Dinners",
            "popularity": 0.881
        },
        {
            "id": 21355,
            "original_name": "To Save Our Schools, To Save Our Children",
            "popularity": 0.6
        },
        {
            "id": 21555,
            "original_name": "Cool Clown Ground",
            "popularity": 0.6
        },
        {
            "id": 22088,
            "original_name": "Jennings at School",
            "popularity": 0.6
        },
        {
            "id": 22127,
            "original_name": "Doctor Doolittle",
            "popularity": 0.6
        },
        {
            "id": 22348,
            "original_name": "Uit de school geklapt",
            "popularity": 0.6
        },
        {
            "id": 22353,
            "original_name": "School van Prem, De",
            "popularity": 0.843
        },
        {
            "id": 22593,
            "original_name": "African School",
            "popularity": 0.6
        },
        {
            "id": 22965,
            "original_name": "Super Tools",
            "popularity": 0.6
        },
        {
            "id": 23059,
            "original_name": "Coolio's Rules",
            "popularity": 0.6
        },
        {
            "id": 23066,
            "original_name": "Men in ToolBelts",
            "popularity": 0.6
        },
        {
            "id": 23147,
            "original_name": "Philippe Starck's School of Design",
            "popularity": 0.6
        },
        {
            "id": 23158,
            "original_name": "Tool Box",
            "popularity": 0.6
        },
        {
            "id": 23285,
            "original_name": "Cool Head",
            "popularity": 0.6
        },
        {
            "id": 23581,
            "original_name": "The Haunted School",
            "popularity": 0.6
        },
        {
            "id": 24334,
            "original_name": "Nursery School Time",
            "popularity": 0.6
        },
        {
            "id": 24522,
            "original_name": "Indian Finishing School",
            "popularity": 0.6
        },
        {
            "id": 24648,
            "original_name": "DIY Tools & Techniques",
            "popularity": 0.6
        },
        {
            "id": 24701,
            "original_name": "Phil Cool",
            "popularity": 0.6
        },
        {
            "id": 24744,
            "original_name": "Trade School",
            "popularity": 0.6
        },
        {
            "id": 24840,
            "original_name": "Alexei Sayle's Liverpool",
            "popularity": 0.6
        },
        {
            "id": 25007,
            "original_name": "Rule the School",
            "popularity": 0.6
        },
        {
            "id": 25937,
            "original_name": "Girls' High School People",
            "popularity": 1.758
        },
        {
            "id": 25970,
            "original_name": "Cool Kids' Parties",
            "popularity": 0.6
        },
        {
            "id": 25983,
            "original_name": "High School Project USA",
            "popularity": 0.6
        },
        {
            "id": 26217,
            "original_name": "Cool Tools",
            "popularity": 0.6
        },
        {
            "id": 26257,
            "original_name": "Chuck Woolery: Naturally Stoned",
            "popularity": 0.6
        },
        {
            "id": 26300,
            "original_name": "Space School",
            "popularity": 0.6
        },
        {
            "id": 26363,
            "original_name": "My Appalling School Report",
            "popularity": 0.6
        },
        {
            "id": 26378,
            "original_name": "The Schools Lottery",
            "popularity": 0.6
        },
        {
            "id": 26446,
            "original_name": "Dooley Gardens",
            "popularity": 1.396
        },
        {
            "id": 26534,
            "original_name": "Garden School",
            "popularity": 0.6
        },
        {
            "id": 26884,
            "original_name": "Cool",
            "popularity": 0.6
        },
        {
            "id": 27298,
            "original_name": "Film School",
            "popularity": 0.6
        },
        {
            "id": 27688,
            "original_name": "Life After Film School",
            "popularity": 0.6
        },
        {
            "id": 27726,
            "original_name": "Billy Bunter Of Greyfriars School",
            "popularity": 0.6
        },
        {
            "id": 27918,
            "original_name": "Ukool",
            "popularity": 0.6
        },
        {
            "id": 28049,
            "original_name": "Art School",
            "popularity": 1.4
        },
        {
            "id": 28608,
            "original_name": "Cooking School Stories",
            "popularity": 0.6
        },
        {
            "id": 28660,
            "original_name": "The Hooley Dooleys",
            "popularity": 0.6
        },
        {
            "id": 28745,
            "original_name": "Young And Foolish",
            "popularity": 0.6
        },
        {
            "id": 28910,
            "original_name": "Coolman!",
            "popularity": 0.6
        },
        {
            "id": 29329,
            "original_name": "Drama School",
            "popularity": 0.6
        },
        {
            "id": 29542,
            "original_name": "Blackpool Night Out",
            "popularity": 0.6
        },
        {
            "id": 29654,
            "original_name": "School of Hard Knocks",
            "popularity": 0.6
        },
        {
            "id": 29988,
            "original_name": "Architecture School",
            "popularity": 0.6
        },
        {
            "id": 30316,
            "original_name": "Late For School",
            "popularity": 1.212
        },
        {
            "id": 30737,
            "original_name": "Tool Academy",
            "popularity": 0.6
        },
        {
            "id": 30829,
            "original_name": "The Love School",
            "popularity": 0.6
        },
        {
            "id": 30978,
            "original_name": "Abby's Flying Fairy School",
            "popularity": 0.844
        },
        {
            "id": 31208,
            "original_name": "School of Comedy",
            "popularity": 1.4
        },
        {
            "id": 31256,
            "original_name": "Coolio's Rules",
            "popularity": 0.6
        },
        {
            "id": 31527,
            "original_name": "Casper's Scare School",
            "popularity": 2.859
        },
        {
            "id": 32032,
            "original_name": "Tool Academy",
            "popularity": 0.6
        },
        {
            "id": 32250,
            "original_name": "Sasural Genda Phool",
            "popularity": 0.6
        },
        {
            "id": 32393,
            "original_name": "Detective School",
            "popularity": 1.981
        },
        {
            "id": 32517,
            "original_name": "Grease: the School Musical",
            "popularity": 0.602
        },
        {
            "id": 32972,
            "original_name": "Cool It",
            "popularity": 0.6
        },
        {
            "id": 33685,
            "original_name": "Nursery School Time",
            "popularity": 0.6
        },
        {
            "id": 33735,
            "original_name": "The Fool of the World and the Flying Ship",
            "popularity": 0.6
        },
        {
            "id": 34219,
            "original_name": "School Pride",
            "popularity": 1.711
        },
        {
            "id": 34525,
            "original_name": "The Cool Stuff Collective",
            "popularity": 0.6
        },
        {
            "id": 34597,
            "original_name": "High School Quiz Show",
            "popularity": 0.6
        },
        {
            "id": 34607,
            "original_name": "Penn & Teller: Fool Us",
            "popularity": 14.316
        },
        {
            "id": 35132,
            "original_name": "Later Live - With Jools Holland",
            "popularity": 1.004
        },
        {
            "id": 35438,
            "original_name": "Dooley Gardens",
            "popularity": 0.6
        },
        {
            "id": 35701,
            "original_name": "Handy Manny's School for Tools",
            "popularity": 0.6
        },
        {
            "id": 35739,
            "original_name": "After School Care",
            "popularity": 0.6
        },
        {
            "id": 35788,
            "original_name": "Surgery School",
            "popularity": 0.6
        },
        {
            "id": 36276,
            "original_name": "Muslim Driving School",
            "popularity": 0.6
        },
        {
            "id": 36306,
            "original_name": "Cooler Kings",
            "popularity": 0.6
        },
        {
            "id": 36313,
            "original_name": "Growing Greener Schools",
            "popularity": 0.6
        },
        {
            "id": 36503,
            "original_name": "School voor reality-tv",
            "popularity": 0.6
        },
        {
            "id": 36745,
            "original_name": "My Lovely Fool",
            "popularity": 0.6
        },
        {
            "id": 36803,
            "original_name": "\u3064\u3088\u304d\u3059 Cool\u00d7Sweet",
            "popularity": 2.487
        },
        {
            "id": 36954,
            "original_name": "Cool Girl Hate Club",
            "popularity": 0.6
        },
        {
            "id": 37483,
            "original_name": "Design School",
            "popularity": 0.6
        },
        {
            "id": 37536,
            "original_name": "Ultimate School Musical",
            "popularity": 0.6
        },
        {
            "id": 38596,
            "original_name": "Cookery School",
            "popularity": 0.6
        },
        {
            "id": 38678,
            "original_name": "School of Golf",
            "popularity": 0.844
        },
        {
            "id": 38891,
            "original_name": "Jamie's Dream School",
            "popularity": 0.701
        },
        {
            "id": 38984,
            "original_name": "MONSTA X Dingo School",
            "popularity": 0.627
        },
        {
            "id": 39080,
            "original_name": "Idool",
            "popularity": 0.6
        },
        {
            "id": 39139,
            "original_name": "Int'l After School",
            "popularity": 0.6
        },
        {
            "id": 39285,
            "original_name": "Cinema Cool",
            "popularity": 0.6
        },
        {
            "id": 39612,
            "original_name": "World's Craziest Fools",
            "popularity": 1.199
        },
        {
            "id": 39648,
            "original_name": "Slasher School",
            "popularity": 0.6
        },
        {
            "id": 39772,
            "original_name": "Gorilla School",
            "popularity": 0.6
        },
        {
            "id": 40040,
            "original_name": "Carpool",
            "popularity": 0.6
        },
        {
            "id": 40394,
            "original_name": "Dim Sum School",
            "popularity": 0.6
        },
        {
            "id": 41351,
            "original_name": "Faith School Menace?",
            "popularity": 0.6
        },
        {
            "id": 42660,
            "original_name": "Acting School Academy",
            "popularity": 0.6
        },
        {
            "id": 42749,
            "original_name": "Last Chance Driving School",
            "popularity": 0.6
        },
        {
            "id": 42889,
            "original_name": "De Poolreizigers",
            "popularity": 0.6
        },
        {
            "id": 43162,
            "original_name": "School Spirits",
            "popularity": 0.66
        },
        {
            "id": 43211,
            "original_name": "Dara \u00d3 Briain: School of Hard Sums",
            "popularity": 1.169
        },
        {
            "id": 43392,
            "original_name": "Tool Academy",
            "popularity": 1.094
        },
        {
            "id": 43477,
            "original_name": "The Leaving of Liverpool",
            "popularity": 1.418
        },
        {
            "id": 43685,
            "original_name": "After Liverpool",
            "popularity": 0.6
        },
        {
            "id": 44112,
            "original_name": "Fool Britannia",
            "popularity": 0.874
        },
        {
            "id": 45042,
            "original_name": "Family Tools",
            "popularity": 1.87
        },
        {
            "id": 45362,
            "original_name": "Celebrity Driving School",
            "popularity": 0.6
        },
        {
            "id": 45536,
            "original_name": "The Three Fools",
            "popularity": 0.6
        },
        {
            "id": 45558,
            "original_name": "Cool Women in History",
            "popularity": 0.6
        },
        {
            "id": 45660,
            "original_name": "Stacey Dooley in the USA",
            "popularity": 0.846
        },
        {
            "id": 45699,
            "original_name": "Cool Fuel",
            "popularity": 0.6
        },
        {
            "id": 45947,
            "original_name": "Doctor Komarovsky's School",
            "popularity": 0.6
        },
        {
            "id": 46718,
            "original_name": "CBC News Ottawa at 5, 5:30, 6:00 - School Explosion",
            "popularity": 0.6
        },
        {
            "id": 46935,
            "original_name": "Qubool Hai",
            "popularity": 1.345
        },
        {
            "id": 46946,
            "original_name": "The Wool Cap",
            "popularity": 0.6
        },
        {
            "id": 47854,
            "original_name": "Public School",
            "popularity": 0.6
        },
        {
            "id": 47914,
            "original_name": "Me! I\u2019m Afraid of Virginia Woolf",
            "popularity": 0.6
        },
        {
            "id": 48378,
            "original_name": "Mi Gu Celebrity School",
            "popularity": 0.6
        },
        {
            "id": 48620,
            "original_name": "Forgive Our Foolish Ways",
            "popularity": 0.6
        },
        {
            "id": 48765,
            "original_name": "School 3",
            "popularity": 0.6
        },
        {
            "id": 49133,
            "original_name": "Cooler",
            "popularity": 0.6
        },
        {
            "id": 49475,
            "original_name": "Vive Cool City",
            "popularity": 0.6
        },
        {
            "id": 50443,
            "original_name": "Our School",
            "popularity": 0.6
        },
        {
            "id": 50841,
            "original_name": "Old School",
            "popularity": 4.053
        },
        {
            "id": 51922,
            "original_name": "THE MOST USEFUL SCHOOL IN THE WORLD",
            "popularity": 0.6
        },
        {
            "id": 52266,
            "original_name": "Super School",
            "popularity": 0.6
        },
        {
            "id": 52552,
            "original_name": "Ala Tool al-Ayam",
            "popularity": 0.6
        },
        {
            "id": 53713,
            "original_name": "Martha Stewart's Cooking School",
            "popularity": 1.015
        },
        {
            "id": 53721,
            "original_name": "\u30e9\u30d6\u30e9\u30a4\u30d6! School idol project",
            "popularity": 20.937
        },
        {
            "id": 53995,
            "original_name": "Kashkool Lekol Mwaten",
            "popularity": 0.6
        },
        {
            "id": 54409,
            "original_name": "Safari Vet School",
            "popularity": 0.637
        },
        {
            "id": 54693,
            "original_name": "Banat El Osool",
            "popularity": 0.6
        },
        {
            "id": 54915,
            "original_name": "Bing Crosby-Cooling It",
            "popularity": 0.6
        },
        {
            "id": 55329,
            "original_name": "Dangerous Drivers School",
            "popularity": 0.6
        },
        {
            "id": 55430,
            "original_name": "Ain't It Cool with Harry Knowles",
            "popularity": 0.656
        },
        {
            "id": 55593,
            "original_name": "Expeditie Poolcirkel",
            "popularity": 0.6
        },
        {
            "id": 55657,
            "original_name": "Rachel & the TreeSchoolers",
            "popularity": 0.6
        },
        {
            "id": 56000,
            "original_name": "Shamlool",
            "popularity": 0.6
        },
        {
            "id": 56088,
            "original_name": "The Fairport Beach School - Television Series",
            "popularity": 0.6
        },
        {
            "id": 56210,
            "original_name": "High School USA!",
            "popularity": 3.31
        },
        {
            "id": 56503,
            "original_name": "A Cooler Climate",
            "popularity": 0.6
        },
        {
            "id": 56950,
            "original_name": "Neil Perry: Rockpool Sessions",
            "popularity": 0.6
        },
        {
            "id": 56968,
            "original_name": "AUSTAR\u2019s Switched on schools program",
            "popularity": 0.6
        },
        {
            "id": 56977,
            "original_name": "Spicy High-School Pupils",
            "popularity": 0.6
        },
        {
            "id": 56998,
            "original_name": "\u5b66\u5712\u9ed9\u793a\u9332 HIGHSCHOOL OF THE DEAD",
            "popularity": 31.901
        },
        {
            "id": 57094,
            "original_name": "Strange School",
            "popularity": 0.6
        },
        {
            "id": 57632,
            "original_name": "Viral Video Film School",
            "popularity": 1.4
        },
        {
            "id": 57635,
            "original_name": "Tools of the Trade Videos: Inside the Technician\u2019s Toolbox",
            "popularity": 0.6
        },
        {
            "id": 57760,
            "original_name": "Big School",
            "popularity": 3.542
        },
        {
            "id": 58322,
            "original_name": "Harrow: A Very British School",
            "popularity": 0.6
        },
        {
            "id": 58445,
            "original_name": "After School",
            "popularity": 0.6
        },
        {
            "id": 58557,
            "original_name": "Ja'mie: Private School Girl",
            "popularity": 2.984
        },
        {
            "id": 59545,
            "original_name": "Pet School",
            "popularity": 0.6
        },
        {
            "id": 59724,
            "original_name": "High School Moms",
            "popularity": 0.6
        },
        {
            "id": 60433,
            "original_name": "Cool Cats Show",
            "popularity": 0.6
        },
        {
            "id": 61095,
            "original_name": "Defrag Tools",
            "popularity": 1.716
        },
        {
            "id": 61402,
            "original_name": "Royal Marines Commando School",
            "popularity": 0.6
        },
        {
            "id": 61412,
            "original_name": "House of Fools",
            "popularity": 1.381
        },
        {
            "id": 61491,
            "original_name": "Video Game High School",
            "popularity": 7.29
        },
        {
            "id": 62482,
            "original_name": "Being: Liverpool",
            "popularity": 1.521
        },
        {
            "id": 63038,
            "original_name": "100 Things to Do Before High School",
            "popularity": 5.171
        },
        {
            "id": 63294,
            "original_name": "Mr Drew's School for Boys",
            "popularity": 0.685
        },
        {
            "id": 63519,
            "original_name": "Are Our Kids Tough Enough? Chinese School",
            "popularity": 0.84
        },
        {
            "id": 64228,
            "original_name": "Be Cool, Scooby-Doo!",
            "popularity": 16.656
        },
        {
            "id": 65105,
            "original_name": "Rock of Love: Charm School",
            "popularity": 0.6
        },
        {
            "id": 65265,
            "original_name": "The Pool Master",
            "popularity": 0.6
        },
        {
            "id": 65876,
            "original_name": "School of Rock",
            "popularity": 10.873
        },
        {
            "id": 65981,
            "original_name": "Royal Navy School",
            "popularity": 0.6
        },
        {
            "id": 66265,
            "original_name": "The Adventures of Voopa the Goolash",
            "popularity": 0.6
        },
        {
            "id": 66661,
            "original_name": "Insane Pools: Off the Deep End",
            "popularity": 1.453
        },
        {
            "id": 66872,
            "original_name": "Main Naa Bhoolungi",
            "popularity": 0.6
        },
        {
            "id": 67366,
            "original_name": "War of High School: The Series",
            "popularity": 0.6
        },
        {
            "id": 67717,
            "original_name": "Stage School",
            "popularity": 1.167
        },
        {
            "id": 67996,
            "original_name": "ZOOl\u00f3gico",
            "popularity": 0.6
        },
        {
            "id": 68200,
            "original_name": "This is High School",
            "popularity": 0.6
        },
        {
            "id": 69967,
            "original_name": "The Barstool Rundown: Live from Houston",
            "popularity": 0.6
        },
        {
            "id": 70290,
            "original_name": "Cassandra French's Finishing School",
            "popularity": 1.264
        },
        {
            "id": 71207,
            "original_name": "Back to School \u2013 Gottschalks gro\u00dfes Klassentreffen",
            "popularity": 1.774
        },
        {
            "id": 71934,
            "original_name": "Ultimate Pools",
            "popularity": 0.6
        },
        {
            "id": 72552,
            "original_name": "Five Nights at Freddy's: High School",
            "popularity": 4.593
        },
        {
            "id": 72610,
            "original_name": "Carpool Karaoke",
            "popularity": 15.963
        },
        {
            "id": 72675,
            "original_name": "2017 WoollimPICK",
            "popularity": 0.6
        },
        {
            "id": 72762,
            "original_name": "Deadpool The Animated Series",
            "popularity": 1.965
        },
        {
            "id": 72848,
            "original_name": "School of Doodle",
            "popularity": 1.154
        },
        {
            "id": 73472,
            "original_name": "The Magic School Bus Rides Again",
            "popularity": 8.482
        },
        {
            "id": 73496,
            "original_name": "School Inc.",
            "popularity": 0.6
        },
        {
            "id": 74999,
            "original_name": "Idol School Trip",
            "popularity": 0.6
        },
        {
            "id": 76475,
            "original_name": "Stacey Dooley Investigates",
            "popularity": 1.442
        },
        {
            "id": 76784,
            "original_name": "The Story of Only Fools And Horses",
            "popularity": 2.163
        },
        {
            "id": 76985,
            "original_name": "Jools' Annual Hootenanny",
            "popularity": 0.6
        },
        {
            "id": 77034,
            "original_name": "Rebellious School Trip",
            "popularity": 0.6
        },
        {
            "id": 77035,
            "original_name": "Rebellious School Trip",
            "popularity": 0.6
        },
        {
            "id": 77573,
            "original_name": "Cool Japai",
            "popularity": 0.6
        },
        {
            "id": 78320,
            "original_name": "Pool Kings",
            "popularity": 1.4
        },
        {
            "id": 78779,
            "original_name": "Dream School",
            "popularity": 1.579
        },
        {
            "id": 79723,
            "original_name": "The Cool Kids",
            "popularity": 3.203
        },
        {
            "id": 79867,
            "original_name": "Grammar Schools: Who Will Get In?",
            "popularity": 0.6
        },
        {
            "id": 80195,
            "original_name": "Wonderschool",
            "popularity": 0.6
        },
        {
            "id": 80365,
            "original_name": "Story of Cool",
            "popularity": 0.854
        },
        {
            "id": 81924,
            "original_name": "Schooled",
            "popularity": 6.271
        },
        {
            "id": 82547,
            "original_name": "Parker's Super Cool Movie Reviews",
            "popularity": 0.6
        },
        {
            "id": 84227,
            "original_name": "Woolly and Tig",
            "popularity": 0.805
        },
        {
            "id": 84252,
            "original_name": "Goku Dou High School",
            "popularity": 1.526
        },
        {
            "id": 84968,
            "original_name": "De kijk van Koolhoven",
            "popularity": 0.7
        },
        {
            "id": 85499,
            "original_name": "The Real Cool Club",
            "popularity": 0.6
        },
        {
            "id": 85801,
            "original_name": "High School Musical: The Musical: The Series",
            "popularity": 54.19
        },
        {
            "id": 86028,
            "original_name": "This Old House: Trade School",
            "popularity": 1.117
        },
        {
            "id": 87106,
            "original_name": "Bon Appe\u0301tit's Baking School",
            "popularity": 0.683
        },
        {
            "id": 87960,
            "original_name": "Hacking High School",
            "popularity": 0.862
        },
        {
            "id": 88553,
            "original_name": "All Star Driving School",
            "popularity": 0.6
        },
        {
            "id": 88633,
            "original_name": "Deadpool Suicide Kings",
            "popularity": 4.35
        },
        {
            "id": 89439,
            "original_name": "The Most Popular Girls in School",
            "popularity": 1.4
        },
        {
            "id": 89750,
            "original_name": "Puppy School",
            "popularity": 0.6
        },
        {
            "id": 90764,
            "original_name": "Pool Hunters",
            "popularity": 0.6
        },
        {
            "id": 91103,
            "original_name": "Supersize My Pool",
            "popularity": 0.6
        },
        {
            "id": 91180,
            "original_name": "Best Pool Ever",
            "popularity": 0.6
        },
        {
            "id": 93311,
            "original_name": "Bear Grylls: Survival School",
            "popularity": 0.968
        },
        {
            "id": 93835,
            "original_name": "The Pool",
            "popularity": 1.114
        },
        {
            "id": 93841,
            "original_name": "Yvie's Odd School",
            "popularity": 0.996
        },
        {
            "id": 93969,
            "original_name": "Cool Mom",
            "popularity": 0.6
        },
        {
            "id": 94566,
            "original_name": "Back in Time for School",
            "popularity": 0.6
        },
        {
            "id": 95098,
            "original_name": "Chico Chica Boumba Pepper school",
            "popularity": 0.6
        },
        {
            "id": 95830,
            "original_name": "Middle School Moguls",
            "popularity": 1.924
        },
        {
            "id": 96293,
            "original_name": "\u8584\u685c\u9b3cSSL\u301csweet school life\u301c",
            "popularity": 1.4
        },
        {
            "id": 96778,
            "original_name": "Woolworths Carols in the Domain",
            "popularity": 0.6
        },
        {
            "id": 96816,
            "original_name": "After School Club",
            "popularity": 4.022
        },
        {
            "id": 97209,
            "original_name": "Driving School of Mum and Dad",
            "popularity": 0.6
        },
        {
            "id": 99085,
            "original_name": "School of Roars",
            "popularity": 1.595
        },
        {
            "id": 99778,
            "original_name": "THE GOD OF HIGH SCHOOL \u30b4\u30c3\u30c9\u30fb\u30aa\u30d6\u30fb\u30cf\u30a4\u30b9\u30af\u30fc\u30eb",
            "popularity": 54.23
        },
        {
            "id": 100266,
            "original_name": "Tribe Cool Crew",
            "popularity": 0.84
        },
        {
            "id": 100726,
            "original_name": "School Rangers",
            "popularity": 1.4
        },
        {
            "id": 101374,
            "original_name": "Too Grool for School: Backstage at 'Mean Girls' with Erika Henningsen",
            "popularity": 2.041
        },
        {
            "id": 101852,
            "original_name": "Hooligans",
            "popularity": 0.637
        },
        {
            "id": 103174,
            "original_name": "Chico Bon Bon: Monkey with a Tool Belt",
            "popularity": 4.173
        },
        {
            "id": 105157,
            "original_name": "High School Musical: The Musical: The Series: The Sing-Along",
            "popularity": 2.185
        },
        {
            "id": 105277,
            "original_name": "The School That Tried To End Racism",
            "popularity": 0.6
        },
        {
            "id": 105423,
            "original_name": "Bargain Loving Brits In Blackpool",
            "popularity": 0.6
        },
        {
            "id": 106252,
            "original_name": "Cookin' With Coolio",
            "popularity": 0.6
        },
        {
            "id": 106428,
            "original_name": "The Coolest Places on Earth",
            "popularity": 0.6
        },
        {
            "id": 106649,
            "original_name": "Crazy, Lovely, Cool",
            "popularity": 0.6
        },
        {
            "id": 107427,
            "original_name": "Russo Bros. Pizza Film School",
            "popularity": 1.959
        },
        {
            "id": 108620,
            "original_name": "Chinese School",
            "popularity": 0.6
        },
        {
            "id": 109227,
            "original_name": "Hi\u2606sCoool! \u30bb\u30cf\u30ac\u30fc\u30eb",
            "popularity": 0.6
        },
        {
            "id": 109599,
            "original_name": "Play School Celebrity Covers",
            "popularity": 0.613
        },
        {
            "id": 110218,
            "original_name": "Coolhunters",
            "popularity": 0.6
        },
        {
            "id": 110294,
            "original_name": "Play School Story Time",
            "popularity": 0.6
        },
        {
            "id": 110300,
            "original_name": "Play School Nursery Rhyme News Time",
            "popularity": 0.6
        },
        {
            "id": 111621,
            "original_name": "School Hacks",
            "popularity": 0.6
        },
        {
            "id": 111874,
            "original_name": "Rudy Coby: The Coolest Magician on Earth",
            "popularity": 0.6
        },
        {
            "id": 113340,
            "original_name": "Une saison \u00e0 la Juilliard School",
            "popularity": 0.6
        },
        {
            "id": 113638,
            "original_name": "A Special School",
            "popularity": 0.6
        },
        {
            "id": 114214,
            "original_name": "Schoolhouse Rock!",
            "popularity": 0.6
        },
        {
            "id": 115328,
            "original_name": "Orangutan Jungle School",
            "popularity": 0.699
        },
        {
            "id": 117305,
            "original_name": "The Lost Tools of Henry Hoke",
            "popularity": 0.6
        },
        {
            "id": 118304,
            "original_name": "FOOLs",
            "popularity": 0.6
        },
        {
            "id": 118465,
            "original_name": "\u7570\u80fd\u306e\u30a2\u30a4\u30b7\u30b9 ESP & HIGH SCHOOL DETECTIVE",
            "popularity": 2.118
        },
        {
            "id": 119452,
            "original_name": "Haunted Hooligirls",
            "popularity": 0.6
        },
        {
            "id": 119671,
            "original_name": "Mary Berry's Foolproof Cooking",
            "popularity": 0.6
        },
        {
            "id": 119700,
            "original_name": "Schooltales",
            "popularity": 1.67
        },
        {
            "id": 119859,
            "original_name": "Dog Squad Puppy School",
            "popularity": 0.6
        },
        {
            "id": 120607,
            "original_name": "Qubool Hai 2.0",
            "popularity": 2.518
        },
        {
            "id": 120635,
            "original_name": "Dog School",
            "popularity": 6.577
        },
        {
            "id": 120940,
            "original_name": "Carpool",
            "popularity": 0.84
        },
        {
            "id": 121324,
            "original_name": "Wizard School Dropout",
            "popularity": 0.6
        },
        {
            "id": 121959,
            "original_name": "Beautifool SKIN",
            "popularity": 0.6
        },
        {
            "id": 122344,
            "original_name": "Gods' School: The Olympian Gods",
            "popularity": 0.6
        },
        {
            "id": 122897,
            "original_name": "School's Out! Let's Date Now!",
            "popularity": 1.781
        },
        {
            "id": 123053,
            "original_name": "Crash Course Zoology",
            "popularity": 0.6
        },
        {
            "id": 123058,
            "original_name": "Stacey Dooley Sleeps Over",
            "popularity": 0.6
        },
        {
            "id": 124146,
            "original_name": "Svengoolie",
            "popularity": 1.142
        },
        {
            "id": 125906,
            "original_name": "Stacey Dooley: Costa del Narcos",
            "popularity": 6.237
        },
        {
            "id": 125988,
            "original_name": "Wool",
            "popularity": 1.121
        },
        {
            "id": 126793,
            "original_name": "Liverpool Narcos",
            "popularity": 3.581
        },
        {
            "id": 127191,
            "original_name": "Daddy Cool",
            "popularity": 0.6
        },
        {
            "id": 128803,
            "original_name": "School of Thrones",
            "popularity": 0.6
        },
        {
            "id": 129288,
            "original_name": "Vasooli",
            "popularity": 0.704
        },
        {
            "id": 129444,
            "original_name": "Scholastic Storybook Treasures - 20 Back-To-School Tales",
            "popularity": 0.6
        },
        {
            "id": 129941,
            "original_name": "Yoshi's Woolly World",
            "popularity": 0.6
        },
        {
            "id": 130463,
            "original_name": "Unnies' Beauty Carpool",
            "popularity": 0.6
        },
        {
            "id": 130807,
            "original_name": "Only Fools And Horses Miami Twice The American Dream",
            "popularity": 0.6
        },
        {
            "id": 130957,
            "original_name": "Carpool Crush",
            "popularity": 0.6
        },
        {
            "id": 131230,
            "original_name": "NTSC (Nouveau Truc Super Cool)",
            "popularity": 4.776
        },
        {
            "id": 131243,
            "original_name": "C'est cool d'aimer C\u00e9line Dion",
            "popularity": 2.742
        },
        {
            "id": 131364,
            "original_name": "Ready for Preschool",
            "popularity": 0.887
        },
        {
            "id": 131588,
            "original_name": "Die Ehrlich Brothers Magic School",
            "popularity": 0.6
        },
        {
            "id": 131636,
            "original_name": "Bosvechters: Utrecht Hooligans Forever",
            "popularity": 0.6
        },
        {
            "id": 131996,
            "original_name": "Taarak Mehta Ka Ooltah Chashmah",
            "popularity": 0.6
        },
        {
            "id": 133363,
            "original_name": "The School That Tried to End Racism",
            "popularity": 0.6
        },
        {
            "id": 133581,
            "original_name": "MCND's Crazy School",
            "popularity": 0.6
        },
        {
            "id": 134372,
            "original_name": "Standard Deviants School: Physics",
            "popularity": 0.6
        },
        {
            "id": 134677,
            "original_name": "The School Of...",
            "popularity": 0.6
        },
        {
            "id": 135205,
            "original_name": "The School",
            "popularity": 1.347
        },
        {
            "id": 135322,
            "original_name": "Primitive Tool",
            "popularity": 0.6
        },
        {
            "id": 135417,
            "original_name": "High School Reunion",
            "popularity": 0.6
        },
        {
            "id": 135937,
            "original_name": "Descendants: School of Secrets",
            "popularity": 0.6
        },
        {
            "id": 136103,
            "original_name": "COOL JAPAN",
            "popularity": 0.6
        },
        {
            "id": 136269,
            "original_name": "Cool pareil",
            "popularity": 0.6
        },
        {
            "id": 136370,
            "original_name": "Cool oder Crash",
            "popularity": 0.6
        },
        {
            "id": 136793,
            "original_name": "Middle School Maddox",
            "popularity": 0.6
        },
        {
            "id": 137315,
            "original_name": "Fantastic IZ : Hidden School",
            "popularity": 20.072
        },
        {
            "id": 137584,
            "original_name": "School of Chocolate",
            "popularity": 9.123
        },
        {
            "id": 137790,
            "original_name": "Wai Rai High School",
            "popularity": 0.6
        },
        {
            "id": 152297,
            "original_name": "100 Year Old Driving School",
            "popularity": 1.614
        }
    ],
    "relations": [
        {
            "character": "ools"
        },
        {
            "character": "oola"
        },
        {
            "character": "ooli"
        },
        {
            "character": "oole"
        },
        {
            "character": "ooly"
        },
        {
            "character": "oolh"
        },
        {
            "character": "oolb"
        },
        {
            "character": "oold"
        },
        {
            "character": "oolm"
        },
        {
            "character": "oolr"
        },
        {
            "character": "oolf"
        },
        {
            "character": "oolc"
        },
        {
            "character": "oolu"
        },
        {
            "character": "ooll"
        },
        {
            "character": "oolw"
        },
        {
            "character": "ool!"
        },
        {
            "character": "oolp"
        },
        {
            "character": "oolt"
        },
        {
            "character": "oolo"
        }
    ],
    "top20": [
        {
            "id": 99778,
            "original_name": "THE GOD OF HIGH SCHOOL \u30b4\u30c3\u30c9\u30fb\u30aa\u30d6\u30fb\u30cf\u30a4\u30b9\u30af\u30fc\u30eb",
            "popularity": 54.23
        },
        {
            "id": 85801,
            "original_name": "High School Musical: The Musical: The Series",
            "popularity": 54.19
        },
        {
            "id": 56998,
            "original_name": "\u5b66\u5712\u9ed9\u793a\u9332 HIGHSCHOOL OF THE DEAD",
            "popularity": 31.901
        },
        {
            "id": 1600,
            "original_name": "Ned's Declassified School Survival Guide",
            "popularity": 29.308
        },
        {
            "id": 53721,
            "original_name": "\u30e9\u30d6\u30e9\u30a4\u30d6! School idol project",
            "popularity": 20.937
        },
        {
            "id": 137315,
            "original_name": "Fantastic IZ : Hidden School",
            "popularity": 20.072
        },
        {
            "id": 64228,
            "original_name": "Be Cool, Scooby-Doo!",
            "popularity": 16.656
        },
        {
            "id": 72610,
            "original_name": "Carpool Karaoke",
            "popularity": 15.963
        },
        {
            "id": 34607,
            "original_name": "Penn & Teller: Fool Us",
            "popularity": 14.316
        },
        {
            "id": 72,
            "original_name": "Only Fools and Horses",
            "popularity": 12.747
        },
        {
            "id": 4623,
            "original_name": "The Emperor's New School",
            "popularity": 12.154
        },
        {
            "id": 7248,
            "original_name": "The Magic School Bus",
            "popularity": 11.272
        },
        {
            "id": 65876,
            "original_name": "School of Rock",
            "popularity": 10.873
        },
        {
            "id": 18162,
            "original_name": "ABC Afterschool Special",
            "popularity": 9.939
        },
        {
            "id": 137584,
            "original_name": "School of Chocolate",
            "popularity": 9.123
        },
        {
            "id": 73472,
            "original_name": "The Magic School Bus Rides Again",
            "popularity": 8.482
        },
        {
            "id": 61491,
            "original_name": "Video Game High School",
            "popularity": 7.29
        },
        {
            "id": 120635,
            "original_name": "Dog School",
            "popularity": 6.577
        },
        {
            "id": 81924,
            "original_name": "Schooled",
            "popularity": 6.271
        },
        {
            "id": 125906,
            "original_name": "Stacey Dooley: Costa del Narcos",
            "popularity": 6.237
        }
    ]
}