{
    "data": [
        {
            "id": 106626,
            "original_name": "Les Copains d'abord",
            "popularity": 0.84
        }
    ],
    "relations": [],
    "top20": [
        {
            "id": 106626,
            "original_name": "Les Copains d'abord",
            "popularity": 0.84
        }
    ]
}