{
    "data": [
        {
            "id": 11154,
            "original_name": "Metropia",
            "popularity": 0.6
        },
        {
            "id": 15373,
            "original_name": "Newstopia",
            "popularity": 0.6
        },
        {
            "id": 15775,
            "original_name": "Dinotopia",
            "popularity": 0.6
        },
        {
            "id": 18741,
            "original_name": "Pornucopia: Going Down in The Valley",
            "popularity": 3.372
        },
        {
            "id": 22262,
            "original_name": "Artopia",
            "popularity": 0.6
        },
        {
            "id": 46511,
            "original_name": "Utopia",
            "popularity": 14.59
        },
        {
            "id": 49147,
            "original_name": "Wildlife Safari In Ethiopia",
            "popularity": 0.6
        },
        {
            "id": 61298,
            "original_name": "Utopia",
            "popularity": 0.6
        },
        {
            "id": 61806,
            "original_name": "Utopia",
            "popularity": 1.386
        },
        {
            "id": 61877,
            "original_name": "Sin Vida Propia",
            "popularity": 0.6
        },
        {
            "id": 63136,
            "original_name": "Newtopia",
            "popularity": 0.846
        },
        {
            "id": 63699,
            "original_name": "Utopia",
            "popularity": 5.84
        },
        {
            "id": 73536,
            "original_name": "Dinotopia",
            "popularity": 12.859
        },
        {
            "id": 76886,
            "original_name": "Utopia Show",
            "popularity": 0.6
        },
        {
            "id": 78839,
            "original_name": "Barbie Dreamtopia",
            "popularity": 4.401
        },
        {
            "id": 78903,
            "original_name": "Utopia",
            "popularity": 24.324
        },
        {
            "id": 84609,
            "original_name": "Dystopia",
            "popularity": 1.741
        },
        {
            "id": 85507,
            "original_name": "Utopia 2",
            "popularity": 1.4
        },
        {
            "id": 97559,
            "original_name": "Utopia Falls",
            "popularity": 7.308
        },
        {
            "id": 102541,
            "original_name": "Craftopia",
            "popularity": 2.288
        },
        {
            "id": 110451,
            "original_name": "MTopia",
            "popularity": 0.6
        },
        {
            "id": 113378,
            "original_name": "Trolls: TrollsTopia",
            "popularity": 8.839
        },
        {
            "id": 114463,
            "original_name": "Zootopia+",
            "popularity": 5.418
        },
        {
            "id": 118495,
            "original_name": "En su propia trampa",
            "popularity": 1.982
        },
        {
            "id": 120817,
            "original_name": "Baketopia",
            "popularity": 1.176
        },
        {
            "id": 124648,
            "original_name": "Hatchimals: Adventures in Hatchtopia",
            "popularity": 0.605
        },
        {
            "id": 125156,
            "original_name": "Dystopia",
            "popularity": 13.529
        },
        {
            "id": 129775,
            "original_name": "Utopia: In Search of the Dream",
            "popularity": 0.6
        }
    ],
    "relations": [],
    "top20": [
        {
            "id": 78903,
            "original_name": "Utopia",
            "popularity": 24.324
        },
        {
            "id": 46511,
            "original_name": "Utopia",
            "popularity": 14.59
        },
        {
            "id": 125156,
            "original_name": "Dystopia",
            "popularity": 13.529
        },
        {
            "id": 73536,
            "original_name": "Dinotopia",
            "popularity": 12.859
        },
        {
            "id": 113378,
            "original_name": "Trolls: TrollsTopia",
            "popularity": 8.839
        },
        {
            "id": 97559,
            "original_name": "Utopia Falls",
            "popularity": 7.308
        },
        {
            "id": 63699,
            "original_name": "Utopia",
            "popularity": 5.84
        },
        {
            "id": 114463,
            "original_name": "Zootopia+",
            "popularity": 5.418
        },
        {
            "id": 78839,
            "original_name": "Barbie Dreamtopia",
            "popularity": 4.401
        },
        {
            "id": 18741,
            "original_name": "Pornucopia: Going Down in The Valley",
            "popularity": 3.372
        },
        {
            "id": 102541,
            "original_name": "Craftopia",
            "popularity": 2.288
        },
        {
            "id": 118495,
            "original_name": "En su propia trampa",
            "popularity": 1.982
        },
        {
            "id": 84609,
            "original_name": "Dystopia",
            "popularity": 1.741
        },
        {
            "id": 85507,
            "original_name": "Utopia 2",
            "popularity": 1.4
        },
        {
            "id": 61806,
            "original_name": "Utopia",
            "popularity": 1.386
        },
        {
            "id": 120817,
            "original_name": "Baketopia",
            "popularity": 1.176
        },
        {
            "id": 63136,
            "original_name": "Newtopia",
            "popularity": 0.846
        },
        {
            "id": 124648,
            "original_name": "Hatchimals: Adventures in Hatchtopia",
            "popularity": 0.605
        },
        {
            "id": 15373,
            "original_name": "Newstopia",
            "popularity": 0.6
        },
        {
            "id": 11154,
            "original_name": "Metropia",
            "popularity": 0.6
        }
    ]
}