{
    "data": [
        {
            "id": 12306,
            "original_name": "Tropical Heat",
            "popularity": 6.132
        },
        {
            "id": 20824,
            "original_name": "Tropic of Capricorn",
            "popularity": 0.6
        },
        {
            "id": 25683,
            "original_name": "OnTopic",
            "popularity": 0.6
        },
        {
            "id": 26006,
            "original_name": "Tropic",
            "popularity": 0.6
        },
        {
            "id": 37893,
            "original_name": "Tropic of Cancer",
            "popularity": 0.6
        },
        {
            "id": 39878,
            "original_name": "Ontopic",
            "popularity": 0.6
        },
        {
            "id": 40534,
            "original_name": "Microscopic Milton",
            "popularity": 0.6
        },
        {
            "id": 41815,
            "original_name": "Tropicaliente",
            "popularity": 4.138
        },
        {
            "id": 42883,
            "original_name": "Para\u00edso Tropical",
            "popularity": 2.188
        },
        {
            "id": 43869,
            "original_name": "Trending Topics",
            "popularity": 0.6
        },
        {
            "id": 69872,
            "original_name": "Off Topic",
            "popularity": 0.6
        },
        {
            "id": 77314,
            "original_name": "Thailand: Earth's Tropical Paradise",
            "popularity": 0.956
        },
        {
            "id": 87234,
            "original_name": "Tropical Cop Tales",
            "popularity": 1.353
        },
        {
            "id": 97099,
            "original_name": "Earth's Tropical Islands",
            "popularity": 1.4
        },
        {
            "id": 129907,
            "original_name": "Topics in the History of Mathematics",
            "popularity": 0.6
        }
    ],
    "relations": [],
    "top20": [
        {
            "id": 12306,
            "original_name": "Tropical Heat",
            "popularity": 6.132
        },
        {
            "id": 20824,
            "original_name": "Tropic of Capricorn",
            "popularity": 0.6
        },
        {
            "id": 25683,
            "original_name": "OnTopic",
            "popularity": 0.6
        },
        {
            "id": 26006,
            "original_name": "Tropic",
            "popularity": 0.6
        },
        {
            "id": 37893,
            "original_name": "Tropic of Cancer",
            "popularity": 0.6
        },
        {
            "id": 39878,
            "original_name": "Ontopic",
            "popularity": 0.6
        },
        {
            "id": 40534,
            "original_name": "Microscopic Milton",
            "popularity": 0.6
        },
        {
            "id": 41815,
            "original_name": "Tropicaliente",
            "popularity": 4.138
        },
        {
            "id": 42883,
            "original_name": "Para\u00edso Tropical",
            "popularity": 2.188
        },
        {
            "id": 43869,
            "original_name": "Trending Topics",
            "popularity": 0.6
        },
        {
            "id": 69872,
            "original_name": "Off Topic",
            "popularity": 0.6
        },
        {
            "id": 77314,
            "original_name": "Thailand: Earth's Tropical Paradise",
            "popularity": 0.956
        },
        {
            "id": 87234,
            "original_name": "Tropical Cop Tales",
            "popularity": 1.353
        },
        {
            "id": 97099,
            "original_name": "Earth's Tropical Islands",
            "popularity": 1.4
        },
        {
            "id": 129907,
            "original_name": "Topics in the History of Mathematics",
            "popularity": 0.6
        }
    ]
}