{
    "data": [
        {
            "id": 17404,
            "original_name": "Chopped",
            "popularity": 9.037
        },
        {
            "id": 23879,
            "original_name": "Popped In, Crashed Out",
            "popularity": 0.6
        },
        {
            "id": 36905,
            "original_name": "Chopped Champions",
            "popularity": 0.6
        },
        {
            "id": 60892,
            "original_name": "Chopped Canada",
            "popularity": 0.6
        },
        {
            "id": 70535,
            "original_name": "Chopped Junior",
            "popularity": 3.051
        },
        {
            "id": 72178,
            "original_name": "Dropped - Heltenes kamp",
            "popularity": 0.6
        },
        {
            "id": 87117,
            "original_name": "Dropped",
            "popularity": 0.871
        },
        {
            "id": 102324,
            "original_name": "Chopped Sweets",
            "popularity": 1.187
        },
        {
            "id": 122221,
            "original_name": "Ryan Gosling Must Be Stopped",
            "popularity": 0.887
        },
        {
            "id": 123855,
            "original_name": "Chopped 420",
            "popularity": 1.09
        },
        {
            "id": 126385,
            "original_name": "Chopped Next Gen",
            "popularity": 0.84
        }
    ],
    "relations": [],
    "top20": [
        {
            "id": 17404,
            "original_name": "Chopped",
            "popularity": 9.037
        },
        {
            "id": 23879,
            "original_name": "Popped In, Crashed Out",
            "popularity": 0.6
        },
        {
            "id": 36905,
            "original_name": "Chopped Champions",
            "popularity": 0.6
        },
        {
            "id": 60892,
            "original_name": "Chopped Canada",
            "popularity": 0.6
        },
        {
            "id": 70535,
            "original_name": "Chopped Junior",
            "popularity": 3.051
        },
        {
            "id": 72178,
            "original_name": "Dropped - Heltenes kamp",
            "popularity": 0.6
        },
        {
            "id": 87117,
            "original_name": "Dropped",
            "popularity": 0.871
        },
        {
            "id": 102324,
            "original_name": "Chopped Sweets",
            "popularity": 1.187
        },
        {
            "id": 122221,
            "original_name": "Ryan Gosling Must Be Stopped",
            "popularity": 0.887
        },
        {
            "id": 123855,
            "original_name": "Chopped 420",
            "popularity": 1.09
        },
        {
            "id": 126385,
            "original_name": "Chopped Next Gen",
            "popularity": 0.84
        }
    ]
}