{
    "data": [
        {
            "id": 10981,
            "original_name": "Stoppit and Tidyup",
            "popularity": 0.6
        },
        {
            "id": 14593,
            "original_name": "Hoppity Hooper",
            "popularity": 0.65
        },
        {
            "id": 20314,
            "original_name": "Sara and Hoppity",
            "popularity": 0.6
        }
    ],
    "relations": [],
    "top20": [
        {
            "id": 10981,
            "original_name": "Stoppit and Tidyup",
            "popularity": 0.6
        },
        {
            "id": 14593,
            "original_name": "Hoppity Hooper",
            "popularity": 0.65
        },
        {
            "id": 20314,
            "original_name": "Sara and Hoppity",
            "popularity": 0.6
        }
    ]
}