{
    "data": [
        {
            "id": 2591,
            "original_name": "The Floppy Show",
            "popularity": 0.6
        },
        {
            "id": 28331,
            "original_name": "Born Sloppy",
            "popularity": 0.6
        },
        {
            "id": 40157,
            "original_name": "The Extraordinary Adventures of Poppy Cat",
            "popularity": 1.192
        },
        {
            "id": 44435,
            "original_name": "The Vacillations of Poppy Carew",
            "popularity": 0.6
        },
        {
            "id": 71587,
            "original_name": "Poppy",
            "popularity": 0.6
        },
        {
            "id": 76658,
            "original_name": "I'm Poppy",
            "popularity": 1.4
        }
    ],
    "relations": [],
    "top20": [
        {
            "id": 2591,
            "original_name": "The Floppy Show",
            "popularity": 0.6
        },
        {
            "id": 28331,
            "original_name": "Born Sloppy",
            "popularity": 0.6
        },
        {
            "id": 40157,
            "original_name": "The Extraordinary Adventures of Poppy Cat",
            "popularity": 1.192
        },
        {
            "id": 44435,
            "original_name": "The Vacillations of Poppy Carew",
            "popularity": 0.6
        },
        {
            "id": 71587,
            "original_name": "Poppy",
            "popularity": 0.6
        },
        {
            "id": 76658,
            "original_name": "I'm Poppy",
            "popularity": 1.4
        }
    ]
}