{
    "data": [
        {
            "id": 44434,
            "original_name": "Appropriate Adult",
            "popularity": 3.614
        },
        {
            "id": 78618,
            "original_name": "Fructul oprit",
            "popularity": 2.204
        },
        {
            "id": 104771,
            "original_name": "Proprio en otage",
            "popularity": 0.6
        },
        {
            "id": 138577,
            "original_name": "Inappropriate Parents",
            "popularity": 0.6
        }
    ],
    "relations": [],
    "top20": [
        {
            "id": 44434,
            "original_name": "Appropriate Adult",
            "popularity": 3.614
        },
        {
            "id": 78618,
            "original_name": "Fructul oprit",
            "popularity": 2.204
        },
        {
            "id": 104771,
            "original_name": "Proprio en otage",
            "popularity": 0.6
        },
        {
            "id": 138577,
            "original_name": "Inappropriate Parents",
            "popularity": 0.6
        }
    ]
}