{
    "data": [
        {
            "id": 8460,
            "original_name": "Carrie and David's Popshop",
            "popularity": 0.6
        },
        {
            "id": 36316,
            "original_name": "Nederpopshow",
            "popularity": 0.6
        },
        {
            "id": 103561,
            "original_name": "Curso Acelerador de dropshipping",
            "popularity": 0.6
        }
    ],
    "relations": [],
    "top20": [
        {
            "id": 8460,
            "original_name": "Carrie and David's Popshop",
            "popularity": 0.6
        },
        {
            "id": 36316,
            "original_name": "Nederpopshow",
            "popularity": 0.6
        },
        {
            "id": 103561,
            "original_name": "Curso Acelerador de dropshipping",
            "popularity": 0.6
        }
    ]
}