{
    "data": [
        {
            "id": 84191,
            "original_name": "LOQUITO POR TI",
            "popularity": 0.6
        },
        {
            "id": 85045,
            "original_name": "Loquito por ti",
            "popularity": 4.53
        },
        {
            "id": 88094,
            "original_name": "Un Poquito Tuyo",
            "popularity": 1.806
        }
    ],
    "relations": [],
    "top20": [
        {
            "id": 84191,
            "original_name": "LOQUITO POR TI",
            "popularity": 0.6
        },
        {
            "id": 85045,
            "original_name": "Loquito por ti",
            "popularity": 4.53
        },
        {
            "id": 88094,
            "original_name": "Un Poquito Tuyo",
            "popularity": 1.806
        }
    ]
}