{
    "data": [
        {
            "id": 106991,
            "original_name": "Emil og Theis p\u00e5 rekordjagt",
            "popularity": 0.6
        },
        {
            "id": 119512,
            "original_name": "Nordjylland under overfladen",
            "popularity": 0.6
        }
    ],
    "relations": [],
    "top20": [
        {
            "id": 106991,
            "original_name": "Emil og Theis p\u00e5 rekordjagt",
            "popularity": 0.6
        },
        {
            "id": 119512,
            "original_name": "Nordjylland under overfladen",
            "popularity": 0.6
        }
    ]
}