{
    "data": [
        {
            "id": 138414,
            "original_name": "Idrettsforeldre",
            "popularity": 1.934
        }
    ],
    "relations": [],
    "top20": [
        {
            "id": 138414,
            "original_name": "Idrettsforeldre",
            "popularity": 1.934
        }
    ]
}