{
    "data": [
        {
            "id": 272,
            "original_name": "Korgoth of Barbaria",
            "popularity": 2.715
        },
        {
            "id": 14384,
            "original_name": "Forgotten Toys",
            "popularity": 0.6
        },
        {
            "id": 17312,
            "original_name": "Gone But Not Forgotten",
            "popularity": 1.4
        },
        {
            "id": 18018,
            "original_name": "Unforgotten Realms",
            "popularity": 0.6
        },
        {
            "id": 21034,
            "original_name": "Not Forgotten",
            "popularity": 0.656
        },
        {
            "id": 27937,
            "original_name": "Fabulous, Famous And Forgotten",
            "popularity": 0.6
        },
        {
            "id": 29267,
            "original_name": "The Diets That Time Forgot",
            "popularity": 0.6
        },
        {
            "id": 30704,
            "original_name": "The Forgotten",
            "popularity": 8.1
        },
        {
            "id": 38400,
            "original_name": "Morgonsoffan",
            "popularity": 0.6
        },
        {
            "id": 39216,
            "original_name": "Nyhetsmorgon L\u00f6rdag",
            "popularity": 0.6
        },
        {
            "id": 39234,
            "original_name": "Nyhetsmorgon S\u00f6ndag",
            "popularity": 0.6
        },
        {
            "id": 40198,
            "original_name": "Forgotten",
            "popularity": 1.4
        },
        {
            "id": 41294,
            "original_name": "Orgoglio",
            "popularity": 0.6
        },
        {
            "id": 49728,
            "original_name": "Young Joe, the Forgotten Kennedy",
            "popularity": 0.6
        },
        {
            "id": 50120,
            "original_name": "Korea: The Forgotten War",
            "popularity": 0.6
        },
        {
            "id": 51686,
            "original_name": "Morgonstj\u00e4rnan",
            "popularity": 0.6
        },
        {
            "id": 54554,
            "original_name": "Torgovyy Centr",
            "popularity": 0.6
        },
        {
            "id": 55716,
            "original_name": "Return to Forgotten Britain",
            "popularity": 0.6
        },
        {
            "id": 62505,
            "original_name": "Unforgotten",
            "popularity": 14.643
        },
        {
            "id": 71071,
            "original_name": "Orgoglio e Pregiudizio",
            "popularity": 0.881
        },
        {
            "id": 72942,
            "original_name": "Gone: The Forgotten Women of Ohio",
            "popularity": 0.6
        },
        {
            "id": 74581,
            "original_name": "God morgon alla barn",
            "popularity": 0.922
        },
        {
            "id": 75772,
            "original_name": "The World's War: Forgotten Soldiers of Empire",
            "popularity": 1.207
        },
        {
            "id": 78195,
            "original_name": "Forgotten Planet",
            "popularity": 0.843
        },
        {
            "id": 79379,
            "original_name": "England's forgotten Queen: The life and death of Lady Jane Grey",
            "popularity": 0.6
        },
        {
            "id": 92859,
            "original_name": "I Segreti Di Borgo Larici",
            "popularity": 1.576
        },
        {
            "id": 96853,
            "original_name": "The Forgotten Army - Azaadi ke liye",
            "popularity": 8.625
        },
        {
            "id": 101326,
            "original_name": "The Forgotten West Memphis Three",
            "popularity": 0.6
        },
        {
            "id": 106358,
            "original_name": "Korea: The Forgotten War in Colour",
            "popularity": 0.6
        },
        {
            "id": 112984,
            "original_name": "WWII: China's Forgotten War",
            "popularity": 0.6
        },
        {
            "id": 134379,
            "original_name": "Britain's Forgotten Wars With Tony Robinson",
            "popularity": 0.945
        },
        {
            "id": 139381,
            "original_name": "Hitler's Forgotten Nazis",
            "popularity": 0.6
        }
    ],
    "relations": [
        {
            "character": "orgot"
        },
        {
            "character": "orgon"
        },
        {
            "character": "orgog"
        },
        {
            "character": "orgov"
        }
    ],
    "top20": [
        {
            "id": 62505,
            "original_name": "Unforgotten",
            "popularity": 14.643
        },
        {
            "id": 96853,
            "original_name": "The Forgotten Army - Azaadi ke liye",
            "popularity": 8.625
        },
        {
            "id": 30704,
            "original_name": "The Forgotten",
            "popularity": 8.1
        },
        {
            "id": 272,
            "original_name": "Korgoth of Barbaria",
            "popularity": 2.715
        },
        {
            "id": 92859,
            "original_name": "I Segreti Di Borgo Larici",
            "popularity": 1.576
        },
        {
            "id": 17312,
            "original_name": "Gone But Not Forgotten",
            "popularity": 1.4
        },
        {
            "id": 40198,
            "original_name": "Forgotten",
            "popularity": 1.4
        },
        {
            "id": 75772,
            "original_name": "The World's War: Forgotten Soldiers of Empire",
            "popularity": 1.207
        },
        {
            "id": 134379,
            "original_name": "Britain's Forgotten Wars With Tony Robinson",
            "popularity": 0.945
        },
        {
            "id": 74581,
            "original_name": "God morgon alla barn",
            "popularity": 0.922
        },
        {
            "id": 71071,
            "original_name": "Orgoglio e Pregiudizio",
            "popularity": 0.881
        },
        {
            "id": 78195,
            "original_name": "Forgotten Planet",
            "popularity": 0.843
        },
        {
            "id": 21034,
            "original_name": "Not Forgotten",
            "popularity": 0.656
        },
        {
            "id": 39234,
            "original_name": "Nyhetsmorgon S\u00f6ndag",
            "popularity": 0.6
        },
        {
            "id": 29267,
            "original_name": "The Diets That Time Forgot",
            "popularity": 0.6
        },
        {
            "id": 38400,
            "original_name": "Morgonsoffan",
            "popularity": 0.6
        },
        {
            "id": 14384,
            "original_name": "Forgotten Toys",
            "popularity": 0.6
        },
        {
            "id": 27937,
            "original_name": "Fabulous, Famous And Forgotten",
            "popularity": 0.6
        },
        {
            "id": 39216,
            "original_name": "Nyhetsmorgon L\u00f6rdag",
            "popularity": 0.6
        },
        {
            "id": 18018,
            "original_name": "Unforgotten Realms",
            "popularity": 0.6
        }
    ]
}