{
    "data": [
        {
            "id": 9920,
            "original_name": "The Original Amateur Hour",
            "popularity": 0.6
        },
        {
            "id": 9954,
            "original_name": "Make Me Laugh (original)",
            "popularity": 0.6
        },
        {
            "id": 10882,
            "original_name": "Masquerade Party (Original)",
            "popularity": 0.6
        },
        {
            "id": 15403,
            "original_name": "Aboriginal Christian Television System",
            "popularity": 0.6
        },
        {
            "id": 23143,
            "original_name": "SAS: The Originals",
            "popularity": 0.6
        },
        {
            "id": 23911,
            "original_name": "General Electric Summer Originals",
            "popularity": 0.841
        },
        {
            "id": 25558,
            "original_name": "B. Original",
            "popularity": 0.6
        },
        {
            "id": 26769,
            "original_name": "\u306d\u3053\u3062\u308b\u5287\u5834 \u3062\u308b\u3062\u308bORIGINAL",
            "popularity": 1.994
        },
        {
            "id": 27989,
            "original_name": "Otto live! Das Original",
            "popularity": 0.6
        },
        {
            "id": 30367,
            "original_name": "Legacy - The Origins of Civilization",
            "popularity": 0.6
        },
        {
            "id": 35446,
            "original_name": "\u30b9\u30fc\u30d1\u30fc\u30ed\u30dc\u30c3\u30c8\u5927\u6226 ORIGINAL GENERATION THE ANIMATION",
            "popularity": 0.872
        },
        {
            "id": 40004,
            "original_name": "The Originals w/ Emeril",
            "popularity": 0.6
        },
        {
            "id": 42096,
            "original_name": "Origins of Us",
            "popularity": 0.6
        },
        {
            "id": 42958,
            "original_name": "Alle origini della mafia",
            "popularity": 3.59
        },
        {
            "id": 45332,
            "original_name": "Original Sin",
            "popularity": 1.215
        },
        {
            "id": 46859,
            "original_name": "19th Annual National Aboriginal Achievement Awards",
            "popularity": 0.6
        },
        {
            "id": 46896,
            "original_name": "The Originals",
            "popularity": 113.802
        },
        {
            "id": 48156,
            "original_name": "Original Scent of Summer",
            "popularity": 0.6
        },
        {
            "id": 48598,
            "original_name": "The Original Three Tenors Concert",
            "popularity": 0.6
        },
        {
            "id": 49531,
            "original_name": "CollegeHumor Originals",
            "popularity": 0.6
        },
        {
            "id": 55258,
            "original_name": "CNBC Originals",
            "popularity": 0.6
        },
        {
            "id": 57346,
            "original_name": "Origins & Oracles",
            "popularity": 0.6
        },
        {
            "id": 57826,
            "original_name": "The 18th Annual National Aboriginal Achievement Awards",
            "popularity": 0.6
        },
        {
            "id": 58378,
            "original_name": "Nick Knowles' Original Features",
            "popularity": 0.843
        },
        {
            "id": 59043,
            "original_name": "2009 National Aboriginal Achievement Awards",
            "popularity": 0.6
        },
        {
            "id": 60320,
            "original_name": "2007 National Aboriginal Achievement Awards",
            "popularity": 0.6
        },
        {
            "id": 61131,
            "original_name": "Aux origines de l'humanit\u00e9",
            "popularity": 0.953
        },
        {
            "id": 61295,
            "original_name": "\u30dd\u30b1\u30c3\u30c8\u30e2\u30f3\u30b9\u30bf\u30fc THE ORIGIN",
            "popularity": 37.965
        },
        {
            "id": 62119,
            "original_name": "Banshee: Origins",
            "popularity": 11.6
        },
        {
            "id": 63285,
            "original_name": "Original Comedy Shorts",
            "popularity": 1.767
        },
        {
            "id": 63289,
            "original_name": "Original Drama Shorts",
            "popularity": 0.6
        },
        {
            "id": 67127,
            "original_name": "Original Sin: Sex",
            "popularity": 1.816
        },
        {
            "id": 67690,
            "original_name": "Origines",
            "popularity": 1.211
        },
        {
            "id": 68477,
            "original_name": "China the Beginning: China's Origins",
            "popularity": 0.658
        },
        {
            "id": 69985,
            "original_name": "L'Origine du Christianisme",
            "popularity": 0.631
        },
        {
            "id": 70118,
            "original_name": "Better Than the Original: The Joy of the Cover Version",
            "popularity": 1.097
        },
        {
            "id": 70386,
            "original_name": "Origins: The Journey of Humankind",
            "popularity": 1.396
        },
        {
            "id": 72925,
            "original_name": "Stargate Origins",
            "popularity": 14.527
        },
        {
            "id": 79729,
            "original_name": "Original Fare",
            "popularity": 0.601
        },
        {
            "id": 80831,
            "original_name": "The SCIENCE! (A ShoddyCast Original)",
            "popularity": 0.6
        },
        {
            "id": 82054,
            "original_name": "\u30a6\u30eb\u30c8\u30e9\u30de\u30f3\u30aa\u30fc\u30d6 THE ORIGIN SAGA",
            "popularity": 3.167
        },
        {
            "id": 82875,
            "original_name": "Origin",
            "popularity": 11.392
        },
        {
            "id": 86594,
            "original_name": "Japan Origin",
            "popularity": 0.6
        },
        {
            "id": 87628,
            "original_name": "Tom Clancy's The Division: Agent Origins",
            "popularity": 0.632
        },
        {
            "id": 88865,
            "original_name": "\u6a5f\u52d5\u6226\u58eb\u30ac\u30f3\u30c0\u30e0 THE ORIGIN \u524d\u591c \u8d64\u3044\u5f57\u661f",
            "popularity": 2.991
        },
        {
            "id": 89500,
            "original_name": "sesso: il peccato originale",
            "popularity": 0.6
        },
        {
            "id": 90712,
            "original_name": "Mrs. Brown's Boys - The Original Series",
            "popularity": 0.623
        },
        {
            "id": 92606,
            "original_name": "Originalos?",
            "popularity": 1.722
        },
        {
            "id": 95567,
            "original_name": "Rosy Abate. Le origini del male",
            "popularity": 0.6
        },
        {
            "id": 98484,
            "original_name": "Le P\u00e9ch\u00e9 Originel",
            "popularity": 0.6
        },
        {
            "id": 100296,
            "original_name": "Aux origines du bien-\u00eatre",
            "popularity": 0.6
        },
        {
            "id": 106541,
            "original_name": "The Witcher: Blood Origin",
            "popularity": 5.083
        },
        {
            "id": 107064,
            "original_name": "Original y Copla",
            "popularity": 0.6
        },
        {
            "id": 107373,
            "original_name": "\u30b9\u30fc\u30d1\u30fc\u30ed\u30dc\u30c3\u30c8\u5927\u6226ORIGINAL GENERATION THE ANIMATION (2005)",
            "popularity": 0.6
        },
        {
            "id": 107579,
            "original_name": "Australian Ninja Warrior: State of Origin",
            "popularity": 0.6
        },
        {
            "id": 109764,
            "original_name": "Plate of Origin",
            "popularity": 0.631
        },
        {
            "id": 110531,
            "original_name": "Pretty Little Liars: Original Sin",
            "popularity": 0.883
        },
        {
            "id": 116029,
            "original_name": "Rita Guida The Origin Story",
            "popularity": 1.543
        },
        {
            "id": 123342,
            "original_name": "Garfield Originals",
            "popularity": 1.408
        },
        {
            "id": 123641,
            "original_name": "8MMM Aboriginal Radio",
            "popularity": 0.6
        },
        {
            "id": 124219,
            "original_name": "Origines",
            "popularity": 0.6
        },
        {
            "id": 124531,
            "original_name": "Tucker Carlson Originals",
            "popularity": 1.603
        },
        {
            "id": 125141,
            "original_name": "Nick Knowles: Original Home Restoration",
            "popularity": 0.6
        },
        {
            "id": 125477,
            "original_name": "Origins",
            "popularity": 0.6
        },
        {
            "id": 126197,
            "original_name": "Chosen Kin Origins: New Breed",
            "popularity": 0.6
        },
        {
            "id": 126219,
            "original_name": "Sight: An Original Sci-Fi Series",
            "popularity": 0.6
        },
        {
            "id": 127883,
            "original_name": "Adolf Hitler: Les Origines du Mal",
            "popularity": 0.6
        },
        {
            "id": 129035,
            "original_name": "The Walking Dead: Origins",
            "popularity": 99.522
        },
        {
            "id": 135308,
            "original_name": "Yacht Expedition: The Origin",
            "popularity": 1.162
        },
        {
            "id": 137245,
            "original_name": "CNN S\u00e9ries Originais",
            "popularity": 0.781
        },
        {
            "id": 139058,
            "original_name": "Le myst\u00e8re Satoshi, aux origines du Bitcoin",
            "popularity": 2.407
        },
        {
            "id": 139539,
            "original_name": "The Origin of Old-Earth Geology",
            "popularity": 0.6
        },
        {
            "id": 139592,
            "original_name": "Hidden Origins",
            "popularity": 0.6
        },
        {
            "id": 152364,
            "original_name": "Mobile Suit Gundam The Origin",
            "popularity": 1.271
        }
    ],
    "relations": [
        {
            "character": "origin"
        }
    ],
    "top20": [
        {
            "id": 46896,
            "original_name": "The Originals",
            "popularity": 113.802
        },
        {
            "id": 129035,
            "original_name": "The Walking Dead: Origins",
            "popularity": 99.522
        },
        {
            "id": 61295,
            "original_name": "\u30dd\u30b1\u30c3\u30c8\u30e2\u30f3\u30b9\u30bf\u30fc THE ORIGIN",
            "popularity": 37.965
        },
        {
            "id": 72925,
            "original_name": "Stargate Origins",
            "popularity": 14.527
        },
        {
            "id": 62119,
            "original_name": "Banshee: Origins",
            "popularity": 11.6
        },
        {
            "id": 82875,
            "original_name": "Origin",
            "popularity": 11.392
        },
        {
            "id": 106541,
            "original_name": "The Witcher: Blood Origin",
            "popularity": 5.083
        },
        {
            "id": 42958,
            "original_name": "Alle origini della mafia",
            "popularity": 3.59
        },
        {
            "id": 82054,
            "original_name": "\u30a6\u30eb\u30c8\u30e9\u30de\u30f3\u30aa\u30fc\u30d6 THE ORIGIN SAGA",
            "popularity": 3.167
        },
        {
            "id": 88865,
            "original_name": "\u6a5f\u52d5\u6226\u58eb\u30ac\u30f3\u30c0\u30e0 THE ORIGIN \u524d\u591c \u8d64\u3044\u5f57\u661f",
            "popularity": 2.991
        },
        {
            "id": 139058,
            "original_name": "Le myst\u00e8re Satoshi, aux origines du Bitcoin",
            "popularity": 2.407
        },
        {
            "id": 26769,
            "original_name": "\u306d\u3053\u3062\u308b\u5287\u5834 \u3062\u308b\u3062\u308bORIGINAL",
            "popularity": 1.994
        },
        {
            "id": 67127,
            "original_name": "Original Sin: Sex",
            "popularity": 1.816
        },
        {
            "id": 63285,
            "original_name": "Original Comedy Shorts",
            "popularity": 1.767
        },
        {
            "id": 92606,
            "original_name": "Originalos?",
            "popularity": 1.722
        },
        {
            "id": 124531,
            "original_name": "Tucker Carlson Originals",
            "popularity": 1.603
        },
        {
            "id": 116029,
            "original_name": "Rita Guida The Origin Story",
            "popularity": 1.543
        },
        {
            "id": 123342,
            "original_name": "Garfield Originals",
            "popularity": 1.408
        },
        {
            "id": 70386,
            "original_name": "Origins: The Journey of Humankind",
            "popularity": 1.396
        },
        {
            "id": 152364,
            "original_name": "Mobile Suit Gundam The Origin",
            "popularity": 1.271
        }
    ]
}