{
    "data": [
        {
            "id": 55081,
            "original_name": "Korkeasaari",
            "popularity": 0.6
        }
    ],
    "relations": [],
    "top20": [
        {
            "id": 55081,
            "original_name": "Korkeasaari",
            "popularity": 0.6
        }
    ]
}