{
    "data": [
        {
            "id": 6104,
            "original_name": "Formula 1 Decade",
            "popularity": 0.6
        },
        {
            "id": 22405,
            "original_name": "The Happiness Formula",
            "popularity": 0.6
        },
        {
            "id": 22832,
            "original_name": "SuperSecret TV Formulas",
            "popularity": 0.6
        },
        {
            "id": 32264,
            "original_name": "Formula 1 Debrief",
            "popularity": 0.6
        },
        {
            "id": 36359,
            "original_name": "Kishin Taisen Gigantic Formula",
            "popularity": 2.538
        },
        {
            "id": 42512,
            "original_name": "The Eden Formula",
            "popularity": 0.6
        },
        {
            "id": 54445,
            "original_name": "Manden fra Mormugao",
            "popularity": 0.6
        },
        {
            "id": 68713,
            "original_name": "Formula E: Street Racers",
            "popularity": 0.849
        },
        {
            "id": 77845,
            "original_name": "The Ultimate Formula",
            "popularity": 0.6
        },
        {
            "id": 85120,
            "original_name": "The Secret Life of Formula 1",
            "popularity": 0.6
        },
        {
            "id": 85235,
            "original_name": "\u0160\u0137ir\u0161an\u0101s formula",
            "popularity": 0.6
        },
        {
            "id": 87083,
            "original_name": "Formula 1: Drive to Survive",
            "popularity": 39.595
        },
        {
            "id": 107521,
            "original_name": "Formule 1 caf\u00e9",
            "popularity": 10.535
        },
        {
            "id": 113537,
            "original_name": "Formule Diaz",
            "popularity": 0.978
        },
        {
            "id": 115344,
            "original_name": "La grande avventura della Formula 1",
            "popularity": 0.6
        },
        {
            "id": 139673,
            "original_name": "Formula E: Unplugged",
            "popularity": 1.416
        }
    ],
    "relations": [],
    "top20": [
        {
            "id": 6104,
            "original_name": "Formula 1 Decade",
            "popularity": 0.6
        },
        {
            "id": 22405,
            "original_name": "The Happiness Formula",
            "popularity": 0.6
        },
        {
            "id": 22832,
            "original_name": "SuperSecret TV Formulas",
            "popularity": 0.6
        },
        {
            "id": 32264,
            "original_name": "Formula 1 Debrief",
            "popularity": 0.6
        },
        {
            "id": 36359,
            "original_name": "Kishin Taisen Gigantic Formula",
            "popularity": 2.538
        },
        {
            "id": 42512,
            "original_name": "The Eden Formula",
            "popularity": 0.6
        },
        {
            "id": 54445,
            "original_name": "Manden fra Mormugao",
            "popularity": 0.6
        },
        {
            "id": 68713,
            "original_name": "Formula E: Street Racers",
            "popularity": 0.849
        },
        {
            "id": 77845,
            "original_name": "The Ultimate Formula",
            "popularity": 0.6
        },
        {
            "id": 85120,
            "original_name": "The Secret Life of Formula 1",
            "popularity": 0.6
        },
        {
            "id": 85235,
            "original_name": "\u0160\u0137ir\u0161an\u0101s formula",
            "popularity": 0.6
        },
        {
            "id": 87083,
            "original_name": "Formula 1: Drive to Survive",
            "popularity": 39.595
        },
        {
            "id": 107521,
            "original_name": "Formule 1 caf\u00e9",
            "popularity": 10.535
        },
        {
            "id": 113537,
            "original_name": "Formule Diaz",
            "popularity": 0.978
        },
        {
            "id": 115344,
            "original_name": "La grande avventura della Formula 1",
            "popularity": 0.6
        },
        {
            "id": 139673,
            "original_name": "Formula E: Unplugged",
            "popularity": 1.416
        }
    ]
}