{
    "data": [
        {
            "id": 152572,
            "original_name": "The Ornamental Kitchen Garden",
            "popularity": 0.6
        }
    ],
    "relations": [],
    "top20": [
        {
            "id": 152572,
            "original_name": "The Ornamental Kitchen Garden",
            "popularity": 0.6
        }
    ]
}