{
    "data": [
        {
            "id": 814,
            "original_name": "Hornblower",
            "popularity": 9.636
        },
        {
            "id": 2408,
            "original_name": "The Wild Thornberrys",
            "popularity": 19.343
        },
        {
            "id": 37906,
            "original_name": "Fornb\u00f3kab\u00fa\u00f0in",
            "popularity": 0.6
        },
        {
            "id": 136160,
            "original_name": "Hornby: A Model World",
            "popularity": 10.484
        }
    ],
    "relations": [],
    "top20": [
        {
            "id": 814,
            "original_name": "Hornblower",
            "popularity": 9.636
        },
        {
            "id": 2408,
            "original_name": "The Wild Thornberrys",
            "popularity": 19.343
        },
        {
            "id": 37906,
            "original_name": "Fornb\u00f3kab\u00fa\u00f0in",
            "popularity": 0.6
        },
        {
            "id": 136160,
            "original_name": "Hornby: A Model World",
            "popularity": 10.484
        }
    ]
}