{
    "data": [
        {
            "id": 58219,
            "original_name": "Zborov\u0148a",
            "popularity": 1.204
        }
    ],
    "relations": [],
    "top20": [
        {
            "id": 58219,
            "original_name": "Zborov\u0148a",
            "popularity": 1.204
        }
    ]
}