{
    "data": [
        {
            "id": 19158,
            "original_name": "Morsarvet",
            "popularity": 0.6
        },
        {
            "id": 50015,
            "original_name": "AlForsan",
            "popularity": 0.6
        },
        {
            "id": 53778,
            "original_name": "Korsan TV",
            "popularity": 0.6
        },
        {
            "id": 54020,
            "original_name": "Reha Muhtar'la Her Nerede Ya\u015f\u0131yorsan T\u00fcrkiye",
            "popularity": 0.6
        },
        {
            "id": 54682,
            "original_name": "Hasses brorsas l\u00e5tsassyrras kompis",
            "popularity": 0.6
        },
        {
            "id": 56714,
            "original_name": "Sing Motorsai Kab Yaituasab",
            "popularity": 0.6
        },
        {
            "id": 66900,
            "original_name": "Il Corsaro Nero",
            "popularity": 1.045
        },
        {
            "id": 70498,
            "original_name": "Corsaires et Flibustiers",
            "popularity": 1.389
        },
        {
            "id": 83232,
            "original_name": "Salak bilmiyorsan birak",
            "popularity": 0.6
        },
        {
            "id": 96080,
            "original_name": "Jolanda - La hija del Corsario Negro",
            "popularity": 0.6
        },
        {
            "id": 122363,
            "original_name": "Borsato's Budget Bruiloft",
            "popularity": 0.6
        }
    ],
    "relations": [],
    "top20": [
        {
            "id": 19158,
            "original_name": "Morsarvet",
            "popularity": 0.6
        },
        {
            "id": 50015,
            "original_name": "AlForsan",
            "popularity": 0.6
        },
        {
            "id": 53778,
            "original_name": "Korsan TV",
            "popularity": 0.6
        },
        {
            "id": 54020,
            "original_name": "Reha Muhtar'la Her Nerede Ya\u015f\u0131yorsan T\u00fcrkiye",
            "popularity": 0.6
        },
        {
            "id": 54682,
            "original_name": "Hasses brorsas l\u00e5tsassyrras kompis",
            "popularity": 0.6
        },
        {
            "id": 56714,
            "original_name": "Sing Motorsai Kab Yaituasab",
            "popularity": 0.6
        },
        {
            "id": 66900,
            "original_name": "Il Corsaro Nero",
            "popularity": 1.045
        },
        {
            "id": 70498,
            "original_name": "Corsaires et Flibustiers",
            "popularity": 1.389
        },
        {
            "id": 83232,
            "original_name": "Salak bilmiyorsan birak",
            "popularity": 0.6
        },
        {
            "id": 96080,
            "original_name": "Jolanda - La hija del Corsario Negro",
            "popularity": 0.6
        },
        {
            "id": 122363,
            "original_name": "Borsato's Budget Bruiloft",
            "popularity": 0.6
        }
    ]
}