{
    "data": [
        {
            "id": 700,
            "original_name": "Graham Norton's Bigger Picture",
            "popularity": 1.21
        },
        {
            "id": 1220,
            "original_name": "The Graham Norton Show",
            "popularity": 48.708
        },
        {
            "id": 1299,
            "original_name": "Tortoise Hanba's Stories",
            "popularity": 0.6
        },
        {
            "id": 3071,
            "original_name": "Horton View Sports Ground, Banbury",
            "popularity": 0.6
        },
        {
            "id": 6097,
            "original_name": "The Graham Norton Effect",
            "popularity": 0.6
        },
        {
            "id": 14300,
            "original_name": "So Graham Norton",
            "popularity": 5.422
        },
        {
            "id": 14589,
            "original_name": "V Graham Norton",
            "popularity": 11.527
        },
        {
            "id": 15728,
            "original_name": "Morton & Hayes",
            "popularity": 0.655
        },
        {
            "id": 16094,
            "original_name": "Horton Hears a Who!",
            "popularity": 0.62
        },
        {
            "id": 18267,
            "original_name": "Elliot Norton Reviews",
            "popularity": 0.6
        },
        {
            "id": 19007,
            "original_name": "Judge Horton and the Scottsboro Boys",
            "popularity": 0.6
        },
        {
            "id": 23431,
            "original_name": "Down and Dirty with Jim Norton",
            "popularity": 1.181
        },
        {
            "id": 27234,
            "original_name": "The Morton Downey Jr. Show",
            "popularity": 0.6
        },
        {
            "id": 30013,
            "original_name": "Sin With Bruce Morton",
            "popularity": 0.6
        },
        {
            "id": 33103,
            "original_name": "Portokalli",
            "popularity": 0.871
        },
        {
            "id": 41281,
            "original_name": "Desporto 2",
            "popularity": 0.6
        },
        {
            "id": 41829,
            "original_name": "Porto dos Milagres",
            "popularity": 4.301
        },
        {
            "id": 44456,
            "original_name": "Would You Rather...? with Graham Norton",
            "popularity": 0.6
        },
        {
            "id": 48254,
            "original_name": "Beauty, Bonny, Daisy, Violet, Grace And Geoffrey Morton",
            "popularity": 0.6
        },
        {
            "id": 58227,
            "original_name": "2010 Tim Horton's Brier",
            "popularity": 0.6
        },
        {
            "id": 60474,
            "original_name": "2006 Tim Horton's Brier",
            "popularity": 0.6
        },
        {
            "id": 72783,
            "original_name": "Sortons danser",
            "popularity": 0.6
        },
        {
            "id": 80005,
            "original_name": "Corto Maltese",
            "popularity": 1.157
        },
        {
            "id": 80594,
            "original_name": "Il caso Enzo Tortora - Dove eravamo rimasti",
            "popularity": 1.144
        },
        {
            "id": 81468,
            "original_name": "I fantasmi di Portopalo",
            "popularity": 0.6
        },
        {
            "id": 86552,
            "original_name": "Inside RAF Brize Norton",
            "popularity": 0.6
        },
        {
            "id": 91888,
            "original_name": "Les Norton",
            "popularity": 1.841
        },
        {
            "id": 100614,
            "original_name": "Mortadelo y Filem\u00f3n. Cortos animados",
            "popularity": 0.62
        },
        {
            "id": 103480,
            "original_name": "Sportovci \u2013 hrdinov\u00e9",
            "popularity": 0.6
        },
        {
            "id": 103972,
            "original_name": "Aeroporto: \u00c1rea Restrita",
            "popularity": 0.6
        },
        {
            "id": 106097,
            "original_name": "Tony Horton's Next Level",
            "popularity": 1.73
        },
        {
            "id": 130869,
            "original_name": "Morton's by the Bay",
            "popularity": 0.6
        }
    ],
    "relations": [
        {
            "character": "orton"
        },
        {
            "character": "ortoi"
        },
        {
            "character": "ortok"
        },
        {
            "character": "ortor"
        },
        {
            "character": "ortop"
        },
        {
            "character": "ortos"
        },
        {
            "character": "ortov"
        }
    ],
    "top20": [
        {
            "id": 1220,
            "original_name": "The Graham Norton Show",
            "popularity": 48.708
        },
        {
            "id": 14589,
            "original_name": "V Graham Norton",
            "popularity": 11.527
        },
        {
            "id": 14300,
            "original_name": "So Graham Norton",
            "popularity": 5.422
        },
        {
            "id": 41829,
            "original_name": "Porto dos Milagres",
            "popularity": 4.301
        },
        {
            "id": 91888,
            "original_name": "Les Norton",
            "popularity": 1.841
        },
        {
            "id": 106097,
            "original_name": "Tony Horton's Next Level",
            "popularity": 1.73
        },
        {
            "id": 700,
            "original_name": "Graham Norton's Bigger Picture",
            "popularity": 1.21
        },
        {
            "id": 23431,
            "original_name": "Down and Dirty with Jim Norton",
            "popularity": 1.181
        },
        {
            "id": 80005,
            "original_name": "Corto Maltese",
            "popularity": 1.157
        },
        {
            "id": 80594,
            "original_name": "Il caso Enzo Tortora - Dove eravamo rimasti",
            "popularity": 1.144
        },
        {
            "id": 33103,
            "original_name": "Portokalli",
            "popularity": 0.871
        },
        {
            "id": 15728,
            "original_name": "Morton & Hayes",
            "popularity": 0.655
        },
        {
            "id": 16094,
            "original_name": "Horton Hears a Who!",
            "popularity": 0.62
        },
        {
            "id": 100614,
            "original_name": "Mortadelo y Filem\u00f3n. Cortos animados",
            "popularity": 0.62
        },
        {
            "id": 1299,
            "original_name": "Tortoise Hanba's Stories",
            "popularity": 0.6
        },
        {
            "id": 19007,
            "original_name": "Judge Horton and the Scottsboro Boys",
            "popularity": 0.6
        },
        {
            "id": 27234,
            "original_name": "The Morton Downey Jr. Show",
            "popularity": 0.6
        },
        {
            "id": 18267,
            "original_name": "Elliot Norton Reviews",
            "popularity": 0.6
        },
        {
            "id": 3071,
            "original_name": "Horton View Sports Ground, Banbury",
            "popularity": 0.6
        },
        {
            "id": 6097,
            "original_name": "The Graham Norton Effect",
            "popularity": 0.6
        }
    ]
}