{
    "data": [
        {
            "id": 96,
            "original_name": "Rita Cosby: Live & Direct",
            "popularity": 0.677
        },
        {
            "id": 499,
            "original_name": "The Osbournes",
            "popularity": 3.485
        },
        {
            "id": 1759,
            "original_name": "The Cosby Show",
            "popularity": 30.437
        },
        {
            "id": 2446,
            "original_name": "Jack Osbourne: Adrenaline Junkie",
            "popularity": 2.517
        },
        {
            "id": 2478,
            "original_name": "The Sharon Osbourne Show",
            "popularity": 2.02
        },
        {
            "id": 3523,
            "original_name": "The Bill Cosby Show",
            "popularity": 4.967
        },
        {
            "id": 6445,
            "original_name": "Cosby",
            "popularity": 4.219
        },
        {
            "id": 10204,
            "original_name": "The New Bill Cosby Show",
            "popularity": 0.643
        },
        {
            "id": 13914,
            "original_name": "Fat Albert and the Cosby Kids",
            "popularity": 4.55
        },
        {
            "id": 14337,
            "original_name": "The Cosby Mysteries",
            "popularity": 2.513
        },
        {
            "id": 15200,
            "original_name": "House of Cosbys",
            "popularity": 0.6
        },
        {
            "id": 16364,
            "original_name": "The Bing Crosby Show",
            "popularity": 1.831
        },
        {
            "id": 18025,
            "original_name": "Osbournes Reloaded",
            "popularity": 1.343
        },
        {
            "id": 21858,
            "original_name": "The Bob Crosby Show",
            "popularity": 0.841
        },
        {
            "id": 22820,
            "original_name": "The Bob Crosby Show",
            "popularity": 0.6
        },
        {
            "id": 30655,
            "original_name": "The Bob Crosby Show",
            "popularity": 0.6
        },
        {
            "id": 43582,
            "original_name": "Bing Crosby's White Christmas USO All Star Show",
            "popularity": 0.6
        },
        {
            "id": 45667,
            "original_name": "Cosby",
            "popularity": 0.6
        },
        {
            "id": 54817,
            "original_name": "Bing Crosby and His Friends",
            "popularity": 0.6
        },
        {
            "id": 54915,
            "original_name": "Bing Crosby-Cooling It",
            "popularity": 0.6
        },
        {
            "id": 56712,
            "original_name": "Bing Crosby: His Life and Legend",
            "popularity": 0.6
        },
        {
            "id": 79477,
            "original_name": "Aussie Osbourne",
            "popularity": 0.84
        },
        {
            "id": 82973,
            "original_name": "Losberg",
            "popularity": 2.06
        },
        {
            "id": 106881,
            "original_name": "The Osbournes Want to Believe",
            "popularity": 8.111
        },
        {
            "id": 136001,
            "original_name": "The Charlotte Crosby Experience",
            "popularity": 0.6
        },
        {
            "id": 137323,
            "original_name": "Jack and Kelly Osbourne: Night of Terror",
            "popularity": 0.76
        }
    ],
    "relations": [
        {
            "character": "osby"
        },
        {
            "character": "osbo"
        },
        {
            "character": "osbe"
        }
    ],
    "top20": [
        {
            "id": 1759,
            "original_name": "The Cosby Show",
            "popularity": 30.437
        },
        {
            "id": 106881,
            "original_name": "The Osbournes Want to Believe",
            "popularity": 8.111
        },
        {
            "id": 3523,
            "original_name": "The Bill Cosby Show",
            "popularity": 4.967
        },
        {
            "id": 13914,
            "original_name": "Fat Albert and the Cosby Kids",
            "popularity": 4.55
        },
        {
            "id": 6445,
            "original_name": "Cosby",
            "popularity": 4.219
        },
        {
            "id": 499,
            "original_name": "The Osbournes",
            "popularity": 3.485
        },
        {
            "id": 2446,
            "original_name": "Jack Osbourne: Adrenaline Junkie",
            "popularity": 2.517
        },
        {
            "id": 14337,
            "original_name": "The Cosby Mysteries",
            "popularity": 2.513
        },
        {
            "id": 82973,
            "original_name": "Losberg",
            "popularity": 2.06
        },
        {
            "id": 2478,
            "original_name": "The Sharon Osbourne Show",
            "popularity": 2.02
        },
        {
            "id": 16364,
            "original_name": "The Bing Crosby Show",
            "popularity": 1.831
        },
        {
            "id": 18025,
            "original_name": "Osbournes Reloaded",
            "popularity": 1.343
        },
        {
            "id": 21858,
            "original_name": "The Bob Crosby Show",
            "popularity": 0.841
        },
        {
            "id": 79477,
            "original_name": "Aussie Osbourne",
            "popularity": 0.84
        },
        {
            "id": 137323,
            "original_name": "Jack and Kelly Osbourne: Night of Terror",
            "popularity": 0.76
        },
        {
            "id": 96,
            "original_name": "Rita Cosby: Live & Direct",
            "popularity": 0.677
        },
        {
            "id": 10204,
            "original_name": "The New Bill Cosby Show",
            "popularity": 0.643
        },
        {
            "id": 15200,
            "original_name": "House of Cosbys",
            "popularity": 0.6
        },
        {
            "id": 30655,
            "original_name": "The Bob Crosby Show",
            "popularity": 0.6
        },
        {
            "id": 22820,
            "original_name": "The Bob Crosby Show",
            "popularity": 0.6
        }
    ]
}