{
    "data": [
        {
            "id": 699,
            "original_name": "Exosquad",
            "popularity": 2.731
        },
        {
            "id": 3813,
            "original_name": "Little Mosque on the Prairie",
            "popularity": 6.93
        },
        {
            "id": 5341,
            "original_name": "D'Artac\u00e1n y los Tres Mosqueperros",
            "popularity": 10.249
        },
        {
            "id": 14260,
            "original_name": "DinoSquad",
            "popularity": 0.725
        },
        {
            "id": 14898,
            "original_name": "Mosquito Lake",
            "popularity": 0.6
        },
        {
            "id": 25861,
            "original_name": "DinoSquad",
            "popularity": 0.6
        },
        {
            "id": 77010,
            "original_name": "Los tres mosqueteros",
            "popularity": 1.1
        },
        {
            "id": 93716,
            "original_name": "The Mosquito Coast",
            "popularity": 24.542
        },
        {
            "id": 131825,
            "original_name": "El se\u00f1or de los Mosquis",
            "popularity": 0.6
        }
    ],
    "relations": [],
    "top20": [
        {
            "id": 699,
            "original_name": "Exosquad",
            "popularity": 2.731
        },
        {
            "id": 3813,
            "original_name": "Little Mosque on the Prairie",
            "popularity": 6.93
        },
        {
            "id": 5341,
            "original_name": "D'Artac\u00e1n y los Tres Mosqueperros",
            "popularity": 10.249
        },
        {
            "id": 14260,
            "original_name": "DinoSquad",
            "popularity": 0.725
        },
        {
            "id": 14898,
            "original_name": "Mosquito Lake",
            "popularity": 0.6
        },
        {
            "id": 25861,
            "original_name": "DinoSquad",
            "popularity": 0.6
        },
        {
            "id": 77010,
            "original_name": "Los tres mosqueteros",
            "popularity": 1.1
        },
        {
            "id": 93716,
            "original_name": "The Mosquito Coast",
            "popularity": 24.542
        },
        {
            "id": 131825,
            "original_name": "El se\u00f1or de los Mosquis",
            "popularity": 0.6
        }
    ]
}