{
    "data": [
        {
            "id": 20209,
            "original_name": "Uzmi ili ostavi",
            "popularity": 0.6
        },
        {
            "id": 106788,
            "original_name": "Postav dom, zasa\u010f strom",
            "popularity": 0.6
        }
    ],
    "relations": [],
    "top20": [
        {
            "id": 20209,
            "original_name": "Uzmi ili ostavi",
            "popularity": 0.6
        },
        {
            "id": 106788,
            "original_name": "Postav dom, zasa\u010f strom",
            "popularity": 0.6
        }
    ]
}