{
    "data": [
        {
            "id": 50195,
            "original_name": "Sotak Kanz",
            "popularity": 0.6
        },
        {
            "id": 81193,
            "original_name": "Cosas de Otakus Zero",
            "popularity": 0.6
        },
        {
            "id": 111862,
            "original_name": "\u3081\u3061\u3083\u3063\u3053\u30c9\u30bf\u30b3\u30f3 (Mechakko Dotakon)",
            "popularity": 0.6
        },
        {
            "id": 126123,
            "original_name": "Wotaku ni Koi wa Muzukashii: Youth",
            "popularity": 2.661
        },
        {
            "id": 134036,
            "original_name": "Otaku no Seiza",
            "popularity": 0.6
        }
    ],
    "relations": [],
    "top20": [
        {
            "id": 50195,
            "original_name": "Sotak Kanz",
            "popularity": 0.6
        },
        {
            "id": 81193,
            "original_name": "Cosas de Otakus Zero",
            "popularity": 0.6
        },
        {
            "id": 111862,
            "original_name": "\u3081\u3061\u3083\u3063\u3053\u30c9\u30bf\u30b3\u30f3 (Mechakko Dotakon)",
            "popularity": 0.6
        },
        {
            "id": 126123,
            "original_name": "Wotaku ni Koi wa Muzukashii: Youth",
            "popularity": 2.661
        },
        {
            "id": 134036,
            "original_name": "Otaku no Seiza",
            "popularity": 0.6
        }
    ]
}