{
    "data": [
        {
            "id": 42562,
            "original_name": "The Cotswold Garden Trail",
            "popularity": 0.6
        },
        {
            "id": 133681,
            "original_name": "Botswana",
            "popularity": 0.6
        },
        {
            "id": 133936,
            "original_name": "The Cotswolds With Pam Ayres",
            "popularity": 4.336
        }
    ],
    "relations": [],
    "top20": [
        {
            "id": 42562,
            "original_name": "The Cotswold Garden Trail",
            "popularity": 0.6
        },
        {
            "id": 133681,
            "original_name": "Botswana",
            "popularity": 0.6
        },
        {
            "id": 133936,
            "original_name": "The Cotswolds With Pam Ayres",
            "popularity": 4.336
        }
    ]
}