{
    "data": [
        {
            "id": 67975,
            "original_name": "Mariottide",
            "popularity": 0.6
        },
        {
            "id": 69026,
            "original_name": "Mariottide",
            "popularity": 0.677
        }
    ],
    "relations": [],
    "top20": [
        {
            "id": 67975,
            "original_name": "Mariottide",
            "popularity": 0.6
        },
        {
            "id": 69026,
            "original_name": "Mariottide",
            "popularity": 0.677
        }
    ]
}