{
    "data": [
        {
            "id": 80445,
            "original_name": "Coucou C'est Nous !",
            "popularity": 5.734
        },
        {
            "id": 125382,
            "original_name": "Louco por Elas",
            "popularity": 0.9
        }
    ],
    "relations": [],
    "top20": [
        {
            "id": 80445,
            "original_name": "Coucou C'est Nous !",
            "popularity": 5.734
        },
        {
            "id": 125382,
            "original_name": "Louco por Elas",
            "popularity": 0.9
        }
    ]
}