{
    "data": [
        {
            "id": 36914,
            "original_name": "Moudronos",
            "popularity": 1.1
        },
        {
            "id": 48871,
            "original_name": "Coup de foudre",
            "popularity": 0.6
        },
        {
            "id": 67597,
            "original_name": "Coup de foudre",
            "popularity": 2.564
        },
        {
            "id": 98656,
            "original_name": "Foudre",
            "popularity": 4.327
        },
        {
            "id": 99009,
            "original_name": "Je voudrais qu'on m'efface",
            "popularity": 0.705
        },
        {
            "id": 102746,
            "original_name": "Coup de foudre \u00e0",
            "popularity": 2.351
        }
    ],
    "relations": [],
    "top20": [
        {
            "id": 36914,
            "original_name": "Moudronos",
            "popularity": 1.1
        },
        {
            "id": 48871,
            "original_name": "Coup de foudre",
            "popularity": 0.6
        },
        {
            "id": 67597,
            "original_name": "Coup de foudre",
            "popularity": 2.564
        },
        {
            "id": 98656,
            "original_name": "Foudre",
            "popularity": 4.327
        },
        {
            "id": 99009,
            "original_name": "Je voudrais qu'on m'efface",
            "popularity": 0.705
        },
        {
            "id": 102746,
            "original_name": "Coup de foudre \u00e0",
            "popularity": 2.351
        }
    ]
}