{
    "data": [
        {
            "id": 121546,
            "original_name": "Youngtimer Duell",
            "popularity": 0.6
        }
    ],
    "relations": [],
    "top20": [
        {
            "id": 121546,
            "original_name": "Youngtimer Duell",
            "popularity": 0.6
        }
    ]
}