{
    "data": [
        {
            "id": 6510,
            "original_name": "Cousin Skeeter",
            "popularity": 3.961
        },
        {
            "id": 16584,
            "original_name": "Cousins",
            "popularity": 0.6
        },
        {
            "id": 23982,
            "original_name": "My Cousin Rachel",
            "popularity": 2.548
        },
        {
            "id": 24339,
            "original_name": "Billy Boone and Cousin Kib",
            "popularity": 0.6
        },
        {
            "id": 25434,
            "original_name": "Three Rousing Tinkles",
            "popularity": 0.6
        },
        {
            "id": 53783,
            "original_name": "TV Stars, Parousiaste!",
            "popularity": 0.6
        },
        {
            "id": 55410,
            "original_name": "Kitchen Cousins",
            "popularity": 0.6
        },
        {
            "id": 58734,
            "original_name": "Such Is Life: The Troubled Times of Ben Cousins",
            "popularity": 0.6
        },
        {
            "id": 60997,
            "original_name": "Cousins Undercover",
            "popularity": 0.6
        },
        {
            "id": 65446,
            "original_name": "Royal Cousins at War",
            "popularity": 1.422
        },
        {
            "id": 74264,
            "original_name": "Cousin Bette",
            "popularity": 1.012
        },
        {
            "id": 76004,
            "original_name": "Care Bears and Cousins",
            "popularity": 1.491
        },
        {
            "id": 84385,
            "original_name": "Cousins for Life",
            "popularity": 1.058
        },
        {
            "id": 93708,
            "original_name": "An eimoun plousios",
            "popularity": 0.6
        },
        {
            "id": 101031,
            "original_name": "Los Cousins Webisodios",
            "popularity": 0.6
        },
        {
            "id": 118432,
            "original_name": "Les Cousins de la Constance",
            "popularity": 0.6
        },
        {
            "id": 134088,
            "original_name": "Mousiko kouti",
            "popularity": 56.346
        }
    ],
    "relations": [],
    "top20": [
        {
            "id": 6510,
            "original_name": "Cousin Skeeter",
            "popularity": 3.961
        },
        {
            "id": 16584,
            "original_name": "Cousins",
            "popularity": 0.6
        },
        {
            "id": 23982,
            "original_name": "My Cousin Rachel",
            "popularity": 2.548
        },
        {
            "id": 24339,
            "original_name": "Billy Boone and Cousin Kib",
            "popularity": 0.6
        },
        {
            "id": 25434,
            "original_name": "Three Rousing Tinkles",
            "popularity": 0.6
        },
        {
            "id": 53783,
            "original_name": "TV Stars, Parousiaste!",
            "popularity": 0.6
        },
        {
            "id": 55410,
            "original_name": "Kitchen Cousins",
            "popularity": 0.6
        },
        {
            "id": 58734,
            "original_name": "Such Is Life: The Troubled Times of Ben Cousins",
            "popularity": 0.6
        },
        {
            "id": 60997,
            "original_name": "Cousins Undercover",
            "popularity": 0.6
        },
        {
            "id": 65446,
            "original_name": "Royal Cousins at War",
            "popularity": 1.422
        },
        {
            "id": 74264,
            "original_name": "Cousin Bette",
            "popularity": 1.012
        },
        {
            "id": 76004,
            "original_name": "Care Bears and Cousins",
            "popularity": 1.491
        },
        {
            "id": 84385,
            "original_name": "Cousins for Life",
            "popularity": 1.058
        },
        {
            "id": 93708,
            "original_name": "An eimoun plousios",
            "popularity": 0.6
        },
        {
            "id": 101031,
            "original_name": "Los Cousins Webisodios",
            "popularity": 0.6
        },
        {
            "id": 118432,
            "original_name": "Les Cousins de la Constance",
            "popularity": 0.6
        },
        {
            "id": 134088,
            "original_name": "Mousiko kouti",
            "popularity": 56.346
        }
    ]
}