{
    "data": [
        {
            "id": 104394,
            "original_name": "Jeeva Hoovagide",
            "popularity": 0.6
        }
    ],
    "relations": [],
    "top20": [
        {
            "id": 104394,
            "original_name": "Jeeva Hoovagide",
            "popularity": 0.6
        }
    ]
}