{
    "data": [
        {
            "id": 148,
            "original_name": "Movin' On",
            "popularity": 7.608
        },
        {
            "id": 998,
            "original_name": "Loving",
            "popularity": 1.2
        },
        {
            "id": 2565,
            "original_name": "In Loving Memory",
            "popularity": 2.174
        },
        {
            "id": 3379,
            "original_name": "Moving",
            "popularity": 1.389
        },
        {
            "id": 7226,
            "original_name": "Lovingly Yours, Helen",
            "popularity": 0.6
        },
        {
            "id": 9721,
            "original_name": "Covington Cross",
            "popularity": 1.988
        },
        {
            "id": 12115,
            "original_name": "Pat Croce: Moving In",
            "popularity": 0.6
        },
        {
            "id": 13351,
            "original_name": "The Roving Kind",
            "popularity": 0.6
        },
        {
            "id": 14445,
            "original_name": "Moving Wallpaper",
            "popularity": 1.732
        },
        {
            "id": 16099,
            "original_name": "Moving Pictures",
            "popularity": 0.6
        },
        {
            "id": 18632,
            "original_name": "Moving On",
            "popularity": 6.53
        },
        {
            "id": 20236,
            "original_name": "Hollyoaks: Movin' On",
            "popularity": 0.6
        },
        {
            "id": 21085,
            "original_name": "Movin' with Nancy",
            "popularity": 0.6
        },
        {
            "id": 21745,
            "original_name": "Removing the Rust From Radio",
            "popularity": 0.6
        },
        {
            "id": 22647,
            "original_name": "She's Moving In",
            "popularity": 0.6
        },
        {
            "id": 24976,
            "original_name": "A Kind of Loving",
            "popularity": 0.89
        },
        {
            "id": 26932,
            "original_name": "My Teen's a Nightmare - I'm Moving Out",
            "popularity": 0.6
        },
        {
            "id": 28419,
            "original_name": "Low Carb and Lovin' it",
            "popularity": 0.6
        },
        {
            "id": 30789,
            "original_name": "Notizen aus der Provinz",
            "popularity": 0.6
        },
        {
            "id": 32912,
            "original_name": "Moving Up",
            "popularity": 0.6
        },
        {
            "id": 35432,
            "original_name": "Loving Friends and Perfect Couples",
            "popularity": 0.6
        },
        {
            "id": 39447,
            "original_name": "Moving Pictures Live!",
            "popularity": 0.6
        },
        {
            "id": 39509,
            "original_name": "Proving Ground",
            "popularity": 0.6
        },
        {
            "id": 44045,
            "original_name": "All Watched Over by Machines of Loving Grace",
            "popularity": 3.356
        },
        {
            "id": 47152,
            "original_name": "China\u2019s Unnatural Disaster: The Tears of Sichuan Province",
            "popularity": 0.6
        },
        {
            "id": 47828,
            "original_name": "Loving Walter",
            "popularity": 0.6
        },
        {
            "id": 48480,
            "original_name": "Loving Sue",
            "popularity": 0.6
        },
        {
            "id": 53463,
            "original_name": "En by i provinsen",
            "popularity": 1.212
        },
        {
            "id": 56907,
            "original_name": "Knock Knock Loving You",
            "popularity": 0.6
        },
        {
            "id": 57143,
            "original_name": "Desperately Loving You",
            "popularity": 0.6
        },
        {
            "id": 57307,
            "original_name": "Secretly Loving You",
            "popularity": 0.6
        },
        {
            "id": 60500,
            "original_name": "Moving To His Music: The Two Muses of Guillaume C\u00f4t\u00e9",
            "popularity": 0.6
        },
        {
            "id": 62251,
            "original_name": "Tyler Perry's If Loving You Is Wrong",
            "popularity": 11.935
        },
        {
            "id": 65018,
            "original_name": "Lucas Bros Moving Co",
            "popularity": 0.6
        },
        {
            "id": 68481,
            "original_name": "Novine",
            "popularity": 2.535
        },
        {
            "id": 69074,
            "original_name": "My v\u0161ichni \u0161kolou povinn\u00ed",
            "popularity": 1.992
        },
        {
            "id": 72998,
            "original_name": "Mai dire Provini",
            "popularity": 0.6
        },
        {
            "id": 76461,
            "original_name": "Miss Marple: The Moving Finger",
            "popularity": 4.923
        },
        {
            "id": 86866,
            "original_name": "Moving Art",
            "popularity": 0.6
        },
        {
            "id": 87698,
            "original_name": "#MovingOut",
            "popularity": 0.6
        },
        {
            "id": 100739,
            "original_name": "The Stanley Baxter Moving Picture Show",
            "popularity": 0.6
        },
        {
            "id": 105423,
            "original_name": "Bargain Loving Brits In Blackpool",
            "popularity": 0.6
        },
        {
            "id": 110719,
            "original_name": "Loving You\u6211\u7231\u4f60",
            "popularity": 0.6
        },
        {
            "id": 112656,
            "original_name": "Loving Emily",
            "popularity": 1.008
        },
        {
            "id": 118195,
            "original_name": "Bargain-Loving Brits In The Sun",
            "popularity": 0.6
        },
        {
            "id": 118426,
            "original_name": "Unloving U",
            "popularity": 6.429
        },
        {
            "id": 126627,
            "original_name": "Loving Her",
            "popularity": 9.185
        },
        {
            "id": 128629,
            "original_name": "Movin' to the Country",
            "popularity": 0.6
        },
        {
            "id": 133308,
            "original_name": "Stories From The Heart: Loving Miss Bridgette",
            "popularity": 1.738
        },
        {
            "id": 135401,
            "original_name": "Ovinoy",
            "popularity": 0.6
        },
        {
            "id": 136593,
            "original_name": "Eat Before Loving",
            "popularity": 5.91
        },
        {
            "id": 136887,
            "original_name": "Moving Houses NZ",
            "popularity": 3.187
        },
        {
            "id": 137921,
            "original_name": "A Loving Spirit",
            "popularity": 0.6
        },
        {
            "id": 139579,
            "original_name": "Building Burma's Death Railway: Moving Half the Mountain",
            "popularity": 0.6
        }
    ],
    "relations": [
        {
            "character": "oving"
        },
        {
            "character": "ovinz"
        },
        {
            "character": "ovinc"
        },
        {
            "character": "ovins"
        },
        {
            "character": "ovine"
        },
        {
            "character": "ovinn"
        },
        {
            "character": "ovini"
        },
        {
            "character": "ovino"
        }
    ],
    "top20": [
        {
            "id": 62251,
            "original_name": "Tyler Perry's If Loving You Is Wrong",
            "popularity": 11.935
        },
        {
            "id": 126627,
            "original_name": "Loving Her",
            "popularity": 9.185
        },
        {
            "id": 148,
            "original_name": "Movin' On",
            "popularity": 7.608
        },
        {
            "id": 18632,
            "original_name": "Moving On",
            "popularity": 6.53
        },
        {
            "id": 118426,
            "original_name": "Unloving U",
            "popularity": 6.429
        },
        {
            "id": 136593,
            "original_name": "Eat Before Loving",
            "popularity": 5.91
        },
        {
            "id": 76461,
            "original_name": "Miss Marple: The Moving Finger",
            "popularity": 4.923
        },
        {
            "id": 44045,
            "original_name": "All Watched Over by Machines of Loving Grace",
            "popularity": 3.356
        },
        {
            "id": 136887,
            "original_name": "Moving Houses NZ",
            "popularity": 3.187
        },
        {
            "id": 68481,
            "original_name": "Novine",
            "popularity": 2.535
        },
        {
            "id": 2565,
            "original_name": "In Loving Memory",
            "popularity": 2.174
        },
        {
            "id": 69074,
            "original_name": "My v\u0161ichni \u0161kolou povinn\u00ed",
            "popularity": 1.992
        },
        {
            "id": 9721,
            "original_name": "Covington Cross",
            "popularity": 1.988
        },
        {
            "id": 133308,
            "original_name": "Stories From The Heart: Loving Miss Bridgette",
            "popularity": 1.738
        },
        {
            "id": 14445,
            "original_name": "Moving Wallpaper",
            "popularity": 1.732
        },
        {
            "id": 3379,
            "original_name": "Moving",
            "popularity": 1.389
        },
        {
            "id": 53463,
            "original_name": "En by i provinsen",
            "popularity": 1.212
        },
        {
            "id": 998,
            "original_name": "Loving",
            "popularity": 1.2
        },
        {
            "id": 112656,
            "original_name": "Loving Emily",
            "popularity": 1.008
        },
        {
            "id": 24976,
            "original_name": "A Kind of Loving",
            "popularity": 0.89
        }
    ]
}