{
    "data": [
        {
            "id": 4416,
            "original_name": "Wowowee",
            "popularity": 0.6
        },
        {
            "id": 15814,
            "original_name": "The Last Halloween",
            "popularity": 0.84
        },
        {
            "id": 17178,
            "original_name": "Halloween Havoc",
            "popularity": 0.6
        },
        {
            "id": 25950,
            "original_name": "Halloween",
            "popularity": 0.6
        },
        {
            "id": 55323,
            "original_name": "Halloween Wars",
            "popularity": 2.491
        },
        {
            "id": 55429,
            "original_name": "Halloween Crazier",
            "popularity": 0.6
        },
        {
            "id": 74676,
            "original_name": "Halloween Baking Championship",
            "popularity": 3.768
        },
        {
            "id": 94034,
            "original_name": "Halloween Cake-Off",
            "popularity": 0.6
        },
        {
            "id": 112226,
            "original_name": "Bite Size Halloween",
            "popularity": 1.074
        },
        {
            "id": 113305,
            "original_name": "Pocoyo & Halloween",
            "popularity": 1.834
        },
        {
            "id": 128014,
            "original_name": "Halloween of Car City",
            "popularity": 0.6
        },
        {
            "id": 129446,
            "original_name": "Scholastic Storybook Treasures - 20 Halloween Stories",
            "popularity": 0.6
        },
        {
            "id": 134315,
            "original_name": "The House: A Hulu Halloween Anthology",
            "popularity": 0.64
        }
    ],
    "relations": [],
    "top20": [
        {
            "id": 4416,
            "original_name": "Wowowee",
            "popularity": 0.6
        },
        {
            "id": 15814,
            "original_name": "The Last Halloween",
            "popularity": 0.84
        },
        {
            "id": 17178,
            "original_name": "Halloween Havoc",
            "popularity": 0.6
        },
        {
            "id": 25950,
            "original_name": "Halloween",
            "popularity": 0.6
        },
        {
            "id": 55323,
            "original_name": "Halloween Wars",
            "popularity": 2.491
        },
        {
            "id": 55429,
            "original_name": "Halloween Crazier",
            "popularity": 0.6
        },
        {
            "id": 74676,
            "original_name": "Halloween Baking Championship",
            "popularity": 3.768
        },
        {
            "id": 94034,
            "original_name": "Halloween Cake-Off",
            "popularity": 0.6
        },
        {
            "id": 112226,
            "original_name": "Bite Size Halloween",
            "popularity": 1.074
        },
        {
            "id": 113305,
            "original_name": "Pocoyo & Halloween",
            "popularity": 1.834
        },
        {
            "id": 128014,
            "original_name": "Halloween of Car City",
            "popularity": 0.6
        },
        {
            "id": 129446,
            "original_name": "Scholastic Storybook Treasures - 20 Halloween Stories",
            "popularity": 0.6
        },
        {
            "id": 134315,
            "original_name": "The House: A Hulu Halloween Anthology",
            "popularity": 0.64
        }
    ]
}