{
    "data": [
        {
            "id": 10168,
            "original_name": "Owen Marshall: Counselor at Law",
            "popularity": 2.768
        },
        {
            "id": 19088,
            "original_name": "Wilfred Owen: A Remembrance Tale",
            "popularity": 0.6
        },
        {
            "id": 24170,
            "original_name": "Buck Owens' Ranch Show",
            "popularity": 0.6
        },
        {
            "id": 26501,
            "original_name": "To The Manor Bowen",
            "popularity": 0.6
        },
        {
            "id": 45298,
            "original_name": "Emily Owens, M.D",
            "popularity": 5.135
        },
        {
            "id": 48438,
            "original_name": "The Jesse Owens Story",
            "popularity": 0.6
        },
        {
            "id": 57132,
            "original_name": "The Amazing Strategist Liu Bowen",
            "popularity": 0.84
        },
        {
            "id": 57279,
            "original_name": "Live on Bowen",
            "popularity": 0.6
        },
        {
            "id": 60934,
            "original_name": "Die Powenzbande",
            "popularity": 0.6
        },
        {
            "id": 68217,
            "original_name": "The Gary Owen Show",
            "popularity": 0.894
        },
        {
            "id": 111944,
            "original_name": "The Candace Owens Show",
            "popularity": 0.6
        }
    ],
    "relations": [],
    "top20": [
        {
            "id": 10168,
            "original_name": "Owen Marshall: Counselor at Law",
            "popularity": 2.768
        },
        {
            "id": 19088,
            "original_name": "Wilfred Owen: A Remembrance Tale",
            "popularity": 0.6
        },
        {
            "id": 24170,
            "original_name": "Buck Owens' Ranch Show",
            "popularity": 0.6
        },
        {
            "id": 26501,
            "original_name": "To The Manor Bowen",
            "popularity": 0.6
        },
        {
            "id": 45298,
            "original_name": "Emily Owens, M.D",
            "popularity": 5.135
        },
        {
            "id": 48438,
            "original_name": "The Jesse Owens Story",
            "popularity": 0.6
        },
        {
            "id": 57132,
            "original_name": "The Amazing Strategist Liu Bowen",
            "popularity": 0.84
        },
        {
            "id": 57279,
            "original_name": "Live on Bowen",
            "popularity": 0.6
        },
        {
            "id": 60934,
            "original_name": "Die Powenzbande",
            "popularity": 0.6
        },
        {
            "id": 68217,
            "original_name": "The Gary Owen Show",
            "popularity": 0.894
        },
        {
            "id": 111944,
            "original_name": "The Candace Owens Show",
            "popularity": 0.6
        }
    ]
}