{
    "data": [
        {
            "id": 13134,
            "original_name": "TV Powww",
            "popularity": 0.6
        },
        {
            "id": 31377,
            "original_name": "Bitoy's SHOwwwTIME",
            "popularity": 0.6
        },
        {
            "id": 42884,
            "original_name": "Snooki & JWOWW",
            "popularity": 3.242
        },
        {
            "id": 50714,
            "original_name": "Kowwat Alkoloob",
            "popularity": 0.6
        },
        {
            "id": 103788,
            "original_name": "Snooki & Jwoww: Moms with Attitude",
            "popularity": 0.6
        }
    ],
    "relations": [],
    "top20": [
        {
            "id": 13134,
            "original_name": "TV Powww",
            "popularity": 0.6
        },
        {
            "id": 31377,
            "original_name": "Bitoy's SHOwwwTIME",
            "popularity": 0.6
        },
        {
            "id": 42884,
            "original_name": "Snooki & JWOWW",
            "popularity": 3.242
        },
        {
            "id": 50714,
            "original_name": "Kowwat Alkoloob",
            "popularity": 0.6
        },
        {
            "id": 103788,
            "original_name": "Snooki & Jwoww: Moms with Attitude",
            "popularity": 0.6
        }
    ]
}