{
    "data": [
        {
            "id": 36757,
            "original_name": "BoyFred",
            "popularity": 0.6
        },
        {
            "id": 55050,
            "original_name": "Boyfriend's W Military Academy",
            "popularity": 0.6
        },
        {
            "id": 55442,
            "original_name": "Peter Andre's Bad Boyfriend Club",
            "popularity": 0.6
        },
        {
            "id": 65761,
            "original_name": "Reasons I Don't Have a Boyfriend",
            "popularity": 0.658
        },
        {
            "id": 89663,
            "original_name": "You're My Boooyfriend",
            "popularity": 3.397
        },
        {
            "id": 94342,
            "original_name": "My Vampire Boyfriend",
            "popularity": 0.6
        },
        {
            "id": 112672,
            "original_name": "My Beluga Boyfriend",
            "popularity": 0.6
        },
        {
            "id": 128000,
            "original_name": "Boyfriend No.13",
            "popularity": 0.84
        },
        {
            "id": 134112,
            "original_name": "My Vampire Boyfriend",
            "popularity": 0.6
        },
        {
            "id": 137434,
            "original_name": "Breastfeeding My Boyfriend",
            "popularity": 0.6
        }
    ],
    "relations": [],
    "top20": [
        {
            "id": 36757,
            "original_name": "BoyFred",
            "popularity": 0.6
        },
        {
            "id": 55050,
            "original_name": "Boyfriend's W Military Academy",
            "popularity": 0.6
        },
        {
            "id": 55442,
            "original_name": "Peter Andre's Bad Boyfriend Club",
            "popularity": 0.6
        },
        {
            "id": 65761,
            "original_name": "Reasons I Don't Have a Boyfriend",
            "popularity": 0.658
        },
        {
            "id": 89663,
            "original_name": "You're My Boooyfriend",
            "popularity": 3.397
        },
        {
            "id": 94342,
            "original_name": "My Vampire Boyfriend",
            "popularity": 0.6
        },
        {
            "id": 112672,
            "original_name": "My Beluga Boyfriend",
            "popularity": 0.6
        },
        {
            "id": 128000,
            "original_name": "Boyfriend No.13",
            "popularity": 0.84
        },
        {
            "id": 134112,
            "original_name": "My Vampire Boyfriend",
            "popularity": 0.6
        },
        {
            "id": 137434,
            "original_name": "Breastfeeding My Boyfriend",
            "popularity": 0.6
        }
    ]
}