{
    "data": [
        {
            "id": 734,
            "original_name": "Magnum, P.I.",
            "popularity": 41.713
        },
        {
            "id": 1114,
            "original_name": "H.E.L.P.",
            "popularity": 1.581
        },
        {
            "id": 1609,
            "original_name": "C.P.O. Sharkey",
            "popularity": 2.342
        },
        {
            "id": 3221,
            "original_name": "Dick Spanner, P.I.",
            "popularity": 1.461
        },
        {
            "id": 4265,
            "original_name": "C.O.P.S.",
            "popularity": 4.971
        },
        {
            "id": 4397,
            "original_name": "V.I.P.",
            "popularity": 29.062
        },
        {
            "id": 4667,
            "original_name": "Andy Barker, P.I.",
            "popularity": 2.059
        },
        {
            "id": 6098,
            "original_name": "J. P. Patches",
            "popularity": 0.6
        },
        {
            "id": 7045,
            "original_name": "E.S.P.",
            "popularity": 0.6
        },
        {
            "id": 10006,
            "original_name": "Bakersfield P.D.",
            "popularity": 6.306
        },
        {
            "id": 10729,
            "original_name": "Parco P.I.",
            "popularity": 2.363
        },
        {
            "id": 10837,
            "original_name": "V.I.P.",
            "popularity": 0.6
        },
        {
            "id": 11315,
            "original_name": "Bailey Kipper's P.O.V.",
            "popularity": 1.135
        },
        {
            "id": 11589,
            "original_name": "P.S. I Luv U",
            "popularity": 3.724
        },
        {
            "id": 11713,
            "original_name": "R.C.M.P.",
            "popularity": 0.6
        },
        {
            "id": 12898,
            "original_name": "H.I.P. H.O.P.",
            "popularity": 0.6
        },
        {
            "id": 13787,
            "original_name": "N.Y.P.D.",
            "popularity": 2.258
        },
        {
            "id": 14934,
            "original_name": "P.R.",
            "popularity": 0.6
        },
        {
            "id": 14952,
            "original_name": "The Kids From C.A.P.E.R.",
            "popularity": 0.6
        },
        {
            "id": 15009,
            "original_name": "Quentin Durgens, M.P.",
            "popularity": 0.6
        },
        {
            "id": 15158,
            "original_name": "Halifax f.p.",
            "popularity": 7.416
        },
        {
            "id": 20468,
            "original_name": "P.O.W.",
            "popularity": 1.482
        },
        {
            "id": 23071,
            "original_name": "Homewood P.I.",
            "popularity": 0.6
        },
        {
            "id": 24116,
            "original_name": "G.P.",
            "popularity": 4.922
        },
        {
            "id": 25462,
            "original_name": "P.S. [Police Station] -Rashoumon- Keishichou Toutosho",
            "popularity": 0.846
        },
        {
            "id": 27286,
            "original_name": "A.M.P.E.D.",
            "popularity": 0.6
        },
        {
            "id": 27320,
            "original_name": "V.I.P. Schaukel",
            "popularity": 8.778
        },
        {
            "id": 27715,
            "original_name": "Rockpoint P.D.",
            "popularity": 1.359
        },
        {
            "id": 29234,
            "original_name": "P.I.",
            "popularity": 0.6
        },
        {
            "id": 29554,
            "original_name": "P. Diddy Presents the Bad Boys of Comedy",
            "popularity": 0.6
        },
        {
            "id": 29777,
            "original_name": "S.Q.P.",
            "popularity": 0.6
        },
        {
            "id": 30288,
            "original_name": "Tommy Sledge, P.I.",
            "popularity": 0.6
        },
        {
            "id": 30811,
            "original_name": "P. Diddy's Starmaker",
            "popularity": 0.903
        },
        {
            "id": 31072,
            "original_name": "La familia P. Luche",
            "popularity": 90.459
        },
        {
            "id": 32611,
            "original_name": "Eugenie Sandler P.I.",
            "popularity": 0.6
        },
        {
            "id": 32623,
            "original_name": "P.O.5",
            "popularity": 0.6
        },
        {
            "id": 35081,
            "original_name": "Mom P.I.",
            "popularity": 2.264
        },
        {
            "id": 37405,
            "original_name": "P.S.\u5143\u6c17\u3067\u3059\u3001\u4fca\u5e73",
            "popularity": 0.848
        },
        {
            "id": 37763,
            "original_name": "Jade's P.A",
            "popularity": 0.842
        },
        {
            "id": 41662,
            "original_name": "P. Allen Smith Gardens",
            "popularity": 0.6
        },
        {
            "id": 41910,
            "original_name": "Mrs P.I.",
            "popularity": 0.656
        },
        {
            "id": 41980,
            "original_name": "P. S. I Love You",
            "popularity": 0.876
        },
        {
            "id": 43329,
            "original_name": "P.I.S. - Politiets indsatsstyrke",
            "popularity": 0.6
        },
        {
            "id": 46990,
            "original_name": "S.N.A.P.",
            "popularity": 0.6
        },
        {
            "id": 47058,
            "original_name": "P.T. Barnum",
            "popularity": 0.6
        },
        {
            "id": 47265,
            "original_name": "\u5077\u5fc3\u5927\u8056 P.S.\u7537",
            "popularity": 0.77
        },
        {
            "id": 49467,
            "original_name": "P. Allen Smith\u2019s Garden Home",
            "popularity": 1.132
        },
        {
            "id": 50080,
            "original_name": "Thank You, P.G. Wodehouse",
            "popularity": 0.6
        },
        {
            "id": 54668,
            "original_name": "Stand-up.dk",
            "popularity": 1.829
        },
        {
            "id": 57364,
            "original_name": "L.A.P.D.: Lekanopedio Attikis Police Department",
            "popularity": 0.963
        },
        {
            "id": 57841,
            "original_name": "Best. Trip. Ever.",
            "popularity": 0.6
        },
        {
            "id": 57966,
            "original_name": "The P.E.T. Squad Files",
            "popularity": 1.831
        },
        {
            "id": 58841,
            "original_name": "Chicago P.D.",
            "popularity": 350.671
        },
        {
            "id": 67388,
            "original_name": "S.P.Q.R.",
            "popularity": 1.4
        },
        {
            "id": 69213,
            "original_name": "Last Flashman Esp.",
            "popularity": 0.6
        },
        {
            "id": 70791,
            "original_name": "The New V.I.P.'s",
            "popularity": 0.659
        },
        {
            "id": 71171,
            "original_name": "D.P.A. - Detetives do Pr\u00e9dio Azul",
            "popularity": 1.704
        },
        {
            "id": 71737,
            "original_name": "A.P. Bio",
            "popularity": 24.797
        },
        {
            "id": 72085,
            "original_name": "P.J.",
            "popularity": 1.634
        },
        {
            "id": 75397,
            "original_name": "On va s'aimer un peu, beaucoup...",
            "popularity": 1.642
        },
        {
            "id": 79593,
            "original_name": "Magnum P.I.",
            "popularity": 63.548
        },
        {
            "id": 80057,
            "original_name": "P.O.L.I.C.I.A",
            "popularity": 0.792
        },
        {
            "id": 81341,
            "original_name": "S.P.E.L.show",
            "popularity": 0.6
        },
        {
            "id": 84311,
            "original_name": "Przypadki Cezarego P.",
            "popularity": 1.4
        },
        {
            "id": 84408,
            "original_name": "P. King Duckling",
            "popularity": 0.653
        },
        {
            "id": 86244,
            "original_name": "P.O.R.N.O.",
            "popularity": 2.777
        },
        {
            "id": 88890,
            "original_name": "Design V.I.P.",
            "popularity": 2.289
        },
        {
            "id": 89004,
            "original_name": "Party V.I.P.",
            "popularity": 0.71
        },
        {
            "id": 89378,
            "original_name": "Private Investigator (P.I.)",
            "popularity": 0.6
        },
        {
            "id": 100545,
            "original_name": "A.P. Agents de protections",
            "popularity": 0.6
        },
        {
            "id": 110534,
            "original_name": "D.P.",
            "popularity": 12.829
        },
        {
            "id": 111671,
            "original_name": "Temptation Island V.I.P.",
            "popularity": 4.427
        },
        {
            "id": 111977,
            "original_name": "Pop. Una historia de m\u00fasica y televisi\u00f3n",
            "popularity": 0.6
        },
        {
            "id": 115930,
            "original_name": "T.P.\u3055\u304f\u3089 \u6642\u7a7a\u6a39\u9632\u885b\u6226",
            "popularity": 0.6
        },
        {
            "id": 117645,
            "original_name": "P.M. Wissen",
            "popularity": 1.588
        },
        {
            "id": 118616,
            "original_name": "Status P.T. med Huxi Bach",
            "popularity": 0.6
        },
        {
            "id": 121102,
            "original_name": "V.I.P.",
            "popularity": 0.6
        },
        {
            "id": 121787,
            "original_name": "takt op.Destiny",
            "popularity": 228.337
        },
        {
            "id": 128496,
            "original_name": "Citizen P.I.",
            "popularity": 4.053
        },
        {
            "id": 129068,
            "original_name": "V.I.P. vra\u017edy",
            "popularity": 0.6
        },
        {
            "id": 131134,
            "original_name": "P.O.W. Bandi Yuddh Ke",
            "popularity": 0.636
        },
        {
            "id": 136712,
            "original_name": "R.I.P.",
            "popularity": 1.4
        },
        {
            "id": 137560,
            "original_name": "D.P.A. - O Enigma dos Ovos de P\u00e1scoa",
            "popularity": 0.6
        }
    ],
    "relations": [
        {
            "character": "p.i"
        },
        {
            "character": "p.o"
        },
        {
            "character": "p.s"
        },
        {
            "character": "p.d"
        },
        {
            "character": "p.r"
        },
        {
            "character": "p.e"
        },
        {
            "character": "p.a"
        },
        {
            "character": "p.t"
        },
        {
            "character": "p.g"
        },
        {
            "character": "p.q"
        },
        {
            "character": "p.j"
        },
        {
            "character": "p.."
        },
        {
            "character": "p.m"
        }
    ],
    "top20": [
        {
            "id": 58841,
            "original_name": "Chicago P.D.",
            "popularity": 350.671
        },
        {
            "id": 121787,
            "original_name": "takt op.Destiny",
            "popularity": 228.337
        },
        {
            "id": 31072,
            "original_name": "La familia P. Luche",
            "popularity": 90.459
        },
        {
            "id": 79593,
            "original_name": "Magnum P.I.",
            "popularity": 63.548
        },
        {
            "id": 734,
            "original_name": "Magnum, P.I.",
            "popularity": 41.713
        },
        {
            "id": 4397,
            "original_name": "V.I.P.",
            "popularity": 29.062
        },
        {
            "id": 71737,
            "original_name": "A.P. Bio",
            "popularity": 24.797
        },
        {
            "id": 110534,
            "original_name": "D.P.",
            "popularity": 12.829
        },
        {
            "id": 27320,
            "original_name": "V.I.P. Schaukel",
            "popularity": 8.778
        },
        {
            "id": 15158,
            "original_name": "Halifax f.p.",
            "popularity": 7.416
        },
        {
            "id": 10006,
            "original_name": "Bakersfield P.D.",
            "popularity": 6.306
        },
        {
            "id": 4265,
            "original_name": "C.O.P.S.",
            "popularity": 4.971
        },
        {
            "id": 24116,
            "original_name": "G.P.",
            "popularity": 4.922
        },
        {
            "id": 111671,
            "original_name": "Temptation Island V.I.P.",
            "popularity": 4.427
        },
        {
            "id": 128496,
            "original_name": "Citizen P.I.",
            "popularity": 4.053
        },
        {
            "id": 11589,
            "original_name": "P.S. I Luv U",
            "popularity": 3.724
        },
        {
            "id": 86244,
            "original_name": "P.O.R.N.O.",
            "popularity": 2.777
        },
        {
            "id": 10729,
            "original_name": "Parco P.I.",
            "popularity": 2.363
        },
        {
            "id": 1609,
            "original_name": "C.P.O. Sharkey",
            "popularity": 2.342
        },
        {
            "id": 88890,
            "original_name": "Design V.I.P.",
            "popularity": 2.289
        }
    ]
}