{
    "data": [
        {
            "id": 55942,
            "original_name": "Pla Lhai Paai Daeng",
            "popularity": 0.6
        },
        {
            "id": 69655,
            "original_name": "Rak Sut Tai Tee Bpaai Fah",
            "popularity": 0.6
        }
    ],
    "relations": [],
    "top20": [
        {
            "id": 55942,
            "original_name": "Pla Lhai Paai Daeng",
            "popularity": 0.6
        },
        {
            "id": 69655,
            "original_name": "Rak Sut Tai Tee Bpaai Fah",
            "popularity": 0.6
        }
    ]
}