{
    "data": [
        {
            "id": 57003,
            "original_name": "I Was Impaled",
            "popularity": 0.6
        }
    ],
    "relations": [],
    "top20": [
        {
            "id": 57003,
            "original_name": "I Was Impaled",
            "popularity": 0.6
        }
    ]
}