{
    "data": [
        {
            "id": 9727,
            "original_name": "The Haunting of Cassie Palmer",
            "popularity": 0.6
        },
        {
            "id": 12181,
            "original_name": "Palmetto Pointe",
            "popularity": 0.6
        },
        {
            "id": 23108,
            "original_name": "Palmerstown, U.S.A.",
            "popularity": 2.728
        },
        {
            "id": 40634,
            "original_name": "Klinik unter Palmen",
            "popularity": 1.964
        },
        {
            "id": 41136,
            "original_name": "Papageien, Palmen & Co.",
            "popularity": 0.6
        },
        {
            "id": 95763,
            "original_name": "Palme d'Or",
            "popularity": 0.6
        },
        {
            "id": 106926,
            "original_name": "Amore unter Palmen - Fremdenverkehr und mehr",
            "popularity": 0.6
        },
        {
            "id": 116518,
            "original_name": "Promis unter Palmen",
            "popularity": 0.95
        },
        {
            "id": 123240,
            "original_name": "Promis unter Palmen \u2013 Die Late Night Show",
            "popularity": 0.6
        },
        {
            "id": 125657,
            "original_name": "Pleite unter Palmen",
            "popularity": 0.6
        },
        {
            "id": 127467,
            "original_name": "Lilli Palmer Theatre",
            "popularity": 1.553
        },
        {
            "id": 130091,
            "original_name": "Palme, tr\u00e4sket och mordr\u00e4tteg\u00e5ngarna",
            "popularity": 0.6
        },
        {
            "id": 131918,
            "original_name": "Einsam unter Palmen",
            "popularity": 0.6
        }
    ],
    "relations": [],
    "top20": [
        {
            "id": 9727,
            "original_name": "The Haunting of Cassie Palmer",
            "popularity": 0.6
        },
        {
            "id": 12181,
            "original_name": "Palmetto Pointe",
            "popularity": 0.6
        },
        {
            "id": 23108,
            "original_name": "Palmerstown, U.S.A.",
            "popularity": 2.728
        },
        {
            "id": 40634,
            "original_name": "Klinik unter Palmen",
            "popularity": 1.964
        },
        {
            "id": 41136,
            "original_name": "Papageien, Palmen & Co.",
            "popularity": 0.6
        },
        {
            "id": 95763,
            "original_name": "Palme d'Or",
            "popularity": 0.6
        },
        {
            "id": 106926,
            "original_name": "Amore unter Palmen - Fremdenverkehr und mehr",
            "popularity": 0.6
        },
        {
            "id": 116518,
            "original_name": "Promis unter Palmen",
            "popularity": 0.95
        },
        {
            "id": 123240,
            "original_name": "Promis unter Palmen \u2013 Die Late Night Show",
            "popularity": 0.6
        },
        {
            "id": 125657,
            "original_name": "Pleite unter Palmen",
            "popularity": 0.6
        },
        {
            "id": 127467,
            "original_name": "Lilli Palmer Theatre",
            "popularity": 1.553
        },
        {
            "id": 130091,
            "original_name": "Palme, tr\u00e4sket och mordr\u00e4tteg\u00e5ngarna",
            "popularity": 0.6
        },
        {
            "id": 131918,
            "original_name": "Einsam unter Palmen",
            "popularity": 0.6
        }
    ]
}