{
    "data": [
        {
            "id": 92201,
            "original_name": "Spanar Jaya X",
            "popularity": 1.228
        }
    ],
    "relations": [],
    "top20": [
        {
            "id": 92201,
            "original_name": "Spanar Jaya X",
            "popularity": 1.228
        }
    ]
}