{
    "data": [
        {
            "id": 50647,
            "original_name": "Son Kumpanya",
            "popularity": 0.6
        },
        {
            "id": 50905,
            "original_name": "Panyachon Kon Krua",
            "popularity": 0.6
        },
        {
            "id": 50906,
            "original_name": "Panyachon Kon Krua",
            "popularity": 0.6
        },
        {
            "id": 50908,
            "original_name": "Panyachon Kon Krua",
            "popularity": 0.6
        }
    ],
    "relations": [],
    "top20": [
        {
            "id": 50647,
            "original_name": "Son Kumpanya",
            "popularity": 0.6
        },
        {
            "id": 50905,
            "original_name": "Panyachon Kon Krua",
            "popularity": 0.6
        },
        {
            "id": 50906,
            "original_name": "Panyachon Kon Krua",
            "popularity": 0.6
        },
        {
            "id": 50908,
            "original_name": "Panyachon Kon Krua",
            "popularity": 0.6
        }
    ]
}