{
    "data": [
        {
            "id": 71446,
            "original_name": "La Casa de Papel",
            "popularity": 2974.646
        },
        {
            "id": 77432,
            "original_name": "Puerto Papel",
            "popularity": 0.643
        },
        {
            "id": 83093,
            "original_name": "Elefante de Papel",
            "popularity": 0.6
        },
        {
            "id": 84581,
            "original_name": "O Papel da Vida",
            "popularity": 0.646
        },
        {
            "id": 105159,
            "original_name": "Ni\u00f1o de Papel",
            "popularity": 2.006
        },
        {
            "id": 118605,
            "original_name": "Kamisetang Papel",
            "popularity": 0.6
        },
        {
            "id": 132719,
            "original_name": "La Casa de Papel: de Tokio a Berl\u00edn",
            "popularity": 1030.265
        }
    ],
    "relations": [],
    "top20": [
        {
            "id": 71446,
            "original_name": "La Casa de Papel",
            "popularity": 2974.646
        },
        {
            "id": 77432,
            "original_name": "Puerto Papel",
            "popularity": 0.643
        },
        {
            "id": 83093,
            "original_name": "Elefante de Papel",
            "popularity": 0.6
        },
        {
            "id": 84581,
            "original_name": "O Papel da Vida",
            "popularity": 0.646
        },
        {
            "id": 105159,
            "original_name": "Ni\u00f1o de Papel",
            "popularity": 2.006
        },
        {
            "id": 118605,
            "original_name": "Kamisetang Papel",
            "popularity": 0.6
        },
        {
            "id": 132719,
            "original_name": "La Casa de Papel: de Tokio a Berl\u00edn",
            "popularity": 1030.265
        }
    ]
}