{
    "data": [
        {
            "id": 8258,
            "original_name": "Apparitions",
            "popularity": 4.901
        },
        {
            "id": 72081,
            "original_name": "Disparition",
            "popularity": 1.4
        },
        {
            "id": 97934,
            "original_name": "Disparitions, retour aux sources",
            "popularity": 0.6
        },
        {
            "id": 108404,
            "original_name": "Esp\u00e8ces en voie de r\u00e9apparition",
            "popularity": 0.6
        },
        {
            "id": 116565,
            "original_name": "Disparition inqui\u00e9tante",
            "popularity": 1.477
        }
    ],
    "relations": [],
    "top20": [
        {
            "id": 8258,
            "original_name": "Apparitions",
            "popularity": 4.901
        },
        {
            "id": 72081,
            "original_name": "Disparition",
            "popularity": 1.4
        },
        {
            "id": 97934,
            "original_name": "Disparitions, retour aux sources",
            "popularity": 0.6
        },
        {
            "id": 108404,
            "original_name": "Esp\u00e8ces en voie de r\u00e9apparition",
            "popularity": 0.6
        },
        {
            "id": 116565,
            "original_name": "Disparition inqui\u00e9tante",
            "popularity": 1.477
        }
    ]
}