{
    "data": [
        {
            "id": 2700,
            "original_name": "Sparks",
            "popularity": 3.021
        },
        {
            "id": 8592,
            "original_name": "Parks and Recreation",
            "popularity": 57.478
        },
        {
            "id": 17426,
            "original_name": "Bright Sparks",
            "popularity": 0.6
        },
        {
            "id": 26569,
            "original_name": "Discover Australia's National Parks",
            "popularity": 0.6
        },
        {
            "id": 31708,
            "original_name": "The National Parks: America's Best Idea",
            "popularity": 5.393
        },
        {
            "id": 49459,
            "original_name": "Caroline Quentin\u2019s National Parks",
            "popularity": 0.6
        },
        {
            "id": 50294,
            "original_name": "Xtreme Waterparks",
            "popularity": 0.629
        },
        {
            "id": 55670,
            "original_name": "Iolo's Great Welsh Parks",
            "popularity": 0.6
        },
        {
            "id": 60490,
            "original_name": "The National Parks Project",
            "popularity": 0.6
        },
        {
            "id": 68317,
            "original_name": "Texas Parks and Wildlife",
            "popularity": 0.862
        },
        {
            "id": 69618,
            "original_name": "Australiens Nationalparks",
            "popularity": 0.6
        },
        {
            "id": 73724,
            "original_name": "All-American Amusement Parks",
            "popularity": 0.6
        },
        {
            "id": 76601,
            "original_name": "Little Sparks",
            "popularity": 1.4
        },
        {
            "id": 76602,
            "original_name": "Little Sparks",
            "popularity": 0.6
        },
        {
            "id": 76603,
            "original_name": "Little Sparks",
            "popularity": 0.6
        },
        {
            "id": 77766,
            "original_name": "Underwater Wonders Of The National Parks",
            "popularity": 0.6
        },
        {
            "id": 78713,
            "original_name": "America's National Parks",
            "popularity": 1.434
        },
        {
            "id": 89701,
            "original_name": "North America's National Parks",
            "popularity": 0.6
        },
        {
            "id": 91682,
            "original_name": "Kanadas Nationalparks",
            "popularity": 1.437
        },
        {
            "id": 99331,
            "original_name": "Nationalparks der Zukunft",
            "popularity": 0.6
        },
        {
            "id": 99806,
            "original_name": "Slowakische Nationalparks",
            "popularity": 0.6
        },
        {
            "id": 103728,
            "original_name": "Ocean Parks",
            "popularity": 0.6
        },
        {
            "id": 104876,
            "original_name": "Secrets of the National Parks",
            "popularity": 0.6
        },
        {
            "id": 105703,
            "original_name": "Great Parks of Africa",
            "popularity": 0.6
        },
        {
            "id": 112360,
            "original_name": "Sadie Sparks",
            "popularity": 1.4
        },
        {
            "id": 113628,
            "original_name": "Great Canadian Parks",
            "popularity": 0.6
        },
        {
            "id": 114820,
            "original_name": "Disney Parks Sunrise Series",
            "popularity": 0.6
        },
        {
            "id": 115565,
            "original_name": "Sparks of Invention",
            "popularity": 0.6
        },
        {
            "id": 117255,
            "original_name": "National Parks of the Midwest and Eastern U.S.",
            "popularity": 0.6
        },
        {
            "id": 125861,
            "original_name": "DBS Sparks",
            "popularity": 0.6
        },
        {
            "id": 130029,
            "original_name": "Wonders of Australia's National Parks",
            "popularity": 0.6
        },
        {
            "id": 133142,
            "original_name": "Heart of the World: Colorado's National Parks",
            "popularity": 0.6
        },
        {
            "id": 138094,
            "original_name": "Sparkshorts",
            "popularity": 0.682
        }
    ],
    "relations": [
        {
            "character": "parksh"
        }
    ],
    "top20": [
        {
            "id": 8592,
            "original_name": "Parks and Recreation",
            "popularity": 57.478
        },
        {
            "id": 31708,
            "original_name": "The National Parks: America's Best Idea",
            "popularity": 5.393
        },
        {
            "id": 2700,
            "original_name": "Sparks",
            "popularity": 3.021
        },
        {
            "id": 91682,
            "original_name": "Kanadas Nationalparks",
            "popularity": 1.437
        },
        {
            "id": 78713,
            "original_name": "America's National Parks",
            "popularity": 1.434
        },
        {
            "id": 112360,
            "original_name": "Sadie Sparks",
            "popularity": 1.4
        },
        {
            "id": 76601,
            "original_name": "Little Sparks",
            "popularity": 1.4
        },
        {
            "id": 68317,
            "original_name": "Texas Parks and Wildlife",
            "popularity": 0.862
        },
        {
            "id": 138094,
            "original_name": "Sparkshorts",
            "popularity": 0.682
        },
        {
            "id": 50294,
            "original_name": "Xtreme Waterparks",
            "popularity": 0.629
        },
        {
            "id": 77766,
            "original_name": "Underwater Wonders Of The National Parks",
            "popularity": 0.6
        },
        {
            "id": 60490,
            "original_name": "The National Parks Project",
            "popularity": 0.6
        },
        {
            "id": 17426,
            "original_name": "Bright Sparks",
            "popularity": 0.6
        },
        {
            "id": 49459,
            "original_name": "Caroline Quentin\u2019s National Parks",
            "popularity": 0.6
        },
        {
            "id": 76603,
            "original_name": "Little Sparks",
            "popularity": 0.6
        },
        {
            "id": 26569,
            "original_name": "Discover Australia's National Parks",
            "popularity": 0.6
        },
        {
            "id": 69618,
            "original_name": "Australiens Nationalparks",
            "popularity": 0.6
        },
        {
            "id": 73724,
            "original_name": "All-American Amusement Parks",
            "popularity": 0.6
        },
        {
            "id": 76602,
            "original_name": "Little Sparks",
            "popularity": 0.6
        },
        {
            "id": 55670,
            "original_name": "Iolo's Great Welsh Parks",
            "popularity": 0.6
        }
    ]
}