{
    "data": [
        {
            "id": 87567,
            "original_name": "Partir autrement",
            "popularity": 1.152
        },
        {
            "id": 101855,
            "original_name": "Partir autrement en famille",
            "popularity": 1.869
        },
        {
            "id": 124223,
            "original_name": "Pr\u00eat \u00e0 partir",
            "popularity": 0.6
        }
    ],
    "relations": [],
    "top20": [
        {
            "id": 87567,
            "original_name": "Partir autrement",
            "popularity": 1.152
        },
        {
            "id": 101855,
            "original_name": "Partir autrement en famille",
            "popularity": 1.869
        },
        {
            "id": 124223,
            "original_name": "Pr\u00eat \u00e0 partir",
            "popularity": 0.6
        }
    ]
}