{
    "data": [
        {
            "id": 103597,
            "original_name": "Passeur d'enfants",
            "popularity": 0.6
        }
    ],
    "relations": [],
    "top20": [
        {
            "id": 103597,
            "original_name": "Passeur d'enfants",
            "popularity": 0.6
        }
    ]
}