{
    "data": [
        {
            "id": 44914,
            "original_name": "La Patrona",
            "popularity": 163.256
        },
        {
            "id": 49379,
            "original_name": "Gizli Patron",
            "popularity": 0.6
        },
        {
            "id": 72576,
            "original_name": "Patron incognito",
            "popularity": 0.6
        },
        {
            "id": 79982,
            "original_name": "Des patrons et des hommes",
            "popularity": 0.6
        },
        {
            "id": 88663,
            "original_name": "Les patronnes",
            "popularity": 0.853
        },
        {
            "id": 96993,
            "original_name": "Le grand patron",
            "popularity": 0.969
        },
        {
            "id": 130133,
            "original_name": "Henry VIII: Patron or Plunderer?",
            "popularity": 2.558
        }
    ],
    "relations": [],
    "top20": [
        {
            "id": 44914,
            "original_name": "La Patrona",
            "popularity": 163.256
        },
        {
            "id": 49379,
            "original_name": "Gizli Patron",
            "popularity": 0.6
        },
        {
            "id": 72576,
            "original_name": "Patron incognito",
            "popularity": 0.6
        },
        {
            "id": 79982,
            "original_name": "Des patrons et des hommes",
            "popularity": 0.6
        },
        {
            "id": 88663,
            "original_name": "Les patronnes",
            "popularity": 0.853
        },
        {
            "id": 96993,
            "original_name": "Le grand patron",
            "popularity": 0.969
        },
        {
            "id": 130133,
            "original_name": "Henry VIII: Patron or Plunderer?",
            "popularity": 2.558
        }
    ]
}