{
    "data": [
        {
            "id": 21985,
            "original_name": "Ippatsu Kiki Musume",
            "popularity": 2.665
        },
        {
            "id": 44769,
            "original_name": "Ippatsu Kanta-kun",
            "popularity": 0.6
        },
        {
            "id": 68214,
            "original_name": "Padoem Patsss",
            "popularity": 0.6
        },
        {
            "id": 95556,
            "original_name": "Expats",
            "popularity": 0.6
        }
    ],
    "relations": [],
    "top20": [
        {
            "id": 21985,
            "original_name": "Ippatsu Kiki Musume",
            "popularity": 2.665
        },
        {
            "id": 44769,
            "original_name": "Ippatsu Kanta-kun",
            "popularity": 0.6
        },
        {
            "id": 68214,
            "original_name": "Padoem Patsss",
            "popularity": 0.6
        },
        {
            "id": 95556,
            "original_name": "Expats",
            "popularity": 0.6
        }
    ]
}