{
    "data": [
        {
            "id": 139494,
            "original_name": "The Peculiar Pawnbroker",
            "popularity": 16.358
        }
    ],
    "relations": [],
    "top20": [
        {
            "id": 139494,
            "original_name": "The Peculiar Pawnbroker",
            "popularity": 16.358
        }
    ]
}