{
    "data": [
        {
            "id": 60574,
            "original_name": "Peaky Blinders",
            "popularity": 590.915
        }
    ],
    "relations": [],
    "top20": [
        {
            "id": 60574,
            "original_name": "Peaky Blinders",
            "popularity": 590.915
        }
    ]
}