{
    "data": [
        {
            "id": 10716,
            "original_name": "Respectable",
            "popularity": 1.112
        },
        {
            "id": 47597,
            "original_name": "A Respectable Trade",
            "popularity": 1.115
        }
    ],
    "relations": [],
    "top20": [
        {
            "id": 10716,
            "original_name": "Respectable",
            "popularity": 1.112
        },
        {
            "id": 47597,
            "original_name": "A Respectable Trade",
            "popularity": 1.115
        }
    ]
}