{
    "data": [
        {
            "id": 18012,
            "original_name": "Encyclopedia",
            "popularity": 0.6
        },
        {
            "id": 28534,
            "original_name": "Encyclopedia Brown",
            "popularity": 0.6
        },
        {
            "id": 54598,
            "original_name": "Video Encyclopedia of World War Two",
            "popularity": 0.6
        },
        {
            "id": 105016,
            "original_name": "ZooMooPedia",
            "popularity": 0.6
        },
        {
            "id": 113665,
            "original_name": "Encyclopedia of the 20th Century, Days that shook the world",
            "popularity": 0.6
        },
        {
            "id": 116702,
            "original_name": "The Complete Encyclopedia Of World War",
            "popularity": 0.6
        }
    ],
    "relations": [],
    "top20": [
        {
            "id": 18012,
            "original_name": "Encyclopedia",
            "popularity": 0.6
        },
        {
            "id": 28534,
            "original_name": "Encyclopedia Brown",
            "popularity": 0.6
        },
        {
            "id": 54598,
            "original_name": "Video Encyclopedia of World War Two",
            "popularity": 0.6
        },
        {
            "id": 105016,
            "original_name": "ZooMooPedia",
            "popularity": 0.6
        },
        {
            "id": 113665,
            "original_name": "Encyclopedia of the 20th Century, Days that shook the world",
            "popularity": 0.6
        },
        {
            "id": 116702,
            "original_name": "The Complete Encyclopedia Of World War",
            "popularity": 0.6
        }
    ]
}