{
    "data": [
        {
            "id": 4224,
            "original_name": "Da Adventures of Pedro Penduko",
            "popularity": 0.626
        },
        {
            "id": 100856,
            "original_name": "Camilo, O Pendura",
            "popularity": 0.6
        }
    ],
    "relations": [],
    "top20": [
        {
            "id": 4224,
            "original_name": "Da Adventures of Pedro Penduko",
            "popularity": 0.626
        },
        {
            "id": 100856,
            "original_name": "Camilo, O Pendura",
            "popularity": 0.6
        }
    ]
}