{
    "data": [
        {
            "id": 61005,
            "original_name": "Penunggu Gunung Raya",
            "popularity": 1.216
        },
        {
            "id": 69788,
            "original_name": "Biar Aku Jadi Penunggu",
            "popularity": 1.14
        },
        {
            "id": 137219,
            "original_name": "El penultimo beso",
            "popularity": 0.6
        }
    ],
    "relations": [],
    "top20": [
        {
            "id": 61005,
            "original_name": "Penunggu Gunung Raya",
            "popularity": 1.216
        },
        {
            "id": 69788,
            "original_name": "Biar Aku Jadi Penunggu",
            "popularity": 1.14
        },
        {
            "id": 137219,
            "original_name": "El penultimo beso",
            "popularity": 0.6
        }
    ]
}