{
    "data": [
        {
            "id": 80787,
            "original_name": "Non perdiamoci di vista",
            "popularity": 0.6
        }
    ],
    "relations": [],
    "top20": [
        {
            "id": 80787,
            "original_name": "Non perdiamoci di vista",
            "popularity": 0.6
        }
    ]
}