{
    "data": [
        {
            "id": 48424,
            "original_name": "The Well-Tempered Bach with Peter Ustinov",
            "popularity": 0.6
        }
    ],
    "relations": [],
    "top20": [
        {
            "id": 48424,
            "original_name": "The Well-Tempered Bach with Peter Ustinov",
            "popularity": 0.6
        }
    ]
}