{
    "data": [
        {
            "id": 17819,
            "original_name": "Mogli a pezzi",
            "popularity": 0.6
        },
        {
            "id": 75101,
            "original_name": "Gli anni spezzati",
            "popularity": 3.461
        },
        {
            "id": 96065,
            "original_name": "Pezzi unici",
            "popularity": 1.604
        },
        {
            "id": 112364,
            "original_name": "Una pezza di Lundini",
            "popularity": 12.251
        }
    ],
    "relations": [],
    "top20": [
        {
            "id": 17819,
            "original_name": "Mogli a pezzi",
            "popularity": 0.6
        },
        {
            "id": 75101,
            "original_name": "Gli anni spezzati",
            "popularity": 3.461
        },
        {
            "id": 96065,
            "original_name": "Pezzi unici",
            "popularity": 1.604
        },
        {
            "id": 112364,
            "original_name": "Una pezza di Lundini",
            "popularity": 12.251
        }
    ]
}