{
    "data": [
        {
            "id": 60441,
            "original_name": "Sophomores",
            "popularity": 0.6
        },
        {
            "id": 100364,
            "original_name": "L'alphomega",
            "popularity": 2.681
        }
    ],
    "relations": [],
    "top20": [
        {
            "id": 60441,
            "original_name": "Sophomores",
            "popularity": 0.6
        },
        {
            "id": 100364,
            "original_name": "L'alphomega",
            "popularity": 2.681
        }
    ]
}