{
    "data": [
        {
            "id": 13857,
            "original_name": "Photon",
            "popularity": 0.6
        },
        {
            "id": 16755,
            "original_name": "Y'a pas photo",
            "popularity": 0.6
        },
        {
            "id": 23407,
            "original_name": "The Genius of Photography",
            "popularity": 0.6
        },
        {
            "id": 32680,
            "original_name": "Photographic Horizons",
            "popularity": 0.6
        },
        {
            "id": 43238,
            "original_name": "Photo Finish",
            "popularity": 0.6
        },
        {
            "id": 44289,
            "original_name": "National Geographic's Most Incredible Photos",
            "popularity": 0.6
        },
        {
            "id": 48849,
            "original_name": "The World's Most Photographed",
            "popularity": 0.6
        },
        {
            "id": 66947,
            "original_name": "Master of Photography",
            "popularity": 3.305
        },
        {
            "id": 72612,
            "original_name": "Rare: Creatures of the Photo Ark",
            "popularity": 0.6
        },
        {
            "id": 72641,
            "original_name": "Mencintaimu Mr Photographer",
            "popularity": 2.129
        },
        {
            "id": 77129,
            "original_name": "Photo",
            "popularity": 0.6
        },
        {
            "id": 77905,
            "original_name": "Curious Minds:  Photojournalism",
            "popularity": 0.6
        },
        {
            "id": 78825,
            "original_name": "My Shot Photo Tips With Hilary",
            "popularity": 0.6
        },
        {
            "id": 83606,
            "original_name": "National Geographic Masters of Photography",
            "popularity": 0.6
        },
        {
            "id": 84639,
            "original_name": "Photos That Changed The World",
            "popularity": 1.515
        },
        {
            "id": 86030,
            "original_name": "Advanced Lighting for Adventure Photography",
            "popularity": 0.6
        },
        {
            "id": 88380,
            "original_name": "100 Photographs: The Most Influential Photographs Of All Time",
            "popularity": 0.6
        },
        {
            "id": 88924,
            "original_name": "Fashion Photo RuView",
            "popularity": 0.945
        },
        {
            "id": 100814,
            "original_name": "\u00c0 droite sur la photo",
            "popularity": 0.6
        },
        {
            "id": 105547,
            "original_name": "Top Photo",
            "popularity": 0.6
        },
        {
            "id": 121445,
            "original_name": "Photo Ark",
            "popularity": 0.6
        },
        {
            "id": 125407,
            "original_name": "Phototrip",
            "popularity": 0.6
        },
        {
            "id": 126740,
            "original_name": "Great British Photography Challenge",
            "popularity": 1.316
        },
        {
            "id": 130632,
            "original_name": "Britain in Focus: A Photographic History",
            "popularity": 0.6
        }
    ],
    "relations": [
        {
            "character": "photon"
        },
        {
            "character": "photog"
        },
        {
            "character": "photos"
        },
        {
            "character": "photoj"
        },
        {
            "character": "photot"
        }
    ],
    "top20": [
        {
            "id": 66947,
            "original_name": "Master of Photography",
            "popularity": 3.305
        },
        {
            "id": 72641,
            "original_name": "Mencintaimu Mr Photographer",
            "popularity": 2.129
        },
        {
            "id": 84639,
            "original_name": "Photos That Changed The World",
            "popularity": 1.515
        },
        {
            "id": 126740,
            "original_name": "Great British Photography Challenge",
            "popularity": 1.316
        },
        {
            "id": 88924,
            "original_name": "Fashion Photo RuView",
            "popularity": 0.945
        },
        {
            "id": 100814,
            "original_name": "\u00c0 droite sur la photo",
            "popularity": 0.6
        },
        {
            "id": 16755,
            "original_name": "Y'a pas photo",
            "popularity": 0.6
        },
        {
            "id": 72612,
            "original_name": "Rare: Creatures of the Photo Ark",
            "popularity": 0.6
        },
        {
            "id": 32680,
            "original_name": "Photographic Horizons",
            "popularity": 0.6
        },
        {
            "id": 13857,
            "original_name": "Photon",
            "popularity": 0.6
        },
        {
            "id": 77905,
            "original_name": "Curious Minds:  Photojournalism",
            "popularity": 0.6
        },
        {
            "id": 23407,
            "original_name": "The Genius of Photography",
            "popularity": 0.6
        },
        {
            "id": 78825,
            "original_name": "My Shot Photo Tips With Hilary",
            "popularity": 0.6
        },
        {
            "id": 44289,
            "original_name": "National Geographic's Most Incredible Photos",
            "popularity": 0.6
        },
        {
            "id": 83606,
            "original_name": "National Geographic Masters of Photography",
            "popularity": 0.6
        },
        {
            "id": 43238,
            "original_name": "Photo Finish",
            "popularity": 0.6
        },
        {
            "id": 48849,
            "original_name": "The World's Most Photographed",
            "popularity": 0.6
        },
        {
            "id": 86030,
            "original_name": "Advanced Lighting for Adventure Photography",
            "popularity": 0.6
        },
        {
            "id": 88380,
            "original_name": "100 Photographs: The Most Influential Photographs Of All Time",
            "popularity": 0.6
        },
        {
            "id": 77129,
            "original_name": "Photo",
            "popularity": 0.6
        }
    ]
}