{
    "data": [
        {
            "id": 91046,
            "original_name": "PicPic et Andr\u00e9",
            "popularity": 0.6
        },
        {
            "id": 133224,
            "original_name": "Show do Milh\u00e3o PicPay",
            "popularity": 1.925
        }
    ],
    "relations": [],
    "top20": [
        {
            "id": 91046,
            "original_name": "PicPic et Andr\u00e9",
            "popularity": 0.6
        },
        {
            "id": 133224,
            "original_name": "Show do Milh\u00e3o PicPay",
            "popularity": 1.925
        }
    ]
}