{
    "data": [
        {
            "id": 30685,
            "original_name": "Hall's Pictorial Weekly",
            "popularity": 0.6
        },
        {
            "id": 55644,
            "original_name": "Irish Pictorial Weekly",
            "popularity": 0.6
        }
    ],
    "relations": [],
    "top20": [
        {
            "id": 30685,
            "original_name": "Hall's Pictorial Weekly",
            "popularity": 0.6
        },
        {
            "id": 55644,
            "original_name": "Irish Pictorial Weekly",
            "popularity": 0.6
        }
    ]
}