{
    "data": [
        {
            "id": 888,
            "original_name": "Spider-Man",
            "popularity": 88.893
        },
        {
            "id": 1156,
            "original_name": "Spider!",
            "popularity": 0.6
        },
        {
            "id": 1269,
            "original_name": "Spider-Man and His Amazing Friends",
            "popularity": 40.512
        },
        {
            "id": 1482,
            "original_name": "Spider-Man",
            "popularity": 26.811
        },
        {
            "id": 1664,
            "original_name": "Spider-Man: The New Animated Series",
            "popularity": 47.401
        },
        {
            "id": 1916,
            "original_name": "2 Stupid Dogs",
            "popularity": 16.831
        },
        {
            "id": 2971,
            "original_name": "Club Cupid",
            "popularity": 0.6
        },
        {
            "id": 3096,
            "original_name": "I'm with Stupid",
            "popularity": 1.492
        },
        {
            "id": 3590,
            "original_name": "Intrepid Journeys",
            "popularity": 0.6
        },
        {
            "id": 3854,
            "original_name": "The Spectacular Spider-Man",
            "popularity": 105.105
        },
        {
            "id": 3973,
            "original_name": "Spider-Man",
            "popularity": 30.697
        },
        {
            "id": 4447,
            "original_name": "Qpids",
            "popularity": 1.4
        },
        {
            "id": 4552,
            "original_name": "The Amazing Spider-Man",
            "popularity": 14.823
        },
        {
            "id": 4631,
            "original_name": "Cupid",
            "popularity": 6.267
        },
        {
            "id": 4784,
            "original_name": "Spider-Woman",
            "popularity": 14.904
        },
        {
            "id": 5097,
            "original_name": "Stupid, Stupid Man",
            "popularity": 1.386
        },
        {
            "id": 5571,
            "original_name": "Itsy Bitsy Spider",
            "popularity": 2.079
        },
        {
            "id": 8509,
            "original_name": "Cupid",
            "popularity": 3.496
        },
        {
            "id": 8750,
            "original_name": "Cupidon Mouse",
            "popularity": 0.6
        },
        {
            "id": 9339,
            "original_name": "Spider and Fly",
            "popularity": 0.6
        },
        {
            "id": 9382,
            "original_name": "Something Stupid",
            "popularity": 0.6
        },
        {
            "id": 10079,
            "original_name": "Spider-Man Unlimited",
            "popularity": 51.241
        },
        {
            "id": 11641,
            "original_name": "2004: The Stupid Version",
            "popularity": 0.6
        },
        {
            "id": 12156,
            "original_name": "Les Intr\u00e9pides",
            "popularity": 2.429
        },
        {
            "id": 13287,
            "original_name": "Miss Spider's Sunny Patch Friends",
            "popularity": 2.886
        },
        {
            "id": 13697,
            "original_name": "Rapido",
            "popularity": 0.6
        },
        {
            "id": 15178,
            "original_name": "Spidey Super Stories",
            "popularity": 0.6
        },
        {
            "id": 15713,
            "original_name": "Stupid!",
            "popularity": 0.6
        },
        {
            "id": 16028,
            "original_name": "Italian Spiderman",
            "popularity": 10.896
        },
        {
            "id": 16490,
            "original_name": "World of Stupid",
            "popularity": 0.6
        },
        {
            "id": 16499,
            "original_name": "Miss Spider's Sunny Patch Kids",
            "popularity": 0.6
        },
        {
            "id": 16828,
            "original_name": "Miss Spider\u2019s Sunny Patch Kids",
            "popularity": 0.6
        },
        {
            "id": 18992,
            "original_name": "The Hepatitis C Epidemic: A 15-Year Government Cover-up",
            "popularity": 0.6
        },
        {
            "id": 22947,
            "original_name": "Don't Call Me Stupid",
            "popularity": 0.6
        },
        {
            "id": 25686,
            "original_name": "A Man Called Intrepid",
            "popularity": 0.6
        },
        {
            "id": 26112,
            "original_name": "Spider's Silly Show",
            "popularity": 0.6
        },
        {
            "id": 28812,
            "original_name": "Cupid",
            "popularity": 0.6
        },
        {
            "id": 30020,
            "original_name": "Stupid Behavior Caught on Tape",
            "popularity": 0.6
        },
        {
            "id": 33874,
            "original_name": "The Seven Stupidest Things to Escape From",
            "popularity": 0.6
        },
        {
            "id": 34391,
            "original_name": "Marvel's Ultimate Spider-Man",
            "popularity": 121.022
        },
        {
            "id": 35065,
            "original_name": "Rapid Roulette",
            "popularity": 0.6
        },
        {
            "id": 36274,
            "original_name": "I'm With Stupid (US)",
            "popularity": 0.6
        },
        {
            "id": 36722,
            "original_name": "Brit Cops: Rapid Response",
            "popularity": 0.6
        },
        {
            "id": 39819,
            "original_name": "I Not Stupid Too",
            "popularity": 0.6
        },
        {
            "id": 43302,
            "original_name": "Miss Spider: Hum Bug",
            "popularity": 0.6
        },
        {
            "id": 43875,
            "original_name": "Pidol's Wonderland",
            "popularity": 0.6
        },
        {
            "id": 46954,
            "original_name": "Pompidou",
            "popularity": 1.252
        },
        {
            "id": 47725,
            "original_name": "The Snow Spider",
            "popularity": 0.6
        },
        {
            "id": 53840,
            "original_name": "Yair Lapid Live on 10",
            "popularity": 0.6
        },
        {
            "id": 53841,
            "original_name": "Yair Lapid",
            "popularity": 0.6
        },
        {
            "id": 61383,
            "original_name": "Pop R\u00e0pid",
            "popularity": 0.6
        },
        {
            "id": 64905,
            "original_name": "Science of Stupid",
            "popularity": 5.854
        },
        {
            "id": 64919,
            "original_name": "Rapid Response",
            "popularity": 0.6
        },
        {
            "id": 65264,
            "original_name": "Los ricos no piden permiso",
            "popularity": 4.837
        },
        {
            "id": 66576,
            "original_name": "Stupid Man, Smart Phone",
            "popularity": 0.682
        },
        {
            "id": 70774,
            "original_name": "Rapides et dangereuses",
            "popularity": 0.6
        },
        {
            "id": 72705,
            "original_name": "Marvel's Spider-Man",
            "popularity": 109.788
        },
        {
            "id": 73883,
            "original_name": "Rapides et millionnaires",
            "popularity": 0.6
        },
        {
            "id": 77269,
            "original_name": "Marvel Knights: Spider-Woman, Agent of S.W.O.R.D.",
            "popularity": 16.07
        },
        {
            "id": 79831,
            "original_name": "Cupido",
            "popularity": 1.113
        },
        {
            "id": 80516,
            "original_name": "Aventuras de Elpidio Vald\u00e9s",
            "popularity": 0.6
        },
        {
            "id": 80517,
            "original_name": "Aventuras de Elpidio Vald\u00e9s",
            "popularity": 0.6
        },
        {
            "id": 80518,
            "original_name": "Aventuras de Elpidio Vald\u00e9s",
            "popularity": 0.6
        },
        {
            "id": 82275,
            "original_name": "The Cupids Series: Loob Korn Kammathep",
            "popularity": 0.6
        },
        {
            "id": 83683,
            "original_name": "Too Stupid to Die",
            "popularity": 0.683
        },
        {
            "id": 83889,
            "original_name": "Est\u00fapido cupido",
            "popularity": 7.194
        },
        {
            "id": 83891,
            "original_name": "Est\u00fapido Cupido",
            "popularity": 0.6
        },
        {
            "id": 92393,
            "original_name": "yo no te pido la luna",
            "popularity": 0.6
        },
        {
            "id": 93588,
            "original_name": "Lucas the Spider",
            "popularity": 2.687
        },
        {
            "id": 95515,
            "original_name": "\u00c9pid\u00e9mie",
            "popularity": 9.603
        },
        {
            "id": 97724,
            "original_name": "Spides",
            "popularity": 13.782
        },
        {
            "id": 102706,
            "original_name": "The Snow Spider",
            "popularity": 0.6
        },
        {
            "id": 104014,
            "original_name": "\u0623\u062d\u0644\u0627\u0645 \u0627\u0644\u0639\u0646\u0643\u0628\u0648\u062a Spider Dreams",
            "popularity": 0.6
        },
        {
            "id": 106293,
            "original_name": "Yours Cupidly",
            "popularity": 0.6
        },
        {
            "id": 106904,
            "original_name": "Bila Cupid Jatuh Cinta",
            "popularity": 0.6
        },
        {
            "id": 114262,
            "original_name": "Os \u00daltimos Dias da PIDE",
            "popularity": 0.6
        },
        {
            "id": 114930,
            "original_name": "Sofa King Stupid",
            "popularity": 0.6
        },
        {
            "id": 115088,
            "original_name": "Cupido Ofzo",
            "popularity": 3.278
        },
        {
            "id": 115640,
            "original_name": "Science of Stupid India",
            "popularity": 0.6
        },
        {
            "id": 118515,
            "original_name": "Stupid Hype",
            "popularity": 2.558
        },
        {
            "id": 120856,
            "original_name": "Epidemien",
            "popularity": 0.6
        },
        {
            "id": 123319,
            "original_name": "Show About Something Stupid",
            "popularity": 1.4
        },
        {
            "id": 123393,
            "original_name": "Cupid's Conundrum",
            "popularity": 0.6
        },
        {
            "id": 127635,
            "original_name": "Marvel's Spidey and His Amazing Friends",
            "popularity": 50.961
        },
        {
            "id": 132226,
            "original_name": "Cupido",
            "popularity": 1.131
        },
        {
            "id": 136838,
            "original_name": "Rixe Intrepides",
            "popularity": 0.6
        },
        {
            "id": 138492,
            "original_name": "The Spiderwick Chronicles",
            "popularity": 1.09
        },
        {
            "id": 138503,
            "original_name": "Spider-Man: Freshman Year",
            "popularity": 23.984
        }
    ],
    "relations": [
        {
            "character": "pide"
        },
        {
            "character": "pids"
        },
        {
            "character": "pido"
        },
        {
            "character": "pid!"
        },
        {
            "character": "pidi"
        },
        {
            "character": "pidl"
        }
    ],
    "top20": [
        {
            "id": 34391,
            "original_name": "Marvel's Ultimate Spider-Man",
            "popularity": 121.022
        },
        {
            "id": 72705,
            "original_name": "Marvel's Spider-Man",
            "popularity": 109.788
        },
        {
            "id": 3854,
            "original_name": "The Spectacular Spider-Man",
            "popularity": 105.105
        },
        {
            "id": 888,
            "original_name": "Spider-Man",
            "popularity": 88.893
        },
        {
            "id": 10079,
            "original_name": "Spider-Man Unlimited",
            "popularity": 51.241
        },
        {
            "id": 127635,
            "original_name": "Marvel's Spidey and His Amazing Friends",
            "popularity": 50.961
        },
        {
            "id": 1664,
            "original_name": "Spider-Man: The New Animated Series",
            "popularity": 47.401
        },
        {
            "id": 1269,
            "original_name": "Spider-Man and His Amazing Friends",
            "popularity": 40.512
        },
        {
            "id": 3973,
            "original_name": "Spider-Man",
            "popularity": 30.697
        },
        {
            "id": 1482,
            "original_name": "Spider-Man",
            "popularity": 26.811
        },
        {
            "id": 138503,
            "original_name": "Spider-Man: Freshman Year",
            "popularity": 23.984
        },
        {
            "id": 1916,
            "original_name": "2 Stupid Dogs",
            "popularity": 16.831
        },
        {
            "id": 77269,
            "original_name": "Marvel Knights: Spider-Woman, Agent of S.W.O.R.D.",
            "popularity": 16.07
        },
        {
            "id": 4784,
            "original_name": "Spider-Woman",
            "popularity": 14.904
        },
        {
            "id": 4552,
            "original_name": "The Amazing Spider-Man",
            "popularity": 14.823
        },
        {
            "id": 97724,
            "original_name": "Spides",
            "popularity": 13.782
        },
        {
            "id": 16028,
            "original_name": "Italian Spiderman",
            "popularity": 10.896
        },
        {
            "id": 95515,
            "original_name": "\u00c9pid\u00e9mie",
            "popularity": 9.603
        },
        {
            "id": 83889,
            "original_name": "Est\u00fapido cupido",
            "popularity": 7.194
        },
        {
            "id": 4631,
            "original_name": "Cupid",
            "popularity": 6.267
        }
    ]
}