{
    "data": [
        {
            "id": 4447,
            "original_name": "Qpids",
            "popularity": 1.4
        },
        {
            "id": 82275,
            "original_name": "The Cupids Series: Loob Korn Kammathep",
            "popularity": 0.6
        }
    ],
    "relations": [],
    "top20": [
        {
            "id": 4447,
            "original_name": "Qpids",
            "popularity": 1.4
        },
        {
            "id": 82275,
            "original_name": "The Cupids Series: Loob Korn Kammathep",
            "popularity": 0.6
        }
    ]
}