{
    "data": [
        {
            "id": 79692,
            "original_name": "Pilen flyttebyr\u00e5",
            "popularity": 0.6
        },
        {
            "id": 103492,
            "original_name": "Asie Insolite Compile",
            "popularity": 0.612
        },
        {
            "id": 107850,
            "original_name": "Piled Up",
            "popularity": 0.84
        }
    ],
    "relations": [],
    "top20": [
        {
            "id": 79692,
            "original_name": "Pilen flyttebyr\u00e5",
            "popularity": 0.6
        },
        {
            "id": 103492,
            "original_name": "Asie Insolite Compile",
            "popularity": 0.612
        },
        {
            "id": 107850,
            "original_name": "Piled Up",
            "popularity": 0.84
        }
    ]
}