{
    "data": [
        {
            "id": 1374,
            "original_name": "Spindoe",
            "popularity": 0.662
        },
        {
            "id": 54595,
            "original_name": "Pind og Holdt i USA",
            "popularity": 0.6
        },
        {
            "id": 117898,
            "original_name": "Pindrop",
            "popularity": 1.269
        }
    ],
    "relations": [],
    "top20": [
        {
            "id": 1374,
            "original_name": "Spindoe",
            "popularity": 0.662
        },
        {
            "id": 54595,
            "original_name": "Pind og Holdt i USA",
            "popularity": 0.6
        },
        {
            "id": 117898,
            "original_name": "Pindrop",
            "popularity": 1.269
        }
    ]
}