{
    "data": [
        {
            "id": 1272,
            "original_name": "Philippine Lottery Draw",
            "popularity": 0.6
        },
        {
            "id": 3044,
            "original_name": "Philippine Idol",
            "popularity": 0.677
        },
        {
            "id": 4674,
            "original_name": "Philippine Agenda",
            "popularity": 0.84
        },
        {
            "id": 5219,
            "original_name": "Celebrity Duets: Philippine Edition",
            "popularity": 1.97
        },
        {
            "id": 5426,
            "original_name": "Philippines' Next Top Model",
            "popularity": 0.6
        },
        {
            "id": 5727,
            "original_name": "Project Runway Philippines",
            "popularity": 0.6
        },
        {
            "id": 6709,
            "original_name": "Review Philippines",
            "popularity": 0.6
        },
        {
            "id": 7997,
            "original_name": "Philippines Scariest Challenge",
            "popularity": 0.6
        },
        {
            "id": 8567,
            "original_name": "Top model: Philippines",
            "popularity": 0.6
        },
        {
            "id": 12630,
            "original_name": "IKON Philippines",
            "popularity": 0.6
        },
        {
            "id": 12827,
            "original_name": "Philippine drama",
            "popularity": 0.6
        },
        {
            "id": 15599,
            "original_name": "The Insider's Guide To Happiness",
            "popularity": 0.655
        },
        {
            "id": 17390,
            "original_name": "Unhappy Happiness",
            "popularity": 0.6
        },
        {
            "id": 17536,
            "original_name": "Survivor Philippines",
            "popularity": 1.163
        },
        {
            "id": 19466,
            "original_name": "Spine Chillers",
            "popularity": 0.6
        },
        {
            "id": 19894,
            "original_name": "Nickelodeon Philippines Kids' Choice Awards",
            "popularity": 0.6
        },
        {
            "id": 20124,
            "original_name": "Happiness",
            "popularity": 2.696
        },
        {
            "id": 21376,
            "original_name": "\u2026and the Pursuit of Happiness",
            "popularity": 0.6
        },
        {
            "id": 21466,
            "original_name": "Small Happiness: Women of a Chinese Village",
            "popularity": 0.6
        },
        {
            "id": 21835,
            "original_name": "The Pursuit of Happiness",
            "popularity": 1.694
        },
        {
            "id": 21860,
            "original_name": "Happiness Isn't Everything",
            "popularity": 0.6
        },
        {
            "id": 22405,
            "original_name": "The Happiness Formula",
            "popularity": 0.6
        },
        {
            "id": 24225,
            "original_name": "Spine Chillers",
            "popularity": 0.6
        },
        {
            "id": 26073,
            "original_name": "The Pursuit of Happiness",
            "popularity": 1.719
        },
        {
            "id": 26637,
            "original_name": "In Search of Happiness",
            "popularity": 0.876
        },
        {
            "id": 27572,
            "original_name": "I Love Philippine Idol",
            "popularity": 0.6
        },
        {
            "id": 27984,
            "original_name": "2900 Happiness",
            "popularity": 2.373
        },
        {
            "id": 32480,
            "original_name": "Philippines' Next Supahstar",
            "popularity": 1.09
        },
        {
            "id": 32653,
            "original_name": "Pineapple Dance Studios",
            "popularity": 0.6
        },
        {
            "id": 35347,
            "original_name": "Dateline Philippines",
            "popularity": 0.6
        },
        {
            "id": 38972,
            "original_name": "The X Factor Philippines",
            "popularity": 0.6
        },
        {
            "id": 44568,
            "original_name": "The Amazing Race Philippines",
            "popularity": 0.6
        },
        {
            "id": 44868,
            "original_name": "The Voice of the Philippines",
            "popularity": 0.916
        },
        {
            "id": 44993,
            "original_name": "Extreme Makeover: Home Edition Philippines",
            "popularity": 0.6
        },
        {
            "id": 49777,
            "original_name": "How to Survive the 70s and Maybe Even Bump Into Happiness",
            "popularity": 0.6
        },
        {
            "id": 53425,
            "original_name": "Wayward Pines",
            "popularity": 24.366
        },
        {
            "id": 53887,
            "original_name": "Journey to Happiness",
            "popularity": 0.6
        },
        {
            "id": 57538,
            "original_name": "Cyanide & Happiness  Shorts",
            "popularity": 4.129
        },
        {
            "id": 58830,
            "original_name": "Pursuit of Happiness",
            "popularity": 0.6
        },
        {
            "id": 59049,
            "original_name": "Newsline Philippines",
            "popularity": 0.6
        },
        {
            "id": 61858,
            "original_name": "The Cyanide & Happiness Show",
            "popularity": 3.103
        },
        {
            "id": 69228,
            "original_name": "Pineapple",
            "popularity": 1.431
        },
        {
            "id": 70387,
            "original_name": "I Can See Your Voice Philippines",
            "popularity": 0.6
        },
        {
            "id": 72030,
            "original_name": "Philosophy: A Guide to Happiness",
            "popularity": 0.801
        },
        {
            "id": 77111,
            "original_name": "Proceso a Mariana Pineda",
            "popularity": 1.186
        },
        {
            "id": 77895,
            "original_name": "Curious Minds: Happiness",
            "popularity": 0.6
        },
        {
            "id": 82469,
            "original_name": "Pine Gap",
            "popularity": 6.726
        },
        {
            "id": 87520,
            "original_name": "Pinel : au coeur de la maladie mentale",
            "popularity": 0.855
        },
        {
            "id": 98786,
            "original_name": "Descendants of the Sun (The Philippine Adaptation)",
            "popularity": 9.033
        },
        {
            "id": 98883,
            "original_name": "Hot Ones Philippines",
            "popularity": 0.6
        },
        {
            "id": 100080,
            "original_name": "Agrippine",
            "popularity": 0.6
        },
        {
            "id": 106549,
            "original_name": "Come to happiness",
            "popularity": 0.6
        },
        {
            "id": 107706,
            "original_name": "Ravi Patel's Pursuit of Happiness",
            "popularity": 0.84
        },
        {
            "id": 122382,
            "original_name": "Mimi Cracra, c'est une copine",
            "popularity": 1.202
        },
        {
            "id": 131782,
            "original_name": "Nickname Pine Leaf",
            "popularity": 0.6
        },
        {
            "id": 133761,
            "original_name": "Happiness",
            "popularity": 5.474
        },
        {
            "id": 135340,
            "original_name": "Happiness",
            "popularity": 56.256
        },
        {
            "id": 137279,
            "original_name": "Happiness Meets Rainbow",
            "popularity": 0.6
        },
        {
            "id": 139203,
            "original_name": "Drag Race Philippines",
            "popularity": 0.6
        }
    ],
    "relations": [
        {
            "character": "pines"
        },
        {
            "character": "pinea"
        },
        {
            "character": "pined"
        },
        {
            "character": "pinel"
        }
    ],
    "top20": [
        {
            "id": 135340,
            "original_name": "Happiness",
            "popularity": 56.256
        },
        {
            "id": 53425,
            "original_name": "Wayward Pines",
            "popularity": 24.366
        },
        {
            "id": 98786,
            "original_name": "Descendants of the Sun (The Philippine Adaptation)",
            "popularity": 9.033
        },
        {
            "id": 82469,
            "original_name": "Pine Gap",
            "popularity": 6.726
        },
        {
            "id": 133761,
            "original_name": "Happiness",
            "popularity": 5.474
        },
        {
            "id": 57538,
            "original_name": "Cyanide & Happiness  Shorts",
            "popularity": 4.129
        },
        {
            "id": 61858,
            "original_name": "The Cyanide & Happiness Show",
            "popularity": 3.103
        },
        {
            "id": 20124,
            "original_name": "Happiness",
            "popularity": 2.696
        },
        {
            "id": 27984,
            "original_name": "2900 Happiness",
            "popularity": 2.373
        },
        {
            "id": 5219,
            "original_name": "Celebrity Duets: Philippine Edition",
            "popularity": 1.97
        },
        {
            "id": 26073,
            "original_name": "The Pursuit of Happiness",
            "popularity": 1.719
        },
        {
            "id": 21835,
            "original_name": "The Pursuit of Happiness",
            "popularity": 1.694
        },
        {
            "id": 69228,
            "original_name": "Pineapple",
            "popularity": 1.431
        },
        {
            "id": 122382,
            "original_name": "Mimi Cracra, c'est une copine",
            "popularity": 1.202
        },
        {
            "id": 77111,
            "original_name": "Proceso a Mariana Pineda",
            "popularity": 1.186
        },
        {
            "id": 17536,
            "original_name": "Survivor Philippines",
            "popularity": 1.163
        },
        {
            "id": 32480,
            "original_name": "Philippines' Next Supahstar",
            "popularity": 1.09
        },
        {
            "id": 44868,
            "original_name": "The Voice of the Philippines",
            "popularity": 0.916
        },
        {
            "id": 26637,
            "original_name": "In Search of Happiness",
            "popularity": 0.876
        },
        {
            "id": 87520,
            "original_name": "Pinel : au coeur de la maladie mentale",
            "popularity": 0.855
        }
    ]
}