{
    "data": [
        {
            "id": 34,
            "original_name": "Keeping Up Appearances",
            "popularity": 14.441
        },
        {
            "id": 854,
            "original_name": "Ripping Yarns",
            "popularity": 2.659
        },
        {
            "id": 2315,
            "original_name": "The Ripping Friends",
            "popularity": 3.991
        },
        {
            "id": 3505,
            "original_name": "Tripping Over",
            "popularity": 2.342
        },
        {
            "id": 3593,
            "original_name": "Lizzie Dripping",
            "popularity": 0.6
        },
        {
            "id": 4585,
            "original_name": "Tripping the Rift",
            "popularity": 5.832
        },
        {
            "id": 9262,
            "original_name": "Pingu",
            "popularity": 19.981
        },
        {
            "id": 9381,
            "original_name": "Shopping Hero",
            "popularity": 0.6
        },
        {
            "id": 9779,
            "original_name": "BodyShaping",
            "popularity": 0.6
        },
        {
            "id": 10920,
            "original_name": "Shopping Spree",
            "popularity": 0.6
        },
        {
            "id": 10940,
            "original_name": "Shopping for Love",
            "popularity": 0.6
        },
        {
            "id": 11377,
            "original_name": "Home Shopping Game",
            "popularity": 0.6
        },
        {
            "id": 11968,
            "original_name": "The Shopping Bags",
            "popularity": 0.6
        },
        {
            "id": 12135,
            "original_name": "Shaping Up",
            "popularity": 0.929
        },
        {
            "id": 12237,
            "original_name": "Missus Goes a Shopping",
            "popularity": 0.6
        },
        {
            "id": 12395,
            "original_name": "Buford and the Galloping Ghost",
            "popularity": 2.309
        },
        {
            "id": 13050,
            "original_name": "Flipping Out",
            "popularity": 3.665
        },
        {
            "id": 13152,
            "original_name": "Pumping Gas",
            "popularity": 0.6
        },
        {
            "id": 13262,
            "original_name": "The Pingwings",
            "popularity": 0.6
        },
        {
            "id": 13513,
            "original_name": "Sleeping Dogs",
            "popularity": 0.6
        },
        {
            "id": 13894,
            "original_name": "Tipping the Velvet",
            "popularity": 3.548
        },
        {
            "id": 14795,
            "original_name": "Galloping Galaxies!",
            "popularity": 0.6
        },
        {
            "id": 14814,
            "original_name": "Keeping Up with the Kardashians",
            "popularity": 50.188
        },
        {
            "id": 15212,
            "original_name": "Stepping Out",
            "popularity": 0.84
        },
        {
            "id": 17975,
            "original_name": "The Chopping Block",
            "popularity": 0.6
        },
        {
            "id": 18889,
            "original_name": "The Great War and the Shaping of the 20th Century",
            "popularity": 2.235
        },
        {
            "id": 19219,
            "original_name": "Sex and Shopping",
            "popularity": 0.879
        },
        {
            "id": 19245,
            "original_name": "Helping Henry",
            "popularity": 0.6
        },
        {
            "id": 22001,
            "original_name": "The Good Housekeeping Guide",
            "popularity": 0.646
        },
        {
            "id": 25172,
            "original_name": "Weekend Landscaping",
            "popularity": 0.6
        },
        {
            "id": 26545,
            "original_name": "Coping With...",
            "popularity": 0.6
        },
        {
            "id": 26558,
            "original_name": "The Galloping Gourmet",
            "popularity": 0.6
        },
        {
            "id": 26564,
            "original_name": "Property Developing Abroad",
            "popularity": 0.6
        },
        {
            "id": 26989,
            "original_name": "The Kidnapping of Elizabeth Smart",
            "popularity": 0.6
        },
        {
            "id": 27073,
            "original_name": "Keeping Mum",
            "popularity": 0.6
        },
        {
            "id": 27774,
            "original_name": "Keeping Kids Healthy",
            "popularity": 0.966
        },
        {
            "id": 27819,
            "original_name": "Caught Napping",
            "popularity": 0.6
        },
        {
            "id": 28051,
            "original_name": "Shopping City",
            "popularity": 0.6
        },
        {
            "id": 29189,
            "original_name": "Keeping It Real",
            "popularity": 0.6
        },
        {
            "id": 29287,
            "original_name": "Unwrapping Macy's",
            "popularity": 0.6
        },
        {
            "id": 29499,
            "original_name": "Camping Pernis",
            "popularity": 0.6
        },
        {
            "id": 30556,
            "original_name": "1914-18: The Great War and the Shaping of the 20th Century",
            "popularity": 0.6
        },
        {
            "id": 32297,
            "original_name": "Taiping Tianguo",
            "popularity": 0.6
        },
        {
            "id": 33506,
            "original_name": "I en annan del av K\u00f6ping",
            "popularity": 0.6
        },
        {
            "id": 34460,
            "original_name": "Keeping up with the Joneses",
            "popularity": 0.6
        },
        {
            "id": 34911,
            "original_name": "Summer Camping",
            "popularity": 0.6
        },
        {
            "id": 36173,
            "original_name": "Ping-Pong",
            "popularity": 0.6
        },
        {
            "id": 36887,
            "original_name": "Campinglife",
            "popularity": 0.6
        },
        {
            "id": 37294,
            "original_name": "Keeping Up with the Joneses",
            "popularity": 0.6
        },
        {
            "id": 38139,
            "original_name": "B\u00f6da Camping",
            "popularity": 0.6
        },
        {
            "id": 40218,
            "original_name": "Walker and Ping Ping",
            "popularity": 0.6
        },
        {
            "id": 41026,
            "original_name": "Pinguin, L\u00f6we & Co.",
            "popularity": 0.6
        },
        {
            "id": 42746,
            "original_name": "Flipping Boston",
            "popularity": 0.921
        },
        {
            "id": 42747,
            "original_name": "Flipping Vegas",
            "popularity": 0.6
        },
        {
            "id": 43364,
            "original_name": "The Ripping Friends: The World's Most Manly Men",
            "popularity": 1.34
        },
        {
            "id": 44368,
            "original_name": "Tiexue Changping",
            "popularity": 0.6
        },
        {
            "id": 44419,
            "original_name": "Secret History of Princess Taiping",
            "popularity": 0.6
        },
        {
            "id": 44810,
            "original_name": "The Dumping Ground",
            "popularity": 1.81
        },
        {
            "id": 45201,
            "original_name": "Stepping into Rhythm",
            "popularity": 0.6
        },
        {
            "id": 45593,
            "original_name": "Keeping Score",
            "popularity": 0.6
        },
        {
            "id": 47623,
            "original_name": "Bumping the Odds",
            "popularity": 0.6
        },
        {
            "id": 47655,
            "original_name": "Coping With Grown-Ups",
            "popularity": 0.6
        },
        {
            "id": 50592,
            "original_name": "Shipping Wars",
            "popularity": 15.844
        },
        {
            "id": 50872,
            "original_name": "DWDD University: De Wereld van Kl\u00f6pping",
            "popularity": 0.6
        },
        {
            "id": 51522,
            "original_name": "Who's Been Sleeping in my House",
            "popularity": 0.6
        },
        {
            "id": 51899,
            "original_name": "Mapping Kyoto Streets",
            "popularity": 0.6
        },
        {
            "id": 51975,
            "original_name": "Scheire en de Schepping",
            "popularity": 2.242
        },
        {
            "id": 54705,
            "original_name": "The Sleeping Beauty",
            "popularity": 0.6
        },
        {
            "id": 55466,
            "original_name": "Stars Jumping on Saturday",
            "popularity": 0.6
        },
        {
            "id": 55559,
            "original_name": "My Shopping Addiction",
            "popularity": 0.6
        },
        {
            "id": 55616,
            "original_name": "Drop 5 lbs With Good Housekeeping",
            "popularity": 0.6
        },
        {
            "id": 55816,
            "original_name": "Keeping Britain Alive: The NHS in a Day",
            "popularity": 0.6
        },
        {
            "id": 55958,
            "original_name": "Shopping Ping Ruk",
            "popularity": 0.6
        },
        {
            "id": 56926,
            "original_name": "Tipping Point",
            "popularity": 0.895
        },
        {
            "id": 57668,
            "original_name": "Gok live stripping for summer",
            "popularity": 0.6
        },
        {
            "id": 57767,
            "original_name": "Stepping Out",
            "popularity": 0.6
        },
        {
            "id": 57865,
            "original_name": "Robert Peston Goes Shopping",
            "popularity": 0.6
        },
        {
            "id": 58372,
            "original_name": "Camping Powned",
            "popularity": 0.6
        },
        {
            "id": 59025,
            "original_name": "Keeping Mum",
            "popularity": 0.6
        },
        {
            "id": 59754,
            "original_name": "The Railway: Keeping Britain On Track",
            "popularity": 0.656
        },
        {
            "id": 60156,
            "original_name": "Tripping Out With Alie & Georgia",
            "popularity": 0.6
        },
        {
            "id": 63169,
            "original_name": "Keeping Up With The Kaimanawas",
            "popularity": 0.881
        },
        {
            "id": 63199,
            "original_name": "Escaping Polygamy",
            "popularity": 1.79
        },
        {
            "id": 63601,
            "original_name": "Camping paradis",
            "popularity": 4.34
        },
        {
            "id": 64959,
            "original_name": "Sleeping with the Family",
            "popularity": 0.6
        },
        {
            "id": 65703,
            "original_name": "Keeping Up with the Khans",
            "popularity": 0.634
        },
        {
            "id": 65925,
            "original_name": "Zombie House Flipping",
            "popularity": 12.792
        },
        {
            "id": 66183,
            "original_name": "Camping",
            "popularity": 2.471
        },
        {
            "id": 71477,
            "original_name": "Les Reines du Shopping",
            "popularity": 1.107
        },
        {
            "id": 71514,
            "original_name": "Jasper, der Pinguin",
            "popularity": 0.956
        },
        {
            "id": 71759,
            "original_name": "Camping Queens",
            "popularity": 0.6
        },
        {
            "id": 72816,
            "original_name": "Pinggan Tak Retak Nasi Tak Dingin",
            "popularity": 0.886
        },
        {
            "id": 74234,
            "original_name": "Markurells i Wadk\u00f6ping",
            "popularity": 1.341
        },
        {
            "id": 76469,
            "original_name": "Miss Marple: Sleeping Murder",
            "popularity": 4.332
        },
        {
            "id": 77419,
            "original_name": "The Reaping",
            "popularity": 0.725
        },
        {
            "id": 77859,
            "original_name": "The Birth Of Shopping",
            "popularity": 0.6
        },
        {
            "id": 78101,
            "original_name": "Camping",
            "popularity": 5.015
        },
        {
            "id": 78714,
            "original_name": "Keeping Australia Safe",
            "popularity": 0.89
        },
        {
            "id": 78718,
            "original_name": "Keeping Australia Alive",
            "popularity": 0.6
        },
        {
            "id": 78736,
            "original_name": "Norske rednecks camping",
            "popularity": 0.6
        },
        {
            "id": 78771,
            "original_name": "Ja, vi elsker camping",
            "popularity": 2.501
        },
        {
            "id": 80384,
            "original_name": "Homo Zapping",
            "popularity": 2.687
        },
        {
            "id": 80621,
            "original_name": "Chinese peacekeeping police",
            "popularity": 0.6
        },
        {
            "id": 81816,
            "original_name": "Thumping Spike",
            "popularity": 0.62
        },
        {
            "id": 82663,
            "original_name": "Ka\u00efra Shopping",
            "popularity": 0.671
        },
        {
            "id": 84451,
            "original_name": "Bumping Mics with Jeff Ross & Dave Attell",
            "popularity": 1.758
        },
        {
            "id": 85020,
            "original_name": "Promi Shopping Queen",
            "popularity": 1.317
        },
        {
            "id": 85035,
            "original_name": "Flipping Profit",
            "popularity": 0.6
        },
        {
            "id": 85059,
            "original_name": "Hades: Developing Hell",
            "popularity": 0.6
        },
        {
            "id": 86895,
            "original_name": "La reine du shopping",
            "popularity": 0.6
        },
        {
            "id": 88282,
            "original_name": "Camping de l'Ours",
            "popularity": 1.557
        },
        {
            "id": 90668,
            "original_name": "Futuropolis: Mapping the City of Tomorrow",
            "popularity": 0.858
        },
        {
            "id": 92040,
            "original_name": "Flipping Virgins",
            "popularity": 0.6
        },
        {
            "id": 93073,
            "original_name": "Peeping Life",
            "popularity": 0.6
        },
        {
            "id": 93510,
            "original_name": "Flipping Exes",
            "popularity": 0.611
        },
        {
            "id": 93768,
            "original_name": "Shopping Queen",
            "popularity": 1.259
        },
        {
            "id": 96353,
            "original_name": "KEEPING THE BAND",
            "popularity": 0.6
        },
        {
            "id": 96516,
            "original_name": "Flipping Bangers",
            "popularity": 0.676
        },
        {
            "id": 99518,
            "original_name": "Vive le Camping",
            "popularity": 1.149
        },
        {
            "id": 103561,
            "original_name": "Curso Acelerador de dropshipping",
            "popularity": 0.6
        },
        {
            "id": 103679,
            "original_name": "Keeping It 100",
            "popularity": 0.6
        },
        {
            "id": 105692,
            "original_name": "Flipping Across America",
            "popularity": 0.917
        },
        {
            "id": 108396,
            "original_name": "Sleeping With Friends",
            "popularity": 0.84
        },
        {
            "id": 111521,
            "original_name": "Camping",
            "popularity": 0.6
        },
        {
            "id": 111794,
            "original_name": "Cantando com Ping e Pong",
            "popularity": 0.607
        },
        {
            "id": 111889,
            "original_name": "Channel Hopping with Jon Richardson",
            "popularity": 1.462
        },
        {
            "id": 112503,
            "original_name": "Shopping with Keith Lemon",
            "popularity": 2.623
        },
        {
            "id": 113454,
            "original_name": "Peeping Life\u00d7\u602a\u7363\u9152\u5834 \u304b\u3044\u3058\u3085\u3046\u305f\u3061\u304c\u3044\u308b\u3068\u3053\u308d",
            "popularity": 0.6
        },
        {
            "id": 114132,
            "original_name": "L'ann\u00e9e du zapping",
            "popularity": 0.6
        },
        {
            "id": 114548,
            "original_name": "DNA-detektiven: Dubbelmordet i Link\u00f6ping",
            "popularity": 0.6
        },
        {
            "id": 114818,
            "original_name": "Montebello Camping",
            "popularity": 0.6
        },
        {
            "id": 116955,
            "original_name": "Camping Coppens",
            "popularity": 0.983
        },
        {
            "id": 117004,
            "original_name": "Flipping 101 With Tarek El Moussa",
            "popularity": 1.91
        },
        {
            "id": 118335,
            "original_name": "Shopping Star",
            "popularity": 1.847
        },
        {
            "id": 119270,
            "original_name": "Ant And Dec's Saturday Night Takeaway: Extra Helping",
            "popularity": 0.6
        },
        {
            "id": 120481,
            "original_name": "V\u00e4lkommen till K\u00f6ping",
            "popularity": 0.6
        },
        {
            "id": 121919,
            "original_name": "Campingliv",
            "popularity": 0.6
        },
        {
            "id": 122097,
            "original_name": "De Kemping",
            "popularity": 0.6
        },
        {
            "id": 124771,
            "original_name": "Der Camping Clan - Alles f\u00fcr den Platz",
            "popularity": 0.6
        },
        {
            "id": 124935,
            "original_name": "Johnny Vegas: Carry on Glamping",
            "popularity": 0.84
        },
        {
            "id": 126985,
            "original_name": "\u5169\u500b\u5c0f\u751f\u53bbCamping",
            "popularity": 0.6
        },
        {
            "id": 128793,
            "original_name": "Dropping the Soap",
            "popularity": 0.6
        },
        {
            "id": 129100,
            "original_name": "Keeping Up with the Joneses",
            "popularity": 3.921
        },
        {
            "id": 130747,
            "original_name": "Verr\u00fcckt nach Camping",
            "popularity": 0.6
        },
        {
            "id": 131386,
            "original_name": "Bella Italia-Camping auf Deutsch",
            "popularity": 4.311
        },
        {
            "id": 133403,
            "original_name": "Housekeeping Men",
            "popularity": 0.6
        },
        {
            "id": 133405,
            "original_name": "Housekeeping Men Season 2",
            "popularity": 0.6
        },
        {
            "id": 135713,
            "original_name": "Escaping Evil: My Life in a Cult",
            "popularity": 1.374
        },
        {
            "id": 137492,
            "original_name": "De 3 sterren camping",
            "popularity": 1.62
        },
        {
            "id": 137712,
            "original_name": "Catch Teenping",
            "popularity": 0.6
        },
        {
            "id": 137902,
            "original_name": "Royals: Keeping the Crown",
            "popularity": 1.748
        },
        {
            "id": 138038,
            "original_name": "Tried And Tasted: The Ultimate Shopping List",
            "popularity": 0.6
        },
        {
            "id": 138132,
            "original_name": "Shipping the World",
            "popularity": 0.6
        },
        {
            "id": 138214,
            "original_name": "Love and Drugs on the Street: Girls Sleeping Rough",
            "popularity": 0.6
        },
        {
            "id": 138935,
            "original_name": "Prepping Australia",
            "popularity": 3.369
        },
        {
            "id": 152342,
            "original_name": "Drama Festival: The Sleeping Witch (2013)",
            "popularity": 1.714
        }
    ],
    "relations": [
        {
            "character": "pingu"
        },
        {
            "character": "pingw"
        },
        {
            "character": "pingl"
        },
        {
            "character": "pingg"
        }
    ],
    "top20": [
        {
            "id": 14814,
            "original_name": "Keeping Up with the Kardashians",
            "popularity": 50.188
        },
        {
            "id": 9262,
            "original_name": "Pingu",
            "popularity": 19.981
        },
        {
            "id": 50592,
            "original_name": "Shipping Wars",
            "popularity": 15.844
        },
        {
            "id": 34,
            "original_name": "Keeping Up Appearances",
            "popularity": 14.441
        },
        {
            "id": 65925,
            "original_name": "Zombie House Flipping",
            "popularity": 12.792
        },
        {
            "id": 4585,
            "original_name": "Tripping the Rift",
            "popularity": 5.832
        },
        {
            "id": 78101,
            "original_name": "Camping",
            "popularity": 5.015
        },
        {
            "id": 63601,
            "original_name": "Camping paradis",
            "popularity": 4.34
        },
        {
            "id": 76469,
            "original_name": "Miss Marple: Sleeping Murder",
            "popularity": 4.332
        },
        {
            "id": 131386,
            "original_name": "Bella Italia-Camping auf Deutsch",
            "popularity": 4.311
        },
        {
            "id": 2315,
            "original_name": "The Ripping Friends",
            "popularity": 3.991
        },
        {
            "id": 129100,
            "original_name": "Keeping Up with the Joneses",
            "popularity": 3.921
        },
        {
            "id": 13050,
            "original_name": "Flipping Out",
            "popularity": 3.665
        },
        {
            "id": 13894,
            "original_name": "Tipping the Velvet",
            "popularity": 3.548
        },
        {
            "id": 138935,
            "original_name": "Prepping Australia",
            "popularity": 3.369
        },
        {
            "id": 80384,
            "original_name": "Homo Zapping",
            "popularity": 2.687
        },
        {
            "id": 854,
            "original_name": "Ripping Yarns",
            "popularity": 2.659
        },
        {
            "id": 112503,
            "original_name": "Shopping with Keith Lemon",
            "popularity": 2.623
        },
        {
            "id": 78771,
            "original_name": "Ja, vi elsker camping",
            "popularity": 2.501
        },
        {
            "id": 66183,
            "original_name": "Camping",
            "popularity": 2.471
        }
    ]
}