{
    "data": [
        {
            "id": 36887,
            "original_name": "Campinglife",
            "popularity": 0.6
        },
        {
            "id": 121919,
            "original_name": "Campingliv",
            "popularity": 0.6
        }
    ],
    "relations": [],
    "top20": [
        {
            "id": 36887,
            "original_name": "Campinglife",
            "popularity": 0.6
        },
        {
            "id": 121919,
            "original_name": "Campingliv",
            "popularity": 0.6
        }
    ]
}