{
    "data": [
        {
            "id": 95214,
            "original_name": "Epiphyllum Dream",
            "popularity": 0.6
        }
    ],
    "relations": [],
    "top20": [
        {
            "id": 95214,
            "original_name": "Epiphyllum Dream",
            "popularity": 0.6
        }
    ]
}