{
    "data": [
        {
            "id": 50069,
            "original_name": "Pistruiatul",
            "popularity": 1.057
        },
        {
            "id": 125192,
            "original_name": "Pistruiatul",
            "popularity": 0.6
        }
    ],
    "relations": [],
    "top20": [
        {
            "id": 50069,
            "original_name": "Pistruiatul",
            "popularity": 1.057
        },
        {
            "id": 125192,
            "original_name": "Pistruiatul",
            "popularity": 0.6
        }
    ]
}