{
    "data": [
        {
            "id": 892,
            "original_name": "Randall and Hopkirk (Deceased)",
            "popularity": 1.505
        },
        {
            "id": 3924,
            "original_name": "Randall & Hopkirk (Deceased)",
            "popularity": 8.207
        },
        {
            "id": 6207,
            "original_name": "Pipkins",
            "popularity": 2.419
        },
        {
            "id": 7920,
            "original_name": "The Johns Hopkins Science Review",
            "popularity": 0.6
        },
        {
            "id": 18643,
            "original_name": "Aapki Antara",
            "popularity": 0.6
        },
        {
            "id": 20052,
            "original_name": "Hopkins",
            "popularity": 0.6
        },
        {
            "id": 28518,
            "original_name": "Stephen Tompkinson's African Balloon Adventure",
            "popularity": 0.6
        },
        {
            "id": 30051,
            "original_name": "Hopkins 24/7",
            "popularity": 0.6
        },
        {
            "id": 32594,
            "original_name": "Raggedy Ann and Andy in The Pumpkin Who Couldn't Smile",
            "popularity": 0.6
        },
        {
            "id": 41961,
            "original_name": "Pumpkinhead 4: Blood Feud",
            "popularity": 0.83
        },
        {
            "id": 48133,
            "original_name": "The Pumpkin Eater",
            "popularity": 0.6
        },
        {
            "id": 53099,
            "original_name": "Simon Hopkinson Cooks",
            "popularity": 0.6
        },
        {
            "id": 59185,
            "original_name": "Pure Pumpkin Flower",
            "popularity": 0.6
        },
        {
            "id": 63550,
            "original_name": "If Katie Hopkins Ruled The World",
            "popularity": 0.6
        },
        {
            "id": 64126,
            "original_name": "Stephen Tompkinson's Australian Balloon Adventure",
            "popularity": 0.6
        },
        {
            "id": 71543,
            "original_name": "Shopkins",
            "popularity": 0.66
        },
        {
            "id": 100690,
            "original_name": "Pumpkin Reports",
            "popularity": 0.6
        },
        {
            "id": 108492,
            "original_name": "Outrageous Pumpkins",
            "popularity": 1.88
        },
        {
            "id": 119892,
            "original_name": "Aapki Nazron Ne Samjha",
            "popularity": 1.863
        }
    ],
    "relations": [],
    "top20": [
        {
            "id": 892,
            "original_name": "Randall and Hopkirk (Deceased)",
            "popularity": 1.505
        },
        {
            "id": 3924,
            "original_name": "Randall & Hopkirk (Deceased)",
            "popularity": 8.207
        },
        {
            "id": 6207,
            "original_name": "Pipkins",
            "popularity": 2.419
        },
        {
            "id": 7920,
            "original_name": "The Johns Hopkins Science Review",
            "popularity": 0.6
        },
        {
            "id": 18643,
            "original_name": "Aapki Antara",
            "popularity": 0.6
        },
        {
            "id": 20052,
            "original_name": "Hopkins",
            "popularity": 0.6
        },
        {
            "id": 28518,
            "original_name": "Stephen Tompkinson's African Balloon Adventure",
            "popularity": 0.6
        },
        {
            "id": 30051,
            "original_name": "Hopkins 24/7",
            "popularity": 0.6
        },
        {
            "id": 32594,
            "original_name": "Raggedy Ann and Andy in The Pumpkin Who Couldn't Smile",
            "popularity": 0.6
        },
        {
            "id": 41961,
            "original_name": "Pumpkinhead 4: Blood Feud",
            "popularity": 0.83
        },
        {
            "id": 48133,
            "original_name": "The Pumpkin Eater",
            "popularity": 0.6
        },
        {
            "id": 53099,
            "original_name": "Simon Hopkinson Cooks",
            "popularity": 0.6
        },
        {
            "id": 59185,
            "original_name": "Pure Pumpkin Flower",
            "popularity": 0.6
        },
        {
            "id": 63550,
            "original_name": "If Katie Hopkins Ruled The World",
            "popularity": 0.6
        },
        {
            "id": 64126,
            "original_name": "Stephen Tompkinson's Australian Balloon Adventure",
            "popularity": 0.6
        },
        {
            "id": 71543,
            "original_name": "Shopkins",
            "popularity": 0.66
        },
        {
            "id": 100690,
            "original_name": "Pumpkin Reports",
            "popularity": 0.6
        },
        {
            "id": 108492,
            "original_name": "Outrageous Pumpkins",
            "popularity": 1.88
        },
        {
            "id": 119892,
            "original_name": "Aapki Nazron Ne Samjha",
            "popularity": 1.863
        }
    ]
}