{
    "data": [
        {
            "id": 57416,
            "original_name": "Sexplanations",
            "popularity": 0.6
        }
    ],
    "relations": [],
    "top20": [
        {
            "id": 57416,
            "original_name": "Sexplanations",
            "popularity": 0.6
        }
    ]
}