{
    "data": [
        {
            "id": 61169,
            "original_name": "Kem\u00e9nykalap \u00e9s krumpliorr",
            "popularity": 0.709
        }
    ],
    "relations": [],
    "top20": [
        {
            "id": 61169,
            "original_name": "Kem\u00e9nykalap \u00e9s krumpliorr",
            "popularity": 0.709
        }
    ]
}