{
    "data": [
        {
            "id": 254,
            "original_name": "ESPNU Inside the Polls",
            "popularity": 0.6
        },
        {
            "id": 258,
            "original_name": "ESPNU Coaches Spotlight",
            "popularity": 0.6
        },
        {
            "id": 1659,
            "original_name": "ESPNU Recruiting Insider",
            "popularity": 0.6
        }
    ],
    "relations": [],
    "top20": [
        {
            "id": 254,
            "original_name": "ESPNU Inside the Polls",
            "popularity": 0.6
        },
        {
            "id": 258,
            "original_name": "ESPNU Coaches Spotlight",
            "popularity": 0.6
        },
        {
            "id": 1659,
            "original_name": "ESPNU Recruiting Insider",
            "popularity": 0.6
        }
    ]
}