{
    "data": [
        {
            "id": 6286,
            "original_name": "BBC Points West",
            "popularity": 0.6
        },
        {
            "id": 11185,
            "original_name": "Boiling Points",
            "popularity": 0.871
        },
        {
            "id": 20785,
            "original_name": "Points of View",
            "popularity": 4.953
        },
        {
            "id": 33775,
            "original_name": "Points East, Points West",
            "popularity": 0.6
        },
        {
            "id": 57590,
            "original_name": "History's Turning Points",
            "popularity": 0.6
        },
        {
            "id": 58806,
            "original_name": "Turning Points of History",
            "popularity": 0.6
        },
        {
            "id": 75585,
            "original_name": "Points de Rep\u00e8res",
            "popularity": 1.685
        },
        {
            "id": 78636,
            "original_name": "Five Points",
            "popularity": 3.436
        },
        {
            "id": 111860,
            "original_name": "Bullet Points",
            "popularity": 0.6
        },
        {
            "id": 117048,
            "original_name": "16th & 17th Century Turning Points in U.S. History",
            "popularity": 0.6
        },
        {
            "id": 117049,
            "original_name": "18th Century Turning Points in U.S. History",
            "popularity": 1.341
        },
        {
            "id": 117050,
            "original_name": "19th Century Turning Points in U.S. History",
            "popularity": 0.6
        },
        {
            "id": 117051,
            "original_name": "20th Century Turning Points in U.S. History",
            "popularity": 0.6
        },
        {
            "id": 117052,
            "original_name": "21st Century Turning Points in U.S. History",
            "popularity": 0.6
        },
        {
            "id": 132394,
            "original_name": "Rise and Fall: The Turning Points of World War II",
            "popularity": 1.391
        }
    ],
    "relations": [],
    "top20": [
        {
            "id": 6286,
            "original_name": "BBC Points West",
            "popularity": 0.6
        },
        {
            "id": 11185,
            "original_name": "Boiling Points",
            "popularity": 0.871
        },
        {
            "id": 20785,
            "original_name": "Points of View",
            "popularity": 4.953
        },
        {
            "id": 33775,
            "original_name": "Points East, Points West",
            "popularity": 0.6
        },
        {
            "id": 57590,
            "original_name": "History's Turning Points",
            "popularity": 0.6
        },
        {
            "id": 58806,
            "original_name": "Turning Points of History",
            "popularity": 0.6
        },
        {
            "id": 75585,
            "original_name": "Points de Rep\u00e8res",
            "popularity": 1.685
        },
        {
            "id": 78636,
            "original_name": "Five Points",
            "popularity": 3.436
        },
        {
            "id": 111860,
            "original_name": "Bullet Points",
            "popularity": 0.6
        },
        {
            "id": 117048,
            "original_name": "16th & 17th Century Turning Points in U.S. History",
            "popularity": 0.6
        },
        {
            "id": 117049,
            "original_name": "18th Century Turning Points in U.S. History",
            "popularity": 1.341
        },
        {
            "id": 117050,
            "original_name": "19th Century Turning Points in U.S. History",
            "popularity": 0.6
        },
        {
            "id": 117051,
            "original_name": "20th Century Turning Points in U.S. History",
            "popularity": 0.6
        },
        {
            "id": 117052,
            "original_name": "21st Century Turning Points in U.S. History",
            "popularity": 0.6
        },
        {
            "id": 132394,
            "original_name": "Rise and Fall: The Turning Points of World War II",
            "popularity": 1.391
        }
    ]
}