{
    "data": [
        {
            "id": 1338,
            "original_name": "Alarm f\u00fcr Cobra 11 \u2013 Die Autobahnpolizei",
            "popularity": 67.424
        },
        {
            "id": 14210,
            "original_name": "Polizeiruf 110",
            "popularity": 53.629
        },
        {
            "id": 40610,
            "original_name": "Polizeiinspektion 1",
            "popularity": 9.027
        },
        {
            "id": 41036,
            "original_name": "Polizeifunk ruft",
            "popularity": 4.141
        },
        {
            "id": 41079,
            "original_name": "Hafenpolizei",
            "popularity": 3.839
        },
        {
            "id": 41658,
            "original_name": "WEGA \u2013 Die Spezialeinheit der Polizei",
            "popularity": 0.6
        },
        {
            "id": 61085,
            "original_name": "Sophie \u2013 Schlauer als die Polizei erlaubt",
            "popularity": 2.262
        },
        {
            "id": 63694,
            "original_name": "Polizeistation",
            "popularity": 1.217
        },
        {
            "id": 64442,
            "original_name": "Bitte keine Polizei",
            "popularity": 0.765
        },
        {
            "id": 84783,
            "original_name": "Der Polizeibericht meldet",
            "popularity": 0.6
        },
        {
            "id": 85748,
            "original_name": "Schneller als die Polizei erlaubt",
            "popularity": 0.6
        },
        {
            "id": 96423,
            "original_name": "Harras, der Polizeihund",
            "popularity": 0.6
        },
        {
            "id": 106361,
            "original_name": "Die Bodenseepolizei",
            "popularity": 0.6
        },
        {
            "id": 107426,
            "original_name": "Die Finanzpolizei",
            "popularity": 0.6
        },
        {
            "id": 108398,
            "original_name": "Donau Polizei",
            "popularity": 0.6
        },
        {
            "id": 111409,
            "original_name": "Lebensmittelpolizei",
            "popularity": 0.6
        },
        {
            "id": 122817,
            "original_name": "T\u00e4ter \u2013 Opfer \u2013 Polizei",
            "popularity": 0.6
        },
        {
            "id": 128382,
            "original_name": "Stopp, Polizei!",
            "popularity": 0.673
        },
        {
            "id": 132884,
            "original_name": "100 Jahre Polizei",
            "popularity": 0.6
        }
    ],
    "relations": [],
    "top20": [
        {
            "id": 1338,
            "original_name": "Alarm f\u00fcr Cobra 11 \u2013 Die Autobahnpolizei",
            "popularity": 67.424
        },
        {
            "id": 14210,
            "original_name": "Polizeiruf 110",
            "popularity": 53.629
        },
        {
            "id": 40610,
            "original_name": "Polizeiinspektion 1",
            "popularity": 9.027
        },
        {
            "id": 41036,
            "original_name": "Polizeifunk ruft",
            "popularity": 4.141
        },
        {
            "id": 41079,
            "original_name": "Hafenpolizei",
            "popularity": 3.839
        },
        {
            "id": 41658,
            "original_name": "WEGA \u2013 Die Spezialeinheit der Polizei",
            "popularity": 0.6
        },
        {
            "id": 61085,
            "original_name": "Sophie \u2013 Schlauer als die Polizei erlaubt",
            "popularity": 2.262
        },
        {
            "id": 63694,
            "original_name": "Polizeistation",
            "popularity": 1.217
        },
        {
            "id": 64442,
            "original_name": "Bitte keine Polizei",
            "popularity": 0.765
        },
        {
            "id": 84783,
            "original_name": "Der Polizeibericht meldet",
            "popularity": 0.6
        },
        {
            "id": 85748,
            "original_name": "Schneller als die Polizei erlaubt",
            "popularity": 0.6
        },
        {
            "id": 96423,
            "original_name": "Harras, der Polizeihund",
            "popularity": 0.6
        },
        {
            "id": 106361,
            "original_name": "Die Bodenseepolizei",
            "popularity": 0.6
        },
        {
            "id": 107426,
            "original_name": "Die Finanzpolizei",
            "popularity": 0.6
        },
        {
            "id": 108398,
            "original_name": "Donau Polizei",
            "popularity": 0.6
        },
        {
            "id": 111409,
            "original_name": "Lebensmittelpolizei",
            "popularity": 0.6
        },
        {
            "id": 122817,
            "original_name": "T\u00e4ter \u2013 Opfer \u2013 Polizei",
            "popularity": 0.6
        },
        {
            "id": 128382,
            "original_name": "Stopp, Polizei!",
            "popularity": 0.673
        },
        {
            "id": 132884,
            "original_name": "100 Jahre Polizei",
            "popularity": 0.6
        }
    ]
}