{
    "data": [
        {
            "id": 102921,
            "original_name": "Pollos espaciales del espacio",
            "popularity": 0.6
        }
    ],
    "relations": [],
    "top20": [
        {
            "id": 102921,
            "original_name": "Pollos espaciales del espacio",
            "popularity": 0.6
        }
    ]
}