{
    "data": [
        {
            "id": 2021,
            "original_name": "Up Pompeii!",
            "popularity": 1.909
        },
        {
            "id": 13847,
            "original_name": "The Winjin Pom",
            "popularity": 0.602
        },
        {
            "id": 20755,
            "original_name": "The Last Days of Pompeii",
            "popularity": 2.031
        },
        {
            "id": 30902,
            "original_name": "Pomeriggio Cinque",
            "popularity": 0.6
        },
        {
            "id": 40222,
            "original_name": "Pompeii: The Last Day",
            "popularity": 0.713
        },
        {
            "id": 41189,
            "original_name": "Schlo\u00df Pompon Rouge",
            "popularity": 1.153
        },
        {
            "id": 44662,
            "original_name": "Nad lipom 35",
            "popularity": 0.6
        },
        {
            "id": 46954,
            "original_name": "Pompidou",
            "popularity": 1.252
        },
        {
            "id": 48158,
            "original_name": "Pomylka",
            "popularity": 0.6
        },
        {
            "id": 50170,
            "original_name": "Kepompong",
            "popularity": 0.6
        },
        {
            "id": 50520,
            "original_name": "Bpom Ruk Roy Adeed",
            "popularity": 0.6
        },
        {
            "id": 63821,
            "original_name": "Pom Pom mes\u00e9i",
            "popularity": 0.6
        },
        {
            "id": 64646,
            "original_name": "Les recettes pompettes",
            "popularity": 2.574
        },
        {
            "id": 67353,
            "original_name": "Les recettes pompettes by Poulpe",
            "popularity": 0.6
        },
        {
            "id": 68038,
            "original_name": "Pomo Piilossa Suomi",
            "popularity": 0.6
        },
        {
            "id": 73831,
            "original_name": "MILPOM\u2605",
            "popularity": 0.6
        },
        {
            "id": 75676,
            "original_name": "Pompei",
            "popularity": 4.976
        },
        {
            "id": 78671,
            "original_name": "Pompei Ieri Oggi e Domani",
            "popularity": 0.672
        },
        {
            "id": 85822,
            "original_name": "Pompiers: la rel\u00e8ve",
            "popularity": 0.6
        },
        {
            "id": 86218,
            "original_name": "Pompeii's Final Hours: New Evidence",
            "popularity": 1.658
        },
        {
            "id": 90197,
            "original_name": "\u017bubr Pompik",
            "popularity": 0.6
        },
        {
            "id": 91018,
            "original_name": "La pasta pomil\u03c9ri",
            "popularity": 0.6
        },
        {
            "id": 92790,
            "original_name": "Gladiadores de Pompeya",
            "popularity": 0.889
        },
        {
            "id": 93262,
            "original_name": "Les belles histoires de Pomme d'Api",
            "popularity": 1.02
        },
        {
            "id": 94060,
            "original_name": "Co na\u0161e babi\u010dky um\u011bly a na co my jsme zapomn\u011bli",
            "popularity": 4.574
        },
        {
            "id": 94509,
            "original_name": "De avonturen van Pim & Pom",
            "popularity": 0.893
        },
        {
            "id": 98617,
            "original_name": "Pom Arthun",
            "popularity": 0.6
        },
        {
            "id": 99190,
            "original_name": "Les fugitifs de Pomp\u00e9i",
            "popularity": 0.6
        },
        {
            "id": 101795,
            "original_name": "Pom-Pom mes\u00e9i",
            "popularity": 0.6
        },
        {
            "id": 109376,
            "original_name": "Los \u00faltimos d\u00edas de Pompeya",
            "popularity": 0.6
        },
        {
            "id": 111389,
            "original_name": "Pom Arthun",
            "popularity": 0.6
        },
        {
            "id": 111631,
            "original_name": "Pompel og Pilt - Reparat\u00f8rene kommer",
            "popularity": 0.6
        },
        {
            "id": 112528,
            "original_name": "Chante-moi la pomme",
            "popularity": 0.605
        },
        {
            "id": 114567,
            "original_name": "Pompei - Gli ultimi giorni",
            "popularity": 0.89
        },
        {
            "id": 118368,
            "original_name": "Pompon Ours",
            "popularity": 0.619
        },
        {
            "id": 123714,
            "original_name": "Pommetje Horlepiep",
            "popularity": 0.6
        },
        {
            "id": 126010,
            "original_name": "Pomys\u0142owy Dobromir",
            "popularity": 0.6
        },
        {
            "id": 127342,
            "original_name": "V. V. \u0160tech vypravuje a vzpom\u00edn\u00e1",
            "popularity": 0.6
        },
        {
            "id": 129320,
            "original_name": "Pompiers leur vie en direct",
            "popularity": 0.6
        },
        {
            "id": 132092,
            "original_name": "LOL: Enga Siri Paappom",
            "popularity": 11.825
        },
        {
            "id": 133712,
            "original_name": "Les derni\u00e8res heures de Pomp\u00e9i",
            "popularity": 0.718
        },
        {
            "id": 133901,
            "original_name": "Jeanne Poisson, Marquise de Pompadour",
            "popularity": 0.6
        },
        {
            "id": 139072,
            "original_name": "Pompeii Life and Death in a Roman Town",
            "popularity": 0.6
        }
    ],
    "relations": [
        {
            "character": "pomp"
        },
        {
            "character": "pome"
        },
        {
            "character": "pomy"
        },
        {
            "character": "pomo"
        },
        {
            "character": "pomi"
        },
        {
            "character": "pomm"
        },
        {
            "character": "pomn"
        }
    ],
    "top20": [
        {
            "id": 132092,
            "original_name": "LOL: Enga Siri Paappom",
            "popularity": 11.825
        },
        {
            "id": 75676,
            "original_name": "Pompei",
            "popularity": 4.976
        },
        {
            "id": 94060,
            "original_name": "Co na\u0161e babi\u010dky um\u011bly a na co my jsme zapomn\u011bli",
            "popularity": 4.574
        },
        {
            "id": 64646,
            "original_name": "Les recettes pompettes",
            "popularity": 2.574
        },
        {
            "id": 20755,
            "original_name": "The Last Days of Pompeii",
            "popularity": 2.031
        },
        {
            "id": 2021,
            "original_name": "Up Pompeii!",
            "popularity": 1.909
        },
        {
            "id": 86218,
            "original_name": "Pompeii's Final Hours: New Evidence",
            "popularity": 1.658
        },
        {
            "id": 46954,
            "original_name": "Pompidou",
            "popularity": 1.252
        },
        {
            "id": 41189,
            "original_name": "Schlo\u00df Pompon Rouge",
            "popularity": 1.153
        },
        {
            "id": 93262,
            "original_name": "Les belles histoires de Pomme d'Api",
            "popularity": 1.02
        },
        {
            "id": 94509,
            "original_name": "De avonturen van Pim & Pom",
            "popularity": 0.893
        },
        {
            "id": 114567,
            "original_name": "Pompei - Gli ultimi giorni",
            "popularity": 0.89
        },
        {
            "id": 92790,
            "original_name": "Gladiadores de Pompeya",
            "popularity": 0.889
        },
        {
            "id": 133712,
            "original_name": "Les derni\u00e8res heures de Pomp\u00e9i",
            "popularity": 0.718
        },
        {
            "id": 40222,
            "original_name": "Pompeii: The Last Day",
            "popularity": 0.713
        },
        {
            "id": 78671,
            "original_name": "Pompei Ieri Oggi e Domani",
            "popularity": 0.672
        },
        {
            "id": 118368,
            "original_name": "Pompon Ours",
            "popularity": 0.619
        },
        {
            "id": 112528,
            "original_name": "Chante-moi la pomme",
            "popularity": 0.605
        },
        {
            "id": 13847,
            "original_name": "The Winjin Pom",
            "popularity": 0.602
        },
        {
            "id": 30902,
            "original_name": "Pomeriggio Cinque",
            "popularity": 0.6
        }
    ]
}