{
    "data": [
        {
            "id": 16369,
            "original_name": "Poot Mae Nam Khong",
            "popularity": 0.6
        },
        {
            "id": 26325,
            "original_name": "'t Schaep met de 5 Pooten",
            "popularity": 1.272
        },
        {
            "id": 40728,
            "original_name": "Engel im Einsatz \u2013 mit Verona Pooth",
            "popularity": 0.6
        },
        {
            "id": 52436,
            "original_name": "Poot-Ruk-Na-Mo",
            "popularity": 0.6
        },
        {
            "id": 59003,
            "original_name": "Poot Pissawas",
            "popularity": 0.6
        },
        {
            "id": 66509,
            "original_name": "Q Pootle 5",
            "popularity": 1.445
        },
        {
            "id": 97514,
            "original_name": "Poot Pitsawat (2019)",
            "popularity": 0.6
        }
    ],
    "relations": [],
    "top20": [
        {
            "id": 16369,
            "original_name": "Poot Mae Nam Khong",
            "popularity": 0.6
        },
        {
            "id": 26325,
            "original_name": "'t Schaep met de 5 Pooten",
            "popularity": 1.272
        },
        {
            "id": 40728,
            "original_name": "Engel im Einsatz \u2013 mit Verona Pooth",
            "popularity": 0.6
        },
        {
            "id": 52436,
            "original_name": "Poot-Ruk-Na-Mo",
            "popularity": 0.6
        },
        {
            "id": 59003,
            "original_name": "Poot Pissawas",
            "popularity": 0.6
        },
        {
            "id": 66509,
            "original_name": "Q Pootle 5",
            "popularity": 1.445
        },
        {
            "id": 97514,
            "original_name": "Poot Pitsawat (2019)",
            "popularity": 0.6
        }
    ]
}