{
    "data": [
        {
            "id": 56222,
            "original_name": "Porb Apartment",
            "popularity": 0.6
        }
    ],
    "relations": [],
    "top20": [
        {
            "id": 56222,
            "original_name": "Porb Apartment",
            "popularity": 0.6
        }
    ]
}