{
    "data": [
        {
            "id": 129992,
            "original_name": "pornhub",
            "popularity": 1.4
        }
    ],
    "relations": [],
    "top20": [
        {
            "id": 129992,
            "original_name": "pornhub",
            "popularity": 1.4
        }
    ]
}