{
    "data": [
        {
            "id": 7141,
            "original_name": "Important Things with Demetri Martin",
            "popularity": 4.512
        },
        {
            "id": 20335,
            "original_name": "The Most Important Person",
            "popularity": 0.6
        },
        {
            "id": 24040,
            "original_name": "Dave Gorman's Important Astrological Experiment",
            "popularity": 0.6
        },
        {
            "id": 25548,
            "original_name": "The Importance of Being Famous",
            "popularity": 0.928
        },
        {
            "id": 32787,
            "original_name": "The Most Important People",
            "popularity": 0.6
        },
        {
            "id": 42932,
            "original_name": "The important thing to Mage",
            "popularity": 0.6
        },
        {
            "id": 44215,
            "original_name": "Very Important People",
            "popularity": 0.6
        },
        {
            "id": 65463,
            "original_name": "Dave Gorman's Important Astrology Experiment",
            "popularity": 0.6
        },
        {
            "id": 105630,
            "original_name": "Important Thing is Love (1971)",
            "popularity": 0.62
        },
        {
            "id": 138473,
            "original_name": "Pau Gasol - Lo importante es el Viaje",
            "popularity": 2.599
        }
    ],
    "relations": [],
    "top20": [
        {
            "id": 7141,
            "original_name": "Important Things with Demetri Martin",
            "popularity": 4.512
        },
        {
            "id": 20335,
            "original_name": "The Most Important Person",
            "popularity": 0.6
        },
        {
            "id": 24040,
            "original_name": "Dave Gorman's Important Astrological Experiment",
            "popularity": 0.6
        },
        {
            "id": 25548,
            "original_name": "The Importance of Being Famous",
            "popularity": 0.928
        },
        {
            "id": 32787,
            "original_name": "The Most Important People",
            "popularity": 0.6
        },
        {
            "id": 42932,
            "original_name": "The important thing to Mage",
            "popularity": 0.6
        },
        {
            "id": 44215,
            "original_name": "Very Important People",
            "popularity": 0.6
        },
        {
            "id": 65463,
            "original_name": "Dave Gorman's Important Astrology Experiment",
            "popularity": 0.6
        },
        {
            "id": 105630,
            "original_name": "Important Thing is Love (1971)",
            "popularity": 0.62
        },
        {
            "id": 138473,
            "original_name": "Pau Gasol - Lo importante es el Viaje",
            "popularity": 2.599
        }
    ]
}