{
    "data": [
        {
            "id": 6630,
            "original_name": "The Last 10 Pounds Bootcamp",
            "popularity": 0.6
        },
        {
            "id": 24312,
            "original_name": "The Paula Poundstone Show",
            "popularity": 0.6
        },
        {
            "id": 40349,
            "original_name": "Two Hundred Pounds Beauty",
            "popularity": 0.6
        },
        {
            "id": 54701,
            "original_name": "How to Lose a Million Pounds",
            "popularity": 0.6
        },
        {
            "id": 59295,
            "original_name": "The Paula Poundstone Show",
            "popularity": 0.6
        }
    ],
    "relations": [],
    "top20": [
        {
            "id": 6630,
            "original_name": "The Last 10 Pounds Bootcamp",
            "popularity": 0.6
        },
        {
            "id": 24312,
            "original_name": "The Paula Poundstone Show",
            "popularity": 0.6
        },
        {
            "id": 40349,
            "original_name": "Two Hundred Pounds Beauty",
            "popularity": 0.6
        },
        {
            "id": 54701,
            "original_name": "How to Lose a Million Pounds",
            "popularity": 0.6
        },
        {
            "id": 59295,
            "original_name": "The Paula Poundstone Show",
            "popularity": 0.6
        }
    ]
}