{
    "data": [
        {
            "id": 6347,
            "original_name": "The Gunpowder Plot: Exploding The Legend",
            "popularity": 0.6
        },
        {
            "id": 13406,
            "original_name": "Gunpowder, Treason & Plot",
            "popularity": 3.669
        },
        {
            "id": 31611,
            "original_name": "Powder",
            "popularity": 0.6
        },
        {
            "id": 56861,
            "original_name": "MAX Sessions: Powderfinger, Concert for the Cure",
            "popularity": 0.6
        },
        {
            "id": 63042,
            "original_name": "Powder Park",
            "popularity": 0.949
        },
        {
            "id": 73550,
            "original_name": "Gunpowder",
            "popularity": 9.791
        },
        {
            "id": 86665,
            "original_name": "Powder dry",
            "popularity": 0.6
        }
    ],
    "relations": [],
    "top20": [
        {
            "id": 6347,
            "original_name": "The Gunpowder Plot: Exploding The Legend",
            "popularity": 0.6
        },
        {
            "id": 13406,
            "original_name": "Gunpowder, Treason & Plot",
            "popularity": 3.669
        },
        {
            "id": 31611,
            "original_name": "Powder",
            "popularity": 0.6
        },
        {
            "id": 56861,
            "original_name": "MAX Sessions: Powderfinger, Concert for the Cure",
            "popularity": 0.6
        },
        {
            "id": 63042,
            "original_name": "Powder Park",
            "popularity": 0.949
        },
        {
            "id": 73550,
            "original_name": "Gunpowder",
            "popularity": 9.791
        },
        {
            "id": 86665,
            "original_name": "Powder dry",
            "popularity": 0.6
        }
    ]
}