{
    "data": [
        {
            "id": 13792,
            "original_name": "Opowiadania Mumink\u00f3w",
            "popularity": 1.623
        },
        {
            "id": 81846,
            "original_name": "Pod powierzchni\u0105",
            "popularity": 1.707
        },
        {
            "id": 88957,
            "original_name": "Drwale i inne opowie\u015bci Bieszczadu",
            "popularity": 0.609
        }
    ],
    "relations": [],
    "top20": [
        {
            "id": 13792,
            "original_name": "Opowiadania Mumink\u00f3w",
            "popularity": 1.623
        },
        {
            "id": 81846,
            "original_name": "Pod powierzchni\u0105",
            "popularity": 1.707
        },
        {
            "id": 88957,
            "original_name": "Drwale i inne opowie\u015bci Bieszczadu",
            "popularity": 0.609
        }
    ]
}