{
    "data": [
        {
            "id": 3072,
            "original_name": "Stripperella",
            "popularity": 9.129
        },
        {
            "id": 61712,
            "original_name": "Klipperek",
            "popularity": 0.6
        }
    ],
    "relations": [],
    "top20": [
        {
            "id": 3072,
            "original_name": "Stripperella",
            "popularity": 9.129
        },
        {
            "id": 61712,
            "original_name": "Klipperek",
            "popularity": 0.6
        }
    ]
}