{
    "data": [
        {
            "id": 863,
            "original_name": "Peppermint Place",
            "popularity": 0.6
        },
        {
            "id": 864,
            "original_name": "Mr. Peppermint",
            "popularity": 0.6
        },
        {
            "id": 28459,
            "original_name": "The Peppermint Prince",
            "popularity": 0.6
        },
        {
            "id": 59491,
            "original_name": "The Peppermint Prince",
            "popularity": 0.6
        },
        {
            "id": 106127,
            "original_name": "Peppermint Park",
            "popularity": 0.6
        }
    ],
    "relations": [],
    "top20": [
        {
            "id": 863,
            "original_name": "Peppermint Place",
            "popularity": 0.6
        },
        {
            "id": 864,
            "original_name": "Mr. Peppermint",
            "popularity": 0.6
        },
        {
            "id": 28459,
            "original_name": "The Peppermint Prince",
            "popularity": 0.6
        },
        {
            "id": 59491,
            "original_name": "The Peppermint Prince",
            "popularity": 0.6
        },
        {
            "id": 106127,
            "original_name": "Peppermint Park",
            "popularity": 0.6
        }
    ]
}