{
    "data": [
        {
            "id": 43647,
            "original_name": "Applied Mathematics",
            "popularity": 0.6
        },
        {
            "id": 80140,
            "original_name": "Le JAP, juge d'application des peines",
            "popularity": 0.6
        }
    ],
    "relations": [],
    "top20": [
        {
            "id": 43647,
            "original_name": "Applied Mathematics",
            "popularity": 0.6
        },
        {
            "id": 80140,
            "original_name": "Le JAP, juge d'application des peines",
            "popularity": 0.6
        }
    ]
}