{
    "data": [
        {
            "id": 68847,
            "original_name": "Tom der Abschleppwagen",
            "popularity": 0.6
        }
    ],
    "relations": [],
    "top20": [
        {
            "id": 68847,
            "original_name": "Tom der Abschleppwagen",
            "popularity": 0.6
        }
    ]
}