{
    "data": [
        {
            "id": 1781,
            "original_name": "Little House on the Prairie",
            "popularity": 37.918
        },
        {
            "id": 3813,
            "original_name": "Little Mosque on the Prairie",
            "popularity": 6.93
        },
        {
            "id": 5636,
            "original_name": "Prairie Fire",
            "popularity": 0.6
        },
        {
            "id": 9185,
            "original_name": "Little Dogs on the Prairie",
            "popularity": 0.6
        },
        {
            "id": 9993,
            "original_name": "Praise the Lord",
            "popularity": 1.4
        },
        {
            "id": 10567,
            "original_name": "Puttnam's Prairie Emporium",
            "popularity": 0.6
        },
        {
            "id": 15717,
            "original_name": "Little House on the Prairie",
            "popularity": 5.006
        },
        {
            "id": 20385,
            "original_name": "Songs of Praise",
            "popularity": 2.253
        },
        {
            "id": 21815,
            "original_name": "On the Prairie",
            "popularity": 0.6
        },
        {
            "id": 23993,
            "original_name": "Appraisal Fair",
            "popularity": 0.6
        },
        {
            "id": 24083,
            "original_name": "Appraise It!",
            "popularity": 0.6
        },
        {
            "id": 25120,
            "original_name": "Prairie Giant: The Tommy Douglas Story",
            "popularity": 1.473
        },
        {
            "id": 28425,
            "original_name": "Laura the Prairie Girl",
            "popularity": 0.6
        },
        {
            "id": 33750,
            "original_name": "Prairie Spotlight",
            "popularity": 0.6
        },
        {
            "id": 33846,
            "original_name": "Prairie Profile",
            "popularity": 0.6
        },
        {
            "id": 51840,
            "original_name": "Plerng Prai",
            "popularity": 0.6
        },
        {
            "id": 52319,
            "original_name": "Prai Pradtana",
            "popularity": 0.6
        },
        {
            "id": 52817,
            "original_name": "Pin Prai",
            "popularity": 0.6
        },
        {
            "id": 52853,
            "original_name": "Phu Pha Prai Mai",
            "popularity": 0.6
        },
        {
            "id": 56275,
            "original_name": "Mae Sri Prai",
            "popularity": 0.6
        },
        {
            "id": 58821,
            "original_name": "Little Mouse on the Prairie",
            "popularity": 0.6
        },
        {
            "id": 82451,
            "original_name": "Little Life on the Prairie",
            "popularity": 0.6
        },
        {
            "id": 91884,
            "original_name": "Chalets des Prairies",
            "popularity": 0.6
        },
        {
            "id": 94941,
            "original_name": "Prairie Dog Manor",
            "popularity": 0.651
        }
    ],
    "relations": [
        {
            "character": "prair"
        },
        {
            "character": "prais"
        }
    ],
    "top20": [
        {
            "id": 1781,
            "original_name": "Little House on the Prairie",
            "popularity": 37.918
        },
        {
            "id": 3813,
            "original_name": "Little Mosque on the Prairie",
            "popularity": 6.93
        },
        {
            "id": 15717,
            "original_name": "Little House on the Prairie",
            "popularity": 5.006
        },
        {
            "id": 20385,
            "original_name": "Songs of Praise",
            "popularity": 2.253
        },
        {
            "id": 25120,
            "original_name": "Prairie Giant: The Tommy Douglas Story",
            "popularity": 1.473
        },
        {
            "id": 9993,
            "original_name": "Praise the Lord",
            "popularity": 1.4
        },
        {
            "id": 94941,
            "original_name": "Prairie Dog Manor",
            "popularity": 0.651
        },
        {
            "id": 24083,
            "original_name": "Appraise It!",
            "popularity": 0.6
        },
        {
            "id": 21815,
            "original_name": "On the Prairie",
            "popularity": 0.6
        },
        {
            "id": 51840,
            "original_name": "Plerng Prai",
            "popularity": 0.6
        },
        {
            "id": 5636,
            "original_name": "Prairie Fire",
            "popularity": 0.6
        },
        {
            "id": 28425,
            "original_name": "Laura the Prairie Girl",
            "popularity": 0.6
        },
        {
            "id": 52817,
            "original_name": "Pin Prai",
            "popularity": 0.6
        },
        {
            "id": 33750,
            "original_name": "Prairie Spotlight",
            "popularity": 0.6
        },
        {
            "id": 52319,
            "original_name": "Prai Pradtana",
            "popularity": 0.6
        },
        {
            "id": 10567,
            "original_name": "Puttnam's Prairie Emporium",
            "popularity": 0.6
        },
        {
            "id": 52853,
            "original_name": "Phu Pha Prai Mai",
            "popularity": 0.6
        },
        {
            "id": 9185,
            "original_name": "Little Dogs on the Prairie",
            "popularity": 0.6
        },
        {
            "id": 23993,
            "original_name": "Appraisal Fair",
            "popularity": 0.6
        },
        {
            "id": 33846,
            "original_name": "Prairie Profile",
            "popularity": 0.6
        }
    ]
}