{
    "data": [
        {
            "id": 13523,
            "original_name": "Chopratown",
            "popularity": 0.6
        },
        {
            "id": 34424,
            "original_name": "Rishton Se Badi Pratha",
            "popularity": 0.6
        },
        {
            "id": 51964,
            "original_name": "Mandelbaum Balash Prati",
            "popularity": 0.6
        },
        {
            "id": 56718,
            "original_name": "Girl Cup Rab Huajai Sai Pratoo",
            "popularity": 0.6
        },
        {
            "id": 60118,
            "original_name": "Bharat Ka Veer Putra \u2013 Maharana Pratap",
            "popularity": 0.62
        },
        {
            "id": 66307,
            "original_name": "Pratos Combinados",
            "popularity": 1.888
        },
        {
            "id": 83076,
            "original_name": "Pratigya",
            "popularity": 0.6
        },
        {
            "id": 89012,
            "original_name": "Suns, kur\u0161 prata dzied\u0101t",
            "popularity": 1.4
        },
        {
            "id": 95526,
            "original_name": "La pratique du loisir au Canada",
            "popularity": 0.6
        },
        {
            "id": 96582,
            "original_name": "Prata da Casa",
            "popularity": 0.889
        },
        {
            "id": 115017,
            "original_name": "We moeten eens praten",
            "popularity": 0.84
        },
        {
            "id": 123376,
            "original_name": "Terry Pratchett: Living with Alzheimer's",
            "popularity": 0.6
        },
        {
            "id": 124269,
            "original_name": "Prato do Dia",
            "popularity": 0.6
        },
        {
            "id": 135246,
            "original_name": "The Life and Times of Henry Pratt",
            "popularity": 0.6
        },
        {
            "id": 138189,
            "original_name": "Pratiksha",
            "popularity": 0.6
        },
        {
            "id": 152356,
            "original_name": "Ashish Pratap",
            "popularity": 2.146
        }
    ],
    "relations": [],
    "top20": [
        {
            "id": 13523,
            "original_name": "Chopratown",
            "popularity": 0.6
        },
        {
            "id": 34424,
            "original_name": "Rishton Se Badi Pratha",
            "popularity": 0.6
        },
        {
            "id": 51964,
            "original_name": "Mandelbaum Balash Prati",
            "popularity": 0.6
        },
        {
            "id": 56718,
            "original_name": "Girl Cup Rab Huajai Sai Pratoo",
            "popularity": 0.6
        },
        {
            "id": 60118,
            "original_name": "Bharat Ka Veer Putra \u2013 Maharana Pratap",
            "popularity": 0.62
        },
        {
            "id": 66307,
            "original_name": "Pratos Combinados",
            "popularity": 1.888
        },
        {
            "id": 83076,
            "original_name": "Pratigya",
            "popularity": 0.6
        },
        {
            "id": 89012,
            "original_name": "Suns, kur\u0161 prata dzied\u0101t",
            "popularity": 1.4
        },
        {
            "id": 95526,
            "original_name": "La pratique du loisir au Canada",
            "popularity": 0.6
        },
        {
            "id": 96582,
            "original_name": "Prata da Casa",
            "popularity": 0.889
        },
        {
            "id": 115017,
            "original_name": "We moeten eens praten",
            "popularity": 0.84
        },
        {
            "id": 123376,
            "original_name": "Terry Pratchett: Living with Alzheimer's",
            "popularity": 0.6
        },
        {
            "id": 124269,
            "original_name": "Prato do Dia",
            "popularity": 0.6
        },
        {
            "id": 135246,
            "original_name": "The Life and Times of Henry Pratt",
            "popularity": 0.6
        },
        {
            "id": 138189,
            "original_name": "Pratiksha",
            "popularity": 0.6
        },
        {
            "id": 152356,
            "original_name": "Ashish Pratap",
            "popularity": 2.146
        }
    ]
}