{
    "data": [
        {
            "id": 13029,
            "original_name": "Mr. President",
            "popularity": 0.695
        },
        {
            "id": 13867,
            "original_name": "Super President",
            "popularity": 0.6
        },
        {
            "id": 15979,
            "original_name": "Visible Vote '08: A Presidential Forum",
            "popularity": 0.6
        },
        {
            "id": 16648,
            "original_name": "CNN/YouTube presidential debates",
            "popularity": 0.6
        },
        {
            "id": 18916,
            "original_name": "American Presidents: Life Portraits",
            "popularity": 0.84
        },
        {
            "id": 19010,
            "original_name": "'76 Presidential Debates",
            "popularity": 0.6
        },
        {
            "id": 19192,
            "original_name": "Al\u00f3 Presidente",
            "popularity": 0.6
        },
        {
            "id": 20077,
            "original_name": "Kids Pick the President",
            "popularity": 0.6
        },
        {
            "id": 30135,
            "original_name": "The American President",
            "popularity": 0.6
        },
        {
            "id": 31727,
            "original_name": "Civil Forum on the Presidency",
            "popularity": 0.6
        },
        {
            "id": 33261,
            "original_name": "The Presidents",
            "popularity": 0.877
        },
        {
            "id": 38988,
            "original_name": "Isla Presidencial",
            "popularity": 0.6
        },
        {
            "id": 38990,
            "original_name": "La hija de presidente",
            "popularity": 0.6
        },
        {
            "id": 44693,
            "original_name": "President Obama\u2019s 2011 Race To The Top Commencement Challenge",
            "popularity": 0.6
        },
        {
            "id": 47304,
            "original_name": "The 52nd Presidential Inaugural Gala",
            "popularity": 0.6
        },
        {
            "id": 47308,
            "original_name": "United States presidential inaugural balls",
            "popularity": 0.6
        },
        {
            "id": 48609,
            "original_name": "Say Goodbye to the President: Marilyn and The Kennedys",
            "popularity": 0.6
        },
        {
            "id": 48690,
            "original_name": "JFK: A Presidency Revealed",
            "popularity": 0.6
        },
        {
            "id": 49107,
            "original_name": "Lily for President?",
            "popularity": 0.6
        },
        {
            "id": 49187,
            "original_name": "Command Performance: The Stars Salute the President",
            "popularity": 0.6
        },
        {
            "id": 54914,
            "original_name": "They've Killed President Lincoln!",
            "popularity": 0.6
        },
        {
            "id": 55692,
            "original_name": "The Ultimate Guide to the Presidents",
            "popularity": 0.6
        },
        {
            "id": 55845,
            "original_name": "Van Rossem For President",
            "popularity": 0.6
        },
        {
            "id": 55887,
            "original_name": "43 A Personal Look at President George W. Bush",
            "popularity": 0.6
        },
        {
            "id": 56244,
            "original_name": "The Making of the President: 1964",
            "popularity": 0.6
        },
        {
            "id": 56254,
            "original_name": "All the President's Men Revisited",
            "popularity": 0.6
        },
        {
            "id": 56292,
            "original_name": "The Making of the President: 1960",
            "popularity": 0.6
        },
        {
            "id": 56369,
            "original_name": "The 53rd Presidential Inaugural Gala",
            "popularity": 0.6
        },
        {
            "id": 57499,
            "original_name": "Presidentin kanslia",
            "popularity": 0.6
        },
        {
            "id": 59068,
            "original_name": "The Presidents Gatekeepers",
            "popularity": 0.6
        },
        {
            "id": 60045,
            "original_name": "The President Versus David Hicks",
            "popularity": 0.6
        },
        {
            "id": 65230,
            "original_name": "Adolfo Suarez, El Presidente",
            "popularity": 0.6
        },
        {
            "id": 70081,
            "original_name": "Presidentti",
            "popularity": 0.6
        },
        {
            "id": 70157,
            "original_name": "Presidentin mies",
            "popularity": 0.712
        },
        {
            "id": 70158,
            "original_name": "Presidentin mies",
            "popularity": 0.6
        },
        {
            "id": 71074,
            "original_name": "The President Show",
            "popularity": 2.909
        },
        {
            "id": 73270,
            "original_name": "Mr. Student Body President",
            "popularity": 3.367
        },
        {
            "id": 74925,
            "original_name": "Aldo Moro - Il Presidente",
            "popularity": 1.59
        },
        {
            "id": 75804,
            "original_name": "Our Cartoon President",
            "popularity": 6.431
        },
        {
            "id": 78704,
            "original_name": "Bobby Kennedy for President",
            "popularity": 2.536
        },
        {
            "id": 80433,
            "original_name": "A Secret\u00e1ria do Presidente",
            "popularity": 0.6
        },
        {
            "id": 81628,
            "original_name": "Todos Quer\u00edamos Matar Al Presidente",
            "popularity": 0.6
        },
        {
            "id": 83170,
            "original_name": "Enemies: The President, Justice & the FBI",
            "popularity": 0.68
        },
        {
            "id": 86794,
            "original_name": "Presidents at War",
            "popularity": 0.6
        },
        {
            "id": 88000,
            "original_name": "Red Tsars. Presidents of Russia",
            "popularity": 0.6
        },
        {
            "id": 92315,
            "original_name": "Presidentes en Guerra",
            "popularity": 0.6
        },
        {
            "id": 94761,
            "original_name": "Diary of a Future President",
            "popularity": 11.322
        },
        {
            "id": 97164,
            "original_name": "Nisman: El fiscal, la presidenta y el esp\u00eda",
            "popularity": 2.086
        },
        {
            "id": 101881,
            "original_name": "El Presidente",
            "popularity": 16.253
        },
        {
            "id": 107160,
            "original_name": "La mujer del presidente",
            "popularity": 1.461
        },
        {
            "id": 117249,
            "original_name": "Jefferson Davis: An American President",
            "popularity": 0.6
        },
        {
            "id": 118519,
            "original_name": "Nozaki Shuhei President of Bank",
            "popularity": 0.628
        },
        {
            "id": 122927,
            "original_name": "The Reagan Presidency",
            "popularity": 0.6
        },
        {
            "id": 124603,
            "original_name": "Madam President",
            "popularity": 0.6
        },
        {
            "id": 125941,
            "original_name": "Isla Presidencial",
            "popularity": 0.6
        },
        {
            "id": 132619,
            "original_name": "Ronaldo El Presidente",
            "popularity": 0.6
        },
        {
            "id": 138911,
            "original_name": "Camilo - O Presidente",
            "popularity": 0.6
        }
    ],
    "relations": [
        {
            "character": "president"
        },
        {
            "character": "presidenc"
        }
    ],
    "top20": [
        {
            "id": 101881,
            "original_name": "El Presidente",
            "popularity": 16.253
        },
        {
            "id": 94761,
            "original_name": "Diary of a Future President",
            "popularity": 11.322
        },
        {
            "id": 75804,
            "original_name": "Our Cartoon President",
            "popularity": 6.431
        },
        {
            "id": 73270,
            "original_name": "Mr. Student Body President",
            "popularity": 3.367
        },
        {
            "id": 71074,
            "original_name": "The President Show",
            "popularity": 2.909
        },
        {
            "id": 78704,
            "original_name": "Bobby Kennedy for President",
            "popularity": 2.536
        },
        {
            "id": 97164,
            "original_name": "Nisman: El fiscal, la presidenta y el esp\u00eda",
            "popularity": 2.086
        },
        {
            "id": 74925,
            "original_name": "Aldo Moro - Il Presidente",
            "popularity": 1.59
        },
        {
            "id": 107160,
            "original_name": "La mujer del presidente",
            "popularity": 1.461
        },
        {
            "id": 33261,
            "original_name": "The Presidents",
            "popularity": 0.877
        },
        {
            "id": 18916,
            "original_name": "American Presidents: Life Portraits",
            "popularity": 0.84
        },
        {
            "id": 70157,
            "original_name": "Presidentin mies",
            "popularity": 0.712
        },
        {
            "id": 13029,
            "original_name": "Mr. President",
            "popularity": 0.695
        },
        {
            "id": 83170,
            "original_name": "Enemies: The President, Justice & the FBI",
            "popularity": 0.68
        },
        {
            "id": 118519,
            "original_name": "Nozaki Shuhei President of Bank",
            "popularity": 0.628
        },
        {
            "id": 16648,
            "original_name": "CNN/YouTube presidential debates",
            "popularity": 0.6
        },
        {
            "id": 19010,
            "original_name": "'76 Presidential Debates",
            "popularity": 0.6
        },
        {
            "id": 15979,
            "original_name": "Visible Vote '08: A Presidential Forum",
            "popularity": 0.6
        },
        {
            "id": 13867,
            "original_name": "Super President",
            "popularity": 0.6
        },
        {
            "id": 19192,
            "original_name": "Al\u00f3 Presidente",
            "popularity": 0.6
        }
    ]
}