{
    "data": [
        {
            "id": 30421,
            "original_name": "Capriccio",
            "popularity": 0.6
        },
        {
            "id": 43507,
            "original_name": "Capriccio",
            "popularity": 0.6
        }
    ],
    "relations": [],
    "top20": [
        {
            "id": 30421,
            "original_name": "Capriccio",
            "popularity": 0.6
        },
        {
            "id": 43507,
            "original_name": "Capriccio",
            "popularity": 0.6
        }
    ]
}