{
    "data": [
        {
            "id": 6780,
            "original_name": "Prinsesa ng Banyera",
            "popularity": 0.6
        },
        {
            "id": 41277,
            "original_name": "Der Prins mu\u00df her",
            "popularity": 0.6
        },
        {
            "id": 42173,
            "original_name": "Felina: Prinsesa ng mga Pusa",
            "popularity": 0.848
        },
        {
            "id": 50267,
            "original_name": "Juliana, prinses van oranje",
            "popularity": 0.6
        },
        {
            "id": 57317,
            "original_name": "Iskelm\u00e4prinssi",
            "popularity": 0.6
        },
        {
            "id": 59959,
            "original_name": "Prinsesa ng Buhay Ko",
            "popularity": 0.6
        },
        {
            "id": 68868,
            "original_name": "Prinsesser fra Blokken",
            "popularity": 0.849
        },
        {
            "id": 70444,
            "original_name": "Prinsessia",
            "popularity": 0.6
        },
        {
            "id": 73770,
            "original_name": "Kronprinsessan",
            "popularity": 0.838
        },
        {
            "id": 76795,
            "original_name": "Kroonprinsen",
            "popularity": 0.6
        },
        {
            "id": 113617,
            "original_name": "P\u00e5 tur med Kronprinsen",
            "popularity": 0.6
        },
        {
            "id": 119190,
            "original_name": "Prins Joachim fort\u00e6ller",
            "popularity": 0.6
        },
        {
            "id": 120240,
            "original_name": "Jan Thomas s\u00f8ker dr\u00f8mmeprinsen",
            "popularity": 0.6
        }
    ],
    "relations": [],
    "top20": [
        {
            "id": 6780,
            "original_name": "Prinsesa ng Banyera",
            "popularity": 0.6
        },
        {
            "id": 41277,
            "original_name": "Der Prins mu\u00df her",
            "popularity": 0.6
        },
        {
            "id": 42173,
            "original_name": "Felina: Prinsesa ng mga Pusa",
            "popularity": 0.848
        },
        {
            "id": 50267,
            "original_name": "Juliana, prinses van oranje",
            "popularity": 0.6
        },
        {
            "id": 57317,
            "original_name": "Iskelm\u00e4prinssi",
            "popularity": 0.6
        },
        {
            "id": 59959,
            "original_name": "Prinsesa ng Buhay Ko",
            "popularity": 0.6
        },
        {
            "id": 68868,
            "original_name": "Prinsesser fra Blokken",
            "popularity": 0.849
        },
        {
            "id": 70444,
            "original_name": "Prinsessia",
            "popularity": 0.6
        },
        {
            "id": 73770,
            "original_name": "Kronprinsessan",
            "popularity": 0.838
        },
        {
            "id": 76795,
            "original_name": "Kroonprinsen",
            "popularity": 0.6
        },
        {
            "id": 113617,
            "original_name": "P\u00e5 tur med Kronprinsen",
            "popularity": 0.6
        },
        {
            "id": 119190,
            "original_name": "Prins Joachim fort\u00e6ller",
            "popularity": 0.6
        },
        {
            "id": 120240,
            "original_name": "Jan Thomas s\u00f8ker dr\u00f8mmeprinsen",
            "popularity": 0.6
        }
    ]
}