{
    "data": [
        {
            "id": 82017,
            "original_name": "Dokumentarna produkcija HRT-a",
            "popularity": 0.6
        },
        {
            "id": 100701,
            "original_name": "Light Garden Academy - Profesion\u00e1ln\u00ed postprodukce V3",
            "popularity": 0.865
        }
    ],
    "relations": [],
    "top20": [
        {
            "id": 82017,
            "original_name": "Dokumentarna produkcija HRT-a",
            "popularity": 0.6
        },
        {
            "id": 100701,
            "original_name": "Light Garden Academy - Profesion\u00e1ln\u00ed postprodukce V3",
            "popularity": 0.865
        }
    ]
}