{
    "data": [
        {
            "id": 33918,
            "original_name": "Drenaje Profundo",
            "popularity": 1.035
        },
        {
            "id": 93477,
            "original_name": "Profu'",
            "popularity": 1.4
        },
        {
            "id": 138506,
            "original_name": "Amar profundo",
            "popularity": 35.247
        }
    ],
    "relations": [],
    "top20": [
        {
            "id": 33918,
            "original_name": "Drenaje Profundo",
            "popularity": 1.035
        },
        {
            "id": 93477,
            "original_name": "Profu'",
            "popularity": 1.4
        },
        {
            "id": 138506,
            "original_name": "Amar profundo",
            "popularity": 35.247
        }
    ]
}