{
    "data": [
        {
            "id": 11767,
            "original_name": "Yu-Gi-Oh! Capsule Monsters",
            "popularity": 17.202
        },
        {
            "id": 51605,
            "original_name": "Suepsuan Puan Kamlang 3",
            "popularity": 0.6
        },
        {
            "id": 79164,
            "original_name": "Harry Hill's Alien Fun Capsule",
            "popularity": 0.86
        },
        {
            "id": 89260,
            "original_name": "Shuudengo, Capsule Hotel de, Joushi ni Binetsu Tsutawaru Yoru.",
            "popularity": 1.4
        },
        {
            "id": 115366,
            "original_name": "Kriipsud uksepiidal",
            "popularity": 0.6
        }
    ],
    "relations": [],
    "top20": [
        {
            "id": 11767,
            "original_name": "Yu-Gi-Oh! Capsule Monsters",
            "popularity": 17.202
        },
        {
            "id": 51605,
            "original_name": "Suepsuan Puan Kamlang 3",
            "popularity": 0.6
        },
        {
            "id": 79164,
            "original_name": "Harry Hill's Alien Fun Capsule",
            "popularity": 0.86
        },
        {
            "id": 89260,
            "original_name": "Shuudengo, Capsule Hotel de, Joushi ni Binetsu Tsutawaru Yoru.",
            "popularity": 1.4
        },
        {
            "id": 115366,
            "original_name": "Kriipsud uksepiidal",
            "popularity": 0.6
        }
    ]
}