{
    "data": [
        {
            "id": 113992,
            "original_name": "PUBGOA",
            "popularity": 0.84
        }
    ],
    "relations": [],
    "top20": [
        {
            "id": 113992,
            "original_name": "PUBGOA",
            "popularity": 0.84
        }
    ]
}