{
    "data": [
        {
            "id": 13640,
            "original_name": "Hawkins Falls, Population 6200",
            "popularity": 0.6
        },
        {
            "id": 18253,
            "original_name": "The Population Explosion",
            "popularity": 0.6
        },
        {
            "id": 24611,
            "original_name": "The Manipulators",
            "popularity": 0.6
        },
        {
            "id": 57470,
            "original_name": "Manipulations : une histoire francaise",
            "popularity": 0.6
        },
        {
            "id": 120400,
            "original_name": "Manipulator",
            "popularity": 0.6
        }
    ],
    "relations": [],
    "top20": [
        {
            "id": 13640,
            "original_name": "Hawkins Falls, Population 6200",
            "popularity": 0.6
        },
        {
            "id": 18253,
            "original_name": "The Population Explosion",
            "popularity": 0.6
        },
        {
            "id": 24611,
            "original_name": "The Manipulators",
            "popularity": 0.6
        },
        {
            "id": 57470,
            "original_name": "Manipulations : une histoire francaise",
            "popularity": 0.6
        },
        {
            "id": 120400,
            "original_name": "Manipulator",
            "popularity": 0.6
        }
    ]
}