{
    "data": [
        {
            "id": 39896,
            "original_name": "Almenrausch und Pulverschnee",
            "popularity": 1.374
        },
        {
            "id": 41232,
            "original_name": "Die Pulverm\u00e4nner",
            "popularity": 0.84
        },
        {
            "id": 70381,
            "original_name": "Pulver",
            "popularity": 0.6
        }
    ],
    "relations": [],
    "top20": [
        {
            "id": 39896,
            "original_name": "Almenrausch und Pulverschnee",
            "popularity": 1.374
        },
        {
            "id": 41232,
            "original_name": "Die Pulverm\u00e4nner",
            "popularity": 0.84
        },
        {
            "id": 70381,
            "original_name": "Pulver",
            "popularity": 0.6
        }
    ]
}