{
    "data": [
        {
            "id": 84180,
            "original_name": "Spurred On: NZ At Passchendaele",
            "popularity": 0.6
        }
    ],
    "relations": [],
    "top20": [
        {
            "id": 84180,
            "original_name": "Spurred On: NZ At Passchendaele",
            "popularity": 0.6
        }
    ]
}