{
    "data": [
        {
            "id": 1178,
            "original_name": "Computerman",
            "popularity": 1.708
        },
        {
            "id": 2854,
            "original_name": "Dice: Undisputed",
            "popularity": 0.6
        },
        {
            "id": 3152,
            "original_name": "Computer Doctor",
            "popularity": 0.6
        },
        {
            "id": 8887,
            "original_name": "Thumb Candy: The History of Computer Games",
            "popularity": 0.6
        },
        {
            "id": 9821,
            "original_name": "Computer Chronicles",
            "popularity": 0.911
        },
        {
            "id": 14860,
            "original_name": "The Computer Programme",
            "popularity": 0.6
        },
        {
            "id": 32385,
            "original_name": "4 Computer Buffs",
            "popularity": 0.6
        },
        {
            "id": 51932,
            "original_name": "Cinta Puteri",
            "popularity": 0.6
        },
        {
            "id": 52112,
            "original_name": "Putejtsy",
            "popularity": 0.6
        },
        {
            "id": 55837,
            "original_name": "WDR Computer-Nacht",
            "popularity": 0.6
        },
        {
            "id": 72449,
            "original_name": "Crash Course Computer Science",
            "popularity": 0.6
        },
        {
            "id": 74893,
            "original_name": "Fubar Age of Computer",
            "popularity": 0.888
        },
        {
            "id": 77222,
            "original_name": "Dispute",
            "popularity": 0.6
        },
        {
            "id": 82880,
            "original_name": "Building an 8-bit breadboard computer!",
            "popularity": 0.6
        },
        {
            "id": 92304,
            "original_name": "Puteri Yang Ditukar",
            "popularity": 1.549
        },
        {
            "id": 100583,
            "original_name": "Puteri",
            "popularity": 0.6
        },
        {
            "id": 107086,
            "original_name": "Pelindung Seorang Puteri",
            "popularity": 0.6
        },
        {
            "id": 112417,
            "original_name": "BBC Computer Literacy Project",
            "popularity": 0.6
        },
        {
            "id": 116892,
            "original_name": "WDR Computer-Club",
            "popularity": 0.6
        },
        {
            "id": 120353,
            "original_name": "OK Computer",
            "popularity": 6.594
        }
    ],
    "relations": [],
    "top20": [
        {
            "id": 1178,
            "original_name": "Computerman",
            "popularity": 1.708
        },
        {
            "id": 2854,
            "original_name": "Dice: Undisputed",
            "popularity": 0.6
        },
        {
            "id": 3152,
            "original_name": "Computer Doctor",
            "popularity": 0.6
        },
        {
            "id": 8887,
            "original_name": "Thumb Candy: The History of Computer Games",
            "popularity": 0.6
        },
        {
            "id": 9821,
            "original_name": "Computer Chronicles",
            "popularity": 0.911
        },
        {
            "id": 14860,
            "original_name": "The Computer Programme",
            "popularity": 0.6
        },
        {
            "id": 32385,
            "original_name": "4 Computer Buffs",
            "popularity": 0.6
        },
        {
            "id": 51932,
            "original_name": "Cinta Puteri",
            "popularity": 0.6
        },
        {
            "id": 52112,
            "original_name": "Putejtsy",
            "popularity": 0.6
        },
        {
            "id": 55837,
            "original_name": "WDR Computer-Nacht",
            "popularity": 0.6
        },
        {
            "id": 72449,
            "original_name": "Crash Course Computer Science",
            "popularity": 0.6
        },
        {
            "id": 74893,
            "original_name": "Fubar Age of Computer",
            "popularity": 0.888
        },
        {
            "id": 77222,
            "original_name": "Dispute",
            "popularity": 0.6
        },
        {
            "id": 82880,
            "original_name": "Building an 8-bit breadboard computer!",
            "popularity": 0.6
        },
        {
            "id": 92304,
            "original_name": "Puteri Yang Ditukar",
            "popularity": 1.549
        },
        {
            "id": 100583,
            "original_name": "Puteri",
            "popularity": 0.6
        },
        {
            "id": 107086,
            "original_name": "Pelindung Seorang Puteri",
            "popularity": 0.6
        },
        {
            "id": 112417,
            "original_name": "BBC Computer Literacy Project",
            "popularity": 0.6
        },
        {
            "id": 116892,
            "original_name": "WDR Computer-Club",
            "popularity": 0.6
        },
        {
            "id": 120353,
            "original_name": "OK Computer",
            "popularity": 6.594
        }
    ]
}