{
    "data": [
        {
            "id": 49941,
            "original_name": "Aqso dan Madina",
            "popularity": 0.6
        },
        {
            "id": 54380,
            "original_name": "Al-Raqs ala Slalem Mothareka",
            "popularity": 0.6
        },
        {
            "id": 131035,
            "original_name": "Raqs-e-Bismil",
            "popularity": 0.873
        }
    ],
    "relations": [],
    "top20": [
        {
            "id": 49941,
            "original_name": "Aqso dan Madina",
            "popularity": 0.6
        },
        {
            "id": 54380,
            "original_name": "Al-Raqs ala Slalem Mothareka",
            "popularity": 0.6
        },
        {
            "id": 131035,
            "original_name": "Raqs-e-Bismil",
            "popularity": 0.873
        }
    ]
}