{
    "data": [
        {
            "id": 55706,
            "original_name": "Drama Queenz",
            "popularity": 0.636
        }
    ],
    "relations": [],
    "top20": [
        {
            "id": 55706,
            "original_name": "Drama Queenz",
            "popularity": 0.636
        }
    ]
}