{
    "data": [
        {
            "id": 41010,
            "original_name": "Questa casa non \u00e8 un albergo",
            "popularity": 0.6
        },
        {
            "id": 41362,
            "original_name": "Questa \u00e8 la mia terra",
            "popularity": 0.6
        }
    ],
    "relations": [],
    "top20": [
        {
            "id": 41010,
            "original_name": "Questa casa non \u00e8 un albergo",
            "popularity": 0.6
        },
        {
            "id": 41362,
            "original_name": "Questa \u00e8 la mia terra",
            "popularity": 0.6
        }
    ]
}