{
    "data": [
        {
            "id": 451,
            "original_name": "Aquila",
            "popularity": 1.289
        },
        {
            "id": 680,
            "original_name": "Shaquille",
            "popularity": 0.6
        },
        {
            "id": 1626,
            "original_name": "Tequila and Bonetti",
            "popularity": 1.622
        },
        {
            "id": 7221,
            "original_name": "A Shot at Love II with Tila Tequila",
            "popularity": 0.6
        },
        {
            "id": 8952,
            "original_name": "Azul Tequila",
            "popularity": 0.6
        },
        {
            "id": 13106,
            "original_name": "Chiquilladas",
            "popularity": 0.6
        },
        {
            "id": 14420,
            "original_name": "A Shot at Love with Tila Tequila",
            "popularity": 2.423
        },
        {
            "id": 14984,
            "original_name": "Lap Quilting with Georgia Bonesteel",
            "popularity": 0.6
        },
        {
            "id": 15392,
            "original_name": "Amor sin Maquillaje",
            "popularity": 0.6
        },
        {
            "id": 19971,
            "original_name": "Crazy Quilt",
            "popularity": 0.6
        },
        {
            "id": 21519,
            "original_name": "Quiller",
            "popularity": 1.633
        },
        {
            "id": 22452,
            "original_name": "Tequila",
            "popularity": 0.6
        },
        {
            "id": 26493,
            "original_name": "Chemical Equilibrium",
            "popularity": 0.6
        },
        {
            "id": 30140,
            "original_name": "Simply Quilts",
            "popularity": 0.6
        },
        {
            "id": 42480,
            "original_name": "Quilt in a Day",
            "popularity": 0.6
        },
        {
            "id": 44949,
            "original_name": "Marido en Alquiler",
            "popularity": 2.631
        },
        {
            "id": 45862,
            "original_name": "Sports Theater with Shaquille O'Neal",
            "popularity": 0.6
        },
        {
            "id": 58377,
            "original_name": "Upload with Shaquille O'Neal",
            "popularity": 0.6
        },
        {
            "id": 63321,
            "original_name": "El inquilino",
            "popularity": 1.749
        },
        {
            "id": 75686,
            "original_name": "L'uomo che sognava con le aquile",
            "popularity": 1.54
        },
        {
            "id": 89222,
            "original_name": "L'Aquila - Grandi speranze",
            "popularity": 2.212
        },
        {
            "id": 103668,
            "original_name": "Le Nuove Avventure di Tequila & Bonetti",
            "popularity": 0.6
        },
        {
            "id": 118721,
            "original_name": "Sin maquillaje",
            "popularity": 1.976
        },
        {
            "id": 126922,
            "original_name": "Inquilinos",
            "popularity": 0.6
        }
    ],
    "relations": [
        {
            "character": "quila"
        },
        {
            "character": "quill"
        },
        {
            "character": "quilt"
        },
        {
            "character": "quili"
        },
        {
            "character": "quile"
        }
    ],
    "top20": [
        {
            "id": 44949,
            "original_name": "Marido en Alquiler",
            "popularity": 2.631
        },
        {
            "id": 14420,
            "original_name": "A Shot at Love with Tila Tequila",
            "popularity": 2.423
        },
        {
            "id": 89222,
            "original_name": "L'Aquila - Grandi speranze",
            "popularity": 2.212
        },
        {
            "id": 118721,
            "original_name": "Sin maquillaje",
            "popularity": 1.976
        },
        {
            "id": 63321,
            "original_name": "El inquilino",
            "popularity": 1.749
        },
        {
            "id": 21519,
            "original_name": "Quiller",
            "popularity": 1.633
        },
        {
            "id": 1626,
            "original_name": "Tequila and Bonetti",
            "popularity": 1.622
        },
        {
            "id": 75686,
            "original_name": "L'uomo che sognava con le aquile",
            "popularity": 1.54
        },
        {
            "id": 451,
            "original_name": "Aquila",
            "popularity": 1.289
        },
        {
            "id": 19971,
            "original_name": "Crazy Quilt",
            "popularity": 0.6
        },
        {
            "id": 15392,
            "original_name": "Amor sin Maquillaje",
            "popularity": 0.6
        },
        {
            "id": 8952,
            "original_name": "Azul Tequila",
            "popularity": 0.6
        },
        {
            "id": 30140,
            "original_name": "Simply Quilts",
            "popularity": 0.6
        },
        {
            "id": 680,
            "original_name": "Shaquille",
            "popularity": 0.6
        },
        {
            "id": 14984,
            "original_name": "Lap Quilting with Georgia Bonesteel",
            "popularity": 0.6
        },
        {
            "id": 42480,
            "original_name": "Quilt in a Day",
            "popularity": 0.6
        },
        {
            "id": 22452,
            "original_name": "Tequila",
            "popularity": 0.6
        },
        {
            "id": 26493,
            "original_name": "Chemical Equilibrium",
            "popularity": 0.6
        },
        {
            "id": 7221,
            "original_name": "A Shot at Love II with Tila Tequila",
            "popularity": 0.6
        },
        {
            "id": 13106,
            "original_name": "Chiquilladas",
            "popularity": 0.6
        }
    ]
}