{
    "data": [
        {
            "id": 4094,
            "original_name": "Today with Kris Aquino",
            "popularity": 0.6
        },
        {
            "id": 15716,
            "original_name": "Equinox",
            "popularity": 0.6
        },
        {
            "id": 38253,
            "original_name": "Taquinons la plan\u00e8te",
            "popularity": 0.6
        },
        {
            "id": 99777,
            "original_name": "Onyx Equinox",
            "popularity": 15.944
        },
        {
            "id": 113600,
            "original_name": "Equinox",
            "popularity": 24.567
        }
    ],
    "relations": [],
    "top20": [
        {
            "id": 4094,
            "original_name": "Today with Kris Aquino",
            "popularity": 0.6
        },
        {
            "id": 15716,
            "original_name": "Equinox",
            "popularity": 0.6
        },
        {
            "id": 38253,
            "original_name": "Taquinons la plan\u00e8te",
            "popularity": 0.6
        },
        {
            "id": 99777,
            "original_name": "Onyx Equinox",
            "popularity": 15.944
        },
        {
            "id": 113600,
            "original_name": "Equinox",
            "popularity": 24.567
        }
    ]
}