{
    "data": [
        {
            "id": 27594,
            "original_name": "Hotel De Witte Raaf",
            "popularity": 0.6
        },
        {
            "id": 50261,
            "original_name": "Raafat El-Hagan",
            "popularity": 0.6
        },
        {
            "id": 69515,
            "original_name": "El Araaf",
            "popularity": 0.6
        }
    ],
    "relations": [],
    "top20": [
        {
            "id": 27594,
            "original_name": "Hotel De Witte Raaf",
            "popularity": 0.6
        },
        {
            "id": 50261,
            "original_name": "Raafat El-Hagan",
            "popularity": 0.6
        },
        {
            "id": 69515,
            "original_name": "El Araaf",
            "popularity": 0.6
        }
    ]
}