{
    "data": [
        {
            "id": 6039,
            "original_name": "Traffic Cops",
            "popularity": 3.157
        },
        {
            "id": 12117,
            "original_name": "Human Trafficking",
            "popularity": 11.855
        },
        {
            "id": 13261,
            "original_name": "Traffic",
            "popularity": 3.765
        },
        {
            "id": 18825,
            "original_name": "Traffic Blues",
            "popularity": 0.6
        },
        {
            "id": 32825,
            "original_name": "Traffic Light",
            "popularity": 4.878
        },
        {
            "id": 36400,
            "original_name": "The Hunt For Britain's Sex Traffickers",
            "popularity": 0.6
        },
        {
            "id": 38280,
            "original_name": "Bride Trafficking Unveiled",
            "popularity": 0.6
        },
        {
            "id": 47494,
            "original_name": "Sex Traffic",
            "popularity": 4.368
        },
        {
            "id": 81440,
            "original_name": "All New Traffic Cops",
            "popularity": 3.007
        },
        {
            "id": 97286,
            "original_name": "The Traffickers",
            "popularity": 0.6
        },
        {
            "id": 113888,
            "original_name": "Trafficked with Mariana van Zeller",
            "popularity": 31.325
        },
        {
            "id": 126218,
            "original_name": "The Story of Drug Trafficking",
            "popularity": 0.765
        },
        {
            "id": 129472,
            "original_name": "Taken: Hunting the Sex Traffickers",
            "popularity": 0.6
        },
        {
            "id": 133779,
            "original_name": "Beyond The Line: North Wales's Traffic Cops",
            "popularity": 0.6
        }
    ],
    "relations": [],
    "top20": [
        {
            "id": 6039,
            "original_name": "Traffic Cops",
            "popularity": 3.157
        },
        {
            "id": 12117,
            "original_name": "Human Trafficking",
            "popularity": 11.855
        },
        {
            "id": 13261,
            "original_name": "Traffic",
            "popularity": 3.765
        },
        {
            "id": 18825,
            "original_name": "Traffic Blues",
            "popularity": 0.6
        },
        {
            "id": 32825,
            "original_name": "Traffic Light",
            "popularity": 4.878
        },
        {
            "id": 36400,
            "original_name": "The Hunt For Britain's Sex Traffickers",
            "popularity": 0.6
        },
        {
            "id": 38280,
            "original_name": "Bride Trafficking Unveiled",
            "popularity": 0.6
        },
        {
            "id": 47494,
            "original_name": "Sex Traffic",
            "popularity": 4.368
        },
        {
            "id": 81440,
            "original_name": "All New Traffic Cops",
            "popularity": 3.007
        },
        {
            "id": 97286,
            "original_name": "The Traffickers",
            "popularity": 0.6
        },
        {
            "id": 113888,
            "original_name": "Trafficked with Mariana van Zeller",
            "popularity": 31.325
        },
        {
            "id": 126218,
            "original_name": "The Story of Drug Trafficking",
            "popularity": 0.765
        },
        {
            "id": 129472,
            "original_name": "Taken: Hunting the Sex Traffickers",
            "popularity": 0.6
        },
        {
            "id": 133779,
            "original_name": "Beyond The Line: North Wales's Traffic Cops",
            "popularity": 0.6
        }
    ]
}