{
    "data": [
        {
            "id": 139472,
            "original_name": "Fragespiel",
            "popularity": 1.944
        }
    ],
    "relations": [],
    "top20": [
        {
            "id": 139472,
            "original_name": "Fragespiel",
            "popularity": 1.944
        }
    ]
}