{
    "data": [
        {
            "id": 4323,
            "original_name": "DragonflyTV",
            "popularity": 0.6
        }
    ],
    "relations": [],
    "top20": [
        {
            "id": 4323,
            "original_name": "DragonflyTV",
            "popularity": 0.6
        }
    ]
}