{
    "data": [
        {
            "id": 8886,
            "original_name": "Chitrahaar",
            "popularity": 0.6
        }
    ],
    "relations": [],
    "top20": [
        {
            "id": 8886,
            "original_name": "Chitrahaar",
            "popularity": 0.6
        }
    ]
}