{
    "data": [
        {
            "id": 39894,
            "original_name": "Zip Bus Chup Raho",
            "popularity": 0.695
        }
    ],
    "relations": [],
    "top20": [
        {
            "id": 39894,
            "original_name": "Zip Bus Chup Raho",
            "popularity": 0.695
        }
    ]
}