{
    "data": [
        {
            "id": 87378,
            "original_name": "Legendy star\u00e9 Prahy",
            "popularity": 0.6
        },
        {
            "id": 105917,
            "original_name": "Zlo\u010diny Velk\u00e9 Prahy",
            "popularity": 2.861
        }
    ],
    "relations": [],
    "top20": [
        {
            "id": 87378,
            "original_name": "Legendy star\u00e9 Prahy",
            "popularity": 0.6
        },
        {
            "id": 105917,
            "original_name": "Zlo\u010diny Velk\u00e9 Prahy",
            "popularity": 2.861
        }
    ]
}