{
    "data": [
        {
            "id": 22817,
            "original_name": "The Shiralee",
            "popularity": 0.6
        }
    ],
    "relations": [],
    "top20": [
        {
            "id": 22817,
            "original_name": "The Shiralee",
            "popularity": 0.6
        }
    ]
}