{
    "data": [
        {
            "id": 3542,
            "original_name": "Pyramid",
            "popularity": 0.6
        },
        {
            "id": 7590,
            "original_name": "Building the Great Pyramid",
            "popularity": 0.6
        },
        {
            "id": 10581,
            "original_name": "The Pyramid Game",
            "popularity": 0.6
        },
        {
            "id": 13899,
            "original_name": "Laramie",
            "popularity": 17.368
        },
        {
            "id": 20080,
            "original_name": "The Kingdom of Paramithi",
            "popularity": 0.6
        },
        {
            "id": 29511,
            "original_name": "Pyramid Challenge",
            "popularity": 0.6
        },
        {
            "id": 30927,
            "original_name": "Pyramid",
            "popularity": 0.6
        },
        {
            "id": 32290,
            "original_name": "The $20,000 Pyramid",
            "popularity": 0.6
        },
        {
            "id": 32291,
            "original_name": "The $100,000 Pyramid",
            "popularity": 0.6
        },
        {
            "id": 32292,
            "original_name": "The $25,000 Pyramid",
            "popularity": 0.6
        },
        {
            "id": 37982,
            "original_name": "Jean Michel Jarre at the Pyramids",
            "popularity": 0.6
        },
        {
            "id": 43883,
            "original_name": "Ceramics A Fragile History",
            "popularity": 0.6
        },
        {
            "id": 47388,
            "original_name": "Egypt Beyond the Pyramids",
            "popularity": 0.6
        },
        {
            "id": 49130,
            "original_name": "Through the Magic Pyramid",
            "popularity": 0.6
        },
        {
            "id": 56072,
            "original_name": "Pyramids, Mummies and Tombs",
            "popularity": 0.6
        },
        {
            "id": 57728,
            "original_name": "Pyramid",
            "popularity": 0.6
        },
        {
            "id": 57882,
            "original_name": "Niramit",
            "popularity": 0.6
        },
        {
            "id": 67141,
            "original_name": "The $100,000 Pyramid",
            "popularity": 7.049
        },
        {
            "id": 85033,
            "original_name": "Die Pyramide",
            "popularity": 5.011
        },
        {
            "id": 95795,
            "original_name": "The Pyramid Code",
            "popularity": 0.6
        },
        {
            "id": 95970,
            "original_name": "Secrets of the Pyramid Builders",
            "popularity": 0.6
        },
        {
            "id": 96133,
            "original_name": "Pyramids: Solving the Mystery",
            "popularity": 0.6
        },
        {
            "id": 96469,
            "original_name": "Pyramides: Les Myst\u00e8res R\u00e9v\u00e9l\u00e9s",
            "popularity": 0.6
        },
        {
            "id": 99172,
            "original_name": "Areva Uramin",
            "popularity": 0.6
        },
        {
            "id": 99608,
            "original_name": "Mystery of the Lost Pyramid",
            "popularity": 0.6
        },
        {
            "id": 101886,
            "original_name": "Los secretos de la gran piramide",
            "popularity": 0.6
        },
        {
            "id": 103881,
            "original_name": "Raiders of the Lost Past with Janina Ramirez",
            "popularity": 0.717
        },
        {
            "id": 120281,
            "original_name": "Tramitz & Friends",
            "popularity": 1.399
        },
        {
            "id": 122689,
            "original_name": "Ramiz Uqla flew",
            "popularity": 0.6
        },
        {
            "id": 123921,
            "original_name": "Lost Pyramids of the Aztecs",
            "popularity": 0.6
        },
        {
            "id": 124783,
            "original_name": "V\u00e4rldens Historia: Pyramidernas Hemligheter",
            "popularity": 0.6
        },
        {
            "id": 125390,
            "original_name": "Grami's Circus Show",
            "popularity": 0.6
        },
        {
            "id": 127936,
            "original_name": "La Re\u0301ve\u0301lation des Pyramides",
            "popularity": 0.6
        },
        {
            "id": 133061,
            "original_name": "Les secrets des b\u00e2tisseurs de pyramides",
            "popularity": 0.6
        }
    ],
    "relations": [
        {
            "character": "ramid"
        },
        {
            "character": "ramie"
        },
        {
            "character": "ramit"
        },
        {
            "character": "ramic"
        },
        {
            "character": "ramin"
        },
        {
            "character": "ramir"
        },
        {
            "character": "ramiz"
        }
    ],
    "top20": [
        {
            "id": 13899,
            "original_name": "Laramie",
            "popularity": 17.368
        },
        {
            "id": 67141,
            "original_name": "The $100,000 Pyramid",
            "popularity": 7.049
        },
        {
            "id": 85033,
            "original_name": "Die Pyramide",
            "popularity": 5.011
        },
        {
            "id": 120281,
            "original_name": "Tramitz & Friends",
            "popularity": 1.399
        },
        {
            "id": 103881,
            "original_name": "Raiders of the Lost Past with Janina Ramirez",
            "popularity": 0.717
        },
        {
            "id": 7590,
            "original_name": "Building the Great Pyramid",
            "popularity": 0.6
        },
        {
            "id": 37982,
            "original_name": "Jean Michel Jarre at the Pyramids",
            "popularity": 0.6
        },
        {
            "id": 32290,
            "original_name": "The $20,000 Pyramid",
            "popularity": 0.6
        },
        {
            "id": 3542,
            "original_name": "Pyramid",
            "popularity": 0.6
        },
        {
            "id": 32291,
            "original_name": "The $100,000 Pyramid",
            "popularity": 0.6
        },
        {
            "id": 20080,
            "original_name": "The Kingdom of Paramithi",
            "popularity": 0.6
        },
        {
            "id": 10581,
            "original_name": "The Pyramid Game",
            "popularity": 0.6
        },
        {
            "id": 30927,
            "original_name": "Pyramid",
            "popularity": 0.6
        },
        {
            "id": 57728,
            "original_name": "Pyramid",
            "popularity": 0.6
        },
        {
            "id": 43883,
            "original_name": "Ceramics A Fragile History",
            "popularity": 0.6
        },
        {
            "id": 56072,
            "original_name": "Pyramids, Mummies and Tombs",
            "popularity": 0.6
        },
        {
            "id": 29511,
            "original_name": "Pyramid Challenge",
            "popularity": 0.6
        },
        {
            "id": 49130,
            "original_name": "Through the Magic Pyramid",
            "popularity": 0.6
        },
        {
            "id": 32292,
            "original_name": "The $25,000 Pyramid",
            "popularity": 0.6
        },
        {
            "id": 47388,
            "original_name": "Egypt Beyond the Pyramids",
            "popularity": 0.6
        }
    ]
}