{
    "data": [
        {
            "id": 83735,
            "original_name": "Adam sucht Eva - Gestrandet im Paradies",
            "popularity": 8.911
        }
    ],
    "relations": [],
    "top20": [
        {
            "id": 83735,
            "original_name": "Adam sucht Eva - Gestrandet im Paradies",
            "popularity": 8.911
        }
    ]
}