{
    "data": [
        {
            "id": 239,
            "original_name": "Strangebrew",
            "popularity": 0.6
        }
    ],
    "relations": [],
    "top20": [
        {
            "id": 239,
            "original_name": "Strangebrew",
            "popularity": 0.6
        }
    ]
}