{
    "data": [
        {
            "id": 89958,
            "original_name": "Espa\u00f1a despu\u00e9s de la guerra: el franquismo en color",
            "popularity": 0.699
        },
        {
            "id": 120175,
            "original_name": "Megaestructuras franquistas",
            "popularity": 0.6
        }
    ],
    "relations": [],
    "top20": [
        {
            "id": 89958,
            "original_name": "Espa\u00f1a despu\u00e9s de la guerra: el franquismo en color",
            "popularity": 0.699
        },
        {
            "id": 120175,
            "original_name": "Megaestructuras franquistas",
            "popularity": 0.6
        }
    ]
}