{
    "data": [
        {
            "id": 112248,
            "original_name": "Pa Gransen Med Peter Jihde",
            "popularity": 1.085
        }
    ],
    "relations": [],
    "top20": [
        {
            "id": 112248,
            "original_name": "Pa Gransen Med Peter Jihde",
            "popularity": 1.085
        }
    ]
}