{
    "data": [
        {
            "id": 44655,
            "original_name": "Fraochy Bay",
            "popularity": 0.6
        },
        {
            "id": 137929,
            "original_name": "Karaoclip",
            "popularity": 0.6
        }
    ],
    "relations": [],
    "top20": [
        {
            "id": 44655,
            "original_name": "Fraochy Bay",
            "popularity": 0.6
        },
        {
            "id": 137929,
            "original_name": "Karaoclip",
            "popularity": 0.6
        }
    ]
}