{
    "data": [
        {
            "id": 117300,
            "original_name": "Raqeeb Se",
            "popularity": 0.6
        }
    ],
    "relations": [],
    "top20": [
        {
            "id": 117300,
            "original_name": "Raqeeb Se",
            "popularity": 0.6
        }
    ]
}