{
    "data": [
        {
            "id": 36766,
            "original_name": "Van Popster tot Operaster",
            "popularity": 0.6
        },
        {
            "id": 59797,
            "original_name": "Rastegaran",
            "popularity": 0.6
        },
        {
            "id": 76247,
            "original_name": "Delhis vackraste h\u00e4nder",
            "popularity": 0.6
        },
        {
            "id": 94396,
            "original_name": "El foraster",
            "popularity": 0.698
        },
        {
            "id": 100026,
            "original_name": "La double vie de Th\u00e9ophraste Longuet",
            "popularity": 0.626
        },
        {
            "id": 139201,
            "original_name": "La forastera",
            "popularity": 0.6
        }
    ],
    "relations": [],
    "top20": [
        {
            "id": 36766,
            "original_name": "Van Popster tot Operaster",
            "popularity": 0.6
        },
        {
            "id": 59797,
            "original_name": "Rastegaran",
            "popularity": 0.6
        },
        {
            "id": 76247,
            "original_name": "Delhis vackraste h\u00e4nder",
            "popularity": 0.6
        },
        {
            "id": 94396,
            "original_name": "El foraster",
            "popularity": 0.698
        },
        {
            "id": 100026,
            "original_name": "La double vie de Th\u00e9ophraste Longuet",
            "popularity": 0.626
        },
        {
            "id": 139201,
            "original_name": "La forastera",
            "popularity": 0.6
        }
    ]
}