{
    "data": [
        {
            "id": 53573,
            "original_name": "Karatefylla",
            "popularity": 2.373
        }
    ],
    "relations": [],
    "top20": [
        {
            "id": 53573,
            "original_name": "Karatefylla",
            "popularity": 2.373
        }
    ]
}