{
    "data": [
        {
            "id": 85113,
            "original_name": "Le gros laboratoire",
            "popularity": 4.523
        }
    ],
    "relations": [],
    "top20": [
        {
            "id": 85113,
            "original_name": "Le gros laboratoire",
            "popularity": 4.523
        }
    ]
}