{
    "data": [
        {
            "id": 12014,
            "original_name": "Wake, Rattle, and Roll",
            "popularity": 3.217
        },
        {
            "id": 30322,
            "original_name": "Shake, Rattle and Roll",
            "popularity": 0.928
        },
        {
            "id": 79230,
            "original_name": "Rattled",
            "popularity": 0.6
        }
    ],
    "relations": [],
    "top20": [
        {
            "id": 12014,
            "original_name": "Wake, Rattle, and Roll",
            "popularity": 3.217
        },
        {
            "id": 30322,
            "original_name": "Shake, Rattle and Roll",
            "popularity": 0.928
        },
        {
            "id": 79230,
            "original_name": "Rattled",
            "popularity": 0.6
        }
    ]
}