{
    "data": [
        {
            "id": 36726,
            "original_name": "Tom Grattan's War",
            "popularity": 0.6
        },
        {
            "id": 86821,
            "original_name": "Journal Journey with Rattawan",
            "popularity": 0.6
        }
    ],
    "relations": [],
    "top20": [
        {
            "id": 36726,
            "original_name": "Tom Grattan's War",
            "popularity": 0.6
        },
        {
            "id": 86821,
            "original_name": "Journal Journey with Rattawan",
            "popularity": 0.6
        }
    ]
}