{
    "data": [
        {
            "id": 48160,
            "original_name": "Prawo Agaty",
            "popularity": 1.352
        },
        {
            "id": 48505,
            "original_name": "Prawo miasta",
            "popularity": 0.6
        },
        {
            "id": 93966,
            "original_name": "Prawo Miasta",
            "popularity": 0.6
        }
    ],
    "relations": [],
    "top20": [
        {
            "id": 48160,
            "original_name": "Prawo Agaty",
            "popularity": 1.352
        },
        {
            "id": 48505,
            "original_name": "Prawo miasta",
            "popularity": 0.6
        },
        {
            "id": 93966,
            "original_name": "Prawo Miasta",
            "popularity": 0.6
        }
    ]
}