{
    "data": [
        {
            "id": 20418,
            "original_name": "Jai Shri Swaminarayan",
            "popularity": 0.6
        },
        {
            "id": 53822,
            "original_name": "K\u0131r\u0131k Kalpler-Ritmini Arayan Kalpler",
            "popularity": 0.6
        }
    ],
    "relations": [],
    "top20": [
        {
            "id": 20418,
            "original_name": "Jai Shri Swaminarayan",
            "popularity": 0.6
        },
        {
            "id": 53822,
            "original_name": "K\u0131r\u0131k Kalpler-Ritmini Arayan Kalpler",
            "popularity": 0.6
        }
    ]
}