{
    "data": [
        {
            "id": 3500,
            "original_name": "RBD: La Familia",
            "popularity": 62.739
        }
    ],
    "relations": [],
    "top20": [
        {
            "id": 3500,
            "original_name": "RBD: La Familia",
            "popularity": 62.739
        }
    ]
}