{
    "data": [
        {
            "id": 1234,
            "original_name": "Clapperboard",
            "popularity": 0.6
        },
        {
            "id": 14105,
            "original_name": "Riverboat",
            "popularity": 10.046
        },
        {
            "id": 28562,
            "original_name": "Chequerboard",
            "popularity": 0.6
        },
        {
            "id": 28563,
            "original_name": "The Ballad Of Riverboat Bill",
            "popularity": 0.6
        },
        {
            "id": 55595,
            "original_name": "Geordies Overboard",
            "popularity": 0.6
        },
        {
            "id": 91185,
            "original_name": "Riverboat",
            "popularity": 16.929
        },
        {
            "id": 129918,
            "original_name": "Motherboard",
            "popularity": 0.6
        }
    ],
    "relations": [],
    "top20": [
        {
            "id": 1234,
            "original_name": "Clapperboard",
            "popularity": 0.6
        },
        {
            "id": 14105,
            "original_name": "Riverboat",
            "popularity": 10.046
        },
        {
            "id": 28562,
            "original_name": "Chequerboard",
            "popularity": 0.6
        },
        {
            "id": 28563,
            "original_name": "The Ballad Of Riverboat Bill",
            "popularity": 0.6
        },
        {
            "id": 55595,
            "original_name": "Geordies Overboard",
            "popularity": 0.6
        },
        {
            "id": 91185,
            "original_name": "Riverboat",
            "popularity": 16.929
        },
        {
            "id": 129918,
            "original_name": "Motherboard",
            "popularity": 0.6
        }
    ]
}