{
    "data": [
        {
            "id": 50651,
            "original_name": "Epitome of Hyperbole",
            "popularity": 0.6
        },
        {
            "id": 67345,
            "original_name": "Thunderbolt Fantasy -\u6771\u96e2\u528d\u904a\u7d00",
            "popularity": 7.508
        },
        {
            "id": 81691,
            "original_name": "Los detectives de la casa del \u00e1rbol",
            "popularity": 0.6
        },
        {
            "id": 107025,
            "original_name": "El \u00c1rbol de Gabriel",
            "popularity": 0.6
        }
    ],
    "relations": [],
    "top20": [
        {
            "id": 50651,
            "original_name": "Epitome of Hyperbole",
            "popularity": 0.6
        },
        {
            "id": 67345,
            "original_name": "Thunderbolt Fantasy -\u6771\u96e2\u528d\u904a\u7d00",
            "popularity": 7.508
        },
        {
            "id": 81691,
            "original_name": "Los detectives de la casa del \u00e1rbol",
            "popularity": 0.6
        },
        {
            "id": 107025,
            "original_name": "El \u00c1rbol de Gabriel",
            "popularity": 0.6
        }
    ]
}