{
    "data": [
        {
            "id": 36036,
            "original_name": "Intercontinental Poker Championship",
            "popularity": 0.6
        },
        {
            "id": 60893,
            "original_name": "Intercontinental-Express",
            "popularity": 1.442
        },
        {
            "id": 88545,
            "original_name": "Parconaute",
            "popularity": 1.393
        },
        {
            "id": 97370,
            "original_name": "Hackers of CypherCon",
            "popularity": 0.6
        },
        {
            "id": 106464,
            "original_name": "Smerconish",
            "popularity": 0.876
        }
    ],
    "relations": [],
    "top20": [
        {
            "id": 36036,
            "original_name": "Intercontinental Poker Championship",
            "popularity": 0.6
        },
        {
            "id": 60893,
            "original_name": "Intercontinental-Express",
            "popularity": 1.442
        },
        {
            "id": 88545,
            "original_name": "Parconaute",
            "popularity": 1.393
        },
        {
            "id": 97370,
            "original_name": "Hackers of CypherCon",
            "popularity": 0.6
        },
        {
            "id": 106464,
            "original_name": "Smerconish",
            "popularity": 0.876
        }
    ]
}