{
    "data": [
        {
            "id": 109596,
            "original_name": "Mit Arved Fuchs durch den Nordatlantik",
            "popularity": 0.6
        },
        {
            "id": 111654,
            "original_name": "I l\u00e6re som sugardater",
            "popularity": 0.6
        },
        {
            "id": 128640,
            "original_name": "Premi\u00e4rdatum oklart",
            "popularity": 0.84
        },
        {
            "id": 135861,
            "original_name": "Generation sugardating",
            "popularity": 0.6
        },
        {
            "id": 135924,
            "original_name": "Sugardating alt har en pris",
            "popularity": 0.6
        }
    ],
    "relations": [],
    "top20": [
        {
            "id": 109596,
            "original_name": "Mit Arved Fuchs durch den Nordatlantik",
            "popularity": 0.6
        },
        {
            "id": 111654,
            "original_name": "I l\u00e6re som sugardater",
            "popularity": 0.6
        },
        {
            "id": 128640,
            "original_name": "Premi\u00e4rdatum oklart",
            "popularity": 0.84
        },
        {
            "id": 135861,
            "original_name": "Generation sugardating",
            "popularity": 0.6
        },
        {
            "id": 135924,
            "original_name": "Sugardating alt har en pris",
            "popularity": 0.6
        }
    ]
}