{
    "data": [
        {
            "id": 187,
            "original_name": "All Our Saturdays",
            "popularity": 0.841
        },
        {
            "id": 8955,
            "original_name": "All Our Yesterdays",
            "popularity": 0.6
        },
        {
            "id": 14636,
            "original_name": "The Secret Saturdays",
            "popularity": 5.338
        },
        {
            "id": 37140,
            "original_name": "The Saturdays: 24/7",
            "popularity": 0.6
        },
        {
            "id": 58886,
            "original_name": "Chasing The Saturdays",
            "popularity": 0.73
        },
        {
            "id": 101458,
            "original_name": "The Saturdays: What Goes on Tour...",
            "popularity": 0.6
        }
    ],
    "relations": [],
    "top20": [
        {
            "id": 187,
            "original_name": "All Our Saturdays",
            "popularity": 0.841
        },
        {
            "id": 8955,
            "original_name": "All Our Yesterdays",
            "popularity": 0.6
        },
        {
            "id": 14636,
            "original_name": "The Secret Saturdays",
            "popularity": 5.338
        },
        {
            "id": 37140,
            "original_name": "The Saturdays: 24/7",
            "popularity": 0.6
        },
        {
            "id": 58886,
            "original_name": "Chasing The Saturdays",
            "popularity": 0.73
        },
        {
            "id": 101458,
            "original_name": "The Saturdays: What Goes on Tour...",
            "popularity": 0.6
        }
    ]
}