{
    "data": [
        {
            "id": 131293,
            "original_name": "G\u00e4rdsg\u00e5rdsserien",
            "popularity": 0.6
        }
    ],
    "relations": [],
    "top20": [
        {
            "id": 131293,
            "original_name": "G\u00e4rdsg\u00e5rdsserien",
            "popularity": 0.6
        }
    ]
}