{
    "data": [
        {
            "id": 7215,
            "original_name": "Caerdydd",
            "popularity": 1.342
        }
    ],
    "relations": [],
    "top20": [
        {
            "id": 7215,
            "original_name": "Caerdydd",
            "popularity": 1.342
        }
    ]
}