{
    "data": [
        {
            "id": 44078,
            "original_name": "Wild Recon",
            "popularity": 0.6
        },
        {
            "id": 48086,
            "original_name": "Zakrecone",
            "popularity": 0.6
        },
        {
            "id": 73518,
            "original_name": "Star Wars Rebels Recon",
            "popularity": 4.145
        },
        {
            "id": 88327,
            "original_name": "Reconstruction: America After the Civil War",
            "popularity": 1.223
        },
        {
            "id": 98314,
            "original_name": "Reconnexion",
            "popularity": 0.6
        },
        {
            "id": 98479,
            "original_name": "\u00c0 la reconqu\u00eate des for\u00eats",
            "popularity": 0.6
        },
        {
            "id": 100471,
            "original_name": "Iolo's Brecon Beacons",
            "popularity": 0.6
        },
        {
            "id": 127402,
            "original_name": "Chirurgie plastique : reconstruire la vie",
            "popularity": 0.793
        },
        {
            "id": 129521,
            "original_name": "Nouvelle-Z\u00e9lande : La Reconqu\u00eate Maorie",
            "popularity": 0.6
        }
    ],
    "relations": [],
    "top20": [
        {
            "id": 44078,
            "original_name": "Wild Recon",
            "popularity": 0.6
        },
        {
            "id": 48086,
            "original_name": "Zakrecone",
            "popularity": 0.6
        },
        {
            "id": 73518,
            "original_name": "Star Wars Rebels Recon",
            "popularity": 4.145
        },
        {
            "id": 88327,
            "original_name": "Reconstruction: America After the Civil War",
            "popularity": 1.223
        },
        {
            "id": 98314,
            "original_name": "Reconnexion",
            "popularity": 0.6
        },
        {
            "id": 98479,
            "original_name": "\u00c0 la reconqu\u00eate des for\u00eats",
            "popularity": 0.6
        },
        {
            "id": 100471,
            "original_name": "Iolo's Brecon Beacons",
            "popularity": 0.6
        },
        {
            "id": 127402,
            "original_name": "Chirurgie plastique : reconstruire la vie",
            "popularity": 0.793
        },
        {
            "id": 129521,
            "original_name": "Nouvelle-Z\u00e9lande : La Reconqu\u00eate Maorie",
            "popularity": 0.6
        }
    ]
}