{
    "data": [
        {
            "id": 53339,
            "original_name": "Protagonistas del recuerdo",
            "popularity": 0.962
        },
        {
            "id": 58677,
            "original_name": "Recuerdo de Amor",
            "popularity": 0.6
        },
        {
            "id": 86825,
            "original_name": "La frecuencia Kirlian",
            "popularity": 4.864
        },
        {
            "id": 100030,
            "original_name": "Frecuencia .04",
            "popularity": 0.7
        }
    ],
    "relations": [],
    "top20": [
        {
            "id": 53339,
            "original_name": "Protagonistas del recuerdo",
            "popularity": 0.962
        },
        {
            "id": 58677,
            "original_name": "Recuerdo de Amor",
            "popularity": 0.6
        },
        {
            "id": 86825,
            "original_name": "La frecuencia Kirlian",
            "popularity": 4.864
        },
        {
            "id": 100030,
            "original_name": "Frecuencia .04",
            "popularity": 0.7
        }
    ]
}