{
    "data": [
        {
            "id": 22643,
            "original_name": "reDesign",
            "popularity": 0.6
        },
        {
            "id": 49279,
            "original_name": "Redes",
            "popularity": 0.6
        },
        {
            "id": 52727,
            "original_name": "Ay\u0131\u015f\u0131\u011f\u0131 Neredesin",
            "popularity": 0.6
        },
        {
            "id": 62888,
            "original_name": "Redesign My Brain",
            "popularity": 0.846
        },
        {
            "id": 119759,
            "original_name": "Predestinado",
            "popularity": 0.909
        }
    ],
    "relations": [],
    "top20": [
        {
            "id": 22643,
            "original_name": "reDesign",
            "popularity": 0.6
        },
        {
            "id": 49279,
            "original_name": "Redes",
            "popularity": 0.6
        },
        {
            "id": 52727,
            "original_name": "Ay\u0131\u015f\u0131\u011f\u0131 Neredesin",
            "popularity": 0.6
        },
        {
            "id": 62888,
            "original_name": "Redesign My Brain",
            "popularity": 0.846
        },
        {
            "id": 119759,
            "original_name": "Predestinado",
            "popularity": 0.909
        }
    ]
}