{
    "data": [
        {
            "id": 22975,
            "original_name": "Pauwen en Reigers",
            "popularity": 0.6
        }
    ],
    "relations": [],
    "top20": [
        {
            "id": 22975,
            "original_name": "Pauwen en Reigers",
            "popularity": 0.6
        }
    ]
}