{
    "data": [
        {
            "id": 121973,
            "original_name": "Ellen DeGeneres: Relatable",
            "popularity": 0.6
        }
    ],
    "relations": [],
    "top20": [
        {
            "id": 121973,
            "original_name": "Ellen DeGeneres: Relatable",
            "popularity": 0.6
        }
    ]
}