{
    "data": [
        {
            "id": 39874,
            "original_name": "Decisiones Extremas",
            "popularity": 0.644
        },
        {
            "id": 108503,
            "original_name": "Australia Remastered",
            "popularity": 14.902
        },
        {
            "id": 133272,
            "original_name": "Loremasters",
            "popularity": 0.6
        },
        {
            "id": 138115,
            "original_name": "The Cremaster Series",
            "popularity": 0.6
        }
    ],
    "relations": [],
    "top20": [
        {
            "id": 39874,
            "original_name": "Decisiones Extremas",
            "popularity": 0.644
        },
        {
            "id": 108503,
            "original_name": "Australia Remastered",
            "popularity": 14.902
        },
        {
            "id": 133272,
            "original_name": "Loremasters",
            "popularity": 0.6
        },
        {
            "id": 138115,
            "original_name": "The Cremaster Series",
            "popularity": 0.6
        }
    ]
}