{
    "data": [
        {
            "id": 10215,
            "original_name": "ESPN Classic Remembers",
            "popularity": 0.6
        },
        {
            "id": 10479,
            "original_name": "Remember WENN",
            "popularity": 4.893
        },
        {
            "id": 10788,
            "original_name": "Remember This?",
            "popularity": 0.6
        },
        {
            "id": 11012,
            "original_name": "A Woman to Remember",
            "popularity": 1.178
        },
        {
            "id": 19886,
            "original_name": "Remembering Bo",
            "popularity": 0.6
        },
        {
            "id": 23154,
            "original_name": "Hey, Remember Christmas?",
            "popularity": 0.6
        },
        {
            "id": 27083,
            "original_name": "Hey Remember!",
            "popularity": 0.6
        },
        {
            "id": 27951,
            "original_name": "Remember",
            "popularity": 0.6
        },
        {
            "id": 45779,
            "original_name": "Remembering World War II",
            "popularity": 0.6
        },
        {
            "id": 46695,
            "original_name": "I Remember Nelson",
            "popularity": 0.6
        },
        {
            "id": 47292,
            "original_name": "Audrey Hepburn Remembered",
            "popularity": 0.6
        },
        {
            "id": 47661,
            "original_name": "D-Day Remembered",
            "popularity": 0.6
        },
        {
            "id": 47851,
            "original_name": "Minnelli on Minnelli: Liza Remembers Vincente",
            "popularity": 0.6
        },
        {
            "id": 47883,
            "original_name": "Do You Remember?",
            "popularity": 0.6
        },
        {
            "id": 48757,
            "original_name": "America Remembers John F. Kennedy",
            "popularity": 0.6
        },
        {
            "id": 56261,
            "original_name": "Remembering 9/11",
            "popularity": 0.6
        },
        {
            "id": 56628,
            "original_name": "A Christmas To Remember",
            "popularity": 0.6
        },
        {
            "id": 57271,
            "original_name": "Kenny & Dolly: A Christmas to Remember",
            "popularity": 0.6
        },
        {
            "id": 58018,
            "original_name": "Canada Remembers",
            "popularity": 0.6
        },
        {
            "id": 58312,
            "original_name": "Remember this Date",
            "popularity": 0.6
        },
        {
            "id": 61635,
            "original_name": "Remember Me",
            "popularity": 3.928
        },
        {
            "id": 66625,
            "original_name": "Vietnam: 50 Years Remembered",
            "popularity": 2.132
        },
        {
            "id": 68549,
            "original_name": "A Crime to Remember",
            "popularity": 1.583
        },
        {
            "id": 71075,
            "original_name": "Nancy O'Dell Remembers",
            "popularity": 0.6
        },
        {
            "id": 77057,
            "original_name": "I Remember Harlem",
            "popularity": 0.6
        },
        {
            "id": 77770,
            "original_name": "Time to Remember",
            "popularity": 0.6
        },
        {
            "id": 105299,
            "original_name": "Ch\u1ea1m \u0110\u1ebfn Tim Anh - Remembering Lichuan",
            "popularity": 0.6
        },
        {
            "id": 123895,
            "original_name": "Wheel of Love: Weekend to Remember",
            "popularity": 0.84
        },
        {
            "id": 124607,
            "original_name": "Royal Wedding: A Day to Remember",
            "popularity": 0.6
        },
        {
            "id": 131731,
            "original_name": "Remember the Wife of Lot",
            "popularity": 0.6
        },
        {
            "id": 133430,
            "original_name": "Prince Philip: The Royal Family Remembers",
            "popularity": 0.6
        },
        {
            "id": 137739,
            "original_name": "That Man Who I Remember",
            "popularity": 22.224
        }
    ],
    "relations": [
        {
            "character": "remembers"
        },
        {
            "character": "rememberi"
        },
        {
            "character": "remember!"
        },
        {
            "character": "remembere"
        },
        {
            "character": "remember?"
        }
    ],
    "top20": [
        {
            "id": 137739,
            "original_name": "That Man Who I Remember",
            "popularity": 22.224
        },
        {
            "id": 10479,
            "original_name": "Remember WENN",
            "popularity": 4.893
        },
        {
            "id": 61635,
            "original_name": "Remember Me",
            "popularity": 3.928
        },
        {
            "id": 66625,
            "original_name": "Vietnam: 50 Years Remembered",
            "popularity": 2.132
        },
        {
            "id": 68549,
            "original_name": "A Crime to Remember",
            "popularity": 1.583
        },
        {
            "id": 11012,
            "original_name": "A Woman to Remember",
            "popularity": 1.178
        },
        {
            "id": 123895,
            "original_name": "Wheel of Love: Weekend to Remember",
            "popularity": 0.84
        },
        {
            "id": 23154,
            "original_name": "Hey, Remember Christmas?",
            "popularity": 0.6
        },
        {
            "id": 46695,
            "original_name": "I Remember Nelson",
            "popularity": 0.6
        },
        {
            "id": 10788,
            "original_name": "Remember This?",
            "popularity": 0.6
        },
        {
            "id": 27083,
            "original_name": "Hey Remember!",
            "popularity": 0.6
        },
        {
            "id": 27951,
            "original_name": "Remember",
            "popularity": 0.6
        },
        {
            "id": 45779,
            "original_name": "Remembering World War II",
            "popularity": 0.6
        },
        {
            "id": 48757,
            "original_name": "America Remembers John F. Kennedy",
            "popularity": 0.6
        },
        {
            "id": 10215,
            "original_name": "ESPN Classic Remembers",
            "popularity": 0.6
        },
        {
            "id": 47851,
            "original_name": "Minnelli on Minnelli: Liza Remembers Vincente",
            "popularity": 0.6
        },
        {
            "id": 47883,
            "original_name": "Do You Remember?",
            "popularity": 0.6
        },
        {
            "id": 19886,
            "original_name": "Remembering Bo",
            "popularity": 0.6
        },
        {
            "id": 47661,
            "original_name": "D-Day Remembered",
            "popularity": 0.6
        },
        {
            "id": 47292,
            "original_name": "Audrey Hepburn Remembered",
            "popularity": 0.6
        }
    ]
}