{
    "data": [
        {
            "id": 184,
            "original_name": "Jeremiah",
            "popularity": 11.13
        },
        {
            "id": 52152,
            "original_name": "Suiy\u00f4 puremia: sekai saiky\u00f4 J hor\u00e2 SP Nihon no kowai yoru",
            "popularity": 0.6
        },
        {
            "id": 70907,
            "original_name": "Nate & Jeremiah by Design",
            "popularity": 1.109
        },
        {
            "id": 88922,
            "original_name": "David Jeremiah",
            "popularity": 0.6
        },
        {
            "id": 102255,
            "original_name": "Nate and Jeremiah Save My House",
            "popularity": 0.6
        },
        {
            "id": 135921,
            "original_name": "The Nate and Jeremiah Home Project",
            "popularity": 4.848
        }
    ],
    "relations": [],
    "top20": [
        {
            "id": 184,
            "original_name": "Jeremiah",
            "popularity": 11.13
        },
        {
            "id": 52152,
            "original_name": "Suiy\u00f4 puremia: sekai saiky\u00f4 J hor\u00e2 SP Nihon no kowai yoru",
            "popularity": 0.6
        },
        {
            "id": 70907,
            "original_name": "Nate & Jeremiah by Design",
            "popularity": 1.109
        },
        {
            "id": 88922,
            "original_name": "David Jeremiah",
            "popularity": 0.6
        },
        {
            "id": 102255,
            "original_name": "Nate and Jeremiah Save My House",
            "popularity": 0.6
        },
        {
            "id": 135921,
            "original_name": "The Nate and Jeremiah Home Project",
            "popularity": 4.848
        }
    ]
}