{
    "data": [
        {
            "id": 39824,
            "original_name": "Reputasyon",
            "popularity": 0.6
        },
        {
            "id": 47609,
            "original_name": "Reputations",
            "popularity": 0.6
        },
        {
            "id": 54116,
            "original_name": "Woman's diary with a Bad Reputation",
            "popularity": 0.6
        },
        {
            "id": 112241,
            "original_name": "Reputation Rehab",
            "popularity": 0.84
        }
    ],
    "relations": [],
    "top20": [
        {
            "id": 39824,
            "original_name": "Reputasyon",
            "popularity": 0.6
        },
        {
            "id": 47609,
            "original_name": "Reputations",
            "popularity": 0.6
        },
        {
            "id": 54116,
            "original_name": "Woman's diary with a Bad Reputation",
            "popularity": 0.6
        },
        {
            "id": 112241,
            "original_name": "Reputation Rehab",
            "popularity": 0.84
        }
    ]
}