{
    "data": [
        {
            "id": 6292,
            "original_name": "Foreign Correspondent",
            "popularity": 2.393
        },
        {
            "id": 10716,
            "original_name": "Respectable",
            "popularity": 1.112
        },
        {
            "id": 12178,
            "original_name": "The Correspondents",
            "popularity": 0.6
        },
        {
            "id": 12241,
            "original_name": "Respect",
            "popularity": 0.6
        },
        {
            "id": 21312,
            "original_name": "Un, dos, tres... responda otra vez",
            "popularity": 0.702
        },
        {
            "id": 36722,
            "original_name": "Brit Cops: Rapid Response",
            "popularity": 0.6
        },
        {
            "id": 41750,
            "original_name": "Quick Response",
            "popularity": 0.6
        },
        {
            "id": 44487,
            "original_name": "News TV Quick Response Team",
            "popularity": 0.6
        },
        {
            "id": 44502,
            "original_name": "Clinton Anderson Downunder Horsemanship - Gaining Respect and Control on the Ground",
            "popularity": 0.6
        },
        {
            "id": 47597,
            "original_name": "A Respectable Trade",
            "popularity": 1.115
        },
        {
            "id": 47605,
            "original_name": "Correspondent",
            "popularity": 0.6
        },
        {
            "id": 51553,
            "original_name": "Korrespondenterne",
            "popularity": 0.6
        },
        {
            "id": 55264,
            "original_name": "Korrespondenterna",
            "popularity": 0.6
        },
        {
            "id": 60272,
            "original_name": "CBC News: Correspondent",
            "popularity": 0.6
        },
        {
            "id": 64919,
            "original_name": "Rapid Response",
            "popularity": 0.6
        },
        {
            "id": 66831,
            "original_name": "Irresponsable",
            "popularity": 2.447
        },
        {
            "id": 68307,
            "original_name": "Money. Power. Respect.",
            "popularity": 0.6
        },
        {
            "id": 71553,
            "original_name": "La Respuesta est\u00e1 en la Historia",
            "popularity": 0.6
        },
        {
            "id": 79161,
            "original_name": "White House Correspondents' Dinner",
            "popularity": 0.6
        },
        {
            "id": 90154,
            "original_name": "First Responders Live",
            "popularity": 0.6
        },
        {
            "id": 93710,
            "original_name": "Live rescue:Emergency response",
            "popularity": 0.6
        },
        {
            "id": 97894,
            "original_name": "El Resplandor y las Tinieblas",
            "popularity": 1.366
        },
        {
            "id": 102924,
            "original_name": "Correspondance vid\u00e9o",
            "popularity": 0.6
        },
        {
            "id": 114001,
            "original_name": "Por Um Respiro",
            "popularity": 1.176
        },
        {
            "id": 119906,
            "original_name": "Les \u00e9coresponsables",
            "popularity": 0.6
        },
        {
            "id": 125896,
            "original_name": "The Murder of George Floyd: A Nation Responds",
            "popularity": 0.6
        },
        {
            "id": 128646,
            "original_name": "Pero con respeto",
            "popularity": 4.125
        }
    ],
    "relations": [
        {
            "character": "respo"
        },
        {
            "character": "respe"
        },
        {
            "character": "respu"
        },
        {
            "character": "respl"
        },
        {
            "character": "respi"
        }
    ],
    "top20": [
        {
            "id": 128646,
            "original_name": "Pero con respeto",
            "popularity": 4.125
        },
        {
            "id": 66831,
            "original_name": "Irresponsable",
            "popularity": 2.447
        },
        {
            "id": 6292,
            "original_name": "Foreign Correspondent",
            "popularity": 2.393
        },
        {
            "id": 97894,
            "original_name": "El Resplandor y las Tinieblas",
            "popularity": 1.366
        },
        {
            "id": 114001,
            "original_name": "Por Um Respiro",
            "popularity": 1.176
        },
        {
            "id": 47597,
            "original_name": "A Respectable Trade",
            "popularity": 1.115
        },
        {
            "id": 10716,
            "original_name": "Respectable",
            "popularity": 1.112
        },
        {
            "id": 21312,
            "original_name": "Un, dos, tres... responda otra vez",
            "popularity": 0.702
        },
        {
            "id": 41750,
            "original_name": "Quick Response",
            "popularity": 0.6
        },
        {
            "id": 55264,
            "original_name": "Korrespondenterna",
            "popularity": 0.6
        },
        {
            "id": 68307,
            "original_name": "Money. Power. Respect.",
            "popularity": 0.6
        },
        {
            "id": 47605,
            "original_name": "Correspondent",
            "popularity": 0.6
        },
        {
            "id": 12241,
            "original_name": "Respect",
            "popularity": 0.6
        },
        {
            "id": 60272,
            "original_name": "CBC News: Correspondent",
            "popularity": 0.6
        },
        {
            "id": 44487,
            "original_name": "News TV Quick Response Team",
            "popularity": 0.6
        },
        {
            "id": 12178,
            "original_name": "The Correspondents",
            "popularity": 0.6
        },
        {
            "id": 64919,
            "original_name": "Rapid Response",
            "popularity": 0.6
        },
        {
            "id": 44502,
            "original_name": "Clinton Anderson Downunder Horsemanship - Gaining Respect and Control on the Ground",
            "popularity": 0.6
        },
        {
            "id": 51553,
            "original_name": "Korrespondenterne",
            "popularity": 0.6
        },
        {
            "id": 36722,
            "original_name": "Brit Cops: Rapid Response",
            "popularity": 0.6
        }
    ]
}