{
    "data": [
        {
            "id": 55167,
            "original_name": "Rach, der Restauranttester",
            "popularity": 1.4
        },
        {
            "id": 62646,
            "original_name": "Der Restauranttester",
            "popularity": 0.6
        },
        {
            "id": 79740,
            "original_name": "Bumann der Restauranttester",
            "popularity": 1.785
        }
    ],
    "relations": [],
    "top20": [
        {
            "id": 55167,
            "original_name": "Rach, der Restauranttester",
            "popularity": 1.4
        },
        {
            "id": 62646,
            "original_name": "Der Restauranttester",
            "popularity": 0.6
        },
        {
            "id": 79740,
            "original_name": "Bumann der Restauranttester",
            "popularity": 1.785
        }
    ]
}