{
    "data": [
        {
            "id": 1187,
            "original_name": "The Restaurant",
            "popularity": 1.124
        },
        {
            "id": 4945,
            "original_name": "Restaurant Makeover",
            "popularity": 0.659
        },
        {
            "id": 8407,
            "original_name": "The Restaurant",
            "popularity": 0.6
        },
        {
            "id": 11137,
            "original_name": "My Restaurant Rules",
            "popularity": 1.136
        },
        {
            "id": 14548,
            "original_name": "The Restaurant",
            "popularity": 2.891
        },
        {
            "id": 22660,
            "original_name": "Rogue Restaurants",
            "popularity": 0.6
        },
        {
            "id": 23743,
            "original_name": "Mijn Restaurant",
            "popularity": 0.956
        },
        {
            "id": 26421,
            "original_name": "Flip That Restaurant",
            "popularity": 0.6
        },
        {
            "id": 27187,
            "original_name": "Secrets of a Restaurant Chef",
            "popularity": 1.4
        },
        {
            "id": 33209,
            "original_name": "24 Hour Restaurant Battle",
            "popularity": 0.631
        },
        {
            "id": 33883,
            "original_name": "Ramsay's Best Restaurant",
            "popularity": 0.734
        },
        {
            "id": 35358,
            "original_name": "Restaurant: Impossible",
            "popularity": 3.665
        },
        {
            "id": 36377,
            "original_name": "The Restaurant: You're Fired!",
            "popularity": 0.6
        },
        {
            "id": 37249,
            "original_name": "Instant Restaurant",
            "popularity": 1.131
        },
        {
            "id": 37570,
            "original_name": "America's Next Great Restaurant",
            "popularity": 0.6
        },
        {
            "id": 39389,
            "original_name": "The Restaurant Inspector",
            "popularity": 0.6
        },
        {
            "id": 40090,
            "original_name": "The Restaurant Adventures of Caroline & Dave",
            "popularity": 0.6
        },
        {
            "id": 41442,
            "original_name": "Italian Restaurant",
            "popularity": 0.6
        },
        {
            "id": 43482,
            "original_name": "The Family Restaurant",
            "popularity": 0.6
        },
        {
            "id": 44183,
            "original_name": "Restaurant Stakeout",
            "popularity": 1.026
        },
        {
            "id": 45262,
            "original_name": "World's Weirdest Restaurants",
            "popularity": 0.6
        },
        {
            "id": 45439,
            "original_name": "Rachs Restaurantschule",
            "popularity": 0.6
        },
        {
            "id": 51107,
            "original_name": "B\u00f8rnenes restaurant",
            "popularity": 0.6
        },
        {
            "id": 52126,
            "original_name": "Sandra's Restaurant Remakes",
            "popularity": 0.6
        },
        {
            "id": 52702,
            "original_name": "Chi Tootoo Restaurant",
            "popularity": 0.6
        },
        {
            "id": 55167,
            "original_name": "Rach, der Restauranttester",
            "popularity": 1.4
        },
        {
            "id": 56059,
            "original_name": "Best New Restaurant",
            "popularity": 0.6
        },
        {
            "id": 57930,
            "original_name": "Osama no Restaurant",
            "popularity": 0.6
        },
        {
            "id": 62371,
            "original_name": "Restaurant Startup",
            "popularity": 1.4
        },
        {
            "id": 62642,
            "original_name": "Rosins Restaurants \u2013 Ein Sternekoch r\u00e4umt auf!",
            "popularity": 1.841
        },
        {
            "id": 62646,
            "original_name": "Der Restauranttester",
            "popularity": 0.6
        },
        {
            "id": 64998,
            "original_name": "The Restaurant Man",
            "popularity": 0.6
        },
        {
            "id": 65054,
            "original_name": "Consumed: The Real Restaurant Business",
            "popularity": 0.6
        },
        {
            "id": 66413,
            "original_name": "Rach sucht: Deutschlands Lieblingsrestaurant",
            "popularity": 0.6
        },
        {
            "id": 73595,
            "original_name": "Hidden Restaurants with Michel Roux Jr",
            "popularity": 0.6
        },
        {
            "id": 73731,
            "original_name": "Kjendisrestauranten",
            "popularity": 0.6
        },
        {
            "id": 74535,
            "original_name": "Tricks of the Restaurant Trade",
            "popularity": 0.6
        },
        {
            "id": 79453,
            "original_name": "Italian Restaurant",
            "popularity": 0.6
        },
        {
            "id": 79454,
            "original_name": "Italian Restaurant",
            "popularity": 0.6
        },
        {
            "id": 79455,
            "original_name": "Italian Restaurant",
            "popularity": 0.6
        },
        {
            "id": 79456,
            "original_name": "Italian Restaurant",
            "popularity": 1.718
        },
        {
            "id": 79740,
            "original_name": "Bumann der Restauranttester",
            "popularity": 1.785
        },
        {
            "id": 79910,
            "original_name": "2 Sterren restaurant",
            "popularity": 0.6
        },
        {
            "id": 84659,
            "original_name": "2 Star Restaurant",
            "popularity": 0.6
        },
        {
            "id": 86924,
            "original_name": "Restaurant Revolution",
            "popularity": 0.6
        },
        {
            "id": 92252,
            "original_name": "Family Restaurant Rivals",
            "popularity": 0.6
        },
        {
            "id": 97334,
            "original_name": "The Restaurant: You're Fried!",
            "popularity": 0.6
        },
        {
            "id": 99864,
            "original_name": "Restaurants on the Edge",
            "popularity": 0.995
        },
        {
            "id": 100082,
            "original_name": "The Restaurant That Makes Mistakes",
            "popularity": 0.6
        },
        {
            "id": 108943,
            "original_name": "Restaurant Swap",
            "popularity": 0.6
        },
        {
            "id": 115139,
            "original_name": "Restaurant in Our Living Room",
            "popularity": 0.6
        },
        {
            "id": 116957,
            "original_name": "Restaurant Recovery",
            "popularity": 0.84
        },
        {
            "id": 116966,
            "original_name": "Restaurant SOS",
            "popularity": 0.6
        },
        {
            "id": 117075,
            "original_name": "Restaurant Rescue",
            "popularity": 0.6
        },
        {
            "id": 132422,
            "original_name": "The Restaurant Inspector",
            "popularity": 0.6
        },
        {
            "id": 134278,
            "original_name": "American Restaurant Battle",
            "popularity": 0.6
        }
    ],
    "relations": [
        {
            "character": "restaurants"
        },
        {
            "character": "restaurantt"
        },
        {
            "character": "restaurante"
        }
    ],
    "top20": [
        {
            "id": 35358,
            "original_name": "Restaurant: Impossible",
            "popularity": 3.665
        },
        {
            "id": 14548,
            "original_name": "The Restaurant",
            "popularity": 2.891
        },
        {
            "id": 62642,
            "original_name": "Rosins Restaurants \u2013 Ein Sternekoch r\u00e4umt auf!",
            "popularity": 1.841
        },
        {
            "id": 79740,
            "original_name": "Bumann der Restauranttester",
            "popularity": 1.785
        },
        {
            "id": 79456,
            "original_name": "Italian Restaurant",
            "popularity": 1.718
        },
        {
            "id": 62371,
            "original_name": "Restaurant Startup",
            "popularity": 1.4
        },
        {
            "id": 27187,
            "original_name": "Secrets of a Restaurant Chef",
            "popularity": 1.4
        },
        {
            "id": 55167,
            "original_name": "Rach, der Restauranttester",
            "popularity": 1.4
        },
        {
            "id": 11137,
            "original_name": "My Restaurant Rules",
            "popularity": 1.136
        },
        {
            "id": 37249,
            "original_name": "Instant Restaurant",
            "popularity": 1.131
        },
        {
            "id": 1187,
            "original_name": "The Restaurant",
            "popularity": 1.124
        },
        {
            "id": 44183,
            "original_name": "Restaurant Stakeout",
            "popularity": 1.026
        },
        {
            "id": 99864,
            "original_name": "Restaurants on the Edge",
            "popularity": 0.995
        },
        {
            "id": 23743,
            "original_name": "Mijn Restaurant",
            "popularity": 0.956
        },
        {
            "id": 116957,
            "original_name": "Restaurant Recovery",
            "popularity": 0.84
        },
        {
            "id": 33883,
            "original_name": "Ramsay's Best Restaurant",
            "popularity": 0.734
        },
        {
            "id": 4945,
            "original_name": "Restaurant Makeover",
            "popularity": 0.659
        },
        {
            "id": 33209,
            "original_name": "24 Hour Restaurant Battle",
            "popularity": 0.631
        },
        {
            "id": 8407,
            "original_name": "The Restaurant",
            "popularity": 0.6
        },
        {
            "id": 22660,
            "original_name": "Rogue Restaurants",
            "popularity": 0.6
        }
    ]
}