{
    "data": [
        {
            "id": 39881,
            "original_name": "Alphateam \u2013 Die Lebensretter im OP",
            "popularity": 6.864
        },
        {
            "id": 40445,
            "original_name": "Die Bergretter",
            "popularity": 30.738
        },
        {
            "id": 74396,
            "original_name": "R\u00e4cher, Retter und Rapiere",
            "popularity": 0.629
        },
        {
            "id": 81088,
            "original_name": "Bretter, die die Welt bedeuten",
            "popularity": 0.886
        },
        {
            "id": 98862,
            "original_name": "Die Waldretter",
            "popularity": 0.6
        },
        {
            "id": 114662,
            "original_name": "112 - Retter im Einsatz",
            "popularity": 0.642
        },
        {
            "id": 117056,
            "original_name": "Die Klimaretter \u2013 Wer spart, gewinnt!",
            "popularity": 0.6
        },
        {
            "id": 121377,
            "original_name": "Die Bauretter",
            "popularity": 0.6
        },
        {
            "id": 126060,
            "original_name": "Lebensretter hautnah - Wenn jede Sekunde z\u00e4hlt",
            "popularity": 2.15
        },
        {
            "id": 133045,
            "original_name": "Lebensretter",
            "popularity": 0.6
        }
    ],
    "relations": [],
    "top20": [
        {
            "id": 39881,
            "original_name": "Alphateam \u2013 Die Lebensretter im OP",
            "popularity": 6.864
        },
        {
            "id": 40445,
            "original_name": "Die Bergretter",
            "popularity": 30.738
        },
        {
            "id": 74396,
            "original_name": "R\u00e4cher, Retter und Rapiere",
            "popularity": 0.629
        },
        {
            "id": 81088,
            "original_name": "Bretter, die die Welt bedeuten",
            "popularity": 0.886
        },
        {
            "id": 98862,
            "original_name": "Die Waldretter",
            "popularity": 0.6
        },
        {
            "id": 114662,
            "original_name": "112 - Retter im Einsatz",
            "popularity": 0.642
        },
        {
            "id": 117056,
            "original_name": "Die Klimaretter \u2013 Wer spart, gewinnt!",
            "popularity": 0.6
        },
        {
            "id": 121377,
            "original_name": "Die Bauretter",
            "popularity": 0.6
        },
        {
            "id": 126060,
            "original_name": "Lebensretter hautnah - Wenn jede Sekunde z\u00e4hlt",
            "popularity": 2.15
        },
        {
            "id": 133045,
            "original_name": "Lebensretter",
            "popularity": 0.6
        }
    ]
}