{
    "data": [
        {
            "id": 77484,
            "original_name": "Greyzone",
            "popularity": 10.509
        }
    ],
    "relations": [],
    "top20": [
        {
            "id": 77484,
            "original_name": "Greyzone",
            "popularity": 10.509
        }
    ]
}