{
    "data": [
        {
            "id": 35164,
            "original_name": "Perfecte mens van de 21ste eeuw, De",
            "popularity": 0.6
        },
        {
            "id": 38699,
            "original_name": "Perfecte Plaatje, Het",
            "popularity": 0.6
        },
        {
            "id": 115128,
            "original_name": "Het Perfecte Plaatje",
            "popularity": 20.065
        },
        {
            "id": 116145,
            "original_name": "De Perfecte Verbouwing",
            "popularity": 0.6
        },
        {
            "id": 131278,
            "original_name": "Are You The One? De Perfecte Match",
            "popularity": 11.171
        }
    ],
    "relations": [],
    "top20": [
        {
            "id": 35164,
            "original_name": "Perfecte mens van de 21ste eeuw, De",
            "popularity": 0.6
        },
        {
            "id": 38699,
            "original_name": "Perfecte Plaatje, Het",
            "popularity": 0.6
        },
        {
            "id": 115128,
            "original_name": "Het Perfecte Plaatje",
            "popularity": 20.065
        },
        {
            "id": 116145,
            "original_name": "De Perfecte Verbouwing",
            "popularity": 0.6
        },
        {
            "id": 131278,
            "original_name": "Are You The One? De Perfecte Match",
            "popularity": 11.171
        }
    ]
}