{
    "data": [
        {
            "id": 1751,
            "original_name": "All Around Performance Horse Weekly",
            "popularity": 0.6
        },
        {
            "id": 8286,
            "original_name": "NZ Performance Car TV",
            "popularity": 0.6
        },
        {
            "id": 10029,
            "original_name": "Great Performances",
            "popularity": 21.817
        },
        {
            "id": 19009,
            "original_name": "In Performance at Wolf Trap",
            "popularity": 0.6
        },
        {
            "id": 24826,
            "original_name": "High Performance",
            "popularity": 1.4
        },
        {
            "id": 26093,
            "original_name": "First Performance",
            "popularity": 1.36
        },
        {
            "id": 28564,
            "original_name": "Performance",
            "popularity": 0.6
        },
        {
            "id": 29492,
            "original_name": "Great Performances at the Met",
            "popularity": 0.6
        },
        {
            "id": 31576,
            "original_name": "The Royal Variety Performance",
            "popularity": 0.6
        },
        {
            "id": 33529,
            "original_name": "First Performance",
            "popularity": 0.6
        },
        {
            "id": 35825,
            "original_name": "Spring Break Performances",
            "popularity": 0.6
        },
        {
            "id": 38258,
            "original_name": "Performance",
            "popularity": 5.564
        },
        {
            "id": 39631,
            "original_name": "The Royal Variety Performance 2010",
            "popularity": 0.6
        },
        {
            "id": 40346,
            "original_name": "K-POP Performances",
            "popularity": 0.6
        },
        {
            "id": 40405,
            "original_name": "Supershow Extreme Live Performances",
            "popularity": 0.6
        },
        {
            "id": 41935,
            "original_name": "The Big Performance",
            "popularity": 0.6
        },
        {
            "id": 45496,
            "original_name": "In Performance At The White House",
            "popularity": 1.134
        },
        {
            "id": 48256,
            "original_name": "The Last Performance",
            "popularity": 0.6
        },
        {
            "id": 48763,
            "original_name": "The Very Best of the Ed Sullivan Show: Vol. 1: Unforgettable Performances",
            "popularity": 0.6
        },
        {
            "id": 49187,
            "original_name": "Command Performance: The Stars Salute the President",
            "popularity": 0.6
        },
        {
            "id": 53745,
            "original_name": "Funda Arar'la Performans",
            "popularity": 0.6
        },
        {
            "id": 54388,
            "original_name": "Politik Performans",
            "popularity": 0.6
        },
        {
            "id": 77834,
            "original_name": "Charles Yang Performances",
            "popularity": 0.6
        },
        {
            "id": 110919,
            "original_name": "Big Performance",
            "popularity": 0.633
        },
        {
            "id": 120394,
            "original_name": "IZ*ONE Japan Debut Special! Talk & Performance",
            "popularity": 0.6
        },
        {
            "id": 129380,
            "original_name": "The Royal Variety Performance",
            "popularity": 0.6
        },
        {
            "id": 131385,
            "original_name": "Royal Variety Performance 2020",
            "popularity": 0.84
        },
        {
            "id": 131844,
            "original_name": "The Children's Royal Variety Performance",
            "popularity": 0.6
        },
        {
            "id": 132174,
            "original_name": "What a Performance! Pioneers of Popular Entertainment",
            "popularity": 0.6
        }
    ],
    "relations": [
        {
            "character": "rformanc"
        },
        {
            "character": "rformans"
        }
    ],
    "top20": [
        {
            "id": 10029,
            "original_name": "Great Performances",
            "popularity": 21.817
        },
        {
            "id": 38258,
            "original_name": "Performance",
            "popularity": 5.564
        },
        {
            "id": 24826,
            "original_name": "High Performance",
            "popularity": 1.4
        },
        {
            "id": 26093,
            "original_name": "First Performance",
            "popularity": 1.36
        },
        {
            "id": 45496,
            "original_name": "In Performance At The White House",
            "popularity": 1.134
        },
        {
            "id": 131385,
            "original_name": "Royal Variety Performance 2020",
            "popularity": 0.84
        },
        {
            "id": 110919,
            "original_name": "Big Performance",
            "popularity": 0.633
        },
        {
            "id": 19009,
            "original_name": "In Performance at Wolf Trap",
            "popularity": 0.6
        },
        {
            "id": 33529,
            "original_name": "First Performance",
            "popularity": 0.6
        },
        {
            "id": 31576,
            "original_name": "The Royal Variety Performance",
            "popularity": 0.6
        },
        {
            "id": 39631,
            "original_name": "The Royal Variety Performance 2010",
            "popularity": 0.6
        },
        {
            "id": 29492,
            "original_name": "Great Performances at the Met",
            "popularity": 0.6
        },
        {
            "id": 41935,
            "original_name": "The Big Performance",
            "popularity": 0.6
        },
        {
            "id": 35825,
            "original_name": "Spring Break Performances",
            "popularity": 0.6
        },
        {
            "id": 40405,
            "original_name": "Supershow Extreme Live Performances",
            "popularity": 0.6
        },
        {
            "id": 28564,
            "original_name": "Performance",
            "popularity": 0.6
        },
        {
            "id": 48256,
            "original_name": "The Last Performance",
            "popularity": 0.6
        },
        {
            "id": 1751,
            "original_name": "All Around Performance Horse Weekly",
            "popularity": 0.6
        },
        {
            "id": 8286,
            "original_name": "NZ Performance Car TV",
            "popularity": 0.6
        },
        {
            "id": 40346,
            "original_name": "K-POP Performances",
            "popularity": 0.6
        }
    ]
}