{
    "data": [
        {
            "id": 104994,
            "original_name": "OrG! (Come & Play)",
            "popularity": 0.6
        },
        {
            "id": 120486,
            "original_name": "Zur Sache Baden-W\u00fcrttemberg!",
            "popularity": 0.926
        }
    ],
    "relations": [],
    "top20": [
        {
            "id": 104994,
            "original_name": "OrG! (Come & Play)",
            "popularity": 0.6
        },
        {
            "id": 120486,
            "original_name": "Zur Sache Baden-W\u00fcrttemberg!",
            "popularity": 0.926
        }
    ]
}