{
    "data": [
        {
            "id": 23365,
            "original_name": "Sergeant Preston of the Yukon",
            "popularity": 4.274
        },
        {
            "id": 28158,
            "original_name": "Sergeant Cork",
            "popularity": 1.383
        },
        {
            "id": 28783,
            "original_name": "Combat Sergeant",
            "popularity": 0.6
        },
        {
            "id": 32674,
            "original_name": "No Time for Sergeants",
            "popularity": 0.984
        },
        {
            "id": 38516,
            "original_name": "John Sergeant on Tracks of Empire",
            "popularity": 0.6
        },
        {
            "id": 39204,
            "original_name": "Combat Sergeant",
            "popularity": 0.6
        },
        {
            "id": 44784,
            "original_name": "Sergeant Stripes",
            "popularity": 2.967
        },
        {
            "id": 57560,
            "original_name": "John Sergeant on the Tourist Trail",
            "popularity": 0.6
        },
        {
            "id": 58235,
            "original_name": "The Grill Sergeants",
            "popularity": 0.6
        },
        {
            "id": 62213,
            "original_name": "Sergeant Berry",
            "popularity": 0.946
        }
    ],
    "relations": [],
    "top20": [
        {
            "id": 23365,
            "original_name": "Sergeant Preston of the Yukon",
            "popularity": 4.274
        },
        {
            "id": 28158,
            "original_name": "Sergeant Cork",
            "popularity": 1.383
        },
        {
            "id": 28783,
            "original_name": "Combat Sergeant",
            "popularity": 0.6
        },
        {
            "id": 32674,
            "original_name": "No Time for Sergeants",
            "popularity": 0.984
        },
        {
            "id": 38516,
            "original_name": "John Sergeant on Tracks of Empire",
            "popularity": 0.6
        },
        {
            "id": 39204,
            "original_name": "Combat Sergeant",
            "popularity": 0.6
        },
        {
            "id": 44784,
            "original_name": "Sergeant Stripes",
            "popularity": 2.967
        },
        {
            "id": 57560,
            "original_name": "John Sergeant on the Tourist Trail",
            "popularity": 0.6
        },
        {
            "id": 58235,
            "original_name": "The Grill Sergeants",
            "popularity": 0.6
        },
        {
            "id": 62213,
            "original_name": "Sergeant Berry",
            "popularity": 0.946
        }
    ]
}