{
    "data": [
        {
            "id": 5375,
            "original_name": "Emergency!",
            "popularity": 21.599
        }
    ],
    "relations": [],
    "top20": [
        {
            "id": 5375,
            "original_name": "Emergency!",
            "popularity": 21.599
        }
    ]
}