{
    "data": [
        {
            "id": 2136,
            "original_name": "Big Bad Beetleborgs",
            "popularity": 5.146
        },
        {
            "id": 11109,
            "original_name": "The Goldbergs",
            "popularity": 1.519
        },
        {
            "id": 16407,
            "original_name": "\u00d6bergs p\u00e5 Lill\u00f6ga",
            "popularity": 0.6
        },
        {
            "id": 36221,
            "original_name": "Rakt p\u00e5 med K-G Bergstr\u00f6m",
            "popularity": 0.6
        },
        {
            "id": 37001,
            "original_name": "De Rodenburgs",
            "popularity": 1.232
        },
        {
            "id": 40604,
            "original_name": "Das Erbe der Guldenburgs",
            "popularity": 2.615
        },
        {
            "id": 40838,
            "original_name": "Rote Bergsteiger",
            "popularity": 1.377
        },
        {
            "id": 49009,
            "original_name": "The Goldbergs",
            "popularity": 35.079
        },
        {
            "id": 53537,
            "original_name": "Bill Bergson Lives Dangerously",
            "popularity": 0.6
        },
        {
            "id": 63048,
            "original_name": "Die Sternbergs - \u00c4rzte, Br\u00fcder, Leidenschaften",
            "popularity": 1.096
        },
        {
            "id": 63784,
            "original_name": "Die Ohnsorgs",
            "popularity": 0.858
        },
        {
            "id": 67028,
            "original_name": "Camilla L\u00e4ckbergs Fj\u00e4llbackamorden",
            "popularity": 1.063
        },
        {
            "id": 98068,
            "original_name": "Cyborgs Universe",
            "popularity": 1.4
        },
        {
            "id": 111887,
            "original_name": "Bergs Dr\u00f6mk\u00e5k",
            "popularity": 0.6
        },
        {
            "id": 117455,
            "original_name": "Phettbergs nette Leit Show",
            "popularity": 0.6
        },
        {
            "id": 121055,
            "original_name": "Erzgebirgskrimi",
            "popularity": 1.612
        },
        {
            "id": 124002,
            "original_name": "Dino's Bezorgservice",
            "popularity": 0.674
        },
        {
            "id": 136113,
            "original_name": "Bergs superlag",
            "popularity": 2.066
        }
    ],
    "relations": [],
    "top20": [
        {
            "id": 2136,
            "original_name": "Big Bad Beetleborgs",
            "popularity": 5.146
        },
        {
            "id": 11109,
            "original_name": "The Goldbergs",
            "popularity": 1.519
        },
        {
            "id": 16407,
            "original_name": "\u00d6bergs p\u00e5 Lill\u00f6ga",
            "popularity": 0.6
        },
        {
            "id": 36221,
            "original_name": "Rakt p\u00e5 med K-G Bergstr\u00f6m",
            "popularity": 0.6
        },
        {
            "id": 37001,
            "original_name": "De Rodenburgs",
            "popularity": 1.232
        },
        {
            "id": 40604,
            "original_name": "Das Erbe der Guldenburgs",
            "popularity": 2.615
        },
        {
            "id": 40838,
            "original_name": "Rote Bergsteiger",
            "popularity": 1.377
        },
        {
            "id": 49009,
            "original_name": "The Goldbergs",
            "popularity": 35.079
        },
        {
            "id": 53537,
            "original_name": "Bill Bergson Lives Dangerously",
            "popularity": 0.6
        },
        {
            "id": 63048,
            "original_name": "Die Sternbergs - \u00c4rzte, Br\u00fcder, Leidenschaften",
            "popularity": 1.096
        },
        {
            "id": 63784,
            "original_name": "Die Ohnsorgs",
            "popularity": 0.858
        },
        {
            "id": 67028,
            "original_name": "Camilla L\u00e4ckbergs Fj\u00e4llbackamorden",
            "popularity": 1.063
        },
        {
            "id": 98068,
            "original_name": "Cyborgs Universe",
            "popularity": 1.4
        },
        {
            "id": 111887,
            "original_name": "Bergs Dr\u00f6mk\u00e5k",
            "popularity": 0.6
        },
        {
            "id": 117455,
            "original_name": "Phettbergs nette Leit Show",
            "popularity": 0.6
        },
        {
            "id": 121055,
            "original_name": "Erzgebirgskrimi",
            "popularity": 1.612
        },
        {
            "id": 124002,
            "original_name": "Dino's Bezorgservice",
            "popularity": 0.674
        },
        {
            "id": 136113,
            "original_name": "Bergs superlag",
            "popularity": 2.066
        }
    ]
}