{
    "data": [
        {
            "id": 6486,
            "original_name": "Celebrity Scissorhands",
            "popularity": 1.345
        },
        {
            "id": 49580,
            "original_name": "Nazl\u0131 \u00d6ztarhan ile Gece Haberleri",
            "popularity": 0.6
        },
        {
            "id": 51364,
            "original_name": "Orhan Abi Halk Show",
            "popularity": 0.6
        },
        {
            "id": 83464,
            "original_name": "Sell It Like Serhant",
            "popularity": 0.6
        },
        {
            "id": 96747,
            "original_name": "Det store juleshow med Burhan G",
            "popularity": 0.6
        },
        {
            "id": 127631,
            "original_name": "De unge brugtvognsforhandlere",
            "popularity": 0.6
        }
    ],
    "relations": [],
    "top20": [
        {
            "id": 6486,
            "original_name": "Celebrity Scissorhands",
            "popularity": 1.345
        },
        {
            "id": 49580,
            "original_name": "Nazl\u0131 \u00d6ztarhan ile Gece Haberleri",
            "popularity": 0.6
        },
        {
            "id": 51364,
            "original_name": "Orhan Abi Halk Show",
            "popularity": 0.6
        },
        {
            "id": 83464,
            "original_name": "Sell It Like Serhant",
            "popularity": 0.6
        },
        {
            "id": 96747,
            "original_name": "Det store juleshow med Burhan G",
            "popularity": 0.6
        },
        {
            "id": 127631,
            "original_name": "De unge brugtvognsforhandlere",
            "popularity": 0.6
        }
    ]
}