{
    "data": [
        {
            "id": 55388,
            "original_name": "Myf Warhurst's Nice",
            "popularity": 0.6
        }
    ],
    "relations": [],
    "top20": [
        {
            "id": 55388,
            "original_name": "Myf Warhurst's Nice",
            "popularity": 0.6
        }
    ]
}