{
    "data": [
        {
            "id": 24271,
            "original_name": "Shinkon Nari!",
            "popularity": 0.6
        }
    ],
    "relations": [],
    "top20": [
        {
            "id": 24271,
            "original_name": "Shinkon Nari!",
            "popularity": 0.6
        }
    ]
}