{
    "data": [
        {
            "id": 2806,
            "original_name": "The Lost Tribes",
            "popularity": 0.6
        },
        {
            "id": 14223,
            "original_name": "Tribes",
            "popularity": 0.6
        },
        {
            "id": 17920,
            "original_name": "Mark & Olly: Living with the Tribes",
            "popularity": 0.6
        },
        {
            "id": 84488,
            "original_name": "Tribes, Predators, and Me",
            "popularity": 0.636
        },
        {
            "id": 93808,
            "original_name": "Tribes of Europa",
            "popularity": 68.781
        },
        {
            "id": 130007,
            "original_name": "Masters of the Pacific Coast: The Tribes of the American Northwest",
            "popularity": 0.6
        }
    ],
    "relations": [],
    "top20": [
        {
            "id": 2806,
            "original_name": "The Lost Tribes",
            "popularity": 0.6
        },
        {
            "id": 14223,
            "original_name": "Tribes",
            "popularity": 0.6
        },
        {
            "id": 17920,
            "original_name": "Mark & Olly: Living with the Tribes",
            "popularity": 0.6
        },
        {
            "id": 84488,
            "original_name": "Tribes, Predators, and Me",
            "popularity": 0.636
        },
        {
            "id": 93808,
            "original_name": "Tribes of Europa",
            "popularity": 68.781
        },
        {
            "id": 130007,
            "original_name": "Masters of the Pacific Coast: The Tribes of the American Northwest",
            "popularity": 0.6
        }
    ]
}