{
    "data": [
        {
            "id": 8331,
            "original_name": "The Late Late Tribute Shows",
            "popularity": 0.6
        },
        {
            "id": 17830,
            "original_name": "A Tribute to the Likely Lads",
            "popularity": 0.6
        },
        {
            "id": 20906,
            "original_name": "Good Grief, Charlie Brown: A Tribute to Charles Schulz",
            "popularity": 0.6
        },
        {
            "id": 21616,
            "original_name": "America: A Tribute to Heroes",
            "popularity": 0.6
        },
        {
            "id": 28485,
            "original_name": "The Ultimate Tribute",
            "popularity": 0.6
        },
        {
            "id": 43602,
            "original_name": "Return to Sin City: A Tribute to Gram Parsons",
            "popularity": 0.6
        },
        {
            "id": 47013,
            "original_name": "A Tribute To Black Music Legends",
            "popularity": 0.6
        },
        {
            "id": 47124,
            "original_name": "Yanni: Tribute",
            "popularity": 0.6
        },
        {
            "id": 48816,
            "original_name": "Nicole Kidman: An American Cinematheque Tribute",
            "popularity": 0.6
        },
        {
            "id": 49356,
            "original_name": "Rhapsody and Song: A Tribute to George Gershwin",
            "popularity": 0.6
        },
        {
            "id": 49404,
            "original_name": "The Unbroken Circle: A Tribute to Mother Maybelle Carter",
            "popularity": 0.6
        },
        {
            "id": 49691,
            "original_name": "Rockette: A Holiday Tribute to Radio City Music Hall",
            "popularity": 0.6
        },
        {
            "id": 51484,
            "original_name": "The World's Greatest Tribute Bands",
            "popularity": 0.6
        },
        {
            "id": 56297,
            "original_name": "One love: The Bob Marley All-Star tribute",
            "popularity": 0.6
        },
        {
            "id": 56623,
            "original_name": "Uptown: A Tribute to the Apollo Theatre",
            "popularity": 0.6
        },
        {
            "id": 59809,
            "original_name": "Tribute Bands",
            "popularity": 0.6
        },
        {
            "id": 124249,
            "original_name": "ATN's Tribute to 100 Years of Indian Cinema",
            "popularity": 0.6
        },
        {
            "id": 139153,
            "original_name": "The Tribute - Battle of the Bands",
            "popularity": 0.6
        }
    ],
    "relations": [],
    "top20": [
        {
            "id": 8331,
            "original_name": "The Late Late Tribute Shows",
            "popularity": 0.6
        },
        {
            "id": 17830,
            "original_name": "A Tribute to the Likely Lads",
            "popularity": 0.6
        },
        {
            "id": 20906,
            "original_name": "Good Grief, Charlie Brown: A Tribute to Charles Schulz",
            "popularity": 0.6
        },
        {
            "id": 21616,
            "original_name": "America: A Tribute to Heroes",
            "popularity": 0.6
        },
        {
            "id": 28485,
            "original_name": "The Ultimate Tribute",
            "popularity": 0.6
        },
        {
            "id": 43602,
            "original_name": "Return to Sin City: A Tribute to Gram Parsons",
            "popularity": 0.6
        },
        {
            "id": 47013,
            "original_name": "A Tribute To Black Music Legends",
            "popularity": 0.6
        },
        {
            "id": 47124,
            "original_name": "Yanni: Tribute",
            "popularity": 0.6
        },
        {
            "id": 48816,
            "original_name": "Nicole Kidman: An American Cinematheque Tribute",
            "popularity": 0.6
        },
        {
            "id": 49356,
            "original_name": "Rhapsody and Song: A Tribute to George Gershwin",
            "popularity": 0.6
        },
        {
            "id": 49404,
            "original_name": "The Unbroken Circle: A Tribute to Mother Maybelle Carter",
            "popularity": 0.6
        },
        {
            "id": 49691,
            "original_name": "Rockette: A Holiday Tribute to Radio City Music Hall",
            "popularity": 0.6
        },
        {
            "id": 51484,
            "original_name": "The World's Greatest Tribute Bands",
            "popularity": 0.6
        },
        {
            "id": 56297,
            "original_name": "One love: The Bob Marley All-Star tribute",
            "popularity": 0.6
        },
        {
            "id": 56623,
            "original_name": "Uptown: A Tribute to the Apollo Theatre",
            "popularity": 0.6
        },
        {
            "id": 59809,
            "original_name": "Tribute Bands",
            "popularity": 0.6
        },
        {
            "id": 124249,
            "original_name": "ATN's Tribute to 100 Years of Indian Cinema",
            "popularity": 0.6
        },
        {
            "id": 139153,
            "original_name": "The Tribute - Battle of the Bands",
            "popularity": 0.6
        }
    ]
}