{
    "data": [
        {
            "id": 474,
            "original_name": "Nash Bridges",
            "popularity": 26.083
        },
        {
            "id": 960,
            "original_name": "Knowing Me Knowing You with Alan Partridge",
            "popularity": 6.481
        },
        {
            "id": 1073,
            "original_name": "I'm Alan Partridge",
            "popularity": 9.671
        },
        {
            "id": 2292,
            "original_name": "Porridge",
            "popularity": 8.403
        },
        {
            "id": 6200,
            "original_name": "Cambridge Spies",
            "popularity": 3.823
        },
        {
            "id": 6548,
            "original_name": "Bridget Loves Bernie",
            "popularity": 2.132
        },
        {
            "id": 10057,
            "original_name": "Partridge Family 2200 A.D.",
            "popularity": 2.79
        },
        {
            "id": 13941,
            "original_name": "The Partridge Family",
            "popularity": 3.859
        },
        {
            "id": 14094,
            "original_name": "London Bridge",
            "popularity": 0.879
        },
        {
            "id": 14266,
            "original_name": "Brooklyn Bridge",
            "popularity": 3.982
        },
        {
            "id": 16199,
            "original_name": "The Lloyd Bridges Show",
            "popularity": 1.199
        },
        {
            "id": 16634,
            "original_name": "The Bridge",
            "popularity": 0.842
        },
        {
            "id": 17097,
            "original_name": "Ridgey Didge",
            "popularity": 0.6
        },
        {
            "id": 18359,
            "original_name": "The Bridge",
            "popularity": 2.606
        },
        {
            "id": 21392,
            "original_name": "Inside Bridgewater",
            "popularity": 0.6
        },
        {
            "id": 21642,
            "original_name": "The Bridget Show",
            "popularity": 0.6
        },
        {
            "id": 25242,
            "original_name": "Bridges to Cross",
            "popularity": 1.795
        },
        {
            "id": 25378,
            "original_name": "Destiny Ridge",
            "popularity": 0.6
        },
        {
            "id": 25734,
            "original_name": "Burned Bridge",
            "popularity": 0.6
        },
        {
            "id": 27713,
            "original_name": "The New Partridge Family",
            "popularity": 0.6
        },
        {
            "id": 28715,
            "original_name": "Bridget's Sexiest Beaches",
            "popularity": 0.933
        },
        {
            "id": 30397,
            "original_name": "Ukridge",
            "popularity": 1.4
        },
        {
            "id": 30658,
            "original_name": "The Mayor of Casterbridge",
            "popularity": 1.722
        },
        {
            "id": 34399,
            "original_name": "Oxbridge Blues",
            "popularity": 1.694
        },
        {
            "id": 39415,
            "original_name": "River Ridge",
            "popularity": 0.6
        },
        {
            "id": 41684,
            "original_name": "Mid Morning Matters with Alan Partridge",
            "popularity": 2.39
        },
        {
            "id": 43253,
            "original_name": "Kevin Bridges: What's the Story?",
            "popularity": 0.881
        },
        {
            "id": 43454,
            "original_name": "The True Story of the Bridge on the River Kwai",
            "popularity": 0.6
        },
        {
            "id": 45800,
            "original_name": "China: Walls and Bridges",
            "popularity": 0.6
        },
        {
            "id": 46643,
            "original_name": "Mr Selfridge",
            "popularity": 7.087
        },
        {
            "id": 47141,
            "original_name": "The Bridge",
            "popularity": 20.125
        },
        {
            "id": 47528,
            "original_name": "Bridge to Silence",
            "popularity": 0.6
        },
        {
            "id": 55614,
            "original_name": "Inside Claridge's",
            "popularity": 0.6
        },
        {
            "id": 56249,
            "original_name": "Water Under the Bridge",
            "popularity": 1.517
        },
        {
            "id": 56468,
            "original_name": "The Siege at Ruby Ridge",
            "popularity": 0.6
        },
        {
            "id": 57817,
            "original_name": "Mansbridge One on One",
            "popularity": 0.6
        },
        {
            "id": 58231,
            "original_name": "Porter Ridge",
            "popularity": 0.6
        },
        {
            "id": 60080,
            "original_name": "Tom Kerridge's Proper Pub Food",
            "popularity": 0.6
        },
        {
            "id": 60259,
            "original_name": "CBC News: Vimy Ridge 90",
            "popularity": 0.6
        },
        {
            "id": 60303,
            "original_name": "Vimy Ridge: Heaven To Hell",
            "popularity": 0.6
        },
        {
            "id": 61585,
            "original_name": "Olive Kitteridge",
            "popularity": 15.033
        },
        {
            "id": 62228,
            "original_name": "Burning Bridges",
            "popularity": 0.6
        },
        {
            "id": 65537,
            "original_name": "Bridget & Eamon",
            "popularity": 1.891
        },
        {
            "id": 72124,
            "original_name": "Ackley Bridge",
            "popularity": 7.446
        },
        {
            "id": 74358,
            "original_name": "Porridge",
            "popularity": 1.865
        },
        {
            "id": 74633,
            "original_name": "Britain's Greatest Bridges",
            "popularity": 0.6
        },
        {
            "id": 84682,
            "original_name": "World's Greatest Bridges",
            "popularity": 0.6
        },
        {
            "id": 84738,
            "original_name": "The Bridge",
            "popularity": 1.4
        },
        {
            "id": 85456,
            "original_name": "Tom Kerridge's Fresh Start",
            "popularity": 0.606
        },
        {
            "id": 85498,
            "original_name": "The Bridge : le Tr\u00e9sor de Patagonie",
            "popularity": 0.6
        },
        {
            "id": 87058,
            "original_name": "This Time with Alan Partridge",
            "popularity": 2.915
        },
        {
            "id": 90219,
            "original_name": "Cabins in the Wild with Dick Strawbridge",
            "popularity": 0.993
        },
        {
            "id": 91239,
            "original_name": "Bridgerton",
            "popularity": 89.351
        },
        {
            "id": 97142,
            "original_name": "Arnhem 1944 A Bridge Too Far Collection",
            "popularity": 0.6
        },
        {
            "id": 97977,
            "original_name": "Lose Weight and Get Fit with Tom Kerridge",
            "popularity": 0.6
        },
        {
            "id": 99914,
            "original_name": "Fridge Wars",
            "popularity": 0.6
        },
        {
            "id": 100157,
            "original_name": "Borderforce USA The Bridges",
            "popularity": 1.388
        },
        {
            "id": 102278,
            "original_name": "One Lane Bridge",
            "popularity": 5.619
        },
        {
            "id": 108173,
            "original_name": "The Bridge",
            "popularity": 0.636
        },
        {
            "id": 111146,
            "original_name": "Die Mockridges - Eine Knallerfamilie",
            "popularity": 0.6
        },
        {
            "id": 111750,
            "original_name": "Bridge and Tunnel",
            "popularity": 1.787
        },
        {
            "id": 112551,
            "original_name": "Saving Britain's Pubs with Tom Kerridge",
            "popularity": 0.84
        },
        {
            "id": 116000,
            "original_name": "Tom Kerridge Barbecues",
            "popularity": 0.6
        },
        {
            "id": 116062,
            "original_name": "Mega Bridges",
            "popularity": 0.6
        },
        {
            "id": 125028,
            "original_name": "BRIDGE\u3000\u306f\u3058\u307e\u308a\u306f1995.1.17 \u795e\u6238",
            "popularity": 0.6
        },
        {
            "id": 127337,
            "original_name": "Bridging the Expanse",
            "popularity": 0.6
        },
        {
            "id": 133308,
            "original_name": "Stories From The Heart: Loving Miss Bridgette",
            "popularity": 1.738
        },
        {
            "id": 135703,
            "original_name": "Rob Bell's Bridges That Built London",
            "popularity": 0.6
        },
        {
            "id": 136394,
            "original_name": "Freeridge",
            "popularity": 1.09
        }
    ],
    "relations": [
        {
            "character": "ridge"
        },
        {
            "character": "ridgi"
        }
    ],
    "top20": [
        {
            "id": 91239,
            "original_name": "Bridgerton",
            "popularity": 89.351
        },
        {
            "id": 474,
            "original_name": "Nash Bridges",
            "popularity": 26.083
        },
        {
            "id": 47141,
            "original_name": "The Bridge",
            "popularity": 20.125
        },
        {
            "id": 61585,
            "original_name": "Olive Kitteridge",
            "popularity": 15.033
        },
        {
            "id": 1073,
            "original_name": "I'm Alan Partridge",
            "popularity": 9.671
        },
        {
            "id": 2292,
            "original_name": "Porridge",
            "popularity": 8.403
        },
        {
            "id": 72124,
            "original_name": "Ackley Bridge",
            "popularity": 7.446
        },
        {
            "id": 46643,
            "original_name": "Mr Selfridge",
            "popularity": 7.087
        },
        {
            "id": 960,
            "original_name": "Knowing Me Knowing You with Alan Partridge",
            "popularity": 6.481
        },
        {
            "id": 102278,
            "original_name": "One Lane Bridge",
            "popularity": 5.619
        },
        {
            "id": 14266,
            "original_name": "Brooklyn Bridge",
            "popularity": 3.982
        },
        {
            "id": 13941,
            "original_name": "The Partridge Family",
            "popularity": 3.859
        },
        {
            "id": 6200,
            "original_name": "Cambridge Spies",
            "popularity": 3.823
        },
        {
            "id": 87058,
            "original_name": "This Time with Alan Partridge",
            "popularity": 2.915
        },
        {
            "id": 10057,
            "original_name": "Partridge Family 2200 A.D.",
            "popularity": 2.79
        },
        {
            "id": 18359,
            "original_name": "The Bridge",
            "popularity": 2.606
        },
        {
            "id": 41684,
            "original_name": "Mid Morning Matters with Alan Partridge",
            "popularity": 2.39
        },
        {
            "id": 6548,
            "original_name": "Bridget Loves Bernie",
            "popularity": 2.132
        },
        {
            "id": 65537,
            "original_name": "Bridget & Eamon",
            "popularity": 1.891
        },
        {
            "id": 74358,
            "original_name": "Porridge",
            "popularity": 1.865
        }
    ]
}