{
    "data": [
        {
            "id": 21040,
            "original_name": "Marielena",
            "popularity": 0.6
        }
    ],
    "relations": [],
    "top20": [
        {
            "id": 21040,
            "original_name": "Marielena",
            "popularity": 0.6
        }
    ]
}