{
    "data": [
        {
            "id": 9038,
            "original_name": "Harrigan",
            "popularity": 0.6
        },
        {
            "id": 18452,
            "original_name": "Harrigan and Son",
            "popularity": 3.428
        },
        {
            "id": 20815,
            "original_name": "Malo Korrigan",
            "popularity": 0.6
        },
        {
            "id": 28308,
            "original_name": "Crash Corrigan's Ranch",
            "popularity": 0.6
        },
        {
            "id": 28927,
            "original_name": "Corrigan Blake",
            "popularity": 1.341
        },
        {
            "id": 60881,
            "original_name": "La kermesse des brigands",
            "popularity": 0.637
        },
        {
            "id": 78674,
            "original_name": "Cartouche, le brigand magnifique",
            "popularity": 0.6
        },
        {
            "id": 86649,
            "original_name": "Il Generale Dei Briganti",
            "popularity": 0.924
        },
        {
            "id": 101022,
            "original_name": "Anthelme Collet ou le brigand gentilhomme",
            "popularity": 1.34
        }
    ],
    "relations": [],
    "top20": [
        {
            "id": 9038,
            "original_name": "Harrigan",
            "popularity": 0.6
        },
        {
            "id": 18452,
            "original_name": "Harrigan and Son",
            "popularity": 3.428
        },
        {
            "id": 20815,
            "original_name": "Malo Korrigan",
            "popularity": 0.6
        },
        {
            "id": 28308,
            "original_name": "Crash Corrigan's Ranch",
            "popularity": 0.6
        },
        {
            "id": 28927,
            "original_name": "Corrigan Blake",
            "popularity": 1.341
        },
        {
            "id": 60881,
            "original_name": "La kermesse des brigands",
            "popularity": 0.637
        },
        {
            "id": 78674,
            "original_name": "Cartouche, le brigand magnifique",
            "popularity": 0.6
        },
        {
            "id": 86649,
            "original_name": "Il Generale Dei Briganti",
            "popularity": 0.924
        },
        {
            "id": 101022,
            "original_name": "Anthelme Collet ou le brigand gentilhomme",
            "popularity": 1.34
        }
    ]
}