{
    "data": [
        {
            "id": 63478,
            "original_name": "Krimistunde",
            "popularity": 3.792
        }
    ],
    "relations": [],
    "top20": [
        {
            "id": 63478,
            "original_name": "Krimistunde",
            "popularity": 3.792
        }
    ]
}