{
    "data": [
        {
            "id": 22309,
            "original_name": "Alcharinga",
            "popularity": 0.6
        },
        {
            "id": 123052,
            "original_name": "Sweet Home Ketteringa",
            "popularity": 0.6
        },
        {
            "id": 126678,
            "original_name": "Angkringan the Series",
            "popularity": 3.811
        }
    ],
    "relations": [],
    "top20": [
        {
            "id": 22309,
            "original_name": "Alcharinga",
            "popularity": 0.6
        },
        {
            "id": 123052,
            "original_name": "Sweet Home Ketteringa",
            "popularity": 0.6
        },
        {
            "id": 126678,
            "original_name": "Angkringan the Series",
            "popularity": 3.811
        }
    ]
}