{
    "data": [
        {
            "id": 6122,
            "original_name": "Blueprint for Disaster",
            "popularity": 0.6
        },
        {
            "id": 11094,
            "original_name": "Imprint",
            "popularity": 0.6
        },
        {
            "id": 12155,
            "original_name": "Into the Labyrinth",
            "popularity": 1.686
        },
        {
            "id": 15382,
            "original_name": "Labyrint",
            "popularity": 0.679
        },
        {
            "id": 19948,
            "original_name": "Le Chevalier Du Labyrinthe",
            "popularity": 0.6
        },
        {
            "id": 25263,
            "original_name": "Blueprint for Homebuilding",
            "popularity": 0.6
        },
        {
            "id": 29374,
            "original_name": "Blueprint",
            "popularity": 0.6
        },
        {
            "id": 30631,
            "original_name": "H2O ~Footprints in the Sand~",
            "popularity": 2.697
        },
        {
            "id": 36233,
            "original_name": "Labyrint (NL)",
            "popularity": 0.6
        },
        {
            "id": 36756,
            "original_name": "Quest for the NASCAR Sprint Cup",
            "popularity": 0.6
        },
        {
            "id": 37072,
            "original_name": "Sprint!",
            "popularity": 1.4
        },
        {
            "id": 43529,
            "original_name": "Labyrinth",
            "popularity": 7.065
        },
        {
            "id": 46132,
            "original_name": "Paperissima Sprint",
            "popularity": 3.918
        },
        {
            "id": 46165,
            "original_name": "Trintignant l'italien",
            "popularity": 0.6
        },
        {
            "id": 53365,
            "original_name": "Het Labyrint",
            "popularity": 0.6
        },
        {
            "id": 55929,
            "original_name": "First Footprints",
            "popularity": 0.6
        },
        {
            "id": 57158,
            "original_name": "Blueprint: Lil Wayne",
            "popularity": 0.6
        },
        {
            "id": 59574,
            "original_name": "Laberintos de pasi\u00f3n",
            "popularity": 1.654
        },
        {
            "id": 61736,
            "original_name": "The Sprint: Making Halo 5",
            "popularity": 0.6
        },
        {
            "id": 64070,
            "original_name": "Labyrint",
            "popularity": 1.919
        },
        {
            "id": 73216,
            "original_name": "Project Nazi: The Blueprints of Evil",
            "popularity": 0.6
        },
        {
            "id": 91638,
            "original_name": "Labirinto",
            "popularity": 1.039
        },
        {
            "id": 98103,
            "original_name": "Mooseksen perint\u00f6",
            "popularity": 0.659
        },
        {
            "id": 101949,
            "original_name": "El laberinto de Alicia",
            "popularity": 3.675
        },
        {
            "id": 105491,
            "original_name": "Tantei Yuri Rintarou",
            "popularity": 0.84
        },
        {
            "id": 109513,
            "original_name": "\u5bf8\u8349\u5fc3 Rintihan Si Ibu",
            "popularity": 0.6
        },
        {
            "id": 112509,
            "original_name": "H20 Footprints in the Sand",
            "popularity": 0.6
        },
        {
            "id": 113030,
            "original_name": "Labyrint sv\u011bta a r\u00e1j srdce",
            "popularity": 0.6
        },
        {
            "id": 114536,
            "original_name": "Labyrint: Daidalos' hemmelighet",
            "popularity": 1.4
        },
        {
            "id": 124937,
            "original_name": "Superhelten Sprinter Galore",
            "popularity": 0.687
        },
        {
            "id": 124940,
            "original_name": "Rintje",
            "popularity": 0.6
        },
        {
            "id": 125331,
            "original_name": "Les printemps arabes : de l'espoir au d\u00e9sespoir",
            "popularity": 0.6
        },
        {
            "id": 126160,
            "original_name": "El Laberinto",
            "popularity": 0.668
        },
        {
            "id": 127927,
            "original_name": "Les enfants du printemps",
            "popularity": 0.6
        },
        {
            "id": 129509,
            "original_name": "\u30d7\u30ea\u30f3\u30bb\u30b9\u30fb\u30eb\u30fc\u30b8\u30e5 LEGEND OF THE LAST LABYRINTH",
            "popularity": 0.71
        },
        {
            "id": 133062,
            "original_name": "Blueprint: New York City",
            "popularity": 0.6
        },
        {
            "id": 135454,
            "original_name": "Acesso Total: Corinthians",
            "popularity": 0.6
        }
    ],
    "relations": [
        {
            "character": "rinth"
        },
        {
            "character": "rints"
        },
        {
            "character": "rint!"
        },
        {
            "character": "rinti"
        },
        {
            "character": "rinto"
        },
        {
            "character": "rinta"
        },
        {
            "character": "rinte"
        },
        {
            "character": "rintj"
        }
    ],
    "top20": [
        {
            "id": 43529,
            "original_name": "Labyrinth",
            "popularity": 7.065
        },
        {
            "id": 46132,
            "original_name": "Paperissima Sprint",
            "popularity": 3.918
        },
        {
            "id": 101949,
            "original_name": "El laberinto de Alicia",
            "popularity": 3.675
        },
        {
            "id": 30631,
            "original_name": "H2O ~Footprints in the Sand~",
            "popularity": 2.697
        },
        {
            "id": 64070,
            "original_name": "Labyrint",
            "popularity": 1.919
        },
        {
            "id": 12155,
            "original_name": "Into the Labyrinth",
            "popularity": 1.686
        },
        {
            "id": 59574,
            "original_name": "Laberintos de pasi\u00f3n",
            "popularity": 1.654
        },
        {
            "id": 37072,
            "original_name": "Sprint!",
            "popularity": 1.4
        },
        {
            "id": 114536,
            "original_name": "Labyrint: Daidalos' hemmelighet",
            "popularity": 1.4
        },
        {
            "id": 91638,
            "original_name": "Labirinto",
            "popularity": 1.039
        },
        {
            "id": 105491,
            "original_name": "Tantei Yuri Rintarou",
            "popularity": 0.84
        },
        {
            "id": 129509,
            "original_name": "\u30d7\u30ea\u30f3\u30bb\u30b9\u30fb\u30eb\u30fc\u30b8\u30e5 LEGEND OF THE LAST LABYRINTH",
            "popularity": 0.71
        },
        {
            "id": 124937,
            "original_name": "Superhelten Sprinter Galore",
            "popularity": 0.687
        },
        {
            "id": 15382,
            "original_name": "Labyrint",
            "popularity": 0.679
        },
        {
            "id": 126160,
            "original_name": "El Laberinto",
            "popularity": 0.668
        },
        {
            "id": 98103,
            "original_name": "Mooseksen perint\u00f6",
            "popularity": 0.659
        },
        {
            "id": 11094,
            "original_name": "Imprint",
            "popularity": 0.6
        },
        {
            "id": 19948,
            "original_name": "Le Chevalier Du Labyrinthe",
            "popularity": 0.6
        },
        {
            "id": 25263,
            "original_name": "Blueprint for Homebuilding",
            "popularity": 0.6
        },
        {
            "id": 6122,
            "original_name": "Blueprint for Disaster",
            "popularity": 0.6
        }
    ]
}