{
    "data": [
        {
            "id": 103826,
            "original_name": "Le Triomphe des vert\u00e9br\u00e9s",
            "popularity": 0.6
        }
    ],
    "relations": [],
    "top20": [
        {
            "id": 103826,
            "original_name": "Le Triomphe des vert\u00e9br\u00e9s",
            "popularity": 0.6
        }
    ]
}