{
    "data": [
        {
            "id": 138082,
            "original_name": "Mundo CurioZoo",
            "popularity": 0.779
        }
    ],
    "relations": [],
    "top20": [
        {
            "id": 138082,
            "original_name": "Mundo CurioZoo",
            "popularity": 0.779
        }
    ]
}