{
    "data": [
        {
            "id": 5065,
            "original_name": "Il \u00e9tait une fois\u2026 les Am\u00e9riques",
            "popularity": 3.371
        },
        {
            "id": 60336,
            "original_name": "T\u00fa, Mi Riqueza",
            "popularity": 0.6
        },
        {
            "id": 61668,
            "original_name": "Les Routes Mythiques De l'Am\u00e9rique",
            "popularity": 0.6
        },
        {
            "id": 62854,
            "original_name": "Afrique(s), une autre histoire du XX\u00e8me si\u00e8cle",
            "popularity": 0.6
        },
        {
            "id": 67411,
            "original_name": "L'amour au temps du num\u00e9rique",
            "popularity": 0.6
        },
        {
            "id": 69748,
            "original_name": "J'irai dormir en Am\u00e9rique",
            "popularity": 0.6
        },
        {
            "id": 71372,
            "original_name": "Amnesie Numerique",
            "popularity": 0.6
        },
        {
            "id": 73761,
            "original_name": "Une Brique A La Fois",
            "popularity": 0.6
        },
        {
            "id": 73762,
            "original_name": "L'Am\u00e9rique de Michel Barrette",
            "popularity": 0.6
        },
        {
            "id": 76917,
            "original_name": "L'Afrique des paradis naturels",
            "popularity": 0.847
        },
        {
            "id": 90959,
            "original_name": "Afrique, les arbres de la vie",
            "popularity": 0.6
        },
        {
            "id": 98150,
            "original_name": "La p\u00e9ninsule Ib\u00e9rique au fil de l'eau",
            "popularity": 0.6
        },
        {
            "id": 98870,
            "original_name": "Am\u00e9rique du sud, sur la route des extr\u00eames",
            "popularity": 0.6
        },
        {
            "id": 99197,
            "original_name": "Merveilles d\u2019Afrique",
            "popularity": 0.6
        },
        {
            "id": 99481,
            "original_name": "Les Chroniques de l'Afrique Sauvage",
            "popularity": 0.6
        },
        {
            "id": 104817,
            "original_name": "Demain l'Afrique",
            "popularity": 0.6
        },
        {
            "id": 105625,
            "original_name": "La grande histoire des peuples d'am\u00e9rique",
            "popularity": 0.6
        },
        {
            "id": 110769,
            "original_name": "L\u2019Acad\u00e9mie \u00e9lectrique du Guide de l\u2019auto",
            "popularity": 1.4
        },
        {
            "id": 113462,
            "original_name": "La Fabrique du Mensonge",
            "popularity": 0.766
        },
        {
            "id": 119919,
            "original_name": "Magic - La Famille F\u00e9erique",
            "popularity": 0.6
        },
        {
            "id": 122743,
            "original_name": "HomeGrown Makeover with Frederique and Carter",
            "popularity": 0.6
        },
        {
            "id": 128671,
            "original_name": "Le neveu d'Am\u00e9rique",
            "popularity": 0.6
        },
        {
            "id": 129623,
            "original_name": "Les sentinelles de l'Afrique",
            "popularity": 0.6
        },
        {
            "id": 130925,
            "original_name": "Briquefan",
            "popularity": 0.6
        },
        {
            "id": 132319,
            "original_name": "Justin Trudeau - L'Autre Amerique",
            "popularity": 0.6
        },
        {
            "id": 133058,
            "original_name": "Kirikou d\u00e9couvre les animaux d'Afrique",
            "popularity": 0.6
        },
        {
            "id": 137367,
            "original_name": "L'am\u00e9rique inexplor\u00e9e",
            "popularity": 0.6
        }
    ],
    "relations": [
        {
            "character": "rique"
        }
    ],
    "top20": [
        {
            "id": 5065,
            "original_name": "Il \u00e9tait une fois\u2026 les Am\u00e9riques",
            "popularity": 3.371
        },
        {
            "id": 110769,
            "original_name": "L\u2019Acad\u00e9mie \u00e9lectrique du Guide de l\u2019auto",
            "popularity": 1.4
        },
        {
            "id": 76917,
            "original_name": "L'Afrique des paradis naturels",
            "popularity": 0.847
        },
        {
            "id": 113462,
            "original_name": "La Fabrique du Mensonge",
            "popularity": 0.766
        },
        {
            "id": 99481,
            "original_name": "Les Chroniques de l'Afrique Sauvage",
            "popularity": 0.6
        },
        {
            "id": 62854,
            "original_name": "Afrique(s), une autre histoire du XX\u00e8me si\u00e8cle",
            "popularity": 0.6
        },
        {
            "id": 90959,
            "original_name": "Afrique, les arbres de la vie",
            "popularity": 0.6
        },
        {
            "id": 67411,
            "original_name": "L'amour au temps du num\u00e9rique",
            "popularity": 0.6
        },
        {
            "id": 61668,
            "original_name": "Les Routes Mythiques De l'Am\u00e9rique",
            "popularity": 0.6
        },
        {
            "id": 98150,
            "original_name": "La p\u00e9ninsule Ib\u00e9rique au fil de l'eau",
            "popularity": 0.6
        },
        {
            "id": 98870,
            "original_name": "Am\u00e9rique du sud, sur la route des extr\u00eames",
            "popularity": 0.6
        },
        {
            "id": 60336,
            "original_name": "T\u00fa, Mi Riqueza",
            "popularity": 0.6
        },
        {
            "id": 73762,
            "original_name": "L'Am\u00e9rique de Michel Barrette",
            "popularity": 0.6
        },
        {
            "id": 105625,
            "original_name": "La grande histoire des peuples d'am\u00e9rique",
            "popularity": 0.6
        },
        {
            "id": 71372,
            "original_name": "Amnesie Numerique",
            "popularity": 0.6
        },
        {
            "id": 73761,
            "original_name": "Une Brique A La Fois",
            "popularity": 0.6
        },
        {
            "id": 104817,
            "original_name": "Demain l'Afrique",
            "popularity": 0.6
        },
        {
            "id": 69748,
            "original_name": "J'irai dormir en Am\u00e9rique",
            "popularity": 0.6
        },
        {
            "id": 99197,
            "original_name": "Merveilles d\u2019Afrique",
            "popularity": 0.6
        },
        {
            "id": 119919,
            "original_name": "Magic - La Famille F\u00e9erique",
            "popularity": 0.6
        }
    ]
}