{
    "data": [
        {
            "id": 8988,
            "original_name": "Huset p\u00e5 Christianshavn",
            "popularity": 3.008
        },
        {
            "id": 9615,
            "original_name": "Christian Community Television",
            "popularity": 0.6
        },
        {
            "id": 15403,
            "original_name": "Aboriginal Christian Television System",
            "popularity": 0.6
        },
        {
            "id": 16606,
            "original_name": "Hans Christian Andersen: My Life as a Fairytale",
            "popularity": 1.548
        },
        {
            "id": 25473,
            "original_name": "Doctor Christian",
            "popularity": 0.6
        },
        {
            "id": 25639,
            "original_name": "Christian O'Connell's Sunday Service",
            "popularity": 0.842
        },
        {
            "id": 37287,
            "original_name": "Christianity: A History",
            "popularity": 0.6
        },
        {
            "id": 37387,
            "original_name": "A History Of Christianity",
            "popularity": 0.6
        },
        {
            "id": 51139,
            "original_name": "Kristian",
            "popularity": 0.694
        },
        {
            "id": 61073,
            "original_name": "Ich, Christian Hahn",
            "popularity": 0.6
        },
        {
            "id": 61997,
            "original_name": "Christian und Christiane",
            "popularity": 1.188
        },
        {
            "id": 63845,
            "original_name": "Efters\u00f8gt - med Kristian Bech",
            "popularity": 0.885
        },
        {
            "id": 64193,
            "original_name": "Sabine Christiansen",
            "popularity": 10.417
        },
        {
            "id": 65899,
            "original_name": "The Edge and Christian Show That Totally Reeks of Awesomeness",
            "popularity": 3.604
        },
        {
            "id": 67266,
            "original_name": "Real Christian Talk Show",
            "popularity": 0.6
        },
        {
            "id": 69347,
            "original_name": "Ottomans Versus Christians: Battle for Europe",
            "popularity": 0.6
        },
        {
            "id": 69985,
            "original_name": "L'Origine du Christianisme",
            "popularity": 0.631
        },
        {
            "id": 77306,
            "original_name": "Christianity: The First 1000 Years",
            "popularity": 0.6
        },
        {
            "id": 77307,
            "original_name": "Christianity: The Second Millennium",
            "popularity": 0.681
        },
        {
            "id": 78112,
            "original_name": "Christiane Amanpour: Sex & Love Around the World",
            "popularity": 2.534
        },
        {
            "id": 85750,
            "original_name": "Dr Christian Will See You Now",
            "popularity": 0.869
        },
        {
            "id": 93837,
            "original_name": "Cristiano Ronaldo helt taet p\u00e5",
            "popularity": 1.06
        },
        {
            "id": 93981,
            "original_name": "Ottomans vs Christians",
            "popularity": 0.6
        },
        {
            "id": 100079,
            "original_name": "Queen of New York: Backstage at 'King Kong' with Christiani Pitts",
            "popularity": 7.96
        },
        {
            "id": 102167,
            "original_name": "Secrets of Christianity",
            "popularity": 0.6
        },
        {
            "id": 134850,
            "original_name": "Peter & Paul and the Christian Revolution",
            "popularity": 0.6
        },
        {
            "id": 137983,
            "original_name": "Dr Christian: Special clinics",
            "popularity": 0.6
        },
        {
            "id": 138366,
            "original_name": "Christianity: The First Two Thousand Years",
            "popularity": 0.6
        },
        {
            "id": 139286,
            "original_name": "Kristiania magiske tivolitheater",
            "popularity": 217.83
        }
    ],
    "relations": [
        {
            "character": "ristians"
        },
        {
            "character": "ristiani"
        },
        {
            "character": "ristiane"
        },
        {
            "character": "ristiano"
        }
    ],
    "top20": [
        {
            "id": 139286,
            "original_name": "Kristiania magiske tivolitheater",
            "popularity": 217.83
        },
        {
            "id": 64193,
            "original_name": "Sabine Christiansen",
            "popularity": 10.417
        },
        {
            "id": 100079,
            "original_name": "Queen of New York: Backstage at 'King Kong' with Christiani Pitts",
            "popularity": 7.96
        },
        {
            "id": 65899,
            "original_name": "The Edge and Christian Show That Totally Reeks of Awesomeness",
            "popularity": 3.604
        },
        {
            "id": 8988,
            "original_name": "Huset p\u00e5 Christianshavn",
            "popularity": 3.008
        },
        {
            "id": 78112,
            "original_name": "Christiane Amanpour: Sex & Love Around the World",
            "popularity": 2.534
        },
        {
            "id": 16606,
            "original_name": "Hans Christian Andersen: My Life as a Fairytale",
            "popularity": 1.548
        },
        {
            "id": 61997,
            "original_name": "Christian und Christiane",
            "popularity": 1.188
        },
        {
            "id": 93837,
            "original_name": "Cristiano Ronaldo helt taet p\u00e5",
            "popularity": 1.06
        },
        {
            "id": 63845,
            "original_name": "Efters\u00f8gt - med Kristian Bech",
            "popularity": 0.885
        },
        {
            "id": 85750,
            "original_name": "Dr Christian Will See You Now",
            "popularity": 0.869
        },
        {
            "id": 25639,
            "original_name": "Christian O'Connell's Sunday Service",
            "popularity": 0.842
        },
        {
            "id": 51139,
            "original_name": "Kristian",
            "popularity": 0.694
        },
        {
            "id": 77307,
            "original_name": "Christianity: The Second Millennium",
            "popularity": 0.681
        },
        {
            "id": 69985,
            "original_name": "L'Origine du Christianisme",
            "popularity": 0.631
        },
        {
            "id": 9615,
            "original_name": "Christian Community Television",
            "popularity": 0.6
        },
        {
            "id": 37387,
            "original_name": "A History Of Christianity",
            "popularity": 0.6
        },
        {
            "id": 37287,
            "original_name": "Christianity: A History",
            "popularity": 0.6
        },
        {
            "id": 15403,
            "original_name": "Aboriginal Christian Television System",
            "popularity": 0.6
        },
        {
            "id": 25473,
            "original_name": "Doctor Christian",
            "popularity": 0.6
        }
    ]
}