{
    "data": [
        {
            "id": 323,
            "original_name": "The Knights of Prosperity",
            "popularity": 2.084
        },
        {
            "id": 1216,
            "original_name": "Bish\u014djo Celebrity Panchanne",
            "popularity": 0.6
        },
        {
            "id": 2423,
            "original_name": "Celebrity Deathmatch",
            "popularity": 11.017
        },
        {
            "id": 2476,
            "original_name": "Celebrity Love Island",
            "popularity": 1.552
        },
        {
            "id": 2655,
            "original_name": "Britain's Worst Celebrity Driver",
            "popularity": 0.6
        },
        {
            "id": 2688,
            "original_name": "Celebrity Wrestling",
            "popularity": 0.614
        },
        {
            "id": 2727,
            "original_name": "Border Security: Australia's Front Line",
            "popularity": 4.283
        },
        {
            "id": 3298,
            "original_name": "Celebrity Duets",
            "popularity": 0.89
        },
        {
            "id": 3531,
            "original_name": "The Celebrity Apprentice",
            "popularity": 10.84
        },
        {
            "id": 3598,
            "original_name": "Celebrity Paranormal Project",
            "popularity": 1.41
        },
        {
            "id": 3942,
            "original_name": "Celebrity Fit Club",
            "popularity": 1.985
        },
        {
            "id": 4055,
            "original_name": "Celebrity Dog School",
            "popularity": 0.6
        },
        {
            "id": 4555,
            "original_name": "Celebrity Cooking Showdown",
            "popularity": 1.731
        },
        {
            "id": 4993,
            "original_name": "Fast Cars and Superstars: The Gillette Young Guns Celebrity Race",
            "popularity": 0.6
        },
        {
            "id": 5219,
            "original_name": "Celebrity Duets: Philippine Edition",
            "popularity": 1.97
        },
        {
            "id": 5226,
            "original_name": "Celebrity Sweepstakes",
            "popularity": 0.6
        },
        {
            "id": 5478,
            "original_name": "Celebrity Family Feud",
            "popularity": 5.492
        },
        {
            "id": 6000,
            "original_name": "Celebrity Juice",
            "popularity": 8.015
        },
        {
            "id": 6486,
            "original_name": "Celebrity Scissorhands",
            "popularity": 1.345
        },
        {
            "id": 6760,
            "original_name": "Ty Murray\u2019s Celebrity Bull Riding Challenge",
            "popularity": 0.6
        },
        {
            "id": 7374,
            "original_name": "Hulk Hogan's Celebrity Championship Wrestling",
            "popularity": 1.761
        },
        {
            "id": 7411,
            "original_name": "Celebrity Circus",
            "popularity": 0.84
        },
        {
            "id": 7566,
            "original_name": "Celebrity Justice",
            "popularity": 0.6
        },
        {
            "id": 7707,
            "original_name": "Sorority Forever",
            "popularity": 0.6
        },
        {
            "id": 7763,
            "original_name": "Celebrity Bainisteoir",
            "popularity": 1.713
        },
        {
            "id": 7774,
            "original_name": "Britain's Got the Pop Factor... and Possibly a New Celebrity Jesus Christ Soapstar Superstar Strictly on Ice",
            "popularity": 1.171
        },
        {
            "id": 8475,
            "original_name": "Celebrity Rehab Presents Sober House",
            "popularity": 1.682
        },
        {
            "id": 8585,
            "original_name": "Homeland Security USA",
            "popularity": 0.6
        },
        {
            "id": 8759,
            "original_name": "Celebrity Expos\u00e9",
            "popularity": 0.6
        },
        {
            "id": 9024,
            "original_name": "Celebrity Soup",
            "popularity": 0.6
        },
        {
            "id": 9077,
            "original_name": "Tung Wah Charity Show",
            "popularity": 0.6
        },
        {
            "id": 9462,
            "original_name": "Dick and Paula Celebrity Special",
            "popularity": 0.6
        },
        {
            "id": 9931,
            "original_name": "Celebrity Fit Club",
            "popularity": 5.424
        },
        {
            "id": 10191,
            "original_name": "Celebrity Circus",
            "popularity": 0.6
        },
        {
            "id": 10193,
            "original_name": "Sorority Life",
            "popularity": 0.6
        },
        {
            "id": 10261,
            "original_name": "Celebrity Boxing",
            "popularity": 0.6
        },
        {
            "id": 10270,
            "original_name": "Celebrity Survivor",
            "popularity": 0.6
        },
        {
            "id": 10281,
            "original_name": "Celebrity Eye Candy",
            "popularity": 0.6
        },
        {
            "id": 10508,
            "original_name": "Celebrity Mole",
            "popularity": 0.6
        },
        {
            "id": 10546,
            "original_name": "Celebrity Poker Showdown",
            "popularity": 0.6
        },
        {
            "id": 10648,
            "original_name": "Celebrity Jigs 'n' Reels",
            "popularity": 0.842
        },
        {
            "id": 10759,
            "original_name": "Charity You're a Star",
            "popularity": 0.6
        },
        {
            "id": 10771,
            "original_name": "Celebrity Bowling",
            "popularity": 0.6
        },
        {
            "id": 10806,
            "original_name": "Celebrity Dish",
            "popularity": 0.6
        },
        {
            "id": 10900,
            "original_name": "Celebrity Golf Shoot-Out",
            "popularity": 0.6
        },
        {
            "id": 10912,
            "original_name": "Crown Australian Celebrity Poker Challenge",
            "popularity": 0.6
        },
        {
            "id": 11084,
            "original_name": "Celebrity Charades",
            "popularity": 1.349
        },
        {
            "id": 12016,
            "original_name": "Celebrity Overhaul",
            "popularity": 0.6
        },
        {
            "id": 12426,
            "original_name": "Celebrity Cooks",
            "popularity": 0.6
        },
        {
            "id": 12556,
            "original_name": "Celebrity Farm",
            "popularity": 0.6
        },
        {
            "id": 12809,
            "original_name": "Celebrity Blackjack",
            "popularity": 0.931
        },
        {
            "id": 13419,
            "original_name": "Extreme Celebrity Detox",
            "popularity": 0.6
        },
        {
            "id": 13702,
            "original_name": "Celebrity Poker Club",
            "popularity": 0.6
        },
        {
            "id": 14372,
            "original_name": "Prosperity",
            "popularity": 1.4
        },
        {
            "id": 14466,
            "original_name": "Celebrity Rehab with Dr. Drew",
            "popularity": 4.54
        },
        {
            "id": 14690,
            "original_name": "Celebrity Time",
            "popularity": 0.6
        },
        {
            "id": 14851,
            "original_name": "Celebrity Rap Superstar",
            "popularity": 0.6
        },
        {
            "id": 15760,
            "original_name": "Pinoy Mano Mano: Celebrity Boxing Challenge",
            "popularity": 0.6
        },
        {
            "id": 15879,
            "original_name": "Homeland Security",
            "popularity": 2.461
        },
        {
            "id": 16078,
            "original_name": "Jamie Foxx: I Might Need Security",
            "popularity": 0.6
        },
        {
            "id": 17169,
            "original_name": "I'm a Celebrity... Get Me out of Here! Now",
            "popularity": 0.6
        },
        {
            "id": 17191,
            "original_name": "Big Brother: Celebrity Hijack",
            "popularity": 1.979
        },
        {
            "id": 17262,
            "original_name": "Celebrity: Stars at Work",
            "popularity": 0.6
        },
        {
            "id": 17624,
            "original_name": "Making It! Minority Success Stories",
            "popularity": 0.6
        },
        {
            "id": 18471,
            "original_name": "Blonde Charity Mafia",
            "popularity": 0.6
        },
        {
            "id": 18650,
            "original_name": "I'm a Celebrity...Get Me Out of Here!",
            "popularity": 3.106
        },
        {
            "id": 19331,
            "original_name": "Maximum Security",
            "popularity": 0.6
        },
        {
            "id": 19383,
            "original_name": "Celebrity Big Brother",
            "popularity": 0.6
        },
        {
            "id": 19878,
            "original_name": "Celebrity Says!",
            "popularity": 0.6
        },
        {
            "id": 19893,
            "original_name": "Celebrity Mastermind",
            "popularity": 3.794
        },
        {
            "id": 19942,
            "original_name": "Pinoy Big Brother: Celebrity Edition 2",
            "popularity": 0.6
        },
        {
            "id": 19956,
            "original_name": "Pinoy Big Brother: Celebrity Edition",
            "popularity": 0.6
        },
        {
            "id": 21015,
            "original_name": "Drop the Celebrity",
            "popularity": 0.6
        },
        {
            "id": 21531,
            "original_name": "Celebrity Playhouse",
            "popularity": 0.639
        },
        {
            "id": 22668,
            "original_name": "Fuse Celebrity Playlist",
            "popularity": 0.842
        },
        {
            "id": 22749,
            "original_name": "Celebrity Mentor",
            "popularity": 0.6
        },
        {
            "id": 22753,
            "original_name": "Cash in the Celebrity Attic",
            "popularity": 1.532
        },
        {
            "id": 23142,
            "original_name": "Alan Carr's Celebrity Ding Dong",
            "popularity": 1.4
        },
        {
            "id": 23624,
            "original_name": "Celebrity Daredevils",
            "popularity": 0.997
        },
        {
            "id": 23635,
            "original_name": "Celebrity Stitch Up",
            "popularity": 0.6
        },
        {
            "id": 23834,
            "original_name": "Celebrity",
            "popularity": 0.6
        },
        {
            "id": 24187,
            "original_name": "Popularity Contest",
            "popularity": 0.6
        },
        {
            "id": 24237,
            "original_name": "Majority Rule",
            "popularity": 0.6
        },
        {
            "id": 24299,
            "original_name": "Celebrity Sew-Off",
            "popularity": 0.6
        },
        {
            "id": 24406,
            "original_name": "Total Security",
            "popularity": 3.741
        },
        {
            "id": 24528,
            "original_name": "Celebrity Squares (AU)",
            "popularity": 0.6
        },
        {
            "id": 24621,
            "original_name": "Celebrity Tittle Tattle",
            "popularity": 0.6
        },
        {
            "id": 24833,
            "original_name": "Mr Charity",
            "popularity": 0.6
        },
        {
            "id": 24926,
            "original_name": "My Celebrity Home",
            "popularity": 0.6
        },
        {
            "id": 25048,
            "original_name": "Celebrity Rides: Dillon and the Rebel",
            "popularity": 0.604
        },
        {
            "id": 25681,
            "original_name": "40 Dumbest Celebrity Quotes... Ever",
            "popularity": 0.6
        },
        {
            "id": 25692,
            "original_name": "I'm Not A Celebrity, Get Me Out Of Here!",
            "popularity": 0.6
        },
        {
            "id": 25752,
            "original_name": "Celebrity Profile",
            "popularity": 0.6
        },
        {
            "id": 26042,
            "original_name": "Celebrity Rides: Burt Builds a Bandit",
            "popularity": 0.6
        },
        {
            "id": 26346,
            "original_name": "Miss Popularity",
            "popularity": 0.6
        },
        {
            "id": 26438,
            "original_name": "50 Most Shocking Celebrity Scandals",
            "popularity": 0.6
        },
        {
            "id": 26524,
            "original_name": "40 Naughtiest Celebrity Scandals",
            "popularity": 0.6
        },
        {
            "id": 26870,
            "original_name": "Celebrity Masterchef",
            "popularity": 6.636
        },
        {
            "id": 27097,
            "original_name": "I'm a Celebrity Get Me Out of Here Now",
            "popularity": 2.993
        },
        {
            "id": 27389,
            "original_name": "Celebrity Talent Scouts",
            "popularity": 0.6
        },
        {
            "id": 28374,
            "original_name": "Dickinson's Celebrity Deals",
            "popularity": 1.4
        },
        {
            "id": 28477,
            "original_name": "The Celebrity Game (US)",
            "popularity": 0.6
        },
        {
            "id": 28531,
            "original_name": "Naked Celebrity",
            "popularity": 0.6
        },
        {
            "id": 28549,
            "original_name": "The Celebrity Game",
            "popularity": 0.6
        },
        {
            "id": 28647,
            "original_name": "Celebrity Squares (UK)",
            "popularity": 0.6
        },
        {
            "id": 28788,
            "original_name": "Celebrity Adventures",
            "popularity": 0.6
        },
        {
            "id": 29017,
            "original_name": "Celebrity Bootcamp",
            "popularity": 2.045
        },
        {
            "id": 29383,
            "original_name": "Celebrity Fear Factor UK",
            "popularity": 0.616
        },
        {
            "id": 29757,
            "original_name": "Celebrity Ready Steady Cook",
            "popularity": 2.251
        },
        {
            "id": 30547,
            "original_name": "Pechanga Celebrity Poker Challenge",
            "popularity": 0.6
        },
        {
            "id": 30653,
            "original_name": "Charity Jam",
            "popularity": 1.421
        },
        {
            "id": 30725,
            "original_name": "Charity Lords of the Ring",
            "popularity": 0.84
        },
        {
            "id": 30784,
            "original_name": "Celebrity MasterChef Australia",
            "popularity": 2.437
        },
        {
            "id": 30901,
            "original_name": "I'm a Celebrity Get Me Out of Here!",
            "popularity": 427.313
        },
        {
            "id": 31404,
            "original_name": "Celebrity Extra",
            "popularity": 0.6
        },
        {
            "id": 32803,
            "original_name": "Celebrity Ghost Stories",
            "popularity": 19.706
        },
        {
            "id": 33741,
            "original_name": "New Majority",
            "popularity": 0.6
        },
        {
            "id": 34686,
            "original_name": "Pinoy Big Brother: Celebrity Edition 1",
            "popularity": 0.6
        },
        {
            "id": 34938,
            "original_name": "InSecurity",
            "popularity": 3.28
        },
        {
            "id": 35516,
            "original_name": "Celebrity Hens & Stags",
            "popularity": 0.6
        },
        {
            "id": 35624,
            "original_name": "Celebrity Tennis",
            "popularity": 0.843
        },
        {
            "id": 35703,
            "original_name": "Security",
            "popularity": 0.6
        },
        {
            "id": 36240,
            "original_name": "Dream Season Celebrity",
            "popularity": 0.6
        },
        {
            "id": 36431,
            "original_name": "Celebrity Shock List 2009",
            "popularity": 0.6
        },
        {
            "id": 36787,
            "original_name": "Celebrity Quitters",
            "popularity": 0.6
        },
        {
            "id": 37049,
            "original_name": "Celebrity Pressure Cooker",
            "popularity": 1.4
        },
        {
            "id": 37671,
            "original_name": "Majority Rules!",
            "popularity": 1.198
        },
        {
            "id": 37821,
            "original_name": "Celebrity Coach Trip",
            "popularity": 0.6
        },
        {
            "id": 37874,
            "original_name": "I'm a Celebrity - Jungle Royals",
            "popularity": 0.6
        },
        {
            "id": 38295,
            "original_name": "Celebrity Five Go to...",
            "popularity": 0.6
        },
        {
            "id": 38837,
            "original_name": "Celebrity Apprentice",
            "popularity": 0.6
        },
        {
            "id": 39547,
            "original_name": "Celebrity Close Calls",
            "popularity": 0.6
        },
        {
            "id": 39571,
            "original_name": "The Dean Martin Celebrity Roasts",
            "popularity": 4.801
        },
        {
            "id": 39839,
            "original_name": "Celebrity Head Chef",
            "popularity": 0.6
        },
        {
            "id": 40337,
            "original_name": "Celebrity Duets Arab World",
            "popularity": 0.6
        },
        {
            "id": 41962,
            "original_name": "The Celebrity Apprentice Australia",
            "popularity": 1.718
        },
        {
            "id": 42327,
            "original_name": "Rachael vs. Guy: Celebrity Cook-Off",
            "popularity": 0.667
        },
        {
            "id": 42343,
            "original_name": "Celebrity Samurai",
            "popularity": 0.6
        },
        {
            "id": 42803,
            "original_name": "Celebrity House Hunting",
            "popularity": 0.6
        },
        {
            "id": 42805,
            "original_name": "Celebrity Nightmares Decoded",
            "popularity": 0.6
        },
        {
            "id": 43781,
            "original_name": "Celebrity",
            "popularity": 0.6
        },
        {
            "id": 43838,
            "original_name": "Sorority Girls",
            "popularity": 0.6
        },
        {
            "id": 43969,
            "original_name": "The Celebrity Game",
            "popularity": 0.6
        },
        {
            "id": 43970,
            "original_name": "Prosperity",
            "popularity": 0.6
        },
        {
            "id": 44437,
            "original_name": "The Death of Celebrity",
            "popularity": 0.6
        },
        {
            "id": 44449,
            "original_name": "HGTV Holiday Celebrity Homes",
            "popularity": 0.6
        },
        {
            "id": 44497,
            "original_name": "City Celebrity Country Nobody",
            "popularity": 0.6
        },
        {
            "id": 44772,
            "original_name": "Celebrity DAT Com",
            "popularity": 0.6
        },
        {
            "id": 45362,
            "original_name": "Celebrity Driving School",
            "popularity": 0.6
        },
        {
            "id": 45574,
            "original_name": "Celebrity Homes",
            "popularity": 0.6
        },
        {
            "id": 45956,
            "original_name": "Celebrity Big Brother",
            "popularity": 11.019
        },
        {
            "id": 48378,
            "original_name": "Mi Gu Celebrity School",
            "popularity": 0.6
        },
        {
            "id": 48585,
            "original_name": "Celebrity",
            "popularity": 1.525
        },
        {
            "id": 55575,
            "original_name": "Celebrity Crime Files",
            "popularity": 0.6
        },
        {
            "id": 55608,
            "original_name": "Chris Hardwick's All Star Celebrity Bowling",
            "popularity": 0.6
        },
        {
            "id": 56026,
            "original_name": "Biyou Shounen Celebrity",
            "popularity": 0.6
        },
        {
            "id": 57259,
            "original_name": "Celebrity Imitated Show",
            "popularity": 0.6
        },
        {
            "id": 57492,
            "original_name": "Super Junior-M Celebrity Tour Guide",
            "popularity": 0.6
        },
        {
            "id": 58401,
            "original_name": "Celebrity Wedding Planner",
            "popularity": 0.6
        },
        {
            "id": 58440,
            "original_name": "The Great American Celebrity Spelling Bee",
            "popularity": 0.6
        },
        {
            "id": 59115,
            "original_name": "The Security Men",
            "popularity": 0.6
        },
        {
            "id": 59275,
            "original_name": "Border Security: Canada's Front Line",
            "popularity": 1.396
        },
        {
            "id": 59323,
            "original_name": "Celebrity Super Spa",
            "popularity": 0.6
        },
        {
            "id": 59526,
            "original_name": "Small Town Security",
            "popularity": 0.6
        },
        {
            "id": 59768,
            "original_name": "Celebrity Bluff",
            "popularity": 0.6
        },
        {
            "id": 59810,
            "original_name": "Celebrity MasterChef",
            "popularity": 0.6
        },
        {
            "id": 60966,
            "original_name": "Celebrity Wife Swap",
            "popularity": 0.6
        },
        {
            "id": 61913,
            "original_name": "I'm a Celebrity: Get Me Out of Here!",
            "popularity": 5.555
        },
        {
            "id": 63175,
            "original_name": "Minority Report",
            "popularity": 15.466
        },
        {
            "id": 64026,
            "original_name": "Celebrity Benchmark",
            "popularity": 0.6
        },
        {
            "id": 65123,
            "original_name": "Celebrity Name Game",
            "popularity": 1.292
        },
        {
            "id": 65979,
            "original_name": "The Mother/Daughter Experiment: Celebrity Edition",
            "popularity": 0.6
        },
        {
            "id": 66250,
            "original_name": "Celebrity Antiques Road Trip",
            "popularity": 27.549
        },
        {
            "id": 67035,
            "original_name": "Celebrity First Dates",
            "popularity": 0.6
        },
        {
            "id": 67897,
            "original_name": "Celebrity Island with Bear Grylls",
            "popularity": 1.4
        },
        {
            "id": 67962,
            "original_name": "Celebrity Botched Up Bodies",
            "popularity": 0.6
        },
        {
            "id": 69020,
            "original_name": "MasterChef Celebrity",
            "popularity": 7.638
        },
        {
            "id": 70780,
            "original_name": "Celebrity MasterChef Italia",
            "popularity": 1.133
        },
        {
            "id": 73106,
            "original_name": "Celebrity Big Brother's Bit on the Side",
            "popularity": 0.6
        },
        {
            "id": 73462,
            "original_name": "Purity",
            "popularity": 1.247
        },
        {
            "id": 73600,
            "original_name": "Married to a Celebrity: The Survival Guide",
            "popularity": 0.6
        },
        {
            "id": 74290,
            "original_name": "Celebrity Showmance",
            "popularity": 0.601
        },
        {
            "id": 74388,
            "original_name": "Celebrity Hunted",
            "popularity": 1.143
        },
        {
            "id": 74818,
            "original_name": "Border Security: America's Front Line",
            "popularity": 0.887
        },
        {
            "id": 75728,
            "original_name": "I'm a Celebrity... Extra Camp",
            "popularity": 0.679
        },
        {
            "id": 76150,
            "original_name": "Costa Del Celebrity",
            "popularity": 0.6
        },
        {
            "id": 76672,
            "original_name": "Celebrity Big Brother (Hrvatska)",
            "popularity": 0.84
        },
        {
            "id": 76912,
            "original_name": "Celebrity Big Brother",
            "popularity": 2.642
        },
        {
            "id": 77588,
            "original_name": "The Great Celebrity Bake Off for SU2C",
            "popularity": 5.953
        },
        {
            "id": 80289,
            "original_name": "Celebrity Chase",
            "popularity": 1.834
        },
        {
            "id": 80779,
            "original_name": "The Celebrity Plastic Surgeons of Beverly Hills",
            "popularity": 1.097
        },
        {
            "id": 82108,
            "original_name": "Celebrity Family Feud",
            "popularity": 21.857
        },
        {
            "id": 83883,
            "original_name": "Biyo Shonen Celebrity",
            "popularity": 0.6
        },
        {
            "id": 84923,
            "original_name": "Celebrity Ghost Hunt Live",
            "popularity": 0.6
        },
        {
            "id": 84925,
            "original_name": "Celebrity Ghost Hunt Haunted Holiday",
            "popularity": 0.6
        },
        {
            "id": 84926,
            "original_name": "Celebrity Haunted Mansion",
            "popularity": 0.6
        },
        {
            "id": 84927,
            "original_name": "Celebrity Haunted Hotel",
            "popularity": 0.6
        },
        {
            "id": 88126,
            "original_name": "Celebrity SAS: Who Dares Wins",
            "popularity": 11.543
        },
        {
            "id": 89175,
            "original_name": "Celebrity Treasure Island",
            "popularity": 0.6
        },
        {
            "id": 91291,
            "original_name": "Celebrity Gogglebox",
            "popularity": 4.532
        },
        {
            "id": 92681,
            "original_name": "Celebrity Treasure Island",
            "popularity": 1.771
        },
        {
            "id": 94431,
            "original_name": "The X Factor Celebrity",
            "popularity": 0.674
        },
        {
            "id": 96260,
            "original_name": "Inspirando o Futuro - SingularityU Portugal",
            "popularity": 0.6
        },
        {
            "id": 97331,
            "original_name": "Celebrity Operation Transformation",
            "popularity": 0.6
        },
        {
            "id": 98888,
            "original_name": "Secret Celebrity RuPaul's Drag Race",
            "popularity": 3.009
        },
        {
            "id": 98996,
            "original_name": "Celebrity Ex on the Beach",
            "popularity": 2.13
        },
        {
            "id": 99438,
            "original_name": "Celebrity Britain by Barge: Then & Now",
            "popularity": 0.6
        },
        {
            "id": 100347,
            "original_name": "Celebrity IOU",
            "popularity": 3.842
        },
        {
            "id": 100425,
            "original_name": "Celebrity Hunted: Caccia all'uomo",
            "popularity": 10.355
        },
        {
            "id": 101435,
            "original_name": "Celebrity Murder Mystery",
            "popularity": 0.6
        },
        {
            "id": 101609,
            "original_name": "Celebrity Ghost Stories",
            "popularity": 0.6
        },
        {
            "id": 102942,
            "original_name": "Celebrity Mastermind",
            "popularity": 0.6
        },
        {
            "id": 103134,
            "original_name": "Celebrity Watch Party",
            "popularity": 2.487
        },
        {
            "id": 104875,
            "original_name": "Celebrity Show-Off",
            "popularity": 0.84
        },
        {
            "id": 105293,
            "original_name": "Celebrity Snoop Dogs",
            "popularity": 7.399
        },
        {
            "id": 105698,
            "original_name": "Girl Next Room: Security Love",
            "popularity": 0.824
        },
        {
            "id": 109599,
            "original_name": "Play School Celebrity Covers",
            "popularity": 0.613
        },
        {
            "id": 111131,
            "original_name": "Celebrity Game Face",
            "popularity": 0.9
        },
        {
            "id": 111973,
            "original_name": "Useless Celebrity History",
            "popularity": 0.84
        },
        {
            "id": 112951,
            "original_name": "MasterChef Celebrity Argentina",
            "popularity": 1.275
        },
        {
            "id": 113126,
            "original_name": "Sorority House Massacre",
            "popularity": 0.84
        },
        {
            "id": 113283,
            "original_name": "I'm A Celebrity... The Daily Drop",
            "popularity": 0.638
        },
        {
            "id": 113500,
            "original_name": "Celebrity Supply Teacher",
            "popularity": 0.6
        },
        {
            "id": 114656,
            "original_name": "Celebrity Wheel of Fortune",
            "popularity": 11.783
        },
        {
            "id": 115615,
            "original_name": "Celebrity Travel",
            "popularity": 0.6
        },
        {
            "id": 116555,
            "original_name": "Celebrity: A 21st Century Story",
            "popularity": 0.6
        },
        {
            "id": 117408,
            "original_name": "Celebrity MasterChef: A Recipe for Success",
            "popularity": 0.96
        },
        {
            "id": 117574,
            "original_name": "Celebrity Best Home Cook",
            "popularity": 3.125
        },
        {
            "id": 117902,
            "original_name": "Celebrity Camp: Dobrodru\u017estvo na ostrove",
            "popularity": 0.6
        },
        {
            "id": 119077,
            "original_name": "Celebrity Bumps: Famous & Pregnant",
            "popularity": 0.6
        },
        {
            "id": 119381,
            "original_name": "A Celebrity Taste of Italy",
            "popularity": 0.6
        },
        {
            "id": 119996,
            "original_name": "The Celebrity Circle for Stand Up to Cancer",
            "popularity": 1.382
        },
        {
            "id": 127461,
            "original_name": "The Celebrity Dating Game",
            "popularity": 4.227
        },
        {
            "id": 127881,
            "original_name": "Masterchef Celebrity Colombia",
            "popularity": 3.255
        },
        {
            "id": 127982,
            "original_name": "MasterChef Celebrity",
            "popularity": 0.943
        },
        {
            "id": 129079,
            "original_name": "Secret Celebrity Renovation",
            "popularity": 0.6
        },
        {
            "id": 132265,
            "original_name": "Celebrity IOU: Joyride",
            "popularity": 4.949
        },
        {
            "id": 133082,
            "original_name": "Celebrity Matchmakers",
            "popularity": 0.6
        },
        {
            "id": 135684,
            "original_name": "Celebrity Letters And Numbers",
            "popularity": 0.63
        },
        {
            "id": 135777,
            "original_name": "Celebrity Painting Challenge",
            "popularity": 0.6
        },
        {
            "id": 136673,
            "original_name": "Celebrity Hunted: Chasse \u00e0 l'homme",
            "popularity": 6.095
        },
        {
            "id": 137481,
            "original_name": "\u0645\u0627\u0633\u062a\u0631 \u0634\u064a\u0641 Celebrity \u0627\u0644\u0645\u063a\u0631\u0628",
            "popularity": 0.6
        },
        {
            "id": 138017,
            "original_name": "Celebrity Yorkshire Auction House",
            "popularity": 1.774
        },
        {
            "id": 152309,
            "original_name": "Celebrity Hunted - Jede Spur kann dich verraten",
            "popularity": 5.379
        },
        {
            "id": 152373,
            "original_name": "Masterchef Celebrity Colombia 2018",
            "popularity": 0.6
        },
        {
            "id": 152375,
            "original_name": "MasterChef Celebrity Colombia",
            "popularity": 1.646
        }
    ],
    "relations": [
        {
            "character": "rity."
        },
        {
            "character": "rityu"
        }
    ],
    "top20": [
        {
            "id": 30901,
            "original_name": "I'm a Celebrity Get Me Out of Here!",
            "popularity": 427.313
        },
        {
            "id": 66250,
            "original_name": "Celebrity Antiques Road Trip",
            "popularity": 27.549
        },
        {
            "id": 82108,
            "original_name": "Celebrity Family Feud",
            "popularity": 21.857
        },
        {
            "id": 32803,
            "original_name": "Celebrity Ghost Stories",
            "popularity": 19.706
        },
        {
            "id": 63175,
            "original_name": "Minority Report",
            "popularity": 15.466
        },
        {
            "id": 114656,
            "original_name": "Celebrity Wheel of Fortune",
            "popularity": 11.783
        },
        {
            "id": 88126,
            "original_name": "Celebrity SAS: Who Dares Wins",
            "popularity": 11.543
        },
        {
            "id": 45956,
            "original_name": "Celebrity Big Brother",
            "popularity": 11.019
        },
        {
            "id": 2423,
            "original_name": "Celebrity Deathmatch",
            "popularity": 11.017
        },
        {
            "id": 3531,
            "original_name": "The Celebrity Apprentice",
            "popularity": 10.84
        },
        {
            "id": 100425,
            "original_name": "Celebrity Hunted: Caccia all'uomo",
            "popularity": 10.355
        },
        {
            "id": 6000,
            "original_name": "Celebrity Juice",
            "popularity": 8.015
        },
        {
            "id": 69020,
            "original_name": "MasterChef Celebrity",
            "popularity": 7.638
        },
        {
            "id": 105293,
            "original_name": "Celebrity Snoop Dogs",
            "popularity": 7.399
        },
        {
            "id": 26870,
            "original_name": "Celebrity Masterchef",
            "popularity": 6.636
        },
        {
            "id": 136673,
            "original_name": "Celebrity Hunted: Chasse \u00e0 l'homme",
            "popularity": 6.095
        },
        {
            "id": 77588,
            "original_name": "The Great Celebrity Bake Off for SU2C",
            "popularity": 5.953
        },
        {
            "id": 61913,
            "original_name": "I'm a Celebrity: Get Me Out of Here!",
            "popularity": 5.555
        },
        {
            "id": 5478,
            "original_name": "Celebrity Family Feud",
            "popularity": 5.492
        },
        {
            "id": 9931,
            "original_name": "Celebrity Fit Club",
            "popularity": 5.424
        }
    ]
}