{
    "data": [
        {
            "id": 120437,
            "original_name": "De Wonderjaren",
            "popularity": 0.704
        }
    ],
    "relations": [],
    "top20": [
        {
            "id": 120437,
            "original_name": "De Wonderjaren",
            "popularity": 0.704
        }
    ]
}