{
    "data": [
        {
            "id": 67845,
            "original_name": "Verkaufte Heimat",
            "popularity": 0.621
        },
        {
            "id": 92519,
            "original_name": "Starkaus & Radzevi\u010diaus kelion\u0117s",
            "popularity": 0.84
        }
    ],
    "relations": [],
    "top20": [
        {
            "id": 67845,
            "original_name": "Verkaufte Heimat",
            "popularity": 0.621
        },
        {
            "id": 92519,
            "original_name": "Starkaus & Radzevi\u010diaus kelion\u0117s",
            "popularity": 0.84
        }
    ]
}