{
    "data": [
        {
            "id": 13683,
            "original_name": "Sirkus Papukaija",
            "popularity": 0.6
        },
        {
            "id": 16382,
            "original_name": "Monty Python's Fliegender Zirkus",
            "popularity": 0.6
        },
        {
            "id": 23915,
            "original_name": "Markus Lanz",
            "popularity": 233.388
        },
        {
            "id": 33410,
            "original_name": "The Nate Berkus Show",
            "popularity": 0.604
        },
        {
            "id": 37952,
            "original_name": "Sirkusliv",
            "popularity": 0.6
        },
        {
            "id": 40680,
            "original_name": "Mensch Markus",
            "popularity": 1.128
        },
        {
            "id": 41272,
            "original_name": "Frauenarzt Dr. Markus Merthin",
            "popularity": 3.63
        },
        {
            "id": 44496,
            "original_name": "Cirkus Humberto",
            "popularity": 1.569
        },
        {
            "id": 51117,
            "original_name": "Cirkus! Cirkus!",
            "popularity": 0.6
        },
        {
            "id": 51878,
            "original_name": "Zirkus Nemo",
            "popularity": 0.6
        },
        {
            "id": 54845,
            "original_name": "\u00d8stergaards cirkus variet\u00e9",
            "popularity": 0.6
        },
        {
            "id": 55641,
            "original_name": "Sirkus Northug",
            "popularity": 0.6
        },
        {
            "id": 57601,
            "original_name": "Sirkuspelle Hermanni",
            "popularity": 0.6
        },
        {
            "id": 61100,
            "original_name": "Zirkus meines Lebens",
            "popularity": 0.809
        },
        {
            "id": 69031,
            "original_name": "Cirkus Bukowsky",
            "popularity": 1.222
        },
        {
            "id": 80600,
            "original_name": "Markus vs. maailma",
            "popularity": 0.6
        },
        {
            "id": 86323,
            "original_name": "So ein Zirkus!",
            "popularity": 0.6
        },
        {
            "id": 93478,
            "original_name": "Zirkus Nemo 2018",
            "popularity": 0.6
        },
        {
            "id": 97131,
            "original_name": "Sirkus",
            "popularity": 0.633
        },
        {
            "id": 117165,
            "original_name": "Cirkus Dannebrog",
            "popularity": 0.6
        },
        {
            "id": 117553,
            "original_name": "Markuss",
            "popularity": 0.613
        },
        {
            "id": 120876,
            "original_name": "Cirkus Summarum",
            "popularity": 0.6
        },
        {
            "id": 136309,
            "original_name": "Cirkus Julius",
            "popularity": 0.62
        }
    ],
    "relations": [
        {
            "character": "rkusl"
        },
        {
            "character": "rkus!"
        },
        {
            "character": "rkusp"
        },
        {
            "character": "rkuss"
        }
    ],
    "top20": [
        {
            "id": 23915,
            "original_name": "Markus Lanz",
            "popularity": 233.388
        },
        {
            "id": 41272,
            "original_name": "Frauenarzt Dr. Markus Merthin",
            "popularity": 3.63
        },
        {
            "id": 44496,
            "original_name": "Cirkus Humberto",
            "popularity": 1.569
        },
        {
            "id": 69031,
            "original_name": "Cirkus Bukowsky",
            "popularity": 1.222
        },
        {
            "id": 40680,
            "original_name": "Mensch Markus",
            "popularity": 1.128
        },
        {
            "id": 61100,
            "original_name": "Zirkus meines Lebens",
            "popularity": 0.809
        },
        {
            "id": 97131,
            "original_name": "Sirkus",
            "popularity": 0.633
        },
        {
            "id": 136309,
            "original_name": "Cirkus Julius",
            "popularity": 0.62
        },
        {
            "id": 117553,
            "original_name": "Markuss",
            "popularity": 0.613
        },
        {
            "id": 33410,
            "original_name": "The Nate Berkus Show",
            "popularity": 0.604
        },
        {
            "id": 51878,
            "original_name": "Zirkus Nemo",
            "popularity": 0.6
        },
        {
            "id": 16382,
            "original_name": "Monty Python's Fliegender Zirkus",
            "popularity": 0.6
        },
        {
            "id": 55641,
            "original_name": "Sirkus Northug",
            "popularity": 0.6
        },
        {
            "id": 57601,
            "original_name": "Sirkuspelle Hermanni",
            "popularity": 0.6
        },
        {
            "id": 80600,
            "original_name": "Markus vs. maailma",
            "popularity": 0.6
        },
        {
            "id": 51117,
            "original_name": "Cirkus! Cirkus!",
            "popularity": 0.6
        },
        {
            "id": 86323,
            "original_name": "So ein Zirkus!",
            "popularity": 0.6
        },
        {
            "id": 54845,
            "original_name": "\u00d8stergaards cirkus variet\u00e9",
            "popularity": 0.6
        },
        {
            "id": 37952,
            "original_name": "Sirkusliv",
            "popularity": 0.6
        },
        {
            "id": 13683,
            "original_name": "Sirkus Papukaija",
            "popularity": 0.6
        }
    ]
}