{
    "data": [
        {
            "id": 40171,
            "original_name": "Love's Everlasting Courage",
            "popularity": 0.6
        },
        {
            "id": 76207,
            "original_name": "A Verlas Venir",
            "popularity": 0.6
        },
        {
            "id": 80596,
            "original_name": "Perlasca - Un eroe italiano",
            "popularity": 1.483
        }
    ],
    "relations": [],
    "top20": [
        {
            "id": 40171,
            "original_name": "Love's Everlasting Courage",
            "popularity": 0.6
        },
        {
            "id": 76207,
            "original_name": "A Verlas Venir",
            "popularity": 0.6
        },
        {
            "id": 80596,
            "original_name": "Perlasca - Un eroe italiano",
            "popularity": 1.483
        }
    ]
}