{
    "data": [
        {
            "id": 75122,
            "original_name": "Superlibro",
            "popularity": 0.6
        }
    ],
    "relations": [],
    "top20": [
        {
            "id": 75122,
            "original_name": "Superlibro",
            "popularity": 0.6
        }
    ]
}