{
    "data": [
        {
            "id": 76260,
            "original_name": "Karmapala",
            "popularity": 1.677
        },
        {
            "id": 94979,
            "original_name": "G.O.D - Gods Of Dharmapuri",
            "popularity": 0.6
        }
    ],
    "relations": [],
    "top20": [
        {
            "id": 76260,
            "original_name": "Karmapala",
            "popularity": 1.677
        },
        {
            "id": 94979,
            "original_name": "G.O.D - Gods Of Dharmapuri",
            "popularity": 0.6
        }
    ]
}