{
    "data": [
        {
            "id": 300,
            "original_name": "Terminal City",
            "popularity": 2.109
        },
        {
            "id": 433,
            "original_name": "Terminator: The Sarah Connor Chronicles",
            "popularity": 41.362
        },
        {
            "id": 863,
            "original_name": "Peppermint Place",
            "popularity": 0.6
        },
        {
            "id": 864,
            "original_name": "Mr. Peppermint",
            "popularity": 0.6
        },
        {
            "id": 2621,
            "original_name": "Mastermind",
            "popularity": 8.871
        },
        {
            "id": 3405,
            "original_name": "The Great Global Warming Swindle",
            "popularity": 0.6
        },
        {
            "id": 5123,
            "original_name": "Masterminds",
            "popularity": 0.6
        },
        {
            "id": 5213,
            "original_name": "The Charmings",
            "popularity": 5.247
        },
        {
            "id": 5382,
            "original_name": "Princess Charming",
            "popularity": 0.6
        },
        {
            "id": 7023,
            "original_name": "Urban Vermin",
            "popularity": 1.252
        },
        {
            "id": 7148,
            "original_name": "Mysterious Incredible Terminator",
            "popularity": 1.163
        },
        {
            "id": 7483,
            "original_name": "Verminators",
            "popularity": 1.4
        },
        {
            "id": 7781,
            "original_name": "Sport Mastermind",
            "popularity": 0.6
        },
        {
            "id": 12575,
            "original_name": "Masterminds",
            "popularity": 0.664
        },
        {
            "id": 14875,
            "original_name": "International Mastermind",
            "popularity": 0.6
        },
        {
            "id": 15556,
            "original_name": "Junior Mastermind",
            "popularity": 0.6
        },
        {
            "id": 19893,
            "original_name": "Celebrity Mastermind",
            "popularity": 3.794
        },
        {
            "id": 22513,
            "original_name": "The Farming Game",
            "popularity": 0.6
        },
        {
            "id": 25154,
            "original_name": "Jimmy Doherty's Farming Heroes",
            "popularity": 0.6
        },
        {
            "id": 26473,
            "original_name": "Mastermind (AU)",
            "popularity": 0.621
        },
        {
            "id": 26872,
            "original_name": "Performing As",
            "popularity": 0.6
        },
        {
            "id": 28459,
            "original_name": "The Peppermint Prince",
            "popularity": 0.6
        },
        {
            "id": 29247,
            "original_name": "Germinal",
            "popularity": 0.876
        },
        {
            "id": 31745,
            "original_name": "The Exterminators",
            "popularity": 0.6
        },
        {
            "id": 34657,
            "original_name": "Nevermind Nirvana",
            "popularity": 0.6
        },
        {
            "id": 40327,
            "original_name": "Mastermind",
            "popularity": 0.6
        },
        {
            "id": 40668,
            "original_name": "Lokaltermin",
            "popularity": 1.208
        },
        {
            "id": 41560,
            "original_name": "Terminenzio",
            "popularity": 0.6
        },
        {
            "id": 41745,
            "original_name": "Undermind",
            "popularity": 0.6
        },
        {
            "id": 43622,
            "original_name": "After the Warming",
            "popularity": 0.6
        },
        {
            "id": 44848,
            "original_name": "Absolutely Charming",
            "popularity": 0.844
        },
        {
            "id": 48078,
            "original_name": "Determinator",
            "popularity": 0.729
        },
        {
            "id": 53122,
            "original_name": "Supermingo",
            "popularity": 0.6
        },
        {
            "id": 56150,
            "original_name": "Terminator Salvation: The Machinima Series",
            "popularity": 4.056
        },
        {
            "id": 57943,
            "original_name": "Storming Juno",
            "popularity": 0.6
        },
        {
            "id": 59491,
            "original_name": "The Peppermint Prince",
            "popularity": 0.6
        },
        {
            "id": 65233,
            "original_name": "Carmina",
            "popularity": 1.4
        },
        {
            "id": 66658,
            "original_name": "Inside Birmingham Children's Hospital",
            "popularity": 0.6
        },
        {
            "id": 67754,
            "original_name": "Finding Prince Charming",
            "popularity": 1.924
        },
        {
            "id": 69251,
            "original_name": "Ma terminale",
            "popularity": 1.472
        },
        {
            "id": 74872,
            "original_name": "This Farming Life",
            "popularity": 8.635
        },
        {
            "id": 75396,
            "original_name": "Armin van Buuren is Mr. Perfect",
            "popularity": 1.0
        },
        {
            "id": 77417,
            "original_name": "Terminadores",
            "popularity": 0.6
        },
        {
            "id": 78953,
            "original_name": "Armin Van Buuren Teaches Dance Music",
            "popularity": 0.604
        },
        {
            "id": 81138,
            "original_name": "Vermin",
            "popularity": 1.404
        },
        {
            "id": 95180,
            "original_name": "Prince Charming",
            "popularity": 0.818
        },
        {
            "id": 98939,
            "original_name": "Apocalipsis. La guerra interminable [1918-1926]",
            "popularity": 1.235
        },
        {
            "id": 102942,
            "original_name": "Celebrity Mastermind",
            "popularity": 0.6
        },
        {
            "id": 103823,
            "original_name": "Storming Area 51",
            "popularity": 1.241
        },
        {
            "id": 104773,
            "original_name": "Armin Van Burren",
            "popularity": 0.6
        },
        {
            "id": 106127,
            "original_name": "Peppermint Park",
            "popularity": 0.6
        },
        {
            "id": 106965,
            "original_name": "Murder Masterminds",
            "popularity": 0.6
        },
        {
            "id": 113311,
            "original_name": "Turminha do Animazoo",
            "popularity": 0.6
        },
        {
            "id": 113472,
            "original_name": "Terminator Genisys: The YouTube Chronicles",
            "popularity": 1.172
        },
        {
            "id": 116887,
            "original_name": "Exterminadores do Al\u00e9m",
            "popularity": 4.921
        },
        {
            "id": 117909,
            "original_name": "Exterminate All the Brutes",
            "popularity": 4.817
        },
        {
            "id": 120911,
            "original_name": "The Terminal List",
            "popularity": 0.89
        },
        {
            "id": 121494,
            "original_name": "Der Germinator",
            "popularity": 1.235
        },
        {
            "id": 123787,
            "original_name": "Mastermind of Murder",
            "popularity": 0.723
        },
        {
            "id": 124319,
            "original_name": "Princess Charming",
            "popularity": 1.828
        },
        {
            "id": 126246,
            "original_name": "Prince Charming - DK",
            "popularity": 1.4
        },
        {
            "id": 128485,
            "original_name": "Germinal",
            "popularity": 10.252
        },
        {
            "id": 138885,
            "original_name": "Our Farming Life",
            "popularity": 0.6
        }
    ],
    "relations": [
        {
            "character": "rmina"
        },
        {
            "character": "rmint"
        },
        {
            "character": "rmind"
        },
        {
            "character": "rming"
        },
        {
            "character": "rmine"
        },
        {
            "character": "rminh"
        }
    ],
    "top20": [
        {
            "id": 433,
            "original_name": "Terminator: The Sarah Connor Chronicles",
            "popularity": 41.362
        },
        {
            "id": 128485,
            "original_name": "Germinal",
            "popularity": 10.252
        },
        {
            "id": 2621,
            "original_name": "Mastermind",
            "popularity": 8.871
        },
        {
            "id": 74872,
            "original_name": "This Farming Life",
            "popularity": 8.635
        },
        {
            "id": 5213,
            "original_name": "The Charmings",
            "popularity": 5.247
        },
        {
            "id": 116887,
            "original_name": "Exterminadores do Al\u00e9m",
            "popularity": 4.921
        },
        {
            "id": 117909,
            "original_name": "Exterminate All the Brutes",
            "popularity": 4.817
        },
        {
            "id": 56150,
            "original_name": "Terminator Salvation: The Machinima Series",
            "popularity": 4.056
        },
        {
            "id": 19893,
            "original_name": "Celebrity Mastermind",
            "popularity": 3.794
        },
        {
            "id": 300,
            "original_name": "Terminal City",
            "popularity": 2.109
        },
        {
            "id": 67754,
            "original_name": "Finding Prince Charming",
            "popularity": 1.924
        },
        {
            "id": 124319,
            "original_name": "Princess Charming",
            "popularity": 1.828
        },
        {
            "id": 69251,
            "original_name": "Ma terminale",
            "popularity": 1.472
        },
        {
            "id": 81138,
            "original_name": "Vermin",
            "popularity": 1.404
        },
        {
            "id": 7483,
            "original_name": "Verminators",
            "popularity": 1.4
        },
        {
            "id": 126246,
            "original_name": "Prince Charming - DK",
            "popularity": 1.4
        },
        {
            "id": 65233,
            "original_name": "Carmina",
            "popularity": 1.4
        },
        {
            "id": 7023,
            "original_name": "Urban Vermin",
            "popularity": 1.252
        },
        {
            "id": 103823,
            "original_name": "Storming Area 51",
            "popularity": 1.241
        },
        {
            "id": 98939,
            "original_name": "Apocalipsis. La guerra interminable [1918-1926]",
            "popularity": 1.235
        }
    ]
}