{
    "data": [
        {
            "id": 18730,
            "original_name": "Lincoln Presents:  Leonard Bernstein and the New York Philharmonic",
            "popularity": 0.6
        },
        {
            "id": 25648,
            "original_name": "Harmonia",
            "popularity": 0.6
        },
        {
            "id": 26407,
            "original_name": "Happy Harmony",
            "popularity": 0.6
        },
        {
            "id": 29727,
            "original_name": "Sermon From St Albion's",
            "popularity": 0.6
        },
        {
            "id": 30053,
            "original_name": "Harmony Street",
            "popularity": 0.6
        },
        {
            "id": 32835,
            "original_name": "Great Ormond Street",
            "popularity": 0.6
        },
        {
            "id": 40508,
            "original_name": "Friday Sermon",
            "popularity": 0.6
        },
        {
            "id": 45288,
            "original_name": "Harmonic Wealth",
            "popularity": 0.6
        },
        {
            "id": 48802,
            "original_name": "Harmony",
            "popularity": 0.6
        },
        {
            "id": 51230,
            "original_name": "Harmony",
            "popularity": 0.6
        },
        {
            "id": 53128,
            "original_name": "HORMONES \u0e27\u0e31\u0e22\u0e27\u0e49\u0e32\u0e27\u0e38\u0e48\u0e19",
            "popularity": 1.635
        },
        {
            "id": 56368,
            "original_name": "Leonard Bernstein and the New York Philharmonic in Japan",
            "popularity": 0.6
        },
        {
            "id": 56374,
            "original_name": "Leonard Bernstein and the New York Philharmonic in Berlin",
            "popularity": 0.6
        },
        {
            "id": 56382,
            "original_name": "Leonard Bernstein and the New York Philharmonic in Moscow",
            "popularity": 0.6
        },
        {
            "id": 66033,
            "original_name": "Great Minds with Dan Harmon",
            "popularity": 4.279
        },
        {
            "id": 67111,
            "original_name": "HarmonQuest",
            "popularity": 5.442
        },
        {
            "id": 74452,
            "original_name": "Vermont Memories",
            "popularity": 0.6
        },
        {
            "id": 76812,
            "original_name": "Baked in Vermont",
            "popularity": 0.6
        },
        {
            "id": 81689,
            "original_name": "Harmony with A. R. Rahman",
            "popularity": 0.6
        },
        {
            "id": 84628,
            "original_name": "Christmas with the Mormon Tabernacle Choir",
            "popularity": 1.77
        },
        {
            "id": 85957,
            "original_name": "Philharmonia",
            "popularity": 3.743
        },
        {
            "id": 91130,
            "original_name": "New York Philharmonic Young People's Concerts",
            "popularity": 1.139
        },
        {
            "id": 92139,
            "original_name": "Perfect Harmony",
            "popularity": 2.892
        },
        {
            "id": 114814,
            "original_name": "Harmonijka ustna i blues",
            "popularity": 0.6
        },
        {
            "id": 119337,
            "original_name": "Murder Among the Mormons",
            "popularity": 5.251
        },
        {
            "id": 135234,
            "original_name": "Harmony and Horror",
            "popularity": 0.6
        },
        {
            "id": 135437,
            "original_name": "Book of Mormon Videos",
            "popularity": 0.6
        },
        {
            "id": 135748,
            "original_name": "Saessak Harmony",
            "popularity": 1.359
        },
        {
            "id": 139052,
            "original_name": "SKZ Song Camp: Howl in Harmony",
            "popularity": 1.185
        }
    ],
    "relations": [
        {
            "character": "rmoni"
        },
        {
            "character": "rmony"
        },
        {
            "character": "rmond"
        },
        {
            "character": "rmone"
        },
        {
            "character": "rmonq"
        },
        {
            "character": "rmont"
        },
        {
            "character": "rmons"
        }
    ],
    "top20": [
        {
            "id": 67111,
            "original_name": "HarmonQuest",
            "popularity": 5.442
        },
        {
            "id": 119337,
            "original_name": "Murder Among the Mormons",
            "popularity": 5.251
        },
        {
            "id": 66033,
            "original_name": "Great Minds with Dan Harmon",
            "popularity": 4.279
        },
        {
            "id": 85957,
            "original_name": "Philharmonia",
            "popularity": 3.743
        },
        {
            "id": 92139,
            "original_name": "Perfect Harmony",
            "popularity": 2.892
        },
        {
            "id": 84628,
            "original_name": "Christmas with the Mormon Tabernacle Choir",
            "popularity": 1.77
        },
        {
            "id": 53128,
            "original_name": "HORMONES \u0e27\u0e31\u0e22\u0e27\u0e49\u0e32\u0e27\u0e38\u0e48\u0e19",
            "popularity": 1.635
        },
        {
            "id": 135748,
            "original_name": "Saessak Harmony",
            "popularity": 1.359
        },
        {
            "id": 139052,
            "original_name": "SKZ Song Camp: Howl in Harmony",
            "popularity": 1.185
        },
        {
            "id": 91130,
            "original_name": "New York Philharmonic Young People's Concerts",
            "popularity": 1.139
        },
        {
            "id": 18730,
            "original_name": "Lincoln Presents:  Leonard Bernstein and the New York Philharmonic",
            "popularity": 0.6
        },
        {
            "id": 32835,
            "original_name": "Great Ormond Street",
            "popularity": 0.6
        },
        {
            "id": 25648,
            "original_name": "Harmonia",
            "popularity": 0.6
        },
        {
            "id": 30053,
            "original_name": "Harmony Street",
            "popularity": 0.6
        },
        {
            "id": 51230,
            "original_name": "Harmony",
            "popularity": 0.6
        },
        {
            "id": 45288,
            "original_name": "Harmonic Wealth",
            "popularity": 0.6
        },
        {
            "id": 26407,
            "original_name": "Happy Harmony",
            "popularity": 0.6
        },
        {
            "id": 40508,
            "original_name": "Friday Sermon",
            "popularity": 0.6
        },
        {
            "id": 48802,
            "original_name": "Harmony",
            "popularity": 0.6
        },
        {
            "id": 29727,
            "original_name": "Sermon From St Albion's",
            "popularity": 0.6
        }
    ]
}