{
    "data": [
        {
            "id": 459,
            "original_name": "Becky and Barnaby Bear",
            "popularity": 0.6
        },
        {
            "id": 587,
            "original_name": "Barnaby Jones",
            "popularity": 11.759
        },
        {
            "id": 5349,
            "original_name": "Barnaby Flowers Bumper Bonanza",
            "popularity": 0.6
        },
        {
            "id": 5363,
            "original_name": "Barnaby Flowers A Time to Talk",
            "popularity": 0.6
        },
        {
            "id": 5509,
            "original_name": "Barnaby Flowers Comeback Special",
            "popularity": 0.6
        },
        {
            "id": 11293,
            "original_name": "Turnabout",
            "popularity": 0.6
        },
        {
            "id": 29450,
            "original_name": "Barnaby Rudge",
            "popularity": 1.4
        },
        {
            "id": 40467,
            "original_name": "Turnabout",
            "popularity": 2.049
        },
        {
            "id": 70897,
            "original_name": "Ingobernable",
            "popularity": 14.971
        }
    ],
    "relations": [],
    "top20": [
        {
            "id": 459,
            "original_name": "Becky and Barnaby Bear",
            "popularity": 0.6
        },
        {
            "id": 587,
            "original_name": "Barnaby Jones",
            "popularity": 11.759
        },
        {
            "id": 5349,
            "original_name": "Barnaby Flowers Bumper Bonanza",
            "popularity": 0.6
        },
        {
            "id": 5363,
            "original_name": "Barnaby Flowers A Time to Talk",
            "popularity": 0.6
        },
        {
            "id": 5509,
            "original_name": "Barnaby Flowers Comeback Special",
            "popularity": 0.6
        },
        {
            "id": 11293,
            "original_name": "Turnabout",
            "popularity": 0.6
        },
        {
            "id": 29450,
            "original_name": "Barnaby Rudge",
            "popularity": 1.4
        },
        {
            "id": 40467,
            "original_name": "Turnabout",
            "popularity": 2.049
        },
        {
            "id": 70897,
            "original_name": "Ingobernable",
            "popularity": 14.971
        }
    ]
}