{
    "data": [
        {
            "id": 2217,
            "original_name": "Robins",
            "popularity": 2.685
        },
        {
            "id": 5264,
            "original_name": "The Swiss Family Robinson",
            "popularity": 1.38
        },
        {
            "id": 7841,
            "original_name": "Tony Robinson's Crime and Punishment",
            "popularity": 0.6
        },
        {
            "id": 8308,
            "original_name": "Expeditie Robinson",
            "popularity": 22.917
        },
        {
            "id": 12610,
            "original_name": "Robinson",
            "popularity": 2.264
        },
        {
            "id": 14259,
            "original_name": "Swiss Family Robinson",
            "popularity": 0.62
        },
        {
            "id": 15773,
            "original_name": "Les Aventures de Robinson Cruso\u00eb",
            "popularity": 1.127
        },
        {
            "id": 15885,
            "original_name": "Can Gerry Robinson Fix the NHS?",
            "popularity": 0.6
        },
        {
            "id": 16302,
            "original_name": "The Robinsons",
            "popularity": 2.068
        },
        {
            "id": 18178,
            "original_name": "The Real Swiss Family Robinson",
            "popularity": 0.6
        },
        {
            "id": 25794,
            "original_name": "The Adventures of Swiss Family Robinson",
            "popularity": 3.866
        },
        {
            "id": 27607,
            "original_name": "Tony Robinson's: Fact Or Fiction",
            "popularity": 0.6
        },
        {
            "id": 28722,
            "original_name": "Gerry Robinson's Car Crash",
            "popularity": 0.6
        },
        {
            "id": 32115,
            "original_name": "Informe Robinson",
            "popularity": 1.54
        },
        {
            "id": 32466,
            "original_name": "Robinsonekspedisjonen",
            "popularity": 4.983
        },
        {
            "id": 32718,
            "original_name": "Robinson Ekspeditionen",
            "popularity": 2.053
        },
        {
            "id": 33082,
            "original_name": "Baltic Robinson",
            "popularity": 0.6
        },
        {
            "id": 33859,
            "original_name": "Jancis Robinson's Wine Course",
            "popularity": 0.664
        },
        {
            "id": 36650,
            "original_name": "Can Gerry Robinson Fix Dementia Care Homes?",
            "popularity": 0.6
        },
        {
            "id": 39157,
            "original_name": "Expedici\u00f3n Robinson",
            "popularity": 0.6
        },
        {
            "id": 39211,
            "original_name": "Robinson: La Gran Aventura",
            "popularity": 0.6
        },
        {
            "id": 39281,
            "original_name": "Suomen Robinson",
            "popularity": 0.6
        },
        {
            "id": 39570,
            "original_name": "Expedition Robinson",
            "popularity": 0.6
        },
        {
            "id": 43824,
            "original_name": "Birth of Britain with Tony Robinson",
            "popularity": 1.348
        },
        {
            "id": 55473,
            "original_name": "Tony Robinson's Time Walks",
            "popularity": 0.6
        },
        {
            "id": 56709,
            "original_name": "Tony Robinson Explores Australia",
            "popularity": 0.6
        },
        {
            "id": 62345,
            "original_name": "Tony Robinson's World War 1",
            "popularity": 1.426
        },
        {
            "id": 62372,
            "original_name": "Tony Robinson's Tour of Duty",
            "popularity": 0.6
        },
        {
            "id": 63354,
            "original_name": "Mr. Robinson",
            "popularity": 3.137
        },
        {
            "id": 65408,
            "original_name": "Tony Robinson's Romans",
            "popularity": 0.6
        },
        {
            "id": 65410,
            "original_name": "Tony Robinson's Wild West",
            "popularity": 0.6
        },
        {
            "id": 65411,
            "original_name": "Tony Robinson's Gods and Monsters",
            "popularity": 0.624
        },
        {
            "id": 66515,
            "original_name": "FPJ's Ang Probinsyano",
            "popularity": 34.124
        },
        {
            "id": 68020,
            "original_name": "Morgana Robinson's The Agency",
            "popularity": 0.6
        },
        {
            "id": 71844,
            "original_name": "Tony Robinson: Coast to Coast",
            "popularity": 0.6
        },
        {
            "id": 74398,
            "original_name": "Britain's Ancient Tracks with Tony Robinson",
            "popularity": 0.6
        },
        {
            "id": 74559,
            "original_name": "Robinson\u016fv ostrov",
            "popularity": 0.603
        },
        {
            "id": 76519,
            "original_name": "Jackie Robinson",
            "popularity": 1.258
        },
        {
            "id": 77227,
            "original_name": "L'aventure Robinson",
            "popularity": 0.6
        },
        {
            "id": 77301,
            "original_name": "L\u2019Aventure Robinson",
            "popularity": 0.6
        },
        {
            "id": 87906,
            "original_name": "Robinson: Gr\u00e4nslandet",
            "popularity": 1.104
        },
        {
            "id": 88728,
            "original_name": "I Think You Should Leave with Tim Robinson",
            "popularity": 13.265
        },
        {
            "id": 93631,
            "original_name": "Around the World by Train With Tony Robinson",
            "popularity": 0.621
        },
        {
            "id": 98285,
            "original_name": "The Thames: Britain's Great River with Tony Robinson",
            "popularity": 1.14
        },
        {
            "id": 98517,
            "original_name": "Expeditie Robinson: Nederland vs Belgi\u00eb",
            "popularity": 9.072
        },
        {
            "id": 100965,
            "original_name": "Robins des bois, the Story",
            "popularity": 0.6
        },
        {
            "id": 101962,
            "original_name": "Robinson Cruso\u00e9",
            "popularity": 0.875
        },
        {
            "id": 103291,
            "original_name": "John Robins: The Darkness of Robins",
            "popularity": 0.6
        },
        {
            "id": 112066,
            "original_name": "Robinson Sucro\u00eb",
            "popularity": 1.154
        },
        {
            "id": 112069,
            "original_name": "Robinson Ekspeditionen: Planken ud",
            "popularity": 1.388
        },
        {
            "id": 114046,
            "original_name": "Tony Robinson's History of Britain",
            "popularity": 0.6
        },
        {
            "id": 117930,
            "original_name": "Un crime \u00e0 \u00e9lucider : l'Affaire Robinson",
            "popularity": 0.6
        },
        {
            "id": 118685,
            "original_name": "Egyptian Tomb Hunting with Tony Robinson",
            "popularity": 0.6
        },
        {
            "id": 121909,
            "original_name": "Doing the Most with Phoebe Robinson",
            "popularity": 0.84
        },
        {
            "id": 129799,
            "original_name": "The Real Mill with Tony Robinson",
            "popularity": 0.6
        },
        {
            "id": 131878,
            "original_name": "Robinsonekspedisjonen 2021",
            "popularity": 0.776
        },
        {
            "id": 134379,
            "original_name": "Britain's Forgotten Wars With Tony Robinson",
            "popularity": 0.945
        },
        {
            "id": 139706,
            "original_name": "Thames At Night With Tony Robinson",
            "popularity": 2.194
        }
    ],
    "relations": [
        {
            "character": "robinso"
        },
        {
            "character": "robinsy"
        }
    ],
    "top20": [
        {
            "id": 66515,
            "original_name": "FPJ's Ang Probinsyano",
            "popularity": 34.124
        },
        {
            "id": 8308,
            "original_name": "Expeditie Robinson",
            "popularity": 22.917
        },
        {
            "id": 88728,
            "original_name": "I Think You Should Leave with Tim Robinson",
            "popularity": 13.265
        },
        {
            "id": 98517,
            "original_name": "Expeditie Robinson: Nederland vs Belgi\u00eb",
            "popularity": 9.072
        },
        {
            "id": 32466,
            "original_name": "Robinsonekspedisjonen",
            "popularity": 4.983
        },
        {
            "id": 25794,
            "original_name": "The Adventures of Swiss Family Robinson",
            "popularity": 3.866
        },
        {
            "id": 63354,
            "original_name": "Mr. Robinson",
            "popularity": 3.137
        },
        {
            "id": 2217,
            "original_name": "Robins",
            "popularity": 2.685
        },
        {
            "id": 12610,
            "original_name": "Robinson",
            "popularity": 2.264
        },
        {
            "id": 139706,
            "original_name": "Thames At Night With Tony Robinson",
            "popularity": 2.194
        },
        {
            "id": 16302,
            "original_name": "The Robinsons",
            "popularity": 2.068
        },
        {
            "id": 32718,
            "original_name": "Robinson Ekspeditionen",
            "popularity": 2.053
        },
        {
            "id": 32115,
            "original_name": "Informe Robinson",
            "popularity": 1.54
        },
        {
            "id": 62345,
            "original_name": "Tony Robinson's World War 1",
            "popularity": 1.426
        },
        {
            "id": 112069,
            "original_name": "Robinson Ekspeditionen: Planken ud",
            "popularity": 1.388
        },
        {
            "id": 5264,
            "original_name": "The Swiss Family Robinson",
            "popularity": 1.38
        },
        {
            "id": 43824,
            "original_name": "Birth of Britain with Tony Robinson",
            "popularity": 1.348
        },
        {
            "id": 76519,
            "original_name": "Jackie Robinson",
            "popularity": 1.258
        },
        {
            "id": 112066,
            "original_name": "Robinson Sucro\u00eb",
            "popularity": 1.154
        },
        {
            "id": 98285,
            "original_name": "The Thames: Britain's Great River with Tony Robinson",
            "popularity": 1.14
        }
    ]
}