{
    "data": [
        {
            "id": 4071,
            "original_name": "Mommy Elvie's Problematic Show",
            "popularity": 0.6
        },
        {
            "id": 64416,
            "original_name": "Non c'\u00e8 problema",
            "popularity": 1.097
        },
        {
            "id": 104161,
            "original_name": "Renata y los problemas",
            "popularity": 0.993
        },
        {
            "id": 120428,
            "original_name": "Nemas Problemas",
            "popularity": 0.6
        },
        {
            "id": 132167,
            "original_name": "Problematic with Moshe Kasher",
            "popularity": 0.6
        }
    ],
    "relations": [],
    "top20": [
        {
            "id": 4071,
            "original_name": "Mommy Elvie's Problematic Show",
            "popularity": 0.6
        },
        {
            "id": 64416,
            "original_name": "Non c'\u00e8 problema",
            "popularity": 1.097
        },
        {
            "id": 104161,
            "original_name": "Renata y los problemas",
            "popularity": 0.993
        },
        {
            "id": 120428,
            "original_name": "Nemas Problemas",
            "popularity": 0.6
        },
        {
            "id": 132167,
            "original_name": "Problematic with Moshe Kasher",
            "popularity": 0.6
        }
    ]
}