{
    "data": [
        {
            "id": 10338,
            "original_name": "Rodeo Drive",
            "popularity": 0.6
        },
        {
            "id": 16333,
            "original_name": "Rhythm Rodeo",
            "popularity": 0.6
        },
        {
            "id": 26554,
            "original_name": "Tales Of The Rodent Sherlock Holmes",
            "popularity": 0.6
        },
        {
            "id": 36721,
            "original_name": "Rode Kamer, De",
            "popularity": 0.6
        },
        {
            "id": 37001,
            "original_name": "De Rodenburgs",
            "popularity": 1.232
        },
        {
            "id": 57839,
            "original_name": "Rodeo: Life on the Circuit",
            "popularity": 0.6
        },
        {
            "id": 57984,
            "original_name": "Ruk Sorn Rode",
            "popularity": 0.6
        },
        {
            "id": 60176,
            "original_name": "Blue Rodeo: Small Miracles",
            "popularity": 0.6
        },
        {
            "id": 65050,
            "original_name": "Rodeo Girls",
            "popularity": 0.6
        },
        {
            "id": 71382,
            "original_name": "GOAT Rodeo with Cody Ko",
            "popularity": 0.6
        },
        {
            "id": 95902,
            "original_name": "I Witness: Big Cody Night Rodeo",
            "popularity": 0.6
        },
        {
            "id": 101875,
            "original_name": "Powr\u00f3t doktora von Kniprode",
            "popularity": 0.961
        },
        {
            "id": 102303,
            "original_name": "Little Britches Rodeo",
            "popularity": 0.6
        },
        {
            "id": 111626,
            "original_name": "John Torode's Middle East",
            "popularity": 0.6
        },
        {
            "id": 113175,
            "original_name": "Entweder Broder",
            "popularity": 1.4
        },
        {
            "id": 139426,
            "original_name": "Kid Rodeo",
            "popularity": 1.158
        }
    ],
    "relations": [],
    "top20": [
        {
            "id": 10338,
            "original_name": "Rodeo Drive",
            "popularity": 0.6
        },
        {
            "id": 16333,
            "original_name": "Rhythm Rodeo",
            "popularity": 0.6
        },
        {
            "id": 26554,
            "original_name": "Tales Of The Rodent Sherlock Holmes",
            "popularity": 0.6
        },
        {
            "id": 36721,
            "original_name": "Rode Kamer, De",
            "popularity": 0.6
        },
        {
            "id": 37001,
            "original_name": "De Rodenburgs",
            "popularity": 1.232
        },
        {
            "id": 57839,
            "original_name": "Rodeo: Life on the Circuit",
            "popularity": 0.6
        },
        {
            "id": 57984,
            "original_name": "Ruk Sorn Rode",
            "popularity": 0.6
        },
        {
            "id": 60176,
            "original_name": "Blue Rodeo: Small Miracles",
            "popularity": 0.6
        },
        {
            "id": 65050,
            "original_name": "Rodeo Girls",
            "popularity": 0.6
        },
        {
            "id": 71382,
            "original_name": "GOAT Rodeo with Cody Ko",
            "popularity": 0.6
        },
        {
            "id": 95902,
            "original_name": "I Witness: Big Cody Night Rodeo",
            "popularity": 0.6
        },
        {
            "id": 101875,
            "original_name": "Powr\u00f3t doktora von Kniprode",
            "popularity": 0.961
        },
        {
            "id": 102303,
            "original_name": "Little Britches Rodeo",
            "popularity": 0.6
        },
        {
            "id": 111626,
            "original_name": "John Torode's Middle East",
            "popularity": 0.6
        },
        {
            "id": 113175,
            "original_name": "Entweder Broder",
            "popularity": 1.4
        },
        {
            "id": 139426,
            "original_name": "Kid Rodeo",
            "popularity": 1.158
        }
    ]
}