{
    "data": [
        {
            "id": 45104,
            "original_name": "A Padroeira",
            "popularity": 2.107
        }
    ],
    "relations": [],
    "top20": [
        {
            "id": 45104,
            "original_name": "A Padroeira",
            "popularity": 2.107
        }
    ]
}