{
    "data": [
        {
            "id": 2513,
            "original_name": "Dr. Katz, Professional Therapist",
            "popularity": 7.5
        },
        {
            "id": 10203,
            "original_name": "Professional Bowlers Tour",
            "popularity": 0.6
        },
        {
            "id": 11174,
            "original_name": "The Professionals",
            "popularity": 28.208
        },
        {
            "id": 13081,
            "original_name": "CI5: The New Professionals",
            "popularity": 4.322
        },
        {
            "id": 18149,
            "original_name": "Professional Father",
            "popularity": 0.6
        },
        {
            "id": 22678,
            "original_name": "Professional Championship Wrestling",
            "popularity": 0.6
        },
        {
            "id": 24285,
            "original_name": "Masterchef: The Professionals",
            "popularity": 52.445
        },
        {
            "id": 27335,
            "original_name": "University Challenge - The Professionals",
            "popularity": 0.6
        },
        {
            "id": 36198,
            "original_name": "Jim Shockey's The Professionals",
            "popularity": 0.6
        },
        {
            "id": 36734,
            "original_name": "Professional Poker Tour",
            "popularity": 0.6
        },
        {
            "id": 40422,
            "original_name": "Profession It Girl",
            "popularity": 0.6
        },
        {
            "id": 41419,
            "original_name": "Professione fantasma",
            "popularity": 1.238
        },
        {
            "id": 45926,
            "original_name": "PROFESSIONAL BASEBALL NEWS",
            "popularity": 0.6
        },
        {
            "id": 52941,
            "original_name": "Professiya - Sledovatel",
            "popularity": 0.6
        },
        {
            "id": 53529,
            "original_name": "Profession: X",
            "popularity": 0.6
        },
        {
            "id": 55639,
            "original_name": "MasterChef: The Professionals: Michel's Classics",
            "popularity": 0.6
        },
        {
            "id": 56618,
            "original_name": "Professional Football",
            "popularity": 0.6
        },
        {
            "id": 58693,
            "original_name": "MasterChef Australia: The Professionals",
            "popularity": 1.147
        },
        {
            "id": 65226,
            "original_name": "Professione vacanze",
            "popularity": 0.803
        },
        {
            "id": 79207,
            "original_name": "Bake Off: The Professionals",
            "popularity": 1.926
        },
        {
            "id": 99176,
            "original_name": "Profession Cineaste Animalier",
            "popularity": 0.6
        },
        {
            "id": 113452,
            "original_name": "Professionals",
            "popularity": 8.755
        },
        {
            "id": 115324,
            "original_name": "Le meilleur p\u00e2tissier - Les professionnels",
            "popularity": 1.235
        },
        {
            "id": 133399,
            "original_name": "Special Forces: Ultimate Hell Week - The Professionals",
            "popularity": 0.84
        },
        {
            "id": 136313,
            "original_name": "The Professional",
            "popularity": 9.659
        }
    ],
    "relations": [
        {
            "character": "rofessio"
        },
        {
            "character": "rofessiy"
        }
    ],
    "top20": [
        {
            "id": 24285,
            "original_name": "Masterchef: The Professionals",
            "popularity": 52.445
        },
        {
            "id": 11174,
            "original_name": "The Professionals",
            "popularity": 28.208
        },
        {
            "id": 136313,
            "original_name": "The Professional",
            "popularity": 9.659
        },
        {
            "id": 113452,
            "original_name": "Professionals",
            "popularity": 8.755
        },
        {
            "id": 2513,
            "original_name": "Dr. Katz, Professional Therapist",
            "popularity": 7.5
        },
        {
            "id": 13081,
            "original_name": "CI5: The New Professionals",
            "popularity": 4.322
        },
        {
            "id": 79207,
            "original_name": "Bake Off: The Professionals",
            "popularity": 1.926
        },
        {
            "id": 41419,
            "original_name": "Professione fantasma",
            "popularity": 1.238
        },
        {
            "id": 115324,
            "original_name": "Le meilleur p\u00e2tissier - Les professionnels",
            "popularity": 1.235
        },
        {
            "id": 58693,
            "original_name": "MasterChef Australia: The Professionals",
            "popularity": 1.147
        },
        {
            "id": 133399,
            "original_name": "Special Forces: Ultimate Hell Week - The Professionals",
            "popularity": 0.84
        },
        {
            "id": 65226,
            "original_name": "Professione vacanze",
            "popularity": 0.803
        },
        {
            "id": 27335,
            "original_name": "University Challenge - The Professionals",
            "popularity": 0.6
        },
        {
            "id": 40422,
            "original_name": "Profession It Girl",
            "popularity": 0.6
        },
        {
            "id": 22678,
            "original_name": "Professional Championship Wrestling",
            "popularity": 0.6
        },
        {
            "id": 45926,
            "original_name": "PROFESSIONAL BASEBALL NEWS",
            "popularity": 0.6
        },
        {
            "id": 18149,
            "original_name": "Professional Father",
            "popularity": 0.6
        },
        {
            "id": 10203,
            "original_name": "Professional Bowlers Tour",
            "popularity": 0.6
        },
        {
            "id": 36198,
            "original_name": "Jim Shockey's The Professionals",
            "popularity": 0.6
        },
        {
            "id": 36734,
            "original_name": "Professional Poker Tour",
            "popularity": 0.6
        }
    ]
}