{
    "data": [
        {
            "id": 103791,
            "original_name": "Taronga: Who's Who In The Zoo",
            "popularity": 0.979
        },
        {
            "id": 105790,
            "original_name": "Inside Taronga Zoo",
            "popularity": 1.07
        }
    ],
    "relations": [],
    "top20": [
        {
            "id": 103791,
            "original_name": "Taronga: Who's Who In The Zoo",
            "popularity": 0.979
        },
        {
            "id": 105790,
            "original_name": "Inside Taronga Zoo",
            "popularity": 1.07
        }
    ]
}