{
    "data": [
        {
            "id": 3134,
            "original_name": "The Bronx Bunny Show",
            "popularity": 0.62
        },
        {
            "id": 5560,
            "original_name": "The Bronx Is Burning",
            "popularity": 1.875
        },
        {
            "id": 12222,
            "original_name": "The Bronx Zoo",
            "popularity": 4.885
        },
        {
            "id": 27583,
            "original_name": "911: The Bronx",
            "popularity": 0.6
        },
        {
            "id": 55376,
            "original_name": "Hard Parts: South Bronx",
            "popularity": 0.6
        },
        {
            "id": 73994,
            "original_name": "Street Justice: The Bronx",
            "popularity": 0.6
        },
        {
            "id": 82181,
            "original_name": "Bronx SIU",
            "popularity": 1.728
        },
        {
            "id": 86346,
            "original_name": "El Bronx",
            "popularity": 31.489
        }
    ],
    "relations": [],
    "top20": [
        {
            "id": 3134,
            "original_name": "The Bronx Bunny Show",
            "popularity": 0.62
        },
        {
            "id": 5560,
            "original_name": "The Bronx Is Burning",
            "popularity": 1.875
        },
        {
            "id": 12222,
            "original_name": "The Bronx Zoo",
            "popularity": 4.885
        },
        {
            "id": 27583,
            "original_name": "911: The Bronx",
            "popularity": 0.6
        },
        {
            "id": 55376,
            "original_name": "Hard Parts: South Bronx",
            "popularity": 0.6
        },
        {
            "id": 73994,
            "original_name": "Street Justice: The Bronx",
            "popularity": 0.6
        },
        {
            "id": 82181,
            "original_name": "Bronx SIU",
            "popularity": 1.728
        },
        {
            "id": 86346,
            "original_name": "El Bronx",
            "popularity": 31.489
        }
    ]
}