{
    "data": [
        {
            "id": 2526,
            "original_name": "Root Into Europe",
            "popularity": 0.6
        },
        {
            "id": 7084,
            "original_name": "Lewis Black's Root of All Evil",
            "popularity": 3.273
        },
        {
            "id": 8830,
            "original_name": "Searching for the Roots of 9/11",
            "popularity": 0.6
        },
        {
            "id": 12842,
            "original_name": "Grass Roots",
            "popularity": 1.383
        },
        {
            "id": 13436,
            "original_name": "Roots: The Next Generations",
            "popularity": 5.295
        },
        {
            "id": 13555,
            "original_name": "Roots",
            "popularity": 13.044
        },
        {
            "id": 13601,
            "original_name": "The Root of All Evil?",
            "popularity": 0.988
        },
        {
            "id": 13884,
            "original_name": "From These Roots",
            "popularity": 3.783
        },
        {
            "id": 14192,
            "original_name": "Rootie Kazootie",
            "popularity": 0.6
        },
        {
            "id": 16260,
            "original_name": "Root of Evil",
            "popularity": 0.6
        },
        {
            "id": 25039,
            "original_name": "European Roots",
            "popularity": 0.6
        },
        {
            "id": 27949,
            "original_name": "Grass Roots: Young Farmers",
            "popularity": 0.6
        },
        {
            "id": 28332,
            "original_name": "Roots (UK)",
            "popularity": 0.6
        },
        {
            "id": 30654,
            "original_name": "Grootste royaltykenner van Nederland, De",
            "popularity": 0.6
        },
        {
            "id": 37052,
            "original_name": "Primal Root: Elements Of Balance",
            "popularity": 0.804
        },
        {
            "id": 37805,
            "original_name": "Groot Dictee der Nederlandse Taal, Het",
            "popularity": 0.6
        },
        {
            "id": 42169,
            "original_name": "Mujhay Roothnay Na Daina",
            "popularity": 0.6
        },
        {
            "id": 42196,
            "original_name": "Mohabbat Rooth Jaye Toh",
            "popularity": 0.6
        },
        {
            "id": 42561,
            "original_name": "Roots and Shoots",
            "popularity": 0.6
        },
        {
            "id": 43221,
            "original_name": "Finding Your Roots",
            "popularity": 10.679
        },
        {
            "id": 43840,
            "original_name": "Comic Roots",
            "popularity": 0.6
        },
        {
            "id": 48030,
            "original_name": "The Root of All Evil?",
            "popularity": 0.6
        },
        {
            "id": 49705,
            "original_name": "The Sentry Collection Presents Ben Vereen: His Roots",
            "popularity": 0.6
        },
        {
            "id": 53369,
            "original_name": "Supabaroot Luke Pu Chai",
            "popularity": 0.6
        },
        {
            "id": 55379,
            "original_name": "Funny Roots",
            "popularity": 0.6
        },
        {
            "id": 56318,
            "original_name": "America's Music: The Roots of Country",
            "popularity": 0.6
        },
        {
            "id": 60314,
            "original_name": "UpRooted",
            "popularity": 0.6
        },
        {
            "id": 66606,
            "original_name": "Roots",
            "popularity": 11.755
        },
        {
            "id": 70784,
            "original_name": "Marvel's Rocket & Groot",
            "popularity": 3.384
        },
        {
            "id": 83384,
            "original_name": "American Roots Music",
            "popularity": 0.6
        },
        {
            "id": 94695,
            "original_name": "Rooted",
            "popularity": 0.6
        },
        {
            "id": 102624,
            "original_name": "Roots of TOKYO",
            "popularity": 0.6
        },
        {
            "id": 103695,
            "original_name": "Rooted Life Through The Eyes Of Trees",
            "popularity": 0.6
        },
        {
            "id": 114216,
            "original_name": "Panggung Karoot",
            "popularity": 0.6
        },
        {
            "id": 114469,
            "original_name": "I Am Groot",
            "popularity": 3.723
        },
        {
            "id": 116956,
            "original_name": "later Als Ik Groot Ben",
            "popularity": 0.6
        },
        {
            "id": 120330,
            "original_name": ".hack//ROOTS",
            "popularity": 1.374
        },
        {
            "id": 122679,
            "original_name": "Roots 30th Anniversary Edition",
            "popularity": 0.6
        }
    ],
    "relations": [
        {
            "character": "roots"
        },
        {
            "character": "rooti"
        },
        {
            "character": "rooth"
        },
        {
            "character": "roote"
        }
    ],
    "top20": [
        {
            "id": 13555,
            "original_name": "Roots",
            "popularity": 13.044
        },
        {
            "id": 66606,
            "original_name": "Roots",
            "popularity": 11.755
        },
        {
            "id": 43221,
            "original_name": "Finding Your Roots",
            "popularity": 10.679
        },
        {
            "id": 13436,
            "original_name": "Roots: The Next Generations",
            "popularity": 5.295
        },
        {
            "id": 13884,
            "original_name": "From These Roots",
            "popularity": 3.783
        },
        {
            "id": 114469,
            "original_name": "I Am Groot",
            "popularity": 3.723
        },
        {
            "id": 70784,
            "original_name": "Marvel's Rocket & Groot",
            "popularity": 3.384
        },
        {
            "id": 7084,
            "original_name": "Lewis Black's Root of All Evil",
            "popularity": 3.273
        },
        {
            "id": 12842,
            "original_name": "Grass Roots",
            "popularity": 1.383
        },
        {
            "id": 120330,
            "original_name": ".hack//ROOTS",
            "popularity": 1.374
        },
        {
            "id": 13601,
            "original_name": "The Root of All Evil?",
            "popularity": 0.988
        },
        {
            "id": 37052,
            "original_name": "Primal Root: Elements Of Balance",
            "popularity": 0.804
        },
        {
            "id": 16260,
            "original_name": "Root of Evil",
            "popularity": 0.6
        },
        {
            "id": 8830,
            "original_name": "Searching for the Roots of 9/11",
            "popularity": 0.6
        },
        {
            "id": 2526,
            "original_name": "Root Into Europe",
            "popularity": 0.6
        },
        {
            "id": 25039,
            "original_name": "European Roots",
            "popularity": 0.6
        },
        {
            "id": 30654,
            "original_name": "Grootste royaltykenner van Nederland, De",
            "popularity": 0.6
        },
        {
            "id": 27949,
            "original_name": "Grass Roots: Young Farmers",
            "popularity": 0.6
        },
        {
            "id": 14192,
            "original_name": "Rootie Kazootie",
            "popularity": 0.6
        },
        {
            "id": 28332,
            "original_name": "Roots (UK)",
            "popularity": 0.6
        }
    ]
}