{
    "data": [
        {
            "id": 7707,
            "original_name": "Sorority Forever",
            "popularity": 0.6
        },
        {
            "id": 10193,
            "original_name": "Sorority Life",
            "popularity": 0.6
        },
        {
            "id": 19272,
            "original_name": "The Man Who Shot the Pope: A Study in Terrorism",
            "popularity": 0.6
        },
        {
            "id": 19806,
            "original_name": "International Terrorism Since 1945",
            "popularity": 0.6
        },
        {
            "id": 20520,
            "original_name": "Terrorism in the hands of Justice",
            "popularity": 0.6
        },
        {
            "id": 31647,
            "original_name": "Terrorism in the Grip of Justice",
            "popularity": 0.6
        },
        {
            "id": 43838,
            "original_name": "Sorority Girls",
            "popularity": 0.6
        },
        {
            "id": 77849,
            "original_name": "Curious Minds: Terrorism",
            "popularity": 0.6
        },
        {
            "id": 83462,
            "original_name": "Terrorism Close Calls",
            "popularity": 1.048
        },
        {
            "id": 93917,
            "original_name": "Missie F-16: onze strijd tegen terrorisme",
            "popularity": 1.359
        },
        {
            "id": 94870,
            "original_name": "La Science Face Au Terrorisme",
            "popularity": 0.6
        },
        {
            "id": 98649,
            "original_name": "Terrorisme, raison d'\u00c9tat",
            "popularity": 0.6
        },
        {
            "id": 103801,
            "original_name": "Trouble in Terrorist Town",
            "popularity": 0.6
        },
        {
            "id": 113126,
            "original_name": "Sorority House Massacre",
            "popularity": 0.84
        },
        {
            "id": 120172,
            "original_name": "La ciencia contra el terrorismo",
            "popularity": 0.661
        },
        {
            "id": 123100,
            "original_name": "La science face au terrorisme",
            "popularity": 0.6
        },
        {
            "id": 125866,
            "original_name": "Antoine Rives, le juge du terrorisme",
            "popularity": 0.87
        }
    ],
    "relations": [],
    "top20": [
        {
            "id": 7707,
            "original_name": "Sorority Forever",
            "popularity": 0.6
        },
        {
            "id": 10193,
            "original_name": "Sorority Life",
            "popularity": 0.6
        },
        {
            "id": 19272,
            "original_name": "The Man Who Shot the Pope: A Study in Terrorism",
            "popularity": 0.6
        },
        {
            "id": 19806,
            "original_name": "International Terrorism Since 1945",
            "popularity": 0.6
        },
        {
            "id": 20520,
            "original_name": "Terrorism in the hands of Justice",
            "popularity": 0.6
        },
        {
            "id": 31647,
            "original_name": "Terrorism in the Grip of Justice",
            "popularity": 0.6
        },
        {
            "id": 43838,
            "original_name": "Sorority Girls",
            "popularity": 0.6
        },
        {
            "id": 77849,
            "original_name": "Curious Minds: Terrorism",
            "popularity": 0.6
        },
        {
            "id": 83462,
            "original_name": "Terrorism Close Calls",
            "popularity": 1.048
        },
        {
            "id": 93917,
            "original_name": "Missie F-16: onze strijd tegen terrorisme",
            "popularity": 1.359
        },
        {
            "id": 94870,
            "original_name": "La Science Face Au Terrorisme",
            "popularity": 0.6
        },
        {
            "id": 98649,
            "original_name": "Terrorisme, raison d'\u00c9tat",
            "popularity": 0.6
        },
        {
            "id": 103801,
            "original_name": "Trouble in Terrorist Town",
            "popularity": 0.6
        },
        {
            "id": 113126,
            "original_name": "Sorority House Massacre",
            "popularity": 0.84
        },
        {
            "id": 120172,
            "original_name": "La ciencia contra el terrorismo",
            "popularity": 0.661
        },
        {
            "id": 123100,
            "original_name": "La science face au terrorisme",
            "popularity": 0.6
        },
        {
            "id": 125866,
            "original_name": "Antoine Rives, le juge du terrorisme",
            "popularity": 0.87
        }
    ]
}