{
    "data": [
        {
            "id": 5144,
            "original_name": "Zorro: La espada y la rosa",
            "popularity": 6.36
        },
        {
            "id": 7279,
            "original_name": "Family Rosary Crusade",
            "popularity": 0.6
        },
        {
            "id": 8361,
            "original_name": "O Cravo e a Rosa",
            "popularity": 4.988
        },
        {
            "id": 11179,
            "original_name": "Ponderosa",
            "popularity": 2.258
        },
        {
            "id": 12656,
            "original_name": "Rosalinda",
            "popularity": 7.816
        },
        {
            "id": 12753,
            "original_name": "Rosa Salvaje",
            "popularity": 9.087
        },
        {
            "id": 16138,
            "original_name": "La Dama de Rosa",
            "popularity": 1.226
        },
        {
            "id": 16954,
            "original_name": "Peligrosa",
            "popularity": 0.6
        },
        {
            "id": 17120,
            "original_name": "Maria Rosa, Buscame una Esposa",
            "popularity": 1.187
        },
        {
            "id": 17346,
            "original_name": "Rosalinda",
            "popularity": 0.6
        },
        {
            "id": 18951,
            "original_name": "Las Rosas Blancas",
            "popularity": 0.6
        },
        {
            "id": 28342,
            "original_name": "Mama Rosa",
            "popularity": 1.263
        },
        {
            "id": 30272,
            "original_name": "The Julius Larosa Show",
            "popularity": 0.6
        },
        {
            "id": 30370,
            "original_name": "The Julius LaRosa Show",
            "popularity": 0.6
        },
        {
            "id": 30492,
            "original_name": "Agujetas de Color de Rosa",
            "popularity": 0.82
        },
        {
            "id": 30826,
            "original_name": "La rosa de Guadalupe",
            "popularity": 55.383
        },
        {
            "id": 31279,
            "original_name": "Kone Prosa Srey",
            "popularity": 0.6
        },
        {
            "id": 31774,
            "original_name": "Rosalinda y Primitivo",
            "popularity": 0.6
        },
        {
            "id": 32604,
            "original_name": "Relaciones Peligrosas",
            "popularity": 8.108
        },
        {
            "id": 32624,
            "original_name": "Rosalka",
            "popularity": 0.6
        },
        {
            "id": 40330,
            "original_name": "Rosa Fogo",
            "popularity": 3.197
        },
        {
            "id": 41258,
            "original_name": "Rosa Roth",
            "popularity": 5.246
        },
        {
            "id": 41520,
            "original_name": "La figlia di Elisa \u2013 Ritorno a Rivombrosa",
            "popularity": 1.4
        },
        {
            "id": 41749,
            "original_name": "Glamorosa",
            "popularity": 0.6
        },
        {
            "id": 41775,
            "original_name": "Elisa di Rivombrosa",
            "popularity": 2.728
        },
        {
            "id": 41827,
            "original_name": "Uma Rosa com Amor",
            "popularity": 3.745
        },
        {
            "id": 44093,
            "original_name": "Rosario",
            "popularity": 0.6
        },
        {
            "id": 60374,
            "original_name": "Rosa Diamante",
            "popularity": 2.485
        },
        {
            "id": 66723,
            "original_name": "Federico Buffa racconta - La citt\u00e0 del calcio: Rosario",
            "popularity": 0.709
        },
        {
            "id": 68647,
            "original_name": "Rosamunde Pilcher: Vier Frauen",
            "popularity": 1.384
        },
        {
            "id": 71156,
            "original_name": "Amistades peligrosas",
            "popularity": 0.6
        },
        {
            "id": 74428,
            "original_name": "Rosario Tijeras",
            "popularity": 194.2
        },
        {
            "id": 75696,
            "original_name": "Rosamunde Pilcher: The Other Wife",
            "popularity": 2.631
        },
        {
            "id": 77070,
            "original_name": "Rosamunde Pilcher: Fighting for Her Family",
            "popularity": 1.296
        },
        {
            "id": 77438,
            "original_name": "Rosamunde Pilcher's Four Seasons",
            "popularity": 1.25
        },
        {
            "id": 77956,
            "original_name": "Rosamunde Pilcher - Zauber der Liebe",
            "popularity": 0.6
        },
        {
            "id": 80284,
            "original_name": "Kennzeichen Rosa Nelke",
            "popularity": 0.84
        },
        {
            "id": 81146,
            "original_name": "Rosario Tijeras",
            "popularity": 15.223
        },
        {
            "id": 81482,
            "original_name": "Livet enligt rosa",
            "popularity": 0.6
        },
        {
            "id": 85391,
            "original_name": "Rosa und Rosalind",
            "popularity": 0.6
        },
        {
            "id": 86343,
            "original_name": "Il nome della rosa",
            "popularity": 10.411
        },
        {
            "id": 87230,
            "original_name": "Rubirosa",
            "popularity": 1.032
        },
        {
            "id": 87794,
            "original_name": "Demande donc \u00e0 Rosalie",
            "popularity": 0.6
        },
        {
            "id": 90754,
            "original_name": "Bharosa Pyar Tera",
            "popularity": 1.176
        },
        {
            "id": 92047,
            "original_name": "Rosario",
            "popularity": 1.845
        },
        {
            "id": 92396,
            "original_name": "Lady, la vendedora de rosas",
            "popularity": 144.92
        },
        {
            "id": 96014,
            "original_name": "Survivor: Ponderosa",
            "popularity": 14.64
        },
        {
            "id": 96642,
            "original_name": "Zona Rosa",
            "popularity": 0.976
        },
        {
            "id": 99000,
            "original_name": "Sagan om den snarkande T\u00f6rnrosa och 14 andra \u00e4lskade sagor",
            "popularity": 0.6
        },
        {
            "id": 101128,
            "original_name": "Asombrosamente",
            "popularity": 0.6
        },
        {
            "id": 101799,
            "original_name": "Agujetas de color de rosa",
            "popularity": 0.6
        },
        {
            "id": 102801,
            "original_name": "Una Fortuna Peligrosa (2016)",
            "popularity": 0.6
        },
        {
            "id": 104591,
            "original_name": "Soy Rosa",
            "popularity": 0.6
        },
        {
            "id": 104615,
            "original_name": "El Zorro: la espada y la rosa",
            "popularity": 3.803
        },
        {
            "id": 110132,
            "original_name": "La Rosa De Guadalupe",
            "popularity": 9.531
        },
        {
            "id": 112210,
            "original_name": "Fronteras Peligrosas de Latino America",
            "popularity": 0.6
        },
        {
            "id": 114592,
            "original_name": "Rosalie : la com\u00e9die musicale",
            "popularity": 0.84
        },
        {
            "id": 115475,
            "original_name": "C\u00f3digo Rosa",
            "popularity": 0.6
        },
        {
            "id": 124471,
            "original_name": "Rosa Redder Fr\u00f8erne",
            "popularity": 0.6
        },
        {
            "id": 125388,
            "original_name": "Rosalie dans ta cuisine",
            "popularity": 0.6
        },
        {
            "id": 128899,
            "original_name": "Version Rosalie",
            "popularity": 0.6
        },
        {
            "id": 130106,
            "original_name": "Il sangue e la rosa",
            "popularity": 0.622
        },
        {
            "id": 132002,
            "original_name": "Rosamunde Pilcher",
            "popularity": 8.623
        }
    ],
    "relations": [
        {
            "character": "rosar"
        },
        {
            "character": "rosal"
        },
        {
            "character": "rosas"
        },
        {
            "character": "rosam"
        }
    ],
    "top20": [
        {
            "id": 74428,
            "original_name": "Rosario Tijeras",
            "popularity": 194.2
        },
        {
            "id": 92396,
            "original_name": "Lady, la vendedora de rosas",
            "popularity": 144.92
        },
        {
            "id": 30826,
            "original_name": "La rosa de Guadalupe",
            "popularity": 55.383
        },
        {
            "id": 81146,
            "original_name": "Rosario Tijeras",
            "popularity": 15.223
        },
        {
            "id": 96014,
            "original_name": "Survivor: Ponderosa",
            "popularity": 14.64
        },
        {
            "id": 86343,
            "original_name": "Il nome della rosa",
            "popularity": 10.411
        },
        {
            "id": 110132,
            "original_name": "La Rosa De Guadalupe",
            "popularity": 9.531
        },
        {
            "id": 12753,
            "original_name": "Rosa Salvaje",
            "popularity": 9.087
        },
        {
            "id": 132002,
            "original_name": "Rosamunde Pilcher",
            "popularity": 8.623
        },
        {
            "id": 32604,
            "original_name": "Relaciones Peligrosas",
            "popularity": 8.108
        },
        {
            "id": 12656,
            "original_name": "Rosalinda",
            "popularity": 7.816
        },
        {
            "id": 5144,
            "original_name": "Zorro: La espada y la rosa",
            "popularity": 6.36
        },
        {
            "id": 41258,
            "original_name": "Rosa Roth",
            "popularity": 5.246
        },
        {
            "id": 8361,
            "original_name": "O Cravo e a Rosa",
            "popularity": 4.988
        },
        {
            "id": 104615,
            "original_name": "El Zorro: la espada y la rosa",
            "popularity": 3.803
        },
        {
            "id": 41827,
            "original_name": "Uma Rosa com Amor",
            "popularity": 3.745
        },
        {
            "id": 40330,
            "original_name": "Rosa Fogo",
            "popularity": 3.197
        },
        {
            "id": 41775,
            "original_name": "Elisa di Rivombrosa",
            "popularity": 2.728
        },
        {
            "id": 75696,
            "original_name": "Rosamunde Pilcher: The Other Wife",
            "popularity": 2.631
        },
        {
            "id": 60374,
            "original_name": "Rosa Diamante",
            "popularity": 2.485
        }
    ]
}