{
    "data": [
        {
            "id": 53756,
            "original_name": "Sagan om Skrotnisse och hans v\u00e4nner",
            "popularity": 1.724
        }
    ],
    "relations": [],
    "top20": [
        {
            "id": 53756,
            "original_name": "Sagan om Skrotnisse och hans v\u00e4nner",
            "popularity": 1.724
        }
    ]
}