{
    "data": [
        {
            "id": 8549,
            "original_name": "The Troubleshooters",
            "popularity": 2.183
        },
        {
            "id": 20133,
            "original_name": "The Troubleshooters",
            "popularity": 2.591
        },
        {
            "id": 24604,
            "original_name": "Peter's Troubles",
            "popularity": 0.6
        },
        {
            "id": 25700,
            "original_name": "So You Think You've Got Troubles",
            "popularity": 1.381
        },
        {
            "id": 25713,
            "original_name": "Troubles And Strife",
            "popularity": 0.6
        },
        {
            "id": 33636,
            "original_name": "Troubleshooter",
            "popularity": 0.6
        },
        {
            "id": 75841,
            "original_name": "Troubles",
            "popularity": 1.844
        },
        {
            "id": 93832,
            "original_name": "The Troubles: A Secret History",
            "popularity": 0.6
        },
        {
            "id": 115383,
            "original_name": "Starting Troubles",
            "popularity": 0.6
        },
        {
            "id": 121781,
            "original_name": "The War Next Door: Scotland and the Troubles",
            "popularity": 0.6
        }
    ],
    "relations": [],
    "top20": [
        {
            "id": 8549,
            "original_name": "The Troubleshooters",
            "popularity": 2.183
        },
        {
            "id": 20133,
            "original_name": "The Troubleshooters",
            "popularity": 2.591
        },
        {
            "id": 24604,
            "original_name": "Peter's Troubles",
            "popularity": 0.6
        },
        {
            "id": 25700,
            "original_name": "So You Think You've Got Troubles",
            "popularity": 1.381
        },
        {
            "id": 25713,
            "original_name": "Troubles And Strife",
            "popularity": 0.6
        },
        {
            "id": 33636,
            "original_name": "Troubleshooter",
            "popularity": 0.6
        },
        {
            "id": 75841,
            "original_name": "Troubles",
            "popularity": 1.844
        },
        {
            "id": 93832,
            "original_name": "The Troubles: A Secret History",
            "popularity": 0.6
        },
        {
            "id": 115383,
            "original_name": "Starting Troubles",
            "popularity": 0.6
        },
        {
            "id": 121781,
            "original_name": "The War Next Door: Scotland and the Troubles",
            "popularity": 0.6
        }
    ]
}