{
    "data": [
        {
            "id": 19363,
            "original_name": "GMA News Roundup",
            "popularity": 0.6
        },
        {
            "id": 27526,
            "original_name": "2006 Winter Olympics Roundup",
            "popularity": 0.6
        },
        {
            "id": 34263,
            "original_name": "Junior Roundup",
            "popularity": 0.6
        },
        {
            "id": 44991,
            "original_name": "Saturday Roundup",
            "popularity": 0.6
        },
        {
            "id": 56428,
            "original_name": "World News Roundup",
            "popularity": 0.6
        }
    ],
    "relations": [],
    "top20": [
        {
            "id": 19363,
            "original_name": "GMA News Roundup",
            "popularity": 0.6
        },
        {
            "id": 27526,
            "original_name": "2006 Winter Olympics Roundup",
            "popularity": 0.6
        },
        {
            "id": 34263,
            "original_name": "Junior Roundup",
            "popularity": 0.6
        },
        {
            "id": 44991,
            "original_name": "Saturday Roundup",
            "popularity": 0.6
        },
        {
            "id": 56428,
            "original_name": "World News Roundup",
            "popularity": 0.6
        }
    ]
}