{
    "data": [
        {
            "id": 370,
            "original_name": "Stickin' Around",
            "popularity": 0.977
        },
        {
            "id": 569,
            "original_name": "Around the Horn",
            "popularity": 0.999
        },
        {
            "id": 594,
            "original_name": "Higher Ground",
            "popularity": 5.497
        },
        {
            "id": 695,
            "original_name": "Round the Twist",
            "popularity": 5.054
        },
        {
            "id": 770,
            "original_name": "Lookaround",
            "popularity": 0.6
        },
        {
            "id": 839,
            "original_name": "Newsround",
            "popularity": 0.6
        },
        {
            "id": 852,
            "original_name": "Michael Palin: Around the World in 80 Days",
            "popularity": 4.17
        },
        {
            "id": 1751,
            "original_name": "All Around Performance Horse Weekly",
            "popularity": 0.6
        },
        {
            "id": 1851,
            "original_name": "The Underground",
            "popularity": 0.924
        },
        {
            "id": 2494,
            "original_name": "Look Around You",
            "popularity": 3.803
        },
        {
            "id": 2615,
            "original_name": "Around the World in 80 Treasures",
            "popularity": 0.6
        },
        {
            "id": 2899,
            "original_name": "Long Way Round",
            "popularity": 7.361
        },
        {
            "id": 3071,
            "original_name": "Horton View Sports Ground, Banbury",
            "popularity": 0.6
        },
        {
            "id": 3143,
            "original_name": "Conservative Roundtable",
            "popularity": 0.6
        },
        {
            "id": 3732,
            "original_name": "Bunker, or Learning Underground",
            "popularity": 0.6
        },
        {
            "id": 3762,
            "original_name": "NBA Shootaround",
            "popularity": 0.6
        },
        {
            "id": 3900,
            "original_name": "Underground Ernie",
            "popularity": 0.638
        },
        {
            "id": 4731,
            "original_name": "Grounded for Life",
            "popularity": 16.234
        },
        {
            "id": 6258,
            "original_name": "Sportsround",
            "popularity": 2.318
        },
        {
            "id": 6594,
            "original_name": "Roundhouse",
            "popularity": 1.05
        },
        {
            "id": 6897,
            "original_name": "Around the World in Eighty Dreams",
            "popularity": 0.6
        },
        {
            "id": 7618,
            "original_name": "Newsround Showbiz",
            "popularity": 0.6
        },
        {
            "id": 8369,
            "original_name": "The Law of the Playground",
            "popularity": 0.6
        },
        {
            "id": 8760,
            "original_name": "Battleground Earth",
            "popularity": 0.6
        },
        {
            "id": 9211,
            "original_name": "Groundling Marsh",
            "popularity": 1.513
        },
        {
            "id": 9527,
            "original_name": "Race Around the World",
            "popularity": 0.6
        },
        {
            "id": 10012,
            "original_name": "Second Time Around",
            "popularity": 2.069
        },
        {
            "id": 11015,
            "original_name": "Ear to the Ground",
            "popularity": 0.6
        },
        {
            "id": 11409,
            "original_name": "TCM Underground",
            "popularity": 0.6
        },
        {
            "id": 12503,
            "original_name": "Runaround",
            "popularity": 0.6
        },
        {
            "id": 12624,
            "original_name": "Around Indonesia",
            "popularity": 0.6
        },
        {
            "id": 12768,
            "original_name": "Shaky Ground",
            "popularity": 2.439
        },
        {
            "id": 12812,
            "original_name": "Ground Force",
            "popularity": 0.63
        },
        {
            "id": 13016,
            "original_name": "From the Ground Up with Debbie Travis",
            "popularity": 0.6
        },
        {
            "id": 13408,
            "original_name": "The Round Table",
            "popularity": 2.038
        },
        {
            "id": 13458,
            "original_name": "Round the Bend",
            "popularity": 0.6
        },
        {
            "id": 13464,
            "original_name": "Arthur! and the Square Knights of the Round Table",
            "popularity": 0.6
        },
        {
            "id": 14237,
            "original_name": "Round Britain Whizz",
            "popularity": 0.6
        },
        {
            "id": 14393,
            "original_name": "Fool Around With",
            "popularity": 0.6
        },
        {
            "id": 14799,
            "original_name": "Stick Around",
            "popularity": 0.6
        },
        {
            "id": 14896,
            "original_name": "Gather 'Round",
            "popularity": 0.6
        },
        {
            "id": 15488,
            "original_name": "All Around the Circle",
            "popularity": 0.6
        },
        {
            "id": 15802,
            "original_name": "Around the World in 80 Gardens",
            "popularity": 0.6
        },
        {
            "id": 16067,
            "original_name": "Common Ground",
            "popularity": 0.6
        },
        {
            "id": 16263,
            "original_name": "Around the World in 80 Faiths",
            "popularity": 0.6
        },
        {
            "id": 16608,
            "original_name": "Community Round-Up",
            "popularity": 0.6
        },
        {
            "id": 17421,
            "original_name": "ODYSSEY: Driving Around the World",
            "popularity": 0.6
        },
        {
            "id": 17432,
            "original_name": "Round the corner",
            "popularity": 0.6
        },
        {
            "id": 17449,
            "original_name": "The Rounders",
            "popularity": 2.05
        },
        {
            "id": 17493,
            "original_name": "Lookaround",
            "popularity": 0.6
        },
        {
            "id": 17510,
            "original_name": "Lookaround",
            "popularity": 0.6
        },
        {
            "id": 18308,
            "original_name": "Up the Elephant and Round the Castle",
            "popularity": 1.96
        },
        {
            "id": 18358,
            "original_name": "Around the World in 80 Babes",
            "popularity": 0.873
        },
        {
            "id": 18428,
            "original_name": "Around the World for Free",
            "popularity": 2.426
        },
        {
            "id": 18485,
            "original_name": "Runaround",
            "popularity": 0.6
        },
        {
            "id": 18507,
            "original_name": "G4 Underground",
            "popularity": 0.6
        },
        {
            "id": 19209,
            "original_name": "Alexei Sayle's Merry-Go-Round",
            "popularity": 0.645
        },
        {
            "id": 19363,
            "original_name": "GMA News Roundup",
            "popularity": 0.6
        },
        {
            "id": 19624,
            "original_name": "Ground Zero",
            "popularity": 0.6
        },
        {
            "id": 19981,
            "original_name": "Ground Zero: Victory Road",
            "popularity": 0.6
        },
        {
            "id": 20320,
            "original_name": "The World Around Us",
            "popularity": 0.6
        },
        {
            "id": 20580,
            "original_name": "Around the World in 80 Days",
            "popularity": 12.061
        },
        {
            "id": 20992,
            "original_name": "Sonic Underground",
            "popularity": 10.511
        },
        {
            "id": 21072,
            "original_name": "Musical Merry-Go-Round",
            "popularity": 0.6
        },
        {
            "id": 21130,
            "original_name": "Movie Underground",
            "popularity": 0.6
        },
        {
            "id": 21291,
            "original_name": "Happy Go 'Round",
            "popularity": 0.6
        },
        {
            "id": 21555,
            "original_name": "Cool Clown Ground",
            "popularity": 0.6
        },
        {
            "id": 21625,
            "original_name": "Love Is All Around",
            "popularity": 0.6
        },
        {
            "id": 21861,
            "original_name": "The National Lottery: Wright Around the World",
            "popularity": 0.876
        },
        {
            "id": 22013,
            "original_name": "IFL Battleground",
            "popularity": 1.4
        },
        {
            "id": 22031,
            "original_name": "Magic Roundabout",
            "popularity": 0.6
        },
        {
            "id": 23212,
            "original_name": "Around The World With Brian Adams",
            "popularity": 0.6
        },
        {
            "id": 23723,
            "original_name": "Grounds for Improvement",
            "popularity": 0.6
        },
        {
            "id": 23894,
            "original_name": "Fair Ground!",
            "popularity": 0.902
        },
        {
            "id": 23904,
            "original_name": "Around Westminster",
            "popularity": 1.391
        },
        {
            "id": 24131,
            "original_name": "Around the World with Orson Welles",
            "popularity": 0.835
        },
        {
            "id": 24423,
            "original_name": "Round The Bend",
            "popularity": 0.6
        },
        {
            "id": 24765,
            "original_name": "World Famous For Dicking Around",
            "popularity": 0.6
        },
        {
            "id": 24909,
            "original_name": "Ground Force (AU)",
            "popularity": 0.6
        },
        {
            "id": 25289,
            "original_name": "On Common Ground",
            "popularity": 0.919
        },
        {
            "id": 25459,
            "original_name": "On Home Ground",
            "popularity": 0.6
        },
        {
            "id": 25486,
            "original_name": "Rock Around the Block",
            "popularity": 0.6
        },
        {
            "id": 25823,
            "original_name": "Sit Yourself Down, Take A Look Around",
            "popularity": 0.6
        },
        {
            "id": 26987,
            "original_name": "Help Around the House",
            "popularity": 0.6
        },
        {
            "id": 27046,
            "original_name": "Ground Control",
            "popularity": 0.6
        },
        {
            "id": 27143,
            "original_name": "You Can't See Round Corners",
            "popularity": 0.6
        },
        {
            "id": 27526,
            "original_name": "2006 Winter Olympics Roundup",
            "popularity": 0.6
        },
        {
            "id": 27894,
            "original_name": "Charlie Daniels' Talent Round Up",
            "popularity": 0.6
        },
        {
            "id": 28173,
            "original_name": "Ground Breakers",
            "popularity": 0.924
        },
        {
            "id": 28430,
            "original_name": "Round And Round",
            "popularity": 0.6
        },
        {
            "id": 28445,
            "original_name": "Newsround Investigates",
            "popularity": 0.6
        },
        {
            "id": 28453,
            "original_name": "Kicking Around",
            "popularity": 0.6
        },
        {
            "id": 28904,
            "original_name": "Around the World in 80 Trades",
            "popularity": 0.6
        },
        {
            "id": 28915,
            "original_name": "Second Time Around (UK)",
            "popularity": 0.652
        },
        {
            "id": 28937,
            "original_name": "The Up And Down, In And Out, Roundabout Man",
            "popularity": 0.6
        },
        {
            "id": 28974,
            "original_name": "Animal Battlegrounds",
            "popularity": 0.6
        },
        {
            "id": 29000,
            "original_name": "Ground Rules!",
            "popularity": 0.6
        },
        {
            "id": 29139,
            "original_name": "Poparound",
            "popularity": 0.6
        },
        {
            "id": 29501,
            "original_name": "Around the World in Eighty Days",
            "popularity": 2.602
        },
        {
            "id": 29726,
            "original_name": "London Underground",
            "popularity": 0.6
        },
        {
            "id": 30220,
            "original_name": "Clowning Around",
            "popularity": 0.6
        },
        {
            "id": 30824,
            "original_name": "Radio Rounds",
            "popularity": 0.6
        },
        {
            "id": 31084,
            "original_name": "Hotel Ground Zero",
            "popularity": 0.6
        },
        {
            "id": 31273,
            "original_name": "Around the World in 80 Days",
            "popularity": 0.862
        },
        {
            "id": 32268,
            "original_name": "Wright Around the World",
            "popularity": 0.6
        },
        {
            "id": 33293,
            "original_name": "Background",
            "popularity": 0.6
        },
        {
            "id": 33496,
            "original_name": "In the Round",
            "popularity": 0.6
        },
        {
            "id": 33758,
            "original_name": "Playground",
            "popularity": 0.6
        },
        {
            "id": 34263,
            "original_name": "Junior Roundup",
            "popularity": 0.6
        },
        {
            "id": 35099,
            "original_name": "On Home Ground",
            "popularity": 0.6
        },
        {
            "id": 35895,
            "original_name": "The World Around Us",
            "popularity": 0.6
        },
        {
            "id": 36976,
            "original_name": "Underground War",
            "popularity": 0.6
        },
        {
            "id": 37047,
            "original_name": "Ground Warfare",
            "popularity": 0.6
        },
        {
            "id": 37368,
            "original_name": "All Year Round with Katie Brown",
            "popularity": 0.6
        },
        {
            "id": 37563,
            "original_name": "Major League Wrestling: Underground TV",
            "popularity": 0.6
        },
        {
            "id": 37571,
            "original_name": "Love is All Around",
            "popularity": 1.092
        },
        {
            "id": 38201,
            "original_name": "Swingaround",
            "popularity": 0.6
        },
        {
            "id": 39509,
            "original_name": "Proving Ground",
            "popularity": 0.6
        },
        {
            "id": 41905,
            "original_name": "Midnight Runaround",
            "popularity": 0.6
        },
        {
            "id": 42683,
            "original_name": "S.O.U.L. - Sounds of Underground London",
            "popularity": 0.6
        },
        {
            "id": 42768,
            "original_name": "Around The World In 80 Ways",
            "popularity": 0.6
        },
        {
            "id": 42815,
            "original_name": "Portraits from Ground Zero",
            "popularity": 0.6
        },
        {
            "id": 43080,
            "original_name": "Around the World in 80 Plates",
            "popularity": 1.4
        },
        {
            "id": 43661,
            "original_name": "Around The World In 80 Raves",
            "popularity": 0.6
        },
        {
            "id": 44502,
            "original_name": "Clinton Anderson Downunder Horsemanship - Gaining Respect and Control on the Ground",
            "popularity": 0.6
        },
        {
            "id": 44504,
            "original_name": "Clinton Anderson Downunder Horsemanship - Round Penning",
            "popularity": 0.6
        },
        {
            "id": 44810,
            "original_name": "The Dumping Ground",
            "popularity": 1.81
        },
        {
            "id": 44991,
            "original_name": "Saturday Roundup",
            "popularity": 0.6
        },
        {
            "id": 45529,
            "original_name": "9/11 Memorial from Ground Zero 5th Anniversary",
            "popularity": 0.6
        },
        {
            "id": 47429,
            "original_name": "Around the World",
            "popularity": 0.6
        },
        {
            "id": 47759,
            "original_name": "Bob Hope's USO Christmas from the Persian Gulf: Around the World in Eight Days",
            "popularity": 0.6
        },
        {
            "id": 47815,
            "original_name": "A Voyage Round My Father",
            "popularity": 0.6
        },
        {
            "id": 47965,
            "original_name": "Newsround Extra",
            "popularity": 0.6
        },
        {
            "id": 48656,
            "original_name": "A Voyage Round My Father",
            "popularity": 0.6
        },
        {
            "id": 49021,
            "original_name": "Daily Rounds",
            "popularity": 0.6
        },
        {
            "id": 49549,
            "original_name": "Bob Hope's Overseas Christmas Tours: Around the World with the Troops - 1941-1972",
            "popularity": 0.6
        },
        {
            "id": 52918,
            "original_name": "Battleground Afghanistan",
            "popularity": 0.827
        },
        {
            "id": 54004,
            "original_name": "Ramez Around The World",
            "popularity": 0.6
        },
        {
            "id": 54552,
            "original_name": "Barbapapa around the world",
            "popularity": 3.196
        },
        {
            "id": 55568,
            "original_name": "Swampy s Underground Adventures",
            "popularity": 0.6
        },
        {
            "id": 55742,
            "original_name": "Battleground: Rhino Wars",
            "popularity": 0.6
        },
        {
            "id": 55838,
            "original_name": "Nat Around The World",
            "popularity": 0.6
        },
        {
            "id": 56036,
            "original_name": "Love Match Turnaround",
            "popularity": 0.6
        },
        {
            "id": 56428,
            "original_name": "World News Roundup",
            "popularity": 0.6
        },
        {
            "id": 56613,
            "original_name": "Background",
            "popularity": 0.6
        },
        {
            "id": 56777,
            "original_name": "Matthew Hayden's Home Ground",
            "popularity": 0.6
        },
        {
            "id": 57283,
            "original_name": "Battleground",
            "popularity": 2.409
        },
        {
            "id": 57531,
            "original_name": "Trenches: Battleground WWI",
            "popularity": 0.6
        },
        {
            "id": 57815,
            "original_name": "Ground Floor",
            "popularity": 4.324
        },
        {
            "id": 58059,
            "original_name": "Underground",
            "popularity": 0.6
        },
        {
            "id": 58240,
            "original_name": "Battleground Specials",
            "popularity": 0.6
        },
        {
            "id": 58342,
            "original_name": "Auskick'n Around",
            "popularity": 0.6
        },
        {
            "id": 60764,
            "original_name": "Around the Corner with John McGivern",
            "popularity": 1.227
        },
        {
            "id": 61053,
            "original_name": "Up on High Ground",
            "popularity": 2.093
        },
        {
            "id": 61058,
            "original_name": "The Underground Kings",
            "popularity": 0.932
        },
        {
            "id": 61196,
            "original_name": "Biker Battleground Phoenix",
            "popularity": 0.6
        },
        {
            "id": 61446,
            "original_name": "Devil's Playground",
            "popularity": 2.016
        },
        {
            "id": 61657,
            "original_name": "Bluegrass Underground",
            "popularity": 2.49
        },
        {
            "id": 61928,
            "original_name": "Lucha Underground",
            "popularity": 5.249
        },
        {
            "id": 64150,
            "original_name": "Underground",
            "popularity": 8.744
        },
        {
            "id": 64238,
            "original_name": "WWE Breaking Ground",
            "popularity": 1.219
        },
        {
            "id": 64606,
            "original_name": "Floyd Around the Med",
            "popularity": 0.6
        },
        {
            "id": 64964,
            "original_name": "Comedy Underground with Dave Attell",
            "popularity": 0.6
        },
        {
            "id": 65045,
            "original_name": "Chrome Underground",
            "popularity": 0.6
        },
        {
            "id": 65095,
            "original_name": "Dangerous Grounds",
            "popularity": 0.6
        },
        {
            "id": 69637,
            "original_name": "Jerry Baker's Year 'Round Gardening",
            "popularity": 0.6
        },
        {
            "id": 69741,
            "original_name": "Sammy J's Playground Politics",
            "popularity": 0.6
        },
        {
            "id": 70258,
            "original_name": "Secrets of the Underground",
            "popularity": 0.675
        },
        {
            "id": 70829,
            "original_name": "All Round to Mrs. Brown's",
            "popularity": 1.819
        },
        {
            "id": 70970,
            "original_name": "Inside the Tube: Going Underground",
            "popularity": 0.6
        },
        {
            "id": 73530,
            "original_name": "Rounds",
            "popularity": 1.35
        },
        {
            "id": 73760,
            "original_name": "Monsters Underground",
            "popularity": 0.626
        },
        {
            "id": 73804,
            "original_name": "Playground",
            "popularity": 3.766
        },
        {
            "id": 74942,
            "original_name": "Battleground Brothers",
            "popularity": 0.6
        },
        {
            "id": 77796,
            "original_name": "Secret Life Underground",
            "popularity": 0.6
        },
        {
            "id": 78112,
            "original_name": "Christiane Amanpour: Sex & Love Around the World",
            "popularity": 2.534
        },
        {
            "id": 80039,
            "original_name": "The Underground Railroad",
            "popularity": 9.097
        },
        {
            "id": 83157,
            "original_name": "The Tube: Going Underground",
            "popularity": 0.725
        },
        {
            "id": 84307,
            "original_name": "Round Planet",
            "popularity": 0.6
        },
        {
            "id": 84608,
            "original_name": "Rising: Rebuilding Ground Zero",
            "popularity": 1.217
        },
        {
            "id": 84697,
            "original_name": "The Under Undergrounds",
            "popularity": 0.6
        },
        {
            "id": 86807,
            "original_name": "Dating Around",
            "popularity": 2.173
        },
        {
            "id": 88323,
            "original_name": "Bobbin Around with BOB the Drag Queen",
            "popularity": 0.9
        },
        {
            "id": 88539,
            "original_name": "Around The World With Manu",
            "popularity": 0.6
        },
        {
            "id": 90632,
            "original_name": "Groundhog Date",
            "popularity": 0.6
        },
        {
            "id": 91951,
            "original_name": "Around the World in 80 Days",
            "popularity": 0.6
        },
        {
            "id": 93631,
            "original_name": "Around the World by Train With Tony Robinson",
            "popularity": 0.621
        },
        {
            "id": 94186,
            "original_name": "Underground Marvels",
            "popularity": 2.327
        },
        {
            "id": 96226,
            "original_name": "Middle Ground",
            "popularity": 0.6
        },
        {
            "id": 96228,
            "original_name": "Around the World in 80 Days",
            "popularity": 15.998
        },
        {
            "id": 96369,
            "original_name": "Around the World in 79 Days",
            "popularity": 1.48
        },
        {
            "id": 97679,
            "original_name": "Look around you",
            "popularity": 0.6
        },
        {
            "id": 98402,
            "original_name": "Around the Way",
            "popularity": 0.6
        },
        {
            "id": 103374,
            "original_name": "Cycle Around Japan",
            "popularity": 0.65
        },
        {
            "id": 104886,
            "original_name": "Inside Monaco: Playground of the Rich",
            "popularity": 0.6
        },
        {
            "id": 105367,
            "original_name": "10 Rounds",
            "popularity": 0.6
        },
        {
            "id": 105895,
            "original_name": "Fairground Attractions",
            "popularity": 0.6
        },
        {
            "id": 106822,
            "original_name": "Back Around the Clock",
            "popularity": 0.6
        },
        {
            "id": 108862,
            "original_name": "Where's My Water?: Swampy's Underground Adventures",
            "popularity": 1.14
        },
        {
            "id": 110378,
            "original_name": "Africa From the Ground Up",
            "popularity": 0.6
        },
        {
            "id": 112081,
            "original_name": "Rev Runs Around the World",
            "popularity": 0.6
        },
        {
            "id": 113223,
            "original_name": "Rap Trip: Underground Scenes Uncovered",
            "popularity": 0.6
        },
        {
            "id": 114270,
            "original_name": "Rocket around the xmas tree",
            "popularity": 0.6
        },
        {
            "id": 117066,
            "original_name": "All-Round Champion",
            "popularity": 0.6
        },
        {
            "id": 118900,
            "original_name": "TXT & EN- Playground",
            "popularity": 0.6
        },
        {
            "id": 119241,
            "original_name": "The Underground World",
            "popularity": 0.6
        },
        {
            "id": 119776,
            "original_name": "The Great Underground War",
            "popularity": 0.6
        },
        {
            "id": 120100,
            "original_name": "Standing on Sacred Ground",
            "popularity": 0.6
        },
        {
            "id": 121414,
            "original_name": "Le 7e Round",
            "popularity": 0.6
        },
        {
            "id": 121962,
            "original_name": "Baby Animals Around the World",
            "popularity": 0.6
        },
        {
            "id": 123457,
            "original_name": "Secrets of the London Underground",
            "popularity": 8.539
        },
        {
            "id": 126861,
            "original_name": "21 Day Body Turnaround with Michael Mosley",
            "popularity": 0.84
        },
        {
            "id": 127133,
            "original_name": "Beach Around the World",
            "popularity": 0.6
        },
        {
            "id": 127412,
            "original_name": "Wild Peru - Andes Battleground",
            "popularity": 0.617
        },
        {
            "id": 129764,
            "original_name": "Underground Britain",
            "popularity": 0.6
        },
        {
            "id": 131319,
            "original_name": "Follow me around, with Michelle Salas",
            "popularity": 0.6
        },
        {
            "id": 132866,
            "original_name": "Playgrounds of the Rich and Famous",
            "popularity": 0.6
        },
        {
            "id": 134734,
            "original_name": "Underground Worlds",
            "popularity": 0.6
        },
        {
            "id": 134878,
            "original_name": "Write Around the World with Richard E Grant",
            "popularity": 3.912
        },
        {
            "id": 135160,
            "original_name": "Training Ground",
            "popularity": 0.6
        },
        {
            "id": 135427,
            "original_name": "Common Ground",
            "popularity": 0.6
        },
        {
            "id": 135492,
            "original_name": "Playground",
            "popularity": 0.6
        },
        {
            "id": 135565,
            "original_name": "All Around Britain",
            "popularity": 0.6
        },
        {
            "id": 136992,
            "original_name": "The Round Tower",
            "popularity": 0.6
        },
        {
            "id": 137409,
            "original_name": "Radio 2 Live: Around the UK",
            "popularity": 0.804
        },
        {
            "id": 137886,
            "original_name": "The Magic Roundabout",
            "popularity": 0.84
        },
        {
            "id": 138445,
            "original_name": "Hitler's American Battleground",
            "popularity": 1.375
        },
        {
            "id": 139475,
            "original_name": "Long Way Round Special Edition",
            "popularity": 0.6
        },
        {
            "id": 146161,
            "original_name": "The Secrets of Underground Britain",
            "popularity": 0.6
        }
    ],
    "relations": [
        {
            "character": "roundt"
        },
        {
            "character": "rounde"
        },
        {
            "character": "roundh"
        },
        {
            "character": "roundl"
        },
        {
            "character": "roundu"
        },
        {
            "character": "rounda"
        },
        {
            "character": "rounds"
        },
        {
            "character": "round!"
        }
    ],
    "top20": [
        {
            "id": 4731,
            "original_name": "Grounded for Life",
            "popularity": 16.234
        },
        {
            "id": 96228,
            "original_name": "Around the World in 80 Days",
            "popularity": 15.998
        },
        {
            "id": 20580,
            "original_name": "Around the World in 80 Days",
            "popularity": 12.061
        },
        {
            "id": 20992,
            "original_name": "Sonic Underground",
            "popularity": 10.511
        },
        {
            "id": 80039,
            "original_name": "The Underground Railroad",
            "popularity": 9.097
        },
        {
            "id": 64150,
            "original_name": "Underground",
            "popularity": 8.744
        },
        {
            "id": 123457,
            "original_name": "Secrets of the London Underground",
            "popularity": 8.539
        },
        {
            "id": 2899,
            "original_name": "Long Way Round",
            "popularity": 7.361
        },
        {
            "id": 594,
            "original_name": "Higher Ground",
            "popularity": 5.497
        },
        {
            "id": 61928,
            "original_name": "Lucha Underground",
            "popularity": 5.249
        },
        {
            "id": 695,
            "original_name": "Round the Twist",
            "popularity": 5.054
        },
        {
            "id": 57815,
            "original_name": "Ground Floor",
            "popularity": 4.324
        },
        {
            "id": 852,
            "original_name": "Michael Palin: Around the World in 80 Days",
            "popularity": 4.17
        },
        {
            "id": 134878,
            "original_name": "Write Around the World with Richard E Grant",
            "popularity": 3.912
        },
        {
            "id": 2494,
            "original_name": "Look Around You",
            "popularity": 3.803
        },
        {
            "id": 73804,
            "original_name": "Playground",
            "popularity": 3.766
        },
        {
            "id": 54552,
            "original_name": "Barbapapa around the world",
            "popularity": 3.196
        },
        {
            "id": 29501,
            "original_name": "Around the World in Eighty Days",
            "popularity": 2.602
        },
        {
            "id": 78112,
            "original_name": "Christiane Amanpour: Sex & Love Around the World",
            "popularity": 2.534
        },
        {
            "id": 61657,
            "original_name": "Bluegrass Underground",
            "popularity": 2.49
        }
    ]
}