{
    "data": [
        {
            "id": 33012,
            "original_name": "The Rousters",
            "popularity": 1.516
        },
        {
            "id": 54731,
            "original_name": "Arousty",
            "popularity": 0.6
        }
    ],
    "relations": [],
    "top20": [
        {
            "id": 33012,
            "original_name": "The Rousters",
            "popularity": 1.516
        },
        {
            "id": 54731,
            "original_name": "Arousty",
            "popularity": 0.6
        }
    ]
}