{
    "data": [
        {
            "id": 374,
            "original_name": "Kids Incorporated",
            "popularity": 8.772
        },
        {
            "id": 401,
            "original_name": "Airport",
            "popularity": 2.035
        },
        {
            "id": 756,
            "original_name": "Luton Airport",
            "popularity": 0.6
        },
        {
            "id": 4010,
            "original_name": "Carpoolers",
            "popularity": 3.83
        },
        {
            "id": 4879,
            "original_name": "El Cuerpo del Deseo",
            "popularity": 14.895
        },
        {
            "id": 9216,
            "original_name": "Carpocalypse",
            "popularity": 0.6
        },
        {
            "id": 9325,
            "original_name": "Animal Airport",
            "popularity": 0.6
        },
        {
            "id": 10999,
            "original_name": "San Francisco International Airport",
            "popularity": 1.037
        },
        {
            "id": 12025,
            "original_name": "Interpol Calling",
            "popularity": 1.992
        },
        {
            "id": 16070,
            "original_name": "Bristol Airport",
            "popularity": 0.6
        },
        {
            "id": 16467,
            "original_name": "Interpol Investigates",
            "popularity": 0.6
        },
        {
            "id": 17009,
            "original_name": "Karpolla on asiaa",
            "popularity": 0.6
        },
        {
            "id": 17422,
            "original_name": "Liverpool 1",
            "popularity": 0.6
        },
        {
            "id": 18123,
            "original_name": "Scooby-Doo! Mystery Incorporated",
            "popularity": 33.599
        },
        {
            "id": 18412,
            "original_name": "Carpool",
            "popularity": 1.4
        },
        {
            "id": 18637,
            "original_name": "Accidentally on Purpose",
            "popularity": 5.73
        },
        {
            "id": 20463,
            "original_name": "Corpo Dourado",
            "popularity": 0.6
        },
        {
            "id": 24535,
            "original_name": "Man from Interpol",
            "popularity": 0.6
        },
        {
            "id": 24840,
            "original_name": "Alexei Sayle's Liverpool",
            "popularity": 0.6
        },
        {
            "id": 26896,
            "original_name": "Home Along da Airport",
            "popularity": 0.6
        },
        {
            "id": 28565,
            "original_name": "Fast Incorporated",
            "popularity": 1.024
        },
        {
            "id": 31121,
            "original_name": "Corporate Corridor",
            "popularity": 0.6
        },
        {
            "id": 33514,
            "original_name": "Counterpoint",
            "popularity": 0.6
        },
        {
            "id": 33585,
            "original_name": "Corporation",
            "popularity": 0.6
        },
        {
            "id": 36316,
            "original_name": "Nederpopshow",
            "popularity": 0.6
        },
        {
            "id": 36615,
            "original_name": "The Secret Life of the Airport",
            "popularity": 0.6
        },
        {
            "id": 37252,
            "original_name": "Berlinerpoplene",
            "popularity": 0.663
        },
        {
            "id": 39647,
            "original_name": "Acapulco Cuerpo y Alma",
            "popularity": 0.6
        },
        {
            "id": 39872,
            "original_name": "Abenteuer Airport",
            "popularity": 1.513
        },
        {
            "id": 40040,
            "original_name": "Carpool",
            "popularity": 0.6
        },
        {
            "id": 40608,
            "original_name": "Drehkreuz Airport",
            "popularity": 4.137
        },
        {
            "id": 43477,
            "original_name": "The Leaving of Liverpool",
            "popularity": 1.418
        },
        {
            "id": 43579,
            "original_name": "Animal Superpowers",
            "popularity": 1.174
        },
        {
            "id": 43616,
            "original_name": "Adventures with Purpose",
            "popularity": 0.6
        },
        {
            "id": 43685,
            "original_name": "After Liverpool",
            "popularity": 0.6
        },
        {
            "id": 45980,
            "original_name": "Karpov 2",
            "popularity": 0.6
        },
        {
            "id": 46257,
            "original_name": "TOKUNOSHIMA Airport",
            "popularity": 0.6
        },
        {
            "id": 48373,
            "original_name": "Soldiers Of Music: Rostorpovitch Returns To Russia",
            "popularity": 0.6
        },
        {
            "id": 49437,
            "original_name": "Most Extreme Airports",
            "popularity": 0.6
        },
        {
            "id": 55440,
            "original_name": "The Flowerpot Gang",
            "popularity": 0.6
        },
        {
            "id": 55620,
            "original_name": "North Pole Ice Airport",
            "popularity": 0.6
        },
        {
            "id": 56088,
            "original_name": "The Fairport Beach School - Television Series",
            "popularity": 0.6
        },
        {
            "id": 58848,
            "original_name": "Airport 24/7: Miami",
            "popularity": 0.84
        },
        {
            "id": 62291,
            "original_name": "Ultimate Airport Dubai",
            "popularity": 10.7
        },
        {
            "id": 62482,
            "original_name": "Being: Liverpool",
            "popularity": 1.521
        },
        {
            "id": 63064,
            "original_name": "Bangkok Airport",
            "popularity": 0.846
        },
        {
            "id": 63389,
            "original_name": "Interpol",
            "popularity": 1.171
        },
        {
            "id": 67188,
            "original_name": "Diabo no Corpo",
            "popularity": 0.636
        },
        {
            "id": 67278,
            "original_name": "Starpocalypse",
            "popularity": 0.6
        },
        {
            "id": 67684,
            "original_name": "Incorporated",
            "popularity": 26.449
        },
        {
            "id": 68863,
            "original_name": "Secret Life of the Airport",
            "popularity": 0.6
        },
        {
            "id": 68864,
            "original_name": "Britain's Busiest Airport: Heathrow",
            "popularity": 2.467
        },
        {
            "id": 71794,
            "original_name": "X-Ray Mega Airport",
            "popularity": 0.6
        },
        {
            "id": 72222,
            "original_name": "Charleroi Airport",
            "popularity": 0.661
        },
        {
            "id": 72610,
            "original_name": "Carpool Karaoke",
            "popularity": 15.963
        },
        {
            "id": 72651,
            "original_name": "La fragilidad de los cuerpos",
            "popularity": 2.358
        },
        {
            "id": 74564,
            "original_name": "Dupur Thakurpo",
            "popularity": 0.673
        },
        {
            "id": 75857,
            "original_name": "Rome: The World's First Superpower",
            "popularity": 0.909
        },
        {
            "id": 75873,
            "original_name": "Self Incorporated",
            "popularity": 0.6
        },
        {
            "id": 75967,
            "original_name": "Corporate",
            "popularity": 8.736
        },
        {
            "id": 76903,
            "original_name": "Cuerpo de \u00e9lite",
            "popularity": 2.405
        },
        {
            "id": 79428,
            "original_name": "Interpol",
            "popularity": 0.628
        },
        {
            "id": 80105,
            "original_name": "#killerpost",
            "popularity": 0.6
        },
        {
            "id": 85329,
            "original_name": "Secret Superpower Aircraft",
            "popularity": 0.6
        },
        {
            "id": 85735,
            "original_name": "Airport Live",
            "popularity": 0.845
        },
        {
            "id": 88498,
            "original_name": "Airport 24/7",
            "popularity": 0.6
        },
        {
            "id": 91053,
            "original_name": "Yorkshire Airport",
            "popularity": 0.6
        },
        {
            "id": 92342,
            "original_name": "Cuerpos de \u00c9lite de la Segunda Guerra Mundial",
            "popularity": 0.6
        },
        {
            "id": 97355,
            "original_name": "Mortus Corporatus",
            "popularity": 0.6
        },
        {
            "id": 102709,
            "original_name": "Manolo y Benito Corporeision",
            "popularity": 0.84
        },
        {
            "id": 103124,
            "original_name": "Meherposh",
            "popularity": 0.6
        },
        {
            "id": 110151,
            "original_name": "Tarader Shesh Tarpon",
            "popularity": 1.686
        },
        {
            "id": 110611,
            "original_name": "\u5927\u5de5\u544a\u6210\uff1a\u5317\u4eac\u5927\u5174\u56fd\u9645\u673a\u573a Airport for the Future",
            "popularity": 0.6
        },
        {
            "id": 112482,
            "original_name": "Ice Airport Alaska",
            "popularity": 0.669
        },
        {
            "id": 116613,
            "original_name": "Airport: Below Zero",
            "popularity": 0.6
        },
        {
            "id": 120940,
            "original_name": "Carpool",
            "popularity": 0.84
        },
        {
            "id": 126793,
            "original_name": "Liverpool Narcos",
            "popularity": 3.581
        },
        {
            "id": 130463,
            "original_name": "Unnies' Beauty Carpool",
            "popularity": 0.6
        },
        {
            "id": 130957,
            "original_name": "Carpool Crush",
            "popularity": 0.6
        },
        {
            "id": 133859,
            "original_name": "Die Ruhrpottwache",
            "popularity": 0.6
        },
        {
            "id": 135986,
            "original_name": "New York Super Airport",
            "popularity": 2.45
        },
        {
            "id": 137975,
            "original_name": "Airport 24/7: Thailand",
            "popularity": 0.6
        }
    ],
    "relations": [
        {
            "character": "rpor"
        },
        {
            "character": "rpoo"
        },
        {
            "character": "rpoc"
        },
        {
            "character": "rpol"
        },
        {
            "character": "rpos"
        },
        {
            "character": "rpoi"
        },
        {
            "character": "rpop"
        },
        {
            "character": "rpow"
        },
        {
            "character": "rpov"
        },
        {
            "character": "rpot"
        },
        {
            "character": "rpon"
        }
    ],
    "top20": [
        {
            "id": 18123,
            "original_name": "Scooby-Doo! Mystery Incorporated",
            "popularity": 33.599
        },
        {
            "id": 67684,
            "original_name": "Incorporated",
            "popularity": 26.449
        },
        {
            "id": 72610,
            "original_name": "Carpool Karaoke",
            "popularity": 15.963
        },
        {
            "id": 4879,
            "original_name": "El Cuerpo del Deseo",
            "popularity": 14.895
        },
        {
            "id": 62291,
            "original_name": "Ultimate Airport Dubai",
            "popularity": 10.7
        },
        {
            "id": 374,
            "original_name": "Kids Incorporated",
            "popularity": 8.772
        },
        {
            "id": 75967,
            "original_name": "Corporate",
            "popularity": 8.736
        },
        {
            "id": 18637,
            "original_name": "Accidentally on Purpose",
            "popularity": 5.73
        },
        {
            "id": 40608,
            "original_name": "Drehkreuz Airport",
            "popularity": 4.137
        },
        {
            "id": 4010,
            "original_name": "Carpoolers",
            "popularity": 3.83
        },
        {
            "id": 126793,
            "original_name": "Liverpool Narcos",
            "popularity": 3.581
        },
        {
            "id": 68864,
            "original_name": "Britain's Busiest Airport: Heathrow",
            "popularity": 2.467
        },
        {
            "id": 135986,
            "original_name": "New York Super Airport",
            "popularity": 2.45
        },
        {
            "id": 76903,
            "original_name": "Cuerpo de \u00e9lite",
            "popularity": 2.405
        },
        {
            "id": 72651,
            "original_name": "La fragilidad de los cuerpos",
            "popularity": 2.358
        },
        {
            "id": 401,
            "original_name": "Airport",
            "popularity": 2.035
        },
        {
            "id": 12025,
            "original_name": "Interpol Calling",
            "popularity": 1.992
        },
        {
            "id": 110151,
            "original_name": "Tarader Shesh Tarpon",
            "popularity": 1.686
        },
        {
            "id": 62482,
            "original_name": "Being: Liverpool",
            "popularity": 1.521
        },
        {
            "id": 39872,
            "original_name": "Abenteuer Airport",
            "popularity": 1.513
        }
    ]
}