{
    "data": [
        {
            "id": 54351,
            "original_name": "Takht Sharqi",
            "popularity": 0.6
        }
    ],
    "relations": [],
    "top20": [
        {
            "id": 54351,
            "original_name": "Takht Sharqi",
            "popularity": 0.6
        }
    ]
}