{
    "data": [
        {
            "id": 41490,
            "original_name": "\u00d6sterreichs schlechtester Autofahrer",
            "popularity": 0.6
        },
        {
            "id": 85469,
            "original_name": "Geheimnisse des Kaiserreichs",
            "popularity": 0.6
        }
    ],
    "relations": [],
    "top20": [
        {
            "id": 41490,
            "original_name": "\u00d6sterreichs schlechtester Autofahrer",
            "popularity": 0.6
        },
        {
            "id": 85469,
            "original_name": "Geheimnisse des Kaiserreichs",
            "popularity": 0.6
        }
    ]
}