{
    "data": [
        {
            "id": 86763,
            "original_name": "Michele Strogoff - Il corriere dello zar",
            "popularity": 0.6
        }
    ],
    "relations": [],
    "top20": [
        {
            "id": 86763,
            "original_name": "Michele Strogoff - Il corriere dello zar",
            "popularity": 0.6
        }
    ]
}