{
    "data": [
        {
            "id": 121614,
            "original_name": "Aus dem B\u00fccherschrank geholt",
            "popularity": 0.86
        },
        {
            "id": 132343,
            "original_name": "Grensoverschrijdend",
            "popularity": 1.25
        }
    ],
    "relations": [],
    "top20": [
        {
            "id": 121614,
            "original_name": "Aus dem B\u00fccherschrank geholt",
            "popularity": 0.86
        },
        {
            "id": 132343,
            "original_name": "Grensoverschrijdend",
            "popularity": 1.25
        }
    ]
}