{
    "data": [
        {
            "id": 3656,
            "original_name": "Horseland",
            "popularity": 3.549
        }
    ],
    "relations": [],
    "top20": [
        {
            "id": 3656,
            "original_name": "Horseland",
            "popularity": 3.549
        }
    ]
}