{
    "data": [
        {
            "id": 1196,
            "original_name": "In\u017een\u00fdrsk\u00e1 odysea",
            "popularity": 0.6
        },
        {
            "id": 1532,
            "original_name": "Starsky & Hutch",
            "popularity": 29.896
        },
        {
            "id": 4103,
            "original_name": "Typisk norsk",
            "popularity": 0.919
        },
        {
            "id": 8493,
            "original_name": "The Butterflies of Zagorsk",
            "popularity": 0.6
        },
        {
            "id": 17918,
            "original_name": "Supersize vs Superskinny",
            "popularity": 3.041
        },
        {
            "id": 21566,
            "original_name": "Norske Talenter",
            "popularity": 1.4
        },
        {
            "id": 21754,
            "original_name": "Norske Talenter",
            "popularity": 0.6
        },
        {
            "id": 37303,
            "original_name": "Bartenderskolen",
            "popularity": 0.6
        },
        {
            "id": 38450,
            "original_name": "Filip och Fredriks \u00c5rskr\u00f6nika 2010",
            "popularity": 0.6
        },
        {
            "id": 38492,
            "original_name": "Supersize Versus Superskinny Kids",
            "popularity": 0.6
        },
        {
            "id": 48446,
            "original_name": "Im Gespr\u00e4ch mit Teddy Podgorski",
            "popularity": 0.6
        },
        {
            "id": 52012,
            "original_name": "Agnetas ny\u00e5rskarameller",
            "popularity": 0.6
        },
        {
            "id": 52014,
            "original_name": "Agnetas Ny\u00e5rskarameller",
            "popularity": 0.6
        },
        {
            "id": 63117,
            "original_name": "Olje - Historien om det norske oljeeventyret",
            "popularity": 0.6
        },
        {
            "id": 63997,
            "original_name": "Norskov",
            "popularity": 2.53
        },
        {
            "id": 65547,
            "original_name": "Gardells schlagerskola",
            "popularity": 1.4
        },
        {
            "id": 66303,
            "original_name": "Matersk\u00e9 znamienko",
            "popularity": 1.044
        },
        {
            "id": 72721,
            "original_name": "Norsk Rocks Historie",
            "popularity": 0.6
        },
        {
            "id": 74695,
            "original_name": "Good Luck Mister Gorsky",
            "popularity": 0.6
        },
        {
            "id": 74696,
            "original_name": "Good Luck Mister Gorsky",
            "popularity": 0.6
        },
        {
            "id": 74697,
            "original_name": "Good Luck Mister Gorsky",
            "popularity": 0.6
        },
        {
            "id": 74698,
            "original_name": "Good Luck Mister Gorsky",
            "popularity": 0.6
        },
        {
            "id": 78736,
            "original_name": "Norske rednecks camping",
            "popularity": 0.6
        },
        {
            "id": 84467,
            "original_name": "Na k\u0142opoty... Bednarski",
            "popularity": 0.6
        },
        {
            "id": 92531,
            "original_name": "Mexick\u00e9 dobrodru\u017estv\u00ed Maxmili\u00e1na Habsbursk\u00e9ho",
            "popularity": 0.6
        },
        {
            "id": 93253,
            "original_name": "Norske rotehjem",
            "popularity": 1.101
        },
        {
            "id": 94389,
            "original_name": "Emilie Meng - en efterforskning g\u00e5r galt",
            "popularity": 0.6
        },
        {
            "id": 107469,
            "original_name": "Horsk\u00e1 slu\u017eba",
            "popularity": 0.6
        },
        {
            "id": 110169,
            "original_name": "Norsk-Ish",
            "popularity": 0.925
        },
        {
            "id": 110333,
            "original_name": "Efterforskningen",
            "popularity": 6.209
        },
        {
            "id": 110643,
            "original_name": "Etterforskningen",
            "popularity": 0.951
        },
        {
            "id": 110861,
            "original_name": "Helvete: Historien om Norsk Black Metal",
            "popularity": 1.989
        },
        {
            "id": 111871,
            "original_name": "Norske rednecks i syden",
            "popularity": 0.885
        },
        {
            "id": 112155,
            "original_name": "Norske Fans",
            "popularity": 0.6
        },
        {
            "id": 114374,
            "original_name": "Vinterskaller",
            "popularity": 0.6
        },
        {
            "id": 114854,
            "original_name": "Norske rednecks",
            "popularity": 0.6
        },
        {
            "id": 117440,
            "original_name": "Norske Fordommer",
            "popularity": 0.6
        },
        {
            "id": 119405,
            "original_name": "Norske Krimsaker",
            "popularity": 0.748
        },
        {
            "id": 120345,
            "original_name": "MesterSkaberne",
            "popularity": 0.6
        },
        {
            "id": 120425,
            "original_name": "\u00c5terskaparna",
            "popularity": 0.6
        },
        {
            "id": 120601,
            "original_name": "USAs Norske bataljon",
            "popularity": 0.6
        },
        {
            "id": 120669,
            "original_name": "V\u00e6rdal'n karsk & BASE",
            "popularity": 0.6
        },
        {
            "id": 120869,
            "original_name": "AaB Mesterskabss\u00e6son",
            "popularity": 0.6
        },
        {
            "id": 123409,
            "original_name": "Norske tilstander",
            "popularity": 4.175
        },
        {
            "id": 124368,
            "original_name": "Myrskyn j\u00e4lkeen",
            "popularity": 0.6
        },
        {
            "id": 125786,
            "original_name": "Norske Krimsaker",
            "popularity": 0.946
        },
        {
            "id": 127067,
            "original_name": "Symesterskapet",
            "popularity": 0.6
        },
        {
            "id": 127487,
            "original_name": "Amursk\u00e9 rozpr\u00e1vky",
            "popularity": 0.6
        },
        {
            "id": 127689,
            "original_name": "Efterskolen",
            "popularity": 0.6
        },
        {
            "id": 130258,
            "original_name": "Silbersky",
            "popularity": 0.6
        },
        {
            "id": 130881,
            "original_name": "Tilbage til efterskolen",
            "popularity": 0.6
        },
        {
            "id": 136109,
            "original_name": "Insats torsk - sexhandeln inifr\u00e5n",
            "popularity": 1.429
        }
    ],
    "relations": [
        {
            "character": "rsky"
        },
        {
            "character": "rski"
        },
        {
            "character": "rske"
        },
        {
            "character": "rsko"
        },
        {
            "character": "rskr"
        },
        {
            "character": "rska"
        },
        {
            "character": "rskn"
        }
    ],
    "top20": [
        {
            "id": 1532,
            "original_name": "Starsky & Hutch",
            "popularity": 29.896
        },
        {
            "id": 110333,
            "original_name": "Efterforskningen",
            "popularity": 6.209
        },
        {
            "id": 123409,
            "original_name": "Norske tilstander",
            "popularity": 4.175
        },
        {
            "id": 17918,
            "original_name": "Supersize vs Superskinny",
            "popularity": 3.041
        },
        {
            "id": 63997,
            "original_name": "Norskov",
            "popularity": 2.53
        },
        {
            "id": 110861,
            "original_name": "Helvete: Historien om Norsk Black Metal",
            "popularity": 1.989
        },
        {
            "id": 136109,
            "original_name": "Insats torsk - sexhandeln inifr\u00e5n",
            "popularity": 1.429
        },
        {
            "id": 65547,
            "original_name": "Gardells schlagerskola",
            "popularity": 1.4
        },
        {
            "id": 21566,
            "original_name": "Norske Talenter",
            "popularity": 1.4
        },
        {
            "id": 93253,
            "original_name": "Norske rotehjem",
            "popularity": 1.101
        },
        {
            "id": 66303,
            "original_name": "Matersk\u00e9 znamienko",
            "popularity": 1.044
        },
        {
            "id": 110643,
            "original_name": "Etterforskningen",
            "popularity": 0.951
        },
        {
            "id": 125786,
            "original_name": "Norske Krimsaker",
            "popularity": 0.946
        },
        {
            "id": 110169,
            "original_name": "Norsk-Ish",
            "popularity": 0.925
        },
        {
            "id": 4103,
            "original_name": "Typisk norsk",
            "popularity": 0.919
        },
        {
            "id": 111871,
            "original_name": "Norske rednecks i syden",
            "popularity": 0.885
        },
        {
            "id": 119405,
            "original_name": "Norske Krimsaker",
            "popularity": 0.748
        },
        {
            "id": 8493,
            "original_name": "The Butterflies of Zagorsk",
            "popularity": 0.6
        },
        {
            "id": 21754,
            "original_name": "Norske Talenter",
            "popularity": 0.6
        },
        {
            "id": 1196,
            "original_name": "In\u017een\u00fdrsk\u00e1 odysea",
            "popularity": 0.6
        }
    ]
}