{
    "data": [
        {
            "id": 138685,
            "original_name": "Verstaubt sind die Gesichter",
            "popularity": 0.6
        }
    ],
    "relations": [],
    "top20": [
        {
            "id": 138685,
            "original_name": "Verstaubt sind die Gesichter",
            "popularity": 0.6
        }
    ]
}