{
    "data": [
        {
            "id": 36634,
            "original_name": "Treasure Hunter: Kirsten Gum",
            "popularity": 1.046
        },
        {
            "id": 54601,
            "original_name": "Husk lige tandb\u00f8rsten",
            "popularity": 0.6
        },
        {
            "id": 60723,
            "original_name": "14 Tageb\u00fccher des Ersten Weltkriegs",
            "popularity": 3.486
        },
        {
            "id": 67653,
            "original_name": "Karsten og Petra",
            "popularity": 0.918
        },
        {
            "id": 76492,
            "original_name": "Nuhr im Ersten \u2013 Der Satiregipfel",
            "popularity": 0.834
        },
        {
            "id": 87290,
            "original_name": "Hochzeit auf den ersten Blick",
            "popularity": 21.388
        },
        {
            "id": 89415,
            "original_name": "Karsten Torebjer - Psychic medium",
            "popularity": 1.282
        },
        {
            "id": 99586,
            "original_name": "Carsten & Gittes vennevilla",
            "popularity": 0.6
        },
        {
            "id": 108671,
            "original_name": "Karsten og Leif",
            "popularity": 0.6
        },
        {
            "id": 113743,
            "original_name": "Das Duell im Ersten",
            "popularity": 3.515
        },
        {
            "id": 120823,
            "original_name": "S\u00f8s & Kirsten: Kongeriget",
            "popularity": 0.6
        },
        {
            "id": 137410,
            "original_name": "Geschichte im Ersten",
            "popularity": 0.6
        },
        {
            "id": 146133,
            "original_name": "Die schwersten Ungl\u00fccke der DDR",
            "popularity": 0.6
        }
    ],
    "relations": [],
    "top20": [
        {
            "id": 36634,
            "original_name": "Treasure Hunter: Kirsten Gum",
            "popularity": 1.046
        },
        {
            "id": 54601,
            "original_name": "Husk lige tandb\u00f8rsten",
            "popularity": 0.6
        },
        {
            "id": 60723,
            "original_name": "14 Tageb\u00fccher des Ersten Weltkriegs",
            "popularity": 3.486
        },
        {
            "id": 67653,
            "original_name": "Karsten og Petra",
            "popularity": 0.918
        },
        {
            "id": 76492,
            "original_name": "Nuhr im Ersten \u2013 Der Satiregipfel",
            "popularity": 0.834
        },
        {
            "id": 87290,
            "original_name": "Hochzeit auf den ersten Blick",
            "popularity": 21.388
        },
        {
            "id": 89415,
            "original_name": "Karsten Torebjer - Psychic medium",
            "popularity": 1.282
        },
        {
            "id": 99586,
            "original_name": "Carsten & Gittes vennevilla",
            "popularity": 0.6
        },
        {
            "id": 108671,
            "original_name": "Karsten og Leif",
            "popularity": 0.6
        },
        {
            "id": 113743,
            "original_name": "Das Duell im Ersten",
            "popularity": 3.515
        },
        {
            "id": 120823,
            "original_name": "S\u00f8s & Kirsten: Kongeriget",
            "popularity": 0.6
        },
        {
            "id": 137410,
            "original_name": "Geschichte im Ersten",
            "popularity": 0.6
        },
        {
            "id": 146133,
            "original_name": "Die schwersten Ungl\u00fccke der DDR",
            "popularity": 0.6
        }
    ]
}