{
    "data": [
        {
            "id": 53246,
            "original_name": "Studio Virtanen",
            "popularity": 0.6
        }
    ],
    "relations": [],
    "top20": [
        {
            "id": 53246,
            "original_name": "Studio Virtanen",
            "popularity": 0.6
        }
    ]
}