{
    "data": [
        {
            "id": 16033,
            "original_name": "Strawberry Shortcake",
            "popularity": 28.02
        },
        {
            "id": 33835,
            "original_name": "Strawberry Shortcake's Berry Bitty Adventures",
            "popularity": 5.068
        },
        {
            "id": 102002,
            "original_name": "Shortcuts",
            "popularity": 0.607
        },
        {
            "id": 113618,
            "original_name": "Sportclub",
            "popularity": 3.286
        },
        {
            "id": 137415,
            "original_name": "Strawberry Shortcake",
            "popularity": 1.4
        },
        {
            "id": 152372,
            "original_name": "Tara Duncan : Les Sortceliers",
            "popularity": 3.842
        }
    ],
    "relations": [],
    "top20": [
        {
            "id": 16033,
            "original_name": "Strawberry Shortcake",
            "popularity": 28.02
        },
        {
            "id": 33835,
            "original_name": "Strawberry Shortcake's Berry Bitty Adventures",
            "popularity": 5.068
        },
        {
            "id": 102002,
            "original_name": "Shortcuts",
            "popularity": 0.607
        },
        {
            "id": 113618,
            "original_name": "Sportclub",
            "popularity": 3.286
        },
        {
            "id": 137415,
            "original_name": "Strawberry Shortcake",
            "popularity": 1.4
        },
        {
            "id": 152372,
            "original_name": "Tara Duncan : Les Sortceliers",
            "popularity": 3.842
        }
    ]
}