{
    "data": [
        {
            "id": 13416,
            "original_name": "Les Voyages du tortillard",
            "popularity": 0.6
        },
        {
            "id": 18341,
            "original_name": "Sortilegio",
            "popularity": 14.165
        },
        {
            "id": 32749,
            "original_name": "The Fertility Chase",
            "popularity": 0.6
        },
        {
            "id": 68449,
            "original_name": "Railways of the Great War with Michael Portillo",
            "popularity": 0.6
        },
        {
            "id": 93408,
            "original_name": "Portillo's Hidden History of Britain",
            "popularity": 1.106
        },
        {
            "id": 96568,
            "original_name": "Portillo's Empire Journey",
            "popularity": 1.4
        },
        {
            "id": 116483,
            "original_name": "Bertil & B\u00e6ltetasken",
            "popularity": 0.84
        },
        {
            "id": 118634,
            "original_name": "Portillo's Greatest Railway Journeys",
            "popularity": 0.642
        },
        {
            "id": 120499,
            "original_name": "Portillo: The Trouble with the Tories",
            "popularity": 6.061
        },
        {
            "id": 132060,
            "original_name": "Coastal Devon & Cornwall with Michael Portillo",
            "popularity": 4.758
        }
    ],
    "relations": [],
    "top20": [
        {
            "id": 13416,
            "original_name": "Les Voyages du tortillard",
            "popularity": 0.6
        },
        {
            "id": 18341,
            "original_name": "Sortilegio",
            "popularity": 14.165
        },
        {
            "id": 32749,
            "original_name": "The Fertility Chase",
            "popularity": 0.6
        },
        {
            "id": 68449,
            "original_name": "Railways of the Great War with Michael Portillo",
            "popularity": 0.6
        },
        {
            "id": 93408,
            "original_name": "Portillo's Hidden History of Britain",
            "popularity": 1.106
        },
        {
            "id": 96568,
            "original_name": "Portillo's Empire Journey",
            "popularity": 1.4
        },
        {
            "id": 116483,
            "original_name": "Bertil & B\u00e6ltetasken",
            "popularity": 0.84
        },
        {
            "id": 118634,
            "original_name": "Portillo's Greatest Railway Journeys",
            "popularity": 0.642
        },
        {
            "id": 120499,
            "original_name": "Portillo: The Trouble with the Tories",
            "popularity": 6.061
        },
        {
            "id": 132060,
            "original_name": "Coastal Devon & Cornwall with Michael Portillo",
            "popularity": 4.758
        }
    ]
}