{
    "data": [
        {
            "id": 12397,
            "original_name": "Distinguished Artists",
            "popularity": 0.6
        },
        {
            "id": 18565,
            "original_name": "Artists' Showcase",
            "popularity": 0.6
        },
        {
            "id": 27485,
            "original_name": "100 Greatest Artists of Hard Rock",
            "popularity": 0.6
        },
        {
            "id": 28043,
            "original_name": "Love Among the Artists",
            "popularity": 0.6
        },
        {
            "id": 30377,
            "original_name": "Live From the Artists Den",
            "popularity": 0.6
        },
        {
            "id": 50040,
            "original_name": "Young Artists Showcase",
            "popularity": 0.6
        },
        {
            "id": 53200,
            "original_name": "What Do Artists Do All Day?",
            "popularity": 0.6
        },
        {
            "id": 55898,
            "original_name": "Great Artists in Their Own Words",
            "popularity": 0.6
        },
        {
            "id": 66200,
            "original_name": "Artists in Love",
            "popularity": 0.6
        },
        {
            "id": 94666,
            "original_name": "2019 CMT Artists of the Year",
            "popularity": 0.6
        }
    ],
    "relations": [],
    "top20": [
        {
            "id": 12397,
            "original_name": "Distinguished Artists",
            "popularity": 0.6
        },
        {
            "id": 18565,
            "original_name": "Artists' Showcase",
            "popularity": 0.6
        },
        {
            "id": 27485,
            "original_name": "100 Greatest Artists of Hard Rock",
            "popularity": 0.6
        },
        {
            "id": 28043,
            "original_name": "Love Among the Artists",
            "popularity": 0.6
        },
        {
            "id": 30377,
            "original_name": "Live From the Artists Den",
            "popularity": 0.6
        },
        {
            "id": 50040,
            "original_name": "Young Artists Showcase",
            "popularity": 0.6
        },
        {
            "id": 53200,
            "original_name": "What Do Artists Do All Day?",
            "popularity": 0.6
        },
        {
            "id": 55898,
            "original_name": "Great Artists in Their Own Words",
            "popularity": 0.6
        },
        {
            "id": 66200,
            "original_name": "Artists in Love",
            "popularity": 0.6
        },
        {
            "id": 94666,
            "original_name": "2019 CMT Artists of the Year",
            "popularity": 0.6
        }
    ]
}