{
    "data": [
        {
            "id": 29,
            "original_name": "Mary Hartman, Mary Hartman",
            "popularity": 11.305
        },
        {
            "id": 983,
            "original_name": "Department S",
            "popularity": 8.403
        },
        {
            "id": 10274,
            "original_name": "Apartment 2F",
            "popularity": 0.6
        },
        {
            "id": 12460,
            "original_name": "Not My Department",
            "popularity": 0.6
        },
        {
            "id": 20390,
            "original_name": "Calucci's Department",
            "popularity": 0.64
        },
        {
            "id": 22717,
            "original_name": "The Pet Department",
            "popularity": 0.6
        },
        {
            "id": 23535,
            "original_name": "Apartment 413",
            "popularity": 0.6
        },
        {
            "id": 24096,
            "original_name": "The Department Store",
            "popularity": 0.6
        },
        {
            "id": 26138,
            "original_name": "The Hartmans",
            "popularity": 0.6
        },
        {
            "id": 37775,
            "original_name": "The Big Picture with Thom Hartmann",
            "popularity": 0.6
        },
        {
            "id": 39331,
            "original_name": "Don't Trust the B---- in Apartment 23",
            "popularity": 21.553
        },
        {
            "id": 49234,
            "original_name": "Be\u015fik Kertmesi",
            "popularity": 0.6
        },
        {
            "id": 49416,
            "original_name": "Melek Apartman\u0131",
            "popularity": 0.6
        },
        {
            "id": 49810,
            "original_name": "Hayat Apartman\u0131",
            "popularity": 0.6
        },
        {
            "id": 51762,
            "original_name": "The Village - Portmeirion",
            "popularity": 0.609
        },
        {
            "id": 56222,
            "original_name": "Porb Apartment",
            "popularity": 0.6
        },
        {
            "id": 57364,
            "original_name": "L.A.P.D.: Lekanopedio Attikis Police Department",
            "popularity": 0.963
        },
        {
            "id": 74334,
            "original_name": "Dessertm\u00e4starna",
            "popularity": 0.6
        },
        {
            "id": 81252,
            "original_name": "Dortmunder Roulette",
            "popularity": 1.226
        },
        {
            "id": 91991,
            "original_name": "Inside Borussia Dortmund",
            "popularity": 1.492
        },
        {
            "id": 109905,
            "original_name": "Masumlar Apartman\u0131",
            "popularity": 9.172
        },
        {
            "id": 123749,
            "original_name": "Sportm\u00e4starna",
            "popularity": 0.6
        },
        {
            "id": 129390,
            "original_name": "Fairy Tale Police Department",
            "popularity": 0.6
        },
        {
            "id": 132984,
            "original_name": "The Complaints Department",
            "popularity": 4.262
        },
        {
            "id": 134019,
            "original_name": "Miko et Cartman ne foutent rien",
            "popularity": 0.6
        }
    ],
    "relations": [
        {
            "character": "rtma"
        },
        {
            "character": "rtme"
        },
        {
            "character": "rtmu"
        }
    ],
    "top20": [
        {
            "id": 39331,
            "original_name": "Don't Trust the B---- in Apartment 23",
            "popularity": 21.553
        },
        {
            "id": 29,
            "original_name": "Mary Hartman, Mary Hartman",
            "popularity": 11.305
        },
        {
            "id": 109905,
            "original_name": "Masumlar Apartman\u0131",
            "popularity": 9.172
        },
        {
            "id": 983,
            "original_name": "Department S",
            "popularity": 8.403
        },
        {
            "id": 132984,
            "original_name": "The Complaints Department",
            "popularity": 4.262
        },
        {
            "id": 91991,
            "original_name": "Inside Borussia Dortmund",
            "popularity": 1.492
        },
        {
            "id": 81252,
            "original_name": "Dortmunder Roulette",
            "popularity": 1.226
        },
        {
            "id": 57364,
            "original_name": "L.A.P.D.: Lekanopedio Attikis Police Department",
            "popularity": 0.963
        },
        {
            "id": 20390,
            "original_name": "Calucci's Department",
            "popularity": 0.64
        },
        {
            "id": 51762,
            "original_name": "The Village - Portmeirion",
            "popularity": 0.609
        },
        {
            "id": 49234,
            "original_name": "Be\u015fik Kertmesi",
            "popularity": 0.6
        },
        {
            "id": 49416,
            "original_name": "Melek Apartman\u0131",
            "popularity": 0.6
        },
        {
            "id": 37775,
            "original_name": "The Big Picture with Thom Hartmann",
            "popularity": 0.6
        },
        {
            "id": 12460,
            "original_name": "Not My Department",
            "popularity": 0.6
        },
        {
            "id": 23535,
            "original_name": "Apartment 413",
            "popularity": 0.6
        },
        {
            "id": 22717,
            "original_name": "The Pet Department",
            "popularity": 0.6
        },
        {
            "id": 10274,
            "original_name": "Apartment 2F",
            "popularity": 0.6
        },
        {
            "id": 49810,
            "original_name": "Hayat Apartman\u0131",
            "popularity": 0.6
        },
        {
            "id": 24096,
            "original_name": "The Department Store",
            "popularity": 0.6
        },
        {
            "id": 26138,
            "original_name": "The Hartmans",
            "popularity": 0.6
        }
    ]
}