{
    "data": [
        {
            "id": 554,
            "original_name": "Bordertown",
            "popularity": 6.188
        },
        {
            "id": 21017,
            "original_name": "Bordertown",
            "popularity": 1.867
        },
        {
            "id": 21050,
            "original_name": "Supertown Challenge",
            "popularity": 0.6
        },
        {
            "id": 40053,
            "original_name": "Sugartown",
            "popularity": 1.4
        },
        {
            "id": 42742,
            "original_name": "Bordertown: Laredo",
            "popularity": 0.6
        },
        {
            "id": 63039,
            "original_name": "Bordertown",
            "popularity": 4.688
        },
        {
            "id": 82000,
            "original_name": "Murdertown",
            "popularity": 0.814
        },
        {
            "id": 107875,
            "original_name": "Welcome To Murdertown",
            "popularity": 0.6
        }
    ],
    "relations": [],
    "top20": [
        {
            "id": 554,
            "original_name": "Bordertown",
            "popularity": 6.188
        },
        {
            "id": 21017,
            "original_name": "Bordertown",
            "popularity": 1.867
        },
        {
            "id": 21050,
            "original_name": "Supertown Challenge",
            "popularity": 0.6
        },
        {
            "id": 40053,
            "original_name": "Sugartown",
            "popularity": 1.4
        },
        {
            "id": 42742,
            "original_name": "Bordertown: Laredo",
            "popularity": 0.6
        },
        {
            "id": 63039,
            "original_name": "Bordertown",
            "popularity": 4.688
        },
        {
            "id": 82000,
            "original_name": "Murdertown",
            "popularity": 0.814
        },
        {
            "id": 107875,
            "original_name": "Welcome To Murdertown",
            "popularity": 0.6
        }
    ]
}