{
    "data": [
        {
            "id": 36833,
            "original_name": "Buurtsuper, De",
            "popularity": 0.6
        },
        {
            "id": 49604,
            "original_name": "Yersiz Yurtsuz",
            "popularity": 0.6
        }
    ],
    "relations": [],
    "top20": [
        {
            "id": 36833,
            "original_name": "Buurtsuper, De",
            "popularity": 0.6
        },
        {
            "id": 49604,
            "original_name": "Yersiz Yurtsuz",
            "popularity": 0.6
        }
    ]
}