{
    "data": [
        {
            "id": 34650,
            "original_name": "Hardcore Partying",
            "popularity": 0.6
        },
        {
            "id": 95546,
            "original_name": "#martyisdead",
            "popularity": 2.294
        }
    ],
    "relations": [],
    "top20": [
        {
            "id": 34650,
            "original_name": "Hardcore Partying",
            "popularity": 0.6
        },
        {
            "id": 95546,
            "original_name": "#martyisdead",
            "popularity": 2.294
        }
    ]
}