{
    "data": [
        {
            "id": 3300,
            "original_name": "Rude Awakening",
            "popularity": 3.377
        },
        {
            "id": 3964,
            "original_name": "Rude Awakenings",
            "popularity": 1.418
        },
        {
            "id": 7083,
            "original_name": "Rude Tube",
            "popularity": 2.206
        },
        {
            "id": 7697,
            "original_name": "Dear Prudence",
            "popularity": 0.6
        },
        {
            "id": 14591,
            "original_name": "MacGruder and Loud",
            "popularity": 3.363
        },
        {
            "id": 15824,
            "original_name": "Rude dog and the Dweebs",
            "popularity": 4.359
        },
        {
            "id": 20381,
            "original_name": "Toonami: The Intruder",
            "popularity": 0.6
        },
        {
            "id": 22003,
            "original_name": "Banda Rudego",
            "popularity": 0.6
        },
        {
            "id": 28639,
            "original_name": "Rude Health",
            "popularity": 0.6
        },
        {
            "id": 29665,
            "original_name": "The Gertrude Berg Show",
            "popularity": 2.15
        },
        {
            "id": 30088,
            "original_name": "Prudential Family Playhouse",
            "popularity": 0.6
        },
        {
            "id": 31961,
            "original_name": "A-Z of Rude Health",
            "popularity": 0.6
        },
        {
            "id": 37123,
            "original_name": "Rudely Interrupted",
            "popularity": 0.6
        },
        {
            "id": 39130,
            "original_name": "Hva' bruden ikke ved",
            "popularity": 0.6
        },
        {
            "id": 47220,
            "original_name": "Intruders",
            "popularity": 3.29
        },
        {
            "id": 47997,
            "original_name": "The Intruder",
            "popularity": 0.6
        },
        {
            "id": 51087,
            "original_name": "DR-Derude",
            "popularity": 0.6
        },
        {
            "id": 55396,
            "original_name": "Party, Bruder!",
            "popularity": 0.6
        },
        {
            "id": 55856,
            "original_name": "Jon Gruden's QB Camp",
            "popularity": 0.6
        },
        {
            "id": 57710,
            "original_name": "Rude Boy Food",
            "popularity": 0.6
        },
        {
            "id": 60357,
            "original_name": "Trudeau II: Maverick in the Making",
            "popularity": 0.935
        },
        {
            "id": 61231,
            "original_name": "Intruders",
            "popularity": 15.623
        },
        {
            "id": 63298,
            "original_name": "Mein Bruder - Der Herr Doktor Berger",
            "popularity": 0.626
        },
        {
            "id": 63852,
            "original_name": "Krude TV",
            "popularity": 0.919
        },
        {
            "id": 65397,
            "original_name": "Les Enqu\u00eates de Prudence Petitpas",
            "popularity": 0.669
        },
        {
            "id": 71268,
            "original_name": "Bruder Esel",
            "popularity": 1.298
        },
        {
            "id": 71541,
            "original_name": "Banda Rudego Pajaka",
            "popularity": 0.84
        },
        {
            "id": 74767,
            "original_name": "Bruder - Schwarze Macht",
            "popularity": 1.285
        },
        {
            "id": 82520,
            "original_name": "Trudes Tier",
            "popularity": 0.997
        },
        {
            "id": 90528,
            "original_name": "Pierre Elliott Trudeau: Memoirs",
            "popularity": 0.984
        },
        {
            "id": 107635,
            "original_name": "Der Bruderkrieg - Deutsche und Franzosen (1870/71)",
            "popularity": 1.4
        },
        {
            "id": 112809,
            "original_name": "Intruders",
            "popularity": 0.6
        },
        {
            "id": 115839,
            "original_name": "La Bella Ceci y El Imprudente",
            "popularity": 1.18
        },
        {
            "id": 122519,
            "original_name": "Intruder",
            "popularity": 1.13
        },
        {
            "id": 132319,
            "original_name": "Justin Trudeau - L'Autre Amerique",
            "popularity": 0.6
        },
        {
            "id": 133380,
            "original_name": "Mein Bruder und ich",
            "popularity": 0.6
        }
    ],
    "relations": [
        {
            "character": "ruden"
        },
        {
            "character": "ruder"
        },
        {
            "character": "rudeg"
        },
        {
            "character": "rudel"
        },
        {
            "character": "rudea"
        },
        {
            "character": "rudes"
        }
    ],
    "top20": [
        {
            "id": 61231,
            "original_name": "Intruders",
            "popularity": 15.623
        },
        {
            "id": 15824,
            "original_name": "Rude dog and the Dweebs",
            "popularity": 4.359
        },
        {
            "id": 3300,
            "original_name": "Rude Awakening",
            "popularity": 3.377
        },
        {
            "id": 14591,
            "original_name": "MacGruder and Loud",
            "popularity": 3.363
        },
        {
            "id": 47220,
            "original_name": "Intruders",
            "popularity": 3.29
        },
        {
            "id": 7083,
            "original_name": "Rude Tube",
            "popularity": 2.206
        },
        {
            "id": 29665,
            "original_name": "The Gertrude Berg Show",
            "popularity": 2.15
        },
        {
            "id": 3964,
            "original_name": "Rude Awakenings",
            "popularity": 1.418
        },
        {
            "id": 107635,
            "original_name": "Der Bruderkrieg - Deutsche und Franzosen (1870/71)",
            "popularity": 1.4
        },
        {
            "id": 71268,
            "original_name": "Bruder Esel",
            "popularity": 1.298
        },
        {
            "id": 74767,
            "original_name": "Bruder - Schwarze Macht",
            "popularity": 1.285
        },
        {
            "id": 115839,
            "original_name": "La Bella Ceci y El Imprudente",
            "popularity": 1.18
        },
        {
            "id": 122519,
            "original_name": "Intruder",
            "popularity": 1.13
        },
        {
            "id": 82520,
            "original_name": "Trudes Tier",
            "popularity": 0.997
        },
        {
            "id": 90528,
            "original_name": "Pierre Elliott Trudeau: Memoirs",
            "popularity": 0.984
        },
        {
            "id": 60357,
            "original_name": "Trudeau II: Maverick in the Making",
            "popularity": 0.935
        },
        {
            "id": 63852,
            "original_name": "Krude TV",
            "popularity": 0.919
        },
        {
            "id": 71541,
            "original_name": "Banda Rudego Pajaka",
            "popularity": 0.84
        },
        {
            "id": 65397,
            "original_name": "Les Enqu\u00eates de Prudence Petitpas",
            "popularity": 0.669
        },
        {
            "id": 63298,
            "original_name": "Mein Bruder - Der Herr Doktor Berger",
            "popularity": 0.626
        }
    ]
}