{
    "data": [
        {
            "id": 7697,
            "original_name": "Dear Prudence",
            "popularity": 0.6
        },
        {
            "id": 30088,
            "original_name": "Prudential Family Playhouse",
            "popularity": 0.6
        },
        {
            "id": 39130,
            "original_name": "Hva' bruden ikke ved",
            "popularity": 0.6
        },
        {
            "id": 55856,
            "original_name": "Jon Gruden's QB Camp",
            "popularity": 0.6
        },
        {
            "id": 65397,
            "original_name": "Les Enqu\u00eates de Prudence Petitpas",
            "popularity": 0.669
        },
        {
            "id": 115839,
            "original_name": "La Bella Ceci y El Imprudente",
            "popularity": 1.18
        }
    ],
    "relations": [],
    "top20": [
        {
            "id": 7697,
            "original_name": "Dear Prudence",
            "popularity": 0.6
        },
        {
            "id": 30088,
            "original_name": "Prudential Family Playhouse",
            "popularity": 0.6
        },
        {
            "id": 39130,
            "original_name": "Hva' bruden ikke ved",
            "popularity": 0.6
        },
        {
            "id": 55856,
            "original_name": "Jon Gruden's QB Camp",
            "popularity": 0.6
        },
        {
            "id": 65397,
            "original_name": "Les Enqu\u00eates de Prudence Petitpas",
            "popularity": 0.669
        },
        {
            "id": 115839,
            "original_name": "La Bella Ceci y El Imprudente",
            "popularity": 1.18
        }
    ]
}