{
    "data": [
        {
            "id": 14045,
            "original_name": "The Secret Rulers of the World",
            "popularity": 0.6
        },
        {
            "id": 27791,
            "original_name": "Crazy Rulers of the World",
            "popularity": 0.6
        },
        {
            "id": 120378,
            "original_name": "Mitt kj\u00f8kken ruler",
            "popularity": 0.6
        }
    ],
    "relations": [],
    "top20": [
        {
            "id": 14045,
            "original_name": "The Secret Rulers of the World",
            "popularity": 0.6
        },
        {
            "id": 27791,
            "original_name": "Crazy Rulers of the World",
            "popularity": 0.6
        },
        {
            "id": 120378,
            "original_name": "Mitt kj\u00f8kken ruler",
            "popularity": 0.6
        }
    ]
}