{
    "data": [
        {
            "id": 27180,
            "original_name": "Berulfsens Pengebinge",
            "popularity": 0.6
        },
        {
            "id": 36992,
            "original_name": "Berulfsens Fargerike",
            "popularity": 0.6
        }
    ],
    "relations": [],
    "top20": [
        {
            "id": 27180,
            "original_name": "Berulfsens Pengebinge",
            "popularity": 0.6
        },
        {
            "id": 36992,
            "original_name": "Berulfsens Fargerike",
            "popularity": 0.6
        }
    ]
}