{
    "data": [
        {
            "id": 95509,
            "original_name": "Patrulha Salvadora",
            "popularity": 1.515
        },
        {
            "id": 113306,
            "original_name": "Super Patrulhas",
            "popularity": 0.6
        }
    ],
    "relations": [],
    "top20": [
        {
            "id": 95509,
            "original_name": "Patrulha Salvadora",
            "popularity": 1.515
        },
        {
            "id": 113306,
            "original_name": "Super Patrulhas",
            "popularity": 0.6
        }
    ]
}