{
    "data": [
        {
            "id": 322,
            "original_name": "Perversions of Science",
            "popularity": 8.809
        },
        {
            "id": 22069,
            "original_name": "The Tim McCarver Show",
            "popularity": 0.6
        },
        {
            "id": 35494,
            "original_name": "M\u00e4sterverket",
            "popularity": 0.6
        },
        {
            "id": 76248,
            "original_name": "Carver Kings",
            "popularity": 0.6
        },
        {
            "id": 83002,
            "original_name": "Transformers: Cyberverse",
            "popularity": 7.392
        },
        {
            "id": 91905,
            "original_name": "Herkules Jonssons storverk",
            "popularity": 0.663
        },
        {
            "id": 95865,
            "original_name": "The RVers",
            "popularity": 0.6
        },
        {
            "id": 100996,
            "original_name": "Windows Server 2016 course",
            "popularity": 0.618
        },
        {
            "id": 118058,
            "original_name": "Perverted Thomas",
            "popularity": 0.6
        },
        {
            "id": 124068,
            "original_name": "Crimes Perversos",
            "popularity": 0.6
        },
        {
            "id": 124749,
            "original_name": "OTV Rust Server Highlights",
            "popularity": 0.6
        },
        {
            "id": 138046,
            "original_name": "Jagten p\u00e5 regnbuens farver",
            "popularity": 1.755
        }
    ],
    "relations": [],
    "top20": [
        {
            "id": 322,
            "original_name": "Perversions of Science",
            "popularity": 8.809
        },
        {
            "id": 22069,
            "original_name": "The Tim McCarver Show",
            "popularity": 0.6
        },
        {
            "id": 35494,
            "original_name": "M\u00e4sterverket",
            "popularity": 0.6
        },
        {
            "id": 76248,
            "original_name": "Carver Kings",
            "popularity": 0.6
        },
        {
            "id": 83002,
            "original_name": "Transformers: Cyberverse",
            "popularity": 7.392
        },
        {
            "id": 91905,
            "original_name": "Herkules Jonssons storverk",
            "popularity": 0.663
        },
        {
            "id": 95865,
            "original_name": "The RVers",
            "popularity": 0.6
        },
        {
            "id": 100996,
            "original_name": "Windows Server 2016 course",
            "popularity": 0.618
        },
        {
            "id": 118058,
            "original_name": "Perverted Thomas",
            "popularity": 0.6
        },
        {
            "id": 124068,
            "original_name": "Crimes Perversos",
            "popularity": 0.6
        },
        {
            "id": 124749,
            "original_name": "OTV Rust Server Highlights",
            "popularity": 0.6
        },
        {
            "id": 138046,
            "original_name": "Jagten p\u00e5 regnbuens farver",
            "popularity": 1.755
        }
    ]
}