{
    "data": [
        {
            "id": 16556,
            "original_name": "The Harvest Show",
            "popularity": 0.6
        },
        {
            "id": 18273,
            "original_name": "Today's Harvest",
            "popularity": 0.6
        },
        {
            "id": 19646,
            "original_name": "The Dark Secret of Harvest Home",
            "popularity": 2.611
        },
        {
            "id": 20050,
            "original_name": "Prisoners of the Harvest",
            "popularity": 0.6
        },
        {
            "id": 24497,
            "original_name": "Dangerous Curves",
            "popularity": 1.893
        },
        {
            "id": 40899,
            "original_name": "Seven Dwarves",
            "popularity": 0.6
        },
        {
            "id": 41489,
            "original_name": "The Harvest Show",
            "popularity": 0.6
        },
        {
            "id": 42773,
            "original_name": "Harvest",
            "popularity": 0.6
        },
        {
            "id": 49278,
            "original_name": "Bitter Harvest",
            "popularity": 0.6
        },
        {
            "id": 55916,
            "original_name": "House of Curves",
            "popularity": 0.6
        },
        {
            "id": 56604,
            "original_name": "Bitter Harvest",
            "popularity": 0.6
        },
        {
            "id": 60122,
            "original_name": "Jimmy's Global Harvest",
            "popularity": 0.6
        },
        {
            "id": 75337,
            "original_name": "Narvestad tar ferie",
            "popularity": 0.638
        },
        {
            "id": 117435,
            "original_name": "Mary McCartney Serves It Up",
            "popularity": 0.84
        },
        {
            "id": 131049,
            "original_name": "Les Stroud's Wild Harvest",
            "popularity": 0.6
        },
        {
            "id": 131434,
            "original_name": "DarkHarvest00",
            "popularity": 0.6
        }
    ],
    "relations": [],
    "top20": [
        {
            "id": 16556,
            "original_name": "The Harvest Show",
            "popularity": 0.6
        },
        {
            "id": 18273,
            "original_name": "Today's Harvest",
            "popularity": 0.6
        },
        {
            "id": 19646,
            "original_name": "The Dark Secret of Harvest Home",
            "popularity": 2.611
        },
        {
            "id": 20050,
            "original_name": "Prisoners of the Harvest",
            "popularity": 0.6
        },
        {
            "id": 24497,
            "original_name": "Dangerous Curves",
            "popularity": 1.893
        },
        {
            "id": 40899,
            "original_name": "Seven Dwarves",
            "popularity": 0.6
        },
        {
            "id": 41489,
            "original_name": "The Harvest Show",
            "popularity": 0.6
        },
        {
            "id": 42773,
            "original_name": "Harvest",
            "popularity": 0.6
        },
        {
            "id": 49278,
            "original_name": "Bitter Harvest",
            "popularity": 0.6
        },
        {
            "id": 55916,
            "original_name": "House of Curves",
            "popularity": 0.6
        },
        {
            "id": 56604,
            "original_name": "Bitter Harvest",
            "popularity": 0.6
        },
        {
            "id": 60122,
            "original_name": "Jimmy's Global Harvest",
            "popularity": 0.6
        },
        {
            "id": 75337,
            "original_name": "Narvestad tar ferie",
            "popularity": 0.638
        },
        {
            "id": 117435,
            "original_name": "Mary McCartney Serves It Up",
            "popularity": 0.84
        },
        {
            "id": 131049,
            "original_name": "Les Stroud's Wild Harvest",
            "popularity": 0.6
        },
        {
            "id": 131434,
            "original_name": "DarkHarvest00",
            "popularity": 0.6
        }
    ]
}