{
    "data": [
        {
            "id": 82676,
            "original_name": "Ein kurzes Leben lang",
            "popularity": 0.6
        }
    ],
    "relations": [],
    "top20": [
        {
            "id": 82676,
            "original_name": "Ein kurzes Leben lang",
            "popularity": 0.6
        }
    ]
}