{
    "data": [
        {
            "id": 1248,
            "original_name": "Safari School",
            "popularity": 0.846
        },
        {
            "id": 1372,
            "original_name": "John Safran's Music Jamboree",
            "popularity": 0.621
        },
        {
            "id": 2201,
            "original_name": "Scout's Safari",
            "popularity": 0.663
        },
        {
            "id": 2308,
            "original_name": "Desafio de Estrellas",
            "popularity": 0.6
        },
        {
            "id": 6873,
            "original_name": "Mosafer",
            "popularity": 0.6
        },
        {
            "id": 6908,
            "original_name": "Dulce Desaf\u00edo",
            "popularity": 5.355
        },
        {
            "id": 7169,
            "original_name": "Eesh Safari",
            "popularity": 0.6
        },
        {
            "id": 9239,
            "original_name": "Schoolyard Safari",
            "popularity": 0.6
        },
        {
            "id": 10519,
            "original_name": "John Safran vs God",
            "popularity": 0.991
        },
        {
            "id": 14166,
            "original_name": "On Safari",
            "popularity": 2.083
        },
        {
            "id": 14596,
            "original_name": "About Safety",
            "popularity": 0.6
        },
        {
            "id": 15316,
            "original_name": "Safe as Houses",
            "popularity": 0.6
        },
        {
            "id": 16440,
            "original_name": "El Desaf\u00edo",
            "popularity": 0.6
        },
        {
            "id": 17477,
            "original_name": "Ek Safar Aisa Kabhi Socha Na Tha",
            "popularity": 0.6
        },
        {
            "id": 18479,
            "original_name": "Food Safari",
            "popularity": 1.666
        },
        {
            "id": 18681,
            "original_name": "On Safari",
            "popularity": 0.6
        },
        {
            "id": 20650,
            "original_name": "Safe at Home",
            "popularity": 0.6
        },
        {
            "id": 21970,
            "original_name": "Art Safari",
            "popularity": 0.6
        },
        {
            "id": 24016,
            "original_name": "The Safety Challenge",
            "popularity": 0.6
        },
        {
            "id": 25134,
            "original_name": "So You Think You're Safe",
            "popularity": 0.6
        },
        {
            "id": 25539,
            "original_name": "Iolo's Welsh Safari",
            "popularity": 0.6
        },
        {
            "id": 25630,
            "original_name": "Safari To Adventure",
            "popularity": 0.6
        },
        {
            "id": 26036,
            "original_name": "Vet Safari",
            "popularity": 0.6
        },
        {
            "id": 27399,
            "original_name": "Hollywood Safari",
            "popularity": 0.6
        },
        {
            "id": 27697,
            "original_name": "Lou and Lou: Safety Patrol",
            "popularity": 0.6
        },
        {
            "id": 28014,
            "original_name": "Safe And Sound",
            "popularity": 1.683
        },
        {
            "id": 30285,
            "original_name": "Safe Harbor",
            "popularity": 1.792
        },
        {
            "id": 31139,
            "original_name": "John Safran's Race Relations",
            "popularity": 0.6
        },
        {
            "id": 32640,
            "original_name": "Safari Sisters",
            "popularity": 0.6
        },
        {
            "id": 33257,
            "original_name": "Desafio",
            "popularity": 4.875
        },
        {
            "id": 42109,
            "original_name": "Humsafar",
            "popularity": 2.591
        },
        {
            "id": 42197,
            "original_name": "Safebreakers",
            "popularity": 0.6
        },
        {
            "id": 45661,
            "original_name": "Unsafe Sex in the City",
            "popularity": 2.391
        },
        {
            "id": 49147,
            "original_name": "Wildlife Safari In Ethiopia",
            "popularity": 0.6
        },
        {
            "id": 50436,
            "original_name": "Safa dan Marwah",
            "popularity": 0.6
        },
        {
            "id": 50706,
            "original_name": "Tanri misafiri",
            "popularity": 0.6
        },
        {
            "id": 50726,
            "original_name": "Davetsiz Misafir",
            "popularity": 0.6
        },
        {
            "id": 50848,
            "original_name": "Qadiyat Safia",
            "popularity": 0.6
        },
        {
            "id": 52559,
            "original_name": "Khalty Safeyya Wa AlDeir",
            "popularity": 0.6
        },
        {
            "id": 53497,
            "original_name": "Abo Al Asafeer",
            "popularity": 0.6
        },
        {
            "id": 54140,
            "original_name": "Safe sex TV stories",
            "popularity": 0.6
        },
        {
            "id": 54409,
            "original_name": "Safari Vet School",
            "popularity": 0.637
        },
        {
            "id": 54599,
            "original_name": "Safari",
            "popularity": 0.973
        },
        {
            "id": 54757,
            "original_name": "Nour Fi Samaa Safia",
            "popularity": 0.6
        },
        {
            "id": 55129,
            "original_name": "Al Mosafer",
            "popularity": 0.6
        },
        {
            "id": 55154,
            "original_name": "Desaf\u00edo extremo",
            "popularity": 0.709
        },
        {
            "id": 55701,
            "original_name": "How Safe are Britain's Roads?",
            "popularity": 0.6
        },
        {
            "id": 58860,
            "original_name": "Safar Hai Shart",
            "popularity": 0.6
        },
        {
            "id": 59288,
            "original_name": "Grannies on Safari",
            "popularity": 0.6
        },
        {
            "id": 59839,
            "original_name": "Jor Safe",
            "popularity": 0.6
        },
        {
            "id": 61274,
            "original_name": "The Safecrackers",
            "popularity": 0.625
        },
        {
            "id": 62452,
            "original_name": "Safe House",
            "popularity": 6.695
        },
        {
            "id": 63071,
            "original_name": "Not Safe for Work",
            "popularity": 3.34
        },
        {
            "id": 64872,
            "original_name": "SAF3",
            "popularity": 3.26
        },
        {
            "id": 65017,
            "original_name": "Safety First",
            "popularity": 1.415
        },
        {
            "id": 65680,
            "original_name": "Not Safe with Nikki Glaser",
            "popularity": 2.258
        },
        {
            "id": 72792,
            "original_name": "Safe",
            "popularity": 11.227
        },
        {
            "id": 72825,
            "original_name": "SafeWord",
            "popularity": 0.885
        },
        {
            "id": 76675,
            "original_name": "Safari Go !",
            "popularity": 0.6
        },
        {
            "id": 77780,
            "original_name": "Safe Harbour",
            "popularity": 3.116
        },
        {
            "id": 78328,
            "original_name": "The Jungle Book Safari",
            "popularity": 1.097
        },
        {
            "id": 78606,
            "original_name": "Kehne Ko Humsafar Hain",
            "popularity": 1.846
        },
        {
            "id": 78714,
            "original_name": "Keeping Australia Safe",
            "popularity": 0.89
        },
        {
            "id": 79704,
            "original_name": "The Lion Man: African Safari",
            "popularity": 0.6
        },
        {
            "id": 80040,
            "original_name": "Desaf\u00edo Champions Sendokai",
            "popularity": 10.954
        },
        {
            "id": 82463,
            "original_name": "Desaf\u00edo 2018: Superhumanos, XV",
            "popularity": 0.6
        },
        {
            "id": 83686,
            "original_name": "Safornication",
            "popularity": 0.6
        },
        {
            "id": 85458,
            "original_name": "Fam\u00edlias Frente a Frente - Desafio na Cozinha",
            "popularity": 0.6
        },
        {
            "id": 85709,
            "original_name": "Andy's Safari Adventures",
            "popularity": 0.6
        },
        {
            "id": 87120,
            "original_name": "Safari: A la caza de la tele",
            "popularity": 0.6
        },
        {
            "id": 92758,
            "original_name": "Un safari pr\u00e8s de chez nous",
            "popularity": 0.6
        },
        {
            "id": 92766,
            "original_name": "Aghaz-e-Safar",
            "popularity": 0.6
        },
        {
            "id": 96158,
            "original_name": "Humsafars",
            "popularity": 0.6
        },
        {
            "id": 99097,
            "original_name": "Dokhtare Safir",
            "popularity": 0.6
        },
        {
            "id": 101845,
            "original_name": "Beyond the Wild Blue - A History of the USAF",
            "popularity": 0.6
        },
        {
            "id": 104541,
            "original_name": "Desafio em Dose Dupla Brasil",
            "popularity": 0.6
        },
        {
            "id": 107191,
            "original_name": "Italian Food Safari",
            "popularity": 0.6
        },
        {
            "id": 110825,
            "original_name": "El desaf\u00edo: ETA",
            "popularity": 1.176
        },
        {
            "id": 111830,
            "original_name": "Safari Norge",
            "popularity": 0.6
        },
        {
            "id": 115656,
            "original_name": "Dessert Person with Claire Saffitz",
            "popularity": 2.288
        },
        {
            "id": 116785,
            "original_name": "El Desaf\u00edo",
            "popularity": 1.609
        },
        {
            "id": 117592,
            "original_name": "Secret Safari: Into the Wild",
            "popularity": 1.526
        },
        {
            "id": 121002,
            "original_name": "El Desaf\u00edo: The Box",
            "popularity": 1.193
        },
        {
            "id": 124281,
            "original_name": "Desafio Imposs\u00edvel",
            "popularity": 1.152
        },
        {
            "id": 131633,
            "original_name": "Safari",
            "popularity": 0.6
        },
        {
            "id": 133703,
            "original_name": "SaFahri - Eine Reise zu den Elementen",
            "popularity": 0.6
        },
        {
            "id": 135586,
            "original_name": "Safari Brothers",
            "popularity": 0.6
        },
        {
            "id": 136396,
            "original_name": "Art Attack: Modo desaf\u00edo",
            "popularity": 0.6
        },
        {
            "id": 136522,
            "original_name": "Art Attack: Modo Desafio",
            "popularity": 0.6
        },
        {
            "id": 138418,
            "original_name": "Misafir",
            "popularity": 4.592
        },
        {
            "id": 152479,
            "original_name": "safar barlik",
            "popularity": 0.6
        }
    ],
    "relations": [
        {
            "character": "safa"
        },
        {
            "character": "safr"
        },
        {
            "character": "safi"
        },
        {
            "character": "safe"
        },
        {
            "character": "saf3"
        },
        {
            "character": "safo"
        },
        {
            "character": "saff"
        }
    ],
    "top20": [
        {
            "id": 72792,
            "original_name": "Safe",
            "popularity": 11.227
        },
        {
            "id": 80040,
            "original_name": "Desaf\u00edo Champions Sendokai",
            "popularity": 10.954
        },
        {
            "id": 62452,
            "original_name": "Safe House",
            "popularity": 6.695
        },
        {
            "id": 6908,
            "original_name": "Dulce Desaf\u00edo",
            "popularity": 5.355
        },
        {
            "id": 33257,
            "original_name": "Desafio",
            "popularity": 4.875
        },
        {
            "id": 138418,
            "original_name": "Misafir",
            "popularity": 4.592
        },
        {
            "id": 63071,
            "original_name": "Not Safe for Work",
            "popularity": 3.34
        },
        {
            "id": 64872,
            "original_name": "SAF3",
            "popularity": 3.26
        },
        {
            "id": 77780,
            "original_name": "Safe Harbour",
            "popularity": 3.116
        },
        {
            "id": 42109,
            "original_name": "Humsafar",
            "popularity": 2.591
        },
        {
            "id": 45661,
            "original_name": "Unsafe Sex in the City",
            "popularity": 2.391
        },
        {
            "id": 115656,
            "original_name": "Dessert Person with Claire Saffitz",
            "popularity": 2.288
        },
        {
            "id": 65680,
            "original_name": "Not Safe with Nikki Glaser",
            "popularity": 2.258
        },
        {
            "id": 14166,
            "original_name": "On Safari",
            "popularity": 2.083
        },
        {
            "id": 78606,
            "original_name": "Kehne Ko Humsafar Hain",
            "popularity": 1.846
        },
        {
            "id": 30285,
            "original_name": "Safe Harbor",
            "popularity": 1.792
        },
        {
            "id": 28014,
            "original_name": "Safe And Sound",
            "popularity": 1.683
        },
        {
            "id": 18479,
            "original_name": "Food Safari",
            "popularity": 1.666
        },
        {
            "id": 116785,
            "original_name": "El Desaf\u00edo",
            "popularity": 1.609
        },
        {
            "id": 117592,
            "original_name": "Secret Safari: Into the Wild",
            "popularity": 1.526
        }
    ]
}