{
    "data": [
        {
            "id": 6873,
            "original_name": "Mosafer",
            "popularity": 0.6
        },
        {
            "id": 14596,
            "original_name": "About Safety",
            "popularity": 0.6
        },
        {
            "id": 15316,
            "original_name": "Safe as Houses",
            "popularity": 0.6
        },
        {
            "id": 20650,
            "original_name": "Safe at Home",
            "popularity": 0.6
        },
        {
            "id": 24016,
            "original_name": "The Safety Challenge",
            "popularity": 0.6
        },
        {
            "id": 25134,
            "original_name": "So You Think You're Safe",
            "popularity": 0.6
        },
        {
            "id": 27697,
            "original_name": "Lou and Lou: Safety Patrol",
            "popularity": 0.6
        },
        {
            "id": 28014,
            "original_name": "Safe And Sound",
            "popularity": 1.683
        },
        {
            "id": 30285,
            "original_name": "Safe Harbor",
            "popularity": 1.792
        },
        {
            "id": 42197,
            "original_name": "Safebreakers",
            "popularity": 0.6
        },
        {
            "id": 45661,
            "original_name": "Unsafe Sex in the City",
            "popularity": 2.391
        },
        {
            "id": 52559,
            "original_name": "Khalty Safeyya Wa AlDeir",
            "popularity": 0.6
        },
        {
            "id": 53497,
            "original_name": "Abo Al Asafeer",
            "popularity": 0.6
        },
        {
            "id": 54140,
            "original_name": "Safe sex TV stories",
            "popularity": 0.6
        },
        {
            "id": 55129,
            "original_name": "Al Mosafer",
            "popularity": 0.6
        },
        {
            "id": 55701,
            "original_name": "How Safe are Britain's Roads?",
            "popularity": 0.6
        },
        {
            "id": 59839,
            "original_name": "Jor Safe",
            "popularity": 0.6
        },
        {
            "id": 61274,
            "original_name": "The Safecrackers",
            "popularity": 0.625
        },
        {
            "id": 62452,
            "original_name": "Safe House",
            "popularity": 6.695
        },
        {
            "id": 63071,
            "original_name": "Not Safe for Work",
            "popularity": 3.34
        },
        {
            "id": 65017,
            "original_name": "Safety First",
            "popularity": 1.415
        },
        {
            "id": 65680,
            "original_name": "Not Safe with Nikki Glaser",
            "popularity": 2.258
        },
        {
            "id": 72792,
            "original_name": "Safe",
            "popularity": 11.227
        },
        {
            "id": 72825,
            "original_name": "SafeWord",
            "popularity": 0.885
        },
        {
            "id": 77780,
            "original_name": "Safe Harbour",
            "popularity": 3.116
        },
        {
            "id": 78714,
            "original_name": "Keeping Australia Safe",
            "popularity": 0.89
        }
    ],
    "relations": [
        {
            "character": "safer"
        },
        {
            "character": "safet"
        },
        {
            "character": "safeb"
        },
        {
            "character": "safey"
        },
        {
            "character": "safee"
        },
        {
            "character": "safec"
        },
        {
            "character": "safew"
        }
    ],
    "top20": [
        {
            "id": 72792,
            "original_name": "Safe",
            "popularity": 11.227
        },
        {
            "id": 62452,
            "original_name": "Safe House",
            "popularity": 6.695
        },
        {
            "id": 63071,
            "original_name": "Not Safe for Work",
            "popularity": 3.34
        },
        {
            "id": 77780,
            "original_name": "Safe Harbour",
            "popularity": 3.116
        },
        {
            "id": 45661,
            "original_name": "Unsafe Sex in the City",
            "popularity": 2.391
        },
        {
            "id": 65680,
            "original_name": "Not Safe with Nikki Glaser",
            "popularity": 2.258
        },
        {
            "id": 30285,
            "original_name": "Safe Harbor",
            "popularity": 1.792
        },
        {
            "id": 28014,
            "original_name": "Safe And Sound",
            "popularity": 1.683
        },
        {
            "id": 65017,
            "original_name": "Safety First",
            "popularity": 1.415
        },
        {
            "id": 78714,
            "original_name": "Keeping Australia Safe",
            "popularity": 0.89
        },
        {
            "id": 72825,
            "original_name": "SafeWord",
            "popularity": 0.885
        },
        {
            "id": 61274,
            "original_name": "The Safecrackers",
            "popularity": 0.625
        },
        {
            "id": 20650,
            "original_name": "Safe at Home",
            "popularity": 0.6
        },
        {
            "id": 27697,
            "original_name": "Lou and Lou: Safety Patrol",
            "popularity": 0.6
        },
        {
            "id": 24016,
            "original_name": "The Safety Challenge",
            "popularity": 0.6
        },
        {
            "id": 25134,
            "original_name": "So You Think You're Safe",
            "popularity": 0.6
        },
        {
            "id": 15316,
            "original_name": "Safe as Houses",
            "popularity": 0.6
        },
        {
            "id": 42197,
            "original_name": "Safebreakers",
            "popularity": 0.6
        },
        {
            "id": 6873,
            "original_name": "Mosafer",
            "popularity": 0.6
        },
        {
            "id": 14596,
            "original_name": "About Safety",
            "popularity": 0.6
        }
    ]
}