{
    "data": [
        {
            "id": 53197,
            "original_name": "D\u00fcnya Bir Oyun Sahnesi",
            "popularity": 0.6
        }
    ],
    "relations": [],
    "top20": [
        {
            "id": 53197,
            "original_name": "D\u00fcnya Bir Oyun Sahnesi",
            "popularity": 0.6
        }
    ]
}