{
    "data": [
        {
            "id": 35382,
            "original_name": "Tujvin Sakhya Re",
            "popularity": 0.6
        },
        {
            "id": 52374,
            "original_name": "Sheta'a Sakhen",
            "popularity": 0.6
        },
        {
            "id": 59873,
            "original_name": "Sakhtemane 85",
            "popularity": 0.6
        },
        {
            "id": 115345,
            "original_name": "Sakho & Mangane",
            "popularity": 2.034
        },
        {
            "id": 127407,
            "original_name": "Sakhteman-e Pezeshkan",
            "popularity": 0.6
        }
    ],
    "relations": [],
    "top20": [
        {
            "id": 35382,
            "original_name": "Tujvin Sakhya Re",
            "popularity": 0.6
        },
        {
            "id": 52374,
            "original_name": "Sheta'a Sakhen",
            "popularity": 0.6
        },
        {
            "id": 59873,
            "original_name": "Sakhtemane 85",
            "popularity": 0.6
        },
        {
            "id": 115345,
            "original_name": "Sakho & Mangane",
            "popularity": 2.034
        },
        {
            "id": 127407,
            "original_name": "Sakhteman-e Pezeshkan",
            "popularity": 0.6
        }
    ]
}