{
    "data": [
        {
            "id": 10379,
            "original_name": "Coconut Fred's Fruit Salad Island",
            "popularity": 2.693
        },
        {
            "id": 31066,
            "original_name": "Salad Fingers",
            "popularity": 2.209
        },
        {
            "id": 37725,
            "original_name": "Saladused",
            "popularity": 0.6
        },
        {
            "id": 76189,
            "original_name": "V\u00e4ikelinna detektiivid ja valge daami saladus",
            "popularity": 0.6
        },
        {
            "id": 82185,
            "original_name": "Avassaladoras: A S\u00e9rie",
            "popularity": 0.959
        },
        {
            "id": 107849,
            "original_name": "Saladin",
            "popularity": 0.664
        },
        {
            "id": 121459,
            "original_name": "Salade Grecque",
            "popularity": 0.6
        },
        {
            "id": 134959,
            "original_name": "Richard the Lionheart and Saladin: Holy Warriors",
            "popularity": 0.6
        }
    ],
    "relations": [],
    "top20": [
        {
            "id": 10379,
            "original_name": "Coconut Fred's Fruit Salad Island",
            "popularity": 2.693
        },
        {
            "id": 31066,
            "original_name": "Salad Fingers",
            "popularity": 2.209
        },
        {
            "id": 37725,
            "original_name": "Saladused",
            "popularity": 0.6
        },
        {
            "id": 76189,
            "original_name": "V\u00e4ikelinna detektiivid ja valge daami saladus",
            "popularity": 0.6
        },
        {
            "id": 82185,
            "original_name": "Avassaladoras: A S\u00e9rie",
            "popularity": 0.959
        },
        {
            "id": 107849,
            "original_name": "Saladin",
            "popularity": 0.664
        },
        {
            "id": 121459,
            "original_name": "Salade Grecque",
            "popularity": 0.6
        },
        {
            "id": 134959,
            "original_name": "Richard the Lionheart and Saladin: Holy Warriors",
            "popularity": 0.6
        }
    ]
}