{
    "data": [
        {
            "id": 32624,
            "original_name": "Rosalka",
            "popularity": 0.6
        },
        {
            "id": 92261,
            "original_name": "Asalkan Dia Bahagia",
            "popularity": 0.621
        },
        {
            "id": 129242,
            "original_name": "Zehirli Salk\u0131m",
            "popularity": 0.6
        }
    ],
    "relations": [],
    "top20": [
        {
            "id": 32624,
            "original_name": "Rosalka",
            "popularity": 0.6
        },
        {
            "id": 92261,
            "original_name": "Asalkan Dia Bahagia",
            "popularity": 0.621
        },
        {
            "id": 129242,
            "original_name": "Zehirli Salk\u0131m",
            "popularity": 0.6
        }
    ]
}