{
    "data": [
        {
            "id": 23620,
            "original_name": "Samt und Seide",
            "popularity": 3.44
        },
        {
            "id": 137697,
            "original_name": "Samtaler fra swingerklubben",
            "popularity": 0.6
        }
    ],
    "relations": [],
    "top20": [
        {
            "id": 23620,
            "original_name": "Samt und Seide",
            "popularity": 3.44
        },
        {
            "id": 137697,
            "original_name": "Samtaler fra swingerklubben",
            "popularity": 0.6
        }
    ]
}