{
    "data": [
        {
            "id": 2723,
            "original_name": "Samurai Jack",
            "popularity": 35.996
        },
        {
            "id": 3691,
            "original_name": "Wine Road of the Samurai",
            "popularity": 1.4
        },
        {
            "id": 5863,
            "original_name": "Samurai 7",
            "popularity": 5.868
        },
        {
            "id": 8823,
            "original_name": "Samurai Girl",
            "popularity": 3.149
        },
        {
            "id": 13252,
            "original_name": "Superhuman Samurai Syber-Squad",
            "popularity": 4.336
        },
        {
            "id": 19544,
            "original_name": "Afro Samurai",
            "popularity": 17.916
        },
        {
            "id": 27115,
            "original_name": "Blood of the Samurai: The Series",
            "popularity": 0.6
        },
        {
            "id": 29827,
            "original_name": "The Small World Of Samuel Tweet",
            "popularity": 0.6
        },
        {
            "id": 30063,
            "original_name": "Inner Chef with Marcus Samuelsson",
            "popularity": 0.6
        },
        {
            "id": 41032,
            "original_name": "Karakuri Samurai Sesshaawan 1",
            "popularity": 0.6
        },
        {
            "id": 42343,
            "original_name": "Celebrity Samurai",
            "popularity": 0.6
        },
        {
            "id": 44211,
            "original_name": "Samurai Love God",
            "popularity": 0.6
        },
        {
            "id": 45294,
            "original_name": "Tasuke, the Samurai Cop",
            "popularity": 0.6
        },
        {
            "id": 46673,
            "original_name": "SAMURAI GIRL\u3000\u30ea\u30a2\u30eb\u30d0\u30a6\u30c8\u30cf\u30a4\u30b9\u30af\u30fc\u30eb",
            "popularity": 2.071
        },
        {
            "id": 56414,
            "original_name": "Hoong Samud Stasa",
            "popularity": 0.6
        },
        {
            "id": 60713,
            "original_name": "Samuel Brock Flynn Show",
            "popularity": 0.6
        },
        {
            "id": 68647,
            "original_name": "Rosamunde Pilcher: Vier Frauen",
            "popularity": 1.384
        },
        {
            "id": 75696,
            "original_name": "Rosamunde Pilcher: The Other Wife",
            "popularity": 2.631
        },
        {
            "id": 77070,
            "original_name": "Rosamunde Pilcher: Fighting for Her Family",
            "popularity": 1.296
        },
        {
            "id": 77438,
            "original_name": "Rosamunde Pilcher's Four Seasons",
            "popularity": 1.25
        },
        {
            "id": 77956,
            "original_name": "Rosamunde Pilcher - Zauber der Liebe",
            "popularity": 0.6
        },
        {
            "id": 87294,
            "original_name": "Honz\u00edk a Samuel aneb kudy vede cesta na sever",
            "popularity": 0.6
        },
        {
            "id": 87429,
            "original_name": "Mental Samurai",
            "popularity": 1.471
        },
        {
            "id": 93736,
            "original_name": "Age of Samurai: Battle for Japan",
            "popularity": 41.431
        },
        {
            "id": 108395,
            "original_name": "The 93 Victims of Samuel Little",
            "popularity": 0.84
        },
        {
            "id": 111201,
            "original_name": "Hansamusenkyo",
            "popularity": 0.6
        },
        {
            "id": 114923,
            "original_name": "Samurai Sikkerhet",
            "popularity": 1.4
        },
        {
            "id": 119926,
            "original_name": "Mental Samurai Suomi",
            "popularity": 0.617
        },
        {
            "id": 120484,
            "original_name": "Samuel og Bestefar",
            "popularity": 0.617
        },
        {
            "id": 124072,
            "original_name": "Stardom on Samurai! TV",
            "popularity": 0.662
        },
        {
            "id": 124371,
            "original_name": "Samurai Sentai Shinkenger",
            "popularity": 0.6
        },
        {
            "id": 124634,
            "original_name": "Ice Ribbon on Samurai! TV",
            "popularity": 0.6
        },
        {
            "id": 126525,
            "original_name": "Elite Hist\u00f3rias Breves: Carla Samuel",
            "popularity": 70.992
        },
        {
            "id": 132002,
            "original_name": "Rosamunde Pilcher",
            "popularity": 8.623
        },
        {
            "id": 137570,
            "original_name": "Historias breves de \u00c9lite: Samuel Omar",
            "popularity": 2.447
        }
    ],
    "relations": [
        {
            "character": "samur"
        },
        {
            "character": "samue"
        },
        {
            "character": "samud"
        },
        {
            "character": "samun"
        },
        {
            "character": "samus"
        }
    ],
    "top20": [
        {
            "id": 126525,
            "original_name": "Elite Hist\u00f3rias Breves: Carla Samuel",
            "popularity": 70.992
        },
        {
            "id": 93736,
            "original_name": "Age of Samurai: Battle for Japan",
            "popularity": 41.431
        },
        {
            "id": 2723,
            "original_name": "Samurai Jack",
            "popularity": 35.996
        },
        {
            "id": 19544,
            "original_name": "Afro Samurai",
            "popularity": 17.916
        },
        {
            "id": 132002,
            "original_name": "Rosamunde Pilcher",
            "popularity": 8.623
        },
        {
            "id": 5863,
            "original_name": "Samurai 7",
            "popularity": 5.868
        },
        {
            "id": 13252,
            "original_name": "Superhuman Samurai Syber-Squad",
            "popularity": 4.336
        },
        {
            "id": 8823,
            "original_name": "Samurai Girl",
            "popularity": 3.149
        },
        {
            "id": 75696,
            "original_name": "Rosamunde Pilcher: The Other Wife",
            "popularity": 2.631
        },
        {
            "id": 137570,
            "original_name": "Historias breves de \u00c9lite: Samuel Omar",
            "popularity": 2.447
        },
        {
            "id": 46673,
            "original_name": "SAMURAI GIRL\u3000\u30ea\u30a2\u30eb\u30d0\u30a6\u30c8\u30cf\u30a4\u30b9\u30af\u30fc\u30eb",
            "popularity": 2.071
        },
        {
            "id": 87429,
            "original_name": "Mental Samurai",
            "popularity": 1.471
        },
        {
            "id": 114923,
            "original_name": "Samurai Sikkerhet",
            "popularity": 1.4
        },
        {
            "id": 3691,
            "original_name": "Wine Road of the Samurai",
            "popularity": 1.4
        },
        {
            "id": 68647,
            "original_name": "Rosamunde Pilcher: Vier Frauen",
            "popularity": 1.384
        },
        {
            "id": 77070,
            "original_name": "Rosamunde Pilcher: Fighting for Her Family",
            "popularity": 1.296
        },
        {
            "id": 77438,
            "original_name": "Rosamunde Pilcher's Four Seasons",
            "popularity": 1.25
        },
        {
            "id": 108395,
            "original_name": "The 93 Victims of Samuel Little",
            "popularity": 0.84
        },
        {
            "id": 124072,
            "original_name": "Stardom on Samurai! TV",
            "popularity": 0.662
        },
        {
            "id": 119926,
            "original_name": "Mental Samurai Suomi",
            "popularity": 0.617
        }
    ]
}