{
    "data": [
        {
            "id": 5800,
            "original_name": "Hidden Howie: The Private Life of a Public Nuisance",
            "popularity": 1.757
        },
        {
            "id": 35983,
            "original_name": "Renaissance Revolution",
            "popularity": 0.6
        },
        {
            "id": 74616,
            "original_name": "A Very British Renaissance",
            "popularity": 0.6
        },
        {
            "id": 77756,
            "original_name": "The Renaissance Factor",
            "popularity": 0.6
        },
        {
            "id": 79177,
            "original_name": "The Medici: Godfathers of the Renaissance",
            "popularity": 0.841
        },
        {
            "id": 83392,
            "original_name": "L'Unit\u00e9 des naissances",
            "popularity": 1.114
        },
        {
            "id": 106987,
            "original_name": "Zeitenwende - Die Renaissance",
            "popularity": 0.6
        },
        {
            "id": 113121,
            "original_name": "Indon\u00e9sie: la puissance, l'islam et la d\u00e9mocratie",
            "popularity": 0.6
        },
        {
            "id": 113781,
            "original_name": "Renaissance",
            "popularity": 0.6
        },
        {
            "id": 116566,
            "original_name": "Op\u00e9ration renaissance",
            "popularity": 0.6
        },
        {
            "id": 116567,
            "original_name": "Op\u00e9ration renaissance : deux ans pour apprendre \u00e0 s'aimer",
            "popularity": 0.6
        },
        {
            "id": 122220,
            "original_name": "Le petit monde de Marie-Plaisance",
            "popularity": 0.84
        },
        {
            "id": 129790,
            "original_name": "Northern Renaissance",
            "popularity": 0.6
        },
        {
            "id": 129798,
            "original_name": "The Renaissance Unchained",
            "popularity": 0.6
        },
        {
            "id": 136982,
            "original_name": "La Naissance des Barbapapa",
            "popularity": 0.6
        }
    ],
    "relations": [],
    "top20": [
        {
            "id": 5800,
            "original_name": "Hidden Howie: The Private Life of a Public Nuisance",
            "popularity": 1.757
        },
        {
            "id": 35983,
            "original_name": "Renaissance Revolution",
            "popularity": 0.6
        },
        {
            "id": 74616,
            "original_name": "A Very British Renaissance",
            "popularity": 0.6
        },
        {
            "id": 77756,
            "original_name": "The Renaissance Factor",
            "popularity": 0.6
        },
        {
            "id": 79177,
            "original_name": "The Medici: Godfathers of the Renaissance",
            "popularity": 0.841
        },
        {
            "id": 83392,
            "original_name": "L'Unit\u00e9 des naissances",
            "popularity": 1.114
        },
        {
            "id": 106987,
            "original_name": "Zeitenwende - Die Renaissance",
            "popularity": 0.6
        },
        {
            "id": 113121,
            "original_name": "Indon\u00e9sie: la puissance, l'islam et la d\u00e9mocratie",
            "popularity": 0.6
        },
        {
            "id": 113781,
            "original_name": "Renaissance",
            "popularity": 0.6
        },
        {
            "id": 116566,
            "original_name": "Op\u00e9ration renaissance",
            "popularity": 0.6
        },
        {
            "id": 116567,
            "original_name": "Op\u00e9ration renaissance : deux ans pour apprendre \u00e0 s'aimer",
            "popularity": 0.6
        },
        {
            "id": 122220,
            "original_name": "Le petit monde de Marie-Plaisance",
            "popularity": 0.84
        },
        {
            "id": 129790,
            "original_name": "Northern Renaissance",
            "popularity": 0.6
        },
        {
            "id": 129798,
            "original_name": "The Renaissance Unchained",
            "popularity": 0.6
        },
        {
            "id": 136982,
            "original_name": "La Naissance des Barbapapa",
            "popularity": 0.6
        }
    ]
}