{
    "data": [
        {
            "id": 723,
            "original_name": "Si Tsong, Si Tsang",
            "popularity": 0.6
        },
        {
            "id": 3722,
            "original_name": "Tok! Tok! Tok! Isang Milyon Pasok!",
            "popularity": 0.6
        },
        {
            "id": 3734,
            "original_name": "Ballykissangel",
            "popularity": 3.674
        },
        {
            "id": 4689,
            "original_name": "'Sang Linggo nAPO Sila",
            "popularity": 0.6
        },
        {
            "id": 6698,
            "original_name": "La Gran Sangre",
            "popularity": 0.948
        },
        {
            "id": 7022,
            "original_name": "Fuego en la Sangre",
            "popularity": 9.521
        },
        {
            "id": 7746,
            "original_name": "Kahit Isang Saglit",
            "popularity": 0.6
        },
        {
            "id": 8076,
            "original_name": "Sine Novela: Kaputol Ng Isang Awit",
            "popularity": 0.6
        },
        {
            "id": 8180,
            "original_name": "Tujh Sang Preet Lagai Sajna",
            "popularity": 0.6
        },
        {
            "id": 8796,
            "original_name": "Pakistan Sangeet Icon",
            "popularity": 0.6
        },
        {
            "id": 13825,
            "original_name": "Murun Buchstansangur",
            "popularity": 0.6
        },
        {
            "id": 14517,
            "original_name": "Kaputol ng Isang Awit",
            "popularity": 0.6
        },
        {
            "id": 15992,
            "original_name": "Piker, vin og sang",
            "popularity": 0.6
        },
        {
            "id": 16030,
            "original_name": "Sangam",
            "popularity": 0.6
        },
        {
            "id": 16150,
            "original_name": "Pura Sangre",
            "popularity": 1.462
        },
        {
            "id": 18531,
            "original_name": "Dahil May Isang Ikaw",
            "popularity": 0.6
        },
        {
            "id": 18791,
            "original_name": "Tierra Sangre",
            "popularity": 0.6
        },
        {
            "id": 24024,
            "original_name": "Isang Lakas",
            "popularity": 0.6
        },
        {
            "id": 24160,
            "original_name": "Sangokushi",
            "popularity": 2.587
        },
        {
            "id": 31800,
            "original_name": "Encantadia: Isang Bagong Mundo",
            "popularity": 0.6
        },
        {
            "id": 33149,
            "original_name": "Purasangre",
            "popularity": 3.304
        },
        {
            "id": 33499,
            "original_name": "Sanjog Se Bani Sangini",
            "popularity": 0.84
        },
        {
            "id": 38955,
            "original_name": "Por Derecho de Sangre",
            "popularity": 0.6
        },
        {
            "id": 39178,
            "original_name": "Blusang Itim",
            "popularity": 0.6
        },
        {
            "id": 40082,
            "original_name": "Pahiram ng Isang Ina",
            "popularity": 0.6
        },
        {
            "id": 40400,
            "original_name": "La\u00e7os de Sangue",
            "popularity": 0.939
        },
        {
            "id": 46537,
            "original_name": "Sangre Fr\u00eda",
            "popularity": 0.6
        },
        {
            "id": 51389,
            "original_name": "Arupusu sangaku ky\u00fbjotai Shimon Ikki 9: Hakuba Sangaku tsu\u00e2 tenk\u00fb no misshitsu satsujin",
            "popularity": 0.6
        },
        {
            "id": 52634,
            "original_name": "Sang Idola Siti Nurhaliza",
            "popularity": 0.6
        },
        {
            "id": 53583,
            "original_name": "Soo Sang Tawan",
            "popularity": 0.6
        },
        {
            "id": 57256,
            "original_name": "Alf Pr\u00f8ysens Barnesanger",
            "popularity": 0.6
        },
        {
            "id": 58191,
            "original_name": "Isang Dakot Na Luha",
            "popularity": 0.6
        },
        {
            "id": 58404,
            "original_name": "One Day, Isang Araw",
            "popularity": 0.654
        },
        {
            "id": 58667,
            "original_name": "May Isang Pangarap",
            "popularity": 0.6
        },
        {
            "id": 59585,
            "original_name": "Mga Basang Sisiw",
            "popularity": 0.6
        },
        {
            "id": 60237,
            "original_name": "[REC]\u00b3 G\u00e9nesis: preparativos de una boda sangrienta",
            "popularity": 0.6
        },
        {
            "id": 60707,
            "original_name": "Sangue caldo",
            "popularity": 1.551
        },
        {
            "id": 63264,
            "original_name": "Piratas: El tesoro perdido de Y\u00e1\u00f1ez el sanguinario",
            "popularity": 2.169
        },
        {
            "id": 69750,
            "original_name": "Awak Sangat Nakal",
            "popularity": 0.6
        },
        {
            "id": 72187,
            "original_name": "Le sanglot des anges",
            "popularity": 0.809
        },
        {
            "id": 73066,
            "original_name": "La Luna Sangre",
            "popularity": 1.4
        },
        {
            "id": 74917,
            "original_name": "Le sang de la vigne",
            "popularity": 1.717
        },
        {
            "id": 77355,
            "original_name": "La poup\u00e9e sanglante",
            "popularity": 0.6
        },
        {
            "id": 78558,
            "original_name": "Anime e Sangue",
            "popularity": 2.147
        },
        {
            "id": 81165,
            "original_name": "Lazos de sangre",
            "popularity": 4.528
        },
        {
            "id": 81938,
            "original_name": "Pacto de Sangue",
            "popularity": 1.679
        },
        {
            "id": 82567,
            "original_name": "Pacto de sangre",
            "popularity": 3.329
        },
        {
            "id": 83235,
            "original_name": "Sangre de mi Tierra",
            "popularity": 2.167
        },
        {
            "id": 86060,
            "original_name": "Sangue Bom",
            "popularity": 7.532
        },
        {
            "id": 90646,
            "original_name": "Allsang p\u00e5 grensen",
            "popularity": 1.146
        },
        {
            "id": 92289,
            "original_name": "Lo llevamos en la sangre",
            "popularity": 0.6
        },
        {
            "id": 93280,
            "original_name": "En.trekant.en.sang",
            "popularity": 0.6
        },
        {
            "id": 93681,
            "original_name": "Isteri Dalam Sangkar",
            "popularity": 1.208
        },
        {
            "id": 95504,
            "original_name": "Bon Sang",
            "popularity": 0.6
        },
        {
            "id": 98810,
            "original_name": "Les Borgia ou le sang dor\u00e9",
            "popularity": 0.6
        },
        {
            "id": 103359,
            "original_name": "Du sang neuf au zoo de Zurich",
            "popularity": 0.6
        },
        {
            "id": 104966,
            "original_name": "Sangharsha",
            "popularity": 0.6
        },
        {
            "id": 105243,
            "original_name": "Lens, de sang et d'or",
            "popularity": 0.84
        },
        {
            "id": 107158,
            "original_name": "Hilo de Sangre Azul",
            "popularity": 0.6
        },
        {
            "id": 110187,
            "original_name": "Swami Ramdev Ek Sangharsh",
            "popularity": 1.185
        },
        {
            "id": 110350,
            "original_name": "Cabane \u00e0 sang",
            "popularity": 0.6
        },
        {
            "id": 111165,
            "original_name": "D\u00e9colonisations : du sang et des larmes",
            "popularity": 1.176
        },
        {
            "id": 114356,
            "original_name": "Kampong Pisang Bersiri-Siri",
            "popularity": 1.091
        },
        {
            "id": 115081,
            "original_name": "Pura Sangre",
            "popularity": 3.599
        },
        {
            "id": 117323,
            "original_name": "Hit med sangen",
            "popularity": 1.495
        },
        {
            "id": 117413,
            "original_name": "De Pura Sangre",
            "popularity": 2.258
        },
        {
            "id": 127116,
            "original_name": "O Meu Sangue",
            "popularity": 0.6
        },
        {
            "id": 127288,
            "original_name": "Dit liv er en sang",
            "popularity": 0.6
        },
        {
            "id": 127469,
            "original_name": "Syng min sang",
            "popularity": 0.6
        },
        {
            "id": 130106,
            "original_name": "Il sangue e la rosa",
            "popularity": 0.622
        },
        {
            "id": 131132,
            "original_name": "Cik Ayu Mee Sanggul",
            "popularity": 0.791
        },
        {
            "id": 133481,
            "original_name": "Morgensang med Ramasjang",
            "popularity": 0.6
        },
        {
            "id": 136944,
            "original_name": "Zila Sangrur",
            "popularity": 1.96
        },
        {
            "id": 138666,
            "original_name": "Noite Sangrenta",
            "popularity": 0.6
        },
        {
            "id": 139187,
            "original_name": "Din sang",
            "popularity": 6.204
        }
    ],
    "relations": [
        {
            "character": "sange"
        },
        {
            "character": "sangr"
        },
        {
            "character": "sangu"
        },
        {
            "character": "sanga"
        },
        {
            "character": "sango"
        },
        {
            "character": "sangi"
        },
        {
            "character": "sangl"
        },
        {
            "character": "sangk"
        },
        {
            "character": "sangh"
        },
        {
            "character": "sangg"
        }
    ],
    "top20": [
        {
            "id": 7022,
            "original_name": "Fuego en la Sangre",
            "popularity": 9.521
        },
        {
            "id": 86060,
            "original_name": "Sangue Bom",
            "popularity": 7.532
        },
        {
            "id": 139187,
            "original_name": "Din sang",
            "popularity": 6.204
        },
        {
            "id": 81165,
            "original_name": "Lazos de sangre",
            "popularity": 4.528
        },
        {
            "id": 3734,
            "original_name": "Ballykissangel",
            "popularity": 3.674
        },
        {
            "id": 115081,
            "original_name": "Pura Sangre",
            "popularity": 3.599
        },
        {
            "id": 82567,
            "original_name": "Pacto de sangre",
            "popularity": 3.329
        },
        {
            "id": 33149,
            "original_name": "Purasangre",
            "popularity": 3.304
        },
        {
            "id": 24160,
            "original_name": "Sangokushi",
            "popularity": 2.587
        },
        {
            "id": 117413,
            "original_name": "De Pura Sangre",
            "popularity": 2.258
        },
        {
            "id": 63264,
            "original_name": "Piratas: El tesoro perdido de Y\u00e1\u00f1ez el sanguinario",
            "popularity": 2.169
        },
        {
            "id": 83235,
            "original_name": "Sangre de mi Tierra",
            "popularity": 2.167
        },
        {
            "id": 78558,
            "original_name": "Anime e Sangue",
            "popularity": 2.147
        },
        {
            "id": 136944,
            "original_name": "Zila Sangrur",
            "popularity": 1.96
        },
        {
            "id": 74917,
            "original_name": "Le sang de la vigne",
            "popularity": 1.717
        },
        {
            "id": 81938,
            "original_name": "Pacto de Sangue",
            "popularity": 1.679
        },
        {
            "id": 60707,
            "original_name": "Sangue caldo",
            "popularity": 1.551
        },
        {
            "id": 117323,
            "original_name": "Hit med sangen",
            "popularity": 1.495
        },
        {
            "id": 16150,
            "original_name": "Pura Sangre",
            "popularity": 1.462
        },
        {
            "id": 73066,
            "original_name": "La Luna Sangre",
            "popularity": 1.4
        }
    ]
}