{
    "data": [
        {
            "id": 11630,
            "original_name": "Saracen",
            "popularity": 1.4
        }
    ],
    "relations": [],
    "top20": [
        {
            "id": 11630,
            "original_name": "Saracen",
            "popularity": 1.4
        }
    ]
}