{
    "data": [
        {
            "id": 50424,
            "original_name": "Saudara Oesman",
            "popularity": 0.6
        },
        {
            "id": 76257,
            "original_name": "House of Saud: A Family at War",
            "popularity": 0.941
        }
    ],
    "relations": [],
    "top20": [
        {
            "id": 50424,
            "original_name": "Saudara Oesman",
            "popularity": 0.6
        },
        {
            "id": 76257,
            "original_name": "House of Saud: A Family at War",
            "popularity": 0.941
        }
    ]
}