{
    "data": [
        {
            "id": 7670,
            "original_name": "Greensburg",
            "popularity": 1.769
        },
        {
            "id": 12801,
            "original_name": "Piggsburg Pigs!",
            "popularity": 0.6
        },
        {
            "id": 14193,
            "original_name": "Pittsburgh's Talking",
            "popularity": 0.6
        },
        {
            "id": 16739,
            "original_name": "Petsburgh USA",
            "popularity": 0.6
        },
        {
            "id": 20350,
            "original_name": "Pittsburgh Penguins Confidential",
            "popularity": 0.6
        },
        {
            "id": 24952,
            "original_name": "Making It Home: Greensburg",
            "popularity": 0.6
        },
        {
            "id": 40628,
            "original_name": "Ralphi \u2013 Der Schlaub\u00e4r aus der Augsburger Puppenkiste",
            "popularity": 0.6
        },
        {
            "id": 41169,
            "original_name": "Augsburger Puppenkiste - Lilalu im Schepperland",
            "popularity": 0.6
        },
        {
            "id": 42771,
            "original_name": "Gettysburg",
            "popularity": 0.6
        },
        {
            "id": 46462,
            "original_name": "McCartney In St. Petersburg",
            "popularity": 0.6
        },
        {
            "id": 46987,
            "original_name": "Gettysburg",
            "popularity": 0.6
        },
        {
            "id": 49742,
            "original_name": "Previn and the Pittsburgh",
            "popularity": 0.6
        },
        {
            "id": 53199,
            "original_name": "Pittsburgh Penguins: In the Room",
            "popularity": 0.6
        },
        {
            "id": 57270,
            "original_name": "The World Against Apartheid: Have You Heard from Johannesburg?",
            "popularity": 0.844
        },
        {
            "id": 60583,
            "original_name": "Augsburger Puppenkiste - Katze mit Hut",
            "popularity": 0.6
        },
        {
            "id": 68886,
            "original_name": "Sonnigsburg",
            "popularity": 0.6
        },
        {
            "id": 75822,
            "original_name": "Augsburger Puppenkiste - Zauberer Schmollo",
            "popularity": 0.6
        },
        {
            "id": 84440,
            "original_name": "NFL: Pittsburgh Steelers - Road to XLIII",
            "popularity": 0.6
        },
        {
            "id": 95025,
            "original_name": "Augsburger Puppenkiste - Don Blech und der goldene Junker",
            "popularity": 0.6
        },
        {
            "id": 95026,
            "original_name": "Augsburger Puppenkiste - Neues von der Katze mit Hut",
            "popularity": 0.6
        },
        {
            "id": 104863,
            "original_name": "Augsburger Puppenkiste - Drachen hat nicht jeder",
            "popularity": 0.6
        },
        {
            "id": 104866,
            "original_name": "Augsburger Puppenkiste - 3:0 f\u00fcr die B\u00e4rte",
            "popularity": 0.6
        },
        {
            "id": 105368,
            "original_name": "Augsburger Puppenkiste - Jim Knopf und die Wilde 13",
            "popularity": 0.6
        },
        {
            "id": 110953,
            "original_name": "The Habsburg Empire",
            "popularity": 0.842
        },
        {
            "id": 112016,
            "original_name": "Inside SG Flensburg-Handewitt",
            "popularity": 0.6
        },
        {
            "id": 114060,
            "original_name": "Weihnachten mit der Augsburger Puppenkiste",
            "popularity": 0.6
        },
        {
            "id": 126149,
            "original_name": "The Real Housewives of Johannesburg",
            "popularity": 1.4
        },
        {
            "id": 133907,
            "original_name": "Dringend Tatverd\u00e4chtig - Duisburg Crime Stories",
            "popularity": 0.6
        },
        {
            "id": 139212,
            "original_name": "Build It Bigger: Rebuilding Greensburg",
            "popularity": 0.6
        },
        {
            "id": 139441,
            "original_name": "Der Flensburg-Krimi",
            "popularity": 2.079
        }
    ],
    "relations": [
        {
            "character": "sburgh"
        },
        {
            "character": "sburge"
        },
        {
            "character": "sburg?"
        }
    ],
    "top20": [
        {
            "id": 139441,
            "original_name": "Der Flensburg-Krimi",
            "popularity": 2.079
        },
        {
            "id": 7670,
            "original_name": "Greensburg",
            "popularity": 1.769
        },
        {
            "id": 126149,
            "original_name": "The Real Housewives of Johannesburg",
            "popularity": 1.4
        },
        {
            "id": 57270,
            "original_name": "The World Against Apartheid: Have You Heard from Johannesburg?",
            "popularity": 0.844
        },
        {
            "id": 110953,
            "original_name": "The Habsburg Empire",
            "popularity": 0.842
        },
        {
            "id": 60583,
            "original_name": "Augsburger Puppenkiste - Katze mit Hut",
            "popularity": 0.6
        },
        {
            "id": 16739,
            "original_name": "Petsburgh USA",
            "popularity": 0.6
        },
        {
            "id": 12801,
            "original_name": "Piggsburg Pigs!",
            "popularity": 0.6
        },
        {
            "id": 42771,
            "original_name": "Gettysburg",
            "popularity": 0.6
        },
        {
            "id": 46462,
            "original_name": "McCartney In St. Petersburg",
            "popularity": 0.6
        },
        {
            "id": 40628,
            "original_name": "Ralphi \u2013 Der Schlaub\u00e4r aus der Augsburger Puppenkiste",
            "popularity": 0.6
        },
        {
            "id": 41169,
            "original_name": "Augsburger Puppenkiste - Lilalu im Schepperland",
            "popularity": 0.6
        },
        {
            "id": 75822,
            "original_name": "Augsburger Puppenkiste - Zauberer Schmollo",
            "popularity": 0.6
        },
        {
            "id": 53199,
            "original_name": "Pittsburgh Penguins: In the Room",
            "popularity": 0.6
        },
        {
            "id": 14193,
            "original_name": "Pittsburgh's Talking",
            "popularity": 0.6
        },
        {
            "id": 24952,
            "original_name": "Making It Home: Greensburg",
            "popularity": 0.6
        },
        {
            "id": 68886,
            "original_name": "Sonnigsburg",
            "popularity": 0.6
        },
        {
            "id": 49742,
            "original_name": "Previn and the Pittsburgh",
            "popularity": 0.6
        },
        {
            "id": 46987,
            "original_name": "Gettysburg",
            "popularity": 0.6
        },
        {
            "id": 20350,
            "original_name": "Pittsburgh Penguins Confidential",
            "popularity": 0.6
        }
    ]
}