{
    "data": [
        {
            "id": 486,
            "original_name": "Captain Scarlet and the Mysterons",
            "popularity": 4.768
        },
        {
            "id": 753,
            "original_name": "The Scarlet Pimpernel",
            "popularity": 6.065
        },
        {
            "id": 8971,
            "original_name": "Captain Scarlet vs the Mysterons",
            "popularity": 0.6
        },
        {
            "id": 12027,
            "original_name": "Scarlett Hill",
            "popularity": 0.6
        },
        {
            "id": 13121,
            "original_name": "Gerry Anderson's New Captain Scarlet",
            "popularity": 1.901
        },
        {
            "id": 15724,
            "original_name": "Scarlett",
            "popularity": 5.227
        },
        {
            "id": 21149,
            "original_name": "The Adventures of the Scarlet Pimpernel",
            "popularity": 1.393
        },
        {
            "id": 35260,
            "original_name": "The Scarlet Letter",
            "popularity": 2.69
        },
        {
            "id": 39172,
            "original_name": "Scarlet and Black",
            "popularity": 2.488
        },
        {
            "id": 59254,
            "original_name": "Mariana & Scarlett",
            "popularity": 2.079
        },
        {
            "id": 62515,
            "original_name": "Punta Escarlata",
            "popularity": 1.319
        },
        {
            "id": 96212,
            "original_name": "The Scarlet Letter Reports",
            "popularity": 0.6
        },
        {
            "id": 96450,
            "original_name": "Miss Scarlet and the Duke",
            "popularity": 11.304
        },
        {
            "id": 121131,
            "original_name": "SCARLET NEXUS",
            "popularity": 62.686
        },
        {
            "id": 130192,
            "original_name": "Scarlett's Lab",
            "popularity": 4.292
        },
        {
            "id": 138957,
            "original_name": "scarletamou",
            "popularity": 3.109
        }
    ],
    "relations": [],
    "top20": [
        {
            "id": 486,
            "original_name": "Captain Scarlet and the Mysterons",
            "popularity": 4.768
        },
        {
            "id": 753,
            "original_name": "The Scarlet Pimpernel",
            "popularity": 6.065
        },
        {
            "id": 8971,
            "original_name": "Captain Scarlet vs the Mysterons",
            "popularity": 0.6
        },
        {
            "id": 12027,
            "original_name": "Scarlett Hill",
            "popularity": 0.6
        },
        {
            "id": 13121,
            "original_name": "Gerry Anderson's New Captain Scarlet",
            "popularity": 1.901
        },
        {
            "id": 15724,
            "original_name": "Scarlett",
            "popularity": 5.227
        },
        {
            "id": 21149,
            "original_name": "The Adventures of the Scarlet Pimpernel",
            "popularity": 1.393
        },
        {
            "id": 35260,
            "original_name": "The Scarlet Letter",
            "popularity": 2.69
        },
        {
            "id": 39172,
            "original_name": "Scarlet and Black",
            "popularity": 2.488
        },
        {
            "id": 59254,
            "original_name": "Mariana & Scarlett",
            "popularity": 2.079
        },
        {
            "id": 62515,
            "original_name": "Punta Escarlata",
            "popularity": 1.319
        },
        {
            "id": 96212,
            "original_name": "The Scarlet Letter Reports",
            "popularity": 0.6
        },
        {
            "id": 96450,
            "original_name": "Miss Scarlet and the Duke",
            "popularity": 11.304
        },
        {
            "id": 121131,
            "original_name": "SCARLET NEXUS",
            "popularity": 62.686
        },
        {
            "id": 130192,
            "original_name": "Scarlett's Lab",
            "popularity": 4.292
        },
        {
            "id": 138957,
            "original_name": "scarletamou",
            "popularity": 3.109
        }
    ]
}