{
    "data": [
        {
            "id": 704,
            "original_name": "SportsCenter",
            "popularity": 1.529
        },
        {
            "id": 10880,
            "original_name": "SportsCenterU",
            "popularity": 0.6
        },
        {
            "id": 18554,
            "original_name": "BassCenter",
            "popularity": 0.6
        },
        {
            "id": 34006,
            "original_name": "Northland's NewsCenter",
            "popularity": 0.6
        },
        {
            "id": 44965,
            "original_name": "Adolescentes Rebeldes",
            "popularity": 0.6
        },
        {
            "id": 56881,
            "original_name": "SportsCenter Australia",
            "popularity": 0.6
        },
        {
            "id": 57580,
            "original_name": "NewsCenter 7 Nightbeat",
            "popularity": 0.6
        },
        {
            "id": 62577,
            "original_name": "90-60-90, diario secreto de una adolescente",
            "popularity": 2.224
        },
        {
            "id": 80283,
            "original_name": "Sol Nascente",
            "popularity": 5.329
        },
        {
            "id": 88648,
            "original_name": "Confiss\u00f5es de Adolescente",
            "popularity": 1.868
        },
        {
            "id": 106630,
            "original_name": "Aventuras de un lobo adolescente",
            "popularity": 16.777
        }
    ],
    "relations": [],
    "top20": [
        {
            "id": 704,
            "original_name": "SportsCenter",
            "popularity": 1.529
        },
        {
            "id": 10880,
            "original_name": "SportsCenterU",
            "popularity": 0.6
        },
        {
            "id": 18554,
            "original_name": "BassCenter",
            "popularity": 0.6
        },
        {
            "id": 34006,
            "original_name": "Northland's NewsCenter",
            "popularity": 0.6
        },
        {
            "id": 44965,
            "original_name": "Adolescentes Rebeldes",
            "popularity": 0.6
        },
        {
            "id": 56881,
            "original_name": "SportsCenter Australia",
            "popularity": 0.6
        },
        {
            "id": 57580,
            "original_name": "NewsCenter 7 Nightbeat",
            "popularity": 0.6
        },
        {
            "id": 62577,
            "original_name": "90-60-90, diario secreto de una adolescente",
            "popularity": 2.224
        },
        {
            "id": 80283,
            "original_name": "Sol Nascente",
            "popularity": 5.329
        },
        {
            "id": 88648,
            "original_name": "Confiss\u00f5es de Adolescente",
            "popularity": 1.868
        },
        {
            "id": 106630,
            "original_name": "Aventuras de un lobo adolescente",
            "popularity": 16.777
        }
    ]
}