{
    "data": [
        {
            "id": 62739,
            "original_name": "Das ist Stern schnuppe",
            "popularity": 0.634
        }
    ],
    "relations": [],
    "top20": [
        {
            "id": 62739,
            "original_name": "Das ist Stern schnuppe",
            "popularity": 0.634
        }
    ]
}