{
    "data": [
        {
            "id": 5685,
            "original_name": "Scoop and Doozie",
            "popularity": 0.6
        },
        {
            "id": 23873,
            "original_name": "Scoop (UK)",
            "popularity": 0.6
        },
        {
            "id": 24243,
            "original_name": "Scoop (AU)",
            "popularity": 0.84
        },
        {
            "id": 64799,
            "original_name": "Scoop",
            "popularity": 2.573
        },
        {
            "id": 86170,
            "original_name": "The Scoop",
            "popularity": 0.6
        },
        {
            "id": 87132,
            "original_name": "SCOOP",
            "popularity": 0.6
        },
        {
            "id": 88339,
            "original_name": "Scoop With Raya",
            "popularity": 0.6
        },
        {
            "id": 98692,
            "original_name": "Ollie & Scoops",
            "popularity": 2.719
        }
    ],
    "relations": [],
    "top20": [
        {
            "id": 5685,
            "original_name": "Scoop and Doozie",
            "popularity": 0.6
        },
        {
            "id": 23873,
            "original_name": "Scoop (UK)",
            "popularity": 0.6
        },
        {
            "id": 24243,
            "original_name": "Scoop (AU)",
            "popularity": 0.84
        },
        {
            "id": 64799,
            "original_name": "Scoop",
            "popularity": 2.573
        },
        {
            "id": 86170,
            "original_name": "The Scoop",
            "popularity": 0.6
        },
        {
            "id": 87132,
            "original_name": "SCOOP",
            "popularity": 0.6
        },
        {
            "id": 88339,
            "original_name": "Scoop With Raya",
            "popularity": 0.6
        },
        {
            "id": 98692,
            "original_name": "Ollie & Scoops",
            "popularity": 2.719
        }
    ]
}