{
    "data": [
        {
            "id": 60820,
            "original_name": "Super Skyscrapers",
            "popularity": 1.125
        },
        {
            "id": 89773,
            "original_name": "Skyscrapers: Engineering the Future",
            "popularity": 0.901
        },
        {
            "id": 100503,
            "original_name": "Secrets Of the World's Super Skyscrapers",
            "popularity": 0.6
        },
        {
            "id": 127834,
            "original_name": "World's Tallest Skyscrapers: Beyond the Clouds",
            "popularity": 0.6
        }
    ],
    "relations": [],
    "top20": [
        {
            "id": 60820,
            "original_name": "Super Skyscrapers",
            "popularity": 1.125
        },
        {
            "id": 89773,
            "original_name": "Skyscrapers: Engineering the Future",
            "popularity": 0.901
        },
        {
            "id": 100503,
            "original_name": "Secrets Of the World's Super Skyscrapers",
            "popularity": 0.6
        },
        {
            "id": 127834,
            "original_name": "World's Tallest Skyscrapers: Beyond the Clouds",
            "popularity": 0.6
        }
    ]
}