{
    "data": [
        {
            "id": 5618,
            "original_name": "Escrava Isaura",
            "popularity": 1.784
        },
        {
            "id": 13179,
            "original_name": "A Escrava Isaura",
            "popularity": 13.043
        },
        {
            "id": 116407,
            "original_name": "Escrava M\u00e3e",
            "popularity": 0.909
        },
        {
            "id": 124359,
            "original_name": "Escravid\u00e3o \u2013 S\u00e9culo XXI",
            "popularity": 0.84
        }
    ],
    "relations": [],
    "top20": [
        {
            "id": 5618,
            "original_name": "Escrava Isaura",
            "popularity": 1.784
        },
        {
            "id": 13179,
            "original_name": "A Escrava Isaura",
            "popularity": 13.043
        },
        {
            "id": 116407,
            "original_name": "Escrava M\u00e3e",
            "popularity": 0.909
        },
        {
            "id": 124359,
            "original_name": "Escravid\u00e3o \u2013 S\u00e9culo XXI",
            "popularity": 0.84
        }
    ]
}