{
    "data": [
        {
            "id": 51265,
            "original_name": "Kiscsacsi kalandjai",
            "popularity": 0.6
        }
    ],
    "relations": [],
    "top20": [
        {
            "id": 51265,
            "original_name": "Kiscsacsi kalandjai",
            "popularity": 0.6
        }
    ]
}