{
    "data": [
        {
            "id": 91515,
            "original_name": "Velk\u00e9 sedlo",
            "popularity": 0.6
        }
    ],
    "relations": [],
    "top20": [
        {
            "id": 91515,
            "original_name": "Velk\u00e9 sedlo",
            "popularity": 0.6
        }
    ]
}