{
    "data": [
        {
            "id": 6550,
            "original_name": "Wiseguy",
            "popularity": 14.219
        },
        {
            "id": 32234,
            "original_name": "La Academia: Segunda Oportunidad",
            "popularity": 0.6
        },
        {
            "id": 32840,
            "original_name": "Bailando por un Sue\u00f1o: Segundo Campeonato Mundial de Baile",
            "popularity": 0.6
        },
        {
            "id": 55910,
            "original_name": "E\u00dcE segu",
            "popularity": 0.6
        },
        {
            "id": 57352,
            "original_name": "O Mundo Segundo os Brasileiros",
            "popularity": 0.6
        },
        {
            "id": 57600,
            "original_name": "La segunda guerra mundial en color",
            "popularity": 0.6
        },
        {
            "id": 62086,
            "original_name": "Battlefield: As maiores batalhas da Segunda Guerra",
            "popularity": 0.628
        },
        {
            "id": 62608,
            "original_name": "A Segunda Vez",
            "popularity": 1.117
        },
        {
            "id": 76001,
            "original_name": "2077 - 10 segundos para o Futuro",
            "popularity": 0.674
        },
        {
            "id": 79068,
            "original_name": "Segundo Sol",
            "popularity": 0.6
        },
        {
            "id": 79701,
            "original_name": "La Segunda Guerra Mundial",
            "popularity": 1.97
        },
        {
            "id": 80274,
            "original_name": "A Segunda Dama",
            "popularity": 0.6
        },
        {
            "id": 83856,
            "original_name": "Porque no Seguiste",
            "popularity": 0.6
        },
        {
            "id": 85770,
            "original_name": "10 Segundos para Vencer",
            "popularity": 0.6
        },
        {
            "id": 90311,
            "original_name": "Segunda Oportunidad",
            "popularity": 0.6
        },
        {
            "id": 92155,
            "original_name": "Ghost Brothers: Haunted Houseguests",
            "popularity": 0.665
        },
        {
            "id": 92342,
            "original_name": "Cuerpos de \u00c9lite de la Segunda Guerra Mundial",
            "popularity": 0.6
        },
        {
            "id": 94281,
            "original_name": "Segunda Chamada",
            "popularity": 2.195
        },
        {
            "id": 94450,
            "original_name": "Segunda Chamada",
            "popularity": 0.6
        },
        {
            "id": 99790,
            "original_name": "\u00bfPor qu\u00e9 no seguiste?",
            "popularity": 1.4
        },
        {
            "id": 101664,
            "original_name": "La Segunda Guerra Mundial en color",
            "popularity": 1.4
        },
        {
            "id": 102867,
            "original_name": "Perseguidos",
            "popularity": 0.6
        },
        {
            "id": 107084,
            "original_name": "Mi segunda madre",
            "popularity": 0.6
        },
        {
            "id": 114361,
            "original_name": "8 Segundos",
            "popularity": 0.6
        },
        {
            "id": 121038,
            "original_name": "Roc\u00edo, contar la verdad para seguir viva",
            "popularity": 18.087
        },
        {
            "id": 125504,
            "original_name": "S.O.S Seguridad ciudadana",
            "popularity": 0.6
        }
    ],
    "relations": [
        {
            "character": "seguy"
        },
        {
            "character": "segun"
        },
        {
            "character": "segui"
        },
        {
            "character": "segue"
        },
        {
            "character": "segur"
        }
    ],
    "top20": [
        {
            "id": 121038,
            "original_name": "Roc\u00edo, contar la verdad para seguir viva",
            "popularity": 18.087
        },
        {
            "id": 6550,
            "original_name": "Wiseguy",
            "popularity": 14.219
        },
        {
            "id": 94281,
            "original_name": "Segunda Chamada",
            "popularity": 2.195
        },
        {
            "id": 79701,
            "original_name": "La Segunda Guerra Mundial",
            "popularity": 1.97
        },
        {
            "id": 101664,
            "original_name": "La Segunda Guerra Mundial en color",
            "popularity": 1.4
        },
        {
            "id": 99790,
            "original_name": "\u00bfPor qu\u00e9 no seguiste?",
            "popularity": 1.4
        },
        {
            "id": 62608,
            "original_name": "A Segunda Vez",
            "popularity": 1.117
        },
        {
            "id": 76001,
            "original_name": "2077 - 10 segundos para o Futuro",
            "popularity": 0.674
        },
        {
            "id": 92155,
            "original_name": "Ghost Brothers: Haunted Houseguests",
            "popularity": 0.665
        },
        {
            "id": 62086,
            "original_name": "Battlefield: As maiores batalhas da Segunda Guerra",
            "popularity": 0.628
        },
        {
            "id": 83856,
            "original_name": "Porque no Seguiste",
            "popularity": 0.6
        },
        {
            "id": 79068,
            "original_name": "Segundo Sol",
            "popularity": 0.6
        },
        {
            "id": 32840,
            "original_name": "Bailando por un Sue\u00f1o: Segundo Campeonato Mundial de Baile",
            "popularity": 0.6
        },
        {
            "id": 57600,
            "original_name": "La segunda guerra mundial en color",
            "popularity": 0.6
        },
        {
            "id": 57352,
            "original_name": "O Mundo Segundo os Brasileiros",
            "popularity": 0.6
        },
        {
            "id": 90311,
            "original_name": "Segunda Oportunidad",
            "popularity": 0.6
        },
        {
            "id": 80274,
            "original_name": "A Segunda Dama",
            "popularity": 0.6
        },
        {
            "id": 32234,
            "original_name": "La Academia: Segunda Oportunidad",
            "popularity": 0.6
        },
        {
            "id": 55910,
            "original_name": "E\u00dcE segu",
            "popularity": 0.6
        },
        {
            "id": 85770,
            "original_name": "10 Segundos para Vencer",
            "popularity": 0.6
        }
    ]
}