{
    "data": [
        {
            "id": 60793,
            "original_name": "Selfie",
            "popularity": 4.514
        },
        {
            "id": 69043,
            "original_name": "HYPE - Das Selfie-Magazin",
            "popularity": 0.6
        },
        {
            "id": 69348,
            "original_name": "Mission Selfie",
            "popularity": 0.912
        },
        {
            "id": 79303,
            "original_name": "PM Selfiewallie",
            "popularity": 0.6
        },
        {
            "id": 83277,
            "original_name": "Un vrai selfie",
            "popularity": 1.229
        },
        {
            "id": 84009,
            "original_name": "#Struggles: Following Jesus in a Selfie-Centered World",
            "popularity": 0.6
        },
        {
            "id": 120266,
            "original_name": "True Selfie",
            "popularity": 0.603
        }
    ],
    "relations": [],
    "top20": [
        {
            "id": 60793,
            "original_name": "Selfie",
            "popularity": 4.514
        },
        {
            "id": 69043,
            "original_name": "HYPE - Das Selfie-Magazin",
            "popularity": 0.6
        },
        {
            "id": 69348,
            "original_name": "Mission Selfie",
            "popularity": 0.912
        },
        {
            "id": 79303,
            "original_name": "PM Selfiewallie",
            "popularity": 0.6
        },
        {
            "id": 83277,
            "original_name": "Un vrai selfie",
            "popularity": 1.229
        },
        {
            "id": 84009,
            "original_name": "#Struggles: Following Jesus in a Selfie-Centered World",
            "popularity": 0.6
        },
        {
            "id": 120266,
            "original_name": "True Selfie",
            "popularity": 0.603
        }
    ]
}