{
    "data": [
        {
            "id": 60953,
            "original_name": "Adnan Sempit: The Series",
            "popularity": 0.6
        },
        {
            "id": 80288,
            "original_name": "Cik Sempurna",
            "popularity": 1.74
        },
        {
            "id": 97885,
            "original_name": "Tolong Sempurnakan Cerita Mami",
            "popularity": 1.117
        },
        {
            "id": 123744,
            "original_name": "Tak Sempurna Mencintaimu",
            "popularity": 0.935
        },
        {
            "id": 129321,
            "original_name": "Semplicemente Pizza",
            "popularity": 0.6
        },
        {
            "id": 138218,
            "original_name": "Para Sempre",
            "popularity": 12.556
        }
    ],
    "relations": [],
    "top20": [
        {
            "id": 60953,
            "original_name": "Adnan Sempit: The Series",
            "popularity": 0.6
        },
        {
            "id": 80288,
            "original_name": "Cik Sempurna",
            "popularity": 1.74
        },
        {
            "id": 97885,
            "original_name": "Tolong Sempurnakan Cerita Mami",
            "popularity": 1.117
        },
        {
            "id": 123744,
            "original_name": "Tak Sempurna Mencintaimu",
            "popularity": 0.935
        },
        {
            "id": 129321,
            "original_name": "Semplicemente Pizza",
            "popularity": 0.6
        },
        {
            "id": 138218,
            "original_name": "Para Sempre",
            "popularity": 12.556
        }
    ]
}