{
    "data": [
        {
            "id": 130510,
            "original_name": "Lost Women Art - Ein vergessenes St\u00fcck Kunstgeschichte",
            "popularity": 0.84
        }
    ],
    "relations": [],
    "top20": [
        {
            "id": 130510,
            "original_name": "Lost Women Art - Ein vergessenes St\u00fcck Kunstgeschichte",
            "popularity": 0.84
        }
    ]
}