{
    "data": [
        {
            "id": 3270,
            "original_name": "Sineserye Presents",
            "popularity": 0.6
        },
        {
            "id": 5641,
            "original_name": "Nursery Rhymes",
            "popularity": 0.6
        },
        {
            "id": 6885,
            "original_name": "Sineserye Presents: Maligno",
            "popularity": 0.6
        },
        {
            "id": 7538,
            "original_name": "Misery Guts",
            "popularity": 1.4
        },
        {
            "id": 21679,
            "original_name": "SRO Cinemaserye: The Eva Castillo Story",
            "popularity": 0.6
        },
        {
            "id": 21719,
            "original_name": "SRO Cinemaserye: Suspetsa",
            "popularity": 0.6
        },
        {
            "id": 24334,
            "original_name": "Nursery School Time",
            "popularity": 0.6
        },
        {
            "id": 26414,
            "original_name": "Create Your Baby's Nursery",
            "popularity": 0.6
        },
        {
            "id": 28627,
            "original_name": "Misery Loves Company",
            "popularity": 1.746
        },
        {
            "id": 33685,
            "original_name": "Nursery School Time",
            "popularity": 0.6
        },
        {
            "id": 38304,
            "original_name": "Mr Bloom's Nursery",
            "popularity": 0.88
        },
        {
            "id": 54799,
            "original_name": "Malafat Serya",
            "popularity": 0.6
        },
        {
            "id": 55729,
            "original_name": "Mr Bloom's Nursery Get Set Grow",
            "popularity": 0.6
        },
        {
            "id": 84387,
            "original_name": "Disney Junior Music Nursery Rhymes",
            "popularity": 1.4
        },
        {
            "id": 92670,
            "original_name": "The Misery Index",
            "popularity": 1.845
        },
        {
            "id": 98385,
            "original_name": "Zoo nursery Berlin",
            "popularity": 0.6
        },
        {
            "id": 103676,
            "original_name": "Learning Songs by Little Baby Bum  Nursery Rhyme Friends",
            "popularity": 0.6
        },
        {
            "id": 110300,
            "original_name": "Play School Nursery Rhyme News Time",
            "popularity": 0.6
        },
        {
            "id": 115100,
            "original_name": "Naughty Nursery",
            "popularity": 0.6
        },
        {
            "id": 120606,
            "original_name": "Britain's Naughtiest Nursery",
            "popularity": 0.6
        },
        {
            "id": 120866,
            "original_name": "Pocoy\u00f3 Nursery Rhymes",
            "popularity": 1.178
        }
    ],
    "relations": [
        {
            "character": "serye"
        },
        {
            "character": "serya"
        }
    ],
    "top20": [
        {
            "id": 92670,
            "original_name": "The Misery Index",
            "popularity": 1.845
        },
        {
            "id": 28627,
            "original_name": "Misery Loves Company",
            "popularity": 1.746
        },
        {
            "id": 84387,
            "original_name": "Disney Junior Music Nursery Rhymes",
            "popularity": 1.4
        },
        {
            "id": 7538,
            "original_name": "Misery Guts",
            "popularity": 1.4
        },
        {
            "id": 120866,
            "original_name": "Pocoy\u00f3 Nursery Rhymes",
            "popularity": 1.178
        },
        {
            "id": 38304,
            "original_name": "Mr Bloom's Nursery",
            "popularity": 0.88
        },
        {
            "id": 3270,
            "original_name": "Sineserye Presents",
            "popularity": 0.6
        },
        {
            "id": 6885,
            "original_name": "Sineserye Presents: Maligno",
            "popularity": 0.6
        },
        {
            "id": 98385,
            "original_name": "Zoo nursery Berlin",
            "popularity": 0.6
        },
        {
            "id": 54799,
            "original_name": "Malafat Serya",
            "popularity": 0.6
        },
        {
            "id": 5641,
            "original_name": "Nursery Rhymes",
            "popularity": 0.6
        },
        {
            "id": 24334,
            "original_name": "Nursery School Time",
            "popularity": 0.6
        },
        {
            "id": 103676,
            "original_name": "Learning Songs by Little Baby Bum  Nursery Rhyme Friends",
            "popularity": 0.6
        },
        {
            "id": 21679,
            "original_name": "SRO Cinemaserye: The Eva Castillo Story",
            "popularity": 0.6
        },
        {
            "id": 55729,
            "original_name": "Mr Bloom's Nursery Get Set Grow",
            "popularity": 0.6
        },
        {
            "id": 115100,
            "original_name": "Naughty Nursery",
            "popularity": 0.6
        },
        {
            "id": 21719,
            "original_name": "SRO Cinemaserye: Suspetsa",
            "popularity": 0.6
        },
        {
            "id": 26414,
            "original_name": "Create Your Baby's Nursery",
            "popularity": 0.6
        },
        {
            "id": 33685,
            "original_name": "Nursery School Time",
            "popularity": 0.6
        },
        {
            "id": 110300,
            "original_name": "Play School Nursery Rhyme News Time",
            "popularity": 0.6
        }
    ]
}