{
    "data": [
        {
            "id": 24894,
            "original_name": "Pickersgill People",
            "popularity": 0.6
        }
    ],
    "relations": [],
    "top20": [
        {
            "id": 24894,
            "original_name": "Pickersgill People",
            "popularity": 0.6
        }
    ]
}