{
    "data": [
        {
            "id": 8718,
            "original_name": "Will Shakespeare",
            "popularity": 0.62
        },
        {
            "id": 13562,
            "original_name": "ShakespeaRe-Told",
            "popularity": 2.842
        },
        {
            "id": 18222,
            "original_name": "BBC Television Shakespeare",
            "popularity": 8.213
        },
        {
            "id": 22788,
            "original_name": "In Search of Shakespeare",
            "popularity": 0.743
        },
        {
            "id": 25085,
            "original_name": "Life of Shakespeare",
            "popularity": 3.085
        },
        {
            "id": 25735,
            "original_name": "Shakespeare Shorts",
            "popularity": 0.844
        },
        {
            "id": 25858,
            "original_name": "Playing Shakespeare",
            "popularity": 2.909
        },
        {
            "id": 25933,
            "original_name": "A Taste of Shakespeare",
            "popularity": 1.34
        },
        {
            "id": 29514,
            "original_name": "Shakespeare Lives!",
            "popularity": 0.6
        },
        {
            "id": 47361,
            "original_name": "Shakespeare: The Animated Tales",
            "popularity": 2.58
        },
        {
            "id": 47499,
            "original_name": "Shakespeare's Stories",
            "popularity": 0.6
        },
        {
            "id": 47687,
            "original_name": "Shakespeare On the Estate",
            "popularity": 0.6
        },
        {
            "id": 47820,
            "original_name": "Shakespeare Tragedies: Macbeth",
            "popularity": 0.6
        },
        {
            "id": 56337,
            "original_name": "Shakespeare: Soul of an Age",
            "popularity": 0.6
        },
        {
            "id": 57747,
            "original_name": "Shakespeare Uncovered",
            "popularity": 2.544
        },
        {
            "id": 77206,
            "original_name": "Simon Schama's Shakespeare",
            "popularity": 1.841
        },
        {
            "id": 77493,
            "original_name": "Shakespeare & Hathaway - Private Investigators",
            "popularity": 7.288
        },
        {
            "id": 77809,
            "original_name": "Curious Minds:  Shakespeare",
            "popularity": 0.6
        },
        {
            "id": 77883,
            "original_name": "Shakespeare And Us",
            "popularity": 0.6
        },
        {
            "id": 114393,
            "original_name": "Shakespeares skjulte koder",
            "popularity": 0.843
        },
        {
            "id": 138905,
            "original_name": "Die Entschl\u00fcsselung des Shakespeare Codes",
            "popularity": 0.6
        },
        {
            "id": 146103,
            "original_name": "Za Shakespearem s Martinem Hilsk\u00fdm",
            "popularity": 1.4
        }
    ],
    "relations": [
        {
            "character": "shakespear"
        }
    ],
    "top20": [
        {
            "id": 18222,
            "original_name": "BBC Television Shakespeare",
            "popularity": 8.213
        },
        {
            "id": 77493,
            "original_name": "Shakespeare & Hathaway - Private Investigators",
            "popularity": 7.288
        },
        {
            "id": 25085,
            "original_name": "Life of Shakespeare",
            "popularity": 3.085
        },
        {
            "id": 25858,
            "original_name": "Playing Shakespeare",
            "popularity": 2.909
        },
        {
            "id": 13562,
            "original_name": "ShakespeaRe-Told",
            "popularity": 2.842
        },
        {
            "id": 47361,
            "original_name": "Shakespeare: The Animated Tales",
            "popularity": 2.58
        },
        {
            "id": 57747,
            "original_name": "Shakespeare Uncovered",
            "popularity": 2.544
        },
        {
            "id": 77206,
            "original_name": "Simon Schama's Shakespeare",
            "popularity": 1.841
        },
        {
            "id": 146103,
            "original_name": "Za Shakespearem s Martinem Hilsk\u00fdm",
            "popularity": 1.4
        },
        {
            "id": 25933,
            "original_name": "A Taste of Shakespeare",
            "popularity": 1.34
        },
        {
            "id": 25735,
            "original_name": "Shakespeare Shorts",
            "popularity": 0.844
        },
        {
            "id": 114393,
            "original_name": "Shakespeares skjulte koder",
            "popularity": 0.843
        },
        {
            "id": 22788,
            "original_name": "In Search of Shakespeare",
            "popularity": 0.743
        },
        {
            "id": 8718,
            "original_name": "Will Shakespeare",
            "popularity": 0.62
        },
        {
            "id": 47687,
            "original_name": "Shakespeare On the Estate",
            "popularity": 0.6
        },
        {
            "id": 47499,
            "original_name": "Shakespeare's Stories",
            "popularity": 0.6
        },
        {
            "id": 56337,
            "original_name": "Shakespeare: Soul of an Age",
            "popularity": 0.6
        },
        {
            "id": 77809,
            "original_name": "Curious Minds:  Shakespeare",
            "popularity": 0.6
        },
        {
            "id": 29514,
            "original_name": "Shakespeare Lives!",
            "popularity": 0.6
        },
        {
            "id": 47820,
            "original_name": "Shakespeare Tragedies: Macbeth",
            "popularity": 0.6
        }
    ]
}