{
    "data": [
        {
            "id": 22368,
            "original_name": "Big Shamus, Little Shamus",
            "popularity": 1.743
        }
    ],
    "relations": [],
    "top20": [
        {
            "id": 22368,
            "original_name": "Big Shamus, Little Shamus",
            "popularity": 1.743
        }
    ]
}