{
    "data": [
        {
            "id": 5076,
            "original_name": "Titan Antakshari",
            "popularity": 0.6
        },
        {
            "id": 7949,
            "original_name": "Antakshari \u2013 The Great Challenge",
            "popularity": 0.6
        },
        {
            "id": 11886,
            "original_name": "The Sharing Circle",
            "popularity": 1.59
        },
        {
            "id": 13668,
            "original_name": "Antakshari Intercollegiate Championship",
            "popularity": 0.6
        },
        {
            "id": 13722,
            "original_name": "Shariah TV",
            "popularity": 0.6
        },
        {
            "id": 14592,
            "original_name": "The Shari Lewis Show",
            "popularity": 0.6
        },
        {
            "id": 16750,
            "original_name": "Sprout Sharing Show",
            "popularity": 0.6
        },
        {
            "id": 65534,
            "original_name": "Sharing Economy",
            "popularity": 0.6
        },
        {
            "id": 68812,
            "original_name": "Take a Seat: Sharing a Ride Across America",
            "popularity": 0.6
        },
        {
            "id": 112996,
            "original_name": "Twin Life: Sharing Mind and Body",
            "popularity": 0.6
        }
    ],
    "relations": [],
    "top20": [
        {
            "id": 5076,
            "original_name": "Titan Antakshari",
            "popularity": 0.6
        },
        {
            "id": 7949,
            "original_name": "Antakshari \u2013 The Great Challenge",
            "popularity": 0.6
        },
        {
            "id": 11886,
            "original_name": "The Sharing Circle",
            "popularity": 1.59
        },
        {
            "id": 13668,
            "original_name": "Antakshari Intercollegiate Championship",
            "popularity": 0.6
        },
        {
            "id": 13722,
            "original_name": "Shariah TV",
            "popularity": 0.6
        },
        {
            "id": 14592,
            "original_name": "The Shari Lewis Show",
            "popularity": 0.6
        },
        {
            "id": 16750,
            "original_name": "Sprout Sharing Show",
            "popularity": 0.6
        },
        {
            "id": 65534,
            "original_name": "Sharing Economy",
            "popularity": 0.6
        },
        {
            "id": 68812,
            "original_name": "Take a Seat: Sharing a Ride Across America",
            "popularity": 0.6
        },
        {
            "id": 112996,
            "original_name": "Twin Life: Sharing Mind and Body",
            "popularity": 0.6
        }
    ]
}