{
    "data": [
        {
            "id": 19092,
            "original_name": "FlashForward",
            "popularity": 21.084
        },
        {
            "id": 99364,
            "original_name": "Wishfart",
            "popularity": 0.84
        },
        {
            "id": 103112,
            "original_name": "Kashf",
            "popularity": 0.8
        },
        {
            "id": 105836,
            "original_name": "Khushfehmiyaan",
            "popularity": 0.614
        },
        {
            "id": 119164,
            "original_name": "Bushfires: Inside the Inferno",
            "popularity": 1.346
        }
    ],
    "relations": [],
    "top20": [
        {
            "id": 19092,
            "original_name": "FlashForward",
            "popularity": 21.084
        },
        {
            "id": 99364,
            "original_name": "Wishfart",
            "popularity": 0.84
        },
        {
            "id": 103112,
            "original_name": "Kashf",
            "popularity": 0.8
        },
        {
            "id": 105836,
            "original_name": "Khushfehmiyaan",
            "popularity": 0.614
        },
        {
            "id": 119164,
            "original_name": "Bushfires: Inside the Inferno",
            "popularity": 1.346
        }
    ]
}