{
    "data": [
        {
            "id": 491,
            "original_name": "Cop Shop",
            "popularity": 2.612
        },
        {
            "id": 3054,
            "original_name": "Multi-Coloured Swap Shop",
            "popularity": 0.6
        },
        {
            "id": 4052,
            "original_name": "Curiosity Shop",
            "popularity": 1.4
        },
        {
            "id": 4099,
            "original_name": "Spirituality Shopper",
            "popularity": 0.6
        },
        {
            "id": 6073,
            "original_name": "Let's Shop",
            "popularity": 0.6
        },
        {
            "id": 6465,
            "original_name": "Shop 'til You Drop",
            "popularity": 0.6
        },
        {
            "id": 6663,
            "original_name": "American Body Shop",
            "popularity": 1.234
        },
        {
            "id": 6804,
            "original_name": "The Pet Shop",
            "popularity": 0.6
        },
        {
            "id": 7238,
            "original_name": "The Joey Bishop Show",
            "popularity": 3.735
        },
        {
            "id": 7517,
            "original_name": "The Kevin Bishop Show",
            "popularity": 2.771
        },
        {
            "id": 8460,
            "original_name": "Carrie and David's Popshop",
            "popularity": 0.6
        },
        {
            "id": 9381,
            "original_name": "Shopping Hero",
            "popularity": 0.6
        },
        {
            "id": 9861,
            "original_name": "Barbershop",
            "popularity": 4.104
        },
        {
            "id": 10086,
            "original_name": "The New Yankee Workshop",
            "popularity": 2.094
        },
        {
            "id": 10562,
            "original_name": "Little Shop",
            "popularity": 0.693
        },
        {
            "id": 10595,
            "original_name": "Mopatop's Shop",
            "popularity": 0.6
        },
        {
            "id": 10920,
            "original_name": "Shopping Spree",
            "popularity": 0.6
        },
        {
            "id": 10940,
            "original_name": "Shopping for Love",
            "popularity": 0.6
        },
        {
            "id": 11377,
            "original_name": "Home Shopping Game",
            "popularity": 0.6
        },
        {
            "id": 11382,
            "original_name": "Shopaholic",
            "popularity": 0.6
        },
        {
            "id": 11757,
            "original_name": "The Shop",
            "popularity": 0.6
        },
        {
            "id": 11968,
            "original_name": "The Shopping Bags",
            "popularity": 0.6
        },
        {
            "id": 12237,
            "original_name": "Missus Goes a Shopping",
            "popularity": 0.6
        },
        {
            "id": 12850,
            "original_name": "Mary Queen of Shops",
            "popularity": 0.71
        },
        {
            "id": 14805,
            "original_name": "Basil's Swap Shop",
            "popularity": 0.843
        },
        {
            "id": 14959,
            "original_name": "CBS Television Workshop",
            "popularity": 0.6
        },
        {
            "id": 15072,
            "original_name": "The Woodwright's Shop",
            "popularity": 2.555
        },
        {
            "id": 15999,
            "original_name": "Dr. Wonder's Workshop",
            "popularity": 0.6
        },
        {
            "id": 19219,
            "original_name": "Sex and Shopping",
            "popularity": 0.879
        },
        {
            "id": 20151,
            "original_name": "Property Shop",
            "popularity": 0.6
        },
        {
            "id": 20626,
            "original_name": "Luci's Toyshop",
            "popularity": 0.6
        },
        {
            "id": 20713,
            "original_name": "Mary Lou's Flip Flop Shop",
            "popularity": 0.84
        },
        {
            "id": 20969,
            "original_name": "Joe's Pop Shop",
            "popularity": 0.6
        },
        {
            "id": 21929,
            "original_name": "The Ultimate Workshop",
            "popularity": 0.6
        },
        {
            "id": 22025,
            "original_name": "The Ultimate Workshop II",
            "popularity": 0.6
        },
        {
            "id": 22378,
            "original_name": "Wally's Workshop",
            "popularity": 0.6
        },
        {
            "id": 22957,
            "original_name": "The Music Shop",
            "popularity": 0.94
        },
        {
            "id": 24395,
            "original_name": "American Music Shop",
            "popularity": 0.6
        },
        {
            "id": 24521,
            "original_name": "The Bishop",
            "popularity": 0.6
        },
        {
            "id": 25070,
            "original_name": "Man Shops Globe",
            "popularity": 0.6
        },
        {
            "id": 25484,
            "original_name": "American Shopper",
            "popularity": 0.6
        },
        {
            "id": 25882,
            "original_name": "Lawn Care Workshop",
            "popularity": 0.6
        },
        {
            "id": 26218,
            "original_name": "Healthy Household Workshop",
            "popularity": 0.6
        },
        {
            "id": 26465,
            "original_name": "All Over The Shop",
            "popularity": 1.186
        },
        {
            "id": 26876,
            "original_name": "The Old Curiosity Shop",
            "popularity": 0.66
        },
        {
            "id": 27445,
            "original_name": "Mathica's Mathshop",
            "popularity": 0.876
        },
        {
            "id": 28051,
            "original_name": "Shopping City",
            "popularity": 0.6
        },
        {
            "id": 28604,
            "original_name": "Shop Like a Star",
            "popularity": 0.842
        },
        {
            "id": 28752,
            "original_name": "Shops, Robbers & Videotape",
            "popularity": 0.6
        },
        {
            "id": 28876,
            "original_name": "Home Theater Workshop",
            "popularity": 0.6
        },
        {
            "id": 29143,
            "original_name": "Swap Shop",
            "popularity": 4.164
        },
        {
            "id": 31370,
            "original_name": "PhoneShop",
            "popularity": 3.893
        },
        {
            "id": 32587,
            "original_name": "Workshop",
            "popularity": 0.6
        },
        {
            "id": 32724,
            "original_name": "Chop Shop",
            "popularity": 0.6
        },
        {
            "id": 32792,
            "original_name": "TV Shopper",
            "popularity": 0.6
        },
        {
            "id": 33489,
            "original_name": "Professor Moffett's Science Workshop",
            "popularity": 0.6
        },
        {
            "id": 33579,
            "original_name": "Hobby Workshop",
            "popularity": 0.6
        },
        {
            "id": 33676,
            "original_name": "Producers' Workshop",
            "popularity": 0.6
        },
        {
            "id": 33965,
            "original_name": "Littlest Pet Shop",
            "popularity": 5.16
        },
        {
            "id": 34500,
            "original_name": "Littlest Pet Shop",
            "popularity": 3.626
        },
        {
            "id": 34774,
            "original_name": "Rebuilt: The Human Body Shop",
            "popularity": 0.6
        },
        {
            "id": 35550,
            "original_name": "The Old Curiosity Shop",
            "popularity": 1.966
        },
        {
            "id": 36014,
            "original_name": "Chop Shop: London Garage",
            "popularity": 0.6
        },
        {
            "id": 38528,
            "original_name": "Mary Portas: Secret Shopper",
            "popularity": 0.6
        },
        {
            "id": 40386,
            "original_name": "John Bishop's Britain",
            "popularity": 1.4
        },
        {
            "id": 41355,
            "original_name": "Katie Brown Workshop",
            "popularity": 0.6
        },
        {
            "id": 41669,
            "original_name": "Orange Juice in Bishops Garden",
            "popularity": 0.6
        },
        {
            "id": 42193,
            "original_name": "The Bleak Old Shop of Stuff",
            "popularity": 3.257
        },
        {
            "id": 42646,
            "original_name": "Workshop",
            "popularity": 0.6
        },
        {
            "id": 44913,
            "original_name": "Bikini Barbershop",
            "popularity": 0.727
        },
        {
            "id": 46741,
            "original_name": "Trashopolis",
            "popularity": 0.6
        },
        {
            "id": 47880,
            "original_name": "Writers' Workshop",
            "popularity": 0.6
        },
        {
            "id": 48027,
            "original_name": "Writers Workshop No 1",
            "popularity": 0.6
        },
        {
            "id": 48143,
            "original_name": "Workshop",
            "popularity": 0.6
        },
        {
            "id": 55539,
            "original_name": "Little Shop of Gypsies",
            "popularity": 0.6
        },
        {
            "id": 55559,
            "original_name": "My Shopping Addiction",
            "popularity": 0.6
        },
        {
            "id": 55607,
            "original_name": "John Bishop's Big Year",
            "popularity": 0.6
        },
        {
            "id": 55677,
            "original_name": "John Bishop's Only Joking",
            "popularity": 0.6
        },
        {
            "id": 55751,
            "original_name": "Britain's Secret Shoppers",
            "popularity": 0.6
        },
        {
            "id": 55811,
            "original_name": "Des Bishop: Under The Influence",
            "popularity": 0.6
        },
        {
            "id": 55958,
            "original_name": "Shopping Ping Ruk",
            "popularity": 0.6
        },
        {
            "id": 57026,
            "original_name": "Shoplife",
            "popularity": 0.6
        },
        {
            "id": 57473,
            "original_name": "The Great British Woodshop",
            "popularity": 0.6
        },
        {
            "id": 57865,
            "original_name": "Robert Peston Goes Shopping",
            "popularity": 0.6
        },
        {
            "id": 58637,
            "original_name": "Sammy's Story Shop",
            "popularity": 0.6
        },
        {
            "id": 59328,
            "original_name": "The Talent Shop",
            "popularity": 0.6
        },
        {
            "id": 59551,
            "original_name": "The Song Shop",
            "popularity": 0.6
        },
        {
            "id": 59850,
            "original_name": "Shop",
            "popularity": 0.6
        },
        {
            "id": 61273,
            "original_name": "Pawn Shop Qu\u00e9bec",
            "popularity": 0.84
        },
        {
            "id": 61569,
            "original_name": "Jim Henson's Creature Shop Challenge",
            "popularity": 1.765
        },
        {
            "id": 64051,
            "original_name": "Pound Shop Wars",
            "popularity": 0.631
        },
        {
            "id": 64997,
            "original_name": "The John Bishop Show",
            "popularity": 0.6
        },
        {
            "id": 67732,
            "original_name": "Woodsmith Shop",
            "popularity": 8.57
        },
        {
            "id": 71477,
            "original_name": "Les Reines du Shopping",
            "popularity": 1.107
        },
        {
            "id": 71543,
            "original_name": "Shopkins",
            "popularity": 0.66
        },
        {
            "id": 73310,
            "original_name": "Grasshopper Island",
            "popularity": 0.6
        },
        {
            "id": 77511,
            "original_name": "Cop Car Workshop",
            "popularity": 1.372
        },
        {
            "id": 77859,
            "original_name": "The Birth Of Shopping",
            "popularity": 0.6
        },
        {
            "id": 78075,
            "original_name": "The Repair Shop",
            "popularity": 4.9
        },
        {
            "id": 79346,
            "original_name": "John Bishop: In Conversation With...",
            "popularity": 3.209
        },
        {
            "id": 80118,
            "original_name": "The Posh Frock Shop",
            "popularity": 0.6
        },
        {
            "id": 81187,
            "original_name": "The Shop: Uninterrupted",
            "popularity": 6.849
        },
        {
            "id": 82663,
            "original_name": "Ka\u00efra Shopping",
            "popularity": 0.671
        },
        {
            "id": 85020,
            "original_name": "Promi Shopping Queen",
            "popularity": 1.317
        },
        {
            "id": 86268,
            "original_name": "John Bishop's Australia",
            "popularity": 0.6
        },
        {
            "id": 86895,
            "original_name": "La reine du shopping",
            "popularity": 0.6
        },
        {
            "id": 88565,
            "original_name": "Supershoppers",
            "popularity": 0.6
        },
        {
            "id": 88864,
            "original_name": "John Bishop's Ireland",
            "popularity": 0.6
        },
        {
            "id": 93768,
            "original_name": "Shopping Queen",
            "popularity": 1.259
        },
        {
            "id": 99646,
            "original_name": "Back in Time for the Corner Shop",
            "popularity": 1.4
        },
        {
            "id": 99874,
            "original_name": "Shop Class",
            "popularity": 1.779
        },
        {
            "id": 100134,
            "original_name": "Warbird Workshop",
            "popularity": 0.6
        },
        {
            "id": 100661,
            "original_name": "By Royal Appointment: Shops Serving the Queen",
            "popularity": 1.4
        },
        {
            "id": 101767,
            "original_name": "Barber Shop",
            "popularity": 0.6
        },
        {
            "id": 102228,
            "original_name": "Austin Speed Shop",
            "popularity": 0.6
        },
        {
            "id": 104200,
            "original_name": "A Very British Sex Shop",
            "popularity": 0.6
        },
        {
            "id": 105738,
            "original_name": "Shoplifters: At War with the Law",
            "popularity": 0.6
        },
        {
            "id": 106397,
            "original_name": "The Repair Shop: Fixing Britain",
            "popularity": 0.6
        },
        {
            "id": 109517,
            "original_name": "Bread Barbershop",
            "popularity": 0.6
        },
        {
            "id": 112288,
            "original_name": "Teleshop 8",
            "popularity": 0.6
        },
        {
            "id": 112503,
            "original_name": "Shopping with Keith Lemon",
            "popularity": 2.623
        },
        {
            "id": 112912,
            "original_name": "The Billion Dollar Chicken Shop",
            "popularity": 0.6
        },
        {
            "id": 113788,
            "original_name": "John Bishop's Great Whale Rescue",
            "popularity": 0.6
        },
        {
            "id": 115177,
            "original_name": "Sexe shop",
            "popularity": 0.849
        },
        {
            "id": 117318,
            "original_name": "Home Town: Ben's Workshop",
            "popularity": 0.84
        },
        {
            "id": 118335,
            "original_name": "Shopping Star",
            "popularity": 1.847
        },
        {
            "id": 120212,
            "original_name": "Goblin Works Mod Shop",
            "popularity": 1.242
        },
        {
            "id": 121047,
            "original_name": "NDR Jazz Workshops",
            "popularity": 1.4
        },
        {
            "id": 123460,
            "original_name": "The Repair Shop: Fixing Britain",
            "popularity": 0.6
        },
        {
            "id": 124438,
            "original_name": "Bienvenue \u00e0 la shop!",
            "popularity": 6.443
        },
        {
            "id": 125004,
            "original_name": "Littlest Pet Shop: A World of Our Own",
            "popularity": 1.348
        },
        {
            "id": 126770,
            "original_name": "Mister Chuck's Workshop",
            "popularity": 0.827
        },
        {
            "id": 128953,
            "original_name": "A Lake District Farm Shop",
            "popularity": 4.593
        },
        {
            "id": 130969,
            "original_name": "Metal Shop Masters",
            "popularity": 7.132
        },
        {
            "id": 131453,
            "original_name": "Jay's Yorkshire Workshop",
            "popularity": 3.784
        },
        {
            "id": 134688,
            "original_name": "Shop Well for Less",
            "popularity": 0.6
        },
        {
            "id": 136432,
            "original_name": "Shoplifters & Scammers: At War with the Law",
            "popularity": 0.967
        },
        {
            "id": 136483,
            "original_name": "Shop Well for the Planet?",
            "popularity": 0.6
        },
        {
            "id": 136638,
            "original_name": "Richard Hammond's Workshop",
            "popularity": 8.778
        },
        {
            "id": 137980,
            "original_name": "Inside Poundland: Secrets from the Shop Floor",
            "popularity": 0.6
        },
        {
            "id": 138038,
            "original_name": "Tried And Tasted: The Ultimate Shopping List",
            "popularity": 0.6
        }
    ],
    "relations": [
        {
            "character": "shopp"
        },
        {
            "character": "shopa"
        },
        {
            "character": "shops"
        },
        {
            "character": "shopo"
        },
        {
            "character": "shopl"
        },
        {
            "character": "shopk"
        },
        {
            "character": "shop!"
        }
    ],
    "top20": [
        {
            "id": 136638,
            "original_name": "Richard Hammond's Workshop",
            "popularity": 8.778
        },
        {
            "id": 67732,
            "original_name": "Woodsmith Shop",
            "popularity": 8.57
        },
        {
            "id": 130969,
            "original_name": "Metal Shop Masters",
            "popularity": 7.132
        },
        {
            "id": 81187,
            "original_name": "The Shop: Uninterrupted",
            "popularity": 6.849
        },
        {
            "id": 124438,
            "original_name": "Bienvenue \u00e0 la shop!",
            "popularity": 6.443
        },
        {
            "id": 33965,
            "original_name": "Littlest Pet Shop",
            "popularity": 5.16
        },
        {
            "id": 78075,
            "original_name": "The Repair Shop",
            "popularity": 4.9
        },
        {
            "id": 128953,
            "original_name": "A Lake District Farm Shop",
            "popularity": 4.593
        },
        {
            "id": 29143,
            "original_name": "Swap Shop",
            "popularity": 4.164
        },
        {
            "id": 9861,
            "original_name": "Barbershop",
            "popularity": 4.104
        },
        {
            "id": 31370,
            "original_name": "PhoneShop",
            "popularity": 3.893
        },
        {
            "id": 131453,
            "original_name": "Jay's Yorkshire Workshop",
            "popularity": 3.784
        },
        {
            "id": 7238,
            "original_name": "The Joey Bishop Show",
            "popularity": 3.735
        },
        {
            "id": 34500,
            "original_name": "Littlest Pet Shop",
            "popularity": 3.626
        },
        {
            "id": 42193,
            "original_name": "The Bleak Old Shop of Stuff",
            "popularity": 3.257
        },
        {
            "id": 79346,
            "original_name": "John Bishop: In Conversation With...",
            "popularity": 3.209
        },
        {
            "id": 7517,
            "original_name": "The Kevin Bishop Show",
            "popularity": 2.771
        },
        {
            "id": 112503,
            "original_name": "Shopping with Keith Lemon",
            "popularity": 2.623
        },
        {
            "id": 491,
            "original_name": "Cop Shop",
            "popularity": 2.612
        },
        {
            "id": 15072,
            "original_name": "The Woodwright's Shop",
            "popularity": 2.555
        }
    ]
}