{
    "data": [
        {
            "id": 8368,
            "original_name": "Shree",
            "popularity": 0.6
        },
        {
            "id": 29775,
            "original_name": "Built To Shred",
            "popularity": 0.878
        },
        {
            "id": 31149,
            "original_name": "Shree Adi Manav",
            "popularity": 0.6
        },
        {
            "id": 39915,
            "original_name": "Dwarkadheesh Bhagwaan Shree Krishn",
            "popularity": 0.6
        },
        {
            "id": 40347,
            "original_name": "Dwarkadheesh \u2013 Bhagwaan Shree Krishn",
            "popularity": 0.6
        },
        {
            "id": 54795,
            "original_name": "Thoma Tashreq Al-Shams",
            "popularity": 0.6
        },
        {
            "id": 59264,
            "original_name": "Shree Adi Manav",
            "popularity": 0.6
        },
        {
            "id": 61825,
            "original_name": "Max & Shred",
            "popularity": 1.777
        },
        {
            "id": 102257,
            "original_name": "Jillian Michaels: 30 Day Shred",
            "popularity": 0.6
        },
        {
            "id": 112814,
            "original_name": "Shrek's Swamp Stories",
            "popularity": 4.958
        }
    ],
    "relations": [],
    "top20": [
        {
            "id": 8368,
            "original_name": "Shree",
            "popularity": 0.6
        },
        {
            "id": 29775,
            "original_name": "Built To Shred",
            "popularity": 0.878
        },
        {
            "id": 31149,
            "original_name": "Shree Adi Manav",
            "popularity": 0.6
        },
        {
            "id": 39915,
            "original_name": "Dwarkadheesh Bhagwaan Shree Krishn",
            "popularity": 0.6
        },
        {
            "id": 40347,
            "original_name": "Dwarkadheesh \u2013 Bhagwaan Shree Krishn",
            "popularity": 0.6
        },
        {
            "id": 54795,
            "original_name": "Thoma Tashreq Al-Shams",
            "popularity": 0.6
        },
        {
            "id": 59264,
            "original_name": "Shree Adi Manav",
            "popularity": 0.6
        },
        {
            "id": 61825,
            "original_name": "Max & Shred",
            "popularity": 1.777
        },
        {
            "id": 102257,
            "original_name": "Jillian Michaels: 30 Day Shred",
            "popularity": 0.6
        },
        {
            "id": 112814,
            "original_name": "Shrek's Swamp Stories",
            "popularity": 4.958
        }
    ]
}