{
    "data": [
        {
            "id": 14,
            "original_name": "Shuriken School",
            "popularity": 3.908
        },
        {
            "id": 41711,
            "original_name": "The War Room with Michael Shure",
            "popularity": 0.6
        },
        {
            "id": 107441,
            "original_name": "Stin\u00eb dashurie",
            "popularity": 0.6
        }
    ],
    "relations": [],
    "top20": [
        {
            "id": 14,
            "original_name": "Shuriken School",
            "popularity": 3.908
        },
        {
            "id": 41711,
            "original_name": "The War Room with Michael Shure",
            "popularity": 0.6
        },
        {
            "id": 107441,
            "original_name": "Stin\u00eb dashurie",
            "popularity": 0.6
        }
    ]
}