{
    "data": [
        {
            "id": 15358,
            "original_name": "Die ProSieben M\u00e4rchenstunde",
            "popularity": 4.324
        },
        {
            "id": 40764,
            "original_name": "Die sechs Siebeng'scheiten",
            "popularity": 0.6
        },
        {
            "id": 61360,
            "original_name": "Gernstl - Sieben mal Bayern",
            "popularity": 0.6
        },
        {
            "id": 63513,
            "original_name": "Siebenbirken",
            "popularity": 0.6
        },
        {
            "id": 64017,
            "original_name": "Sherlock Holmes und die sieben Zwerge",
            "popularity": 1.34
        },
        {
            "id": 66555,
            "original_name": "Siebenstein",
            "popularity": 3.325
        },
        {
            "id": 69389,
            "original_name": "Bobo Siebenschl\u00e4fer",
            "popularity": 1.124
        },
        {
            "id": 70239,
            "original_name": "Das Prosieben Ausw\u00e4rtsspiel",
            "popularity": 0.6
        },
        {
            "id": 72840,
            "original_name": "Die Prosieben Gameshow Konferenz",
            "popularity": 0.638
        },
        {
            "id": 89719,
            "original_name": "Joko & Klaas gegen ProSieben",
            "popularity": 28.149
        },
        {
            "id": 113143,
            "original_name": "Die gro\u00dfe ProSieben V\u00f6lkerball Meisterschaft",
            "popularity": 0.645
        },
        {
            "id": 119577,
            "original_name": "Sieben auf einen Streich - Das heitere Tele-Toto",
            "popularity": 0.6
        },
        {
            "id": 133112,
            "original_name": "ProSieben Das Thema",
            "popularity": 1.661
        },
        {
            "id": 137421,
            "original_name": "Die ProSieben-Bundestagswahl-Show",
            "popularity": 0.955
        }
    ],
    "relations": [],
    "top20": [
        {
            "id": 15358,
            "original_name": "Die ProSieben M\u00e4rchenstunde",
            "popularity": 4.324
        },
        {
            "id": 40764,
            "original_name": "Die sechs Siebeng'scheiten",
            "popularity": 0.6
        },
        {
            "id": 61360,
            "original_name": "Gernstl - Sieben mal Bayern",
            "popularity": 0.6
        },
        {
            "id": 63513,
            "original_name": "Siebenbirken",
            "popularity": 0.6
        },
        {
            "id": 64017,
            "original_name": "Sherlock Holmes und die sieben Zwerge",
            "popularity": 1.34
        },
        {
            "id": 66555,
            "original_name": "Siebenstein",
            "popularity": 3.325
        },
        {
            "id": 69389,
            "original_name": "Bobo Siebenschl\u00e4fer",
            "popularity": 1.124
        },
        {
            "id": 70239,
            "original_name": "Das Prosieben Ausw\u00e4rtsspiel",
            "popularity": 0.6
        },
        {
            "id": 72840,
            "original_name": "Die Prosieben Gameshow Konferenz",
            "popularity": 0.638
        },
        {
            "id": 89719,
            "original_name": "Joko & Klaas gegen ProSieben",
            "popularity": 28.149
        },
        {
            "id": 113143,
            "original_name": "Die gro\u00dfe ProSieben V\u00f6lkerball Meisterschaft",
            "popularity": 0.645
        },
        {
            "id": 119577,
            "original_name": "Sieben auf einen Streich - Das heitere Tele-Toto",
            "popularity": 0.6
        },
        {
            "id": 133112,
            "original_name": "ProSieben Das Thema",
            "popularity": 1.661
        },
        {
            "id": 137421,
            "original_name": "Die ProSieben-Bundestagswahl-Show",
            "popularity": 0.955
        }
    ]
}