{
    "data": [
        {
            "id": 2976,
            "original_name": "Brigada Siete",
            "popularity": 0.6
        },
        {
            "id": 5061,
            "original_name": "Daisy Siete",
            "popularity": 0.6
        },
        {
            "id": 32960,
            "original_name": "La Virgen de las Siete Calles",
            "popularity": 0.6
        },
        {
            "id": 88434,
            "original_name": "Rai Pipol - Lo spettacolo siete noi",
            "popularity": 0.6
        },
        {
            "id": 91669,
            "original_name": "2050 dans votre assiette",
            "popularity": 0.6
        },
        {
            "id": 107030,
            "original_name": "Siete veces Amada",
            "popularity": 0.6
        },
        {
            "id": 134306,
            "original_name": "Des baskets dans l'assiette",
            "popularity": 0.6
        }
    ],
    "relations": [],
    "top20": [
        {
            "id": 2976,
            "original_name": "Brigada Siete",
            "popularity": 0.6
        },
        {
            "id": 5061,
            "original_name": "Daisy Siete",
            "popularity": 0.6
        },
        {
            "id": 32960,
            "original_name": "La Virgen de las Siete Calles",
            "popularity": 0.6
        },
        {
            "id": 88434,
            "original_name": "Rai Pipol - Lo spettacolo siete noi",
            "popularity": 0.6
        },
        {
            "id": 91669,
            "original_name": "2050 dans votre assiette",
            "popularity": 0.6
        },
        {
            "id": 107030,
            "original_name": "Siete veces Amada",
            "popularity": 0.6
        },
        {
            "id": 134306,
            "original_name": "Des baskets dans l'assiette",
            "popularity": 0.6
        }
    ]
}