{
    "data": [
        {
            "id": 69368,
            "original_name": "DR3 Siger Farvel",
            "popularity": 0.879
        },
        {
            "id": 119424,
            "original_name": "Plastikdronningen siger farvel",
            "popularity": 0.6
        }
    ],
    "relations": [],
    "top20": [
        {
            "id": 69368,
            "original_name": "DR3 Siger Farvel",
            "popularity": 0.879
        },
        {
            "id": 119424,
            "original_name": "Plastikdronningen siger farvel",
            "popularity": 0.6
        }
    ]
}