{
    "data": [
        {
            "id": 332,
            "original_name": "Los simuladores",
            "popularity": 8.163
        },
        {
            "id": 31110,
            "original_name": "Nagsimula sa Puso",
            "popularity": 0.6
        },
        {
            "id": 41629,
            "original_name": "Ako Ang Simula",
            "popularity": 0.6
        },
        {
            "id": 62302,
            "original_name": "Los simuladores",
            "popularity": 9.293
        },
        {
            "id": 67258,
            "original_name": "Des Christoffel von Grimmelshausen abenteuerlicher Simplizissimus",
            "popularity": 2.679
        },
        {
            "id": 69921,
            "original_name": "Los simuladores",
            "popularity": 3.181
        },
        {
            "id": 131446,
            "original_name": "The Jessica Simulation",
            "popularity": 0.6
        }
    ],
    "relations": [],
    "top20": [
        {
            "id": 332,
            "original_name": "Los simuladores",
            "popularity": 8.163
        },
        {
            "id": 31110,
            "original_name": "Nagsimula sa Puso",
            "popularity": 0.6
        },
        {
            "id": 41629,
            "original_name": "Ako Ang Simula",
            "popularity": 0.6
        },
        {
            "id": 62302,
            "original_name": "Los simuladores",
            "popularity": 9.293
        },
        {
            "id": 67258,
            "original_name": "Des Christoffel von Grimmelshausen abenteuerlicher Simplizissimus",
            "popularity": 2.679
        },
        {
            "id": 69921,
            "original_name": "Los simuladores",
            "popularity": 3.181
        },
        {
            "id": 131446,
            "original_name": "The Jessica Simulation",
            "popularity": 0.6
        }
    ]
}