{
    "data": [
        {
            "id": 6812,
            "original_name": "Idea Star Singer",
            "popularity": 0.6
        },
        {
            "id": 15356,
            "original_name": "Bathroom Singer",
            "popularity": 0.6
        },
        {
            "id": 16005,
            "original_name": "Singel 24-7",
            "popularity": 0.6
        },
        {
            "id": 16619,
            "original_name": "Airtel Super Singer Junior",
            "popularity": 0.6
        },
        {
            "id": 17964,
            "original_name": "Super Singer",
            "popularity": 0.884
        },
        {
            "id": 19352,
            "original_name": "Idea Super Singer",
            "popularity": 0.6
        },
        {
            "id": 23042,
            "original_name": "Singer and Sons",
            "popularity": 0.726
        },
        {
            "id": 26254,
            "original_name": "Can't Sing Singers",
            "popularity": 1.129
        },
        {
            "id": 31003,
            "original_name": "Kissinger And Nixon",
            "popularity": 0.6
        },
        {
            "id": 39560,
            "original_name": "I Am a Singer",
            "popularity": 0.6
        },
        {
            "id": 40572,
            "original_name": "Die Wiesingers",
            "popularity": 0.6
        },
        {
            "id": 51496,
            "original_name": "De Beste Singer-Songwriter van Nederland",
            "popularity": 1.026
        },
        {
            "id": 54869,
            "original_name": "Copycat Singers",
            "popularity": 0.6
        },
        {
            "id": 55034,
            "original_name": "Singer Presents Burt Bacharach",
            "popularity": 0.6
        },
        {
            "id": 77140,
            "original_name": "Super Singer 6",
            "popularity": 0.6
        },
        {
            "id": 84910,
            "original_name": "The Masked Singer",
            "popularity": 50.267
        },
        {
            "id": 90368,
            "original_name": "The Masked Singer",
            "popularity": 5.242
        },
        {
            "id": 90785,
            "original_name": "Superstar Singer",
            "popularity": 0.84
        },
        {
            "id": 94168,
            "original_name": "The Masked Singer Australia",
            "popularity": 1.968
        },
        {
            "id": 95395,
            "original_name": "Mask Singer",
            "popularity": 1.088
        },
        {
            "id": 95528,
            "original_name": "Singelklubben",
            "popularity": 1.092
        },
        {
            "id": 96907,
            "original_name": "The Masked Singer",
            "popularity": 13.141
        },
        {
            "id": 99026,
            "original_name": "The Masked Singer",
            "popularity": 1.989
        },
        {
            "id": 101255,
            "original_name": "The Iliza Shlesinger Sketch Show",
            "popularity": 1.093
        },
        {
            "id": 105963,
            "original_name": "Der Club der singenden Metzger",
            "popularity": 1.51
        },
        {
            "id": 110246,
            "original_name": "The Masked Singer",
            "popularity": 0.68
        },
        {
            "id": 112258,
            "original_name": "Mask Singer: Adivina qui\u00e9n canta",
            "popularity": 2.588
        },
        {
            "id": 113176,
            "original_name": "The Masked Singer - Switzerland",
            "popularity": 0.6
        },
        {
            "id": 114860,
            "original_name": "The Masked Singer",
            "popularity": 0.84
        },
        {
            "id": 120073,
            "original_name": "Masked Singer Sverige",
            "popularity": 1.538
        },
        {
            "id": 122958,
            "original_name": "#hetisingewikkeld",
            "popularity": 0.6
        },
        {
            "id": 124161,
            "original_name": "The Masked Singer NZ",
            "popularity": 0.695
        },
        {
            "id": 130396,
            "original_name": "The Masked Singer Brasil",
            "popularity": 4.943
        },
        {
            "id": 132346,
            "original_name": "The Masked Singer",
            "popularity": 12.134
        },
        {
            "id": 137038,
            "original_name": "Last Singer Standing",
            "popularity": 7.319
        },
        {
            "id": 137460,
            "original_name": "National Singer",
            "popularity": 10.545
        }
    ],
    "relations": [
        {
            "character": "singer"
        },
        {
            "character": "singel"
        },
        {
            "character": "singen"
        },
        {
            "character": "singew"
        }
    ],
    "top20": [
        {
            "id": 84910,
            "original_name": "The Masked Singer",
            "popularity": 50.267
        },
        {
            "id": 96907,
            "original_name": "The Masked Singer",
            "popularity": 13.141
        },
        {
            "id": 132346,
            "original_name": "The Masked Singer",
            "popularity": 12.134
        },
        {
            "id": 137460,
            "original_name": "National Singer",
            "popularity": 10.545
        },
        {
            "id": 137038,
            "original_name": "Last Singer Standing",
            "popularity": 7.319
        },
        {
            "id": 90368,
            "original_name": "The Masked Singer",
            "popularity": 5.242
        },
        {
            "id": 130396,
            "original_name": "The Masked Singer Brasil",
            "popularity": 4.943
        },
        {
            "id": 112258,
            "original_name": "Mask Singer: Adivina qui\u00e9n canta",
            "popularity": 2.588
        },
        {
            "id": 99026,
            "original_name": "The Masked Singer",
            "popularity": 1.989
        },
        {
            "id": 94168,
            "original_name": "The Masked Singer Australia",
            "popularity": 1.968
        },
        {
            "id": 120073,
            "original_name": "Masked Singer Sverige",
            "popularity": 1.538
        },
        {
            "id": 105963,
            "original_name": "Der Club der singenden Metzger",
            "popularity": 1.51
        },
        {
            "id": 26254,
            "original_name": "Can't Sing Singers",
            "popularity": 1.129
        },
        {
            "id": 101255,
            "original_name": "The Iliza Shlesinger Sketch Show",
            "popularity": 1.093
        },
        {
            "id": 95528,
            "original_name": "Singelklubben",
            "popularity": 1.092
        },
        {
            "id": 95395,
            "original_name": "Mask Singer",
            "popularity": 1.088
        },
        {
            "id": 51496,
            "original_name": "De Beste Singer-Songwriter van Nederland",
            "popularity": 1.026
        },
        {
            "id": 17964,
            "original_name": "Super Singer",
            "popularity": 0.884
        },
        {
            "id": 114860,
            "original_name": "The Masked Singer",
            "popularity": 0.84
        },
        {
            "id": 90785,
            "original_name": "Superstar Singer",
            "popularity": 0.84
        }
    ]
}