{
    "data": [
        {
            "id": 49800,
            "original_name": "Burnumu Keser misiniz?",
            "popularity": 0.6
        },
        {
            "id": 51417,
            "original_name": "Yetenek Sizsiniz T\u00fcrkiye",
            "popularity": 0.6
        },
        {
            "id": 52608,
            "original_name": "Yaln\u0131z De\u011filsiniz",
            "popularity": 0.6
        },
        {
            "id": 53905,
            "original_name": "Kizlar sinifi",
            "popularity": 0.6
        },
        {
            "id": 54783,
            "original_name": "Disini Cinta Pertama Kali Bersemi",
            "popularity": 0.6
        },
        {
            "id": 59764,
            "original_name": "The Igor Cassini Show",
            "popularity": 0.6
        },
        {
            "id": 59822,
            "original_name": "Auksiniai svog\u016bnai",
            "popularity": 0.6
        },
        {
            "id": 60395,
            "original_name": "Jai Maa Vindhyavasini",
            "popularity": 0.6
        },
        {
            "id": 78441,
            "original_name": "Demirk\u0131rat: Bir Demokrasinin Do\u011fu\u015fu",
            "popularity": 0.871
        },
        {
            "id": 85790,
            "original_name": "Marina Orsini",
            "popularity": 6.437
        },
        {
            "id": 92970,
            "original_name": "Le Cuisinier rebelle prend l'air",
            "popularity": 0.642
        },
        {
            "id": 105495,
            "original_name": "Sininen laulu - Suomen taiteiden tarina",
            "popularity": 0.6
        },
        {
            "id": 126590,
            "original_name": "Bir Sifa Bagimlisinin Itiraflari",
            "popularity": 0.6
        },
        {
            "id": 133642,
            "original_name": "Scooby-Doo! Bagulhos Sinistros",
            "popularity": 2.401
        }
    ],
    "relations": [],
    "top20": [
        {
            "id": 49800,
            "original_name": "Burnumu Keser misiniz?",
            "popularity": 0.6
        },
        {
            "id": 51417,
            "original_name": "Yetenek Sizsiniz T\u00fcrkiye",
            "popularity": 0.6
        },
        {
            "id": 52608,
            "original_name": "Yaln\u0131z De\u011filsiniz",
            "popularity": 0.6
        },
        {
            "id": 53905,
            "original_name": "Kizlar sinifi",
            "popularity": 0.6
        },
        {
            "id": 54783,
            "original_name": "Disini Cinta Pertama Kali Bersemi",
            "popularity": 0.6
        },
        {
            "id": 59764,
            "original_name": "The Igor Cassini Show",
            "popularity": 0.6
        },
        {
            "id": 59822,
            "original_name": "Auksiniai svog\u016bnai",
            "popularity": 0.6
        },
        {
            "id": 60395,
            "original_name": "Jai Maa Vindhyavasini",
            "popularity": 0.6
        },
        {
            "id": 78441,
            "original_name": "Demirk\u0131rat: Bir Demokrasinin Do\u011fu\u015fu",
            "popularity": 0.871
        },
        {
            "id": 85790,
            "original_name": "Marina Orsini",
            "popularity": 6.437
        },
        {
            "id": 92970,
            "original_name": "Le Cuisinier rebelle prend l'air",
            "popularity": 0.642
        },
        {
            "id": 105495,
            "original_name": "Sininen laulu - Suomen taiteiden tarina",
            "popularity": 0.6
        },
        {
            "id": 126590,
            "original_name": "Bir Sifa Bagimlisinin Itiraflari",
            "popularity": 0.6
        },
        {
            "id": 133642,
            "original_name": "Scooby-Doo! Bagulhos Sinistros",
            "popularity": 2.401
        }
    ]
}