{
    "data": [
        {
            "id": 31449,
            "original_name": "Skavlan",
            "popularity": 14.032
        },
        {
            "id": 105329,
            "original_name": "Laskav\u00fd div\u00e1k promine",
            "popularity": 0.902
        },
        {
            "id": 138036,
            "original_name": "Skav",
            "popularity": 0.6
        }
    ],
    "relations": [],
    "top20": [
        {
            "id": 31449,
            "original_name": "Skavlan",
            "popularity": 14.032
        },
        {
            "id": 105329,
            "original_name": "Laskav\u00fd div\u00e1k promine",
            "popularity": 0.902
        },
        {
            "id": 138036,
            "original_name": "Skav",
            "popularity": 0.6
        }
    ]
}