{
    "data": [
        {
            "id": 29391,
            "original_name": "Toppers op weg naar Moskou",
            "popularity": 0.609
        },
        {
            "id": 36379,
            "original_name": "Van Moskou tot Magadan",
            "popularity": 0.6
        },
        {
            "id": 36826,
            "original_name": "Van Moskou tot Moermansk",
            "popularity": 0.6
        }
    ],
    "relations": [],
    "top20": [
        {
            "id": 29391,
            "original_name": "Toppers op weg naar Moskou",
            "popularity": 0.609
        },
        {
            "id": 36379,
            "original_name": "Van Moskou tot Magadan",
            "popularity": 0.6
        },
        {
            "id": 36826,
            "original_name": "Van Moskou tot Moermansk",
            "popularity": 0.6
        }
    ]
}