{
    "data": [
        {
            "id": 45235,
            "original_name": "\u4ffa\u305f\u3061\u306b\u7ffc\u306f\u306a\u3044 -under the innocent sky.",
            "popularity": 2.38
        }
    ],
    "relations": [],
    "top20": [
        {
            "id": 45235,
            "original_name": "\u4ffa\u305f\u3061\u306b\u7ffc\u306f\u306a\u3044 -under the innocent sky.",
            "popularity": 2.38
        }
    ]
}