{
    "data": [
        {
            "id": 12935,
            "original_name": "Slacker Cats",
            "popularity": 1.922
        },
        {
            "id": 32991,
            "original_name": "The Slacker Farm",
            "popularity": 0.6
        },
        {
            "id": 38506,
            "original_name": "Het Geslacht De Pauw",
            "popularity": 0.929
        },
        {
            "id": 38702,
            "original_name": "Het Sterke Geslacht",
            "popularity": 0.6
        }
    ],
    "relations": [],
    "top20": [
        {
            "id": 12935,
            "original_name": "Slacker Cats",
            "popularity": 1.922
        },
        {
            "id": 32991,
            "original_name": "The Slacker Farm",
            "popularity": 0.6
        },
        {
            "id": 38506,
            "original_name": "Het Geslacht De Pauw",
            "popularity": 0.929
        },
        {
            "id": 38702,
            "original_name": "Het Sterke Geslacht",
            "popularity": 0.6
        }
    ]
}