{
    "data": [
        {
            "id": 16594,
            "original_name": "British Isles: A Natural History",
            "popularity": 0.6
        },
        {
            "id": 32895,
            "original_name": "Rizzoli & Isles",
            "popularity": 36.046
        },
        {
            "id": 117387,
            "original_name": "Little British Isles with Alison Steadman",
            "popularity": 0.6
        }
    ],
    "relations": [],
    "top20": [
        {
            "id": 16594,
            "original_name": "British Isles: A Natural History",
            "popularity": 0.6
        },
        {
            "id": 32895,
            "original_name": "Rizzoli & Isles",
            "popularity": 36.046
        },
        {
            "id": 117387,
            "original_name": "Little British Isles with Alison Steadman",
            "popularity": 0.6
        }
    ]
}