{
    "data": [
        {
            "id": 36323,
            "original_name": "Sinnasnekker'n",
            "popularity": 7.213
        }
    ],
    "relations": [],
    "top20": [
        {
            "id": 36323,
            "original_name": "Sinnasnekker'n",
            "popularity": 7.213
        }
    ]
}