{
    "data": [
        {
            "id": 841,
            "original_name": "Newsnight",
            "popularity": 5.783
        },
        {
            "id": 2582,
            "original_name": "Newsnight Scotland",
            "popularity": 0.6
        },
        {
            "id": 2683,
            "original_name": "NewsNight with Aaron Brown",
            "popularity": 0.6
        },
        {
            "id": 9685,
            "original_name": "Sportsnight",
            "popularity": 0.6
        },
        {
            "id": 12369,
            "original_name": "Sniz and Fondue",
            "popularity": 2.366
        },
        {
            "id": 15388,
            "original_name": "SportsNite",
            "popularity": 0.6
        },
        {
            "id": 18425,
            "original_name": "Snip",
            "popularity": 1.4
        },
        {
            "id": 18947,
            "original_name": "Snipets",
            "popularity": 0.6
        },
        {
            "id": 21908,
            "original_name": "Rodzina Lesniewskich",
            "popularity": 0.6
        },
        {
            "id": 22039,
            "original_name": "Trasniti din N.A.T.O.",
            "popularity": 0.675
        },
        {
            "id": 23951,
            "original_name": "Newsnight Review",
            "popularity": 1.617
        },
        {
            "id": 26062,
            "original_name": "Arga snickaren",
            "popularity": 1.492
        },
        {
            "id": 26497,
            "original_name": "Beirut to Bosnia",
            "popularity": 0.84
        },
        {
            "id": 39701,
            "original_name": "Snip and Snap",
            "popularity": 0.6
        },
        {
            "id": 40370,
            "original_name": "Geico SportsNite",
            "popularity": 0.6
        },
        {
            "id": 55443,
            "original_name": "Folkeopplysningen",
            "popularity": 1.497
        },
        {
            "id": 59799,
            "original_name": "Snillen snackar",
            "popularity": 0.6
        },
        {
            "id": 63041,
            "original_name": "Artsnight",
            "popularity": 1.849
        },
        {
            "id": 64461,
            "original_name": "Trasnitii",
            "popularity": 0.6
        },
        {
            "id": 64854,
            "original_name": "Morsning & goodbye",
            "popularity": 0.6
        },
        {
            "id": 67329,
            "original_name": "Bottersnikes & Gumbles",
            "popularity": 3.247
        },
        {
            "id": 74333,
            "original_name": "Arga Snickaren Med Adam Alsing",
            "popularity": 0.6
        },
        {
            "id": 80069,
            "original_name": "Vesni\u010dan",
            "popularity": 0.793
        },
        {
            "id": 93032,
            "original_name": "Modern Sniper",
            "popularity": 0.6
        },
        {
            "id": 93567,
            "original_name": "Stjerneboksning",
            "popularity": 0.6
        },
        {
            "id": 117317,
            "original_name": "Visning",
            "popularity": 1.215
        },
        {
            "id": 120474,
            "original_name": "H\u00e4lsningar Fr\u00e5n",
            "popularity": 0.6
        },
        {
            "id": 121198,
            "original_name": "Lukket visning",
            "popularity": 0.6
        },
        {
            "id": 124744,
            "original_name": "I, Sniper",
            "popularity": 0.821
        },
        {
            "id": 137787,
            "original_name": "Gennemsnitlig sex",
            "popularity": 0.6
        },
        {
            "id": 139532,
            "original_name": "Dhar Mann: The SSSniperwolf Series",
            "popularity": 0.84
        },
        {
            "id": 152368,
            "original_name": "Ungkarsnissen",
            "popularity": 0.6
        }
    ],
    "relations": [
        {
            "character": "snig"
        },
        {
            "character": "sniz"
        },
        {
            "character": "snit"
        },
        {
            "character": "snip"
        },
        {
            "character": "snie"
        },
        {
            "character": "snic"
        },
        {
            "character": "snia"
        },
        {
            "character": "snin"
        },
        {
            "character": "snil"
        },
        {
            "character": "snik"
        },
        {
            "character": "snis"
        }
    ],
    "top20": [
        {
            "id": 841,
            "original_name": "Newsnight",
            "popularity": 5.783
        },
        {
            "id": 67329,
            "original_name": "Bottersnikes & Gumbles",
            "popularity": 3.247
        },
        {
            "id": 12369,
            "original_name": "Sniz and Fondue",
            "popularity": 2.366
        },
        {
            "id": 63041,
            "original_name": "Artsnight",
            "popularity": 1.849
        },
        {
            "id": 23951,
            "original_name": "Newsnight Review",
            "popularity": 1.617
        },
        {
            "id": 55443,
            "original_name": "Folkeopplysningen",
            "popularity": 1.497
        },
        {
            "id": 26062,
            "original_name": "Arga snickaren",
            "popularity": 1.492
        },
        {
            "id": 18425,
            "original_name": "Snip",
            "popularity": 1.4
        },
        {
            "id": 117317,
            "original_name": "Visning",
            "popularity": 1.215
        },
        {
            "id": 139532,
            "original_name": "Dhar Mann: The SSSniperwolf Series",
            "popularity": 0.84
        },
        {
            "id": 26497,
            "original_name": "Beirut to Bosnia",
            "popularity": 0.84
        },
        {
            "id": 124744,
            "original_name": "I, Sniper",
            "popularity": 0.821
        },
        {
            "id": 80069,
            "original_name": "Vesni\u010dan",
            "popularity": 0.793
        },
        {
            "id": 22039,
            "original_name": "Trasniti din N.A.T.O.",
            "popularity": 0.675
        },
        {
            "id": 15388,
            "original_name": "SportsNite",
            "popularity": 0.6
        },
        {
            "id": 9685,
            "original_name": "Sportsnight",
            "popularity": 0.6
        },
        {
            "id": 2582,
            "original_name": "Newsnight Scotland",
            "popularity": 0.6
        },
        {
            "id": 2683,
            "original_name": "NewsNight with Aaron Brown",
            "popularity": 0.6
        },
        {
            "id": 18947,
            "original_name": "Snipets",
            "popularity": 0.6
        },
        {
            "id": 21908,
            "original_name": "Rodzina Lesniewskich",
            "popularity": 0.6
        }
    ]
}