{
    "data": [
        {
            "id": 78500,
            "original_name": "SNS\u30dd\u30ea\u30b9",
            "popularity": 0.6
        }
    ],
    "relations": [],
    "top20": [
        {
            "id": 78500,
            "original_name": "SNS\u30dd\u30ea\u30b9",
            "popularity": 0.6
        }
    ]
}