{
    "data": [
        {
            "id": 36326,
            "original_name": "Kinjirareta Asobi",
            "popularity": 0.727
        },
        {
            "id": 120584,
            "original_name": "R\u00f3wni sobie",
            "popularity": 0.6
        }
    ],
    "relations": [],
    "top20": [
        {
            "id": 36326,
            "original_name": "Kinjirareta Asobi",
            "popularity": 0.727
        },
        {
            "id": 120584,
            "original_name": "R\u00f3wni sobie",
            "popularity": 0.6
        }
    ]
}