{
    "data": [
        {
            "id": 60840,
            "original_name": "Feti\u0161e socializmu",
            "popularity": 0.618
        },
        {
            "id": 128079,
            "original_name": "NSB-DE NATIONALE SOCIALISTISCHE BEWEGING",
            "popularity": 0.6
        }
    ],
    "relations": [],
    "top20": [
        {
            "id": 60840,
            "original_name": "Feti\u0161e socializmu",
            "popularity": 0.618
        },
        {
            "id": 128079,
            "original_name": "NSB-DE NATIONALE SOCIALISTISCHE BEWEGING",
            "popularity": 0.6
        }
    ]
}