{
    "data": [
        {
            "id": 96244,
            "original_name": "Rob Beckett's Savage Socials",
            "popularity": 0.653
        },
        {
            "id": 120535,
            "original_name": "Socials, Seks & Centen",
            "popularity": 0.6
        }
    ],
    "relations": [],
    "top20": [
        {
            "id": 96244,
            "original_name": "Rob Beckett's Savage Socials",
            "popularity": 0.653
        },
        {
            "id": 120535,
            "original_name": "Socials, Seks & Centen",
            "popularity": 0.6
        }
    ]
}