{
    "data": [
        {
            "id": 73210,
            "original_name": "Everyday Miracles: The Genius of Sofas, Stockings and Scanners",
            "popularity": 0.638
        },
        {
            "id": 101808,
            "original_name": "Dybvads sofa",
            "popularity": 0.6
        },
        {
            "id": 114930,
            "original_name": "Sofa King Stupid",
            "popularity": 0.6
        },
        {
            "id": 116278,
            "original_name": "Sofa",
            "popularity": 7.867
        },
        {
            "id": 124941,
            "original_name": "Fuhlendorffs store sofaeksperiment",
            "popularity": 0.6
        },
        {
            "id": 126000,
            "original_name": "Das blaue Sofa",
            "popularity": 0.6
        }
    ],
    "relations": [],
    "top20": [
        {
            "id": 73210,
            "original_name": "Everyday Miracles: The Genius of Sofas, Stockings and Scanners",
            "popularity": 0.638
        },
        {
            "id": 101808,
            "original_name": "Dybvads sofa",
            "popularity": 0.6
        },
        {
            "id": 114930,
            "original_name": "Sofa King Stupid",
            "popularity": 0.6
        },
        {
            "id": 116278,
            "original_name": "Sofa",
            "popularity": 7.867
        },
        {
            "id": 124941,
            "original_name": "Fuhlendorffs store sofaeksperiment",
            "popularity": 0.6
        },
        {
            "id": 126000,
            "original_name": "Das blaue Sofa",
            "popularity": 0.6
        }
    ]
}