{
    "data": [
        {
            "id": 57166,
            "original_name": "The Songs Of Soil",
            "popularity": 0.6
        },
        {
            "id": 113606,
            "original_name": "Sons of The Soil - Jaipur Pink Panthers",
            "popularity": 2.038
        },
        {
            "id": 114757,
            "original_name": "Ladakh Warriors: The Sons Of The Soil",
            "popularity": 0.649
        }
    ],
    "relations": [],
    "top20": [
        {
            "id": 57166,
            "original_name": "The Songs Of Soil",
            "popularity": 0.6
        },
        {
            "id": 113606,
            "original_name": "Sons of The Soil - Jaipur Pink Panthers",
            "popularity": 2.038
        },
        {
            "id": 114757,
            "original_name": "Ladakh Warriors: The Sons Of The Soil",
            "popularity": 0.649
        }
    ]
}