{
    "data": [
        {
            "id": 675,
            "original_name": "Sorted",
            "popularity": 0.6
        },
        {
            "id": 3036,
            "original_name": "Law and Disorder",
            "popularity": 0.875
        },
        {
            "id": 3653,
            "original_name": "Sorry!",
            "popularity": 3.607
        },
        {
            "id": 5932,
            "original_name": "Sordid Lives: The Series",
            "popularity": 1.954
        },
        {
            "id": 6486,
            "original_name": "Celebrity Scissorhands",
            "popularity": 1.345
        },
        {
            "id": 7696,
            "original_name": "El mundo del Profesor Rossa",
            "popularity": 0.631
        },
        {
            "id": 7707,
            "original_name": "Sorority Forever",
            "popularity": 0.6
        },
        {
            "id": 8072,
            "original_name": "Last Resort",
            "popularity": 0.6
        },
        {
            "id": 8471,
            "original_name": "Iris, The Happy Professor",
            "popularity": 0.663
        },
        {
            "id": 8817,
            "original_name": "Sorry, I've Got No Head",
            "popularity": 0.89
        },
        {
            "id": 9768,
            "original_name": "Nanny and the Professor",
            "popularity": 7.023
        },
        {
            "id": 10193,
            "original_name": "Sorority Life",
            "popularity": 0.6
        },
        {
            "id": 10946,
            "original_name": "Celebrities Uncensored",
            "popularity": 0.6
        },
        {
            "id": 11401,
            "original_name": "The Resort",
            "popularity": 0.6
        },
        {
            "id": 12679,
            "original_name": "Disorderly Conduct: Video on Patrol",
            "popularity": 0.965
        },
        {
            "id": 13804,
            "original_name": "Profesor Baltazar",
            "popularity": 0.62
        },
        {
            "id": 14051,
            "original_name": "Professor Poopsnagle's Steam Zeppelin",
            "popularity": 1.4
        },
        {
            "id": 15928,
            "original_name": "Las aut\u00e9nticas aventuras del profesor Thompson",
            "popularity": 0.6
        },
        {
            "id": 16706,
            "original_name": "The Sorcerer's Apprentice",
            "popularity": 0.6
        },
        {
            "id": 17167,
            "original_name": "Uncensored",
            "popularity": 0.6
        },
        {
            "id": 17496,
            "original_name": "The Girls of Hedsor Hall",
            "popularity": 0.6
        },
        {
            "id": 17984,
            "original_name": "Al Murray's Multiple Personality Disorder",
            "popularity": 1.4
        },
        {
            "id": 18341,
            "original_name": "Sortilegio",
            "popularity": 14.165
        },
        {
            "id": 19054,
            "original_name": "The Disorderly Room",
            "popularity": 0.6
        },
        {
            "id": 19060,
            "original_name": "Allsorts",
            "popularity": 0.6
        },
        {
            "id": 20345,
            "original_name": "Wan Wan Celeb Soreyuke! Tetsunoshin",
            "popularity": 1.509
        },
        {
            "id": 20440,
            "original_name": "ABS-CBN News Advisory",
            "popularity": 0.6
        },
        {
            "id": 21509,
            "original_name": "The Court of Last Resort",
            "popularity": 1.333
        },
        {
            "id": 21670,
            "original_name": "Sorry, I'm A Stranger Here Myself",
            "popularity": 0.879
        },
        {
            "id": 22084,
            "original_name": "Sorry I'm Single",
            "popularity": 0.676
        },
        {
            "id": 22279,
            "original_name": "Laura And Disorder",
            "popularity": 0.6
        },
        {
            "id": 23506,
            "original_name": "A Sort of Innocence",
            "popularity": 1.34
        },
        {
            "id": 23702,
            "original_name": "Soreyuke! Gedou Otometai",
            "popularity": 0.604
        },
        {
            "id": 24965,
            "original_name": "Professor Regan's... Health Spa",
            "popularity": 0.6
        },
        {
            "id": 25041,
            "original_name": "Soria Moria",
            "popularity": 1.529
        },
        {
            "id": 25755,
            "original_name": "Famous Presents Hollywood Uncensored",
            "popularity": 0.6
        },
        {
            "id": 27229,
            "original_name": "The Incredible Adventures of Professor Branestawm",
            "popularity": 0.6
        },
        {
            "id": 27911,
            "original_name": "The Last Resort",
            "popularity": 0.6
        },
        {
            "id": 28218,
            "original_name": "The House of Windsor",
            "popularity": 0.629
        },
        {
            "id": 28920,
            "original_name": "The Last Resort",
            "popularity": 0.621
        },
        {
            "id": 29246,
            "original_name": "Resort to Murder",
            "popularity": 1.22
        },
        {
            "id": 32849,
            "original_name": "The Last Resort",
            "popularity": 3.333
        },
        {
            "id": 33441,
            "original_name": "Itanong mo kay Soriano",
            "popularity": 0.6
        },
        {
            "id": 33489,
            "original_name": "Professor Moffett's Science Workshop",
            "popularity": 0.6
        },
        {
            "id": 34615,
            "original_name": "Je suis une c\u00e9l\u00e9brit\u00e9, sortez-moi de l\u00e0 !",
            "popularity": 0.6
        },
        {
            "id": 35317,
            "original_name": "Yes, Sir. Sorry, Sir!",
            "popularity": 0.6
        },
        {
            "id": 35906,
            "original_name": "Sora o Miageru Shoujo no Hitomi ni Utsuru Sekai",
            "popularity": 0.876
        },
        {
            "id": 36500,
            "original_name": "Luke\u2019s Parental Advisory",
            "popularity": 0.6
        },
        {
            "id": 36866,
            "original_name": "The Last Resort",
            "popularity": 0.6
        },
        {
            "id": 37015,
            "original_name": "Hollywood Uncensored with Sam Rubin",
            "popularity": 0.6
        },
        {
            "id": 37313,
            "original_name": "The Wonderful Stories of Professor Kitzel",
            "popularity": 0.6
        },
        {
            "id": 38640,
            "original_name": "Br\u00f8drene Dal og Professor Dr\u00f8vels hemmelighet",
            "popularity": 0.835
        },
        {
            "id": 38878,
            "original_name": "Disorder in the Court",
            "popularity": 0.6
        },
        {
            "id": 39611,
            "original_name": "C'est pas sorcier",
            "popularity": 4.519
        },
        {
            "id": 40760,
            "original_name": "Die Verbrechen des Professor Capellari",
            "popularity": 3.622
        },
        {
            "id": 41498,
            "original_name": "Tua sorella",
            "popularity": 0.6
        },
        {
            "id": 41679,
            "original_name": "O Sorriso do Lagarto",
            "popularity": 0.6
        },
        {
            "id": 42040,
            "original_name": "Project Accessory",
            "popularity": 0.6
        },
        {
            "id": 42454,
            "original_name": "Roast of Denis Leary: Uncensored",
            "popularity": 0.94
        },
        {
            "id": 42836,
            "original_name": "\u84bc\u7a79\u306e\u30d5\u30a1\u30d5\u30ca\u30fc Dead Aggressor",
            "popularity": 7.439
        },
        {
            "id": 43363,
            "original_name": "Tom Green Show: Unscensored",
            "popularity": 0.6
        },
        {
            "id": 43838,
            "original_name": "Sorority Girls",
            "popularity": 0.6
        },
        {
            "id": 44384,
            "original_name": "The Worst Witch: Sorcery and Chips",
            "popularity": 0.654
        },
        {
            "id": 44652,
            "original_name": "Last Resort",
            "popularity": 12.704
        },
        {
            "id": 45599,
            "original_name": "MTV Uncensored",
            "popularity": 0.6
        },
        {
            "id": 46776,
            "original_name": "Who's Sorry Now?",
            "popularity": 0.6
        },
        {
            "id": 48274,
            "original_name": "Hotel pod \u017cyraf\u0105 i nosoro\u017ccem",
            "popularity": 0.6
        },
        {
            "id": 48283,
            "original_name": "Professor Tian Family's 28 Relatives",
            "popularity": 0.6
        },
        {
            "id": 48728,
            "original_name": "Klub profesora Tutki",
            "popularity": 0.6
        },
        {
            "id": 49049,
            "original_name": "Sorry that I Fell in Love With You",
            "popularity": 0.804
        },
        {
            "id": 49631,
            "original_name": "Ayk\u0131r\u0131 Sorular",
            "popularity": 0.6
        },
        {
            "id": 49635,
            "original_name": "\u00dc\u00e7 Soru \u0130ki Yorum",
            "popularity": 0.6
        },
        {
            "id": 51302,
            "original_name": "Vacsoracsata",
            "popularity": 0.6
        },
        {
            "id": 52439,
            "original_name": "Ku-Larb-Sorn-Narm",
            "popularity": 0.6
        },
        {
            "id": 53104,
            "original_name": "Professor Hutton's Curiosities",
            "popularity": 0.6
        },
        {
            "id": 53952,
            "original_name": "Vatanda\u015f Soruyor",
            "popularity": 0.6
        },
        {
            "id": 55356,
            "original_name": "MMA Uncensored Live",
            "popularity": 0.6
        },
        {
            "id": 55680,
            "original_name": "The Chronicles Of Professor Elemental",
            "popularity": 0.6
        },
        {
            "id": 56173,
            "original_name": "Me'Ahorei Hasoragim",
            "popularity": 0.6
        },
        {
            "id": 56903,
            "original_name": "Rogue Professor",
            "popularity": 0.6
        },
        {
            "id": 57984,
            "original_name": "Ruk Sorn Rode",
            "popularity": 0.6
        },
        {
            "id": 58218,
            "original_name": "La situazione di mia sorella non \u00e8 buona",
            "popularity": 0.6
        },
        {
            "id": 58386,
            "original_name": "Professor Pyarelal",
            "popularity": 0.6
        },
        {
            "id": 58913,
            "original_name": "Law and Disorder: Going Public",
            "popularity": 0.6
        },
        {
            "id": 59572,
            "original_name": "The Disordered Mind",
            "popularity": 0.6
        },
        {
            "id": 59800,
            "original_name": "Ta Soraya",
            "popularity": 0.6
        },
        {
            "id": 60022,
            "original_name": "To Soraya",
            "popularity": 1.09
        },
        {
            "id": 60252,
            "original_name": "Niraj Sorng pop",
            "popularity": 0.6
        },
        {
            "id": 60798,
            "original_name": "Engels & Consorten",
            "popularity": 1.189
        },
        {
            "id": 62157,
            "original_name": "\u7d14\u6f54\u306e\u30de\u30ea\u30a2 Sorci\u00e8re de gr\u00e9, pucelle de force",
            "popularity": 5.464
        },
        {
            "id": 62321,
            "original_name": "Resident Advisors",
            "popularity": 2.459
        },
        {
            "id": 62503,
            "original_name": "L'isola del tesoro",
            "popularity": 2.055
        },
        {
            "id": 63264,
            "original_name": "Piratas: El tesoro perdido de Y\u00e1\u00f1ez el sanguinario",
            "popularity": 2.169
        },
        {
            "id": 63784,
            "original_name": "Die Ohnsorgs",
            "popularity": 0.858
        },
        {
            "id": 64011,
            "original_name": "Professor T.",
            "popularity": 3.116
        },
        {
            "id": 64477,
            "original_name": "Order and Disorder",
            "popularity": 0.6
        },
        {
            "id": 65172,
            "original_name": "Dofus : Aux tr\u00e9sors de Kerubim",
            "popularity": 5.402
        },
        {
            "id": 66437,
            "original_name": "The Windsors",
            "popularity": 3.577
        },
        {
            "id": 67909,
            "original_name": "Sorry voor alles",
            "popularity": 0.6
        },
        {
            "id": 67994,
            "original_name": "RT Sponsor Cut",
            "popularity": 1.973
        },
        {
            "id": 68327,
            "original_name": "Sorjonen",
            "popularity": 14.99
        },
        {
            "id": 69511,
            "original_name": "Professor T.",
            "popularity": 8.349
        },
        {
            "id": 69860,
            "original_name": "Lom Sorn Ruk",
            "popularity": 0.6
        },
        {
            "id": 69875,
            "original_name": "Uncensored with Michael Ware",
            "popularity": 0.6
        },
        {
            "id": 70369,
            "original_name": "Escolinha do Professor Raimundo",
            "popularity": 0.6
        },
        {
            "id": 71099,
            "original_name": "I'm Sorry I Love You",
            "popularity": 0.6
        },
        {
            "id": 71938,
            "original_name": "Sore",
            "popularity": 0.6
        },
        {
            "id": 72783,
            "original_name": "Sortons danser",
            "popularity": 0.6
        },
        {
            "id": 72820,
            "original_name": "I'm Sorry",
            "popularity": 5.758
        },
        {
            "id": 73294,
            "original_name": "Inside Windsor Castle",
            "popularity": 0.6
        },
        {
            "id": 74308,
            "original_name": "The Royal House of Windsor",
            "popularity": 4.275
        },
        {
            "id": 75584,
            "original_name": "La dame de Monsoreau",
            "popularity": 0.904
        },
        {
            "id": 75948,
            "original_name": "Meraviglie - La penisola dei tesori",
            "popularity": 1.139
        },
        {
            "id": 77403,
            "original_name": "Uncensored",
            "popularity": 1.96
        },
        {
            "id": 77970,
            "original_name": "Atelier Fontana - Le sorelle della moda",
            "popularity": 1.602
        },
        {
            "id": 78097,
            "original_name": "La Dame de Monsoreau",
            "popularity": 1.363
        },
        {
            "id": 78592,
            "original_name": "a Megami-sama Sorezore No Tsubasa (2006)",
            "popularity": 0.6
        },
        {
            "id": 79029,
            "original_name": "LesD\u00e9sastreusesaventuresdesorphelinsBaudelaire",
            "popularity": 0.6
        },
        {
            "id": 81991,
            "original_name": "Sorry For Your Loss",
            "popularity": 8.383
        },
        {
            "id": 82082,
            "original_name": "Tr\u00e9sors D'Europe",
            "popularity": 0.604
        },
        {
            "id": 82619,
            "original_name": "X.X.X: Uncensored",
            "popularity": 22.845
        },
        {
            "id": 83765,
            "original_name": "Sehnsuchtsorte",
            "popularity": 0.6
        },
        {
            "id": 83828,
            "original_name": "Escolinha do Professor Raimundo Nova Gera\u00e7\u00e3o",
            "popularity": 1.294
        },
        {
            "id": 84025,
            "original_name": "Profesor T.",
            "popularity": 1.4
        },
        {
            "id": 84301,
            "original_name": "El Intercesor",
            "popularity": 1.141
        },
        {
            "id": 84997,
            "original_name": "L'isola del Tesoro",
            "popularity": 0.6
        },
        {
            "id": 85018,
            "original_name": "Professor Haber berichtet",
            "popularity": 0.6
        },
        {
            "id": 85498,
            "original_name": "The Bridge : le Tr\u00e9sor de Patagonie",
            "popularity": 0.6
        },
        {
            "id": 87837,
            "original_name": "On n'est pas sorti du bois!",
            "popularity": 0.6
        },
        {
            "id": 89105,
            "original_name": "Les Tr\u00e9sors de...",
            "popularity": 0.615
        },
        {
            "id": 89766,
            "original_name": "Golpe de Sorte",
            "popularity": 3.28
        },
        {
            "id": 90279,
            "original_name": "L'isola del tesoro",
            "popularity": 0.805
        },
        {
            "id": 90280,
            "original_name": "L'enigma delle due sorelle",
            "popularity": 1.104
        },
        {
            "id": 90286,
            "original_name": "Airoldi pour une sortie",
            "popularity": 0.847
        },
        {
            "id": 93436,
            "original_name": "Portugu\u00eas - Professor Nolsen",
            "popularity": 0.6
        },
        {
            "id": 93438,
            "original_name": "Matem\u00e1tica - Professor Guilherme",
            "popularity": 1.361
        },
        {
            "id": 93439,
            "original_name": "F\u00edsica - Professor Rodrigo",
            "popularity": 0.6
        },
        {
            "id": 93440,
            "original_name": "Biologia - Professor Kennedy Ramos",
            "popularity": 0.6
        },
        {
            "id": 93441,
            "original_name": "Geografia - Professor Giordano",
            "popularity": 0.6
        },
        {
            "id": 93442,
            "original_name": "Qu\u00edmica - Professora Mafe",
            "popularity": 0.6
        },
        {
            "id": 93444,
            "original_name": "Hist\u00f3ria - Professora D\u00e9bora Aladim",
            "popularity": 0.6
        },
        {
            "id": 94165,
            "original_name": "Tiwa Sorn Dao",
            "popularity": 0.6
        },
        {
            "id": 94309,
            "original_name": "The Advisors Alliance",
            "popularity": 0.6
        },
        {
            "id": 94413,
            "original_name": "El desorden que dejas",
            "popularity": 43.86
        },
        {
            "id": 95176,
            "original_name": "Helt sort",
            "popularity": 0.953
        },
        {
            "id": 95440,
            "original_name": "Brorsor 4ever",
            "popularity": 0.6
        },
        {
            "id": 95616,
            "original_name": "Des B\u00eates et des Sorci\u00e8res",
            "popularity": 0.908
        },
        {
            "id": 95765,
            "original_name": "Sorelle",
            "popularity": 1.19
        },
        {
            "id": 95988,
            "original_name": "Veel Geluk, Professor!",
            "popularity": 0.6
        },
        {
            "id": 96454,
            "original_name": "Papa Luciani, il sorriso di Dio",
            "popularity": 1.236
        },
        {
            "id": 96851,
            "original_name": "C\u2019est toujours pas sorcier",
            "popularity": 3.325
        },
        {
            "id": 97434,
            "original_name": "Id-Dar Tas-Soru",
            "popularity": 0.6
        },
        {
            "id": 98012,
            "original_name": "Sorn Ngao Rak (2020)",
            "popularity": 0.6
        },
        {
            "id": 98420,
            "original_name": "La Course aux tr\u00e9sors d' Historia",
            "popularity": 0.6
        },
        {
            "id": 99867,
            "original_name": "P\u00e1n profesor",
            "popularity": 14.576
        },
        {
            "id": 100561,
            "original_name": "Le sorcier",
            "popularity": 0.6
        },
        {
            "id": 100569,
            "original_name": "Le Tr\u00e9sor des treize maisons",
            "popularity": 0.6
        },
        {
            "id": 100819,
            "original_name": "Escolinha do Professor Raimundo",
            "popularity": 0.6
        },
        {
            "id": 101525,
            "original_name": "Professor Balthazar",
            "popularity": 0.6
        },
        {
            "id": 101956,
            "original_name": "Sorina Fok",
            "popularity": 0.6
        },
        {
            "id": 102066,
            "original_name": "Sorrell and Son",
            "popularity": 0.6
        },
        {
            "id": 102635,
            "original_name": "Rock Paper Scissors",
            "popularity": 0.859
        },
        {
            "id": 102987,
            "original_name": "The Windsors: Inside the Royal Dynasty",
            "popularity": 1.4
        },
        {
            "id": 103144,
            "original_name": "Den stora h\u00e4lsoresan",
            "popularity": 1.081
        },
        {
            "id": 103289,
            "original_name": "Divino tesoro",
            "popularity": 0.6
        },
        {
            "id": 103429,
            "original_name": "Jao Mae Asorapit",
            "popularity": 0.6
        },
        {
            "id": 103936,
            "original_name": "Coti Sorokin Y Los Brillantes",
            "popularity": 0.6
        },
        {
            "id": 104808,
            "original_name": "No Mercy, No Malice With Professor Scott Galloway",
            "popularity": 0.6
        },
        {
            "id": 105537,
            "original_name": "El Tesoro",
            "popularity": 0.6
        },
        {
            "id": 106317,
            "original_name": "Lost Resort",
            "popularity": 0.6
        },
        {
            "id": 107227,
            "original_name": "Eres mi tesoro",
            "popularity": 0.6
        },
        {
            "id": 108968,
            "original_name": "Le tr\u00e9sor perdu des templiers",
            "popularity": 0.6
        },
        {
            "id": 109483,
            "original_name": "Amor e Sorte",
            "popularity": 1.422
        },
        {
            "id": 109549,
            "original_name": "Thank You and Sorry",
            "popularity": 1.775
        },
        {
            "id": 111702,
            "original_name": "Payakorn Sorn Ruk",
            "popularity": 0.6
        },
        {
            "id": 112279,
            "original_name": "La carte aux tr\u00e9sors",
            "popularity": 0.6
        },
        {
            "id": 112536,
            "original_name": "La Chasse aux tr\u00e9sors",
            "popularity": 0.6
        },
        {
            "id": 113040,
            "original_name": "El Tesoro",
            "popularity": 1.492
        },
        {
            "id": 113126,
            "original_name": "Sorority House Massacre",
            "popularity": 0.84
        },
        {
            "id": 113424,
            "original_name": "House of Salt and Sorrows",
            "popularity": 7.918
        },
        {
            "id": 113502,
            "original_name": "\u0e40\u0e1b\u0e47\u0e19\u0e15\u0e48\u0e2d Uncensored",
            "popularity": 0.6
        },
        {
            "id": 113660,
            "original_name": "Sorry, I Didn't Know",
            "popularity": 0.638
        },
        {
            "id": 114126,
            "original_name": "Sorellina e il principe del sogno",
            "popularity": 0.893
        },
        {
            "id": 114732,
            "original_name": "Sortez-moi de moi",
            "popularity": 1.715
        },
        {
            "id": 115075,
            "original_name": "La course aux tr\u00e9sors d\u2019Historia",
            "popularity": 1.767
        },
        {
            "id": 117131,
            "original_name": "Afrika er det nye sort",
            "popularity": 0.6
        },
        {
            "id": 118104,
            "original_name": "Tr\u00e9sors de casse",
            "popularity": 0.6
        },
        {
            "id": 118377,
            "original_name": "Sorted Food @ The Table",
            "popularity": 0.625
        },
        {
            "id": 121782,
            "original_name": "The Royal Wives of Windsor",
            "popularity": 0.6
        },
        {
            "id": 122228,
            "original_name": "LOL : Qui rit, sort !",
            "popularity": 4.59
        },
        {
            "id": 123950,
            "original_name": "Le tr\u00e9sor de Saint-Castin",
            "popularity": 0.6
        },
        {
            "id": 124162,
            "original_name": "Tesoros de la tele",
            "popularity": 0.6
        },
        {
            "id": 124263,
            "original_name": "Sort Your Life Out",
            "popularity": 0.6
        },
        {
            "id": 124898,
            "original_name": "Tesoros y Fantasmas de la Ciencia Espa\u00f1ola",
            "popularity": 0.6
        },
        {
            "id": 125308,
            "original_name": "Consort Luo Nan",
            "popularity": 0.6
        },
        {
            "id": 125522,
            "original_name": "Les tr\u00e9sors d'Europe",
            "popularity": 0.6
        },
        {
            "id": 125827,
            "original_name": "Det sorte b\u00e6lte",
            "popularity": 0.681
        },
        {
            "id": 126593,
            "original_name": "Entregues \u00e0 Sorte",
            "popularity": 0.6
        },
        {
            "id": 126660,
            "original_name": "Professor T",
            "popularity": 2.249
        },
        {
            "id": 127937,
            "original_name": "Les Tre\u0301sors Perdus d'Egypte",
            "popularity": 0.6
        },
        {
            "id": 128317,
            "original_name": "Bele\u017enica profesora Mi\u0161kovi\u0107a",
            "popularity": 0.84
        },
        {
            "id": 129877,
            "original_name": "Sleuths, Spies & Sorcerers: Andrew Marr's Paperback Heroes",
            "popularity": 0.6
        },
        {
            "id": 130271,
            "original_name": "Sorgen Mitt I Bygden",
            "popularity": 0.6
        },
        {
            "id": 132502,
            "original_name": "\u00c7a ne sortira pas d'ici !",
            "popularity": 0.6
        },
        {
            "id": 132919,
            "original_name": "Pan profesor",
            "popularity": 21.231
        },
        {
            "id": 133342,
            "original_name": "Sort Of",
            "popularity": 5.314
        },
        {
            "id": 135303,
            "original_name": "Soredemo Ai wo Chikaimasu ka?",
            "popularity": 6.291
        },
        {
            "id": 135893,
            "original_name": "Junk and Disorderly",
            "popularity": 0.6
        },
        {
            "id": 137626,
            "original_name": "Sort Your Life Out With Stacey Solomon",
            "popularity": 5.237
        },
        {
            "id": 138395,
            "original_name": "Un Professore",
            "popularity": 21.232
        },
        {
            "id": 139584,
            "original_name": "Le tr\u00e9sor de guerre de Napol\u00e9on",
            "popularity": 0.672
        },
        {
            "id": 139672,
            "original_name": "Boa Sorte Viajante",
            "popularity": 0.6
        },
        {
            "id": 152372,
            "original_name": "Tara Duncan : Les Sortceliers",
            "popularity": 3.842
        }
    ],
    "relations": [
        {
            "character": "sort"
        },
        {
            "character": "sord"
        },
        {
            "character": "sorr"
        },
        {
            "character": "sorh"
        },
        {
            "character": "soro"
        },
        {
            "character": "sore"
        },
        {
            "character": "sorc"
        },
        {
            "character": "sory"
        },
        {
            "character": "sori"
        },
        {
            "character": "sora"
        },
        {
            "character": "soru"
        },
        {
            "character": "sorn"
        },
        {
            "character": "sors"
        },
        {
            "character": "sorg"
        },
        {
            "character": "sorj"
        },
        {
            "character": "sorp"
        },
        {
            "character": "sor!"
        }
    ],
    "top20": [
        {
            "id": 94413,
            "original_name": "El desorden que dejas",
            "popularity": 43.86
        },
        {
            "id": 82619,
            "original_name": "X.X.X: Uncensored",
            "popularity": 22.845
        },
        {
            "id": 138395,
            "original_name": "Un Professore",
            "popularity": 21.232
        },
        {
            "id": 132919,
            "original_name": "Pan profesor",
            "popularity": 21.231
        },
        {
            "id": 68327,
            "original_name": "Sorjonen",
            "popularity": 14.99
        },
        {
            "id": 99867,
            "original_name": "P\u00e1n profesor",
            "popularity": 14.576
        },
        {
            "id": 18341,
            "original_name": "Sortilegio",
            "popularity": 14.165
        },
        {
            "id": 44652,
            "original_name": "Last Resort",
            "popularity": 12.704
        },
        {
            "id": 81991,
            "original_name": "Sorry For Your Loss",
            "popularity": 8.383
        },
        {
            "id": 69511,
            "original_name": "Professor T.",
            "popularity": 8.349
        },
        {
            "id": 113424,
            "original_name": "House of Salt and Sorrows",
            "popularity": 7.918
        },
        {
            "id": 42836,
            "original_name": "\u84bc\u7a79\u306e\u30d5\u30a1\u30d5\u30ca\u30fc Dead Aggressor",
            "popularity": 7.439
        },
        {
            "id": 9768,
            "original_name": "Nanny and the Professor",
            "popularity": 7.023
        },
        {
            "id": 135303,
            "original_name": "Soredemo Ai wo Chikaimasu ka?",
            "popularity": 6.291
        },
        {
            "id": 72820,
            "original_name": "I'm Sorry",
            "popularity": 5.758
        },
        {
            "id": 62157,
            "original_name": "\u7d14\u6f54\u306e\u30de\u30ea\u30a2 Sorci\u00e8re de gr\u00e9, pucelle de force",
            "popularity": 5.464
        },
        {
            "id": 65172,
            "original_name": "Dofus : Aux tr\u00e9sors de Kerubim",
            "popularity": 5.402
        },
        {
            "id": 133342,
            "original_name": "Sort Of",
            "popularity": 5.314
        },
        {
            "id": 137626,
            "original_name": "Sort Your Life Out With Stacey Solomon",
            "popularity": 5.237
        },
        {
            "id": 122228,
            "original_name": "LOL : Qui rit, sort !",
            "popularity": 4.59
        }
    ]
}