{
    "data": [
        {
            "id": 20440,
            "original_name": "ABS-CBN News Advisory",
            "popularity": 0.6
        },
        {
            "id": 36500,
            "original_name": "Luke\u2019s Parental Advisory",
            "popularity": 0.6
        },
        {
            "id": 42040,
            "original_name": "Project Accessory",
            "popularity": 0.6
        }
    ],
    "relations": [],
    "top20": [
        {
            "id": 20440,
            "original_name": "ABS-CBN News Advisory",
            "popularity": 0.6
        },
        {
            "id": 36500,
            "original_name": "Luke\u2019s Parental Advisory",
            "popularity": 0.6
        },
        {
            "id": 42040,
            "original_name": "Project Accessory",
            "popularity": 0.6
        }
    ]
}