{
    "data": [
        {
            "id": 6711,
            "original_name": "European Soundmix Show",
            "popularity": 0.6
        },
        {
            "id": 20047,
            "original_name": "Soundmixshow",
            "popularity": 0.6
        }
    ],
    "relations": [],
    "top20": [
        {
            "id": 6711,
            "original_name": "European Soundmix Show",
            "popularity": 0.6
        },
        {
            "id": 20047,
            "original_name": "Soundmixshow",
            "popularity": 0.6
        }
    ]
}