{
    "data": [
        {
            "id": 52673,
            "original_name": "Dars Khousousy",
            "popularity": 0.6
        }
    ],
    "relations": [],
    "top20": [
        {
            "id": 52673,
            "original_name": "Dars Khousousy",
            "popularity": 0.6
        }
    ]
}