{
    "data": [
        {
            "id": 7596,
            "original_name": "O Jardineiro Espanhol",
            "popularity": 0.6
        }
    ],
    "relations": [],
    "top20": [
        {
            "id": 7596,
            "original_name": "O Jardineiro Espanhol",
            "popularity": 0.6
        }
    ]
}