{
    "data": [
        {
            "id": 1702,
            "original_name": "Spheres",
            "popularity": 0.6
        },
        {
            "id": 6950,
            "original_name": "Atmospheres",
            "popularity": 0.6
        },
        {
            "id": 9967,
            "original_name": "Feasting on Asphalt",
            "popularity": 0.842
        },
        {
            "id": 12564,
            "original_name": "Hemispheres",
            "popularity": 0.6
        },
        {
            "id": 22607,
            "original_name": "The Asphalt Jungle",
            "popularity": 3.083
        },
        {
            "id": 40829,
            "original_name": "Sphere Club",
            "popularity": 0.6
        },
        {
            "id": 43834,
            "original_name": "Spheriks",
            "popularity": 0.6
        },
        {
            "id": 61099,
            "original_name": "Sphinx \u2013 Geheimnisse der Geschichte",
            "popularity": 2.853
        },
        {
            "id": 68260,
            "original_name": "Spheres",
            "popularity": 0.6
        },
        {
            "id": 97687,
            "original_name": "Stratusphere",
            "popularity": 0.6
        },
        {
            "id": 102263,
            "original_name": "Asphalt-Cowboys",
            "popularity": 17.595
        },
        {
            "id": 108852,
            "original_name": "Sphere",
            "popularity": 0.6
        },
        {
            "id": 121011,
            "original_name": "Soup\u00e7ons, les dessous de l'affaire Wesphael",
            "popularity": 2.106
        }
    ],
    "relations": [],
    "top20": [
        {
            "id": 1702,
            "original_name": "Spheres",
            "popularity": 0.6
        },
        {
            "id": 6950,
            "original_name": "Atmospheres",
            "popularity": 0.6
        },
        {
            "id": 9967,
            "original_name": "Feasting on Asphalt",
            "popularity": 0.842
        },
        {
            "id": 12564,
            "original_name": "Hemispheres",
            "popularity": 0.6
        },
        {
            "id": 22607,
            "original_name": "The Asphalt Jungle",
            "popularity": 3.083
        },
        {
            "id": 40829,
            "original_name": "Sphere Club",
            "popularity": 0.6
        },
        {
            "id": 43834,
            "original_name": "Spheriks",
            "popularity": 0.6
        },
        {
            "id": 61099,
            "original_name": "Sphinx \u2013 Geheimnisse der Geschichte",
            "popularity": 2.853
        },
        {
            "id": 68260,
            "original_name": "Spheres",
            "popularity": 0.6
        },
        {
            "id": 97687,
            "original_name": "Stratusphere",
            "popularity": 0.6
        },
        {
            "id": 102263,
            "original_name": "Asphalt-Cowboys",
            "popularity": 17.595
        },
        {
            "id": 108852,
            "original_name": "Sphere",
            "popularity": 0.6
        },
        {
            "id": 121011,
            "original_name": "Soup\u00e7ons, les dessous de l'affaire Wesphael",
            "popularity": 2.106
        }
    ]
}