{
    "data": [
        {
            "id": 133173,
            "original_name": "Dorota inspiruje",
            "popularity": 0.6
        }
    ],
    "relations": [],
    "top20": [
        {
            "id": 133173,
            "original_name": "Dorota inspiruje",
            "popularity": 0.6
        }
    ]
}