{
    "data": [
        {
            "id": 23061,
            "original_name": "Spoiled Rotten",
            "popularity": 0.6
        },
        {
            "id": 24408,
            "original_name": "Daddy's Spoiled Little Girl",
            "popularity": 0.6
        },
        {
            "id": 26489,
            "original_name": "The Spoils of War",
            "popularity": 0.6
        },
        {
            "id": 33468,
            "original_name": "Crosspoint",
            "popularity": 0.6
        },
        {
            "id": 43953,
            "original_name": "Spoilers",
            "popularity": 1.271
        },
        {
            "id": 50132,
            "original_name": "The Spoils of Babylon",
            "popularity": 4.22
        },
        {
            "id": 50187,
            "original_name": "The Spoils of Poynton",
            "popularity": 0.6
        },
        {
            "id": 55847,
            "original_name": "Spoiled Rotten Pets",
            "popularity": 0.6
        },
        {
            "id": 63023,
            "original_name": "The Spoils Before Dying",
            "popularity": 2.665
        },
        {
            "id": 75507,
            "original_name": "Les Colliers de l'Espoir",
            "popularity": 0.6
        },
        {
            "id": 125331,
            "original_name": "Les printemps arabes : de l'espoir au d\u00e9sespoir",
            "popularity": 0.6
        }
    ],
    "relations": [],
    "top20": [
        {
            "id": 23061,
            "original_name": "Spoiled Rotten",
            "popularity": 0.6
        },
        {
            "id": 24408,
            "original_name": "Daddy's Spoiled Little Girl",
            "popularity": 0.6
        },
        {
            "id": 26489,
            "original_name": "The Spoils of War",
            "popularity": 0.6
        },
        {
            "id": 33468,
            "original_name": "Crosspoint",
            "popularity": 0.6
        },
        {
            "id": 43953,
            "original_name": "Spoilers",
            "popularity": 1.271
        },
        {
            "id": 50132,
            "original_name": "The Spoils of Babylon",
            "popularity": 4.22
        },
        {
            "id": 50187,
            "original_name": "The Spoils of Poynton",
            "popularity": 0.6
        },
        {
            "id": 55847,
            "original_name": "Spoiled Rotten Pets",
            "popularity": 0.6
        },
        {
            "id": 63023,
            "original_name": "The Spoils Before Dying",
            "popularity": 2.665
        },
        {
            "id": 75507,
            "original_name": "Les Colliers de l'Espoir",
            "popularity": 0.6
        },
        {
            "id": 125331,
            "original_name": "Les printemps arabes : de l'espoir au d\u00e9sespoir",
            "popularity": 0.6
        }
    ]
}