{
    "data": [
        {
            "id": 3753,
            "original_name": "Crossroads",
            "popularity": 14.16
        },
        {
            "id": 10698,
            "original_name": "CMT Crossroads",
            "popularity": 3.018
        },
        {
            "id": 16510,
            "original_name": "Crossroads",
            "popularity": 0.6
        },
        {
            "id": 19676,
            "original_name": "America at a Crossroads",
            "popularity": 0.623
        },
        {
            "id": 21504,
            "original_name": "Crossroads",
            "popularity": 5.942
        },
        {
            "id": 25790,
            "original_name": "Crossroads",
            "popularity": 1.693
        },
        {
            "id": 29029,
            "original_name": "Crossroads",
            "popularity": 4.406
        },
        {
            "id": 31898,
            "original_name": "Crossroads Caf\u00e9",
            "popularity": 0.6
        },
        {
            "id": 45777,
            "original_name": "China at the Crossroads",
            "popularity": 0.6
        },
        {
            "id": 58438,
            "original_name": "Crossroads",
            "popularity": 0.6
        }
    ],
    "relations": [],
    "top20": [
        {
            "id": 3753,
            "original_name": "Crossroads",
            "popularity": 14.16
        },
        {
            "id": 10698,
            "original_name": "CMT Crossroads",
            "popularity": 3.018
        },
        {
            "id": 16510,
            "original_name": "Crossroads",
            "popularity": 0.6
        },
        {
            "id": 19676,
            "original_name": "America at a Crossroads",
            "popularity": 0.623
        },
        {
            "id": 21504,
            "original_name": "Crossroads",
            "popularity": 5.942
        },
        {
            "id": 25790,
            "original_name": "Crossroads",
            "popularity": 1.693
        },
        {
            "id": 29029,
            "original_name": "Crossroads",
            "popularity": 4.406
        },
        {
            "id": 31898,
            "original_name": "Crossroads Caf\u00e9",
            "popularity": 0.6
        },
        {
            "id": 45777,
            "original_name": "China at the Crossroads",
            "popularity": 0.6
        },
        {
            "id": 58438,
            "original_name": "Crossroads",
            "popularity": 0.6
        }
    ]
}