{
    "data": [
        {
            "id": 86370,
            "original_name": "Dissected",
            "popularity": 0.6
        },
        {
            "id": 114070,
            "original_name": "Presseclub",
            "popularity": 1.938
        }
    ],
    "relations": [],
    "top20": [
        {
            "id": 86370,
            "original_name": "Dissected",
            "popularity": 0.6
        },
        {
            "id": 114070,
            "original_name": "Presseclub",
            "popularity": 1.938
        }
    ]
}