{
    "data": [
        {
            "id": 90236,
            "original_name": "Eine Legende. Unvergessen.",
            "popularity": 0.6
        },
        {
            "id": 128555,
            "original_name": "Kriminell. Weggesperrt. Entlassen.",
            "popularity": 0.6
        }
    ],
    "relations": [],
    "top20": [
        {
            "id": 90236,
            "original_name": "Eine Legende. Unvergessen.",
            "popularity": 0.6
        },
        {
            "id": 128555,
            "original_name": "Kriminell. Weggesperrt. Entlassen.",
            "popularity": 0.6
        }
    ]
}