{
    "data": [
        {
            "id": 12677,
            "original_name": "CNBC on Assignment",
            "popularity": 0.6
        },
        {
            "id": 13389,
            "original_name": "Assignment: Vienna",
            "popularity": 1.294
        },
        {
            "id": 19506,
            "original_name": "Assignment Four",
            "popularity": 0.6
        },
        {
            "id": 20693,
            "original_name": "SABC Special Assignment",
            "popularity": 0.6
        },
        {
            "id": 21672,
            "original_name": "Assignment: Underwater",
            "popularity": 0.6
        },
        {
            "id": 22794,
            "original_name": "Assignment Foreign Legion",
            "popularity": 1.4
        },
        {
            "id": 25288,
            "original_name": "Dangerous Assignment",
            "popularity": 5.92
        },
        {
            "id": 31932,
            "original_name": "Blue Peter Special Assignment",
            "popularity": 0.6
        },
        {
            "id": 34224,
            "original_name": "Special Assignment",
            "popularity": 0.6
        },
        {
            "id": 36284,
            "original_name": "Benelli on Assignment",
            "popularity": 0.6
        },
        {
            "id": 43551,
            "original_name": "Natalie Dessay: Le Rossignol",
            "popularity": 0.6
        },
        {
            "id": 45483,
            "original_name": "Assignment Discovery",
            "popularity": 0.6
        },
        {
            "id": 82206,
            "original_name": "#TheAssignment",
            "popularity": 1.141
        },
        {
            "id": 119529,
            "original_name": "On Assignment with Richard Engel",
            "popularity": 1.11
        },
        {
            "id": 133928,
            "original_name": "On Assignment",
            "popularity": 0.6
        }
    ],
    "relations": [],
    "top20": [
        {
            "id": 12677,
            "original_name": "CNBC on Assignment",
            "popularity": 0.6
        },
        {
            "id": 13389,
            "original_name": "Assignment: Vienna",
            "popularity": 1.294
        },
        {
            "id": 19506,
            "original_name": "Assignment Four",
            "popularity": 0.6
        },
        {
            "id": 20693,
            "original_name": "SABC Special Assignment",
            "popularity": 0.6
        },
        {
            "id": 21672,
            "original_name": "Assignment: Underwater",
            "popularity": 0.6
        },
        {
            "id": 22794,
            "original_name": "Assignment Foreign Legion",
            "popularity": 1.4
        },
        {
            "id": 25288,
            "original_name": "Dangerous Assignment",
            "popularity": 5.92
        },
        {
            "id": 31932,
            "original_name": "Blue Peter Special Assignment",
            "popularity": 0.6
        },
        {
            "id": 34224,
            "original_name": "Special Assignment",
            "popularity": 0.6
        },
        {
            "id": 36284,
            "original_name": "Benelli on Assignment",
            "popularity": 0.6
        },
        {
            "id": 43551,
            "original_name": "Natalie Dessay: Le Rossignol",
            "popularity": 0.6
        },
        {
            "id": 45483,
            "original_name": "Assignment Discovery",
            "popularity": 0.6
        },
        {
            "id": 82206,
            "original_name": "#TheAssignment",
            "popularity": 1.141
        },
        {
            "id": 119529,
            "original_name": "On Assignment with Richard Engel",
            "popularity": 1.11
        },
        {
            "id": 133928,
            "original_name": "On Assignment",
            "popularity": 0.6
        }
    ]
}