{
    "data": [
        {
            "id": 7107,
            "original_name": "The Passions of Girls Aloud",
            "popularity": 0.626
        },
        {
            "id": 7398,
            "original_name": "When We Left Earth: The NASA Missions",
            "popularity": 2.211
        },
        {
            "id": 8632,
            "original_name": "Consuming Passions",
            "popularity": 0.6
        },
        {
            "id": 9456,
            "original_name": "Private Sessions",
            "popularity": 0.6
        },
        {
            "id": 9912,
            "original_name": "Passions",
            "popularity": 2.428
        },
        {
            "id": 11123,
            "original_name": "Combat Missions",
            "popularity": 0.6
        },
        {
            "id": 12299,
            "original_name": "Sessions at West 54th",
            "popularity": 0.6
        },
        {
            "id": 12441,
            "original_name": "Family Passions",
            "popularity": 2.412
        },
        {
            "id": 13256,
            "original_name": "Taxicab Confessions",
            "popularity": 0.6
        },
        {
            "id": 16341,
            "original_name": "Confessions of a Teen Idol",
            "popularity": 0.936
        },
        {
            "id": 16948,
            "original_name": "Confessions of a Matchmaker",
            "popularity": 0.6
        },
        {
            "id": 17160,
            "original_name": "Erotic Confessions",
            "popularity": 2.301
        },
        {
            "id": 17224,
            "original_name": "True Confessions of a Hollywood Starlet",
            "popularity": 0.6
        },
        {
            "id": 17412,
            "original_name": "the alt.sessions",
            "popularity": 0.6
        },
        {
            "id": 17713,
            "original_name": "Premier Passions",
            "popularity": 0.6
        },
        {
            "id": 18536,
            "original_name": "East Coast Sessions",
            "popularity": 0.6
        },
        {
            "id": 19221,
            "original_name": "The MAX Sessions",
            "popularity": 0.6
        },
        {
            "id": 20536,
            "original_name": "Consuming Passions",
            "popularity": 0.6
        },
        {
            "id": 20976,
            "original_name": "The Berkeley Sessions",
            "popularity": 0.6
        },
        {
            "id": 21775,
            "original_name": "The Raw Sessions",
            "popularity": 0.6
        },
        {
            "id": 23548,
            "original_name": "Intimate Sessions",
            "popularity": 0.6
        },
        {
            "id": 23978,
            "original_name": "Confessions",
            "popularity": 0.6
        },
        {
            "id": 24018,
            "original_name": "New York Confessions",
            "popularity": 0.6
        },
        {
            "id": 24075,
            "original_name": "Confessions",
            "popularity": 1.144
        },
        {
            "id": 24328,
            "original_name": "The Howerd Confessions",
            "popularity": 0.6
        },
        {
            "id": 24375,
            "original_name": "Alien Abductions: True Confessions",
            "popularity": 0.6
        },
        {
            "id": 24700,
            "original_name": "John Sessions On The Spot",
            "popularity": 0.6
        },
        {
            "id": 24748,
            "original_name": "First Impressions",
            "popularity": 0.804
        },
        {
            "id": 27479,
            "original_name": "Vegas Confessions",
            "popularity": 0.6
        },
        {
            "id": 28233,
            "original_name": "John Sessions's Likely Stories",
            "popularity": 0.6
        },
        {
            "id": 28337,
            "original_name": "John Sessions's Tall Tales",
            "popularity": 0.6
        },
        {
            "id": 31358,
            "original_name": "The Impressions Show with Culshaw and Stephenson",
            "popularity": 0.827
        },
        {
            "id": 33979,
            "original_name": "The Howerd Confessions",
            "popularity": 0.6
        },
        {
            "id": 33993,
            "original_name": "Transformers: Cyber Missions",
            "popularity": 0.6
        },
        {
            "id": 34619,
            "original_name": "Star Confessions",
            "popularity": 0.6
        },
        {
            "id": 35191,
            "original_name": "Confessions: Animal Hoarding",
            "popularity": 0.6
        },
        {
            "id": 36920,
            "original_name": "Confessions of a Contractor",
            "popularity": 0.6
        },
        {
            "id": 36936,
            "original_name": "360 sessions",
            "popularity": 0.6
        },
        {
            "id": 37503,
            "original_name": "Confessions of a Backup Dancer",
            "popularity": 0.6
        },
        {
            "id": 38035,
            "original_name": "Sessions",
            "popularity": 1.1
        },
        {
            "id": 38323,
            "original_name": "Missions That Changed the War",
            "popularity": 0.6
        },
        {
            "id": 38327,
            "original_name": "Helicopter Missions",
            "popularity": 0.6
        },
        {
            "id": 39945,
            "original_name": "SAV des \u00e9missions",
            "popularity": 3.312
        },
        {
            "id": 42286,
            "original_name": "Real Confessions",
            "popularity": 0.6
        },
        {
            "id": 43831,
            "original_name": "The Mortified Sessions",
            "popularity": 0.6
        },
        {
            "id": 45732,
            "original_name": "Singapore Sessions",
            "popularity": 0.6
        },
        {
            "id": 45785,
            "original_name": "True Confessions",
            "popularity": 0.6
        },
        {
            "id": 52879,
            "original_name": "Poisoned Passions",
            "popularity": 0.6
        },
        {
            "id": 55084,
            "original_name": "BBC Four Sessions",
            "popularity": 0.6
        },
        {
            "id": 55398,
            "original_name": "Mobster Confessions",
            "popularity": 0.6
        },
        {
            "id": 55504,
            "original_name": "British Passions on Film",
            "popularity": 0.6
        },
        {
            "id": 56323,
            "original_name": "Sessions",
            "popularity": 0.6
        },
        {
            "id": 56824,
            "original_name": "MAX Sessions In The Sand: Hoodoo Gurus",
            "popularity": 0.6
        },
        {
            "id": 56861,
            "original_name": "MAX Sessions: Powderfinger, Concert for the Cure",
            "popularity": 0.6
        },
        {
            "id": 56865,
            "original_name": "MAX Sessions: Jimmy Barnes",
            "popularity": 0.6
        },
        {
            "id": 56950,
            "original_name": "Neil Perry: Rockpool Sessions",
            "popularity": 0.6
        },
        {
            "id": 59218,
            "original_name": "SOLOS: The Jazz Sessions",
            "popularity": 0.6
        },
        {
            "id": 59558,
            "original_name": "First Impressions",
            "popularity": 0.6
        },
        {
            "id": 62074,
            "original_name": "Transatlantic Sessions",
            "popularity": 1.875
        },
        {
            "id": 65543,
            "original_name": "Tower Sessions",
            "popularity": 0.6
        },
        {
            "id": 65843,
            "original_name": "Deadly Possessions",
            "popularity": 0.6
        },
        {
            "id": 66463,
            "original_name": "First Impressions",
            "popularity": 0.849
        },
        {
            "id": 67426,
            "original_name": "The Highland Sessions",
            "popularity": 0.6
        },
        {
            "id": 71299,
            "original_name": "Confessions of a Junior Doctor",
            "popularity": 0.6
        },
        {
            "id": 71969,
            "original_name": "Missions",
            "popularity": 8.002
        },
        {
            "id": 74261,
            "original_name": "Criminal Confessions",
            "popularity": 1.4
        },
        {
            "id": 74674,
            "original_name": "Confessions of a Hollywood Bartender",
            "popularity": 0.6
        },
        {
            "id": 76545,
            "original_name": "Flying: Confessions of a Free Woman",
            "popularity": 0.6
        },
        {
            "id": 77827,
            "original_name": "Norman Seeff's The Sessions",
            "popularity": 0.6
        },
        {
            "id": 78023,
            "original_name": "Evil Talks: Chilling Confessions",
            "popularity": 0.6
        },
        {
            "id": 82304,
            "original_name": "Discussions avec mes parents",
            "popularity": 14.603
        },
        {
            "id": 91945,
            "original_name": "NASA's Greatest Missions",
            "popularity": 0.6
        },
        {
            "id": 95461,
            "original_name": "The Marriage Sessions",
            "popularity": 0.6
        },
        {
            "id": 95828,
            "original_name": "Steve Austin's Broken Skull Sessions",
            "popularity": 6.569
        },
        {
            "id": 99837,
            "original_name": "Confessions of a Superhero",
            "popularity": 0.6
        },
        {
            "id": 101207,
            "original_name": "L'\u00c9cole des passions",
            "popularity": 0.6
        },
        {
            "id": 102824,
            "original_name": "Submissions Only",
            "popularity": 0.807
        },
        {
            "id": 103240,
            "original_name": "The Black Barn Sessions",
            "popularity": 0.6
        },
        {
            "id": 103888,
            "original_name": "The First 48: Killer Confessions",
            "popularity": 0.6
        },
        {
            "id": 104116,
            "original_name": "Wings Over Vietnam: The Missions",
            "popularity": 0.6
        },
        {
            "id": 108351,
            "original_name": "Possessions",
            "popularity": 4.699
        },
        {
            "id": 113209,
            "original_name": "L\u00e9o-Paul Dion : confessions d\u2019un tueur",
            "popularity": 5.651
        },
        {
            "id": 113579,
            "original_name": "Killer Confessions",
            "popularity": 1.131
        },
        {
            "id": 124904,
            "original_name": "Student Confessions",
            "popularity": 0.6
        },
        {
            "id": 125173,
            "original_name": "Passions",
            "popularity": 0.6
        },
        {
            "id": 126944,
            "original_name": "SAS - Section agressions sexuelles",
            "popularity": 0.6
        },
        {
            "id": 128641,
            "original_name": "High: Confessions of an Ibiza Drug Mule",
            "popularity": 4.841
        },
        {
            "id": 130075,
            "original_name": "Burger Scholar Sessions",
            "popularity": 0.853
        },
        {
            "id": 131701,
            "original_name": "Girls Confessions",
            "popularity": 0.6
        },
        {
            "id": 136924,
            "original_name": "Afterlife Sessions",
            "popularity": 1.4
        },
        {
            "id": 137956,
            "original_name": "Confessions of a Serial Killer- BBC Select",
            "popularity": 0.6
        }
    ],
    "relations": [],
    "top20": [
        {
            "id": 82304,
            "original_name": "Discussions avec mes parents",
            "popularity": 14.603
        },
        {
            "id": 71969,
            "original_name": "Missions",
            "popularity": 8.002
        },
        {
            "id": 95828,
            "original_name": "Steve Austin's Broken Skull Sessions",
            "popularity": 6.569
        },
        {
            "id": 113209,
            "original_name": "L\u00e9o-Paul Dion : confessions d\u2019un tueur",
            "popularity": 5.651
        },
        {
            "id": 128641,
            "original_name": "High: Confessions of an Ibiza Drug Mule",
            "popularity": 4.841
        },
        {
            "id": 108351,
            "original_name": "Possessions",
            "popularity": 4.699
        },
        {
            "id": 39945,
            "original_name": "SAV des \u00e9missions",
            "popularity": 3.312
        },
        {
            "id": 9912,
            "original_name": "Passions",
            "popularity": 2.428
        },
        {
            "id": 12441,
            "original_name": "Family Passions",
            "popularity": 2.412
        },
        {
            "id": 17160,
            "original_name": "Erotic Confessions",
            "popularity": 2.301
        },
        {
            "id": 7398,
            "original_name": "When We Left Earth: The NASA Missions",
            "popularity": 2.211
        },
        {
            "id": 62074,
            "original_name": "Transatlantic Sessions",
            "popularity": 1.875
        },
        {
            "id": 74261,
            "original_name": "Criminal Confessions",
            "popularity": 1.4
        },
        {
            "id": 136924,
            "original_name": "Afterlife Sessions",
            "popularity": 1.4
        },
        {
            "id": 24075,
            "original_name": "Confessions",
            "popularity": 1.144
        },
        {
            "id": 113579,
            "original_name": "Killer Confessions",
            "popularity": 1.131
        },
        {
            "id": 38035,
            "original_name": "Sessions",
            "popularity": 1.1
        },
        {
            "id": 16341,
            "original_name": "Confessions of a Teen Idol",
            "popularity": 0.936
        },
        {
            "id": 130075,
            "original_name": "Burger Scholar Sessions",
            "popularity": 0.853
        },
        {
            "id": 66463,
            "original_name": "First Impressions",
            "popularity": 0.849
        }
    ]
}