{
    "data": [
        {
            "id": 1684,
            "original_name": "Night Stalker",
            "popularity": 4.179
        },
        {
            "id": 3114,
            "original_name": "Silk Stalkings",
            "popularity": 17.128
        },
        {
            "id": 5084,
            "original_name": "Kolchak: The Night Stalker",
            "popularity": 11.696
        },
        {
            "id": 16433,
            "original_name": "Jack and the Beanstalk: The Real Story",
            "popularity": 8.854
        },
        {
            "id": 24284,
            "original_name": "Jacks And The Beanstalk",
            "popularity": 0.6
        },
        {
            "id": 25714,
            "original_name": "Stalky & Co",
            "popularity": 0.6
        },
        {
            "id": 30282,
            "original_name": "Dark Stalkers",
            "popularity": 0.634
        },
        {
            "id": 38674,
            "original_name": "Stalked: Someone's Watching",
            "popularity": 1.154
        },
        {
            "id": 39374,
            "original_name": "DarkStalkers",
            "popularity": 3.466
        },
        {
            "id": 41716,
            "original_name": "NBC SportsTalk",
            "popularity": 0.6
        },
        {
            "id": 42326,
            "original_name": "CrossTalk",
            "popularity": 0.6
        },
        {
            "id": 53036,
            "original_name": "Dorfers Donnerstalk",
            "popularity": 0.6
        },
        {
            "id": 56215,
            "original_name": "Jack and the Beanstalk",
            "popularity": 0.6
        },
        {
            "id": 58006,
            "original_name": "Stalked by a ghost",
            "popularity": 0.6
        },
        {
            "id": 60796,
            "original_name": "Stalker",
            "popularity": 10.098
        },
        {
            "id": 76680,
            "original_name": "Stalker Files",
            "popularity": 0.632
        },
        {
            "id": 90005,
            "original_name": "The Goodies and the Beanstalk",
            "popularity": 0.6
        },
        {
            "id": 95302,
            "original_name": "Stalkers Who Kill",
            "popularity": 0.6
        },
        {
            "id": 100604,
            "original_name": "Stalk",
            "popularity": 5.902
        },
        {
            "id": 114705,
            "original_name": "Night Stalker: The Hunt for a Serial Killer",
            "popularity": 12.465
        },
        {
            "id": 117117,
            "original_name": "Stalk Show",
            "popularity": 0.6
        },
        {
            "id": 117948,
            "original_name": "Ghost Stalkers",
            "popularity": 0.6
        },
        {
            "id": 124272,
            "original_name": "Zeeman Confronteert: Stalkers",
            "popularity": 22.14
        },
        {
            "id": 133415,
            "original_name": "Stalked: Followed By Fear",
            "popularity": 0.6
        },
        {
            "id": 136706,
            "original_name": "Night Stalkers",
            "popularity": 0.6
        }
    ],
    "relations": [
        {
            "character": "stalke"
        },
        {
            "character": "stalki"
        },
        {
            "character": "stalky"
        }
    ],
    "top20": [
        {
            "id": 124272,
            "original_name": "Zeeman Confronteert: Stalkers",
            "popularity": 22.14
        },
        {
            "id": 3114,
            "original_name": "Silk Stalkings",
            "popularity": 17.128
        },
        {
            "id": 114705,
            "original_name": "Night Stalker: The Hunt for a Serial Killer",
            "popularity": 12.465
        },
        {
            "id": 5084,
            "original_name": "Kolchak: The Night Stalker",
            "popularity": 11.696
        },
        {
            "id": 60796,
            "original_name": "Stalker",
            "popularity": 10.098
        },
        {
            "id": 16433,
            "original_name": "Jack and the Beanstalk: The Real Story",
            "popularity": 8.854
        },
        {
            "id": 100604,
            "original_name": "Stalk",
            "popularity": 5.902
        },
        {
            "id": 1684,
            "original_name": "Night Stalker",
            "popularity": 4.179
        },
        {
            "id": 39374,
            "original_name": "DarkStalkers",
            "popularity": 3.466
        },
        {
            "id": 38674,
            "original_name": "Stalked: Someone's Watching",
            "popularity": 1.154
        },
        {
            "id": 30282,
            "original_name": "Dark Stalkers",
            "popularity": 0.634
        },
        {
            "id": 76680,
            "original_name": "Stalker Files",
            "popularity": 0.632
        },
        {
            "id": 42326,
            "original_name": "CrossTalk",
            "popularity": 0.6
        },
        {
            "id": 24284,
            "original_name": "Jacks And The Beanstalk",
            "popularity": 0.6
        },
        {
            "id": 41716,
            "original_name": "NBC SportsTalk",
            "popularity": 0.6
        },
        {
            "id": 90005,
            "original_name": "The Goodies and the Beanstalk",
            "popularity": 0.6
        },
        {
            "id": 56215,
            "original_name": "Jack and the Beanstalk",
            "popularity": 0.6
        },
        {
            "id": 53036,
            "original_name": "Dorfers Donnerstalk",
            "popularity": 0.6
        },
        {
            "id": 58006,
            "original_name": "Stalked by a ghost",
            "popularity": 0.6
        },
        {
            "id": 25714,
            "original_name": "Stalky & Co",
            "popularity": 0.6
        }
    ]
}