{
    "data": [
        {
            "id": 57783,
            "original_name": "Standup in Stilettos",
            "popularity": 0.6
        },
        {
            "id": 72671,
            "original_name": "The Standups",
            "popularity": 3.677
        },
        {
            "id": 110167,
            "original_name": "Standup and Away! with Brian Regan",
            "popularity": 1.4
        },
        {
            "id": 126527,
            "original_name": "Amazon Funnies - 10 Minute Standups",
            "popularity": 0.84
        },
        {
            "id": 128642,
            "original_name": "Standup sketch show",
            "popularity": 0.84
        },
        {
            "id": 131653,
            "original_name": "Comedy Central Presents Standup 3000",
            "popularity": 0.6
        }
    ],
    "relations": [],
    "top20": [
        {
            "id": 57783,
            "original_name": "Standup in Stilettos",
            "popularity": 0.6
        },
        {
            "id": 72671,
            "original_name": "The Standups",
            "popularity": 3.677
        },
        {
            "id": 110167,
            "original_name": "Standup and Away! with Brian Regan",
            "popularity": 1.4
        },
        {
            "id": 126527,
            "original_name": "Amazon Funnies - 10 Minute Standups",
            "popularity": 0.84
        },
        {
            "id": 128642,
            "original_name": "Standup sketch show",
            "popularity": 0.84
        },
        {
            "id": 131653,
            "original_name": "Comedy Central Presents Standup 3000",
            "popularity": 0.6
        }
    ]
}