{
    "data": [
        {
            "id": 123,
            "original_name": "Starting Over",
            "popularity": 2.049
        },
        {
            "id": 12200,
            "original_name": "Starting Out",
            "popularity": 0.626
        },
        {
            "id": 25892,
            "original_name": "Starting From Scratch",
            "popularity": 1.44
        },
        {
            "id": 27907,
            "original_name": "Startime",
            "popularity": 10.012
        },
        {
            "id": 30007,
            "original_name": "Starting Out (UK)",
            "popularity": 0.6
        },
        {
            "id": 58266,
            "original_name": "Starting Point",
            "popularity": 0.6
        },
        {
            "id": 59569,
            "original_name": "Starting Out",
            "popularity": 0.6
        },
        {
            "id": 71820,
            "original_name": "Starting From Now",
            "popularity": 2.511
        },
        {
            "id": 115383,
            "original_name": "Starting Troubles",
            "popularity": 0.6
        },
        {
            "id": 128964,
            "original_name": "Starting Point of Dating",
            "popularity": 0.6
        }
    ],
    "relations": [],
    "top20": [
        {
            "id": 123,
            "original_name": "Starting Over",
            "popularity": 2.049
        },
        {
            "id": 12200,
            "original_name": "Starting Out",
            "popularity": 0.626
        },
        {
            "id": 25892,
            "original_name": "Starting From Scratch",
            "popularity": 1.44
        },
        {
            "id": 27907,
            "original_name": "Startime",
            "popularity": 10.012
        },
        {
            "id": 30007,
            "original_name": "Starting Out (UK)",
            "popularity": 0.6
        },
        {
            "id": 58266,
            "original_name": "Starting Point",
            "popularity": 0.6
        },
        {
            "id": 59569,
            "original_name": "Starting Out",
            "popularity": 0.6
        },
        {
            "id": 71820,
            "original_name": "Starting From Now",
            "popularity": 2.511
        },
        {
            "id": 115383,
            "original_name": "Starting Troubles",
            "popularity": 0.6
        },
        {
            "id": 128964,
            "original_name": "Starting Point of Dating",
            "popularity": 0.6
        }
    ]
}