{
    "data": [
        {
            "id": 540,
            "original_name": "Shining Time Station",
            "popularity": 3.334
        },
        {
            "id": 2563,
            "original_name": "Babestation",
            "popularity": 0.917
        },
        {
            "id": 2895,
            "original_name": "The Stationary Ark",
            "popularity": 0.6
        },
        {
            "id": 9440,
            "original_name": "Waterloo Station",
            "popularity": 0.6
        },
        {
            "id": 9525,
            "original_name": "Station X",
            "popularity": 0.6
        },
        {
            "id": 11605,
            "original_name": "Pacific Station",
            "popularity": 0.884
        },
        {
            "id": 15738,
            "original_name": "Sex Station",
            "popularity": 0.916
        },
        {
            "id": 15753,
            "original_name": "Action Stations!",
            "popularity": 0.6
        },
        {
            "id": 17133,
            "original_name": "Superstars on the Superstation",
            "popularity": 0.6
        },
        {
            "id": 19276,
            "original_name": "Mark Kistler's Imagination Station",
            "popularity": 0.6
        },
        {
            "id": 23165,
            "original_name": "The Station",
            "popularity": 0.6
        },
        {
            "id": 23705,
            "original_name": "Big Playstation Saturday",
            "popularity": 0.6
        },
        {
            "id": 25105,
            "original_name": "Fire Station",
            "popularity": 0.6
        },
        {
            "id": 25462,
            "original_name": "P.S. [Police Station] -Rashoumon- Keishichou Toutosho",
            "popularity": 0.846
        },
        {
            "id": 28980,
            "original_name": "The 800 Million Pound Railway Station",
            "popularity": 0.602
        },
        {
            "id": 30372,
            "original_name": "Church Street Station",
            "popularity": 0.84
        },
        {
            "id": 31825,
            "original_name": "Education Station",
            "popularity": 0.654
        },
        {
            "id": 33608,
            "original_name": "FireStation at AAG",
            "popularity": 0.6
        },
        {
            "id": 38836,
            "original_name": "Politistationen",
            "popularity": 0.629
        },
        {
            "id": 43425,
            "original_name": "Police Station",
            "popularity": 0.6
        },
        {
            "id": 54067,
            "original_name": "Station 13",
            "popularity": 0.6
        },
        {
            "id": 55266,
            "original_name": "Station 2 Politirapporten",
            "popularity": 0.6
        },
        {
            "id": 62040,
            "original_name": "Battle Stations",
            "popularity": 1.625
        },
        {
            "id": 63694,
            "original_name": "Polizeistation",
            "popularity": 1.217
        },
        {
            "id": 66282,
            "original_name": "Berlin Station",
            "popularity": 14.935
        },
        {
            "id": 69905,
            "original_name": "Station Horizon",
            "popularity": 0.6
        },
        {
            "id": 73737,
            "original_name": "Paddington Station 24/7",
            "popularity": 1.027
        },
        {
            "id": 74203,
            "original_name": "Fatale-Station",
            "popularity": 1.079
        },
        {
            "id": 74390,
            "original_name": "SOS Infestation",
            "popularity": 0.6
        },
        {
            "id": 76773,
            "original_name": "Station 19",
            "popularity": 213.621
        },
        {
            "id": 80403,
            "original_name": "Flyvestation Karup",
            "popularity": 0.6
        },
        {
            "id": 80738,
            "original_name": "Conviction: Murder at the Station",
            "popularity": 0.6
        },
        {
            "id": 82801,
            "original_name": "Station 2: T\u00e6t p\u00e5",
            "popularity": 0.6
        },
        {
            "id": 86556,
            "original_name": "Paul Merton's Secret Stations",
            "popularity": 0.6
        },
        {
            "id": 88087,
            "original_name": "Station 2: F\u00e6ngslet",
            "popularity": 0.6
        },
        {
            "id": 88202,
            "original_name": "World's Busiest Train Stations",
            "popularity": 0.6
        },
        {
            "id": 90972,
            "original_name": "Station Eleven",
            "popularity": 16.612
        },
        {
            "id": 99694,
            "original_name": "Station 2",
            "popularity": 0.6
        },
        {
            "id": 100237,
            "original_name": "The Station: Trouble on the Tracks",
            "popularity": 0.6
        },
        {
            "id": 100299,
            "original_name": "Les grandes stations baln\u00e9aires",
            "popularity": 0.6
        },
        {
            "id": 101814,
            "original_name": "Station Potluck",
            "popularity": 3.755
        },
        {
            "id": 117445,
            "original_name": "Inside Central Station",
            "popularity": 8.943
        },
        {
            "id": 118344,
            "original_name": "Zwischenstation",
            "popularity": 1.093
        },
        {
            "id": 121641,
            "original_name": "Historier fra en politistation",
            "popularity": 1.207
        },
        {
            "id": 122990,
            "original_name": "Flyvestationen bag hegnet",
            "popularity": 0.6
        },
        {
            "id": 127165,
            "original_name": "Building Britain's Biggest Nuclear Power Station",
            "popularity": 1.063
        },
        {
            "id": 131763,
            "original_name": "Station X",
            "popularity": 0.6
        },
        {
            "id": 133587,
            "original_name": "Inside Central Station: Australia\u2019s Busiest Railway",
            "popularity": 0.979
        },
        {
            "id": 136351,
            "original_name": "Will This Work?: Melon Station (2021)",
            "popularity": 14.21
        }
    ],
    "relations": [
        {
            "character": "station"
        }
    ],
    "top20": [
        {
            "id": 76773,
            "original_name": "Station 19",
            "popularity": 213.621
        },
        {
            "id": 90972,
            "original_name": "Station Eleven",
            "popularity": 16.612
        },
        {
            "id": 66282,
            "original_name": "Berlin Station",
            "popularity": 14.935
        },
        {
            "id": 136351,
            "original_name": "Will This Work?: Melon Station (2021)",
            "popularity": 14.21
        },
        {
            "id": 117445,
            "original_name": "Inside Central Station",
            "popularity": 8.943
        },
        {
            "id": 101814,
            "original_name": "Station Potluck",
            "popularity": 3.755
        },
        {
            "id": 540,
            "original_name": "Shining Time Station",
            "popularity": 3.334
        },
        {
            "id": 62040,
            "original_name": "Battle Stations",
            "popularity": 1.625
        },
        {
            "id": 63694,
            "original_name": "Polizeistation",
            "popularity": 1.217
        },
        {
            "id": 121641,
            "original_name": "Historier fra en politistation",
            "popularity": 1.207
        },
        {
            "id": 118344,
            "original_name": "Zwischenstation",
            "popularity": 1.093
        },
        {
            "id": 74203,
            "original_name": "Fatale-Station",
            "popularity": 1.079
        },
        {
            "id": 127165,
            "original_name": "Building Britain's Biggest Nuclear Power Station",
            "popularity": 1.063
        },
        {
            "id": 73737,
            "original_name": "Paddington Station 24/7",
            "popularity": 1.027
        },
        {
            "id": 133587,
            "original_name": "Inside Central Station: Australia\u2019s Busiest Railway",
            "popularity": 0.979
        },
        {
            "id": 2563,
            "original_name": "Babestation",
            "popularity": 0.917
        },
        {
            "id": 15738,
            "original_name": "Sex Station",
            "popularity": 0.916
        },
        {
            "id": 11605,
            "original_name": "Pacific Station",
            "popularity": 0.884
        },
        {
            "id": 25462,
            "original_name": "P.S. [Police Station] -Rashoumon- Keishichou Toutosho",
            "popularity": 0.846
        },
        {
            "id": 30372,
            "original_name": "Church Street Station",
            "popularity": 0.84
        }
    ]
}