{
    "data": [
        {
            "id": 49061,
            "original_name": "Contract About Interchange Status",
            "popularity": 0.6
        },
        {
            "id": 56538,
            "original_name": "American Dream: Andrea Bocelli's Statue of Liberty Concert",
            "popularity": 0.6
        },
        {
            "id": 66538,
            "original_name": "Relationship Status",
            "popularity": 3.699
        },
        {
            "id": 94779,
            "original_name": "What's Your Status",
            "popularity": 1.201
        },
        {
            "id": 115265,
            "original_name": "Status Norge",
            "popularity": 0.6
        },
        {
            "id": 118616,
            "original_name": "Status P.T. med Huxi Bach",
            "popularity": 0.6
        }
    ],
    "relations": [],
    "top20": [
        {
            "id": 49061,
            "original_name": "Contract About Interchange Status",
            "popularity": 0.6
        },
        {
            "id": 56538,
            "original_name": "American Dream: Andrea Bocelli's Statue of Liberty Concert",
            "popularity": 0.6
        },
        {
            "id": 66538,
            "original_name": "Relationship Status",
            "popularity": 3.699
        },
        {
            "id": 94779,
            "original_name": "What's Your Status",
            "popularity": 1.201
        },
        {
            "id": 115265,
            "original_name": "Status Norge",
            "popularity": 0.6
        },
        {
            "id": 118616,
            "original_name": "Status P.T. med Huxi Bach",
            "popularity": 0.6
        }
    ]
}