{
    "data": [
        {
            "id": 20209,
            "original_name": "Uzmi ili ostavi",
            "popularity": 0.6
        },
        {
            "id": 51327,
            "original_name": "Gustav og Linse p\u00e5 udebane",
            "popularity": 0.6
        },
        {
            "id": 54630,
            "original_name": "Stavrosi xoris anastasi",
            "popularity": 0.6
        },
        {
            "id": 55455,
            "original_name": "Gustav & Linse P\u00e5 Udebane",
            "popularity": 0.6
        },
        {
            "id": 57671,
            "original_name": "Guszt\u00e1v, Gustavus - The Fellow-Man",
            "popularity": 0.6
        },
        {
            "id": 68821,
            "original_name": "Sk\u00e6g med bogstaver",
            "popularity": 0.6
        },
        {
            "id": 77587,
            "original_name": "P\u0159\u00edstav",
            "popularity": 1.579
        },
        {
            "id": 81444,
            "original_name": "Der eiserne Gustav",
            "popularity": 1.347
        },
        {
            "id": 81801,
            "original_name": "Gustavs Welt",
            "popularity": 0.6
        },
        {
            "id": 97159,
            "original_name": "Battlezone WWII: The Gustav and Gothic Lines- Battle for Italy",
            "popularity": 0.6
        },
        {
            "id": 103991,
            "original_name": "Instaverso",
            "popularity": 0.6
        },
        {
            "id": 104562,
            "original_name": "Vestavind",
            "popularity": 0.96
        },
        {
            "id": 105357,
            "original_name": "Stavy rachot\u00ed",
            "popularity": 1.155
        },
        {
            "id": 106788,
            "original_name": "Postav dom, zasa\u010f strom",
            "popularity": 0.6
        }
    ],
    "relations": [],
    "top20": [
        {
            "id": 20209,
            "original_name": "Uzmi ili ostavi",
            "popularity": 0.6
        },
        {
            "id": 51327,
            "original_name": "Gustav og Linse p\u00e5 udebane",
            "popularity": 0.6
        },
        {
            "id": 54630,
            "original_name": "Stavrosi xoris anastasi",
            "popularity": 0.6
        },
        {
            "id": 55455,
            "original_name": "Gustav & Linse P\u00e5 Udebane",
            "popularity": 0.6
        },
        {
            "id": 57671,
            "original_name": "Guszt\u00e1v, Gustavus - The Fellow-Man",
            "popularity": 0.6
        },
        {
            "id": 68821,
            "original_name": "Sk\u00e6g med bogstaver",
            "popularity": 0.6
        },
        {
            "id": 77587,
            "original_name": "P\u0159\u00edstav",
            "popularity": 1.579
        },
        {
            "id": 81444,
            "original_name": "Der eiserne Gustav",
            "popularity": 1.347
        },
        {
            "id": 81801,
            "original_name": "Gustavs Welt",
            "popularity": 0.6
        },
        {
            "id": 97159,
            "original_name": "Battlezone WWII: The Gustav and Gothic Lines- Battle for Italy",
            "popularity": 0.6
        },
        {
            "id": 103991,
            "original_name": "Instaverso",
            "popularity": 0.6
        },
        {
            "id": 104562,
            "original_name": "Vestavind",
            "popularity": 0.96
        },
        {
            "id": 105357,
            "original_name": "Stavy rachot\u00ed",
            "popularity": 1.155
        },
        {
            "id": 106788,
            "original_name": "Postav dom, zasa\u010f strom",
            "popularity": 0.6
        }
    ]
}