{
    "data": [
        {
            "id": 21343,
            "original_name": "Cousteau: Amazon",
            "popularity": 0.6
        },
        {
            "id": 44103,
            "original_name": "La collection Cousteau",
            "popularity": 1.419
        },
        {
            "id": 49338,
            "original_name": "The Cousteau Odyssey",
            "popularity": 1.171
        },
        {
            "id": 49892,
            "original_name": "Cousteau: Oasis in Space",
            "popularity": 0.6
        },
        {
            "id": 53055,
            "original_name": "Jean-Michel Cousteau's Ocean Adventures",
            "popularity": 0.6
        },
        {
            "id": 56022,
            "original_name": "Jacques Cousteau Rediscover the World",
            "popularity": 0.6
        },
        {
            "id": 57711,
            "original_name": "Jacques Cousteau - River Explorations",
            "popularity": 0.6
        },
        {
            "id": 103938,
            "original_name": "Jacques Cousteau's Ocean Tales",
            "popularity": 0.657
        },
        {
            "id": 127736,
            "original_name": "Les Aventures Fantastiques du Commandant Cousteau",
            "popularity": 0.841
        }
    ],
    "relations": [],
    "top20": [
        {
            "id": 21343,
            "original_name": "Cousteau: Amazon",
            "popularity": 0.6
        },
        {
            "id": 44103,
            "original_name": "La collection Cousteau",
            "popularity": 1.419
        },
        {
            "id": 49338,
            "original_name": "The Cousteau Odyssey",
            "popularity": 1.171
        },
        {
            "id": 49892,
            "original_name": "Cousteau: Oasis in Space",
            "popularity": 0.6
        },
        {
            "id": 53055,
            "original_name": "Jean-Michel Cousteau's Ocean Adventures",
            "popularity": 0.6
        },
        {
            "id": 56022,
            "original_name": "Jacques Cousteau Rediscover the World",
            "popularity": 0.6
        },
        {
            "id": 57711,
            "original_name": "Jacques Cousteau - River Explorations",
            "popularity": 0.6
        },
        {
            "id": 103938,
            "original_name": "Jacques Cousteau's Ocean Tales",
            "popularity": 0.657
        },
        {
            "id": 127736,
            "original_name": "Les Aventures Fantastiques du Commandant Cousteau",
            "popularity": 0.841
        }
    ]
}