{
    "data": [
        {
            "id": 32077,
            "original_name": "Solving History with Olly Steeds",
            "popularity": 0.6
        }
    ],
    "relations": [],
    "top20": [
        {
            "id": 32077,
            "original_name": "Solving History with Olly Steeds",
            "popularity": 0.6
        }
    ]
}