{
    "data": [
        {
            "id": 36971,
            "original_name": "Steindinn okkar",
            "popularity": 0.6
        }
    ],
    "relations": [],
    "top20": [
        {
            "id": 36971,
            "original_name": "Steindinn okkar",
            "popularity": 0.6
        }
    ]
}