{
    "data": [
        {
            "id": 3333,
            "original_name": "Steptoe and Son",
            "popularity": 4.761
        },
        {
            "id": 20723,
            "original_name": "When Steptoe Met Son",
            "popularity": 0.6
        }
    ],
    "relations": [],
    "top20": [
        {
            "id": 3333,
            "original_name": "Steptoe and Son",
            "popularity": 4.761
        },
        {
            "id": 20723,
            "original_name": "When Steptoe Met Son",
            "popularity": 0.6
        }
    ]
}