{
    "data": [
        {
            "id": 27411,
            "original_name": "Stepfamilies",
            "popularity": 0.6
        },
        {
            "id": 43743,
            "original_name": "The Stepfather",
            "popularity": 1.4
        }
    ],
    "relations": [],
    "top20": [
        {
            "id": 27411,
            "original_name": "Stepfamilies",
            "popularity": 0.6
        },
        {
            "id": 43743,
            "original_name": "The Stepfather",
            "popularity": 1.4
        }
    ]
}