{
    "data": [
        {
            "id": 2027,
            "original_name": "Mysterious Ways",
            "popularity": 4.454
        },
        {
            "id": 6017,
            "original_name": "Mysterious Journeys",
            "popularity": 0.6
        },
        {
            "id": 7148,
            "original_name": "Mysterious Incredible Terminator",
            "popularity": 1.163
        },
        {
            "id": 12912,
            "original_name": "Mysterious Island",
            "popularity": 3.125
        },
        {
            "id": 17098,
            "original_name": "Arthur C. Clarke's Mysterious World",
            "popularity": 1.354
        },
        {
            "id": 18636,
            "original_name": "Julian Fellowes Investigates: A Most Mysterious Murder",
            "popularity": 0.951
        },
        {
            "id": 19034,
            "original_name": "Mysterious Castles of Clay",
            "popularity": 0.6
        },
        {
            "id": 21098,
            "original_name": "Arthur C. Clarke's Mysterious Universe",
            "popularity": 1.502
        },
        {
            "id": 25559,
            "original_name": "Mysterious Human Heart",
            "popularity": 0.6
        },
        {
            "id": 32181,
            "original_name": "Mysterious Occurences",
            "popularity": 0.6
        },
        {
            "id": 45390,
            "original_name": "Mysterious Encounters",
            "popularity": 0.6
        },
        {
            "id": 46824,
            "original_name": "Luna, el misterio de Calenda",
            "popularity": 2.273
        },
        {
            "id": 56082,
            "original_name": "Unwrapped: The Mysterious World of Mummies",
            "popularity": 0.6
        },
        {
            "id": 62099,
            "original_name": "El Ministerio del Tiempo",
            "popularity": 25.505
        },
        {
            "id": 62984,
            "original_name": "Los misterios de Laura",
            "popularity": 8.811
        },
        {
            "id": 72644,
            "original_name": "Mysterious Island",
            "popularity": 5.673
        },
        {
            "id": 77166,
            "original_name": "Breaking Mysterious",
            "popularity": 0.6
        },
        {
            "id": 80619,
            "original_name": "cazadores de misterios",
            "popularity": 0.6
        },
        {
            "id": 80620,
            "original_name": "cazadores de misterios",
            "popularity": 0.6
        },
        {
            "id": 83041,
            "original_name": "Magic Numbers: Hannah Fry's Mysterious World of Maths",
            "popularity": 0.747
        },
        {
            "id": 84813,
            "original_name": "Los misterios de Egipto",
            "popularity": 0.6
        },
        {
            "id": 89704,
            "original_name": "Angkor Wat: Mysterious Smile of Buddha",
            "popularity": 0.6
        },
        {
            "id": 92321,
            "original_name": "Misterios con Lorenzo Fern\u00e1ndez Bueno",
            "popularity": 0.6
        },
        {
            "id": 96334,
            "original_name": "The Mysterious Case Of Ana Madrigal",
            "popularity": 0.6
        },
        {
            "id": 100267,
            "original_name": "Mysterious Planet",
            "popularity": 0.649
        },
        {
            "id": 104359,
            "original_name": "The Mysterious Benedict Society",
            "popularity": 19.667
        },
        {
            "id": 105215,
            "original_name": "Misterios del Inframundo",
            "popularity": 1.176
        },
        {
            "id": 109977,
            "original_name": "Mysterious Planet",
            "popularity": 0.6
        },
        {
            "id": 111947,
            "original_name": "I ragazzi della valle misteriosa",
            "popularity": 1.207
        },
        {
            "id": 114031,
            "original_name": "Mysterious War",
            "popularity": 0.6
        },
        {
            "id": 120176,
            "original_name": "Grandes misterios de la historia (Laurence Fishburne)",
            "popularity": 0.6
        },
        {
            "id": 136768,
            "original_name": "Mysterious Creatures with Forrest Galante",
            "popularity": 1.4
        },
        {
            "id": 136988,
            "original_name": "La Isla Misteriosa",
            "popularity": 10.962
        },
        {
            "id": 138338,
            "original_name": "Lugares Misteriosos",
            "popularity": 0.6
        },
        {
            "id": 138489,
            "original_name": "The Mysterious Class",
            "popularity": 6.163
        },
        {
            "id": 139780,
            "original_name": "Doen\u00e7as Misteriosas",
            "popularity": 0.6
        }
    ],
    "relations": [
        {
            "character": "steriou"
        },
        {
            "character": "sterios"
        }
    ],
    "top20": [
        {
            "id": 62099,
            "original_name": "El Ministerio del Tiempo",
            "popularity": 25.505
        },
        {
            "id": 104359,
            "original_name": "The Mysterious Benedict Society",
            "popularity": 19.667
        },
        {
            "id": 136988,
            "original_name": "La Isla Misteriosa",
            "popularity": 10.962
        },
        {
            "id": 62984,
            "original_name": "Los misterios de Laura",
            "popularity": 8.811
        },
        {
            "id": 138489,
            "original_name": "The Mysterious Class",
            "popularity": 6.163
        },
        {
            "id": 72644,
            "original_name": "Mysterious Island",
            "popularity": 5.673
        },
        {
            "id": 2027,
            "original_name": "Mysterious Ways",
            "popularity": 4.454
        },
        {
            "id": 12912,
            "original_name": "Mysterious Island",
            "popularity": 3.125
        },
        {
            "id": 46824,
            "original_name": "Luna, el misterio de Calenda",
            "popularity": 2.273
        },
        {
            "id": 21098,
            "original_name": "Arthur C. Clarke's Mysterious Universe",
            "popularity": 1.502
        },
        {
            "id": 136768,
            "original_name": "Mysterious Creatures with Forrest Galante",
            "popularity": 1.4
        },
        {
            "id": 17098,
            "original_name": "Arthur C. Clarke's Mysterious World",
            "popularity": 1.354
        },
        {
            "id": 111947,
            "original_name": "I ragazzi della valle misteriosa",
            "popularity": 1.207
        },
        {
            "id": 105215,
            "original_name": "Misterios del Inframundo",
            "popularity": 1.176
        },
        {
            "id": 7148,
            "original_name": "Mysterious Incredible Terminator",
            "popularity": 1.163
        },
        {
            "id": 18636,
            "original_name": "Julian Fellowes Investigates: A Most Mysterious Murder",
            "popularity": 0.951
        },
        {
            "id": 83041,
            "original_name": "Magic Numbers: Hannah Fry's Mysterious World of Maths",
            "popularity": 0.747
        },
        {
            "id": 100267,
            "original_name": "Mysterious Planet",
            "popularity": 0.649
        },
        {
            "id": 19034,
            "original_name": "Mysterious Castles of Clay",
            "popularity": 0.6
        },
        {
            "id": 6017,
            "original_name": "Mysterious Journeys",
            "popularity": 0.6
        }
    ]
}