{
    "data": [
        {
            "id": 98599,
            "original_name": "L'h\u00e9ritage des Cisterciens",
            "popularity": 0.6
        }
    ],
    "relations": [],
    "top20": [
        {
            "id": 98599,
            "original_name": "L'h\u00e9ritage des Cisterciens",
            "popularity": 0.6
        }
    ]
}