{
    "data": [
        {
            "id": 107379,
            "original_name": "Clandestino. Historias de la Guerrilla Urbana",
            "popularity": 0.854
        }
    ],
    "relations": [],
    "top20": [
        {
            "id": 107379,
            "original_name": "Clandestino. Historias de la Guerrilla Urbana",
            "popularity": 0.854
        }
    ]
}