{
    "data": [
        {
            "id": 403,
            "original_name": "Eureeka's Castle",
            "popularity": 1.801
        },
        {
            "id": 1054,
            "original_name": "The Young and the Restless",
            "popularity": 123.112
        },
        {
            "id": 1271,
            "original_name": "Hardcastle and McCormick",
            "popularity": 12.14
        },
        {
            "id": 1419,
            "original_name": "Castle",
            "popularity": 200.531
        },
        {
            "id": 2837,
            "original_name": "Whistler",
            "popularity": 3.865
        },
        {
            "id": 3685,
            "original_name": "The Real Hustle",
            "popularity": 2.114
        },
        {
            "id": 3764,
            "original_name": "Hustle",
            "popularity": 21.673
        },
        {
            "id": 5689,
            "original_name": "Takeshi's Castle",
            "popularity": 6.822
        },
        {
            "id": 6028,
            "original_name": "Lavender Castle",
            "popularity": 0.6
        },
        {
            "id": 7776,
            "original_name": "Whistleblower",
            "popularity": 0.6
        },
        {
            "id": 8900,
            "original_name": "Alphabet Castle",
            "popularity": 0.6
        },
        {
            "id": 9464,
            "original_name": "Queenie's Castle",
            "popularity": 1.468
        },
        {
            "id": 9529,
            "original_name": "King of the Castle",
            "popularity": 0.6
        },
        {
            "id": 9581,
            "original_name": "Ultimate Hustler",
            "popularity": 0.6
        },
        {
            "id": 11058,
            "original_name": "The Restless Years",
            "popularity": 0.6
        },
        {
            "id": 12126,
            "original_name": "The Pig and Whistle",
            "popularity": 0.6
        },
        {
            "id": 12412,
            "original_name": "The Old Grey Whistle Test",
            "popularity": 2.355
        },
        {
            "id": 13537,
            "original_name": "The Restless Gun",
            "popularity": 2.779
        },
        {
            "id": 15470,
            "original_name": "Conquer the Castle",
            "popularity": 0.6
        },
        {
            "id": 16931,
            "original_name": "The Toy Castle",
            "popularity": 0.6
        },
        {
            "id": 18308,
            "original_name": "Up the Elephant and Round the Castle",
            "popularity": 1.96
        },
        {
            "id": 18907,
            "original_name": "The Restless Earth",
            "popularity": 0.6
        },
        {
            "id": 19034,
            "original_name": "Mysterious Castles of Clay",
            "popularity": 0.6
        },
        {
            "id": 19122,
            "original_name": "My House My Castle",
            "popularity": 0.6
        },
        {
            "id": 19276,
            "original_name": "Mark Kistler's Imagination Station",
            "popularity": 0.6
        },
        {
            "id": 20688,
            "original_name": "Real Hustle",
            "popularity": 0.6
        },
        {
            "id": 20842,
            "original_name": "The House of Gristle",
            "popularity": 0.6
        },
        {
            "id": 22500,
            "original_name": "Union Castle",
            "popularity": 1.389
        },
        {
            "id": 22851,
            "original_name": "The Whistler",
            "popularity": 3.833
        },
        {
            "id": 23291,
            "original_name": "The Queen's Castle",
            "popularity": 0.6
        },
        {
            "id": 25018,
            "original_name": "Castle",
            "popularity": 0.6
        },
        {
            "id": 25132,
            "original_name": "The Springer Hustle",
            "popularity": 0.6
        },
        {
            "id": 25195,
            "original_name": "Blandings Castle",
            "popularity": 1.396
        },
        {
            "id": 25233,
            "original_name": "Mystery Of Black Rose Castle",
            "popularity": 0.6
        },
        {
            "id": 26009,
            "original_name": "Whistle Town",
            "popularity": 0.6
        },
        {
            "id": 26397,
            "original_name": "King of the Castle",
            "popularity": 0.6
        },
        {
            "id": 27080,
            "original_name": "When the Whistle Blows",
            "popularity": 2.974
        },
        {
            "id": 27157,
            "original_name": "Castle",
            "popularity": 0.6
        },
        {
            "id": 28438,
            "original_name": "The Roy Castle Show",
            "popularity": 0.6
        },
        {
            "id": 28483,
            "original_name": "The Whistleblowers",
            "popularity": 1.228
        },
        {
            "id": 28841,
            "original_name": "Save Lullingstone Castle",
            "popularity": 0.842
        },
        {
            "id": 28867,
            "original_name": "Castle In The Country",
            "popularity": 2.339
        },
        {
            "id": 29806,
            "original_name": "Castle Haven",
            "popularity": 3.156
        },
        {
            "id": 32241,
            "original_name": "The Hustlers",
            "popularity": 0.6
        },
        {
            "id": 36434,
            "original_name": "Cloppa Castle",
            "popularity": 1.09
        },
        {
            "id": 37827,
            "original_name": "Restless Planet",
            "popularity": 0.6
        },
        {
            "id": 42183,
            "original_name": "T.I. & Tiny: The Family Hustle",
            "popularity": 2.24
        },
        {
            "id": 43303,
            "original_name": "The Toy Castle: Twinkle, Twinkle",
            "popularity": 0.6
        },
        {
            "id": 44296,
            "original_name": "America's Castles",
            "popularity": 0.6
        },
        {
            "id": 45803,
            "original_name": "Kings in Grass Castles",
            "popularity": 2.521
        },
        {
            "id": 46750,
            "original_name": "Battle Castle",
            "popularity": 0.6
        },
        {
            "id": 55524,
            "original_name": "Wir Staatsk\u00fcnstler",
            "popularity": 0.612
        },
        {
            "id": 55663,
            "original_name": "Castlevania: Hymn of Blood",
            "popularity": 4.754
        },
        {
            "id": 55801,
            "original_name": "Takeshi's Castle Rebooted",
            "popularity": 0.6
        },
        {
            "id": 55836,
            "original_name": "The Restless Bell",
            "popularity": 0.6
        },
        {
            "id": 56857,
            "original_name": "Great Australian Sandcastles",
            "popularity": 0.6
        },
        {
            "id": 58723,
            "original_name": "The Restless Wave",
            "popularity": 0.6
        },
        {
            "id": 59151,
            "original_name": "Dani's Castle",
            "popularity": 0.6
        },
        {
            "id": 59643,
            "original_name": "Restless",
            "popularity": 5.345
        },
        {
            "id": 59858,
            "original_name": "Doomsday Castle",
            "popularity": 0.6
        },
        {
            "id": 62017,
            "original_name": "The Man in the High Castle",
            "popularity": 43.81
        },
        {
            "id": 63025,
            "original_name": "Deadly Journeys of the Apostles",
            "popularity": 0.888
        },
        {
            "id": 65015,
            "original_name": "Castle Secrets & Legends",
            "popularity": 0.6
        },
        {
            "id": 67555,
            "original_name": "Cleveland Hustles",
            "popularity": 0.6
        },
        {
            "id": 67708,
            "original_name": "Secrets of Great British Castles",
            "popularity": 2.263
        },
        {
            "id": 69911,
            "original_name": "Ronnie O'Sullivan's American Hustle",
            "popularity": 0.925
        },
        {
            "id": 71024,
            "original_name": "Castlevania",
            "popularity": 69.423
        },
        {
            "id": 71116,
            "original_name": "Castle Rock",
            "popularity": 20.699
        },
        {
            "id": 73294,
            "original_name": "Inside Windsor Castle",
            "popularity": 0.6
        },
        {
            "id": 73806,
            "original_name": "An Englishman's Castle",
            "popularity": 0.972
        },
        {
            "id": 76507,
            "original_name": "Hits, Hype & Hustle: An Insider's Guide to the Music Business",
            "popularity": 0.6
        },
        {
            "id": 78186,
            "original_name": "The Wrestlers",
            "popularity": 1.527
        },
        {
            "id": 78297,
            "original_name": "Secrets of the Castle",
            "popularity": 2.136
        },
        {
            "id": 80233,
            "original_name": "Whistleblowers: The Untold Stories",
            "popularity": 1.744
        },
        {
            "id": 80978,
            "original_name": "The Grand Hustle",
            "popularity": 0.6
        },
        {
            "id": 81421,
            "original_name": "Whistleblower",
            "popularity": 0.861
        },
        {
            "id": 83210,
            "original_name": "Hustle In Brooklyn",
            "popularity": 0.6
        },
        {
            "id": 83356,
            "original_name": "T.I. & Tiny: Friends & Family Hustle",
            "popularity": 0.733
        },
        {
            "id": 83709,
            "original_name": "Castle and Castle",
            "popularity": 1.953
        },
        {
            "id": 87524,
            "original_name": "Hustle",
            "popularity": 0.6
        },
        {
            "id": 88254,
            "original_name": "Hustle & Soul",
            "popularity": 0.639
        },
        {
            "id": 93154,
            "original_name": "Los Secretos de la Residencia Castle Rock",
            "popularity": 0.752
        },
        {
            "id": 94327,
            "original_name": "WWE Wrestlemania Rewind",
            "popularity": 1.216
        },
        {
            "id": 94445,
            "original_name": "Takeshi\u2019s Castle: Thailand",
            "popularity": 0.6
        },
        {
            "id": 94537,
            "original_name": "MTV Hustle",
            "popularity": 0.647
        },
        {
            "id": 95978,
            "original_name": "The Murder Castle",
            "popularity": 1.11
        },
        {
            "id": 95980,
            "original_name": "Wild Castles",
            "popularity": 0.6
        },
        {
            "id": 98062,
            "original_name": "The Apostle Paul",
            "popularity": 0.6
        },
        {
            "id": 98552,
            "original_name": "The Castle Builders",
            "popularity": 0.6
        },
        {
            "id": 100346,
            "original_name": "Something Else To Wrestle",
            "popularity": 0.604
        },
        {
            "id": 101480,
            "original_name": "Naked Hustle",
            "popularity": 0.6
        },
        {
            "id": 104496,
            "original_name": "Natural Born Hustlers",
            "popularity": 0.6
        },
        {
            "id": 106577,
            "original_name": "Tales of Irish Castles",
            "popularity": 1.096
        },
        {
            "id": 110932,
            "original_name": "Play To The Whistle",
            "popularity": 0.6
        },
        {
            "id": 112489,
            "original_name": "Side Hustle",
            "popularity": 6.459
        },
        {
            "id": 113004,
            "original_name": "Das Geheimnis von Black Rose Castle",
            "popularity": 0.6
        },
        {
            "id": 113111,
            "original_name": "The Enchanted Castle",
            "popularity": 1.09
        },
        {
            "id": 114367,
            "original_name": "Yankee Hustle",
            "popularity": 0.6
        },
        {
            "id": 115044,
            "original_name": "The Hustler",
            "popularity": 2.578
        },
        {
            "id": 123271,
            "original_name": "Generation Hustle",
            "popularity": 2.698
        },
        {
            "id": 123548,
            "original_name": "Untitled Castlevania Spin-Off",
            "popularity": 0.982
        },
        {
            "id": 123932,
            "original_name": "Hustle & Tow",
            "popularity": 0.779
        },
        {
            "id": 131054,
            "original_name": "Castles: Britain's Fortified History",
            "popularity": 0.6
        },
        {
            "id": 131855,
            "original_name": "King and Castle",
            "popularity": 0.6
        },
        {
            "id": 132061,
            "original_name": "Republic City Hustle",
            "popularity": 0.6
        },
        {
            "id": 133115,
            "original_name": "American Hustle Life",
            "popularity": 1.346
        },
        {
            "id": 135571,
            "original_name": "Castles, Secrets, Mysteries & Legends",
            "popularity": 0.6
        },
        {
            "id": 136978,
            "original_name": "Sing meinen Song \u2013 Die K\u00fcnstlerstories",
            "popularity": 0.6
        },
        {
            "id": 137384,
            "original_name": "WrestleMax STL",
            "popularity": 0.6
        },
        {
            "id": 152429,
            "original_name": "The Whistleblower",
            "popularity": 2.744
        }
    ],
    "relations": [
        {
            "character": "stles"
        },
        {
            "character": "stler"
        },
        {
            "character": "stleb"
        },
        {
            "character": "stlev"
        },
        {
            "character": "stlem"
        }
    ],
    "top20": [
        {
            "id": 1419,
            "original_name": "Castle",
            "popularity": 200.531
        },
        {
            "id": 1054,
            "original_name": "The Young and the Restless",
            "popularity": 123.112
        },
        {
            "id": 71024,
            "original_name": "Castlevania",
            "popularity": 69.423
        },
        {
            "id": 62017,
            "original_name": "The Man in the High Castle",
            "popularity": 43.81
        },
        {
            "id": 3764,
            "original_name": "Hustle",
            "popularity": 21.673
        },
        {
            "id": 71116,
            "original_name": "Castle Rock",
            "popularity": 20.699
        },
        {
            "id": 1271,
            "original_name": "Hardcastle and McCormick",
            "popularity": 12.14
        },
        {
            "id": 5689,
            "original_name": "Takeshi's Castle",
            "popularity": 6.822
        },
        {
            "id": 112489,
            "original_name": "Side Hustle",
            "popularity": 6.459
        },
        {
            "id": 59643,
            "original_name": "Restless",
            "popularity": 5.345
        },
        {
            "id": 55663,
            "original_name": "Castlevania: Hymn of Blood",
            "popularity": 4.754
        },
        {
            "id": 2837,
            "original_name": "Whistler",
            "popularity": 3.865
        },
        {
            "id": 22851,
            "original_name": "The Whistler",
            "popularity": 3.833
        },
        {
            "id": 29806,
            "original_name": "Castle Haven",
            "popularity": 3.156
        },
        {
            "id": 27080,
            "original_name": "When the Whistle Blows",
            "popularity": 2.974
        },
        {
            "id": 13537,
            "original_name": "The Restless Gun",
            "popularity": 2.779
        },
        {
            "id": 152429,
            "original_name": "The Whistleblower",
            "popularity": 2.744
        },
        {
            "id": 123271,
            "original_name": "Generation Hustle",
            "popularity": 2.698
        },
        {
            "id": 115044,
            "original_name": "The Hustler",
            "popularity": 2.578
        },
        {
            "id": 45803,
            "original_name": "Kings in Grass Castles",
            "popularity": 2.521
        }
    ]
}