{
    "data": [
        {
            "id": 62733,
            "original_name": "Stonemouth",
            "popularity": 1.733
        },
        {
            "id": 94689,
            "original_name": "The Stoneman Murders",
            "popularity": 0.772
        }
    ],
    "relations": [],
    "top20": [
        {
            "id": 62733,
            "original_name": "Stonemouth",
            "popularity": 1.733
        },
        {
            "id": 94689,
            "original_name": "The Stoneman Murders",
            "popularity": 0.772
        }
    ]
}