{
    "data": [
        {
            "id": 361,
            "original_name": "Never Mind the Full Stops",
            "popularity": 0.872
        },
        {
            "id": 25614,
            "original_name": "500 Bus Stops",
            "popularity": 0.627
        },
        {
            "id": 48913,
            "original_name": "V-Day: Until the Violence Stops",
            "popularity": 0.6
        },
        {
            "id": 86228,
            "original_name": "Mega Pit Stops",
            "popularity": 0.84
        }
    ],
    "relations": [],
    "top20": [
        {
            "id": 361,
            "original_name": "Never Mind the Full Stops",
            "popularity": 0.872
        },
        {
            "id": 25614,
            "original_name": "500 Bus Stops",
            "popularity": 0.627
        },
        {
            "id": 48913,
            "original_name": "V-Day: Until the Violence Stops",
            "popularity": 0.6
        },
        {
            "id": 86228,
            "original_name": "Mega Pit Stops",
            "popularity": 0.84
        }
    ]
}