{
    "data": [
        {
            "id": 87809,
            "original_name": "Stormester",
            "popularity": 5.778
        }
    ],
    "relations": [],
    "top20": [
        {
            "id": 87809,
            "original_name": "Stormester",
            "popularity": 5.778
        }
    ]
}