{
    "data": [
        {
            "id": 17479,
            "original_name": "Demonstrations in Physics",
            "popularity": 0.6
        },
        {
            "id": 45199,
            "original_name": "Science Demonstrations",
            "popularity": 0.806
        },
        {
            "id": 49016,
            "original_name": "Trading with the Enemy: How the Clinton Administration Armed China",
            "popularity": 0.6
        }
    ],
    "relations": [],
    "top20": [
        {
            "id": 17479,
            "original_name": "Demonstrations in Physics",
            "popularity": 0.6
        },
        {
            "id": 45199,
            "original_name": "Science Demonstrations",
            "popularity": 0.806
        },
        {
            "id": 49016,
            "original_name": "Trading with the Enemy: How the Clinton Administration Armed China",
            "popularity": 0.6
        }
    ]
}