{
    "data": [
        {
            "id": 114538,
            "original_name": "Straty a n\u00e1lezy",
            "popularity": 1.754
        }
    ],
    "relations": [],
    "top20": [
        {
            "id": 114538,
            "original_name": "Straty a n\u00e1lezy",
            "popularity": 1.754
        }
    ]
}