{
    "data": [
        {
            "id": 64035,
            "original_name": "Michel Strogoff",
            "popularity": 4.472
        },
        {
            "id": 86763,
            "original_name": "Michele Strogoff - Il corriere dello zar",
            "popularity": 0.6
        },
        {
            "id": 95542,
            "original_name": "Michel Strogoff",
            "popularity": 0.6
        }
    ],
    "relations": [],
    "top20": [
        {
            "id": 64035,
            "original_name": "Michel Strogoff",
            "popularity": 4.472
        },
        {
            "id": 86763,
            "original_name": "Michele Strogoff - Il corriere dello zar",
            "popularity": 0.6
        },
        {
            "id": 95542,
            "original_name": "Michel Strogoff",
            "popularity": 0.6
        }
    ]
}