{
    "data": [
        {
            "id": 17,
            "original_name": "Mighty Truck of Stuff",
            "popularity": 0.89
        },
        {
            "id": 1253,
            "original_name": "Free Stuff",
            "popularity": 0.6
        },
        {
            "id": 2052,
            "original_name": "Boys from the Blackstuff",
            "popularity": 5.5
        },
        {
            "id": 4284,
            "original_name": "H.R. Pufnstuf",
            "popularity": 3.843
        },
        {
            "id": 4980,
            "original_name": "The Wright Stuff",
            "popularity": 0.6
        },
        {
            "id": 6219,
            "original_name": "Alexei Sayle's Stuff",
            "popularity": 1.657
        },
        {
            "id": 7838,
            "original_name": "Stuff Happens",
            "popularity": 0.6
        },
        {
            "id": 9365,
            "original_name": "Starstuff",
            "popularity": 0.6
        },
        {
            "id": 10291,
            "original_name": "NBA Inside Stuff",
            "popularity": 0.6
        },
        {
            "id": 11233,
            "original_name": "Acme School of Stuff",
            "popularity": 0.6
        },
        {
            "id": 11333,
            "original_name": "Cool Stuff: How It Works",
            "popularity": 0.87
        },
        {
            "id": 14967,
            "original_name": "Girlstuff/Boystuff",
            "popularity": 0.88
        },
        {
            "id": 18472,
            "original_name": "Hot Babes Doing Stuff Naked",
            "popularity": 2.099
        },
        {
            "id": 22394,
            "original_name": "Good Stuff Comedy",
            "popularity": 0.6
        },
        {
            "id": 23082,
            "original_name": "Stuff 4 Dudes",
            "popularity": 0.6
        },
        {
            "id": 27039,
            "original_name": "Stuff The Week",
            "popularity": 0.6
        },
        {
            "id": 27176,
            "original_name": "Get Stuffed",
            "popularity": 0.6
        },
        {
            "id": 28005,
            "original_name": "Life. . .and Stuff",
            "popularity": 1.438
        },
        {
            "id": 29092,
            "original_name": "HowStuffWorks",
            "popularity": 0.6
        },
        {
            "id": 30006,
            "original_name": "Dream Stuffing",
            "popularity": 0.6
        },
        {
            "id": 31658,
            "original_name": "A Program About Unusual Buildings & Other Roadside Stuff",
            "popularity": 0.6
        },
        {
            "id": 33119,
            "original_name": "Dream Stuffing",
            "popularity": 0.6
        },
        {
            "id": 33497,
            "original_name": "It's Our Stuff",
            "popularity": 0.6
        },
        {
            "id": 34525,
            "original_name": "The Cool Stuff Collective",
            "popularity": 0.6
        },
        {
            "id": 40917,
            "original_name": "Regina auf den Stufen",
            "popularity": 1.105
        },
        {
            "id": 42193,
            "original_name": "The Bleak Old Shop of Stuff",
            "popularity": 3.257
        },
        {
            "id": 43751,
            "original_name": "The Ministry of Curious Stuff",
            "popularity": 1.4
        },
        {
            "id": 45308,
            "original_name": "Wonderstuff",
            "popularity": 0.659
        },
        {
            "id": 46262,
            "original_name": "Doc McStuffins",
            "popularity": 100.177
        },
        {
            "id": 46715,
            "original_name": "Sweat the Small Stuff",
            "popularity": 0.6
        },
        {
            "id": 47139,
            "original_name": "Finding Stuff Out",
            "popularity": 0.6
        },
        {
            "id": 47739,
            "original_name": "Taxidermy: Stuff the World",
            "popularity": 0.6
        },
        {
            "id": 55854,
            "original_name": "ralfystuff",
            "popularity": 2.411
        },
        {
            "id": 60364,
            "original_name": "Sweat the Small Stuff",
            "popularity": 0.6
        },
        {
            "id": 66331,
            "original_name": "How Stuff's Made",
            "popularity": 0.6
        },
        {
            "id": 70530,
            "original_name": "Adam Carolla and Friends Build Stuff Live",
            "popularity": 0.956
        },
        {
            "id": 71772,
            "original_name": "How Stuff Works",
            "popularity": 0.713
        },
        {
            "id": 72867,
            "original_name": "Dumbest Stuff on Wheels",
            "popularity": 1.238
        },
        {
            "id": 73437,
            "original_name": "Stuff The White Rabbit",
            "popularity": 0.6
        },
        {
            "id": 75417,
            "original_name": "Mutt & Stuff",
            "popularity": 0.627
        },
        {
            "id": 85798,
            "original_name": "Stuff You Should Know",
            "popularity": 0.844
        },
        {
            "id": 93786,
            "original_name": "The Right Stuff",
            "popularity": 21.771
        },
        {
            "id": 100408,
            "original_name": "Hot Stuff: Backstage at Summer with Ariana DeBose",
            "popularity": 1.771
        },
        {
            "id": 118032,
            "original_name": "Stuff of Legends",
            "popularity": 0.84
        },
        {
            "id": 120270,
            "original_name": "United Stuff of America",
            "popularity": 0.6
        },
        {
            "id": 121227,
            "original_name": "Stuff and Sam!",
            "popularity": 0.6
        }
    ],
    "relations": [
        {
            "character": "stuff"
        },
        {
            "character": "stufe"
        }
    ],
    "top20": [
        {
            "id": 46262,
            "original_name": "Doc McStuffins",
            "popularity": 100.177
        },
        {
            "id": 93786,
            "original_name": "The Right Stuff",
            "popularity": 21.771
        },
        {
            "id": 2052,
            "original_name": "Boys from the Blackstuff",
            "popularity": 5.5
        },
        {
            "id": 4284,
            "original_name": "H.R. Pufnstuf",
            "popularity": 3.843
        },
        {
            "id": 42193,
            "original_name": "The Bleak Old Shop of Stuff",
            "popularity": 3.257
        },
        {
            "id": 55854,
            "original_name": "ralfystuff",
            "popularity": 2.411
        },
        {
            "id": 18472,
            "original_name": "Hot Babes Doing Stuff Naked",
            "popularity": 2.099
        },
        {
            "id": 100408,
            "original_name": "Hot Stuff: Backstage at Summer with Ariana DeBose",
            "popularity": 1.771
        },
        {
            "id": 6219,
            "original_name": "Alexei Sayle's Stuff",
            "popularity": 1.657
        },
        {
            "id": 28005,
            "original_name": "Life. . .and Stuff",
            "popularity": 1.438
        },
        {
            "id": 43751,
            "original_name": "The Ministry of Curious Stuff",
            "popularity": 1.4
        },
        {
            "id": 72867,
            "original_name": "Dumbest Stuff on Wheels",
            "popularity": 1.238
        },
        {
            "id": 40917,
            "original_name": "Regina auf den Stufen",
            "popularity": 1.105
        },
        {
            "id": 70530,
            "original_name": "Adam Carolla and Friends Build Stuff Live",
            "popularity": 0.956
        },
        {
            "id": 17,
            "original_name": "Mighty Truck of Stuff",
            "popularity": 0.89
        },
        {
            "id": 14967,
            "original_name": "Girlstuff/Boystuff",
            "popularity": 0.88
        },
        {
            "id": 11333,
            "original_name": "Cool Stuff: How It Works",
            "popularity": 0.87
        },
        {
            "id": 85798,
            "original_name": "Stuff You Should Know",
            "popularity": 0.844
        },
        {
            "id": 118032,
            "original_name": "Stuff of Legends",
            "popularity": 0.84
        },
        {
            "id": 71772,
            "original_name": "How Stuff Works",
            "popularity": 0.713
        }
    ]
}