{
    "data": [
        {
            "id": 49694,
            "original_name": "Szansa na sukces",
            "popularity": 0.6
        },
        {
            "id": 94513,
            "original_name": "Sukces",
            "popularity": 0.6
        }
    ],
    "relations": [],
    "top20": [
        {
            "id": 49694,
            "original_name": "Szansa na sukces",
            "popularity": 0.6
        },
        {
            "id": 94513,
            "original_name": "Sukces",
            "popularity": 0.6
        }
    ]
}