{
    "data": [
        {
            "id": 51432,
            "original_name": "Masumlar",
            "popularity": 0.6
        },
        {
            "id": 109905,
            "original_name": "Masumlar Apartman\u0131",
            "popularity": 9.172
        }
    ],
    "relations": [],
    "top20": [
        {
            "id": 51432,
            "original_name": "Masumlar",
            "popularity": 0.6
        },
        {
            "id": 109905,
            "original_name": "Masumlar Apartman\u0131",
            "popularity": 9.172
        }
    ]
}