{
    "data": [
        {
            "id": 17133,
            "original_name": "Superstars on the Superstation",
            "popularity": 0.6
        }
    ],
    "relations": [],
    "top20": [
        {
            "id": 17133,
            "original_name": "Superstars on the Superstation",
            "popularity": 0.6
        }
    ]
}