{
    "data": [
        {
            "id": 35343,
            "original_name": "Superaudomotion",
            "popularity": 0.6
        },
        {
            "id": 72965,
            "original_name": "Raphael: una historia de superaci\u00f3n personal",
            "popularity": 0.843
        },
        {
            "id": 104838,
            "original_name": "Superautos",
            "popularity": 0.6
        }
    ],
    "relations": [],
    "top20": [
        {
            "id": 35343,
            "original_name": "Superaudomotion",
            "popularity": 0.6
        },
        {
            "id": 72965,
            "original_name": "Raphael: una historia de superaci\u00f3n personal",
            "popularity": 0.843
        },
        {
            "id": 104838,
            "original_name": "Superautos",
            "popularity": 0.6
        }
    ]
}