{
    "data": [
        {
            "id": 74646,
            "original_name": "Super.Markt \u2013 Neues f\u00fcr Verbraucher",
            "popularity": 0.6
        }
    ],
    "relations": [],
    "top20": [
        {
            "id": 74646,
            "original_name": "Super.Markt \u2013 Neues f\u00fcr Verbraucher",
            "popularity": 0.6
        }
    ]
}