{
    "data": [
        {
            "id": 94479,
            "original_name": "Transversales",
            "popularity": 0.844
        }
    ],
    "relations": [],
    "top20": [
        {
            "id": 94479,
            "original_name": "Transversales",
            "popularity": 0.844
        }
    ]
}