{
    "data": [
        {
            "id": 726,
            "original_name": "Lidsville",
            "popularity": 2.566
        },
        {
            "id": 7420,
            "original_name": "MTV Splitsvilla",
            "popularity": 2.01
        },
        {
            "id": 9438,
            "original_name": "Bibin svijet",
            "popularity": 0.6
        },
        {
            "id": 12044,
            "original_name": "Bundesvision Song Contest",
            "popularity": 0.6
        },
        {
            "id": 17578,
            "original_name": "Rallarsving",
            "popularity": 0.932
        },
        {
            "id": 24089,
            "original_name": "Splitsville",
            "popularity": 0.6
        },
        {
            "id": 27358,
            "original_name": "Gibbsville",
            "popularity": 1.523
        },
        {
            "id": 34296,
            "original_name": "Southern Belles: Louisville",
            "popularity": 0.6
        },
        {
            "id": 38469,
            "original_name": "Kongsvik Ungdomsskole",
            "popularity": 0.6
        },
        {
            "id": 42988,
            "original_name": "Christmas I Svingen",
            "popularity": 0.6
        },
        {
            "id": 43049,
            "original_name": "Jul i Svingen",
            "popularity": 0.6
        },
        {
            "id": 46404,
            "original_name": "Spooksville",
            "popularity": 5.361
        },
        {
            "id": 46634,
            "original_name": "Squaresville",
            "popularity": 0.882
        },
        {
            "id": 48149,
            "original_name": "Sportsview",
            "popularity": 0.6
        },
        {
            "id": 51042,
            "original_name": "Husvild",
            "popularity": 0.6
        },
        {
            "id": 52917,
            "original_name": "Dubbelsvindlarna",
            "popularity": 0.6
        },
        {
            "id": 54392,
            "original_name": "Shitsville Express",
            "popularity": 0.6
        },
        {
            "id": 54559,
            "original_name": "Kongsvik videreg\u00e5ende",
            "popularity": 0.6
        },
        {
            "id": 54573,
            "original_name": "Ho\u010f svi\u0161\u0165om",
            "popularity": 0.6
        },
        {
            "id": 57821,
            "original_name": "Linus i Svingen",
            "popularity": 0.878
        },
        {
            "id": 58495,
            "original_name": "Shitsville Express",
            "popularity": 0.6
        },
        {
            "id": 62122,
            "original_name": "Crno-bijeli svijet",
            "popularity": 1.593
        },
        {
            "id": 62623,
            "original_name": "Murder in Successville",
            "popularity": 2.871
        },
        {
            "id": 63423,
            "original_name": "Gainesville",
            "popularity": 0.6
        },
        {
            "id": 68632,
            "original_name": "Artsville",
            "popularity": 0.6
        },
        {
            "id": 74029,
            "original_name": "Svindeljegerne",
            "popularity": 0.6
        },
        {
            "id": 75381,
            "original_name": "Nestl\u00e9 Nesvita Women of Strength 09",
            "popularity": 0.84
        },
        {
            "id": 78744,
            "original_name": "Dva smo svijeta razli\u010dita",
            "popularity": 1.115
        },
        {
            "id": 79974,
            "original_name": "Kongsvikklinikken",
            "popularity": 0.6
        },
        {
            "id": 86882,
            "original_name": "Love & Marriage Huntsville",
            "popularity": 6.724
        },
        {
            "id": 90715,
            "original_name": "Kongsvikfamiliene",
            "popularity": 0.6
        },
        {
            "id": 90799,
            "original_name": "Svi cemo se jednog dana kopat' u Evropu",
            "popularity": 0.6
        },
        {
            "id": 91877,
            "original_name": "Kuda idu divlje svinje",
            "popularity": 1.4
        },
        {
            "id": 108622,
            "original_name": "Svindleri",
            "popularity": 0.988
        },
        {
            "id": 114797,
            "original_name": "Kongsvik Ungdomskole",
            "popularity": 0.6
        },
        {
            "id": 114933,
            "original_name": "Svinesund - handel i grenseland",
            "popularity": 0.6
        },
        {
            "id": 120033,
            "original_name": "Costa del Kongsvik",
            "popularity": 0.6
        },
        {
            "id": 120600,
            "original_name": "Tusvik & T\u00f8nne Talkshow",
            "popularity": 0.6
        },
        {
            "id": 120726,
            "original_name": "To se samo svici igraju",
            "popularity": 0.6
        },
        {
            "id": 122370,
            "original_name": "Tyrkersvin",
            "popularity": 0.6
        },
        {
            "id": 122957,
            "original_name": "Extraordinary Escapes with Sandi Toksvig",
            "popularity": 0.84
        },
        {
            "id": 123885,
            "original_name": "Fra 1-v\u00e6relses til Strandvejsvilla",
            "popularity": 0.6
        },
        {
            "id": 123887,
            "original_name": "Forf\u00f8rt af en svindler",
            "popularity": 0.6
        },
        {
            "id": 127221,
            "original_name": "Svindlerjagt",
            "popularity": 0.6
        },
        {
            "id": 131369,
            "original_name": "Forsvinningen p\u00e5 L\u00f8renskog",
            "popularity": 4.411
        },
        {
            "id": 136767,
            "original_name": "Kongsvika",
            "popularity": 1.35
        },
        {
            "id": 137064,
            "original_name": "Pustinje svijeta",
            "popularity": 0.6
        }
    ],
    "relations": [
        {
            "character": "svil"
        },
        {
            "character": "svij"
        },
        {
            "character": "svis"
        },
        {
            "character": "svin"
        },
        {
            "character": "svik"
        },
        {
            "character": "svie"
        },
        {
            "character": "svit"
        },
        {
            "character": "svic"
        },
        {
            "character": "svig"
        }
    ],
    "top20": [
        {
            "id": 86882,
            "original_name": "Love & Marriage Huntsville",
            "popularity": 6.724
        },
        {
            "id": 46404,
            "original_name": "Spooksville",
            "popularity": 5.361
        },
        {
            "id": 131369,
            "original_name": "Forsvinningen p\u00e5 L\u00f8renskog",
            "popularity": 4.411
        },
        {
            "id": 62623,
            "original_name": "Murder in Successville",
            "popularity": 2.871
        },
        {
            "id": 726,
            "original_name": "Lidsville",
            "popularity": 2.566
        },
        {
            "id": 7420,
            "original_name": "MTV Splitsvilla",
            "popularity": 2.01
        },
        {
            "id": 62122,
            "original_name": "Crno-bijeli svijet",
            "popularity": 1.593
        },
        {
            "id": 27358,
            "original_name": "Gibbsville",
            "popularity": 1.523
        },
        {
            "id": 91877,
            "original_name": "Kuda idu divlje svinje",
            "popularity": 1.4
        },
        {
            "id": 136767,
            "original_name": "Kongsvika",
            "popularity": 1.35
        },
        {
            "id": 78744,
            "original_name": "Dva smo svijeta razli\u010dita",
            "popularity": 1.115
        },
        {
            "id": 108622,
            "original_name": "Svindleri",
            "popularity": 0.988
        },
        {
            "id": 17578,
            "original_name": "Rallarsving",
            "popularity": 0.932
        },
        {
            "id": 46634,
            "original_name": "Squaresville",
            "popularity": 0.882
        },
        {
            "id": 57821,
            "original_name": "Linus i Svingen",
            "popularity": 0.878
        },
        {
            "id": 75381,
            "original_name": "Nestl\u00e9 Nesvita Women of Strength 09",
            "popularity": 0.84
        },
        {
            "id": 122957,
            "original_name": "Extraordinary Escapes with Sandi Toksvig",
            "popularity": 0.84
        },
        {
            "id": 24089,
            "original_name": "Splitsville",
            "popularity": 0.6
        },
        {
            "id": 9438,
            "original_name": "Bibin svijet",
            "popularity": 0.6
        },
        {
            "id": 12044,
            "original_name": "Bundesvision Song Contest",
            "popularity": 0.6
        }
    ]
}