{
    "data": [
        {
            "id": 50607,
            "original_name": "Aswaar",
            "popularity": 0.6
        },
        {
            "id": 53800,
            "original_name": "Aswaar Al Zolm",
            "popularity": 0.6
        }
    ],
    "relations": [],
    "top20": [
        {
            "id": 50607,
            "original_name": "Aswaar",
            "popularity": 0.6
        },
        {
            "id": 53800,
            "original_name": "Aswaar Al Zolm",
            "popularity": 0.6
        }
    ]
}