{
    "data": [
        {
            "id": 427,
            "original_name": "Clean Sweep",
            "popularity": 1.505
        },
        {
            "id": 758,
            "original_name": "The Sweeney",
            "popularity": 17.716
        },
        {
            "id": 1202,
            "original_name": "Dale's Supermarket Sweep",
            "popularity": 0.778
        },
        {
            "id": 3066,
            "original_name": "Sweet Sixteen",
            "popularity": 0.6
        },
        {
            "id": 3296,
            "original_name": "Sweet and Sour",
            "popularity": 0.6
        },
        {
            "id": 3880,
            "original_name": "Sweet Buns",
            "popularity": 1.218
        },
        {
            "id": 4390,
            "original_name": "Roswell Conspiracies: Aliens, Myths and Legends",
            "popularity": 4.922
        },
        {
            "id": 4624,
            "original_name": "Roswell",
            "popularity": 25.294
        },
        {
            "id": 5226,
            "original_name": "Celebrity Sweepstakes",
            "popularity": 0.6
        },
        {
            "id": 5632,
            "original_name": "Goodnight Sweetheart",
            "popularity": 3.851
        },
        {
            "id": 5916,
            "original_name": "My Super Sweet 16 Presents: Exiled",
            "popularity": 0.6
        },
        {
            "id": 6130,
            "original_name": "Questions and Answers",
            "popularity": 0.6
        },
        {
            "id": 6425,
            "original_name": "Supermarket Sweep",
            "popularity": 1.492
        },
        {
            "id": 6444,
            "original_name": "My Sweet, Fat Valentina",
            "popularity": 0.6
        },
        {
            "id": 7291,
            "original_name": "When Spicy Meets Sweet",
            "popularity": 0.6
        },
        {
            "id": 7461,
            "original_name": "Blood, Sweat and Gears",
            "popularity": 0.6
        },
        {
            "id": 7660,
            "original_name": "Sweetness in the Salt",
            "popularity": 0.6
        },
        {
            "id": 8579,
            "original_name": "BitterSweet",
            "popularity": 0.842
        },
        {
            "id": 8661,
            "original_name": "Religion & Ethics Newsweekly",
            "popularity": 0.6
        },
        {
            "id": 9650,
            "original_name": "No Sweat",
            "popularity": 0.6
        },
        {
            "id": 10175,
            "original_name": "Sweethearts",
            "popularity": 0.6
        },
        {
            "id": 10390,
            "original_name": "My Super Sweet 16",
            "popularity": 2.151
        },
        {
            "id": 10592,
            "original_name": "Sweet Medicine",
            "popularity": 0.6
        },
        {
            "id": 11457,
            "original_name": "Sweethearts",
            "popularity": 0.6
        },
        {
            "id": 11671,
            "original_name": "Sweet Valley High",
            "popularity": 8.508
        },
        {
            "id": 13939,
            "original_name": "Sweat",
            "popularity": 2.917
        },
        {
            "id": 14360,
            "original_name": "Newsweek Views the News",
            "popularity": 0.654
        },
        {
            "id": 14827,
            "original_name": "Home Sweet Home",
            "popularity": 1.874
        },
        {
            "id": 15500,
            "original_name": "The Sweet Life",
            "popularity": 0.6
        },
        {
            "id": 16432,
            "original_name": "Sweet & Sassy",
            "popularity": 0.6
        },
        {
            "id": 16521,
            "original_name": "Live and Sweaty",
            "popularity": 0.6
        },
        {
            "id": 17880,
            "original_name": "Sweet Baby James",
            "popularity": 0.6
        },
        {
            "id": 18000,
            "original_name": "Sweet and Sour",
            "popularity": 0.6
        },
        {
            "id": 18238,
            "original_name": "Lidia's Italy: Sweet Napoli",
            "popularity": 0.6
        },
        {
            "id": 18606,
            "original_name": "Manswers",
            "popularity": 1.4
        },
        {
            "id": 19386,
            "original_name": "Sweet F.A.",
            "popularity": 0.6
        },
        {
            "id": 19455,
            "original_name": "Sweet Justice",
            "popularity": 3.208
        },
        {
            "id": 19630,
            "original_name": "Issues and Answers",
            "popularity": 0.6
        },
        {
            "id": 19658,
            "original_name": "Welcome to Sweden",
            "popularity": 0.6
        },
        {
            "id": 20054,
            "original_name": "Sweet Nothing",
            "popularity": 0.6
        },
        {
            "id": 21483,
            "original_name": "Sweet J Presents",
            "popularity": 0.6
        },
        {
            "id": 22042,
            "original_name": "Claire Sweeney - My Big Fat Diet",
            "popularity": 0.6
        },
        {
            "id": 22663,
            "original_name": "The Sweet Life",
            "popularity": 0.6
        },
        {
            "id": 23229,
            "original_name": "Oil, Sweat and Rigs",
            "popularity": 0.6
        },
        {
            "id": 23274,
            "original_name": "Sweat (US)",
            "popularity": 0.6
        },
        {
            "id": 23942,
            "original_name": "Answer Yes or No",
            "popularity": 0.6
        },
        {
            "id": 23981,
            "original_name": "I'm The Answer",
            "popularity": 0.6
        },
        {
            "id": 23986,
            "original_name": "Sweepstakes",
            "popularity": 3.379
        },
        {
            "id": 24800,
            "original_name": "Brazil's Roswell",
            "popularity": 0.6
        },
        {
            "id": 25270,
            "original_name": "Blood, Sweat and Takeaways",
            "popularity": 0.6
        },
        {
            "id": 25986,
            "original_name": "The Sweet Spot",
            "popularity": 0.84
        },
        {
            "id": 26381,
            "original_name": "The Sweepstakes Game",
            "popularity": 0.6
        },
        {
            "id": 27456,
            "original_name": "Don't Sweat It",
            "popularity": 0.6
        },
        {
            "id": 27468,
            "original_name": "Blood, Sweat and T-Shirts",
            "popularity": 0.6
        },
        {
            "id": 28559,
            "original_name": "Supermarket Sweep Australia",
            "popularity": 0.6
        },
        {
            "id": 29325,
            "original_name": "Sweat Of The Sun - Tears Of The Moon",
            "popularity": 0.6
        },
        {
            "id": 29541,
            "original_name": "Sweet Sixteen",
            "popularity": 0.6
        },
        {
            "id": 29858,
            "original_name": "Sweet Bear",
            "popularity": 0.6
        },
        {
            "id": 29992,
            "original_name": "Boer zkt Vrouw - Home Sweet Home",
            "popularity": 0.843
        },
        {
            "id": 30042,
            "original_name": "Sweetheart",
            "popularity": 0.6
        },
        {
            "id": 31018,
            "original_name": "Big Brother (Sweden and Norway)",
            "popularity": 0.6
        },
        {
            "id": 31382,
            "original_name": "We Need Answers",
            "popularity": 2.33
        },
        {
            "id": 31508,
            "original_name": "Home Sweet Homeless",
            "popularity": 0.6
        },
        {
            "id": 31918,
            "original_name": "Don't Sweat It",
            "popularity": 0.6
        },
        {
            "id": 32767,
            "original_name": "Scream! If You Know the Answer",
            "popularity": 0.6
        },
        {
            "id": 34367,
            "original_name": "My Driver Sweet Lover",
            "popularity": 0.6
        },
        {
            "id": 34583,
            "original_name": "Tourettes: I Swear I Can't Help It",
            "popularity": 0.6
        },
        {
            "id": 35201,
            "original_name": "Sweeney Todd",
            "popularity": 0.6
        },
        {
            "id": 35218,
            "original_name": "Fanswers",
            "popularity": 0.6
        },
        {
            "id": 35453,
            "original_name": "Sweet Vacation",
            "popularity": 0.6
        },
        {
            "id": 36341,
            "original_name": "You Want Answers",
            "popularity": 0.6
        },
        {
            "id": 36577,
            "original_name": "Blood, Sweat and Luxuries",
            "popularity": 0.6
        },
        {
            "id": 36803,
            "original_name": "\u3064\u3088\u304d\u3059 Cool\u00d7Sweet",
            "popularity": 2.487
        },
        {
            "id": 37267,
            "original_name": "Sweet Valerians",
            "popularity": 0.6
        },
        {
            "id": 37311,
            "original_name": "Sweet Home",
            "popularity": 0.6
        },
        {
            "id": 37648,
            "original_name": "Regular Ordinary Swedish Meal Time",
            "popularity": 0.6
        },
        {
            "id": 38666,
            "original_name": "Millennium (SWE)",
            "popularity": 0.6
        },
        {
            "id": 39121,
            "original_name": "Idol (Sweden)",
            "popularity": 0.6
        },
        {
            "id": 39179,
            "original_name": "Sweet Surrender",
            "popularity": 0.87
        },
        {
            "id": 39554,
            "original_name": "Answers for Americans",
            "popularity": 0.6
        },
        {
            "id": 39602,
            "original_name": "The World of Mr. Sweeney",
            "popularity": 0.6
        },
        {
            "id": 41478,
            "original_name": "Answers with Bayless Conley",
            "popularity": 0.6
        },
        {
            "id": 41590,
            "original_name": "Sweet India",
            "popularity": 0.6
        },
        {
            "id": 41742,
            "original_name": "Sell Me the Answer",
            "popularity": 0.6
        },
        {
            "id": 43259,
            "original_name": "Answered by Fire",
            "popularity": 1.36
        },
        {
            "id": 43916,
            "original_name": "Welcome to Sweetie Pie's",
            "popularity": 0.728
        },
        {
            "id": 44209,
            "original_name": "Mock & Sweet",
            "popularity": 0.6
        },
        {
            "id": 44998,
            "original_name": "Sweet Genius",
            "popularity": 0.624
        },
        {
            "id": 45771,
            "original_name": "Sweat Equity",
            "popularity": 0.6
        },
        {
            "id": 45960,
            "original_name": "Answer\uff5e\u8b66\u8996\u5e81\u691c\u8a3c\u635c\u67fb\u5b98",
            "popularity": 1.47
        },
        {
            "id": 46715,
            "original_name": "Sweat the Small Stuff",
            "popularity": 0.6
        },
        {
            "id": 47123,
            "original_name": "Home Sweet Home",
            "popularity": 0.6
        },
        {
            "id": 48539,
            "original_name": "Sweeney Todd: The Demon Barber of Fleet Street",
            "popularity": 0.84
        },
        {
            "id": 48667,
            "original_name": "Runaway Sweetheart",
            "popularity": 0.6
        },
        {
            "id": 48921,
            "original_name": "Sweet and Low",
            "popularity": 0.6
        },
        {
            "id": 51538,
            "original_name": "Sweet Pete's Show",
            "popularity": 0.6
        },
        {
            "id": 51914,
            "original_name": "SWEET DEN OF PREMIERE",
            "popularity": 0.6
        },
        {
            "id": 52204,
            "original_name": "Tweets For My Sweet",
            "popularity": 0.6
        },
        {
            "id": 52509,
            "original_name": "Rainbow Sweetheart",
            "popularity": 0.6
        },
        {
            "id": 52952,
            "original_name": "Sweet Bride",
            "popularity": 0.6
        },
        {
            "id": 55291,
            "original_name": "Unique Sweets",
            "popularity": 1.171
        },
        {
            "id": 57192,
            "original_name": "War in the Gulf: Questions & Answers with Peter Jennings",
            "popularity": 0.6
        },
        {
            "id": 58344,
            "original_name": "SWEAT",
            "popularity": 0.6
        },
        {
            "id": 58490,
            "original_name": "Bukit Ho Swee",
            "popularity": 0.6
        },
        {
            "id": 59856,
            "original_name": "IIHF World Junior Hockey Gold Final: Canada vs. Sweden",
            "popularity": 0.6
        },
        {
            "id": 60364,
            "original_name": "Sweat the Small Stuff",
            "popularity": 0.6
        },
        {
            "id": 60481,
            "original_name": "Cop It Sweet",
            "popularity": 0.6
        },
        {
            "id": 60901,
            "original_name": "Welcome to Sweden",
            "popularity": 7.349
        },
        {
            "id": 62235,
            "original_name": "Ninja Warrior Sweden",
            "popularity": 0.6
        },
        {
            "id": 62446,
            "original_name": "Blood, Sweat and Heels",
            "popularity": 0.6
        },
        {
            "id": 63808,
            "original_name": "Answered Prayers",
            "popularity": 0.6
        },
        {
            "id": 64123,
            "original_name": "J\u00fcrgen Becker: Der dritte Bildungsweg",
            "popularity": 1.345
        },
        {
            "id": 66145,
            "original_name": "Swerved",
            "popularity": 4.617
        },
        {
            "id": 67642,
            "original_name": "Swedish Dicks",
            "popularity": 8.092
        },
        {
            "id": 68339,
            "original_name": "Sweet 15: Quincea\u00f1era",
            "popularity": 0.6
        },
        {
            "id": 68610,
            "original_name": "Sweet/Vicious",
            "popularity": 3.434
        },
        {
            "id": 68956,
            "original_name": "Sell Me the Answer",
            "popularity": 0.6
        },
        {
            "id": 69086,
            "original_name": "Kids Sweets Showdown",
            "popularity": 0.6
        },
        {
            "id": 70265,
            "original_name": "Suamiku Paling Sweet",
            "popularity": 0.871
        },
        {
            "id": 70836,
            "original_name": "Sweet Home Oklahoma",
            "popularity": 0.928
        },
        {
            "id": 72459,
            "original_name": "My Sweet Lavender",
            "popularity": 0.6
        },
        {
            "id": 74273,
            "original_name": "Swell",
            "popularity": 1.769
        },
        {
            "id": 74694,
            "original_name": "Junior Doctors: Blood, Sweat and Tears",
            "popularity": 0.6
        },
        {
            "id": 74704,
            "original_name": "Freaky Sweets",
            "popularity": 0.6
        },
        {
            "id": 75136,
            "original_name": "Gruen Sweat",
            "popularity": 0.6
        },
        {
            "id": 77032,
            "original_name": "Sweetbitter",
            "popularity": 7.77
        },
        {
            "id": 77295,
            "original_name": "Supermarket Sweep",
            "popularity": 1.132
        },
        {
            "id": 80334,
            "original_name": "Ti Amo Sweetheart 100 Hari",
            "popularity": 1.996
        },
        {
            "id": 82001,
            "original_name": "Roswell, New Mexico",
            "popularity": 29.458
        },
        {
            "id": 83682,
            "original_name": "Liefdesweg",
            "popularity": 0.6
        },
        {
            "id": 85343,
            "original_name": "Flucht ohne Ausweg",
            "popularity": 0.6
        },
        {
            "id": 87561,
            "original_name": "Chick'n Swell et cie",
            "popularity": 0.6
        },
        {
            "id": 89673,
            "original_name": "Sweet Home Sextuplets",
            "popularity": 1.4
        },
        {
            "id": 89849,
            "original_name": "Sweet Diary",
            "popularity": 0.6
        },
        {
            "id": 90304,
            "original_name": "Bitter Sweet - Ingredienti d'amore",
            "popularity": 0.606
        },
        {
            "id": 92302,
            "original_name": "Sweet Dreams",
            "popularity": 0.6
        },
        {
            "id": 93137,
            "original_name": "Sinful Sweets",
            "popularity": 0.6
        },
        {
            "id": 93276,
            "original_name": "Supermarket Sweep",
            "popularity": 0.6
        },
        {
            "id": 94534,
            "original_name": "Swedish sin",
            "popularity": 0.6
        },
        {
            "id": 96293,
            "original_name": "\u8584\u685c\u9b3cSSL\u301csweet school life\u301c",
            "popularity": 1.4
        },
        {
            "id": 97639,
            "original_name": "Sweat Inc.",
            "popularity": 0.6
        },
        {
            "id": 100429,
            "original_name": "100 Humans: Life's Questions. Answered.",
            "popularity": 2.011
        },
        {
            "id": 101513,
            "original_name": "Auf dem Jakobsweg - Bis zum Ende der Welt",
            "popularity": 0.6
        },
        {
            "id": 102324,
            "original_name": "Chopped Sweets",
            "popularity": 1.187
        },
        {
            "id": 102904,
            "original_name": "Sweet Magnolias",
            "popularity": 15.722
        },
        {
            "id": 103768,
            "original_name": "Sweet Tooth",
            "popularity": 124.656
        },
        {
            "id": 105798,
            "original_name": "Home Sweet Office",
            "popularity": 0.6
        },
        {
            "id": 105960,
            "original_name": "Lesenswert",
            "popularity": 0.81
        },
        {
            "id": 106878,
            "original_name": "Wahnsinnswerke",
            "popularity": 0.6
        },
        {
            "id": 110838,
            "original_name": "Supermarket Sweep",
            "popularity": 2.494
        },
        {
            "id": 111301,
            "original_name": "Boswell & Johnson's Scottish Road Trip",
            "popularity": 0.84
        },
        {
            "id": 111941,
            "original_name": "\u5979\u7684\u5fae\u7b11\u50cf\u9897\u7cd6 Her Smile So Sweet",
            "popularity": 0.6
        },
        {
            "id": 112335,
            "original_name": "Sweet Angel",
            "popularity": 0.656
        },
        {
            "id": 112541,
            "original_name": "Sweet Revenge Hindi Dubbed",
            "popularity": 0.6
        },
        {
            "id": 112694,
            "original_name": "Sweet n Sour",
            "popularity": 0.6
        },
        {
            "id": 114591,
            "original_name": "History of Swear Words",
            "popularity": 7.296
        },
        {
            "id": 115219,
            "original_name": "Grenzlichter - Kontakt zur Anderswelt",
            "popularity": 0.6
        },
        {
            "id": 116107,
            "original_name": "Sweet and Salty Fairy",
            "popularity": 0.6
        },
        {
            "id": 116287,
            "original_name": "Roswell : le premier t\u00e9moin",
            "popularity": 0.771
        },
        {
            "id": 116347,
            "original_name": "Roswell: The First Witness",
            "popularity": 0.84
        },
        {
            "id": 116351,
            "original_name": "Sweet & Easy",
            "popularity": 0.6
        },
        {
            "id": 117410,
            "original_name": "4-3-2-1 Hot and Sweet",
            "popularity": 2.564
        },
        {
            "id": 117971,
            "original_name": "Joanna Lumley\u2019s Home Sweet Home \u2013 Travels in My Own Land",
            "popularity": 1.053
        },
        {
            "id": 118364,
            "original_name": "Answers with Joe",
            "popularity": 0.6
        },
        {
            "id": 119721,
            "original_name": "Sweety Bhabhi",
            "popularity": 0.6
        },
        {
            "id": 119864,
            "original_name": "Lost In The Swell",
            "popularity": 0.6
        },
        {
            "id": 122819,
            "original_name": "Sweet Lie",
            "popularity": 0.838
        },
        {
            "id": 123052,
            "original_name": "Sweet Home Ketteringa",
            "popularity": 0.6
        },
        {
            "id": 123760,
            "original_name": "Chick'n Swell",
            "popularity": 0.6
        },
        {
            "id": 125630,
            "original_name": "\u5922\u3067\u9022\u3048\u305f\u3089 A SWEET NIGHTMARE",
            "popularity": 0.6
        },
        {
            "id": 125719,
            "original_name": "The Answer Trap",
            "popularity": 0.683
        },
        {
            "id": 127179,
            "original_name": "My Demon Tyrant and Sweet Baby",
            "popularity": 1.502
        },
        {
            "id": 127745,
            "original_name": "\u30a6\u30a8\u30c7\u30a3\u30f3\u30b0\u30d7\u30e9\u30f3\u30ca\u30fc SWEET \u30c7\u30ea\u30d0\u30ea\u30fc",
            "popularity": 0.6
        },
        {
            "id": 128236,
            "original_name": "Roswell: The Final Verdict",
            "popularity": 1.718
        },
        {
            "id": 128376,
            "original_name": "Home Sweet HomeGoods",
            "popularity": 1.883
        },
        {
            "id": 129792,
            "original_name": "The Sweet Makers",
            "popularity": 0.6
        },
        {
            "id": 130706,
            "original_name": "Sweet Life: Los Angeles",
            "popularity": 5.151
        },
        {
            "id": 131127,
            "original_name": "Exploring Northern Ireland With Siobh\u00e1n McSweeney",
            "popularity": 3.441
        },
        {
            "id": 131497,
            "original_name": "Big Questions, Huge Answers with Jon Dore",
            "popularity": 0.6
        },
        {
            "id": 131858,
            "original_name": "Sweet Moments with Hello Kitty",
            "popularity": 0.6
        },
        {
            "id": 133046,
            "original_name": "Mud Sweat and Tractors: The Story of Agriculture",
            "popularity": 0.6
        },
        {
            "id": 133778,
            "original_name": "Sweet Revenge",
            "popularity": 0.6
        },
        {
            "id": 135222,
            "original_name": "Hyo Jung & Binnie's Sweet Home",
            "popularity": 0.668
        },
        {
            "id": 135928,
            "original_name": "Preiswert, n\u00fctzlich, gut?",
            "popularity": 0.6
        },
        {
            "id": 136960,
            "original_name": "Home Sweet Home",
            "popularity": 4.417
        }
    ],
    "relations": [
        {
            "character": "swee"
        },
        {
            "character": "swel"
        },
        {
            "character": "swer"
        },
        {
            "character": "swea"
        },
        {
            "character": "swed"
        },
        {
            "character": "sweg"
        }
    ],
    "top20": [
        {
            "id": 103768,
            "original_name": "Sweet Tooth",
            "popularity": 124.656
        },
        {
            "id": 82001,
            "original_name": "Roswell, New Mexico",
            "popularity": 29.458
        },
        {
            "id": 4624,
            "original_name": "Roswell",
            "popularity": 25.294
        },
        {
            "id": 758,
            "original_name": "The Sweeney",
            "popularity": 17.716
        },
        {
            "id": 102904,
            "original_name": "Sweet Magnolias",
            "popularity": 15.722
        },
        {
            "id": 11671,
            "original_name": "Sweet Valley High",
            "popularity": 8.508
        },
        {
            "id": 67642,
            "original_name": "Swedish Dicks",
            "popularity": 8.092
        },
        {
            "id": 77032,
            "original_name": "Sweetbitter",
            "popularity": 7.77
        },
        {
            "id": 60901,
            "original_name": "Welcome to Sweden",
            "popularity": 7.349
        },
        {
            "id": 114591,
            "original_name": "History of Swear Words",
            "popularity": 7.296
        },
        {
            "id": 130706,
            "original_name": "Sweet Life: Los Angeles",
            "popularity": 5.151
        },
        {
            "id": 4390,
            "original_name": "Roswell Conspiracies: Aliens, Myths and Legends",
            "popularity": 4.922
        },
        {
            "id": 66145,
            "original_name": "Swerved",
            "popularity": 4.617
        },
        {
            "id": 136960,
            "original_name": "Home Sweet Home",
            "popularity": 4.417
        },
        {
            "id": 5632,
            "original_name": "Goodnight Sweetheart",
            "popularity": 3.851
        },
        {
            "id": 131127,
            "original_name": "Exploring Northern Ireland With Siobh\u00e1n McSweeney",
            "popularity": 3.441
        },
        {
            "id": 68610,
            "original_name": "Sweet/Vicious",
            "popularity": 3.434
        },
        {
            "id": 23986,
            "original_name": "Sweepstakes",
            "popularity": 3.379
        },
        {
            "id": 19455,
            "original_name": "Sweet Justice",
            "popularity": 3.208
        },
        {
            "id": 13939,
            "original_name": "Sweat",
            "popularity": 2.917
        }
    ]
}