{
    "data": [
        {
            "id": 52340,
            "original_name": "To paihnidi tis sygnomis",
            "popularity": 0.6
        },
        {
            "id": 61982,
            "original_name": "Na sygnale",
            "popularity": 1.963
        },
        {
            "id": 82319,
            "original_name": "De sindssygt farlige",
            "popularity": 0.6
        },
        {
            "id": 83524,
            "original_name": "Sygeplejeskolen",
            "popularity": 7.851
        },
        {
            "id": 103278,
            "original_name": "Min sindssygt sunde familie",
            "popularity": 0.622
        },
        {
            "id": 112818,
            "original_name": "N\u00e5r mor eller far er psykisk syg",
            "popularity": 0.6
        },
        {
            "id": 113899,
            "original_name": "Albert: Sindssygt kendt",
            "popularity": 0.6
        },
        {
            "id": 137145,
            "original_name": "Opr\u00e5b fra sygehuset",
            "popularity": 0.6
        }
    ],
    "relations": [],
    "top20": [
        {
            "id": 52340,
            "original_name": "To paihnidi tis sygnomis",
            "popularity": 0.6
        },
        {
            "id": 61982,
            "original_name": "Na sygnale",
            "popularity": 1.963
        },
        {
            "id": 82319,
            "original_name": "De sindssygt farlige",
            "popularity": 0.6
        },
        {
            "id": 83524,
            "original_name": "Sygeplejeskolen",
            "popularity": 7.851
        },
        {
            "id": 103278,
            "original_name": "Min sindssygt sunde familie",
            "popularity": 0.622
        },
        {
            "id": 112818,
            "original_name": "N\u00e5r mor eller far er psykisk syg",
            "popularity": 0.6
        },
        {
            "id": 113899,
            "original_name": "Albert: Sindssygt kendt",
            "popularity": 0.6
        },
        {
            "id": 137145,
            "original_name": "Opr\u00e5b fra sygehuset",
            "popularity": 0.6
        }
    ]
}