{
    "data": [
        {
            "id": 14561,
            "original_name": "Gustne Gensyn",
            "popularity": 0.6
        },
        {
            "id": 17032,
            "original_name": "Lipsynch Party",
            "popularity": 0.6
        },
        {
            "id": 19305,
            "original_name": "The Syndicate",
            "popularity": 4.278
        },
        {
            "id": 19670,
            "original_name": "The Syndicate",
            "popularity": 0.6
        },
        {
            "id": 26494,
            "original_name": "The Lazarus Syndrome",
            "popularity": 0.88
        },
        {
            "id": 30723,
            "original_name": "Baddiel's Syndrome",
            "popularity": 1.807
        },
        {
            "id": 36512,
            "original_name": "Crime Syndicated",
            "popularity": 0.6
        },
        {
            "id": 37068,
            "original_name": "De 7 d\u00f8dssyndene",
            "popularity": 0.702
        },
        {
            "id": 42953,
            "original_name": "Mnemosyne\uff0d\u30e0\u30cd\u30e2\u30b7\u30e5\u30cd\u306e\u5a18\u305f\u3061\uff0d",
            "popularity": 11.356
        },
        {
            "id": 43590,
            "original_name": "Synov\u00e9 a dcery Jakuba skl\u00e1\u0159e",
            "popularity": 1.477
        },
        {
            "id": 45244,
            "original_name": "Sync",
            "popularity": 0.6
        },
        {
            "id": 48264,
            "original_name": "Rozmowy ojca z synem",
            "popularity": 0.6
        },
        {
            "id": 56253,
            "original_name": "The Team Coco Sync Multi-Screen Experience",
            "popularity": 0.6
        },
        {
            "id": 57322,
            "original_name": "Syksyn s\u00e4vel",
            "popularity": 0.6
        },
        {
            "id": 57323,
            "original_name": "Daa-da daa-da - Syksyn s\u00e4vel -retro",
            "popularity": 0.6
        },
        {
            "id": 57397,
            "original_name": "Dragon Syndrome",
            "popularity": 0.6
        },
        {
            "id": 62313,
            "original_name": "Lip Sync Battle",
            "popularity": 20.111
        },
        {
            "id": 64749,
            "original_name": "Video Synchronicity",
            "popularity": 0.6
        },
        {
            "id": 65250,
            "original_name": "Lip Sync Battle UK",
            "popularity": 0.6
        },
        {
            "id": 65622,
            "original_name": "Lip Sync Battle : face \u00e0 face",
            "popularity": 2.557
        },
        {
            "id": 73568,
            "original_name": "Lip Sync Battle Thailand",
            "popularity": 0.6
        },
        {
            "id": 74572,
            "original_name": "Lip Sync Battle Shorties",
            "popularity": 1.281
        },
        {
            "id": 80206,
            "original_name": "Da Lotte blev usynlig",
            "popularity": 1.346
        },
        {
            "id": 87616,
            "original_name": "Fjernsyn for dyr - Bamse p\u00e5 planeten",
            "popularity": 0.6
        },
        {
            "id": 87617,
            "original_name": "O loupe\u017enick\u00e9m synku Cip\u00edskovi",
            "popularity": 0.6
        },
        {
            "id": 88227,
            "original_name": "Kaikki synnit",
            "popularity": 2.974
        },
        {
            "id": 92476,
            "original_name": "Svenska Synden",
            "popularity": 0.6
        },
        {
            "id": 96109,
            "original_name": "Synvain R\u00e9nove",
            "popularity": 2.111
        },
        {
            "id": 97075,
            "original_name": "Stockholmsk\u00fd syndrom",
            "popularity": 1.847
        },
        {
            "id": 97375,
            "original_name": "Gniewko, syn rybaka",
            "popularity": 1.178
        },
        {
            "id": 98769,
            "original_name": "Superungar - syntolkat",
            "popularity": 0.6
        },
        {
            "id": 99290,
            "original_name": "Cypisek: Syn Rozb\u00f3jnika Rumcajsa",
            "popularity": 0.6
        },
        {
            "id": 101224,
            "original_name": "Le Syndic du Donjon",
            "popularity": 0.6
        },
        {
            "id": 108675,
            "original_name": "Synn\u00f8ve Rydder Opp -  Kjendis",
            "popularity": 1.042
        },
        {
            "id": 109169,
            "original_name": "Stokholmsyndromet",
            "popularity": 0.6
        },
        {
            "id": 110234,
            "original_name": "State of Syn",
            "popularity": 2.151
        },
        {
            "id": 114394,
            "original_name": "Skai TV - imitert fjernsyn",
            "popularity": 0.626
        },
        {
            "id": 118307,
            "original_name": "Helsinki-syndrooma",
            "popularity": 1.026
        },
        {
            "id": 118830,
            "original_name": "Synowie, czyli po moim trupie!",
            "popularity": 0.6
        },
        {
            "id": 119250,
            "original_name": "Te\u015bciowe i synowe. Kto tu rz\u0105dzi?",
            "popularity": 0.616
        },
        {
            "id": 120125,
            "original_name": "Synaps",
            "popularity": 0.685
        },
        {
            "id": 120863,
            "original_name": "Fjernsyn for dig",
            "popularity": 0.6
        },
        {
            "id": 121804,
            "original_name": "Seitsem\u00e4n kuolemansynti\u00e4",
            "popularity": 0.6
        },
        {
            "id": 126103,
            "original_name": "Le Syndrome de l'Iceberg",
            "popularity": 0.6
        },
        {
            "id": 127469,
            "original_name": "Syng min sang",
            "popularity": 0.6
        },
        {
            "id": 131211,
            "original_name": "Syndics",
            "popularity": 12.154
        },
        {
            "id": 131708,
            "original_name": "Messyness",
            "popularity": 5.659
        }
    ],
    "relations": [
        {
            "character": "sync"
        },
        {
            "character": "synd"
        },
        {
            "character": "syne"
        },
        {
            "character": "syno"
        },
        {
            "character": "synl"
        },
        {
            "character": "synk"
        },
        {
            "character": "synn"
        },
        {
            "character": "synv"
        },
        {
            "character": "synt"
        },
        {
            "character": "syna"
        },
        {
            "character": "syng"
        }
    ],
    "top20": [
        {
            "id": 62313,
            "original_name": "Lip Sync Battle",
            "popularity": 20.111
        },
        {
            "id": 131211,
            "original_name": "Syndics",
            "popularity": 12.154
        },
        {
            "id": 42953,
            "original_name": "Mnemosyne\uff0d\u30e0\u30cd\u30e2\u30b7\u30e5\u30cd\u306e\u5a18\u305f\u3061\uff0d",
            "popularity": 11.356
        },
        {
            "id": 131708,
            "original_name": "Messyness",
            "popularity": 5.659
        },
        {
            "id": 19305,
            "original_name": "The Syndicate",
            "popularity": 4.278
        },
        {
            "id": 88227,
            "original_name": "Kaikki synnit",
            "popularity": 2.974
        },
        {
            "id": 65622,
            "original_name": "Lip Sync Battle : face \u00e0 face",
            "popularity": 2.557
        },
        {
            "id": 110234,
            "original_name": "State of Syn",
            "popularity": 2.151
        },
        {
            "id": 96109,
            "original_name": "Synvain R\u00e9nove",
            "popularity": 2.111
        },
        {
            "id": 97075,
            "original_name": "Stockholmsk\u00fd syndrom",
            "popularity": 1.847
        },
        {
            "id": 30723,
            "original_name": "Baddiel's Syndrome",
            "popularity": 1.807
        },
        {
            "id": 43590,
            "original_name": "Synov\u00e9 a dcery Jakuba skl\u00e1\u0159e",
            "popularity": 1.477
        },
        {
            "id": 80206,
            "original_name": "Da Lotte blev usynlig",
            "popularity": 1.346
        },
        {
            "id": 74572,
            "original_name": "Lip Sync Battle Shorties",
            "popularity": 1.281
        },
        {
            "id": 97375,
            "original_name": "Gniewko, syn rybaka",
            "popularity": 1.178
        },
        {
            "id": 108675,
            "original_name": "Synn\u00f8ve Rydder Opp -  Kjendis",
            "popularity": 1.042
        },
        {
            "id": 118307,
            "original_name": "Helsinki-syndrooma",
            "popularity": 1.026
        },
        {
            "id": 26494,
            "original_name": "The Lazarus Syndrome",
            "popularity": 0.88
        },
        {
            "id": 37068,
            "original_name": "De 7 d\u00f8dssyndene",
            "popularity": 0.702
        },
        {
            "id": 120125,
            "original_name": "Synaps",
            "popularity": 0.685
        }
    ]
}