{
    "data": [
        {
            "id": 2871,
            "original_name": "Should I Worry About...?",
            "popularity": 0.6
        }
    ],
    "relations": [],
    "top20": [
        {
            "id": 2871,
            "original_name": "Should I Worry About...?",
            "popularity": 0.6
        }
    ]
}