{
    "data": [
        {
            "id": 1903,
            "original_name": "A.T.O.M.",
            "popularity": 3.615
        },
        {
            "id": 21649,
            "original_name": "The T.O. Show",
            "popularity": 0.6
        },
        {
            "id": 22039,
            "original_name": "Trasniti din N.A.T.O.",
            "popularity": 0.675
        },
        {
            "id": 37815,
            "original_name": "The T.Ocho Show",
            "popularity": 0.6
        },
        {
            "id": 91433,
            "original_name": "T.O.T.S.",
            "popularity": 12.818
        },
        {
            "id": 110827,
            "original_name": "Calling All T.O.T.S.",
            "popularity": 2.213
        },
        {
            "id": 135013,
            "original_name": "C.T.O \ud504\ub85c\uc81d\ud2b8 : \ub354 \uc11c\ubc14\uc774\ubc8c",
            "popularity": 0.6
        }
    ],
    "relations": [],
    "top20": [
        {
            "id": 1903,
            "original_name": "A.T.O.M.",
            "popularity": 3.615
        },
        {
            "id": 21649,
            "original_name": "The T.O. Show",
            "popularity": 0.6
        },
        {
            "id": 22039,
            "original_name": "Trasniti din N.A.T.O.",
            "popularity": 0.675
        },
        {
            "id": 37815,
            "original_name": "The T.Ocho Show",
            "popularity": 0.6
        },
        {
            "id": 91433,
            "original_name": "T.O.T.S.",
            "popularity": 12.818
        },
        {
            "id": 110827,
            "original_name": "Calling All T.O.T.S.",
            "popularity": 2.213
        },
        {
            "id": 135013,
            "original_name": "C.T.O \ud504\ub85c\uc81d\ud2b8 : \ub354 \uc11c\ubc14\uc774\ubc8c",
            "popularity": 0.6
        }
    ]
}