{
    "data": [
        {
            "id": 18803,
            "original_name": "The Stagers",
            "popularity": 0.6
        },
        {
            "id": 22363,
            "original_name": "Stager Invasion",
            "popularity": 0.6
        },
        {
            "id": 88834,
            "original_name": "Merci de partager",
            "popularity": 0.949
        },
        {
            "id": 108688,
            "original_name": "Fragments, histoires \u00e0 partager",
            "popularity": 0.6
        },
        {
            "id": 127978,
            "original_name": "Chili Klaus indtager norden",
            "popularity": 1.4
        },
        {
            "id": 131400,
            "original_name": "Leth og Pilgaard indtager Danmark",
            "popularity": 0.6
        }
    ],
    "relations": [],
    "top20": [
        {
            "id": 18803,
            "original_name": "The Stagers",
            "popularity": 0.6
        },
        {
            "id": 22363,
            "original_name": "Stager Invasion",
            "popularity": 0.6
        },
        {
            "id": 88834,
            "original_name": "Merci de partager",
            "popularity": 0.949
        },
        {
            "id": 108688,
            "original_name": "Fragments, histoires \u00e0 partager",
            "popularity": 0.6
        },
        {
            "id": 127978,
            "original_name": "Chili Klaus indtager norden",
            "popularity": 1.4
        },
        {
            "id": 131400,
            "original_name": "Leth og Pilgaard indtager Danmark",
            "popularity": 0.6
        }
    ]
}