{
    "data": [
        {
            "id": 25063,
            "original_name": "Tailgate Party",
            "popularity": 0.6
        },
        {
            "id": 28095,
            "original_name": "The FCS Tailgate Tour",
            "popularity": 0.6
        },
        {
            "id": 38376,
            "original_name": "Tailgate Warriors with Guy Fieri",
            "popularity": 0.6
        }
    ],
    "relations": [],
    "top20": [
        {
            "id": 25063,
            "original_name": "Tailgate Party",
            "popularity": 0.6
        },
        {
            "id": 28095,
            "original_name": "The FCS Tailgate Tour",
            "popularity": 0.6
        },
        {
            "id": 38376,
            "original_name": "Tailgate Warriors with Guy Fieri",
            "popularity": 0.6
        }
    ]
}