{
    "data": [
        {
            "id": 492,
            "original_name": "Upstairs, Downstairs",
            "popularity": 12.689
        },
        {
            "id": 4930,
            "original_name": "Backstairs at the White House",
            "popularity": 3.268
        },
        {
            "id": 27044,
            "original_name": "Mark & Lard's Pop Upstairs Downstairs",
            "popularity": 0.6
        },
        {
            "id": 38322,
            "original_name": "Royal Upstairs Downstairs",
            "popularity": 0.677
        },
        {
            "id": 46609,
            "original_name": "Upstairs Downstairs",
            "popularity": 5.741
        },
        {
            "id": 51694,
            "original_name": "Upstairs Downstairs Bears",
            "popularity": 0.6
        },
        {
            "id": 55500,
            "original_name": "Servants: The True Story of Life Below Stairs",
            "popularity": 0.6
        },
        {
            "id": 62718,
            "original_name": "Upstairs",
            "popularity": 0.6
        },
        {
            "id": 91935,
            "original_name": "Comic Relief: Uptown Downstairs Abbey",
            "popularity": 0.6
        },
        {
            "id": 96867,
            "original_name": "Downstairs",
            "popularity": 0.6
        }
    ],
    "relations": [],
    "top20": [
        {
            "id": 492,
            "original_name": "Upstairs, Downstairs",
            "popularity": 12.689
        },
        {
            "id": 4930,
            "original_name": "Backstairs at the White House",
            "popularity": 3.268
        },
        {
            "id": 27044,
            "original_name": "Mark & Lard's Pop Upstairs Downstairs",
            "popularity": 0.6
        },
        {
            "id": 38322,
            "original_name": "Royal Upstairs Downstairs",
            "popularity": 0.677
        },
        {
            "id": 46609,
            "original_name": "Upstairs Downstairs",
            "popularity": 5.741
        },
        {
            "id": 51694,
            "original_name": "Upstairs Downstairs Bears",
            "popularity": 0.6
        },
        {
            "id": 55500,
            "original_name": "Servants: The True Story of Life Below Stairs",
            "popularity": 0.6
        },
        {
            "id": 62718,
            "original_name": "Upstairs",
            "popularity": 0.6
        },
        {
            "id": 91935,
            "original_name": "Comic Relief: Uptown Downstairs Abbey",
            "popularity": 0.6
        },
        {
            "id": 96867,
            "original_name": "Downstairs",
            "popularity": 0.6
        }
    ]
}