{
    "data": [
        {
            "id": 2632,
            "original_name": "Il \u00e9tait une fois\u2026 la Vie",
            "popularity": 13.096
        },
        {
            "id": 4213,
            "original_name": "Il \u00e9tait une fois\u2026 Les Explorateurs",
            "popularity": 2.129
        },
        {
            "id": 4727,
            "original_name": "Il \u00e9tait une fois\u2026 l'espace",
            "popularity": 7.343
        },
        {
            "id": 5065,
            "original_name": "Il \u00e9tait une fois\u2026 les Am\u00e9riques",
            "popularity": 3.371
        },
        {
            "id": 5402,
            "original_name": "Il \u00e9tait une fois... les d\u00e9couvreurs",
            "popularity": 4.373
        },
        {
            "id": 6080,
            "original_name": "Il \u00e9tait une fois\u2026 l'Homme",
            "popularity": 6.534
        },
        {
            "id": 17546,
            "original_name": "Il \u00e9tait une fois... notre terre",
            "popularity": 1.912
        },
        {
            "id": 38526,
            "original_name": "Il \u00e9tait une fois dans le trouble",
            "popularity": 2.977
        },
        {
            "id": 76103,
            "original_name": "Il etait une fois un jouet",
            "popularity": 0.6
        },
        {
            "id": 77176,
            "original_name": "Ah, c'\u00e9tait \u00e7a la vie!",
            "popularity": 0.84
        },
        {
            "id": 79596,
            "original_name": "Luc Langevin - Si la te\u0301le\u0301portation existait",
            "popularity": 0.6
        },
        {
            "id": 82832,
            "original_name": "Jacqueline Sauvage : C'\u00e9tait lui ou moi",
            "popularity": 0.699
        },
        {
            "id": 92647,
            "original_name": "Il \u00e9tait une seconde fois",
            "popularity": 8.163
        },
        {
            "id": 96169,
            "original_name": "Il \u00e9tait un grand navire",
            "popularity": 0.6
        },
        {
            "id": 101403,
            "original_name": "Il \u00e9tait une fois... \u00e0 Hollywood",
            "popularity": 0.6
        },
        {
            "id": 105495,
            "original_name": "Sininen laulu - Suomen taiteiden tarina",
            "popularity": 0.6
        },
        {
            "id": 111496,
            "original_name": "Il \u00e9tait une fois le train",
            "popularity": 0.6
        },
        {
            "id": 120058,
            "original_name": "Si Perrault m'\u00e9tait cont\u00e9",
            "popularity": 1.382
        },
        {
            "id": 129644,
            "original_name": "C'\u00e9tait \u00e9crit",
            "popularity": 0.6
        },
        {
            "id": 129794,
            "original_name": "Et si c'\u00e9tait \u00e0 refaire - Notre-Dame de Paris",
            "popularity": 0.6
        },
        {
            "id": 137123,
            "original_name": "Star Academy : On s'\u00e9tait dit rendez-vous dans 20 ans !",
            "popularity": 0.972
        },
        {
            "id": 152565,
            "original_name": "En Vrai C\u2019\u00e9tait Bien",
            "popularity": 0.6
        }
    ],
    "relations": [
        {
            "character": "taite"
        }
    ],
    "top20": [
        {
            "id": 2632,
            "original_name": "Il \u00e9tait une fois\u2026 la Vie",
            "popularity": 13.096
        },
        {
            "id": 92647,
            "original_name": "Il \u00e9tait une seconde fois",
            "popularity": 8.163
        },
        {
            "id": 4727,
            "original_name": "Il \u00e9tait une fois\u2026 l'espace",
            "popularity": 7.343
        },
        {
            "id": 6080,
            "original_name": "Il \u00e9tait une fois\u2026 l'Homme",
            "popularity": 6.534
        },
        {
            "id": 5402,
            "original_name": "Il \u00e9tait une fois... les d\u00e9couvreurs",
            "popularity": 4.373
        },
        {
            "id": 5065,
            "original_name": "Il \u00e9tait une fois\u2026 les Am\u00e9riques",
            "popularity": 3.371
        },
        {
            "id": 38526,
            "original_name": "Il \u00e9tait une fois dans le trouble",
            "popularity": 2.977
        },
        {
            "id": 4213,
            "original_name": "Il \u00e9tait une fois\u2026 Les Explorateurs",
            "popularity": 2.129
        },
        {
            "id": 17546,
            "original_name": "Il \u00e9tait une fois... notre terre",
            "popularity": 1.912
        },
        {
            "id": 120058,
            "original_name": "Si Perrault m'\u00e9tait cont\u00e9",
            "popularity": 1.382
        },
        {
            "id": 137123,
            "original_name": "Star Academy : On s'\u00e9tait dit rendez-vous dans 20 ans !",
            "popularity": 0.972
        },
        {
            "id": 77176,
            "original_name": "Ah, c'\u00e9tait \u00e7a la vie!",
            "popularity": 0.84
        },
        {
            "id": 82832,
            "original_name": "Jacqueline Sauvage : C'\u00e9tait lui ou moi",
            "popularity": 0.699
        },
        {
            "id": 76103,
            "original_name": "Il etait une fois un jouet",
            "popularity": 0.6
        },
        {
            "id": 96169,
            "original_name": "Il \u00e9tait un grand navire",
            "popularity": 0.6
        },
        {
            "id": 79596,
            "original_name": "Luc Langevin - Si la te\u0301le\u0301portation existait",
            "popularity": 0.6
        },
        {
            "id": 101403,
            "original_name": "Il \u00e9tait une fois... \u00e0 Hollywood",
            "popularity": 0.6
        },
        {
            "id": 105495,
            "original_name": "Sininen laulu - Suomen taiteiden tarina",
            "popularity": 0.6
        },
        {
            "id": 111496,
            "original_name": "Il \u00e9tait une fois le train",
            "popularity": 0.6
        },
        {
            "id": 129644,
            "original_name": "C'\u00e9tait \u00e9crit",
            "popularity": 0.6
        }
    ]
}