{
    "data": [
        {
            "id": 21854,
            "original_name": "Tajuu jinkaku tantei saiko - Amamiya Kazuhiko no kikan",
            "popularity": 0.6
        },
        {
            "id": 87246,
            "original_name": "Cantajuego",
            "popularity": 0.6
        },
        {
            "id": 115159,
            "original_name": "Tajupln\u00fd podzemn\u00ed sv\u011bt",
            "popularity": 0.6
        }
    ],
    "relations": [],
    "top20": [
        {
            "id": 21854,
            "original_name": "Tajuu jinkaku tantei saiko - Amamiya Kazuhiko no kikan",
            "popularity": 0.6
        },
        {
            "id": 87246,
            "original_name": "Cantajuego",
            "popularity": 0.6
        },
        {
            "id": 115159,
            "original_name": "Tajupln\u00fd podzemn\u00ed sv\u011bt",
            "popularity": 0.6
        }
    ]
}