{
    "data": [
        {
            "id": 8155,
            "original_name": "Tank Overhaul",
            "popularity": 0.6
        },
        {
            "id": 12841,
            "original_name": "Stankervision",
            "popularity": 0.6
        },
        {
            "id": 13180,
            "original_name": "MTV Full Tank",
            "popularity": 0.6
        },
        {
            "id": 14126,
            "original_name": "Think Tank",
            "popularity": 0.845
        },
        {
            "id": 20978,
            "original_name": "Karaoke Fishtank",
            "popularity": 0.6
        },
        {
            "id": 22967,
            "original_name": "The Fish Tank",
            "popularity": 0.6
        },
        {
            "id": 30703,
            "original_name": "Shark Tank",
            "popularity": 26.371
        },
        {
            "id": 30989,
            "original_name": "Tankboy TV",
            "popularity": 0.6
        },
        {
            "id": 31246,
            "original_name": "Tankboy TV",
            "popularity": 0.6
        },
        {
            "id": 31632,
            "original_name": "Gary: Tank Commander",
            "popularity": 1.237
        },
        {
            "id": 38432,
            "original_name": "Greatest Tank Battles",
            "popularity": 0.6
        },
        {
            "id": 38870,
            "original_name": "Greatest Tank Battles",
            "popularity": 0.6
        },
        {
            "id": 49299,
            "original_name": "Fish Tank Kings",
            "popularity": 0.6
        },
        {
            "id": 52107,
            "original_name": "Tankies: Tank Heroes of World War II",
            "popularity": 0.6
        },
        {
            "id": 56835,
            "original_name": "The Treasures of Tutankhamun",
            "popularity": 0.6
        },
        {
            "id": 59618,
            "original_name": "Gastank",
            "popularity": 0.6
        },
        {
            "id": 60904,
            "original_name": "TripTank",
            "popularity": 3.483
        },
        {
            "id": 61329,
            "original_name": "Tanked",
            "popularity": 4.965
        },
        {
            "id": 62527,
            "original_name": "Beyond the Tank",
            "popularity": 0.937
        },
        {
            "id": 64002,
            "original_name": "Shark Tank",
            "popularity": 2.425
        },
        {
            "id": 68178,
            "original_name": "Tutankhamun",
            "popularity": 3.17
        },
        {
            "id": 68367,
            "original_name": "Shark Tank Brasil: Negociando com Tubar\u00f5es",
            "popularity": 0.823
        },
        {
            "id": 68840,
            "original_name": "Tank",
            "popularity": 0.6
        },
        {
            "id": 70693,
            "original_name": "Tankki t\u00e4yteen",
            "popularity": 1.47
        },
        {
            "id": 80390,
            "original_name": "Tanken - mehr als Super",
            "popularity": 1.278
        },
        {
            "id": 95568,
            "original_name": "Tanks, dans l'Enfer des Combats",
            "popularity": 1.036
        },
        {
            "id": 97189,
            "original_name": "Great Tank Battles",
            "popularity": 0.6
        },
        {
            "id": 98607,
            "original_name": "Toutankhamon, les Secrets du Pharaon",
            "popularity": 0.6
        },
        {
            "id": 102630,
            "original_name": "Tutankhamun with Dan Snow",
            "popularity": 0.976
        },
        {
            "id": 102753,
            "original_name": "Les Derniers Jours De Toutankhamon",
            "popularity": 0.621
        },
        {
            "id": 103077,
            "original_name": "Tank Top Arms, Bikini Belly, Boy Shorts Bottom",
            "popularity": 0.6
        },
        {
            "id": 104968,
            "original_name": "Killer Tanks",
            "popularity": 0.6
        },
        {
            "id": 107347,
            "original_name": "Shark Tank M\u00e9xico",
            "popularity": 3.637
        },
        {
            "id": 107700,
            "original_name": "Shark Tank Colombia",
            "popularity": 10.061
        },
        {
            "id": 109621,
            "original_name": "Tanks! - Evolution of a Legend",
            "popularity": 0.6
        },
        {
            "id": 113003,
            "original_name": "Tanks, rois des champs de bataille",
            "popularity": 0.639
        },
        {
            "id": 120764,
            "original_name": "The Great Tank Battles: World War II",
            "popularity": 0.6
        },
        {
            "id": 127670,
            "original_name": "Ang babae sa septic tank 3: The Real Untold Story of Josephine Bracken",
            "popularity": 0.6
        },
        {
            "id": 129259,
            "original_name": "The Face of Tutankhamun",
            "popularity": 0.6
        },
        {
            "id": 134471,
            "original_name": "Guy Martin's WWI Tank",
            "popularity": 0.6
        }
    ],
    "relations": [
        {
            "character": "tanke"
        },
        {
            "character": "tankb"
        },
        {
            "character": "tanki"
        },
        {
            "character": "tankh"
        },
        {
            "character": "tankk"
        },
        {
            "character": "tanks"
        }
    ],
    "top20": [
        {
            "id": 30703,
            "original_name": "Shark Tank",
            "popularity": 26.371
        },
        {
            "id": 107700,
            "original_name": "Shark Tank Colombia",
            "popularity": 10.061
        },
        {
            "id": 61329,
            "original_name": "Tanked",
            "popularity": 4.965
        },
        {
            "id": 107347,
            "original_name": "Shark Tank M\u00e9xico",
            "popularity": 3.637
        },
        {
            "id": 60904,
            "original_name": "TripTank",
            "popularity": 3.483
        },
        {
            "id": 68178,
            "original_name": "Tutankhamun",
            "popularity": 3.17
        },
        {
            "id": 64002,
            "original_name": "Shark Tank",
            "popularity": 2.425
        },
        {
            "id": 70693,
            "original_name": "Tankki t\u00e4yteen",
            "popularity": 1.47
        },
        {
            "id": 80390,
            "original_name": "Tanken - mehr als Super",
            "popularity": 1.278
        },
        {
            "id": 31632,
            "original_name": "Gary: Tank Commander",
            "popularity": 1.237
        },
        {
            "id": 95568,
            "original_name": "Tanks, dans l'Enfer des Combats",
            "popularity": 1.036
        },
        {
            "id": 102630,
            "original_name": "Tutankhamun with Dan Snow",
            "popularity": 0.976
        },
        {
            "id": 62527,
            "original_name": "Beyond the Tank",
            "popularity": 0.937
        },
        {
            "id": 14126,
            "original_name": "Think Tank",
            "popularity": 0.845
        },
        {
            "id": 68367,
            "original_name": "Shark Tank Brasil: Negociando com Tubar\u00f5es",
            "popularity": 0.823
        },
        {
            "id": 113003,
            "original_name": "Tanks, rois des champs de bataille",
            "popularity": 0.639
        },
        {
            "id": 102753,
            "original_name": "Les Derniers Jours De Toutankhamon",
            "popularity": 0.621
        },
        {
            "id": 68840,
            "original_name": "Tank",
            "popularity": 0.6
        },
        {
            "id": 8155,
            "original_name": "Tank Overhaul",
            "popularity": 0.6
        },
        {
            "id": 12841,
            "original_name": "Stankervision",
            "popularity": 0.6
        }
    ]
}