{
    "data": [
        {
            "id": 53320,
            "original_name": "Antarah ibn Shaddad",
            "popularity": 0.6
        }
    ],
    "relations": [],
    "top20": [
        {
            "id": 53320,
            "original_name": "Antarah ibn Shaddad",
            "popularity": 0.6
        }
    ]
}