{
    "data": [
        {
            "id": 44785,
            "original_name": "Stardust",
            "popularity": 1.412
        },
        {
            "id": 49766,
            "original_name": "Stardust",
            "popularity": 0.6
        },
        {
            "id": 72677,
            "original_name": "\u6a5f\u52d5\u6226\u58eb\u30ac\u30f3\u30c0\u30e00083 STARDUST MEMORY",
            "popularity": 6.749
        }
    ],
    "relations": [],
    "top20": [
        {
            "id": 44785,
            "original_name": "Stardust",
            "popularity": 1.412
        },
        {
            "id": 49766,
            "original_name": "Stardust",
            "popularity": 0.6
        },
        {
            "id": 72677,
            "original_name": "\u6a5f\u52d5\u6226\u58eb\u30ac\u30f3\u30c0\u30e00083 STARDUST MEMORY",
            "popularity": 6.749
        }
    ]
}