{
    "data": [
        {
            "id": 93553,
            "original_name": "Incidente em Antares",
            "popularity": 0.6
        },
        {
            "id": 129304,
            "original_name": "Antares",
            "popularity": 3.499
        }
    ],
    "relations": [],
    "top20": [
        {
            "id": 93553,
            "original_name": "Incidente em Antares",
            "popularity": 0.6
        },
        {
            "id": 129304,
            "original_name": "Antares",
            "popularity": 3.499
        }
    ]
}