{
    "data": [
        {
            "id": 76612,
            "original_name": "Voetbalmaffia",
            "popularity": 0.738
        }
    ],
    "relations": [],
    "top20": [
        {
            "id": 76612,
            "original_name": "Voetbalmaffia",
            "popularity": 0.738
        }
    ]
}