{
    "data": [
        {
            "id": 7080,
            "original_name": "The NightCap",
            "popularity": 0.6
        },
        {
            "id": 23850,
            "original_name": "Nightcap",
            "popularity": 1.855
        },
        {
            "id": 33590,
            "original_name": "Nightcap",
            "popularity": 0.6
        },
        {
            "id": 33611,
            "original_name": "Nightcap",
            "popularity": 0.6
        },
        {
            "id": 67833,
            "original_name": "Nightcap",
            "popularity": 1.976
        }
    ],
    "relations": [],
    "top20": [
        {
            "id": 7080,
            "original_name": "The NightCap",
            "popularity": 0.6
        },
        {
            "id": 23850,
            "original_name": "Nightcap",
            "popularity": 1.855
        },
        {
            "id": 33590,
            "original_name": "Nightcap",
            "popularity": 0.6
        },
        {
            "id": 33611,
            "original_name": "Nightcap",
            "popularity": 0.6
        },
        {
            "id": 67833,
            "original_name": "Nightcap",
            "popularity": 1.976
        }
    ]
}