{
    "data": [
        {
            "id": 15266,
            "original_name": "Fortean TV",
            "popularity": 0.6
        },
        {
            "id": 58546,
            "original_name": "Turas Teanga",
            "popularity": 0.6
        }
    ],
    "relations": [],
    "top20": [
        {
            "id": 15266,
            "original_name": "Fortean TV",
            "popularity": 0.6
        },
        {
            "id": 58546,
            "original_name": "Turas Teanga",
            "popularity": 0.6
        }
    ]
}