{
    "data": [
        {
            "id": 20851,
            "original_name": "Dan Cruickshank's Adventures in Architecture",
            "popularity": 0.6
        },
        {
            "id": 23721,
            "original_name": "Garden Architecture",
            "popularity": 0.6
        },
        {
            "id": 25659,
            "original_name": "Barkitecture",
            "popularity": 0.6
        },
        {
            "id": 29988,
            "original_name": "Architecture School",
            "popularity": 0.6
        },
        {
            "id": 35505,
            "original_name": "Dancing About Architecture",
            "popularity": 0.6
        },
        {
            "id": 43653,
            "original_name": "Architectures",
            "popularity": 1.303
        },
        {
            "id": 44382,
            "original_name": "Architecture & Design of Man and Woman",
            "popularity": 0.6
        },
        {
            "id": 62070,
            "original_name": "\u653b\u6bbb\u6a5f\u52d5\u968a ARISE ALTERNATIVE ARCHITECTURE",
            "popularity": 13.154
        },
        {
            "id": 90384,
            "original_name": "Top 10 Architecture",
            "popularity": 0.6
        },
        {
            "id": 94578,
            "original_name": "The Art Of Architecture",
            "popularity": 0.612
        },
        {
            "id": 98595,
            "original_name": "Architecture Durable",
            "popularity": 0.6
        },
        {
            "id": 102497,
            "original_name": "Barkitecture",
            "popularity": 0.708
        },
        {
            "id": 103103,
            "original_name": "The Architecture the Railways Built",
            "popularity": 1.307
        },
        {
            "id": 126361,
            "original_name": "People's Palaces: The Golden Age of Civic Architecture",
            "popularity": 0.6
        }
    ],
    "relations": [],
    "top20": [
        {
            "id": 20851,
            "original_name": "Dan Cruickshank's Adventures in Architecture",
            "popularity": 0.6
        },
        {
            "id": 23721,
            "original_name": "Garden Architecture",
            "popularity": 0.6
        },
        {
            "id": 25659,
            "original_name": "Barkitecture",
            "popularity": 0.6
        },
        {
            "id": 29988,
            "original_name": "Architecture School",
            "popularity": 0.6
        },
        {
            "id": 35505,
            "original_name": "Dancing About Architecture",
            "popularity": 0.6
        },
        {
            "id": 43653,
            "original_name": "Architectures",
            "popularity": 1.303
        },
        {
            "id": 44382,
            "original_name": "Architecture & Design of Man and Woman",
            "popularity": 0.6
        },
        {
            "id": 62070,
            "original_name": "\u653b\u6bbb\u6a5f\u52d5\u968a ARISE ALTERNATIVE ARCHITECTURE",
            "popularity": 13.154
        },
        {
            "id": 90384,
            "original_name": "Top 10 Architecture",
            "popularity": 0.6
        },
        {
            "id": 94578,
            "original_name": "The Art Of Architecture",
            "popularity": 0.612
        },
        {
            "id": 98595,
            "original_name": "Architecture Durable",
            "popularity": 0.6
        },
        {
            "id": 102497,
            "original_name": "Barkitecture",
            "popularity": 0.708
        },
        {
            "id": 103103,
            "original_name": "The Architecture the Railways Built",
            "popularity": 1.307
        },
        {
            "id": 126361,
            "original_name": "People's Palaces: The Golden Age of Civic Architecture",
            "popularity": 0.6
        }
    ]
}