{
    "data": [
        {
            "id": 589,
            "original_name": "Remington Steele",
            "popularity": 14.794
        },
        {
            "id": 2697,
            "original_name": "Sapphire & Steel",
            "popularity": 3.765
        },
        {
            "id": 5283,
            "original_name": "Max Steel",
            "popularity": 5.723
        },
        {
            "id": 11265,
            "original_name": "Steel River Blues",
            "popularity": 1.886
        },
        {
            "id": 12220,
            "original_name": "Balls of Steel",
            "popularity": 1.136
        },
        {
            "id": 12450,
            "original_name": "The United States Steel Hour",
            "popularity": 6.414
        },
        {
            "id": 13585,
            "original_name": "The Mark Steel Lectures",
            "popularity": 0.628
        },
        {
            "id": 14984,
            "original_name": "Lap Quilting with Georgia Bonesteel",
            "popularity": 0.6
        },
        {
            "id": 16635,
            "original_name": "Winter Steele",
            "popularity": 0.6
        },
        {
            "id": 21089,
            "original_name": "The Girl from Steel City",
            "popularity": 0.6
        },
        {
            "id": 21179,
            "original_name": "The Ted Steele Show",
            "popularity": 0.6
        },
        {
            "id": 29593,
            "original_name": "Southern Steel",
            "popularity": 0.6
        },
        {
            "id": 31768,
            "original_name": "Knights of Bloodsteel",
            "popularity": 3.203
        },
        {
            "id": 32569,
            "original_name": "Het gestolen kasteel",
            "popularity": 0.6
        },
        {
            "id": 40161,
            "original_name": "Titanic: Blood and Steel",
            "popularity": 8.502
        },
        {
            "id": 40388,
            "original_name": "Balls of Steel Australia",
            "popularity": 0.6
        },
        {
            "id": 43505,
            "original_name": "Lynyrd Skynyrd: Lyve from Steel Town",
            "popularity": 0.6
        },
        {
            "id": 46974,
            "original_name": "Max Steel",
            "popularity": 13.505
        },
        {
            "id": 57608,
            "original_name": "Alaskan Steel Men",
            "popularity": 0.6
        },
        {
            "id": 59646,
            "original_name": "Steel Magnolias",
            "popularity": 0.6
        },
        {
            "id": 61144,
            "original_name": "Sparta: Achter De Poorten Van Het Kasteel",
            "popularity": 1.183
        },
        {
            "id": 62690,
            "original_name": "Steel Buddies",
            "popularity": 3.08
        },
        {
            "id": 67760,
            "original_name": "Sacred Steel Bikes",
            "popularity": 1.105
        },
        {
            "id": 68918,
            "original_name": "Submarines: Sharks of Steel",
            "popularity": 0.6
        },
        {
            "id": 69961,
            "original_name": "Detroit Steel",
            "popularity": 0.6
        },
        {
            "id": 70002,
            "original_name": "Friday Night Tykes: Steel Country",
            "popularity": 0.6
        },
        {
            "id": 70456,
            "original_name": "Guns Germs & Steel",
            "popularity": 1.66
        },
        {
            "id": 77590,
            "original_name": "Mobsteel",
            "popularity": 0.6
        },
        {
            "id": 84440,
            "original_name": "NFL: Pittsburgh Steelers - Road to XLIII",
            "popularity": 0.6
        },
        {
            "id": 88683,
            "original_name": "Steel Town Gaming",
            "popularity": 0.6
        },
        {
            "id": 90363,
            "original_name": "World War Two: 1941 and the Man of Steel",
            "popularity": 0.6
        },
        {
            "id": 96315,
            "original_name": "Submarine: Steel Boats, Iron Men",
            "popularity": 0.6
        },
        {
            "id": 103868,
            "original_name": "Fred Dibnah's World of Steam, Steel and Stone",
            "popularity": 0.6
        },
        {
            "id": 116828,
            "original_name": "V.C. Andrews Casteel Family",
            "popularity": 1.292
        },
        {
            "id": 117161,
            "original_name": "Stories N' Steel",
            "popularity": 0.6
        },
        {
            "id": 127132,
            "original_name": "Hired Steel",
            "popularity": 0.6
        },
        {
            "id": 128445,
            "original_name": "Forged with Steele",
            "popularity": 0.6
        }
    ],
    "relations": [
        {
            "character": "teele"
        }
    ],
    "top20": [
        {
            "id": 589,
            "original_name": "Remington Steele",
            "popularity": 14.794
        },
        {
            "id": 46974,
            "original_name": "Max Steel",
            "popularity": 13.505
        },
        {
            "id": 40161,
            "original_name": "Titanic: Blood and Steel",
            "popularity": 8.502
        },
        {
            "id": 12450,
            "original_name": "The United States Steel Hour",
            "popularity": 6.414
        },
        {
            "id": 5283,
            "original_name": "Max Steel",
            "popularity": 5.723
        },
        {
            "id": 2697,
            "original_name": "Sapphire & Steel",
            "popularity": 3.765
        },
        {
            "id": 31768,
            "original_name": "Knights of Bloodsteel",
            "popularity": 3.203
        },
        {
            "id": 62690,
            "original_name": "Steel Buddies",
            "popularity": 3.08
        },
        {
            "id": 11265,
            "original_name": "Steel River Blues",
            "popularity": 1.886
        },
        {
            "id": 70456,
            "original_name": "Guns Germs & Steel",
            "popularity": 1.66
        },
        {
            "id": 116828,
            "original_name": "V.C. Andrews Casteel Family",
            "popularity": 1.292
        },
        {
            "id": 61144,
            "original_name": "Sparta: Achter De Poorten Van Het Kasteel",
            "popularity": 1.183
        },
        {
            "id": 12220,
            "original_name": "Balls of Steel",
            "popularity": 1.136
        },
        {
            "id": 67760,
            "original_name": "Sacred Steel Bikes",
            "popularity": 1.105
        },
        {
            "id": 13585,
            "original_name": "The Mark Steel Lectures",
            "popularity": 0.628
        },
        {
            "id": 16635,
            "original_name": "Winter Steele",
            "popularity": 0.6
        },
        {
            "id": 29593,
            "original_name": "Southern Steel",
            "popularity": 0.6
        },
        {
            "id": 14984,
            "original_name": "Lap Quilting with Georgia Bonesteel",
            "popularity": 0.6
        },
        {
            "id": 21089,
            "original_name": "The Girl from Steel City",
            "popularity": 0.6
        },
        {
            "id": 21179,
            "original_name": "The Ted Steele Show",
            "popularity": 0.6
        }
    ]
}