{
    "data": [
        {
            "id": 97603,
            "original_name": "S\u00e5 er der tegnefilm",
            "popularity": 0.6
        }
    ],
    "relations": [],
    "top20": [
        {
            "id": 97603,
            "original_name": "S\u00e5 er der tegnefilm",
            "popularity": 0.6
        }
    ]
}