{
    "data": [
        {
            "id": 93253,
            "original_name": "Norske rotehjem",
            "popularity": 1.101
        }
    ],
    "relations": [],
    "top20": [
        {
            "id": 93253,
            "original_name": "Norske rotehjem",
            "popularity": 1.101
        }
    ]
}