{
    "data": [
        {
            "id": 17740,
            "original_name": "The Return of the Antelope",
            "popularity": 0.6
        },
        {
            "id": 35254,
            "original_name": "Castelo R\u00e1-Tim-Bum",
            "popularity": 3.584
        },
        {
            "id": 49142,
            "original_name": "hotelove",
            "popularity": 0.6
        },
        {
            "id": 62774,
            "original_name": "Ferma Vedetelor",
            "popularity": 0.6
        }
    ],
    "relations": [],
    "top20": [
        {
            "id": 17740,
            "original_name": "The Return of the Antelope",
            "popularity": 0.6
        },
        {
            "id": 35254,
            "original_name": "Castelo R\u00e1-Tim-Bum",
            "popularity": 3.584
        },
        {
            "id": 49142,
            "original_name": "hotelove",
            "popularity": 0.6
        },
        {
            "id": 62774,
            "original_name": "Ferma Vedetelor",
            "popularity": 0.6
        }
    ]
}