{
    "data": [
        {
            "id": 21609,
            "original_name": "September 11, 2001 - ABC News Coverage",
            "popularity": 0.6
        },
        {
            "id": 46985,
            "original_name": "Through a Child's Eyes: September 11, 2001",
            "popularity": 0.6
        },
        {
            "id": 49180,
            "original_name": "Three Days In September",
            "popularity": 0.6
        },
        {
            "id": 54800,
            "original_name": "Qamar September",
            "popularity": 0.6
        },
        {
            "id": 56525,
            "original_name": "Dancing in September",
            "popularity": 0.6
        },
        {
            "id": 60488,
            "original_name": "Five Days in September: The Rebirth of an Orchestra",
            "popularity": 0.6
        },
        {
            "id": 67285,
            "original_name": "Tiranos temblad",
            "popularity": 0.6
        },
        {
            "id": 67812,
            "original_name": "15 Septembers Later",
            "popularity": 0.882
        },
        {
            "id": 77959,
            "original_name": "September",
            "popularity": 1.802
        },
        {
            "id": 101740,
            "original_name": "KANKAM D\u0130zisi by TEMBELO \u00c7\u0130ZG\u0130F\u0130LM Katk\u0131lar\u0131yla izleyin full g\u00fczel dizi kaliteli dizi KANKAM D\u0130Z\u0130S\u0130",
            "popularity": 0.6
        },
        {
            "id": 113485,
            "original_name": "Landesschau Baden-W\u00fcrttemberg",
            "popularity": 2.812
        },
        {
            "id": 116885,
            "original_name": "Mina Settembre",
            "popularity": 1.699
        },
        {
            "id": 118102,
            "original_name": "Manh\u00e3s de Setembro",
            "popularity": 12.444
        },
        {
            "id": 120486,
            "original_name": "Zur Sache Baden-W\u00fcrttemberg!",
            "popularity": 0.926
        },
        {
            "id": 124988,
            "original_name": "Since September : empty seats tour",
            "popularity": 0.6
        },
        {
            "id": 131259,
            "original_name": "Le 11 septembre et moi",
            "popularity": 0.799
        }
    ],
    "relations": [],
    "top20": [
        {
            "id": 21609,
            "original_name": "September 11, 2001 - ABC News Coverage",
            "popularity": 0.6
        },
        {
            "id": 46985,
            "original_name": "Through a Child's Eyes: September 11, 2001",
            "popularity": 0.6
        },
        {
            "id": 49180,
            "original_name": "Three Days In September",
            "popularity": 0.6
        },
        {
            "id": 54800,
            "original_name": "Qamar September",
            "popularity": 0.6
        },
        {
            "id": 56525,
            "original_name": "Dancing in September",
            "popularity": 0.6
        },
        {
            "id": 60488,
            "original_name": "Five Days in September: The Rebirth of an Orchestra",
            "popularity": 0.6
        },
        {
            "id": 67285,
            "original_name": "Tiranos temblad",
            "popularity": 0.6
        },
        {
            "id": 67812,
            "original_name": "15 Septembers Later",
            "popularity": 0.882
        },
        {
            "id": 77959,
            "original_name": "September",
            "popularity": 1.802
        },
        {
            "id": 101740,
            "original_name": "KANKAM D\u0130zisi by TEMBELO \u00c7\u0130ZG\u0130F\u0130LM Katk\u0131lar\u0131yla izleyin full g\u00fczel dizi kaliteli dizi KANKAM D\u0130Z\u0130S\u0130",
            "popularity": 0.6
        },
        {
            "id": 113485,
            "original_name": "Landesschau Baden-W\u00fcrttemberg",
            "popularity": 2.812
        },
        {
            "id": 116885,
            "original_name": "Mina Settembre",
            "popularity": 1.699
        },
        {
            "id": 118102,
            "original_name": "Manh\u00e3s de Setembro",
            "popularity": 12.444
        },
        {
            "id": 120486,
            "original_name": "Zur Sache Baden-W\u00fcrttemberg!",
            "popularity": 0.926
        },
        {
            "id": 124988,
            "original_name": "Since September : empty seats tour",
            "popularity": 0.6
        },
        {
            "id": 131259,
            "original_name": "Le 11 septembre et moi",
            "popularity": 0.799
        }
    ]
}