{
    "data": [
        {
            "id": 182,
            "original_name": "Temptation",
            "popularity": 0.936
        },
        {
            "id": 9290,
            "original_name": "The Temptations",
            "popularity": 13.266
        },
        {
            "id": 10577,
            "original_name": "Temptation Island",
            "popularity": 0.6
        },
        {
            "id": 11209,
            "original_name": "Temptation",
            "popularity": 0.6
        },
        {
            "id": 14627,
            "original_name": "Temptation",
            "popularity": 0.6
        },
        {
            "id": 17682,
            "original_name": "Temptation",
            "popularity": 0.6
        },
        {
            "id": 22529,
            "original_name": "Beautiful Temptation",
            "popularity": 0.6
        },
        {
            "id": 24525,
            "original_name": "New World Temptation",
            "popularity": 0.6
        },
        {
            "id": 28707,
            "original_name": "Temptation Island",
            "popularity": 2.572
        },
        {
            "id": 31093,
            "original_name": "The Temptation of Sarah Jane Smith",
            "popularity": 0.6
        },
        {
            "id": 38916,
            "original_name": "Temptation of Wife",
            "popularity": 0.6
        },
        {
            "id": 44048,
            "original_name": "Love In Temptation Island",
            "popularity": 0.6
        },
        {
            "id": 52205,
            "original_name": "Temptation of Wife",
            "popularity": 0.6
        },
        {
            "id": 57800,
            "original_name": "Temptation of Going Home",
            "popularity": 0.853
        },
        {
            "id": 59095,
            "original_name": "Great Temptation",
            "popularity": 0.6
        },
        {
            "id": 72803,
            "original_name": "Temptation Island",
            "popularity": 1.152
        },
        {
            "id": 74275,
            "original_name": "Temptation Island Sverige",
            "popularity": 1.389
        },
        {
            "id": 78593,
            "original_name": "Temptation Island",
            "popularity": 0.6
        },
        {
            "id": 85904,
            "original_name": "Temptation Island",
            "popularity": 3.54
        },
        {
            "id": 87328,
            "original_name": "Temptation Island - Versuchung im Paradies",
            "popularity": 0.6
        },
        {
            "id": 111671,
            "original_name": "Temptation Island V.I.P.",
            "popularity": 4.427
        },
        {
            "id": 114049,
            "original_name": "Temptation Island VIPS",
            "popularity": 0.6
        },
        {
            "id": 114155,
            "original_name": "Temptation Island Love or Leave",
            "popularity": 2.145
        },
        {
            "id": 114455,
            "original_name": "Temptation Island Suomi",
            "popularity": 1.089
        },
        {
            "id": 119035,
            "original_name": "Temptation Island Suomi Extra",
            "popularity": 0.664
        },
        {
            "id": 119127,
            "original_name": "Temptation Island",
            "popularity": 0.6
        }
    ],
    "relations": [
        {
            "character": "temptation"
        }
    ],
    "top20": [
        {
            "id": 9290,
            "original_name": "The Temptations",
            "popularity": 13.266
        },
        {
            "id": 111671,
            "original_name": "Temptation Island V.I.P.",
            "popularity": 4.427
        },
        {
            "id": 85904,
            "original_name": "Temptation Island",
            "popularity": 3.54
        },
        {
            "id": 28707,
            "original_name": "Temptation Island",
            "popularity": 2.572
        },
        {
            "id": 114155,
            "original_name": "Temptation Island Love or Leave",
            "popularity": 2.145
        },
        {
            "id": 74275,
            "original_name": "Temptation Island Sverige",
            "popularity": 1.389
        },
        {
            "id": 72803,
            "original_name": "Temptation Island",
            "popularity": 1.152
        },
        {
            "id": 114455,
            "original_name": "Temptation Island Suomi",
            "popularity": 1.089
        },
        {
            "id": 182,
            "original_name": "Temptation",
            "popularity": 0.936
        },
        {
            "id": 57800,
            "original_name": "Temptation of Going Home",
            "popularity": 0.853
        },
        {
            "id": 119035,
            "original_name": "Temptation Island Suomi Extra",
            "popularity": 0.664
        },
        {
            "id": 10577,
            "original_name": "Temptation Island",
            "popularity": 0.6
        },
        {
            "id": 24525,
            "original_name": "New World Temptation",
            "popularity": 0.6
        },
        {
            "id": 31093,
            "original_name": "The Temptation of Sarah Jane Smith",
            "popularity": 0.6
        },
        {
            "id": 22529,
            "original_name": "Beautiful Temptation",
            "popularity": 0.6
        },
        {
            "id": 44048,
            "original_name": "Love In Temptation Island",
            "popularity": 0.6
        },
        {
            "id": 14627,
            "original_name": "Temptation",
            "popularity": 0.6
        },
        {
            "id": 17682,
            "original_name": "Temptation",
            "popularity": 0.6
        },
        {
            "id": 38916,
            "original_name": "Temptation of Wife",
            "popularity": 0.6
        },
        {
            "id": 11209,
            "original_name": "Temptation",
            "popularity": 0.6
        }
    ]
}