{
    "data": [
        {
            "id": 131750,
            "original_name": "Woozle Goozle und die Weltentdecker",
            "popularity": 0.6
        }
    ],
    "relations": [],
    "top20": [
        {
            "id": 131750,
            "original_name": "Woozle Goozle und die Weltentdecker",
            "popularity": 0.6
        }
    ]
}