{
    "data": [
        {
            "id": 81575,
            "original_name": "Flitterabend",
            "popularity": 1.999
        }
    ],
    "relations": [],
    "top20": [
        {
            "id": 81575,
            "original_name": "Flitterabend",
            "popularity": 1.999
        }
    ]
}