{
    "data": [
        {
            "id": 40649,
            "original_name": "Westerdeich",
            "popularity": 0.6
        },
        {
            "id": 80939,
            "original_name": "Rivals of Waterdeep",
            "popularity": 0.6
        }
    ],
    "relations": [],
    "top20": [
        {
            "id": 40649,
            "original_name": "Westerdeich",
            "popularity": 0.6
        },
        {
            "id": 80939,
            "original_name": "Rivals of Waterdeep",
            "popularity": 0.6
        }
    ]
}