{
    "data": [
        {
            "id": 22512,
            "original_name": "Jazz In Stereo",
            "popularity": 0.6
        },
        {
            "id": 53443,
            "original_name": "Stereo",
            "popularity": 0.6
        },
        {
            "id": 109163,
            "original_name": "Stereoscope",
            "popularity": 4.559
        },
        {
            "id": 127607,
            "original_name": "Tu Voz Estereo",
            "popularity": 0.842
        },
        {
            "id": 128299,
            "original_name": "Stereotypisch",
            "popularity": 0.6
        }
    ],
    "relations": [],
    "top20": [
        {
            "id": 22512,
            "original_name": "Jazz In Stereo",
            "popularity": 0.6
        },
        {
            "id": 53443,
            "original_name": "Stereo",
            "popularity": 0.6
        },
        {
            "id": 109163,
            "original_name": "Stereoscope",
            "popularity": 4.559
        },
        {
            "id": 127607,
            "original_name": "Tu Voz Estereo",
            "popularity": 0.842
        },
        {
            "id": 128299,
            "original_name": "Stereotypisch",
            "popularity": 0.6
        }
    ]
}