{
    "data": [
        {
            "id": 98360,
            "original_name": "Atterrir au bout du monde",
            "popularity": 0.6
        }
    ],
    "relations": [],
    "top20": [
        {
            "id": 98360,
            "original_name": "Atterrir au bout du monde",
            "popularity": 0.6
        }
    ]
}