{
    "data": [
        {
            "id": 23759,
            "original_name": "Travels in Europe with Rick Steves",
            "popularity": 0.6
        },
        {
            "id": 62970,
            "original_name": "Rick Steves' Europe",
            "popularity": 2.751
        },
        {
            "id": 93979,
            "original_name": "Rick Steves' Europe - The Complete Collection",
            "popularity": 1.164
        },
        {
            "id": 94640,
            "original_name": "Rick Steves' Europe - All 80 Shows",
            "popularity": 0.6
        }
    ],
    "relations": [],
    "top20": [
        {
            "id": 23759,
            "original_name": "Travels in Europe with Rick Steves",
            "popularity": 0.6
        },
        {
            "id": 62970,
            "original_name": "Rick Steves' Europe",
            "popularity": 2.751
        },
        {
            "id": 93979,
            "original_name": "Rick Steves' Europe - The Complete Collection",
            "popularity": 1.164
        },
        {
            "id": 94640,
            "original_name": "Rick Steves' Europe - All 80 Shows",
            "popularity": 0.6
        }
    ]
}