{
    "data": [
        {
            "id": 113196,
            "original_name": "TheMorninShow",
            "popularity": 0.84
        }
    ],
    "relations": [],
    "top20": [
        {
            "id": 113196,
            "original_name": "TheMorninShow",
            "popularity": 0.84
        }
    ]
}