{
    "data": [
        {
            "id": 512,
            "original_name": "Third Watch",
            "popularity": 28.664
        },
        {
            "id": 1448,
            "original_name": "thirtysomething",
            "popularity": 16.003
        },
        {
            "id": 4463,
            "original_name": "The Thirsty Traveler",
            "popularity": 0.6
        },
        {
            "id": 7043,
            "original_name": "The Five Thirty Show",
            "popularity": 0.6
        },
        {
            "id": 7966,
            "original_name": "Voltron: The Third Dimension",
            "popularity": 3.366
        },
        {
            "id": 10850,
            "original_name": "The Third Eye",
            "popularity": 0.6
        },
        {
            "id": 19004,
            "original_name": "A Thirst in the Garden",
            "popularity": 0.6
        },
        {
            "id": 22277,
            "original_name": "Third Time Lucky",
            "popularity": 0.6
        },
        {
            "id": 24530,
            "original_name": "Thirteen Against Fate",
            "popularity": 0.6
        },
        {
            "id": 25203,
            "original_name": "Thirty Minutes Worth",
            "popularity": 0.6
        },
        {
            "id": 25374,
            "original_name": "The Thirties In Colour",
            "popularity": 0.6
        },
        {
            "id": 25593,
            "original_name": "The National Lottery Third Degree",
            "popularity": 0.6
        },
        {
            "id": 26941,
            "original_name": "Our Thirties",
            "popularity": 0.704
        },
        {
            "id": 28320,
            "original_name": "The Third Man",
            "popularity": 6.762
        },
        {
            "id": 29917,
            "original_name": "Thirty-Minute Theatre",
            "popularity": 15.728
        },
        {
            "id": 33278,
            "original_name": "A Third Testament",
            "popularity": 0.6
        },
        {
            "id": 34432,
            "original_name": "News at Seven-Thirty",
            "popularity": 0.6
        },
        {
            "id": 38470,
            "original_name": "Third Reich",
            "popularity": 0.6
        },
        {
            "id": 45860,
            "original_name": "LUPIN the Third \uff5e\u5cf0\u4e0d\u4e8c\u5b50\u3068\u3044\u3046\u5973\uff5e",
            "popularity": 10.779
        },
        {
            "id": 55437,
            "original_name": "Thirteen Steps Down",
            "popularity": 0.874
        },
        {
            "id": 59096,
            "original_name": "Third Eye",
            "popularity": 0.6
        },
        {
            "id": 59420,
            "original_name": "Nine Thirty Curtain",
            "popularity": 0.6
        },
        {
            "id": 60300,
            "original_name": "Thirumathi Selvam",
            "popularity": 0.6
        },
        {
            "id": 65635,
            "original_name": "Thirteen",
            "popularity": 9.593
        },
        {
            "id": 72959,
            "original_name": "The Third Twin",
            "popularity": 0.818
        },
        {
            "id": 73603,
            "original_name": "Third Rail with OZY",
            "popularity": 0.6
        },
        {
            "id": 75856,
            "original_name": "The Occult History of the Third Reich",
            "popularity": 1.4
        },
        {
            "id": 75859,
            "original_name": "The Third Reich: The Rise & Fall",
            "popularity": 0.654
        },
        {
            "id": 90259,
            "original_name": "The Third Day",
            "popularity": 21.219
        },
        {
            "id": 92886,
            "original_name": "Murder in the Thirst",
            "popularity": 0.6
        },
        {
            "id": 101777,
            "original_name": "Psithiri Kardias",
            "popularity": 0.6
        },
        {
            "id": 105436,
            "original_name": "Served! With Jade Thirlwall",
            "popularity": 0.6
        },
        {
            "id": 108433,
            "original_name": "Thirteen Talks",
            "popularity": 0.6
        },
        {
            "id": 126256,
            "original_name": "Ladyboys: Inside Thailand's Third Gender",
            "popularity": 0.6
        },
        {
            "id": 132521,
            "original_name": "Thirties in Colour: Countdown to War",
            "popularity": 0.84
        },
        {
            "id": 138349,
            "original_name": "Thiruvirunnu",
            "popularity": 7.429
        },
        {
            "id": 139354,
            "original_name": "Thiruvarangu",
            "popularity": 0.6
        },
        {
            "id": 139355,
            "original_name": "Thiruvarangu",
            "popularity": 8.776
        }
    ],
    "relations": [
        {
            "character": "third"
        },
        {
            "character": "thirt"
        },
        {
            "character": "thirs"
        },
        {
            "character": "thiru"
        },
        {
            "character": "thiri"
        },
        {
            "character": "thirl"
        }
    ],
    "top20": [
        {
            "id": 512,
            "original_name": "Third Watch",
            "popularity": 28.664
        },
        {
            "id": 90259,
            "original_name": "The Third Day",
            "popularity": 21.219
        },
        {
            "id": 1448,
            "original_name": "thirtysomething",
            "popularity": 16.003
        },
        {
            "id": 29917,
            "original_name": "Thirty-Minute Theatre",
            "popularity": 15.728
        },
        {
            "id": 45860,
            "original_name": "LUPIN the Third \uff5e\u5cf0\u4e0d\u4e8c\u5b50\u3068\u3044\u3046\u5973\uff5e",
            "popularity": 10.779
        },
        {
            "id": 65635,
            "original_name": "Thirteen",
            "popularity": 9.593
        },
        {
            "id": 139355,
            "original_name": "Thiruvarangu",
            "popularity": 8.776
        },
        {
            "id": 138349,
            "original_name": "Thiruvirunnu",
            "popularity": 7.429
        },
        {
            "id": 28320,
            "original_name": "The Third Man",
            "popularity": 6.762
        },
        {
            "id": 7966,
            "original_name": "Voltron: The Third Dimension",
            "popularity": 3.366
        },
        {
            "id": 75856,
            "original_name": "The Occult History of the Third Reich",
            "popularity": 1.4
        },
        {
            "id": 55437,
            "original_name": "Thirteen Steps Down",
            "popularity": 0.874
        },
        {
            "id": 132521,
            "original_name": "Thirties in Colour: Countdown to War",
            "popularity": 0.84
        },
        {
            "id": 72959,
            "original_name": "The Third Twin",
            "popularity": 0.818
        },
        {
            "id": 26941,
            "original_name": "Our Thirties",
            "popularity": 0.704
        },
        {
            "id": 75859,
            "original_name": "The Third Reich: The Rise & Fall",
            "popularity": 0.654
        },
        {
            "id": 19004,
            "original_name": "A Thirst in the Garden",
            "popularity": 0.6
        },
        {
            "id": 7043,
            "original_name": "The Five Thirty Show",
            "popularity": 0.6
        },
        {
            "id": 10850,
            "original_name": "The Third Eye",
            "popularity": 0.6
        },
        {
            "id": 4463,
            "original_name": "The Thirsty Traveler",
            "popularity": 0.6
        }
    ]
}