{
    "data": [
        {
            "id": 2423,
            "original_name": "Celebrity Deathmatch",
            "popularity": 11.017
        },
        {
            "id": 12722,
            "original_name": "Craft Corner Deathmatch",
            "popularity": 1.342
        },
        {
            "id": 14429,
            "original_name": "Mathmakers",
            "popularity": 0.6
        },
        {
            "id": 15864,
            "original_name": "Mathman",
            "popularity": 0.6
        },
        {
            "id": 42164,
            "original_name": "Mothman",
            "popularity": 0.6
        },
        {
            "id": 123999,
            "original_name": "Kathmandu Connection",
            "popularity": 1.071
        }
    ],
    "relations": [],
    "top20": [
        {
            "id": 2423,
            "original_name": "Celebrity Deathmatch",
            "popularity": 11.017
        },
        {
            "id": 12722,
            "original_name": "Craft Corner Deathmatch",
            "popularity": 1.342
        },
        {
            "id": 14429,
            "original_name": "Mathmakers",
            "popularity": 0.6
        },
        {
            "id": 15864,
            "original_name": "Mathman",
            "popularity": 0.6
        },
        {
            "id": 42164,
            "original_name": "Mothman",
            "popularity": 0.6
        },
        {
            "id": 123999,
            "original_name": "Kathmandu Connection",
            "popularity": 1.071
        }
    ]
}