{
    "data": [
        {
            "id": 1785,
            "original_name": "The Unauthorised History of New Zealand",
            "popularity": 0.6
        },
        {
            "id": 2408,
            "original_name": "The Wild Thornberrys",
            "popularity": 19.343
        },
        {
            "id": 9164,
            "original_name": "Thoroughbred Racing on NBC",
            "popularity": 0.6
        },
        {
            "id": 9636,
            "original_name": "The Thorn Birds: The Missing Years",
            "popularity": 0.621
        },
        {
            "id": 11446,
            "original_name": "Author Meets the Critics",
            "popularity": 0.6
        },
        {
            "id": 13780,
            "original_name": "The Thorn Birds",
            "popularity": 13.076
        },
        {
            "id": 18856,
            "original_name": "Hawthorne",
            "popularity": 6.857
        },
        {
            "id": 23704,
            "original_name": "Thorndyke",
            "popularity": 0.6
        },
        {
            "id": 26423,
            "original_name": "The Thorns",
            "popularity": 0.916
        },
        {
            "id": 26623,
            "original_name": "True Crime Authors",
            "popularity": 0.6
        },
        {
            "id": 26654,
            "original_name": "The Joe Longthorne Show",
            "popularity": 1.09
        },
        {
            "id": 33495,
            "original_name": "Canadian Authors",
            "popularity": 0.6
        },
        {
            "id": 34235,
            "original_name": "Thorne",
            "popularity": 2.477
        },
        {
            "id": 35487,
            "original_name": "The Bagthorpe Saga",
            "popularity": 0.6
        },
        {
            "id": 37373,
            "original_name": "The Damn Thorpes",
            "popularity": 0.6
        },
        {
            "id": 47033,
            "original_name": "Thoroughbred",
            "popularity": 0.6
        },
        {
            "id": 52272,
            "original_name": "Nona Authorized",
            "popularity": 0.6
        },
        {
            "id": 54786,
            "original_name": "Books and Authors",
            "popularity": 0.6
        },
        {
            "id": 61753,
            "original_name": "Thor & Loki: Blood Brothers",
            "popularity": 17.795
        },
        {
            "id": 64620,
            "original_name": "Thorin's Thoughts",
            "popularity": 1.346
        },
        {
            "id": 64622,
            "original_name": "Thorin's Theories",
            "popularity": 0.6
        },
        {
            "id": 65805,
            "original_name": "Doctor Thorne",
            "popularity": 5.234
        },
        {
            "id": 72019,
            "original_name": "Talk to Thorin",
            "popularity": 0.6
        },
        {
            "id": 72022,
            "original_name": "Ask Thorin",
            "popularity": 0.6
        },
        {
            "id": 74820,
            "original_name": "Buang Banjathorn",
            "popularity": 0.601
        },
        {
            "id": 96086,
            "original_name": "Unauthorized Biographies with Peter Graves",
            "popularity": 0.6
        },
        {
            "id": 96145,
            "original_name": "Thora Sa Haq",
            "popularity": 1.4
        },
        {
            "id": 96672,
            "original_name": "Thor Heyerdahl - The Kon-Tiki Man",
            "popularity": 0.6
        },
        {
            "id": 97712,
            "original_name": "Adam Thorn Presents: The Last King of India",
            "popularity": 0.6
        },
        {
            "id": 118542,
            "original_name": "Reset: The Unauthorized Guide To Video Games",
            "popularity": 0.6
        },
        {
            "id": 121820,
            "original_name": "A Court of Thorns and Roses",
            "popularity": 0.84
        },
        {
            "id": 126621,
            "original_name": "the Mighty Thor",
            "popularity": 0.6
        }
    ],
    "relations": [
        {
            "character": "thori"
        },
        {
            "character": "thorn"
        },
        {
            "character": "thoro"
        },
        {
            "character": "thors"
        },
        {
            "character": "thorp"
        },
        {
            "character": "thora"
        }
    ],
    "top20": [
        {
            "id": 2408,
            "original_name": "The Wild Thornberrys",
            "popularity": 19.343
        },
        {
            "id": 61753,
            "original_name": "Thor & Loki: Blood Brothers",
            "popularity": 17.795
        },
        {
            "id": 13780,
            "original_name": "The Thorn Birds",
            "popularity": 13.076
        },
        {
            "id": 18856,
            "original_name": "Hawthorne",
            "popularity": 6.857
        },
        {
            "id": 65805,
            "original_name": "Doctor Thorne",
            "popularity": 5.234
        },
        {
            "id": 34235,
            "original_name": "Thorne",
            "popularity": 2.477
        },
        {
            "id": 96145,
            "original_name": "Thora Sa Haq",
            "popularity": 1.4
        },
        {
            "id": 64620,
            "original_name": "Thorin's Thoughts",
            "popularity": 1.346
        },
        {
            "id": 26654,
            "original_name": "The Joe Longthorne Show",
            "popularity": 1.09
        },
        {
            "id": 26423,
            "original_name": "The Thorns",
            "popularity": 0.916
        },
        {
            "id": 121820,
            "original_name": "A Court of Thorns and Roses",
            "popularity": 0.84
        },
        {
            "id": 9636,
            "original_name": "The Thorn Birds: The Missing Years",
            "popularity": 0.621
        },
        {
            "id": 74820,
            "original_name": "Buang Banjathorn",
            "popularity": 0.601
        },
        {
            "id": 1785,
            "original_name": "The Unauthorised History of New Zealand",
            "popularity": 0.6
        },
        {
            "id": 11446,
            "original_name": "Author Meets the Critics",
            "popularity": 0.6
        },
        {
            "id": 26623,
            "original_name": "True Crime Authors",
            "popularity": 0.6
        },
        {
            "id": 9164,
            "original_name": "Thoroughbred Racing on NBC",
            "popularity": 0.6
        },
        {
            "id": 23704,
            "original_name": "Thorndyke",
            "popularity": 0.6
        },
        {
            "id": 33495,
            "original_name": "Canadian Authors",
            "popularity": 0.6
        },
        {
            "id": 35487,
            "original_name": "The Bagthorpe Saga",
            "popularity": 0.6
        }
    ]
}