{
    "data": [
        {
            "id": 92935,
            "original_name": "File din istoria Bucure\u0219tilor",
            "popularity": 0.6
        },
        {
            "id": 104837,
            "original_name": "El estilo kinding",
            "popularity": 0.6
        },
        {
            "id": 123957,
            "original_name": "Tilo Neumann und das Universum",
            "popularity": 1.101
        },
        {
            "id": 126059,
            "original_name": "Reinas del Estilo",
            "popularity": 0.662
        },
        {
            "id": 139217,
            "original_name": "Troca de Estilos",
            "popularity": 0.6
        }
    ],
    "relations": [],
    "top20": [
        {
            "id": 92935,
            "original_name": "File din istoria Bucure\u0219tilor",
            "popularity": 0.6
        },
        {
            "id": 104837,
            "original_name": "El estilo kinding",
            "popularity": 0.6
        },
        {
            "id": 123957,
            "original_name": "Tilo Neumann und das Universum",
            "popularity": 1.101
        },
        {
            "id": 126059,
            "original_name": "Reinas del Estilo",
            "popularity": 0.662
        },
        {
            "id": 139217,
            "original_name": "Troca de Estilos",
            "popularity": 0.6
        }
    ]
}