{
    "data": [
        {
            "id": 20624,
            "original_name": "Timekeepers",
            "popularity": 0.6
        }
    ],
    "relations": [],
    "top20": [
        {
            "id": 20624,
            "original_name": "Timekeepers",
            "popularity": 0.6
        }
    ]
}