{
    "data": [
        {
            "id": 4429,
            "original_name": "The Lion King's Timon & Pumbaa",
            "popularity": 37.104
        },
        {
            "id": 27848,
            "original_name": "Testimony of Two Men",
            "popularity": 1.4
        },
        {
            "id": 57587,
            "original_name": "Post-War History Testimony Project",
            "popularity": 0.6
        },
        {
            "id": 64079,
            "original_name": "Il Testimone",
            "popularity": 1.749
        },
        {
            "id": 90525,
            "original_name": "El Testimonio de cada persona",
            "popularity": 0.6
        }
    ],
    "relations": [],
    "top20": [
        {
            "id": 4429,
            "original_name": "The Lion King's Timon & Pumbaa",
            "popularity": 37.104
        },
        {
            "id": 27848,
            "original_name": "Testimony of Two Men",
            "popularity": 1.4
        },
        {
            "id": 57587,
            "original_name": "Post-War History Testimony Project",
            "popularity": 0.6
        },
        {
            "id": 64079,
            "original_name": "Il Testimone",
            "popularity": 1.749
        },
        {
            "id": 90525,
            "original_name": "El Testimonio de cada persona",
            "popularity": 0.6
        }
    ]
}