{
    "data": [
        {
            "id": 2734,
            "original_name": "Law & Order: Special Victims Unit",
            "popularity": 263.701
        },
        {
            "id": 38736,
            "original_name": "Manson's Missing Victims",
            "popularity": 0.6
        },
        {
            "id": 43929,
            "original_name": "Outback Zack's Australian Animal fire Victims Appeal",
            "popularity": 0.6
        },
        {
            "id": 48491,
            "original_name": "Victims for Victims: The Theresa Saldana Story",
            "popularity": 0.6
        },
        {
            "id": 108395,
            "original_name": "The 93 Victims of Samuel Little",
            "popularity": 0.84
        },
        {
            "id": 127140,
            "original_name": "Fred And Rose West: The Search For The Victims",
            "popularity": 0.722
        }
    ],
    "relations": [],
    "top20": [
        {
            "id": 2734,
            "original_name": "Law & Order: Special Victims Unit",
            "popularity": 263.701
        },
        {
            "id": 38736,
            "original_name": "Manson's Missing Victims",
            "popularity": 0.6
        },
        {
            "id": 43929,
            "original_name": "Outback Zack's Australian Animal fire Victims Appeal",
            "popularity": 0.6
        },
        {
            "id": 48491,
            "original_name": "Victims for Victims: The Theresa Saldana Story",
            "popularity": 0.6
        },
        {
            "id": 108395,
            "original_name": "The 93 Victims of Samuel Little",
            "popularity": 0.84
        },
        {
            "id": 127140,
            "original_name": "Fred And Rose West: The Search For The Victims",
            "popularity": 0.722
        }
    ]
}