{
    "data": [
        {
            "id": 24473,
            "original_name": "Ocean Force: Huntington Beach, O.C.",
            "popularity": 0.6
        },
        {
            "id": 47916,
            "original_name": "Huntingtower",
            "popularity": 0.6
        }
    ],
    "relations": [],
    "top20": [
        {
            "id": 24473,
            "original_name": "Ocean Force: Huntington Beach, O.C.",
            "popularity": 0.6
        },
        {
            "id": 47916,
            "original_name": "Huntingtower",
            "popularity": 0.6
        }
    ]
}