{
    "data": [
        {
            "id": 69022,
            "original_name": "The Completionist",
            "popularity": 0.6
        },
        {
            "id": 75412,
            "original_name": "The Interventionist",
            "popularity": 0.6
        },
        {
            "id": 79863,
            "original_name": "Pretty Little Liars: The Perfectionists",
            "popularity": 25.221
        },
        {
            "id": 96016,
            "original_name": "TRANsitioning",
            "popularity": 1.029
        }
    ],
    "relations": [],
    "top20": [
        {
            "id": 69022,
            "original_name": "The Completionist",
            "popularity": 0.6
        },
        {
            "id": 75412,
            "original_name": "The Interventionist",
            "popularity": 0.6
        },
        {
            "id": 79863,
            "original_name": "Pretty Little Liars: The Perfectionists",
            "popularity": 25.221
        },
        {
            "id": 96016,
            "original_name": "TRANsitioning",
            "popularity": 1.029
        }
    ]
}