{
    "data": [
        {
            "id": 71247,
            "original_name": "Austentatious",
            "popularity": 0.6
        },
        {
            "id": 72536,
            "original_name": "U-Prince Series : The Ambitious Boss",
            "popularity": 0.6
        },
        {
            "id": 76860,
            "original_name": "Nutritiously Nicola",
            "popularity": 1.103
        },
        {
            "id": 108667,
            "original_name": "Top Gear: Ambitious But Rubbish",
            "popularity": 1.709
        },
        {
            "id": 127669,
            "original_name": "Pretentious Movie Reviews",
            "popularity": 0.6
        }
    ],
    "relations": [],
    "top20": [
        {
            "id": 71247,
            "original_name": "Austentatious",
            "popularity": 0.6
        },
        {
            "id": 72536,
            "original_name": "U-Prince Series : The Ambitious Boss",
            "popularity": 0.6
        },
        {
            "id": 76860,
            "original_name": "Nutritiously Nicola",
            "popularity": 1.103
        },
        {
            "id": 108667,
            "original_name": "Top Gear: Ambitious But Rubbish",
            "popularity": 1.709
        },
        {
            "id": 127669,
            "original_name": "Pretentious Movie Reviews",
            "popularity": 0.6
        }
    ]
}