{
    "data": [
        {
            "id": 40441,
            "original_name": "Svetlana",
            "popularity": 0.6
        },
        {
            "id": 109445,
            "original_name": "Svetlana",
            "popularity": 0.6
        }
    ],
    "relations": [],
    "top20": [
        {
            "id": 40441,
            "original_name": "Svetlana",
            "popularity": 0.6
        },
        {
            "id": 109445,
            "original_name": "Svetlana",
            "popularity": 0.6
        }
    ]
}