{
    "data": [
        {
            "id": 37025,
            "original_name": "\u010cetnick\u00e9 humoresky",
            "popularity": 1.153
        }
    ],
    "relations": [],
    "top20": [
        {
            "id": 37025,
            "original_name": "\u010cetnick\u00e9 humoresky",
            "popularity": 1.153
        }
    ]
}