{
    "data": [
        {
            "id": 87705,
            "original_name": "Al-Batniyya",
            "popularity": 0.6
        },
        {
            "id": 122617,
            "original_name": "Al-Batniya",
            "popularity": 0.6
        }
    ],
    "relations": [],
    "top20": [
        {
            "id": 87705,
            "original_name": "Al-Batniyya",
            "popularity": 0.6
        },
        {
            "id": 122617,
            "original_name": "Al-Batniya",
            "popularity": 0.6
        }
    ]
}