{
    "data": [
        {
            "id": 1299,
            "original_name": "Tortoise Hanba's Stories",
            "popularity": 0.6
        },
        {
            "id": 9665,
            "original_name": "Toisten-TV",
            "popularity": 0.6
        }
    ],
    "relations": [],
    "top20": [
        {
            "id": 1299,
            "original_name": "Tortoise Hanba's Stories",
            "popularity": 0.6
        },
        {
            "id": 9665,
            "original_name": "Toisten-TV",
            "popularity": 0.6
        }
    ]
}