{
    "data": [
        {
            "id": 61332,
            "original_name": "Fernost - Von Berlin nach Tokio",
            "popularity": 1.095
        },
        {
            "id": 82489,
            "original_name": "Tokidoki",
            "popularity": 9.012
        },
        {
            "id": 84691,
            "original_name": "Kuroneko Tokidoki Hanaya",
            "popularity": 0.845
        },
        {
            "id": 94654,
            "original_name": "Powr\u00f3t do Wiklinowej Zatoki",
            "popularity": 0.6
        },
        {
            "id": 94657,
            "original_name": "Tajemnice Wiklinowej Zatoki",
            "popularity": 0.6
        },
        {
            "id": 110374,
            "original_name": "TOKIO\u30ab\u30b1\u30eb",
            "popularity": 2.025
        },
        {
            "id": 113590,
            "original_name": "Inside the Cryptokingdom",
            "popularity": 0.6
        },
        {
            "id": 123681,
            "original_name": "TOKIO\u30c6\u30e9\u30b9",
            "popularity": 1.852
        },
        {
            "id": 129590,
            "original_name": "Van Hier tot in Tokio",
            "popularity": 2.309
        },
        {
            "id": 132719,
            "original_name": "La Casa de Papel: de Tokio a Berl\u00edn",
            "popularity": 1030.265
        }
    ],
    "relations": [],
    "top20": [
        {
            "id": 61332,
            "original_name": "Fernost - Von Berlin nach Tokio",
            "popularity": 1.095
        },
        {
            "id": 82489,
            "original_name": "Tokidoki",
            "popularity": 9.012
        },
        {
            "id": 84691,
            "original_name": "Kuroneko Tokidoki Hanaya",
            "popularity": 0.845
        },
        {
            "id": 94654,
            "original_name": "Powr\u00f3t do Wiklinowej Zatoki",
            "popularity": 0.6
        },
        {
            "id": 94657,
            "original_name": "Tajemnice Wiklinowej Zatoki",
            "popularity": 0.6
        },
        {
            "id": 110374,
            "original_name": "TOKIO\u30ab\u30b1\u30eb",
            "popularity": 2.025
        },
        {
            "id": 113590,
            "original_name": "Inside the Cryptokingdom",
            "popularity": 0.6
        },
        {
            "id": 123681,
            "original_name": "TOKIO\u30c6\u30e9\u30b9",
            "popularity": 1.852
        },
        {
            "id": 129590,
            "original_name": "Van Hier tot in Tokio",
            "popularity": 2.309
        },
        {
            "id": 132719,
            "original_name": "La Casa de Papel: de Tokio a Berl\u00edn",
            "popularity": 1030.265
        }
    ]
}