{
    "data": [
        {
            "id": 91810,
            "original_name": "auto mobil - Das VOX-Automagazin",
            "popularity": 0.647
        }
    ],
    "relations": [],
    "top20": [
        {
            "id": 91810,
            "original_name": "auto mobil - Das VOX-Automagazin",
            "popularity": 0.647
        }
    ]
}