{
    "data": [
        {
            "id": 125000,
            "original_name": "Hello Tomorrow!",
            "popularity": 8.041
        }
    ],
    "relations": [],
    "top20": [
        {
            "id": 125000,
            "original_name": "Hello Tomorrow!",
            "popularity": 8.041
        }
    ]
}