{
    "data": [
        {
            "id": 87852,
            "original_name": "\u7d76\u5bfe\u885d\u6fc0 ~PLATONIC HEART~",
            "popularity": 1.743
        },
        {
            "id": 104675,
            "original_name": "Platonic",
            "popularity": 0.6
        },
        {
            "id": 112211,
            "original_name": "Platonic",
            "popularity": 0.97
        }
    ],
    "relations": [],
    "top20": [
        {
            "id": 87852,
            "original_name": "\u7d76\u5bfe\u885d\u6fc0 ~PLATONIC HEART~",
            "popularity": 1.743
        },
        {
            "id": 104675,
            "original_name": "Platonic",
            "popularity": 0.6
        },
        {
            "id": 112211,
            "original_name": "Platonic",
            "popularity": 0.97
        }
    ]
}