{
    "data": [
        {
            "id": 41465,
            "original_name": "Die Lottosieger",
            "popularity": 1.459
        }
    ],
    "relations": [],
    "top20": [
        {
            "id": 41465,
            "original_name": "Die Lottosieger",
            "popularity": 1.459
        }
    ]
}