{
    "data": [
        {
            "id": 17572,
            "original_name": "Kick Buttowski: Suburban Daredevil",
            "popularity": 26.383
        },
        {
            "id": 30887,
            "original_name": "Towser",
            "popularity": 0.6
        }
    ],
    "relations": [],
    "top20": [
        {
            "id": 17572,
            "original_name": "Kick Buttowski: Suburban Daredevil",
            "popularity": 26.383
        },
        {
            "id": 30887,
            "original_name": "Towser",
            "popularity": 0.6
        }
    ]
}