{
    "data": [
        {
            "id": 12009,
            "original_name": "Marketplace",
            "popularity": 1.117
        },
        {
            "id": 16351,
            "original_name": "Weekend Marketplace",
            "popularity": 0.6
        },
        {
            "id": 37721,
            "original_name": "Die Ludolfs \u2013 4 Br\u00fcder auf'm Schrottplatz",
            "popularity": 1.741
        },
        {
            "id": 42305,
            "original_name": "Marketplace",
            "popularity": 0.6
        },
        {
            "id": 55254,
            "original_name": "Otplata",
            "popularity": 0.6
        },
        {
            "id": 83222,
            "original_name": "Marktplatz der Sensationen",
            "popularity": 0.6
        },
        {
            "id": 99432,
            "original_name": "Kurs i sj\u00e4lvutpl\u00e5ning",
            "popularity": 0.69
        }
    ],
    "relations": [],
    "top20": [
        {
            "id": 12009,
            "original_name": "Marketplace",
            "popularity": 1.117
        },
        {
            "id": 16351,
            "original_name": "Weekend Marketplace",
            "popularity": 0.6
        },
        {
            "id": 37721,
            "original_name": "Die Ludolfs \u2013 4 Br\u00fcder auf'm Schrottplatz",
            "popularity": 1.741
        },
        {
            "id": 42305,
            "original_name": "Marketplace",
            "popularity": 0.6
        },
        {
            "id": 55254,
            "original_name": "Otplata",
            "popularity": 0.6
        },
        {
            "id": 83222,
            "original_name": "Marktplatz der Sensationen",
            "popularity": 0.6
        },
        {
            "id": 99432,
            "original_name": "Kurs i sj\u00e4lvutpl\u00e5ning",
            "popularity": 0.69
        }
    ]
}