{
    "data": [
        {
            "id": 27368,
            "original_name": "Lost Book of Nostradamus",
            "popularity": 0.6
        },
        {
            "id": 30944,
            "original_name": "Nostradamus Effect",
            "popularity": 0.6
        },
        {
            "id": 51659,
            "original_name": "L\u00e5ngtradarchauff\u00f6rens ber\u00e4ttelse",
            "popularity": 0.6
        },
        {
            "id": 74813,
            "original_name": "Bu-Bum! La strada verso casa",
            "popularity": 0.809
        },
        {
            "id": 94933,
            "original_name": "La Strada di Casa",
            "popularity": 0.644
        },
        {
            "id": 95235,
            "original_name": "Nostradamus XXI",
            "popularity": 0.6
        },
        {
            "id": 95754,
            "original_name": "L'Agence Nostradamus",
            "popularity": 0.624
        },
        {
            "id": 110859,
            "original_name": "Na Estrada",
            "popularity": 0.6
        },
        {
            "id": 119109,
            "original_name": "Persona infiltrada",
            "popularity": 15.828
        },
        {
            "id": 119459,
            "original_name": "Nostradamus: End of Days",
            "popularity": 1.519
        },
        {
            "id": 121009,
            "original_name": "Transamaz\u00f4nica: Uma Estrada para o Passado",
            "popularity": 0.6
        }
    ],
    "relations": [],
    "top20": [
        {
            "id": 27368,
            "original_name": "Lost Book of Nostradamus",
            "popularity": 0.6
        },
        {
            "id": 30944,
            "original_name": "Nostradamus Effect",
            "popularity": 0.6
        },
        {
            "id": 51659,
            "original_name": "L\u00e5ngtradarchauff\u00f6rens ber\u00e4ttelse",
            "popularity": 0.6
        },
        {
            "id": 74813,
            "original_name": "Bu-Bum! La strada verso casa",
            "popularity": 0.809
        },
        {
            "id": 94933,
            "original_name": "La Strada di Casa",
            "popularity": 0.644
        },
        {
            "id": 95235,
            "original_name": "Nostradamus XXI",
            "popularity": 0.6
        },
        {
            "id": 95754,
            "original_name": "L'Agence Nostradamus",
            "popularity": 0.624
        },
        {
            "id": 110859,
            "original_name": "Na Estrada",
            "popularity": 0.6
        },
        {
            "id": 119109,
            "original_name": "Persona infiltrada",
            "popularity": 15.828
        },
        {
            "id": 119459,
            "original_name": "Nostradamus: End of Days",
            "popularity": 1.519
        },
        {
            "id": 121009,
            "original_name": "Transamaz\u00f4nica: Uma Estrada para o Passado",
            "popularity": 0.6
        }
    ]
}