{
    "data": [
        {
            "id": 135831,
            "original_name": "Strafsache 4 Ks 2/63 - Auschwitz vor dem Frankfurter Schwurgericht",
            "popularity": 0.6
        },
        {
            "id": 137803,
            "original_name": "De Strafste Sporter",
            "popularity": 7.491
        }
    ],
    "relations": [],
    "top20": [
        {
            "id": 135831,
            "original_name": "Strafsache 4 Ks 2/63 - Auschwitz vor dem Frankfurter Schwurgericht",
            "popularity": 0.6
        },
        {
            "id": 137803,
            "original_name": "De Strafste Sporter",
            "popularity": 7.491
        }
    ]
}