{
    "data": [
        {
            "id": 83486,
            "original_name": "Titanic - The Tragic Story of the Ship They Thought To Be Unsinkable",
            "popularity": 1.093
        }
    ],
    "relations": [],
    "top20": [
        {
            "id": 83486,
            "original_name": "Titanic - The Tragic Story of the Ship They Thought To Be Unsinkable",
            "popularity": 1.093
        }
    ]
}