{
    "data": [
        {
            "id": 79310,
            "original_name": "Trair e Co\u00e7ar \u00e9 S\u00f3 Come\u00e7ar",
            "popularity": 2.1
        }
    ],
    "relations": [],
    "top20": [
        {
            "id": 79310,
            "original_name": "Trair e Co\u00e7ar \u00e9 S\u00f3 Come\u00e7ar",
            "popularity": 2.1
        }
    ]
}