{
    "data": [
        {
            "id": 23856,
            "original_name": "Treasure!",
            "popularity": 0.6
        }
    ],
    "relations": [],
    "top20": [
        {
            "id": 23856,
            "original_name": "Treasure!",
            "popularity": 0.6
        }
    ]
}