{
    "data": [
        {
            "id": 40993,
            "original_name": "Treffpunkt Flughafen",
            "popularity": 1.201
        },
        {
            "id": 41078,
            "original_name": "Gipfeltreffen",
            "popularity": 3.25
        },
        {
            "id": 41097,
            "original_name": "Gwaith/Cartref",
            "popularity": 0.6
        },
        {
            "id": 64153,
            "original_name": "K\u00f6lner Treff",
            "popularity": 16.774
        },
        {
            "id": 71207,
            "original_name": "Back to School \u2013 Gottschalks gro\u00dfes Klassentreffen",
            "popularity": 1.774
        },
        {
            "id": 87440,
            "original_name": "Klassentreffen",
            "popularity": 1.094
        },
        {
            "id": 98525,
            "original_name": "Sur les Contreforts de l'Himalaya",
            "popularity": 0.6
        },
        {
            "id": 98579,
            "original_name": "M\u00e9tiers d'Autrefois, Artisans d'Aujourd'hui",
            "popularity": 0.6
        },
        {
            "id": 106306,
            "original_name": "Treffpunkte",
            "popularity": 1.738
        },
        {
            "id": 109762,
            "original_name": "Geschichte treffen",
            "popularity": 0.6
        },
        {
            "id": 116267,
            "original_name": "K\u00f6lner Sommer-Treff",
            "popularity": 1.801
        },
        {
            "id": 116946,
            "original_name": "Treffpunkt New York",
            "popularity": 2.603
        },
        {
            "id": 117899,
            "original_name": "Klassentreffen",
            "popularity": 0.6
        },
        {
            "id": 118248,
            "original_name": "Treffpunkt Telebar",
            "popularity": 1.35
        },
        {
            "id": 118562,
            "original_name": "Rodzina Treflik\u00f3w",
            "popularity": 0.6
        },
        {
            "id": 119293,
            "original_name": "Das Gipfeltreffen - Schubert, Str\u00e4ter und K\u00f6nig retten die Welt",
            "popularity": 1.867
        }
    ],
    "relations": [],
    "top20": [
        {
            "id": 40993,
            "original_name": "Treffpunkt Flughafen",
            "popularity": 1.201
        },
        {
            "id": 41078,
            "original_name": "Gipfeltreffen",
            "popularity": 3.25
        },
        {
            "id": 41097,
            "original_name": "Gwaith/Cartref",
            "popularity": 0.6
        },
        {
            "id": 64153,
            "original_name": "K\u00f6lner Treff",
            "popularity": 16.774
        },
        {
            "id": 71207,
            "original_name": "Back to School \u2013 Gottschalks gro\u00dfes Klassentreffen",
            "popularity": 1.774
        },
        {
            "id": 87440,
            "original_name": "Klassentreffen",
            "popularity": 1.094
        },
        {
            "id": 98525,
            "original_name": "Sur les Contreforts de l'Himalaya",
            "popularity": 0.6
        },
        {
            "id": 98579,
            "original_name": "M\u00e9tiers d'Autrefois, Artisans d'Aujourd'hui",
            "popularity": 0.6
        },
        {
            "id": 106306,
            "original_name": "Treffpunkte",
            "popularity": 1.738
        },
        {
            "id": 109762,
            "original_name": "Geschichte treffen",
            "popularity": 0.6
        },
        {
            "id": 116267,
            "original_name": "K\u00f6lner Sommer-Treff",
            "popularity": 1.801
        },
        {
            "id": 116946,
            "original_name": "Treffpunkt New York",
            "popularity": 2.603
        },
        {
            "id": 117899,
            "original_name": "Klassentreffen",
            "popularity": 0.6
        },
        {
            "id": 118248,
            "original_name": "Treffpunkt Telebar",
            "popularity": 1.35
        },
        {
            "id": 118562,
            "original_name": "Rodzina Treflik\u00f3w",
            "popularity": 0.6
        },
        {
            "id": 119293,
            "original_name": "Das Gipfeltreffen - Schubert, Str\u00e4ter und K\u00f6nig retten die Welt",
            "popularity": 1.867
        }
    ]
}