{
    "data": [
        {
            "id": 4372,
            "original_name": "Tremors",
            "popularity": 5.85
        },
        {
            "id": 45026,
            "original_name": "Amor Extremo",
            "popularity": 0.6
        },
        {
            "id": 55154,
            "original_name": "Desaf\u00edo extremo",
            "popularity": 0.709
        },
        {
            "id": 68209,
            "original_name": "Climas esxtremos",
            "popularity": 0.6
        },
        {
            "id": 68210,
            "original_name": "Climas esxtremos",
            "popularity": 0.6
        },
        {
            "id": 68211,
            "original_name": "Climas extremos",
            "popularity": 0.6
        },
        {
            "id": 72751,
            "original_name": "Tremors",
            "popularity": 1.4
        },
        {
            "id": 83137,
            "original_name": "Esqu\u00ed Extremo",
            "popularity": 0.6
        },
        {
            "id": 85476,
            "original_name": "Deportes Xtremos",
            "popularity": 0.6
        },
        {
            "id": 112801,
            "original_name": "Extremos da Cidade",
            "popularity": 0.6
        },
        {
            "id": 120174,
            "original_name": "M\u00e1quinas contra el fr\u00edo extremo",
            "popularity": 0.6
        }
    ],
    "relations": [],
    "top20": [
        {
            "id": 4372,
            "original_name": "Tremors",
            "popularity": 5.85
        },
        {
            "id": 45026,
            "original_name": "Amor Extremo",
            "popularity": 0.6
        },
        {
            "id": 55154,
            "original_name": "Desaf\u00edo extremo",
            "popularity": 0.709
        },
        {
            "id": 68209,
            "original_name": "Climas esxtremos",
            "popularity": 0.6
        },
        {
            "id": 68210,
            "original_name": "Climas esxtremos",
            "popularity": 0.6
        },
        {
            "id": 68211,
            "original_name": "Climas extremos",
            "popularity": 0.6
        },
        {
            "id": 72751,
            "original_name": "Tremors",
            "popularity": 1.4
        },
        {
            "id": 83137,
            "original_name": "Esqu\u00ed Extremo",
            "popularity": 0.6
        },
        {
            "id": 85476,
            "original_name": "Deportes Xtremos",
            "popularity": 0.6
        },
        {
            "id": 112801,
            "original_name": "Extremos da Cidade",
            "popularity": 0.6
        },
        {
            "id": 120174,
            "original_name": "M\u00e1quinas contra el fr\u00edo extremo",
            "popularity": 0.6
        }
    ]
}