{
    "data": [
        {
            "id": 7071,
            "original_name": "Earth Revealed: Introductory Geology",
            "popularity": 0.6
        },
        {
            "id": 26451,
            "original_name": "Introducing Gary Petty",
            "popularity": 0.6
        },
        {
            "id": 33731,
            "original_name": "Destinos: An Introduction to Spanish",
            "popularity": 0.6
        },
        {
            "id": 60025,
            "original_name": "An introduction",
            "popularity": 0.6
        },
        {
            "id": 76178,
            "original_name": "My Next Guest Needs No Introduction With David Letterman",
            "popularity": 5.109
        },
        {
            "id": 98064,
            "original_name": "Practicing Mindfulness: An Introduction to Meditation",
            "popularity": 1.343
        },
        {
            "id": 99024,
            "original_name": "Introduction to Psychology",
            "popularity": 0.6
        }
    ],
    "relations": [],
    "top20": [
        {
            "id": 7071,
            "original_name": "Earth Revealed: Introductory Geology",
            "popularity": 0.6
        },
        {
            "id": 26451,
            "original_name": "Introducing Gary Petty",
            "popularity": 0.6
        },
        {
            "id": 33731,
            "original_name": "Destinos: An Introduction to Spanish",
            "popularity": 0.6
        },
        {
            "id": 60025,
            "original_name": "An introduction",
            "popularity": 0.6
        },
        {
            "id": 76178,
            "original_name": "My Next Guest Needs No Introduction With David Letterman",
            "popularity": 5.109
        },
        {
            "id": 98064,
            "original_name": "Practicing Mindfulness: An Introduction to Meditation",
            "popularity": 1.343
        },
        {
            "id": 99024,
            "original_name": "Introduction to Psychology",
            "popularity": 0.6
        }
    ]
}