{
    "data": [
        {
            "id": 77,
            "original_name": "TV Patrol Northern Luzon",
            "popularity": 0.84
        },
        {
            "id": 647,
            "original_name": "Parental Control",
            "popularity": 0.6
        },
        {
            "id": 1079,
            "original_name": "Remote Control",
            "popularity": 0.676
        },
        {
            "id": 1262,
            "original_name": "Patrol Boat",
            "popularity": 0.6
        },
        {
            "id": 1460,
            "original_name": "Andy Richter Controls the Universe",
            "popularity": 4.931
        },
        {
            "id": 1529,
            "original_name": "Trollz",
            "popularity": 2.53
        },
        {
            "id": 2047,
            "original_name": "Petrolheads",
            "popularity": 0.6
        },
        {
            "id": 2256,
            "original_name": "TV Patrol Southern Mindanao",
            "popularity": 0.6
        },
        {
            "id": 2611,
            "original_name": "TV Patrol",
            "popularity": 0.6
        },
        {
            "id": 2781,
            "original_name": "Motorway Patrol",
            "popularity": 1.499
        },
        {
            "id": 3479,
            "original_name": "TV Patrol Northern Mindanao",
            "popularity": 0.6
        },
        {
            "id": 3539,
            "original_name": "Beyond Our Control",
            "popularity": 0.6
        },
        {
            "id": 3712,
            "original_name": "Trolley Dollies",
            "popularity": 0.6
        },
        {
            "id": 3800,
            "original_name": "Parental Control",
            "popularity": 2.5
        },
        {
            "id": 3865,
            "original_name": "TV Patrol Northwestern Mindanao",
            "popularity": 0.6
        },
        {
            "id": 4235,
            "original_name": "TV Patrol Panay",
            "popularity": 0.6
        },
        {
            "id": 4472,
            "original_name": "Prank Patrol",
            "popularity": 0.6
        },
        {
            "id": 4516,
            "original_name": "Toad Patrol",
            "popularity": 1.385
        },
        {
            "id": 4651,
            "original_name": "TV Patrol Central Visayas",
            "popularity": 0.6
        },
        {
            "id": 4858,
            "original_name": "Sea Patrol",
            "popularity": 7.809
        },
        {
            "id": 5136,
            "original_name": "Surf Patrol",
            "popularity": 0.6
        },
        {
            "id": 6644,
            "original_name": "TV Patrol Chavacano",
            "popularity": 0.6
        },
        {
            "id": 7052,
            "original_name": "TV Patrol North Central Luzon",
            "popularity": 0.6
        },
        {
            "id": 7165,
            "original_name": "TV Patrol Pampanga",
            "popularity": 0.6
        },
        {
            "id": 7260,
            "original_name": "TV Patrol Ilocos",
            "popularity": 0.6
        },
        {
            "id": 7719,
            "original_name": "TV Patrol Tacloban",
            "popularity": 0.6
        },
        {
            "id": 7765,
            "original_name": "Street Patrol",
            "popularity": 0.922
        },
        {
            "id": 8219,
            "original_name": "TV Patrol Bicol",
            "popularity": 0.6
        },
        {
            "id": 8250,
            "original_name": "TV Patrol Socsksargen",
            "popularity": 0.6
        },
        {
            "id": 8305,
            "original_name": "TV Patrol Negros",
            "popularity": 0.6
        },
        {
            "id": 8374,
            "original_name": "TV Patrol Caraga",
            "popularity": 0.6
        },
        {
            "id": 10375,
            "original_name": "Midnight Patrol: Adventures in the Dream Zone",
            "popularity": 0.6
        },
        {
            "id": 10554,
            "original_name": "Space Patrol",
            "popularity": 1.442
        },
        {
            "id": 11541,
            "original_name": "Math Patrol",
            "popularity": 0.6
        },
        {
            "id": 11920,
            "original_name": "Highway Patrol",
            "popularity": 11.17
        },
        {
            "id": 12372,
            "original_name": "Damage Control",
            "popularity": 0.754
        },
        {
            "id": 12679,
            "original_name": "Disorderly Conduct: Video on Patrol",
            "popularity": 0.965
        },
        {
            "id": 12725,
            "original_name": "Beach Patrol",
            "popularity": 0.6
        },
        {
            "id": 12937,
            "original_name": "Real Stories of the Highway Patrol",
            "popularity": 0.6
        },
        {
            "id": 13799,
            "original_name": "Roger and the Rottentrolls",
            "popularity": 0.861
        },
        {
            "id": 13908,
            "original_name": "The Rat Patrol",
            "popularity": 10.286
        },
        {
            "id": 14463,
            "original_name": "Troldspejlet",
            "popularity": 1.991
        },
        {
            "id": 14770,
            "original_name": "Control Room Presents",
            "popularity": 0.6
        },
        {
            "id": 15139,
            "original_name": "Mumintrollet",
            "popularity": 0.899
        },
        {
            "id": 15546,
            "original_name": "The Zula Patrol",
            "popularity": 0.6
        },
        {
            "id": 17002,
            "original_name": "News Patrol",
            "popularity": 0.6
        },
        {
            "id": 18055,
            "original_name": "Out of Control",
            "popularity": 0.726
        },
        {
            "id": 18093,
            "original_name": "Border Patrol",
            "popularity": 0.6
        },
        {
            "id": 18353,
            "original_name": "TV Patrol Cagayan Valley",
            "popularity": 0.6
        },
        {
            "id": 18382,
            "original_name": "TV Patrol Southern Tagalog",
            "popularity": 0.6
        },
        {
            "id": 18406,
            "original_name": "Love Patrol",
            "popularity": 0.6
        },
        {
            "id": 19910,
            "original_name": "Border Patrol",
            "popularity": 1.431
        },
        {
            "id": 20162,
            "original_name": "The Strollin' Twenties",
            "popularity": 0.6
        },
        {
            "id": 20326,
            "original_name": "The Adventures of the Bush Patrol",
            "popularity": 0.678
        },
        {
            "id": 21228,
            "original_name": "Crisis Control",
            "popularity": 0.6
        },
        {
            "id": 21717,
            "original_name": "TV Patrol Central Mindanao",
            "popularity": 0.6
        },
        {
            "id": 21921,
            "original_name": "Mind Control with Derren Brown",
            "popularity": 0.842
        },
        {
            "id": 24040,
            "original_name": "Dave Gorman's Important Astrological Experiment",
            "popularity": 0.6
        },
        {
            "id": 24623,
            "original_name": "The Trollenberg Terror",
            "popularity": 0.732
        },
        {
            "id": 24724,
            "original_name": "Beach Patrol: Miami Beach",
            "popularity": 0.6
        },
        {
            "id": 24919,
            "original_name": "African Patrol",
            "popularity": 0.6
        },
        {
            "id": 25949,
            "original_name": "Beach Patrol: Honolulu",
            "popularity": 0.6
        },
        {
            "id": 27046,
            "original_name": "Ground Control",
            "popularity": 0.6
        },
        {
            "id": 27195,
            "original_name": "Date Patrol",
            "popularity": 0.6
        },
        {
            "id": 27697,
            "original_name": "Lou and Lou: Safety Patrol",
            "popularity": 0.6
        },
        {
            "id": 28739,
            "original_name": "Plaza Patrol",
            "popularity": 0.851
        },
        {
            "id": 30158,
            "original_name": "Ski Patrol",
            "popularity": 0.6
        },
        {
            "id": 30734,
            "original_name": "Duck Patrol",
            "popularity": 1.503
        },
        {
            "id": 32197,
            "original_name": "Patrol",
            "popularity": 0.6
        },
        {
            "id": 32239,
            "original_name": "Crime Patrol",
            "popularity": 0.6
        },
        {
            "id": 32558,
            "original_name": "Prank Patrol",
            "popularity": 0.6
        },
        {
            "id": 32570,
            "original_name": "Prank Patrol",
            "popularity": 0.6
        },
        {
            "id": 32703,
            "original_name": "Sea Patrol UK",
            "popularity": 0.6
        },
        {
            "id": 34372,
            "original_name": "Patrol ng Pilipino",
            "popularity": 0.6
        },
        {
            "id": 34375,
            "original_name": "Control TV",
            "popularity": 0.6
        },
        {
            "id": 35127,
            "original_name": "Out of Control Drivers",
            "popularity": 0.6
        },
        {
            "id": 35277,
            "original_name": "Trollkins",
            "popularity": 1.936
        },
        {
            "id": 35954,
            "original_name": "Space Patrol",
            "popularity": 4.763
        },
        {
            "id": 38554,
            "original_name": "Australian Pirate Patrol",
            "popularity": 1.093
        },
        {
            "id": 38575,
            "original_name": "Royal Navy Caribbean Patrol",
            "popularity": 0.6
        },
        {
            "id": 39101,
            "original_name": "TV Patrol Western Mindanao",
            "popularity": 0.6
        },
        {
            "id": 39287,
            "original_name": "TV Patrol Palawan",
            "popularity": 0.6
        },
        {
            "id": 40102,
            "original_name": "Bomb Patrol: Afghanistan",
            "popularity": 0.6
        },
        {
            "id": 40110,
            "original_name": "Trollied",
            "popularity": 5.547
        },
        {
            "id": 43921,
            "original_name": "Trolltider",
            "popularity": 0.6
        },
        {
            "id": 44502,
            "original_name": "Clinton Anderson Downunder Horsemanship - Gaining Respect and Control on the Ground",
            "popularity": 0.6
        },
        {
            "id": 44924,
            "original_name": "African Patrol",
            "popularity": 0.6
        },
        {
            "id": 45166,
            "original_name": "GALACTIC PATROL \u30ec\u30f3\u30ba\u30de\u30f3",
            "popularity": 12.056
        },
        {
            "id": 51508,
            "original_name": "Motor Racing at the BBC: That Petrol Emotion",
            "popularity": 0.6
        },
        {
            "id": 53670,
            "original_name": "Troll Tales",
            "popularity": 0.6
        },
        {
            "id": 57007,
            "original_name": "Derren Brown: Mind Control",
            "popularity": 0.6
        },
        {
            "id": 57348,
            "original_name": "Mission: Mind Control",
            "popularity": 0.6
        },
        {
            "id": 57532,
            "original_name": "PAW Patrol",
            "popularity": 83.712
        },
        {
            "id": 59939,
            "original_name": "Highway Patrol",
            "popularity": 0.654
        },
        {
            "id": 59971,
            "original_name": "Nuebe Patrol",
            "popularity": 0.6
        },
        {
            "id": 60093,
            "original_name": "Street Patrol UK",
            "popularity": 0.6
        },
        {
            "id": 60432,
            "original_name": "Control Freaks",
            "popularity": 0.6
        },
        {
            "id": 65247,
            "original_name": "Marvel's Damage Control",
            "popularity": 0.6
        },
        {
            "id": 65463,
            "original_name": "Dave Gorman's Important Astrology Experiment",
            "popularity": 0.6
        },
        {
            "id": 66984,
            "original_name": "Highway Patrol",
            "popularity": 0.6
        },
        {
            "id": 68267,
            "original_name": "Trollhunters: Tales of Arcadia",
            "popularity": 47.563
        },
        {
            "id": 71801,
            "original_name": "Live PD: Police Patrol",
            "popularity": 2.323
        },
        {
            "id": 73153,
            "original_name": "Petrol",
            "popularity": 0.6
        },
        {
            "id": 74138,
            "original_name": "Cazadores de Trolls",
            "popularity": 0.6
        },
        {
            "id": 74202,
            "original_name": "Matkontrollen",
            "popularity": 1.469
        },
        {
            "id": 74913,
            "original_name": "Crime Patrol",
            "popularity": 0.6
        },
        {
            "id": 76205,
            "original_name": "Trolls: The Beat Goes On!",
            "popularity": 11.328
        },
        {
            "id": 76527,
            "original_name": "Sydney Harbour Patrol",
            "popularity": 0.602
        },
        {
            "id": 78770,
            "original_name": "Helsekontrollen",
            "popularity": 0.948
        },
        {
            "id": 79501,
            "original_name": "Doom Patrol",
            "popularity": 85.89
        },
        {
            "id": 80148,
            "original_name": "Fuera de control",
            "popularity": 1.355
        },
        {
            "id": 80793,
            "original_name": "Crime Patrol",
            "popularity": 1.453
        },
        {
            "id": 80961,
            "original_name": "Booze Patrol",
            "popularity": 0.6
        },
        {
            "id": 80963,
            "original_name": "Catfish: Trolls",
            "popularity": 1.4
        },
        {
            "id": 83690,
            "original_name": "Live PD Presents: Women On Patrol",
            "popularity": 0.6
        },
        {
            "id": 83959,
            "original_name": "Control de Fronteras: Espa\u00f1a",
            "popularity": 1.211
        },
        {
            "id": 85026,
            "original_name": "Fuera de Control",
            "popularity": 0.6
        },
        {
            "id": 86525,
            "original_name": "Channel Patrol",
            "popularity": 1.096
        },
        {
            "id": 92388,
            "original_name": "Total Control",
            "popularity": 12.93
        },
        {
            "id": 95218,
            "original_name": "Control de carreteras",
            "popularity": 1.126
        },
        {
            "id": 96772,
            "original_name": "Rent Controlled",
            "popularity": 0.6
        },
        {
            "id": 98183,
            "original_name": "Fuera de control",
            "popularity": 2.941
        },
        {
            "id": 100245,
            "original_name": "Retrolissun ys\u00e4rit",
            "popularity": 0.6
        },
        {
            "id": 101634,
            "original_name": "Petrolhead Planet",
            "popularity": 0.6
        },
        {
            "id": 102903,
            "original_name": "Control Z",
            "popularity": 72.356
        },
        {
            "id": 104563,
            "original_name": "Control de fronteras: Europa",
            "popularity": 0.621
        },
        {
            "id": 106633,
            "original_name": "Part Troll",
            "popularity": 0.657
        },
        {
            "id": 107035,
            "original_name": "Subaru Launch Control",
            "popularity": 0.817
        },
        {
            "id": 107133,
            "original_name": "Descontrol",
            "popularity": 0.6
        },
        {
            "id": 109763,
            "original_name": "Crowd Control",
            "popularity": 0.6
        },
        {
            "id": 111316,
            "original_name": "AstroLOLogy",
            "popularity": 0.6
        },
        {
            "id": 111339,
            "original_name": "Magical Super Trolls",
            "popularity": 0.84
        },
        {
            "id": 111542,
            "original_name": "Trollies World Tour",
            "popularity": 0.6
        },
        {
            "id": 113378,
            "original_name": "Trolls: TrollsTopia",
            "popularity": 8.839
        },
        {
            "id": 114170,
            "original_name": "Trolls De Troy",
            "popularity": 1.348
        },
        {
            "id": 115152,
            "original_name": "Patrol Tatry",
            "popularity": 0.6
        },
        {
            "id": 115727,
            "original_name": "Astrolojik \u015eifreler",
            "popularity": 0.6
        },
        {
            "id": 115900,
            "original_name": "Lone Star Law: Patrol and Protect",
            "popularity": 0.6
        },
        {
            "id": 115949,
            "original_name": "Den f\u00f6rtrollande vildmarken",
            "popularity": 0.6
        },
        {
            "id": 116875,
            "original_name": "Paw Patrol: Shorts",
            "popularity": 8.016
        },
        {
            "id": 116935,
            "original_name": "Fora de Controle",
            "popularity": 0.86
        },
        {
            "id": 118337,
            "original_name": "Troldspejlet & Co.",
            "popularity": 1.305
        },
        {
            "id": 118403,
            "original_name": "Paw Patrol: Pups save Puplantis",
            "popularity": 6.673
        },
        {
            "id": 119986,
            "original_name": "The Barbarian and the Troll",
            "popularity": 2.41
        },
        {
            "id": 122078,
            "original_name": "Fiskerikontrollen",
            "popularity": 0.6
        },
        {
            "id": 127838,
            "original_name": "Achtung Kontrolle! \u2013 Einsatz f\u00fcr die Ordnungsh\u00fcter",
            "popularity": 0.6
        },
        {
            "id": 132385,
            "original_name": "Bay Patrol",
            "popularity": 0.668
        },
        {
            "id": 133275,
            "original_name": "Control4",
            "popularity": 0.6
        },
        {
            "id": 133276,
            "original_name": "Control4",
            "popularity": 0.6
        },
        {
            "id": 135425,
            "original_name": "P\u00e9trole, une histoire de pouvoir",
            "popularity": 0.6
        },
        {
            "id": 135908,
            "original_name": "Guida astrologica per cuori infranti",
            "popularity": 14.972
        },
        {
            "id": 136251,
            "original_name": "Border Control Poland",
            "popularity": 0.6
        },
        {
            "id": 136345,
            "original_name": "Trolderiks posthule",
            "popularity": 0.6
        },
        {
            "id": 136352,
            "original_name": "Trolderik og nisserne",
            "popularity": 1.34
        }
    ],
    "relations": [
        {
            "character": "trols"
        },
        {
            "character": "troll"
        },
        {
            "character": "trolh"
        },
        {
            "character": "trold"
        },
        {
            "character": "trolo"
        },
        {
            "character": "troli"
        },
        {
            "character": "trole"
        },
        {
            "character": "trol4"
        }
    ],
    "top20": [
        {
            "id": 79501,
            "original_name": "Doom Patrol",
            "popularity": 85.89
        },
        {
            "id": 57532,
            "original_name": "PAW Patrol",
            "popularity": 83.712
        },
        {
            "id": 102903,
            "original_name": "Control Z",
            "popularity": 72.356
        },
        {
            "id": 68267,
            "original_name": "Trollhunters: Tales of Arcadia",
            "popularity": 47.563
        },
        {
            "id": 135908,
            "original_name": "Guida astrologica per cuori infranti",
            "popularity": 14.972
        },
        {
            "id": 92388,
            "original_name": "Total Control",
            "popularity": 12.93
        },
        {
            "id": 45166,
            "original_name": "GALACTIC PATROL \u30ec\u30f3\u30ba\u30de\u30f3",
            "popularity": 12.056
        },
        {
            "id": 76205,
            "original_name": "Trolls: The Beat Goes On!",
            "popularity": 11.328
        },
        {
            "id": 11920,
            "original_name": "Highway Patrol",
            "popularity": 11.17
        },
        {
            "id": 13908,
            "original_name": "The Rat Patrol",
            "popularity": 10.286
        },
        {
            "id": 113378,
            "original_name": "Trolls: TrollsTopia",
            "popularity": 8.839
        },
        {
            "id": 116875,
            "original_name": "Paw Patrol: Shorts",
            "popularity": 8.016
        },
        {
            "id": 4858,
            "original_name": "Sea Patrol",
            "popularity": 7.809
        },
        {
            "id": 118403,
            "original_name": "Paw Patrol: Pups save Puplantis",
            "popularity": 6.673
        },
        {
            "id": 40110,
            "original_name": "Trollied",
            "popularity": 5.547
        },
        {
            "id": 1460,
            "original_name": "Andy Richter Controls the Universe",
            "popularity": 4.931
        },
        {
            "id": 35954,
            "original_name": "Space Patrol",
            "popularity": 4.763
        },
        {
            "id": 98183,
            "original_name": "Fuera de control",
            "popularity": 2.941
        },
        {
            "id": 1529,
            "original_name": "Trollz",
            "popularity": 2.53
        },
        {
            "id": 3800,
            "original_name": "Parental Control",
            "popularity": 2.5
        }
    ]
}