{
    "data": [
        {
            "id": 9303,
            "original_name": "The American Sportsman",
            "popularity": 0.6
        },
        {
            "id": 17867,
            "original_name": "Forbes SportsMoney",
            "popularity": 0.6
        },
        {
            "id": 19723,
            "original_name": "Streetsmartz",
            "popularity": 0.6
        },
        {
            "id": 36834,
            "original_name": "Jorritsma Blikt Vooruit",
            "popularity": 0.6
        },
        {
            "id": 39216,
            "original_name": "Nyhetsmorgon L\u00f6rdag",
            "popularity": 0.6
        },
        {
            "id": 39234,
            "original_name": "Nyhetsmorgon S\u00f6ndag",
            "popularity": 0.6
        },
        {
            "id": 57023,
            "original_name": "The Guild of Master Craftsmen",
            "popularity": 0.6
        },
        {
            "id": 63615,
            "original_name": "Die Gerichtsmedizinerin",
            "popularity": 1.612
        },
        {
            "id": 66553,
            "original_name": "Beutolom\u00e4us und der doppelte Weihnachtsmann",
            "popularity": 1.384
        },
        {
            "id": 71246,
            "original_name": "Beutolom\u00e4us sucht den Weihnachtsmann",
            "popularity": 1.126
        },
        {
            "id": 71808,
            "original_name": "A Craftsman\u2019s Legacy",
            "popularity": 0.601
        },
        {
            "id": 84470,
            "original_name": "Statsministrarna",
            "popularity": 0.644
        },
        {
            "id": 86307,
            "original_name": "The Flying Scotsman",
            "popularity": 0.6
        },
        {
            "id": 94111,
            "original_name": "Kapten Kl\u00e4nning - polischef och v\u00e5ldt\u00e4ktsman",
            "popularity": 0.6
        },
        {
            "id": 97101,
            "original_name": "Statsministerens nyt\u00e5rstale",
            "popularity": 0.6
        },
        {
            "id": 110140,
            "original_name": "Craftsmen",
            "popularity": 0.6
        },
        {
            "id": 131130,
            "original_name": "Beutolom\u00e4us und der wahre Weihnachtsmann",
            "popularity": 0.6
        }
    ],
    "relations": [],
    "top20": [
        {
            "id": 9303,
            "original_name": "The American Sportsman",
            "popularity": 0.6
        },
        {
            "id": 17867,
            "original_name": "Forbes SportsMoney",
            "popularity": 0.6
        },
        {
            "id": 19723,
            "original_name": "Streetsmartz",
            "popularity": 0.6
        },
        {
            "id": 36834,
            "original_name": "Jorritsma Blikt Vooruit",
            "popularity": 0.6
        },
        {
            "id": 39216,
            "original_name": "Nyhetsmorgon L\u00f6rdag",
            "popularity": 0.6
        },
        {
            "id": 39234,
            "original_name": "Nyhetsmorgon S\u00f6ndag",
            "popularity": 0.6
        },
        {
            "id": 57023,
            "original_name": "The Guild of Master Craftsmen",
            "popularity": 0.6
        },
        {
            "id": 63615,
            "original_name": "Die Gerichtsmedizinerin",
            "popularity": 1.612
        },
        {
            "id": 66553,
            "original_name": "Beutolom\u00e4us und der doppelte Weihnachtsmann",
            "popularity": 1.384
        },
        {
            "id": 71246,
            "original_name": "Beutolom\u00e4us sucht den Weihnachtsmann",
            "popularity": 1.126
        },
        {
            "id": 71808,
            "original_name": "A Craftsman\u2019s Legacy",
            "popularity": 0.601
        },
        {
            "id": 84470,
            "original_name": "Statsministrarna",
            "popularity": 0.644
        },
        {
            "id": 86307,
            "original_name": "The Flying Scotsman",
            "popularity": 0.6
        },
        {
            "id": 94111,
            "original_name": "Kapten Kl\u00e4nning - polischef och v\u00e5ldt\u00e4ktsman",
            "popularity": 0.6
        },
        {
            "id": 97101,
            "original_name": "Statsministerens nyt\u00e5rstale",
            "popularity": 0.6
        },
        {
            "id": 110140,
            "original_name": "Craftsmen",
            "popularity": 0.6
        },
        {
            "id": 131130,
            "original_name": "Beutolom\u00e4us und der wahre Weihnachtsmann",
            "popularity": 0.6
        }
    ]
}