{
    "data": [
        {
            "id": 19228,
            "original_name": "Daitetsujin 17",
            "popularity": 0.6
        },
        {
            "id": 20283,
            "original_name": "Tetsujin Tiger Seven",
            "popularity": 0.6
        },
        {
            "id": 44307,
            "original_name": "Ch\u014d Dend\u014d Robo Tetsujin 28-go FX",
            "popularity": 0.843
        },
        {
            "id": 44887,
            "original_name": "Tetsujin 28",
            "popularity": 1.4
        },
        {
            "id": 46042,
            "original_name": "Asadora Satsujin Jiken",
            "popularity": 0.6
        },
        {
            "id": 46215,
            "original_name": "Wada Akiko satsujin jiken",
            "popularity": 0.6
        },
        {
            "id": 51389,
            "original_name": "Arupusu sangaku ky\u00fbjotai Shimon Ikki 9: Hakuba Sangaku tsu\u00e2 tenk\u00fb no misshitsu satsujin",
            "popularity": 0.6
        }
    ],
    "relations": [],
    "top20": [
        {
            "id": 19228,
            "original_name": "Daitetsujin 17",
            "popularity": 0.6
        },
        {
            "id": 20283,
            "original_name": "Tetsujin Tiger Seven",
            "popularity": 0.6
        },
        {
            "id": 44307,
            "original_name": "Ch\u014d Dend\u014d Robo Tetsujin 28-go FX",
            "popularity": 0.843
        },
        {
            "id": 44887,
            "original_name": "Tetsujin 28",
            "popularity": 1.4
        },
        {
            "id": 46042,
            "original_name": "Asadora Satsujin Jiken",
            "popularity": 0.6
        },
        {
            "id": 46215,
            "original_name": "Wada Akiko satsujin jiken",
            "popularity": 0.6
        },
        {
            "id": 51389,
            "original_name": "Arupusu sangaku ky\u00fbjotai Shimon Ikki 9: Hakuba Sangaku tsu\u00e2 tenk\u00fb no misshitsu satsujin",
            "popularity": 0.6
        }
    ]
}