{
    "data": [
        {
            "id": 5571,
            "original_name": "Itsy Bitsy Spider",
            "popularity": 2.079
        },
        {
            "id": 14993,
            "original_name": "Betsy's Kindergarten Adventures",
            "popularity": 0.6
        },
        {
            "id": 24824,
            "original_name": "It's Itsy Bitsy Time",
            "popularity": 0.6
        },
        {
            "id": 28373,
            "original_name": "Heaven for Betsy",
            "popularity": 0.6
        },
        {
            "id": 52112,
            "original_name": "Putejtsy",
            "popularity": 0.6
        },
        {
            "id": 55843,
            "original_name": "Lyubov Ne Delitsya na Dva",
            "popularity": 0.6
        },
        {
            "id": 105830,
            "original_name": "O! Vatsyayana",
            "popularity": 0.607
        },
        {
            "id": 138940,
            "original_name": "Matsya Kaand",
            "popularity": 5.318
        }
    ],
    "relations": [],
    "top20": [
        {
            "id": 5571,
            "original_name": "Itsy Bitsy Spider",
            "popularity": 2.079
        },
        {
            "id": 14993,
            "original_name": "Betsy's Kindergarten Adventures",
            "popularity": 0.6
        },
        {
            "id": 24824,
            "original_name": "It's Itsy Bitsy Time",
            "popularity": 0.6
        },
        {
            "id": 28373,
            "original_name": "Heaven for Betsy",
            "popularity": 0.6
        },
        {
            "id": 52112,
            "original_name": "Putejtsy",
            "popularity": 0.6
        },
        {
            "id": 55843,
            "original_name": "Lyubov Ne Delitsya na Dva",
            "popularity": 0.6
        },
        {
            "id": 105830,
            "original_name": "O! Vatsyayana",
            "popularity": 0.607
        },
        {
            "id": 138940,
            "original_name": "Matsya Kaand",
            "popularity": 5.318
        }
    ]
}