{
    "data": [
        {
            "id": 245,
            "original_name": "The Brittas Empire",
            "popularity": 6.512
        },
        {
            "id": 1780,
            "original_name": "Art Attack",
            "popularity": 5.151
        },
        {
            "id": 2350,
            "original_name": "Noh Matta Wat!",
            "popularity": 0.6
        },
        {
            "id": 3216,
            "original_name": "Baretta",
            "popularity": 11.538
        },
        {
            "id": 3756,
            "original_name": "Nanna's Cottage",
            "popularity": 0.6
        },
        {
            "id": 3855,
            "original_name": "The Magic Cottage",
            "popularity": 0.6
        },
        {
            "id": 4690,
            "original_name": "Attachments",
            "popularity": 1.283
        },
        {
            "id": 5697,
            "original_name": "When Games Attack",
            "popularity": 0.6
        },
        {
            "id": 5841,
            "original_name": "Femettan",
            "popularity": 0.6
        },
        {
            "id": 6254,
            "original_name": "Crazy Cottage",
            "popularity": 0.6
        },
        {
            "id": 7521,
            "original_name": "La Cittadella",
            "popularity": 1.467
        },
        {
            "id": 7553,
            "original_name": "After the Attack",
            "popularity": 1.96
        },
        {
            "id": 7643,
            "original_name": "Uttai Tawee",
            "popularity": 0.6
        },
        {
            "id": 7900,
            "original_name": "The New Loretta Young Show",
            "popularity": 1.4
        },
        {
            "id": 9851,
            "original_name": "Donald's Quack Attack",
            "popularity": 0.6
        },
        {
            "id": 11044,
            "original_name": "Attack of the Killer Tomatoes",
            "popularity": 2.911
        },
        {
            "id": 12451,
            "original_name": "Cattanooga Cats",
            "popularity": 4.858
        },
        {
            "id": 13453,
            "original_name": "Attack of the Show!",
            "popularity": 3.647
        },
        {
            "id": 14112,
            "original_name": "Manhattan Spotlight",
            "popularity": 0.6
        },
        {
            "id": 14221,
            "original_name": "You Gotta Quintet",
            "popularity": 0.6
        },
        {
            "id": 14910,
            "original_name": "La Vendetta",
            "popularity": 0.6
        },
        {
            "id": 16159,
            "original_name": "Unforgettable",
            "popularity": 0.6
        },
        {
            "id": 16924,
            "original_name": "The Unforgettable Memory",
            "popularity": 0.6
        },
        {
            "id": 17050,
            "original_name": "World'd Funniest Animal Outtakes, Part 1",
            "popularity": 0.6
        },
        {
            "id": 17225,
            "original_name": "I'll Take Manhattan",
            "popularity": 0.866
        },
        {
            "id": 18172,
            "original_name": "Outtake TV",
            "popularity": 0.635
        },
        {
            "id": 18180,
            "original_name": "Halv \u00e5tta hos mig",
            "popularity": 2.056
        },
        {
            "id": 18410,
            "original_name": "Naughty Marietta",
            "popularity": 0.6
        },
        {
            "id": 19087,
            "original_name": "A Woman in Love and War: Vera Brittain",
            "popularity": 0.6
        },
        {
            "id": 19353,
            "original_name": "When Animals Attack!",
            "popularity": 0.6
        },
        {
            "id": 19482,
            "original_name": "La buona battaglia \u2013 Don Pietro Pappagallo",
            "popularity": 1.092
        },
        {
            "id": 21623,
            "original_name": "Attack of the Sabretooth",
            "popularity": 0.6
        },
        {
            "id": 21951,
            "original_name": "Outdoor Outtakes",
            "popularity": 0.6
        },
        {
            "id": 22866,
            "original_name": "Pinks All Outtakes",
            "popularity": 0.6
        },
        {
            "id": 23742,
            "original_name": "Matched in Manhattan",
            "popularity": 0.842
        },
        {
            "id": 23792,
            "original_name": "The Big Battalions",
            "popularity": 0.726
        },
        {
            "id": 24467,
            "original_name": "Manhattan Transfer",
            "popularity": 0.6
        },
        {
            "id": 25008,
            "original_name": "Three's Outtakes",
            "popularity": 0.6
        },
        {
            "id": 25622,
            "original_name": "You Gotta Be Jokin'",
            "popularity": 0.6
        },
        {
            "id": 25663,
            "original_name": "Art Attack With Lee Sandstead",
            "popularity": 0.6
        },
        {
            "id": 26406,
            "original_name": "The Terracotta Horse",
            "popularity": 1.164
        },
        {
            "id": 26630,
            "original_name": "Someone's Gotta Go",
            "popularity": 0.6
        },
        {
            "id": 27616,
            "original_name": "Letter to Loretta",
            "popularity": 1.938
        },
        {
            "id": 28778,
            "original_name": "Hurtta ja stara",
            "popularity": 0.6
        },
        {
            "id": 29377,
            "original_name": "Bug Attack",
            "popularity": 0.6
        },
        {
            "id": 29978,
            "original_name": "Vendetta",
            "popularity": 0.833
        },
        {
            "id": 30452,
            "original_name": "Lotta in Love",
            "popularity": 0.847
        },
        {
            "id": 30694,
            "original_name": "Huddle Up Nittany Lion Fans",
            "popularity": 0.6
        },
        {
            "id": 31215,
            "original_name": "Bayttaab Dil Kee Tamanna Hai",
            "popularity": 0.6
        },
        {
            "id": 31626,
            "original_name": "Manhattan, AZ",
            "popularity": 1.73
        },
        {
            "id": 31767,
            "original_name": "We'll Take Manhattan",
            "popularity": 0.84
        },
        {
            "id": 33169,
            "original_name": "Una Maid en Manhattan",
            "popularity": 1.69
        },
        {
            "id": 34895,
            "original_name": "The Unforgettable",
            "popularity": 0.6
        },
        {
            "id": 36726,
            "original_name": "Tom Grattan's War",
            "popularity": 0.6
        },
        {
            "id": 37209,
            "original_name": "Panic Attack",
            "popularity": 0.6
        },
        {
            "id": 37260,
            "original_name": "Gutta Boys",
            "popularity": 1.4
        },
        {
            "id": 37885,
            "original_name": "Kottan ermittelt",
            "popularity": 2.374
        },
        {
            "id": 38370,
            "original_name": "When Vacations Attack",
            "popularity": 0.6
        },
        {
            "id": 38740,
            "original_name": "Life in a Cottage Garden with Carol Klein",
            "popularity": 0.6
        },
        {
            "id": 38908,
            "original_name": "Vettai : Pledged to Hunt",
            "popularity": 0.6
        },
        {
            "id": 39276,
            "original_name": "Unforgettable",
            "popularity": 22.711
        },
        {
            "id": 40578,
            "original_name": "Buttafuori",
            "popularity": 1.287
        },
        {
            "id": 40864,
            "original_name": "Butta la luna",
            "popularity": 0.6
        },
        {
            "id": 41344,
            "original_name": "L'ottavo sigillo",
            "popularity": 0.6
        },
        {
            "id": 41411,
            "original_name": "Finch\u00e9 c'\u00e8 ditta c'\u00e8 speranza",
            "popularity": 1.4
        },
        {
            "id": 41569,
            "original_name": "Tracy e Polpetta",
            "popularity": 0.6
        },
        {
            "id": 41836,
            "original_name": "Attacks From The Future: Rinoplasticos",
            "popularity": 0.6
        },
        {
            "id": 41981,
            "original_name": "Shark Attack",
            "popularity": 0.83
        },
        {
            "id": 42853,
            "original_name": "When Ninjas Attack",
            "popularity": 0.6
        },
        {
            "id": 42914,
            "original_name": "Zettai Shonen",
            "popularity": 4.987
        },
        {
            "id": 43155,
            "original_name": "Vendetta",
            "popularity": 0.6
        },
        {
            "id": 43761,
            "original_name": "Attack on Leningrad",
            "popularity": 0.983
        },
        {
            "id": 44951,
            "original_name": "Kairi \u2014 Rishta Khatta Meetha",
            "popularity": 0.626
        },
        {
            "id": 45329,
            "original_name": "Get Fit with Brittas",
            "popularity": 0.883
        },
        {
            "id": 45369,
            "original_name": "Danger! Incoming Attack!",
            "popularity": 1.09
        },
        {
            "id": 46389,
            "original_name": "Once Upon a Time in Cabramatta",
            "popularity": 0.6
        },
        {
            "id": 46718,
            "original_name": "CBC News Ottawa at 5, 5:30, 6:00 - School Explosion",
            "popularity": 0.6
        },
        {
            "id": 46738,
            "original_name": "Unforgettable",
            "popularity": 0.6
        },
        {
            "id": 47529,
            "original_name": "The Unforgettable Nat 'King' Cole",
            "popularity": 0.6
        },
        {
            "id": 48060,
            "original_name": "Akechi mitsuhide: Kami ni ai sarenakatta otoko",
            "popularity": 0.6
        },
        {
            "id": 48201,
            "original_name": "Deatta koro no kimi de ite",
            "popularity": 0.6
        },
        {
            "id": 48763,
            "original_name": "The Very Best of the Ed Sullivan Show: Vol. 1: Unforgettable Performances",
            "popularity": 0.6
        },
        {
            "id": 49509,
            "original_name": "Yurttan D\u00fcnyadan",
            "popularity": 0.6
        },
        {
            "id": 50939,
            "original_name": "Csattan\u00f3",
            "popularity": 0.6
        },
        {
            "id": 51620,
            "original_name": "Kaette Kichatta",
            "popularity": 0.6
        },
        {
            "id": 52029,
            "original_name": "ScrewAttack's Top Ten",
            "popularity": 0.917
        },
        {
            "id": 52096,
            "original_name": "Extreme Animal Attacks",
            "popularity": 0.6
        },
        {
            "id": 52646,
            "original_name": "Naji Attallah's Squad",
            "popularity": 0.6
        },
        {
            "id": 52659,
            "original_name": "Hadret El Mottaham Abi",
            "popularity": 0.6
        },
        {
            "id": 53038,
            "original_name": "Klockan \u00c5tta Hos Stj\u00e4rnorna",
            "popularity": 0.6
        },
        {
            "id": 53078,
            "original_name": "River Cottage Australia",
            "popularity": 1.219
        },
        {
            "id": 53999,
            "original_name": "Al `Attar We Al Saba`a Banat",
            "popularity": 0.6
        },
        {
            "id": 54249,
            "original_name": "Batta Wa Akhwatuha",
            "popularity": 0.6
        },
        {
            "id": 54304,
            "original_name": "Lotta p\u00e5 Liseberg",
            "popularity": 0.6
        },
        {
            "id": 54490,
            "original_name": "Laugh Attack",
            "popularity": 0.6
        },
        {
            "id": 55000,
            "original_name": "Ilman kavaluutta",
            "popularity": 0.6
        },
        {
            "id": 55170,
            "original_name": "Berg flyttar in",
            "popularity": 0.6
        },
        {
            "id": 55373,
            "original_name": "You Gotta Eat Here!",
            "popularity": 1.192
        },
        {
            "id": 55862,
            "original_name": "Machigawarechatta Otoko",
            "popularity": 0.846
        },
        {
            "id": 56459,
            "original_name": "Batta w Akhwatha",
            "popularity": 0.6
        },
        {
            "id": 56500,
            "original_name": "T\u014dka Gettan",
            "popularity": 0.6
        },
        {
            "id": 57031,
            "original_name": "Manhattan Love Story",
            "popularity": 5.028
        },
        {
            "id": 57280,
            "original_name": "Miitta-t\u00e4ti",
            "popularity": 0.6
        },
        {
            "id": 57292,
            "original_name": "Martina & Esko: Vauvakuumetta",
            "popularity": 0.6
        },
        {
            "id": 58137,
            "original_name": "CBC News: Ottawa",
            "popularity": 0.6
        },
        {
            "id": 58458,
            "original_name": "Watta Job",
            "popularity": 0.6
        },
        {
            "id": 58613,
            "original_name": "Whattamen",
            "popularity": 0.6
        },
        {
            "id": 59736,
            "original_name": "You Gotta See This",
            "popularity": 0.6
        },
        {
            "id": 61112,
            "original_name": "Manhattan",
            "popularity": 9.458
        },
        {
            "id": 61610,
            "original_name": "Somebody's Gotta Do It",
            "popularity": 0.6
        },
        {
            "id": 61720,
            "original_name": "Violetta",
            "popularity": 24.328
        },
        {
            "id": 62027,
            "original_name": "Vettai 3.0",
            "popularity": 0.6
        },
        {
            "id": 64856,
            "original_name": "Player Attack",
            "popularity": 0.6
        },
        {
            "id": 64979,
            "original_name": "When Ghosts Attack",
            "popularity": 0.825
        },
        {
            "id": 66216,
            "original_name": "Tutta la verit\u00e0",
            "popularity": 0.903
        },
        {
            "id": 69778,
            "original_name": "Cavalli di battaglia",
            "popularity": 1.18
        },
        {
            "id": 70242,
            "original_name": "Tornado - en tittarstorm",
            "popularity": 1.22
        },
        {
            "id": 70280,
            "original_name": "Lotta p\u00e5 Br\u00e5kmakargatan",
            "popularity": 0.931
        },
        {
            "id": 72633,
            "original_name": "She's Gotta Have It",
            "popularity": 4.725
        },
        {
            "id": 73556,
            "original_name": "Vendetta Lametta",
            "popularity": 0.6
        },
        {
            "id": 73593,
            "original_name": "Vanderpump Rules Jax & Brittany Take Kentucky",
            "popularity": 0.6
        },
        {
            "id": 73788,
            "original_name": "Attaques \u00e0 main arm\u00e9e",
            "popularity": 0.6
        },
        {
            "id": 74056,
            "original_name": "Les chefs contre-attaquent",
            "popularity": 0.6
        },
        {
            "id": 74660,
            "original_name": "Stiletto Vendetta",
            "popularity": 10.117
        },
        {
            "id": 77189,
            "original_name": "En ettas dagbok",
            "popularity": 0.6
        },
        {
            "id": 77363,
            "original_name": "Vendetta: Secrets of a Mafia Bride",
            "popularity": 0.87
        },
        {
            "id": 78612,
            "original_name": "Abby & Brittany",
            "popularity": 0.84
        },
        {
            "id": 78732,
            "original_name": "Sommerhytta",
            "popularity": 0.979
        },
        {
            "id": 79571,
            "original_name": "Antti Holma ja maastamuuttajat",
            "popularity": 0.6
        },
        {
            "id": 80582,
            "original_name": "Il pi\u00f9 grande spettacolo dopo il weekend",
            "popularity": 0.6
        },
        {
            "id": 82109,
            "original_name": "Hero o Tsukutta Otoko Ishinomori Shotaro",
            "popularity": 0.6
        },
        {
            "id": 82265,
            "original_name": "Iris & Violetta",
            "popularity": 1.067
        },
        {
            "id": 82806,
            "original_name": "Tutta colpa di Einstein",
            "popularity": 0.607
        },
        {
            "id": 83160,
            "original_name": "Tutta colpa di Galileo",
            "popularity": 0.6
        },
        {
            "id": 83299,
            "original_name": "Tutta colpa di Darwin",
            "popularity": 0.6
        },
        {
            "id": 83653,
            "original_name": "Vai Anitta",
            "popularity": 1.72
        },
        {
            "id": 84477,
            "original_name": "Honto ni Atta Kowai Hanashi 2009 10th Anniversary",
            "popularity": 0.6
        },
        {
            "id": 84478,
            "original_name": "Honto ni Atta Kowai Hanashi 2013",
            "popularity": 0.6
        },
        {
            "id": 86821,
            "original_name": "Journal Journey with Rattawan",
            "popularity": 0.6
        },
        {
            "id": 87282,
            "original_name": "Gabby Duran and the Unsittables",
            "popularity": 18.869
        },
        {
            "id": 87816,
            "original_name": "Yuttakarn Prab Nang Marn (2018)",
            "popularity": 0.6
        },
        {
            "id": 88434,
            "original_name": "Rai Pipol - Lo spettacolo siete noi",
            "popularity": 0.6
        },
        {
            "id": 88573,
            "original_name": "Les Princes \u00e0 Calcutta",
            "popularity": 0.6
        },
        {
            "id": 88749,
            "original_name": "Police Code Zero: Officer Under Attack",
            "popularity": 0.84
        },
        {
            "id": 89276,
            "original_name": "Vrak Attak",
            "popularity": 1.199
        },
        {
            "id": 89565,
            "original_name": "P\u00e5 jakt med Lotta och Leif",
            "popularity": 0.6
        },
        {
            "id": 90905,
            "original_name": "The Nile: Egypt's Great River with Bettany Hughes",
            "popularity": 1.4
        },
        {
            "id": 91181,
            "original_name": "When Sharks Attack",
            "popularity": 1.334
        },
        {
            "id": 92777,
            "original_name": "Les combattants : la rel\u00e8ve",
            "popularity": 0.862
        },
        {
            "id": 94134,
            "original_name": "Snack Attack",
            "popularity": 0.862
        },
        {
            "id": 94563,
            "original_name": "R\u00e4tta virket",
            "popularity": 0.614
        },
        {
            "id": 96493,
            "original_name": "Anitta Entrou no Grupo",
            "popularity": 1.193
        },
        {
            "id": 98761,
            "original_name": "Les combattants de l'ombre - Des r\u00e9sistants europ\u00e9ens contre le nazisme",
            "popularity": 0.6
        },
        {
            "id": 98803,
            "original_name": "Black Hollywood: 'They've Gotta Have Us'",
            "popularity": 2.306
        },
        {
            "id": 99905,
            "original_name": "It Happened in Calcutta",
            "popularity": 1.4
        },
        {
            "id": 100032,
            "original_name": "Port d'attache",
            "popularity": 0.846
        },
        {
            "id": 100375,
            "original_name": "L'Attaque",
            "popularity": 0.884
        },
        {
            "id": 100533,
            "original_name": "Unforgettable Journeys",
            "popularity": 0.6
        },
        {
            "id": 100587,
            "original_name": "Shark Attack",
            "popularity": 0.6
        },
        {
            "id": 100592,
            "original_name": "Betsu ni Anta no Tame ni Ookiku Nattan Janain Dakara ne!!",
            "popularity": 0.6
        },
        {
            "id": 100766,
            "original_name": "Agenternas v\u00e4rldskrig - Jan Guillou ber\u00e4ttar",
            "popularity": 0.6
        },
        {
            "id": 101006,
            "original_name": "Hontou ni Atta Hitozuma Furin Kokuhaku",
            "popularity": 0.6
        },
        {
            "id": 101953,
            "original_name": "Italia in guerra: battaglie 1940-1942",
            "popularity": 0.6
        },
        {
            "id": 103475,
            "original_name": "Wachzimmer Ottakring",
            "popularity": 0.6
        },
        {
            "id": 103502,
            "original_name": "Anitta Dentro da Casinha",
            "popularity": 0.625
        },
        {
            "id": 103658,
            "original_name": "Turvetta ja timantteja",
            "popularity": 0.6
        },
        {
            "id": 103797,
            "original_name": "Attaway General",
            "popularity": 2.376
        },
        {
            "id": 104193,
            "original_name": "Art Attack Espa\u00f1a",
            "popularity": 1.183
        },
        {
            "id": 104403,
            "original_name": "Mangala Gowri Maduve (Putta Gowri Maduve)",
            "popularity": 1.094
        },
        {
            "id": 105002,
            "original_name": "ZDF-Mittagsmagazin",
            "popularity": 7.142
        },
        {
            "id": 105686,
            "original_name": "Please Find Attached",
            "popularity": 1.4
        },
        {
            "id": 105732,
            "original_name": "Chai Sutta Chronicles",
            "popularity": 0.6
        },
        {
            "id": 106558,
            "original_name": "Attack and Defend",
            "popularity": 0.6
        },
        {
            "id": 107611,
            "original_name": "Cucina Buttata",
            "popularity": 0.612
        },
        {
            "id": 108822,
            "original_name": "Doc Vadeboncoeur contre-attaque!",
            "popularity": 0.982
        },
        {
            "id": 108927,
            "original_name": "The Nod with Brittany & Eric",
            "popularity": 0.6
        },
        {
            "id": 111357,
            "original_name": "Devlok With Devdutt Pattanaik",
            "popularity": 1.148
        },
        {
            "id": 112765,
            "original_name": "Natta, Norge",
            "popularity": 0.6
        },
        {
            "id": 113415,
            "original_name": "Anitta: Made in Hon\u00f3rio",
            "popularity": 1.877
        },
        {
            "id": 113633,
            "original_name": "Metta da fein",
            "popularity": 0.84
        },
        {
            "id": 113957,
            "original_name": "Mein Nachmittag",
            "popularity": 3.529
        },
        {
            "id": 114608,
            "original_name": "Gutta p\u00e5 Tur",
            "popularity": 0.631
        },
        {
            "id": 114786,
            "original_name": "La cittadella",
            "popularity": 0.6
        },
        {
            "id": 115108,
            "original_name": "Attache ta tuque",
            "popularity": 0.6
        },
        {
            "id": 115744,
            "original_name": "River Cottage",
            "popularity": 1.4
        },
        {
            "id": 116519,
            "original_name": "Die Yottas! \u2013 Mit Vollgas durch Amerika",
            "popularity": 0.6
        },
        {
            "id": 116886,
            "original_name": "J\u00f6ttem L\u00e1ttam Buktam",
            "popularity": 0.6
        },
        {
            "id": 117636,
            "original_name": "Scienza Brutta",
            "popularity": 1.4
        },
        {
            "id": 117842,
            "original_name": "Tutta colpa di Freud",
            "popularity": 3.334
        },
        {
            "id": 118563,
            "original_name": "Pupetta - Il Coraggio e la passione",
            "popularity": 0.6
        },
        {
            "id": 118662,
            "original_name": "Ikke lov \u00e5 le p\u00e5 hytta",
            "popularity": 1.635
        },
        {
            "id": 118841,
            "original_name": "Pakanamaan kartta",
            "popularity": 1.487
        },
        {
            "id": 119689,
            "original_name": "Maan mitta",
            "popularity": 1.133
        },
        {
            "id": 119757,
            "original_name": "Attack on Fortress Europe: From D-Day to V.E. Day",
            "popularity": 0.6
        },
        {
            "id": 119921,
            "original_name": "Suurin pudottaja Suomi",
            "popularity": 0.6
        },
        {
            "id": 120578,
            "original_name": "Nattarbeiderne",
            "popularity": 0.6
        },
        {
            "id": 121960,
            "original_name": "Dr\u00f8mmehytta",
            "popularity": 0.6
        },
        {
            "id": 121999,
            "original_name": "Whatta Lark",
            "popularity": 0.6
        },
        {
            "id": 122807,
            "original_name": "Charlotta \u00d7 8",
            "popularity": 0.84
        },
        {
            "id": 122860,
            "original_name": "Hasya Katta Official",
            "popularity": 0.6
        },
        {
            "id": 124927,
            "original_name": "Apocalypse, Hitler Attaque \u00e0 l'Ouest",
            "popularity": 2.18
        },
        {
            "id": 126264,
            "original_name": "#theOUTtalk",
            "popularity": 0.6
        },
        {
            "id": 126351,
            "original_name": "New Attacker YOU!",
            "popularity": 1.4
        },
        {
            "id": 127241,
            "original_name": "Violetta: Momentos favoritos",
            "popularity": 7.307
        },
        {
            "id": 127637,
            "original_name": "Shark Attack Files",
            "popularity": 5.062
        },
        {
            "id": 127914,
            "original_name": "Murder at the Cottage: The Search for Justice for Sophie",
            "popularity": 9.761
        },
        {
            "id": 128153,
            "original_name": "Montreal Boy: Some Strings Attached",
            "popularity": 0.6
        },
        {
            "id": 130081,
            "original_name": "Vargattacken p\u00e5 Kolm\u00e5rden",
            "popularity": 0.6
        },
        {
            "id": 130311,
            "original_name": "Un amore e una vendetta",
            "popularity": 0.6
        },
        {
            "id": 130786,
            "original_name": "When Predators Attack",
            "popularity": 0.6
        },
        {
            "id": 131062,
            "original_name": "Decameron di Daniele Luttazzi",
            "popularity": 0.634
        },
        {
            "id": 131276,
            "original_name": "Chiyu Mahou no Machigatta Tsukaikata",
            "popularity": 1.34
        },
        {
            "id": 131875,
            "original_name": "What Happened, Brittany Murphy?",
            "popularity": 4.069
        },
        {
            "id": 132013,
            "original_name": "Vendetta: Truth, Lies and The Mafia",
            "popularity": 2.337
        },
        {
            "id": 132194,
            "original_name": "Bettany Hughes' Treasures of the World",
            "popularity": 0.96
        },
        {
            "id": 132837,
            "original_name": "Totalt v\u00e4rdel\u00f6st \u2013 Schl\u00e4ttas fetaste hot rod",
            "popularity": 0.6
        },
        {
            "id": 135459,
            "original_name": "Em Casa com Nelson Motta",
            "popularity": 0.6
        },
        {
            "id": 136396,
            "original_name": "Art Attack: Modo desaf\u00edo",
            "popularity": 0.6
        },
        {
            "id": 136522,
            "original_name": "Art Attack: Modo Desafio",
            "popularity": 0.6
        },
        {
            "id": 136554,
            "original_name": "Apocalypse, Hitler Attaque \u00e0 l\u2019Est",
            "popularity": 4.852
        },
        {
            "id": 136614,
            "original_name": "Street Outlaws: No Prep Kings: Team Attack",
            "popularity": 3.485
        },
        {
            "id": 138104,
            "original_name": "I survived An Animal Attack",
            "popularity": 0.811
        },
        {
            "id": 138360,
            "original_name": "Britta Og De Forsvundne Millioner",
            "popularity": 2.167
        },
        {
            "id": 138852,
            "original_name": "Utta Danella",
            "popularity": 1.113
        },
        {
            "id": 139132,
            "original_name": "Attack on Pearl Harbor: Minute by Minute",
            "popularity": 10.332
        }
    ],
    "relations": [
        {
            "character": "ttas"
        },
        {
            "character": "ttac"
        },
        {
            "character": "ttag"
        },
        {
            "character": "ttan"
        },
        {
            "character": "ttad"
        },
        {
            "character": "ttai"
        },
        {
            "character": "ttab"
        },
        {
            "character": "ttak"
        },
        {
            "character": "ttal"
        },
        {
            "character": "ttaa"
        },
        {
            "character": "ttaf"
        },
        {
            "character": "ttav"
        },
        {
            "character": "ttaw"
        },
        {
            "character": "ttah"
        },
        {
            "character": "ttar"
        },
        {
            "character": "ttam"
        },
        {
            "character": "ttaq"
        },
        {
            "character": "ttaj"
        },
        {
            "character": "ttat"
        },
        {
            "character": "ttaz"
        }
    ],
    "top20": [
        {
            "id": 61720,
            "original_name": "Violetta",
            "popularity": 24.328
        },
        {
            "id": 39276,
            "original_name": "Unforgettable",
            "popularity": 22.711
        },
        {
            "id": 87282,
            "original_name": "Gabby Duran and the Unsittables",
            "popularity": 18.869
        },
        {
            "id": 3216,
            "original_name": "Baretta",
            "popularity": 11.538
        },
        {
            "id": 139132,
            "original_name": "Attack on Pearl Harbor: Minute by Minute",
            "popularity": 10.332
        },
        {
            "id": 74660,
            "original_name": "Stiletto Vendetta",
            "popularity": 10.117
        },
        {
            "id": 127914,
            "original_name": "Murder at the Cottage: The Search for Justice for Sophie",
            "popularity": 9.761
        },
        {
            "id": 61112,
            "original_name": "Manhattan",
            "popularity": 9.458
        },
        {
            "id": 127241,
            "original_name": "Violetta: Momentos favoritos",
            "popularity": 7.307
        },
        {
            "id": 105002,
            "original_name": "ZDF-Mittagsmagazin",
            "popularity": 7.142
        },
        {
            "id": 245,
            "original_name": "The Brittas Empire",
            "popularity": 6.512
        },
        {
            "id": 1780,
            "original_name": "Art Attack",
            "popularity": 5.151
        },
        {
            "id": 127637,
            "original_name": "Shark Attack Files",
            "popularity": 5.062
        },
        {
            "id": 57031,
            "original_name": "Manhattan Love Story",
            "popularity": 5.028
        },
        {
            "id": 42914,
            "original_name": "Zettai Shonen",
            "popularity": 4.987
        },
        {
            "id": 12451,
            "original_name": "Cattanooga Cats",
            "popularity": 4.858
        },
        {
            "id": 136554,
            "original_name": "Apocalypse, Hitler Attaque \u00e0 l\u2019Est",
            "popularity": 4.852
        },
        {
            "id": 72633,
            "original_name": "She's Gotta Have It",
            "popularity": 4.725
        },
        {
            "id": 131875,
            "original_name": "What Happened, Brittany Murphy?",
            "popularity": 4.069
        },
        {
            "id": 13453,
            "original_name": "Attack of the Show!",
            "popularity": 3.647
        }
    ]
}