{
    "data": [
        {
            "id": 18595,
            "original_name": "Chittod Ki Rani Padmini Ka Johur",
            "popularity": 0.6
        },
        {
            "id": 58081,
            "original_name": "TuttoDante",
            "popularity": 0.6
        }
    ],
    "relations": [],
    "top20": [
        {
            "id": 18595,
            "original_name": "Chittod Ki Rani Padmini Ka Johur",
            "popularity": 0.6
        },
        {
            "id": 58081,
            "original_name": "TuttoDante",
            "popularity": 0.6
        }
    ]
}