{
    "data": [
        {
            "id": 37176,
            "original_name": "Tangerudbakken borettslag",
            "popularity": 1.771
        },
        {
            "id": 44155,
            "original_name": "Borettslaget",
            "popularity": 2.069
        }
    ],
    "relations": [],
    "top20": [
        {
            "id": 37176,
            "original_name": "Tangerudbakken borettslag",
            "popularity": 1.771
        },
        {
            "id": 44155,
            "original_name": "Borettslaget",
            "popularity": 2.069
        }
    ]
}