{
    "data": [
        {
            "id": 87886,
            "original_name": "#TubeClash02 - Behind the Scenes",
            "popularity": 0.634
        },
        {
            "id": 87887,
            "original_name": "#TubeClash - Wie alles begann",
            "popularity": 0.6
        },
        {
            "id": 87894,
            "original_name": "#TubeClash Creator's Commentary",
            "popularity": 0.6
        },
        {
            "id": 99504,
            "original_name": "TubeClash",
            "popularity": 0.883
        }
    ],
    "relations": [],
    "top20": [
        {
            "id": 87886,
            "original_name": "#TubeClash02 - Behind the Scenes",
            "popularity": 0.634
        },
        {
            "id": 87887,
            "original_name": "#TubeClash - Wie alles begann",
            "popularity": 0.6
        },
        {
            "id": 87894,
            "original_name": "#TubeClash Creator's Commentary",
            "popularity": 0.6
        },
        {
            "id": 99504,
            "original_name": "TubeClash",
            "popularity": 0.883
        }
    ]
}