{
    "data": [
        {
            "id": 3637,
            "original_name": "Attitudes",
            "popularity": 0.6
        },
        {
            "id": 17827,
            "original_name": "Anglo Saxon Attitudes",
            "popularity": 2.705
        },
        {
            "id": 44075,
            "original_name": "Animal Stories: Awesome Attitudes",
            "popularity": 0.6
        }
    ],
    "relations": [],
    "top20": [
        {
            "id": 3637,
            "original_name": "Attitudes",
            "popularity": 0.6
        },
        {
            "id": 17827,
            "original_name": "Anglo Saxon Attitudes",
            "popularity": 2.705
        },
        {
            "id": 44075,
            "original_name": "Animal Stories: Awesome Attitudes",
            "popularity": 0.6
        }
    ]
}