{
    "data": [
        {
            "id": 5692,
            "original_name": "Tales From Fat Tulip's Garden",
            "popularity": 0.6
        },
        {
            "id": 27160,
            "original_name": "The Black Tulip",
            "popularity": 0.84
        },
        {
            "id": 54076,
            "original_name": "Duudsonit tuli taloon",
            "popularity": 0.6
        },
        {
            "id": 57510,
            "original_name": "Blondi tuli taloon",
            "popularity": 0.6
        },
        {
            "id": 71303,
            "original_name": "Tulipan",
            "popularity": 0.742
        }
    ],
    "relations": [],
    "top20": [
        {
            "id": 5692,
            "original_name": "Tales From Fat Tulip's Garden",
            "popularity": 0.6
        },
        {
            "id": 27160,
            "original_name": "The Black Tulip",
            "popularity": 0.84
        },
        {
            "id": 54076,
            "original_name": "Duudsonit tuli taloon",
            "popularity": 0.6
        },
        {
            "id": 57510,
            "original_name": "Blondi tuli taloon",
            "popularity": 0.6
        },
        {
            "id": 71303,
            "original_name": "Tulipan",
            "popularity": 0.742
        }
    ]
}