{
    "data": [
        {
            "id": 101256,
            "original_name": "Gatumat & Gourmet",
            "popularity": 6.133
        }
    ],
    "relations": [],
    "top20": [
        {
            "id": 101256,
            "original_name": "Gatumat & Gourmet",
            "popularity": 6.133
        }
    ]
}