{
    "data": [
        {
            "id": 49991,
            "original_name": "Kutunggu Kau di Pasar Minggu",
            "popularity": 0.6
        }
    ],
    "relations": [],
    "top20": [
        {
            "id": 49991,
            "original_name": "Kutunggu Kau di Pasar Minggu",
            "popularity": 0.6
        }
    ]
}