{
    "data": [
        {
            "id": 2691,
            "original_name": "Two and a Half Men",
            "popularity": 124.186
        },
        {
            "id": 89247,
            "original_name": "Batwoman",
            "popularity": 115.237
        },
        {
            "id": 63247,
            "original_name": "Westworld",
            "popularity": 92.923
        },
        {
            "id": 1920,
            "original_name": "Twin Peaks",
            "popularity": 69.014
        },
        {
            "id": 136375,
            "original_name": "Twenties After-Show With B. Scott",
            "popularity": 55.59
        },
        {
            "id": 129676,
            "original_name": "Otw\u00f3rz oczy",
            "popularity": 45.492
        },
        {
            "id": 1918,
            "original_name": "The Twilight Zone",
            "popularity": 35.188
        },
        {
            "id": 100002,
            "original_name": "Twenties",
            "popularity": 27.66
        },
        {
            "id": 6357,
            "original_name": "The Twilight Zone",
            "popularity": 26.732
        },
        {
            "id": 16399,
            "original_name": "The Twilight Zone",
            "popularity": 25.934
        },
        {
            "id": 83135,
            "original_name": "The Twilight Zone",
            "popularity": 24.736
        },
        {
            "id": 111311,
            "original_name": "Between the Covers",
            "popularity": 24.538
        },
        {
            "id": 44856,
            "original_name": "Wentworth",
            "popularity": 24.314
        },
        {
            "id": 75,
            "original_name": "Two Guys and a Girl",
            "popularity": 19.739
        },
        {
            "id": 81358,
            "original_name": "Mr Inbetween",
            "popularity": 18.049
        },
        {
            "id": 7317,
            "original_name": "The Inbetweeners",
            "popularity": 16.574
        },
        {
            "id": 62433,
            "original_name": "Between",
            "popularity": 16.09
        },
        {
            "id": 134369,
            "original_name": "Roaring Twenties",
            "popularity": 13.222
        },
        {
            "id": 19194,
            "original_name": "The Twentieth Century",
            "popularity": 12.959
        },
        {
            "id": 9867,
            "original_name": "The Sylvester & Tweety Mysteries",
            "popularity": 12.54
        },
        {
            "id": 90961,
            "original_name": "Two Sentence Horror Stories",
            "popularity": 12.305
        },
        {
            "id": 79928,
            "original_name": "Take Two",
            "popularity": 11.989
        },
        {
            "id": 70390,
            "original_name": "Somewhere Between",
            "popularity": 11.418
        },
        {
            "id": 93520,
            "original_name": "Ghostwriter",
            "popularity": 10.512
        },
        {
            "id": 18186,
            "original_name": "Eastwick",
            "popularity": 9.905
        },
        {
            "id": 81947,
            "original_name": "The InBetween",
            "popularity": 9.833
        },
        {
            "id": 13296,
            "original_name": "Oliver Twist",
            "popularity": 9.78
        },
        {
            "id": 127616,
            "original_name": "42 - Die Antwort auf fast alles",
            "popularity": 9.633
        },
        {
            "id": 39754,
            "original_name": "Between Two Ferns with Zach Galifianakis",
            "popularity": 9.612
        },
        {
            "id": 11187,
            "original_name": "The Twisted Tales of Felix the Cat",
            "popularity": 9.342
        },
        {
            "id": 11196,
            "original_name": "Catweazle",
            "popularity": 9.087
        },
        {
            "id": 94551,
            "original_name": "De Twaalf",
            "popularity": 8.661
        },
        {
            "id": 3003,
            "original_name": "The Cramp Twins",
            "popularity": 8.519
        },
        {
            "id": 2997,
            "original_name": "Between the Lines",
            "popularity": 8.385
        },
        {
            "id": 10000,
            "original_name": "Twice in a Lifetime",
            "popularity": 8.325
        },
        {
            "id": 34406,
            "original_name": "Take Two with Phineas and Ferb",
            "popularity": 8.095
        },
        {
            "id": 46661,
            "original_name": "Twisted",
            "popularity": 8.063
        },
        {
            "id": 2690,
            "original_name": "The Two Ronnies",
            "popularity": 7.795
        },
        {
            "id": 100060,
            "original_name": "TWICE TV",
            "popularity": 7.577
        },
        {
            "id": 598,
            "original_name": "Two Pints of Lager and a Packet of Crisps",
            "popularity": 7.515
        },
        {
            "id": 128093,
            "original_name": "Twisted Fiction",
            "popularity": 7.512
        },
        {
            "id": 1862,
            "original_name": "My Two Dads",
            "popularity": 7.312
        },
        {
            "id": 17436,
            "original_name": "Jimmy Two-Shoes",
            "popularity": 6.992
        },
        {
            "id": 91445,
            "original_name": "Two Weeks to Live",
            "popularity": 6.656
        },
        {
            "id": 85519,
            "original_name": "The Other Two",
            "popularity": 6.338
        },
        {
            "id": 38210,
            "original_name": "Twenty Twelve",
            "popularity": 6.317
        },
        {
            "id": 11884,
            "original_name": "Battle of the Network Stars",
            "popularity": 6.17
        },
        {
            "id": 64089,
            "original_name": "Nachtwacht",
            "popularity": 5.772
        },
        {
            "id": 2141,
            "original_name": "Two of a Kind",
            "popularity": 5.668
        },
        {
            "id": 13880,
            "original_name": "Oliver Twist",
            "popularity": 5.621
        },
        {
            "id": 127452,
            "original_name": "Ally and Herring\u2019s Twitch of Fun",
            "popularity": 5.598
        },
        {
            "id": 139599,
            "original_name": "Westwall",
            "popularity": 5.508
        },
        {
            "id": 4682,
            "original_name": "Strictly Come Dancing: It Takes Two",
            "popularity": 5.412
        },
        {
            "id": 13905,
            "original_name": "Twelve O'Clock High",
            "popularity": 5.41
        },
        {
            "id": 117174,
            "original_name": "Cartoon Network to the Rescue",
            "popularity": 5.342
        },
        {
            "id": 38952,
            "original_name": "The Inbetweeners",
            "popularity": 5.121
        },
        {
            "id": 4563,
            "original_name": "Never the Twain",
            "popularity": 5.074
        },
        {
            "id": 695,
            "original_name": "Round the Twist",
            "popularity": 5.054
        },
        {
            "id": 66119,
            "original_name": "Two Doors Down",
            "popularity": 4.91
        },
        {
            "id": 3925,
            "original_name": "Ghostwriter",
            "popularity": 4.906
        },
        {
            "id": 61945,
            "original_name": "Vorstadtweiber",
            "popularity": 4.726
        },
        {
            "id": 129604,
            "original_name": "Ada Twist, Scientist",
            "popularity": 4.656
        },
        {
            "id": 26927,
            "original_name": "The Bugs Bunny and Tweety Show",
            "popularity": 4.516
        },
        {
            "id": 103812,
            "original_name": "Wortwechsel",
            "popularity": 4.44
        },
        {
            "id": 3018,
            "original_name": "Twins",
            "popularity": 4.404
        },
        {
            "id": 28047,
            "original_name": "Home Farm Twins",
            "popularity": 4.38
        },
        {
            "id": 4302,
            "original_name": "Between the Lions",
            "popularity": 4.25
        },
        {
            "id": 22940,
            "original_name": "SCTV Network 90",
            "popularity": 4.236
        },
        {
            "id": 366,
            "original_name": "Tweenies",
            "popularity": 4.231
        },
        {
            "id": 85043,
            "original_name": "Czu\u0142o\u015b\u0107 i k\u0142amstwa",
            "popularity": 3.973
        },
        {
            "id": 152371,
            "original_name": "Live from Aberystwyth Pier",
            "popularity": 3.842
        },
        {
            "id": 91656,
            "original_name": "Twelve Forever",
            "popularity": 3.794
        },
        {
            "id": 74232,
            "original_name": "Twenty",
            "popularity": 3.776
        },
        {
            "id": 24130,
            "original_name": "Wild Arms - Twilight Venom",
            "popularity": 3.695
        },
        {
            "id": 13350,
            "original_name": "Jacob Two-Two",
            "popularity": 3.682
        },
        {
            "id": 30019,
            "original_name": "It Takes Two",
            "popularity": 3.579
        },
        {
            "id": 61281,
            "original_name": "The Hotwives of Orlando",
            "popularity": 3.569
        },
        {
            "id": 89091,
            "original_name": "Twoja Twarz Brzmi Znajomo",
            "popularity": 3.361
        },
        {
            "id": 135731,
            "original_name": "Poongryu - Battle Between the Vocalists",
            "popularity": 3.318
        },
        {
            "id": 411,
            "original_name": "Beyond Westworld",
            "popularity": 3.223
        },
        {
            "id": 2383,
            "original_name": "Two",
            "popularity": 3.123
        },
        {
            "id": 139159,
            "original_name": "Twins of Gold",
            "popularity": 3.076
        },
        {
            "id": 6571,
            "original_name": "Food Network Challenge",
            "popularity": 2.99
        },
        {
            "id": 13701,
            "original_name": "Guestward, Ho!",
            "popularity": 2.933
        },
        {
            "id": 2575,
            "original_name": "Between Brothers",
            "popularity": 2.814
        },
        {
            "id": 43712,
            "original_name": "Screen Two",
            "popularity": 2.724
        },
        {
            "id": 4733,
            "original_name": "Food Network Star",
            "popularity": 2.661
        },
        {
            "id": 11852,
            "original_name": "Twitch City",
            "popularity": 2.64
        },
        {
            "id": 10915,
            "original_name": "The Edison Twins",
            "popularity": 2.631
        },
        {
            "id": 40794,
            "original_name": "NightWash",
            "popularity": 2.619
        },
        {
            "id": 18666,
            "original_name": "Two's Company",
            "popularity": 2.601
        },
        {
            "id": 31873,
            "original_name": "The Two of Us",
            "popularity": 2.582
        },
        {
            "id": 77210,
            "original_name": "Twist of Fate",
            "popularity": 2.565
        },
        {
            "id": 105699,
            "original_name": "TIME TO TWICE",
            "popularity": 2.535
        },
        {
            "id": 79226,
            "original_name": "Twisted",
            "popularity": 2.493
        },
        {
            "id": 75390,
            "original_name": "The Hotwives of Las Vegas",
            "popularity": 2.437
        },
        {
            "id": 76634,
            "original_name": "Twenty Thousand Streets Under The Sky",
            "popularity": 2.426
        },
        {
            "id": 1710,
            "original_name": "Twenty Good Years",
            "popularity": 2.399
        },
        {
            "id": 95233,
            "original_name": "Two Steps from Heaven",
            "popularity": 2.315
        },
        {
            "id": 97292,
            "original_name": "Twice \u2013 Lost:Time",
            "popularity": 2.312
        },
        {
            "id": 37207,
            "original_name": "Tajemnica Twierdzy Szyfr\u00f3w",
            "popularity": 2.31
        },
        {
            "id": 32145,
            "original_name": "Room for Two",
            "popularity": 2.276
        },
        {
            "id": 68739,
            "original_name": "Game Two",
            "popularity": 2.267
        },
        {
            "id": 137672,
            "original_name": "Once Upon a Twilight",
            "popularity": 2.26
        },
        {
            "id": 13361,
            "original_name": "Catwalk",
            "popularity": 2.229
        },
        {
            "id": 26633,
            "original_name": "Twisted Tales",
            "popularity": 2.186
        },
        {
            "id": 19324,
            "original_name": "Oliver Twist",
            "popularity": 2.18
        },
        {
            "id": 41353,
            "original_name": "Reed Between the Lines",
            "popularity": 2.14
        },
        {
            "id": 29760,
            "original_name": "Two of Us",
            "popularity": 2.092
        },
        {
            "id": 83061,
            "original_name": "FIGHTWORLD",
            "popularity": 2.058
        },
        {
            "id": 19070,
            "original_name": "Two Thousand Acres of Sky",
            "popularity": 2.035
        },
        {
            "id": 106498,
            "original_name": "Between Two Worlds",
            "popularity": 1.96
        },
        {
            "id": 17484,
            "original_name": "Two Faces West",
            "popularity": 1.896
        },
        {
            "id": 23595,
            "original_name": "A Tale of Two Cities",
            "popularity": 1.884
        },
        {
            "id": 94927,
            "original_name": "\u7d76\u6ec5\u5371\u611a\u5c11\u5973 Amazing Twins",
            "popularity": 1.884
        },
        {
            "id": 72863,
            "original_name": "O mnie si\u0119 nie martw",
            "popularity": 1.85
        },
        {
            "id": 6539,
            "original_name": "Between The Sheets",
            "popularity": 1.783
        },
        {
            "id": 43832,
            "original_name": "Dark Matters: Twisted But True",
            "popularity": 1.747
        },
        {
            "id": 111708,
            "original_name": "Kr\u00f3lestwo kobiet",
            "popularity": 1.747
        },
        {
            "id": 81240,
            "original_name": "Twirlywoos",
            "popularity": 1.729
        },
        {
            "id": 6070,
            "original_name": "Oliver's Twist",
            "popularity": 1.705
        },
        {
            "id": 72616,
            "original_name": "Battle of the Network Stars",
            "popularity": 1.697
        },
        {
            "id": 64259,
            "original_name": "Riftworld Chronicles",
            "popularity": 1.69
        },
        {
            "id": 41075,
            "original_name": "Notarztwagen 7",
            "popularity": 1.61
        },
        {
            "id": 92157,
            "original_name": "Two Sentence Horror Stories",
            "popularity": 1.609
        },
        {
            "id": 94495,
            "original_name": "TWIN",
            "popularity": 1.551
        },
        {
            "id": 2088,
            "original_name": "Three Up, Two Down",
            "popularity": 1.546
        },
        {
            "id": 19450,
            "original_name": "The Two Coreys",
            "popularity": 1.525
        },
        {
            "id": 3532,
            "original_name": "The New Ghostwriter Mysteries",
            "popularity": 1.494
        },
        {
            "id": 20255,
            "original_name": "twentyfourseven",
            "popularity": 1.492
        },
        {
            "id": 4692,
            "original_name": "Twice a Fortnight",
            "popularity": 1.4
        },
        {
            "id": 11623,
            "original_name": "Knightwatch",
            "popularity": 1.4
        },
        {
            "id": 27848,
            "original_name": "Testimony of Two Men",
            "popularity": 1.4
        },
        {
            "id": 59652,
            "original_name": "Inside Gatwick",
            "popularity": 1.4
        },
        {
            "id": 113175,
            "original_name": "Entweder Broder",
            "popularity": 1.4
        },
        {
            "id": 117491,
            "original_name": "Il Gatto Su Twitch",
            "popularity": 1.4
        },
        {
            "id": 153583,
            "original_name": "Jonas Brothers: Moments Between the Moments",
            "popularity": 1.4
        },
        {
            "id": 154460,
            "original_name": "Kustwacht Caribisch Nederland",
            "popularity": 1.4
        },
        {
            "id": 154811,
            "original_name": "Streetwise",
            "popularity": 1.4
        },
        {
            "id": 155045,
            "original_name": "Twisted Killers",
            "popularity": 1.4
        },
        {
            "id": 155780,
            "original_name": "Batwheels",
            "popularity": 1.4
        },
        {
            "id": 155945,
            "original_name": "Mystery Twin Bin",
            "popularity": 1.4
        },
        {
            "id": 156962,
            "original_name": "\ud22c\ud22c(To.two)",
            "popularity": 1.4
        },
        {
            "id": 157258,
            "original_name": "Den beste Funkytwin",
            "popularity": 1.4
        },
        {
            "id": 157516,
            "original_name": "Love, Life & Everything in Between",
            "popularity": 1.4
        },
        {
            "id": 158219,
            "original_name": "Die Hitwisser",
            "popularity": 1.4
        },
        {
            "id": 158280,
            "original_name": "Two Conjectures About Marriage",
            "popularity": 1.4
        },
        {
            "id": 158396,
            "original_name": "Krakowskie potwory",
            "popularity": 1.4
        },
        {
            "id": 158763,
            "original_name": "Love, Life & Everything in Between",
            "popularity": 1.4
        },
        {
            "id": 158929,
            "original_name": "Magnolia Network: A Look Ahead",
            "popularity": 1.4
        },
        {
            "id": 199326,
            "original_name": "Tweede Hans",
            "popularity": 1.4
        },
        {
            "id": 203944,
            "original_name": "Two Sides",
            "popularity": 1.4
        },
        {
            "id": 205470,
            "original_name": "Het Beste Antwoord!",
            "popularity": 1.4
        },
        {
            "id": 207915,
            "original_name": "Paid Software 2022 Free Download Here",
            "popularity": 1.4
        },
        {
            "id": 209680,
            "original_name": "Time to Twice: Tdoong Tour",
            "popularity": 1.4
        },
        {
            "id": 211718,
            "original_name": "Straight Outta Crostwitz",
            "popularity": 1.4
        },
        {
            "id": 5725,
            "original_name": "Project Catwalk",
            "popularity": 1.385
        },
        {
            "id": 82670,
            "original_name": "World War Two",
            "popularity": 1.373
        },
        {
            "id": 20374,
            "original_name": "A Twist in the Tale",
            "popularity": 1.349
        },
        {
            "id": 2578,
            "original_name": "The Two of Us",
            "popularity": 1.343
        },
        {
            "id": 35632,
            "original_name": "Twenty-One",
            "popularity": 1.341
        },
        {
            "id": 97012,
            "original_name": "Nightwing: The Series",
            "popularity": 1.306
        },
        {
            "id": 135805,
            "original_name": "Tuttle Twins",
            "popularity": 1.289
        },
        {
            "id": 64559,
            "original_name": "Nightwatch",
            "popularity": 1.278
        },
        {
            "id": 104512,
            "original_name": "Journalisten fragen - Politiker antworten",
            "popularity": 1.27
        },
        {
            "id": 172865,
            "original_name": "betway\u4f53\u80b2\u4e0b\u8f7d\u3010\u7f54\u82b7jy01,cc\u3011_\u767e\u5ea6\u77e5\u9053i",
            "popularity": 1.265
        },
        {
            "id": 4595,
            "original_name": "Two Fat Ladies",
            "popularity": 1.261
        },
        {
            "id": 97333,
            "original_name": "Twilight of the Gods",
            "popularity": 1.254
        },
        {
            "id": 155475,
            "original_name": "Welkom bij Botanic Sanctuary Antwerpen",
            "popularity": 1.25
        },
        {
            "id": 66720,
            "original_name": "Ruff-Ruff, Tweet and Dave",
            "popularity": 1.221
        },
        {
            "id": 203748,
            "original_name": "Twin Towns: In der Ferne so nah",
            "popularity": 1.221
        },
        {
            "id": 84762,
            "original_name": "Twarze i maski",
            "popularity": 1.208
        },
        {
            "id": 11675,
            "original_name": "Westwind",
            "popularity": 1.203
        },
        {
            "id": 77554,
            "original_name": "Twin Turbos",
            "popularity": 1.194
        },
        {
            "id": 96132,
            "original_name": "The Nightwatchman",
            "popularity": 1.167
        },
        {
            "id": 132564,
            "original_name": "\u30a2\u30f3\u30b8\u30a7\u30ea\u30fc\u30af\u3000Twin\u30b3\u30ec\u30af\u30b7\u30e7\u30f3",
            "popularity": 1.156
        },
        {
            "id": 4986,
            "original_name": "Two Up, Two Down",
            "popularity": 1.139
        },
        {
            "id": 122516,
            "original_name": "Between the Sheets",
            "popularity": 1.133
        },
        {
            "id": 72485,
            "original_name": "\u6a5f\u52d5\u6226\u58eb\u30ac\u30f3\u30c0\u30e0 Twilight AXIS",
            "popularity": 1.131
        },
        {
            "id": 133979,
            "original_name": "Twee Zomers",
            "popularity": 1.121
        },
        {
            "id": 67293,
            "original_name": "Twits and Crits",
            "popularity": 1.109
        },
        {
            "id": 85451,
            "original_name": "The Twinstitute",
            "popularity": 1.107
        },
        {
            "id": 63427,
            "original_name": "Twinning",
            "popularity": 1.097
        },
        {
            "id": 34930,
            "original_name": "Onion News Network",
            "popularity": 1.094
        },
        {
            "id": 8553,
            "original_name": "Baggy Pants and the Nitwits",
            "popularity": 1.09
        },
        {
            "id": 22621,
            "original_name": "Twenty Good Years (AU)",
            "popularity": 1.09
        },
        {
            "id": 91202,
            "original_name": "TWO WEEKS",
            "popularity": 1.042
        },
        {
            "id": 15733,
            "original_name": "The Two Mrs. Grenvilles",
            "popularity": 1.038
        },
        {
            "id": 120188,
            "original_name": "Between Us",
            "popularity": 1.026
        },
        {
            "id": 171756,
            "original_name": "betway\u4f53\u80b2\u4e0b\u8f7d\u3010\u7f54\u82b7jy01,cc\u3011_\u767e\u5ea6\u77e5\u9053a",
            "popularity": 1.015
        },
        {
            "id": 175626,
            "original_name": "twitch\u5b98\u7f51\u5165\u53e3\u3010\u7f54\u82b7jy01,cc\u3011_\u767e\u5ea6\u77e5\u9053i",
            "popularity": 1.015
        },
        {
            "id": 207135,
            "original_name": "Helden van Hier: Brandweer Antwerpen",
            "popularity": 1.015
        },
        {
            "id": 116721,
            "original_name": "Between Black and Blue",
            "popularity": 1.005
        },
        {
            "id": 195789,
            "original_name": "twenties: the series",
            "popularity": 1.005
        },
        {
            "id": 156278,
            "original_name": "The Video Encyclopedia of World War Two 2008",
            "popularity": 1.0
        },
        {
            "id": 88369,
            "original_name": "Stray Kids: Two Kids Room",
            "popularity": 0.987
        },
        {
            "id": 136455,
            "original_name": "Marvel Battleworld: Treachery at Twilight",
            "popularity": 0.947
        },
        {
            "id": 212370,
            "original_name": "heatwave summer of 76",
            "popularity": 0.943
        },
        {
            "id": 508,
            "original_name": "A J Wentworth, BA",
            "popularity": 0.93
        },
        {
            "id": 25223,
            "original_name": "Oliver Twist",
            "popularity": 0.928
        },
        {
            "id": 19800,
            "original_name": "'Twas the Night Before Christmas",
            "popularity": 0.906
        },
        {
            "id": 95809,
            "original_name": "The Roaring Twenties",
            "popularity": 0.877
        },
        {
            "id": 43201,
            "original_name": "Twilight Theater",
            "popularity": 0.876
        },
        {
            "id": 103363,
            "original_name": "Szale\u0144stwo Majki Skowron",
            "popularity": 0.875
        },
        {
            "id": 5463,
            "original_name": "Just the Two of Us",
            "popularity": 0.872
        },
        {
            "id": 82072,
            "original_name": "Lily's Driftwood Bay",
            "popularity": 0.87
        },
        {
            "id": 45595,
            "original_name": "Mark Twain Prize",
            "popularity": 0.869
        },
        {
            "id": 94886,
            "original_name": "Spencer, Vogue and Wedding Two",
            "popularity": 0.864
        },
        {
            "id": 196960,
            "original_name": "Dateline on myNetworkTV",
            "popularity": 0.852
        },
        {
            "id": 25469,
            "original_name": "Eastward With Attenborough",
            "popularity": 0.846
        },
        {
            "id": 132327,
            "original_name": "The Software DevLOVEper",
            "popularity": 0.84
        },
        {
            "id": 29367,
            "original_name": "Knit One, Purl Two",
            "popularity": 0.832
        },
        {
            "id": 72959,
            "original_name": "The Third Twin",
            "popularity": 0.818
        },
        {
            "id": 179654,
            "original_name": "\u5fc5\u5a01betway\u897f\u6c49\u59c6\u8054\u3010\u7f54\u82b7jy01,cc\u3011_\u767e\u5ea6\u77e5\u9053e",
            "popularity": 0.765
        },
        {
            "id": 179930,
            "original_name": "twitch\u5b98\u7f51\u5165\u53e3\u3010\u7f54\u82b7jy01,cc\u3011_\u767e\u5ea6\u77e5\u9053g",
            "popularity": 0.765
        },
        {
            "id": 205187,
            "original_name": "Two More Eggs",
            "popularity": 0.759
        },
        {
            "id": 92263,
            "original_name": "Twisted Sisters",
            "popularity": 0.754
        },
        {
            "id": 211384,
            "original_name": "Kaitangata Twitch",
            "popularity": 0.753
        },
        {
            "id": 208331,
            "original_name": "Twist the Throttle",
            "popularity": 0.752
        },
        {
            "id": 202113,
            "original_name": "The Twelve",
            "popularity": 0.75
        },
        {
            "id": 206594,
            "original_name": "Keep This Between Us",
            "popularity": 0.75
        },
        {
            "id": 36827,
            "original_name": "Twarz\u0105 w twarz",
            "popularity": 0.745
        },
        {
            "id": 206368,
            "original_name": "Nightwing: The Series",
            "popularity": 0.735
        },
        {
            "id": 19722,
            "original_name": "The Dirtwater Dynasty",
            "popularity": 0.733
        },
        {
            "id": 36111,
            "original_name": "Twisted",
            "popularity": 0.725
        },
        {
            "id": 14862,
            "original_name": "Two Twisted",
            "popularity": 0.7
        },
        {
            "id": 85670,
            "original_name": "Twelfth Grade (or Whatever)",
            "popularity": 0.691
        },
        {
            "id": 59563,
            "original_name": "Two Greedy Italians",
            "popularity": 0.684
        },
        {
            "id": 136215,
            "original_name": "Twice TV \"Alcohol-Free\"",
            "popularity": 0.683
        },
        {
            "id": 71140,
            "original_name": "The Best Of The Two Ronnies",
            "popularity": 0.677
        },
        {
            "id": 42911,
            "original_name": "Twenty-year-old promise",
            "popularity": 0.664
        },
        {
            "id": 35994,
            "original_name": "Just the Two of Us (NL)",
            "popularity": 0.658
        },
        {
            "id": 100699,
            "original_name": "Niall Ferguson's NetWorld",
            "popularity": 0.655
        },
        {
            "id": 103711,
            "original_name": "Sleepless Society: Two Pillows",
            "popularity": 0.652
        },
        {
            "id": 69439,
            "original_name": "Twice Blooms the Flower",
            "popularity": 0.65
        },
        {
            "id": 47601,
            "original_name": "42: Forty Two Up",
            "popularity": 0.649
        },
        {
            "id": 60121,
            "original_name": "Destroy All Software",
            "popularity": 0.645
        },
        {
            "id": 63415,
            "original_name": "Uranium: Twisting the Dragon's Tail",
            "popularity": 0.639
        },
        {
            "id": 10410,
            "original_name": "Battle of the Network Reality Stars",
            "popularity": 0.638
        },
        {
            "id": 76556,
            "original_name": "Two Sides",
            "popularity": 0.632
        },
        {
            "id": 133825,
            "original_name": "Komisja Morderstw",
            "popularity": 0.629
        },
        {
            "id": 137340,
            "original_name": "Just Between Us",
            "popularity": 0.628
        },
        {
            "id": 133748,
            "original_name": "Twisted Metal",
            "popularity": 0.626
        },
        {
            "id": 38045,
            "original_name": "Joanna Lumley - Catwoman",
            "popularity": 0.623
        },
        {
            "id": 41109,
            "original_name": "Two Funny \u2013 Die Sketch Comedy",
            "popularity": 0.623
        },
        {
            "id": 31324,
            "original_name": "The Tower: A Tale of Two Cities",
            "popularity": 0.622
        },
        {
            "id": 54462,
            "original_name": "Just the Two of Us",
            "popularity": 0.62
        },
        {
            "id": 26458,
            "original_name": "Old Boy Network",
            "popularity": 0.617
        },
        {
            "id": 206528,
            "original_name": "The Chin Twins",
            "popularity": 0.615
        },
        {
            "id": 1175,
            "original_name": "The Zimmer Twins",
            "popularity": 0.6
        },
        {
            "id": 1511,
            "original_name": "The Adventures of Twizzle",
            "popularity": 0.6
        },
        {
            "id": 1610,
            "original_name": "The Beltway Boys",
            "popularity": 0.6
        },
        {
            "id": 2696,
            "original_name": "Twenty One",
            "popularity": 0.6
        },
        {
            "id": 2791,
            "original_name": "It Takes Two",
            "popularity": 0.6
        },
        {
            "id": 2795,
            "original_name": "GMA Network News",
            "popularity": 0.6
        },
        {
            "id": 2815,
            "original_name": "Two-A-Days",
            "popularity": 0.6
        },
        {
            "id": 3148,
            "original_name": "Super Twins",
            "popularity": 0.6
        },
        {
            "id": 3517,
            "original_name": "Tweety's High-Flying Adventure",
            "popularity": 0.6
        },
        {
            "id": 5695,
            "original_name": "Twenty Questions",
            "popularity": 0.6
        },
        {
            "id": 6325,
            "original_name": "The Two Ronnies Sketchbook",
            "popularity": 0.6
        },
        {
            "id": 6464,
            "original_name": "It Takes Two",
            "popularity": 0.6
        },
        {
            "id": 6528,
            "original_name": "Two in Clover",
            "popularity": 0.6
        },
        {
            "id": 7019,
            "original_name": "Kapag May Katwiran, Ipaglaban Mo!",
            "popularity": 0.6
        },
        {
            "id": 7351,
            "original_name": "Nightwatch with Steve Scott",
            "popularity": 0.6
        },
        {
            "id": 8733,
            "original_name": "You're Only Young Twice",
            "popularity": 0.6
        },
        {
            "id": 8772,
            "original_name": "Between Time and Timbuktu",
            "popularity": 0.6
        },
        {
            "id": 9078,
            "original_name": "The Baseball Network",
            "popularity": 0.6
        },
        {
            "id": 9531,
            "original_name": "Westway",
            "popularity": 0.6
        },
        {
            "id": 9587,
            "original_name": "Network 7",
            "popularity": 0.6
        },
        {
            "id": 10603,
            "original_name": "Canadian Football Network",
            "popularity": 0.6
        },
        {
            "id": 10678,
            "original_name": "Twisted Whiskers",
            "popularity": 0.6
        },
        {
            "id": 10686,
            "original_name": "Two Dreadful Children",
            "popularity": 0.6
        },
        {
            "id": 10904,
            "original_name": "Think Twice",
            "popularity": 0.6
        },
        {
            "id": 11199,
            "original_name": "Independent Network News",
            "popularity": 0.6
        },
        {
            "id": 11612,
            "original_name": "Youth News Network",
            "popularity": 0.6
        },
        {
            "id": 11910,
            "original_name": "Two for the Money",
            "popularity": 0.6
        },
        {
            "id": 11998,
            "original_name": "My Two Wives",
            "popularity": 0.6
        },
        {
            "id": 12335,
            "original_name": "Screen Gems Network",
            "popularity": 0.6
        },
        {
            "id": 12543,
            "original_name": "RT\u00c9 News on Two",
            "popularity": 0.6
        },
        {
            "id": 13075,
            "original_name": "Twenty Questions",
            "popularity": 0.6
        },
        {
            "id": 13147,
            "original_name": "MyNetworkTV telenovelas",
            "popularity": 0.6
        },
        {
            "id": 13348,
            "original_name": "News at Twelve",
            "popularity": 0.6
        },
        {
            "id": 14246,
            "original_name": "Between the Lines Episode Guide",
            "popularity": 0.6
        },
        {
            "id": 14587,
            "original_name": "Two of a Kind",
            "popularity": 0.6
        },
        {
            "id": 14637,
            "original_name": "Twinkle, the Dream Being",
            "popularity": 0.6
        },
        {
            "id": 15493,
            "original_name": "Network",
            "popularity": 0.6
        },
        {
            "id": 16790,
            "original_name": "Christmas Two Step",
            "popularity": 0.6
        },
        {
            "id": 16816,
            "original_name": "Pay Off Your Mortgage in Two Years",
            "popularity": 0.6
        },
        {
            "id": 16880,
            "original_name": "Mark Twain",
            "popularity": 0.6
        },
        {
            "id": 16978,
            "original_name": "Twisted Tales",
            "popularity": 0.6
        },
        {
            "id": 17229,
            "original_name": "Two Mothers for Zachary",
            "popularity": 0.6
        },
        {
            "id": 17490,
            "original_name": "Bhootwala Serial",
            "popularity": 0.6
        },
        {
            "id": 17537,
            "original_name": "The Atwood Stories",
            "popularity": 0.6
        },
        {
            "id": 17959,
            "original_name": "Twilight: The Musical",
            "popularity": 0.6
        },
        {
            "id": 18289,
            "original_name": "Between the Lines",
            "popularity": 0.6
        },
        {
            "id": 18592,
            "original_name": "Twin Hearts",
            "popularity": 0.6
        },
        {
            "id": 18639,
            "original_name": "Mitwa Phool Kamal Ke",
            "popularity": 0.6
        },
        {
            "id": 18703,
            "original_name": "Pearl Harbor: Two Hours that Changed the World",
            "popularity": 0.6
        },
        {
            "id": 18715,
            "original_name": "Arlington News Network",
            "popularity": 0.6
        },
        {
            "id": 18742,
            "original_name": "Katie and Eilish: Siamese Twins",
            "popularity": 0.6
        },
        {
            "id": 18896,
            "original_name": "Body Doubles: The Twin Experience",
            "popularity": 0.6
        },
        {
            "id": 19134,
            "original_name": "Pushing Twilight",
            "popularity": 0.6
        },
        {
            "id": 19368,
            "original_name": "Special Events Television Network",
            "popularity": 0.6
        },
        {
            "id": 19643,
            "original_name": "Kids News Network",
            "popularity": 0.6
        },
        {
            "id": 19747,
            "original_name": "Nightworld: Lost Souls",
            "popularity": 0.6
        },
        {
            "id": 20162,
            "original_name": "The Strollin' Twenties",
            "popularity": 0.6
        },
        {
            "id": 20586,
            "original_name": "Royals Sports Television Network",
            "popularity": 0.6
        },
        {
            "id": 20660,
            "original_name": "Netwerk",
            "popularity": 0.6
        },
        {
            "id": 20931,
            "original_name": "Twenty something tv",
            "popularity": 0.6
        },
        {
            "id": 21109,
            "original_name": "TwentyfourSeven",
            "popularity": 0.6
        },
        {
            "id": 21812,
            "original_name": "A Tale of Two Cities",
            "popularity": 0.6
        },
        {
            "id": 21832,
            "original_name": "Two Girls Named Smith",
            "popularity": 0.6
        },
        {
            "id": 21913,
            "original_name": "A Tale of Two Pantos",
            "popularity": 0.6
        },
        {
            "id": 21919,
            "original_name": "V-Twin TV",
            "popularity": 0.6
        },
        {
            "id": 22508,
            "original_name": "Twenty Four Hours",
            "popularity": 0.6
        },
        {
            "id": 22582,
            "original_name": "Ultimate Burger Bash With Food Network All-Stars!",
            "popularity": 0.6
        },
        {
            "id": 22747,
            "original_name": "Two Men in a Tinnie",
            "popularity": 0.6
        },
        {
            "id": 22943,
            "original_name": "The Boys of Twilight",
            "popularity": 0.6
        },
        {
            "id": 23262,
            "original_name": "Two Dollar Beer",
            "popularity": 0.6
        },
        {
            "id": 23566,
            "original_name": "The Two Charleys",
            "popularity": 0.6
        },
        {
            "id": 23577,
            "original_name": "Twenty Questions",
            "popularity": 0.6
        },
        {
            "id": 24218,
            "original_name": "Cartoon Network Top 5",
            "popularity": 0.6
        },
        {
            "id": 24301,
            "original_name": "Mijn Tweede Thuis",
            "popularity": 0.6
        },
        {
            "id": 25121,
            "original_name": "Oliver Twist",
            "popularity": 0.6
        },
        {
            "id": 25144,
            "original_name": "Twister Sisters",
            "popularity": 0.6
        },
        {
            "id": 25265,
            "original_name": "My Two Cents",
            "popularity": 0.6
        },
        {
            "id": 25311,
            "original_name": "Those Two Fellers",
            "popularity": 0.6
        },
        {
            "id": 25576,
            "original_name": "Twiggy's Frock Exchange",
            "popularity": 0.6
        },
        {
            "id": 25638,
            "original_name": "Between Ourselves",
            "popularity": 0.6
        },
        {
            "id": 25754,
            "original_name": "The Twenties In Colour",
            "popularity": 0.6
        },
        {
            "id": 25811,
            "original_name": "You're Only Young Twice",
            "popularity": 0.6
        },
        {
            "id": 26090,
            "original_name": "Trouble For Two",
            "popularity": 0.6
        },
        {
            "id": 26540,
            "original_name": "Two Funny: Cotter and Louise",
            "popularity": 0.6
        },
        {
            "id": 26594,
            "original_name": "Massive Landmarks Of The Twentieth Century",
            "popularity": 0.6
        },
        {
            "id": 26687,
            "original_name": "Catwalk",
            "popularity": 0.6
        },
        {
            "id": 26717,
            "original_name": "Twee voor Twaalf",
            "popularity": 0.6
        },
        {
            "id": 28265,
            "original_name": "Between the Wars",
            "popularity": 0.6
        },
        {
            "id": 28746,
            "original_name": "Two D's And A Dog",
            "popularity": 0.6
        },
        {
            "id": 28758,
            "original_name": "In Between",
            "popularity": 0.6
        },
        {
            "id": 28836,
            "original_name": "Two's Company",
            "popularity": 0.6
        },
        {
            "id": 29530,
            "original_name": "Three, Two, One",
            "popularity": 0.6
        },
        {
            "id": 29682,
            "original_name": "Two Bob Rocket",
            "popularity": 0.6
        },
        {
            "id": 29827,
            "original_name": "The Small World Of Samuel Tweet",
            "popularity": 0.6
        },
        {
            "id": 29918,
            "original_name": "The Comedy Network",
            "popularity": 0.6
        },
        {
            "id": 30198,
            "original_name": "Comedy Network Presents",
            "popularity": 0.6
        },
        {
            "id": 30599,
            "original_name": "Good Grief...It's The Twiliters",
            "popularity": 0.6
        },
        {
            "id": 31033,
            "original_name": "Ernie Kovacs: Between the Laughter",
            "popularity": 0.6
        },
        {
            "id": 31065,
            "original_name": "iD Two",
            "popularity": 0.6
        },
        {
            "id": 31087,
            "original_name": "Two Tube",
            "popularity": 0.6
        },
        {
            "id": 31234,
            "original_name": "The WotWots",
            "popularity": 0.6
        },
        {
            "id": 31524,
            "original_name": "Two of a Kind",
            "popularity": 0.6
        },
        {
            "id": 31924,
            "original_name": "Between Love and Hatred",
            "popularity": 0.6
        },
        {
            "id": 32089,
            "original_name": "Tweetbiz Insiders",
            "popularity": 0.6
        },
        {
            "id": 32302,
            "original_name": "Twilight of a Nation",
            "popularity": 0.6
        },
        {
            "id": 32405,
            "original_name": "Twist of Kate",
            "popularity": 0.6
        },
        {
            "id": 32720,
            "original_name": "Twinkle Beauty Parlour Lajpat Nagar",
            "popularity": 0.6
        },
        {
            "id": 33110,
            "original_name": "Twist and Shout",
            "popularity": 0.6
        },
        {
            "id": 33239,
            "original_name": "A Show from Two Cities",
            "popularity": 0.6
        },
        {
            "id": 33664,
            "original_name": "The Twins",
            "popularity": 0.6
        },
        {
            "id": 33695,
            "original_name": "Growing Up Twisted",
            "popularity": 0.6
        },
        {
            "id": 35371,
            "original_name": "Bitwa na g\u0142osy",
            "popularity": 0.6
        },
        {
            "id": 35748,
            "original_name": "Tweede Leven, Een",
            "popularity": 0.6
        },
        {
            "id": 35885,
            "original_name": "Dancing Tweens",
            "popularity": 0.6
        },
        {
            "id": 36318,
            "original_name": "Between the Lines 2010",
            "popularity": 0.6
        },
        {
            "id": 36728,
            "original_name": "The Next Food Network Star After Party",
            "popularity": 0.6
        },
        {
            "id": 36813,
            "original_name": "TwentyfourSeven (AU)",
            "popularity": 0.6
        },
        {
            "id": 36830,
            "original_name": "Coastwatch",
            "popularity": 0.6
        },
        {
            "id": 36900,
            "original_name": "Two Kenyan Guys",
            "popularity": 0.6
        },
        {
            "id": 37359,
            "original_name": "Tweeling, De",
            "popularity": 0.6
        },
        {
            "id": 37599,
            "original_name": "The Twisted Whiskers Show",
            "popularity": 0.6
        },
        {
            "id": 38056,
            "original_name": "Two Wheel Thunder: An American Icon",
            "popularity": 0.6
        },
        {
            "id": 38196,
            "original_name": "Pyaar Mein Twist",
            "popularity": 0.6
        },
        {
            "id": 38286,
            "original_name": "Beltway Unbuckled: Political Secrets, Sagas, And Scandals",
            "popularity": 0.6
        },
        {
            "id": 38792,
            "original_name": "The Saltwater Series",
            "popularity": 0.6
        },
        {
            "id": 39086,
            "original_name": "Tween Hearts",
            "popularity": 0.6
        },
        {
            "id": 39368,
            "original_name": "Why Not? with Shania Twain",
            "popularity": 0.6
        },
        {
            "id": 39934,
            "original_name": "Banana News Network",
            "popularity": 0.6
        },
        {
            "id": 40201,
            "original_name": "Twentysixmiles",
            "popularity": 0.6
        },
        {
            "id": 40240,
            "original_name": "Battlefield Network",
            "popularity": 0.6
        },
        {
            "id": 40287,
            "original_name": "twentysomething",
            "popularity": 0.6
        },
        {
            "id": 40321,
            "original_name": "A Game of Two Halves",
            "popularity": 0.6
        },
        {
            "id": 40349,
            "original_name": "Two Hundred Pounds Beauty",
            "popularity": 0.6
        },
        {
            "id": 40842,
            "original_name": "Twipsy",
            "popularity": 0.6
        },
        {
            "id": 41529,
            "original_name": "Two Guys Garage",
            "popularity": 0.6
        },
        {
            "id": 41804,
            "original_name": "Between the Lines",
            "popularity": 0.6
        },
        {
            "id": 42426,
            "original_name": "Monchhichi Twins",
            "popularity": 0.6
        },
        {
            "id": 42455,
            "original_name": "Two-Fisted Tales",
            "popularity": 0.6
        },
        {
            "id": 43014,
            "original_name": "Mrs. Eastwood & Company",
            "popularity": 0.6
        },
        {
            "id": 43303,
            "original_name": "The Toy Castle: Twinkle, Twinkle",
            "popularity": 0.6
        },
        {
            "id": 43847,
            "original_name": "Rescuers: Stories Of Courage: Two Couples",
            "popularity": 0.6
        },
        {
            "id": 44423,
            "original_name": "The Cramp Twins: Twin-Compatible",
            "popularity": 0.6
        },
        {
            "id": 44698,
            "original_name": "It Takes Two",
            "popularity": 0.6
        },
        {
            "id": 44723,
            "original_name": "Solar Network News",
            "popularity": 0.6
        },
        {
            "id": 44994,
            "original_name": "Spike and Mike's Sick & Twisted Festival of Animation",
            "popularity": 0.6
        },
        {
            "id": 45583,
            "original_name": "Outward Bound",
            "popularity": 0.6
        },
        {
            "id": 45739,
            "original_name": "Tweed's Russian Train Trip",
            "popularity": 0.6
        },
        {
            "id": 46045,
            "original_name": "Twins",
            "popularity": 0.6
        },
        {
            "id": 46321,
            "original_name": "A Tale of Two Cities",
            "popularity": 0.6
        },
        {
            "id": 46799,
            "original_name": "Two Marriages",
            "popularity": 0.6
        },
        {
            "id": 47521,
            "original_name": "9/11: The Tale Of Two Towers",
            "popularity": 0.6
        },
        {
            "id": 47641,
            "original_name": "Network First",
            "popularity": 0.6
        },
        {
            "id": 48439,
            "original_name": "Women Play Twice",
            "popularity": 0.6
        },
        {
            "id": 49282,
            "original_name": "Hotwire Into The Beyond",
            "popularity": 0.6
        },
        {
            "id": 49360,
            "original_name": "Fleetwood Mac: The Dance",
            "popularity": 0.6
        },
        {
            "id": 49879,
            "original_name": "Two Oxen",
            "popularity": 0.6
        },
        {
            "id": 50003,
            "original_name": "The War Between the Tates",
            "popularity": 0.6
        },
        {
            "id": 50215,
            "original_name": "Twist of Fate",
            "popularity": 0.6
        },
        {
            "id": 50402,
            "original_name": "'Twas the Night",
            "popularity": 0.6
        },
        {
            "id": 50468,
            "original_name": "Westwijk",
            "popularity": 0.6
        },
        {
            "id": 51222,
            "original_name": "The Legend of the Twelve Chinese Zodiacs",
            "popularity": 0.6
        },
        {
            "id": 51487,
            "original_name": "ArtWorks Scotland",
            "popularity": 0.6
        },
        {
            "id": 52204,
            "original_name": "Tweets For My Sweet",
            "popularity": 0.6
        },
        {
            "id": 53061,
            "original_name": "Veronica's Nachtwacht",
            "popularity": 0.6
        },
        {
            "id": 54246,
            "original_name": "Zohor Shetwia",
            "popularity": 0.6
        },
        {
            "id": 54598,
            "original_name": "Video Encyclopedia of World War Two",
            "popularity": 0.6
        },
        {
            "id": 54608,
            "original_name": "Klootwijk aan Zee",
            "popularity": 0.6
        },
        {
            "id": 54624,
            "original_name": "Two Men in a Trench",
            "popularity": 0.6
        },
        {
            "id": 55141,
            "original_name": "Tweet4tweet",
            "popularity": 0.6
        },
        {
            "id": 55530,
            "original_name": "Corfu: A Tale of Two Islands",
            "popularity": 0.6
        },
        {
            "id": 56051,
            "original_name": "Twisted 2013",
            "popularity": 0.6
        },
        {
            "id": 56141,
            "original_name": "Two's Company",
            "popularity": 0.6
        },
        {
            "id": 56217,
            "original_name": "Mark Twain Tonight!",
            "popularity": 0.6
        },
        {
            "id": 56373,
            "original_name": "Twenty-Four Hours in a Woman's Life",
            "popularity": 0.6
        },
        {
            "id": 56652,
            "original_name": "Fleetwood Lawton",
            "popularity": 0.6
        },
        {
            "id": 56663,
            "original_name": "Twigs",
            "popularity": 0.6
        },
        {
            "id": 56702,
            "original_name": "The Never-Ending Battle Between Mother-and-Daughter-in-Law",
            "popularity": 0.6
        },
        {
            "id": 56703,
            "original_name": "Twins Legend Story",
            "popularity": 0.6
        },
        {
            "id": 56746,
            "original_name": "Between the Wars",
            "popularity": 0.6
        },
        {
            "id": 57962,
            "original_name": "Love at the Twilight Motel",
            "popularity": 0.6
        },
        {
            "id": 58366,
            "original_name": "Take on the Twisters",
            "popularity": 0.6
        },
        {
            "id": 58700,
            "original_name": "Two Saiyans Play",
            "popularity": 0.6
        },
        {
            "id": 59009,
            "original_name": "Two in the Top End",
            "popularity": 0.6
        },
        {
            "id": 59957,
            "original_name": "The Siccness Network",
            "popularity": 0.6
        },
        {
            "id": 60500,
            "original_name": "Moving To His Music: The Two Muses of Guillaume C\u00f4t\u00e9",
            "popularity": 0.6
        },
        {
            "id": 60517,
            "original_name": "The In-between World of M.G. Vassanji",
            "popularity": 0.6
        },
        {
            "id": 61470,
            "original_name": "Die Luftwanderer",
            "popularity": 0.6
        },
        {
            "id": 68164,
            "original_name": "Rosin weltweit \u2013 Andere L\u00e4nder, andere Fritten",
            "popularity": 0.6
        },
        {
            "id": 68897,
            "original_name": "De 4 van Westwijk",
            "popularity": 0.6
        },
        {
            "id": 70147,
            "original_name": "Geraldina Die Tweede",
            "popularity": 0.6
        },
        {
            "id": 70619,
            "original_name": "The Twins: Happily Ever After?",
            "popularity": 0.6
        },
        {
            "id": 70826,
            "original_name": "Twiz & Tuck",
            "popularity": 0.6
        },
        {
            "id": 71025,
            "original_name": "Nightwatch ride along",
            "popularity": 0.6
        },
        {
            "id": 71901,
            "original_name": "The 101 Who Made The Twentieth Century",
            "popularity": 0.6
        },
        {
            "id": 74285,
            "original_name": "Evil Twins",
            "popularity": 0.6
        },
        {
            "id": 75555,
            "original_name": "Invisible Network Of Kids",
            "popularity": 0.6
        },
        {
            "id": 75669,
            "original_name": "Olivia Twist",
            "popularity": 0.6
        },
        {
            "id": 77804,
            "original_name": "Curious Minds: Social Networking",
            "popularity": 0.6
        },
        {
            "id": 77900,
            "original_name": "The Twilight Of Civilizations",
            "popularity": 0.6
        },
        {
            "id": 78176,
            "original_name": "China: Between Clouds and Dreams",
            "popularity": 0.6
        },
        {
            "id": 81717,
            "original_name": "Geantwortet wird immer",
            "popularity": 0.6
        },
        {
            "id": 83083,
            "original_name": "Bayou with a Twist",
            "popularity": 0.6
        },
        {
            "id": 83308,
            "original_name": "Bitwisards - nuoret gurut kyberavaruudesta",
            "popularity": 0.6
        },
        {
            "id": 83825,
            "original_name": "The Twist",
            "popularity": 0.6
        },
        {
            "id": 85140,
            "original_name": "The Two Facials of Eve",
            "popularity": 0.6
        },
        {
            "id": 86922,
            "original_name": "Following Twain With Oscar Kightley",
            "popularity": 0.6
        },
        {
            "id": 88428,
            "original_name": "Al aam twil",
            "popularity": 0.6
        },
        {
            "id": 88429,
            "original_name": "Al Aam twill",
            "popularity": 0.6
        },
        {
            "id": 88945,
            "original_name": "Ministry of Evil: The Twisted Cult of Tony Alamo",
            "popularity": 0.6
        },
        {
            "id": 90330,
            "original_name": "World War Two: 1942 and Hitler's Soft Underbelly",
            "popularity": 0.6
        },
        {
            "id": 90363,
            "original_name": "World War Two: 1941 and the Man of Steel",
            "popularity": 0.6
        },
        {
            "id": 96656,
            "original_name": "Great Mysteries and Myths of the Twentieth Century",
            "popularity": 0.6
        },
        {
            "id": 96786,
            "original_name": "Die Deutsche Luftwaffe",
            "popularity": 0.6
        },
        {
            "id": 97342,
            "original_name": "Millie Inbetween",
            "popularity": 0.6
        },
        {
            "id": 97537,
            "original_name": "Een frisse start met vtwonen",
            "popularity": 0.6
        },
        {
            "id": 100045,
            "original_name": "Twisted Love",
            "popularity": 0.6
        },
        {
            "id": 102412,
            "original_name": "Mosselen om Half Twee - The Corona Tapes",
            "popularity": 0.6
        },
        {
            "id": 103925,
            "original_name": "Pa\u0144stwo z kartonu",
            "popularity": 0.6
        },
        {
            "id": 103952,
            "original_name": "World War Two: Behind Closed Doors",
            "popularity": 0.6
        },
        {
            "id": 103970,
            "original_name": "Twosome",
            "popularity": 0.6
        },
        {
            "id": 104862,
            "original_name": "Rise of the Catwoman",
            "popularity": 0.6
        },
        {
            "id": 105093,
            "original_name": "Twee tot de zesde macht",
            "popularity": 0.6
        },
        {
            "id": 105121,
            "original_name": "Saban's Adventures of Oliver Twist",
            "popularity": 0.6
        },
        {
            "id": 105566,
            "original_name": "Twenty-One",
            "popularity": 0.6
        },
        {
            "id": 107512,
            "original_name": "Two Sides",
            "popularity": 0.6
        },
        {
            "id": 108399,
            "original_name": "Szale\u0144stwa Panny Ewy",
            "popularity": 0.6
        },
        {
            "id": 109365,
            "original_name": "Between Worlds",
            "popularity": 0.6
        },
        {
            "id": 109431,
            "original_name": "CATWALK\u4fcf\u4f73\u4eba",
            "popularity": 0.6
        },
        {
            "id": 110349,
            "original_name": "Brain Surgeons: Between Life and Death",
            "popularity": 0.6
        },
        {
            "id": 111476,
            "original_name": "The Onion News Network",
            "popularity": 0.6
        },
        {
            "id": 112996,
            "original_name": "Twin Life: Sharing Mind and Body",
            "popularity": 0.6
        },
        {
            "id": 113321,
            "original_name": "Two Pink Doors",
            "popularity": 0.6
        },
        {
            "id": 113395,
            "original_name": "Love You Two",
            "popularity": 0.6
        },
        {
            "id": 113662,
            "original_name": "Twisted 3",
            "popularity": 0.6
        },
        {
            "id": 115985,
            "original_name": "Twee Tinten Grijs",
            "popularity": 0.6
        },
        {
            "id": 116512,
            "original_name": "Undercover Twins",
            "popularity": 0.6
        },
        {
            "id": 117148,
            "original_name": "Lenny und Twiek",
            "popularity": 0.6
        },
        {
            "id": 118478,
            "original_name": "Nightwatch Nation",
            "popularity": 0.6
        },
        {
            "id": 118768,
            "original_name": "Rzeka k\u0142amstwa",
            "popularity": 0.6
        },
        {
            "id": 119027,
            "original_name": "Archiwum X - \u015aledztwa po latach",
            "popularity": 0.6
        },
        {
            "id": 119516,
            "original_name": "Tafel voor Twee",
            "popularity": 0.6
        },
        {
            "id": 119990,
            "original_name": "Erlebnis Erde: Geheimnisvolles Mittelmeer - Von Pottwalen und W\u00fcstenf\u00fcchsen",
            "popularity": 0.6
        },
        {
            "id": 120528,
            "original_name": "Weltweit",
            "popularity": 0.6
        },
        {
            "id": 123418,
            "original_name": "Twin Heirs",
            "popularity": 0.6
        },
        {
            "id": 124923,
            "original_name": "The Unidentical Twins",
            "popularity": 0.6
        },
        {
            "id": 125996,
            "original_name": "Die Streetworker",
            "popularity": 0.6
        },
        {
            "id": 126299,
            "original_name": "Twende",
            "popularity": 0.6
        },
        {
            "id": 128514,
            "original_name": "Two Steps Home",
            "popularity": 0.6
        },
        {
            "id": 129689,
            "original_name": "Twist",
            "popularity": 0.6
        },
        {
            "id": 130807,
            "original_name": "Only Fools And Horses Miami Twice The American Dream",
            "popularity": 0.6
        },
        {
            "id": 132252,
            "original_name": "The Network Awesome Show",
            "popularity": 0.6
        },
        {
            "id": 132723,
            "original_name": "Bitwy magazynowe",
            "popularity": 0.6
        },
        {
            "id": 132728,
            "original_name": "Kl\u0105twa g\u00f3r z\u0142ota",
            "popularity": 0.6
        },
        {
            "id": 133758,
            "original_name": "Two Kids Room+1",
            "popularity": 0.6
        },
        {
            "id": 133859,
            "original_name": "Die Ruhrpottwache",
            "popularity": 0.6
        },
        {
            "id": 134216,
            "original_name": "Filipa Gomes Cozinha com Twist",
            "popularity": 0.6
        },
        {
            "id": 134357,
            "original_name": "Stick Twins",
            "popularity": 0.6
        },
        {
            "id": 135313,
            "original_name": "HotWheels City",
            "popularity": 0.6
        },
        {
            "id": 135907,
            "original_name": "In Between Men",
            "popularity": 0.6
        },
        {
            "id": 138030,
            "original_name": "A Twist Girl",
            "popularity": 0.6
        },
        {
            "id": 138366,
            "original_name": "Christianity: The First Two Thousand Years",
            "popularity": 0.6
        },
        {
            "id": 139805,
            "original_name": "The Twilight Zone Collection of Various Twilight Zone episodes",
            "popularity": 0.6
        },
        {
            "id": 154266,
            "original_name": "MLB Network Presents",
            "popularity": 0.6
        },
        {
            "id": 157669,
            "original_name": "Den sieben Weltwundern auf der Spur",
            "popularity": 0.6
        },
        {
            "id": 158246,
            "original_name": "The Boy With Two Heads",
            "popularity": 0.6
        },
        {
            "id": 195680,
            "original_name": "entweder \u2013 oder?",
            "popularity": 0.6
        },
        {
            "id": 198030,
            "original_name": "It's Twissleton",
            "popularity": 0.6
        },
        {
            "id": 204207,
            "original_name": "Twelve Apostles",
            "popularity": 0.6
        },
        {
            "id": 204969,
            "original_name": "Twilight Of Dreams",
            "popularity": 0.6
        },
        {
            "id": 205811,
            "original_name": "Fight Network Recharged",
            "popularity": 0.6
        },
        {
            "id": 208134,
            "original_name": "Missy Mila Twisted Tales",
            "popularity": 0.6
        },
        {
            "id": 209716,
            "original_name": "Champions of Networking",
            "popularity": 0.6
        },
        {
            "id": 210130,
            "original_name": "Catwalk - Serien",
            "popularity": 0.6
        },
        {
            "id": 211187,
            "original_name": "Two Of These People Are Lying",
            "popularity": 0.6
        },
        {
            "id": 154939,
            "original_name": "[\uacbd\ucf58\uc9c4] \ud22c\ud22c(To,two):\ub450 \uc0ac\ub78c\uc5d0\uac8c\ub9cc \uc8fc\ub294 SNS \ud2f0\ucf13",
            "popularity": 0.0
        },
        {
            "id": 170261,
            "original_name": "\u5fc5\u5a01betway\u897f\u6c49\u59c6\u7f51\u9875\u7248\u3010\u7f54\u82b7jy01,cc\u3011_\u767e\u5ea6\u77e5\u9053o",
            "popularity": 0.0
        },
        {
            "id": 170277,
            "original_name": "twitch\u5b98\u7f51\u5165\u53e3\u3010\u7f54\u82b7jy01,cc\u3011_\u767e\u5ea6\u77e5\u9053w",
            "popularity": 0.0
        },
        {
            "id": 201306,
            "original_name": "London: A Tale of Two Cities",
            "popularity": 0.0
        },
        {
            "id": 202761,
            "original_name": "Two Shallow Graves: The McStay Family Murders",
            "popularity": 0.0
        },
        {
            "id": 202922,
            "original_name": "Nazi Weird War Two",
            "popularity": 0.0
        },
        {
            "id": 205459,
            "original_name": "Olivia Attwood: Getting Filthy Rich",
            "popularity": 0.0
        },
        {
            "id": 206597,
            "original_name": "TWICE 4TH WORLD TOUR III IN JAPAN",
            "popularity": 0.0
        },
        {
            "id": 207624,
            "original_name": "Two Brothers",
            "popularity": 0.0
        },
        {
            "id": 208034,
            "original_name": "Why Not? With Shania Twain",
            "popularity": 0.0
        },
        {
            "id": 208404,
            "original_name": "Twenty Your Life On 2",
            "popularity": 0.0
        },
        {
            "id": 210186,
            "original_name": "7ORDER \u6b66\u8005\u4fee\u884cTOUR \uff5eNICE \u201cTWO\u201d MEET YOU\uff5e",
            "popularity": 0.0
        },
        {
            "id": 211904,
            "original_name": "\u84bc\u862d\u8a23 Love between fairy and devil",
            "popularity": 0.0
        },
        {
            "id": 212566,
            "original_name": "Twenty Your Life On 2",
            "popularity": 0.0
        }
    ],
    "relations": [
        {
            "character": "two"
        },
        {
            "character": "twe"
        },
        {
            "character": "twi"
        },
        {
            "character": "twa"
        },
        {
            "character": "twr"
        },
        {
            "character": "twy"
        },
        {
            "character": "twh"
        }
    ],
    "top20": [
        {
            "id": 2691,
            "original_name": "Two and a Half Men",
            "popularity": 124.186
        },
        {
            "id": 89247,
            "original_name": "Batwoman",
            "popularity": 115.237
        },
        {
            "id": 63247,
            "original_name": "Westworld",
            "popularity": 92.923
        },
        {
            "id": 1920,
            "original_name": "Twin Peaks",
            "popularity": 69.014
        },
        {
            "id": 136375,
            "original_name": "Twenties After-Show With B. Scott",
            "popularity": 55.59
        },
        {
            "id": 129676,
            "original_name": "Otw\u00f3rz oczy",
            "popularity": 45.492
        },
        {
            "id": 1918,
            "original_name": "The Twilight Zone",
            "popularity": 35.188
        },
        {
            "id": 100002,
            "original_name": "Twenties",
            "popularity": 27.66
        },
        {
            "id": 6357,
            "original_name": "The Twilight Zone",
            "popularity": 26.732
        },
        {
            "id": 16399,
            "original_name": "The Twilight Zone",
            "popularity": 25.934
        },
        {
            "id": 83135,
            "original_name": "The Twilight Zone",
            "popularity": 24.736
        },
        {
            "id": 111311,
            "original_name": "Between the Covers",
            "popularity": 24.538
        },
        {
            "id": 44856,
            "original_name": "Wentworth",
            "popularity": 24.314
        },
        {
            "id": 75,
            "original_name": "Two Guys and a Girl",
            "popularity": 19.739
        },
        {
            "id": 81358,
            "original_name": "Mr Inbetween",
            "popularity": 18.049
        },
        {
            "id": 7317,
            "original_name": "The Inbetweeners",
            "popularity": 16.574
        },
        {
            "id": 62433,
            "original_name": "Between",
            "popularity": 16.09
        },
        {
            "id": 134369,
            "original_name": "Roaring Twenties",
            "popularity": 13.222
        },
        {
            "id": 19194,
            "original_name": "The Twentieth Century",
            "popularity": 12.959
        },
        {
            "id": 9867,
            "original_name": "The Sylvester & Tweety Mysteries",
            "popularity": 12.54
        }
    ]
}