{
    "data": [
        {
            "id": 26717,
            "original_name": "Twee voor Twaalf",
            "popularity": 0.6
        },
        {
            "id": 94551,
            "original_name": "De Twaalf",
            "popularity": 8.661
        }
    ],
    "relations": [],
    "top20": [
        {
            "id": 26717,
            "original_name": "Twee voor Twaalf",
            "popularity": 0.6
        },
        {
            "id": 94551,
            "original_name": "De Twaalf",
            "popularity": 8.661
        }
    ]
}