{
    "data": [
        {
            "id": 35885,
            "original_name": "Dancing Tweens",
            "popularity": 0.6
        }
    ],
    "relations": [],
    "top20": [
        {
            "id": 35885,
            "original_name": "Dancing Tweens",
            "popularity": 0.6
        }
    ]
}