{
    "data": [
        {
            "id": 17169,
            "original_name": "I'm a Celebrity... Get Me out of Here! Now",
            "popularity": 0.6
        },
        {
            "id": 18650,
            "original_name": "I'm a Celebrity...Get Me Out of Here!",
            "popularity": 3.106
        },
        {
            "id": 75728,
            "original_name": "I'm a Celebrity... Extra Camp",
            "popularity": 0.679
        },
        {
            "id": 84467,
            "original_name": "Na k\u0142opoty... Bednarski",
            "popularity": 0.6
        },
        {
            "id": 113283,
            "original_name": "I'm A Celebrity... The Daily Drop",
            "popularity": 0.638
        }
    ],
    "relations": [],
    "top20": [
        {
            "id": 17169,
            "original_name": "I'm a Celebrity... Get Me out of Here! Now",
            "popularity": 0.6
        },
        {
            "id": 18650,
            "original_name": "I'm a Celebrity...Get Me Out of Here!",
            "popularity": 3.106
        },
        {
            "id": 75728,
            "original_name": "I'm a Celebrity... Extra Camp",
            "popularity": 0.679
        },
        {
            "id": 84467,
            "original_name": "Na k\u0142opoty... Bednarski",
            "popularity": 0.6
        },
        {
            "id": 113283,
            "original_name": "I'm A Celebrity... The Daily Drop",
            "popularity": 0.638
        }
    ]
}