{
    "data": [
        {
            "id": 117475,
            "original_name": "The Brubaker's",
            "popularity": 0.6
        }
    ],
    "relations": [],
    "top20": [
        {
            "id": 117475,
            "original_name": "The Brubaker's",
            "popularity": 0.6
        }
    ]
}