{
    "data": [
        {
            "id": 11982,
            "original_name": "Max and Ruby",
            "popularity": 13.354
        },
        {
            "id": 14165,
            "original_name": "Ruby Gloom",
            "popularity": 3.577
        },
        {
            "id": 17524,
            "original_name": "Ruby & The Rockits",
            "popularity": 1.955
        },
        {
            "id": 21324,
            "original_name": "Ruby",
            "popularity": 1.438
        },
        {
            "id": 23236,
            "original_name": "Ruby",
            "popularity": 1.97
        },
        {
            "id": 25821,
            "original_name": "The Ruby Wax Show",
            "popularity": 0.6
        },
        {
            "id": 35713,
            "original_name": "Ruby Wax Goes Dutch",
            "popularity": 0.84
        },
        {
            "id": 40398,
            "original_name": "Ruby Skye PI",
            "popularity": 0.6
        },
        {
            "id": 43296,
            "original_name": "Max & Ruby: Afternoons with Max & Ruby",
            "popularity": 0.6
        },
        {
            "id": 43839,
            "original_name": "Ruby",
            "popularity": 0.6
        },
        {
            "id": 45336,
            "original_name": "Ruby Wax Meets",
            "popularity": 1.753
        },
        {
            "id": 55520,
            "original_name": "Odnolyuby",
            "popularity": 0.6
        },
        {
            "id": 56468,
            "original_name": "The Siege at Ruby Ridge",
            "popularity": 0.6
        },
        {
            "id": 88761,
            "original_name": "Red Ruby",
            "popularity": 1.173
        },
        {
            "id": 98948,
            "original_name": "Gruby",
            "popularity": 0.6
        },
        {
            "id": 101089,
            "original_name": "Na houby",
            "popularity": 0.6
        },
        {
            "id": 102254,
            "original_name": "250 m2 Kuby Wojew\u00f3dzkiego",
            "popularity": 0.6
        },
        {
            "id": 133349,
            "original_name": "When Ruby Wax Met...",
            "popularity": 1.702
        },
        {
            "id": 139679,
            "original_name": "Dusheguby",
            "popularity": 0.6
        }
    ],
    "relations": [],
    "top20": [
        {
            "id": 11982,
            "original_name": "Max and Ruby",
            "popularity": 13.354
        },
        {
            "id": 14165,
            "original_name": "Ruby Gloom",
            "popularity": 3.577
        },
        {
            "id": 17524,
            "original_name": "Ruby & The Rockits",
            "popularity": 1.955
        },
        {
            "id": 21324,
            "original_name": "Ruby",
            "popularity": 1.438
        },
        {
            "id": 23236,
            "original_name": "Ruby",
            "popularity": 1.97
        },
        {
            "id": 25821,
            "original_name": "The Ruby Wax Show",
            "popularity": 0.6
        },
        {
            "id": 35713,
            "original_name": "Ruby Wax Goes Dutch",
            "popularity": 0.84
        },
        {
            "id": 40398,
            "original_name": "Ruby Skye PI",
            "popularity": 0.6
        },
        {
            "id": 43296,
            "original_name": "Max & Ruby: Afternoons with Max & Ruby",
            "popularity": 0.6
        },
        {
            "id": 43839,
            "original_name": "Ruby",
            "popularity": 0.6
        },
        {
            "id": 45336,
            "original_name": "Ruby Wax Meets",
            "popularity": 1.753
        },
        {
            "id": 55520,
            "original_name": "Odnolyuby",
            "popularity": 0.6
        },
        {
            "id": 56468,
            "original_name": "The Siege at Ruby Ridge",
            "popularity": 0.6
        },
        {
            "id": 88761,
            "original_name": "Red Ruby",
            "popularity": 1.173
        },
        {
            "id": 98948,
            "original_name": "Gruby",
            "popularity": 0.6
        },
        {
            "id": 101089,
            "original_name": "Na houby",
            "popularity": 0.6
        },
        {
            "id": 102254,
            "original_name": "250 m2 Kuby Wojew\u00f3dzkiego",
            "popularity": 0.6
        },
        {
            "id": 133349,
            "original_name": "When Ruby Wax Met...",
            "popularity": 1.702
        },
        {
            "id": 139679,
            "original_name": "Dusheguby",
            "popularity": 0.6
        }
    ]
}