{
    "data": [
        {
            "id": 288,
            "original_name": "\u00a1Mucha Lucha!",
            "popularity": 14.701
        }
    ],
    "relations": [],
    "top20": [
        {
            "id": 288,
            "original_name": "\u00a1Mucha Lucha!",
            "popularity": 14.701
        }
    ]
}