{
    "data": [
        {
            "id": 30116,
            "original_name": "Burns Chuckwagon From The Stampede Coral",
            "popularity": 0.6
        },
        {
            "id": 32123,
            "original_name": "Duckworth",
            "popularity": 0.6
        },
        {
            "id": 33643,
            "original_name": "Burns Chuckwagon From the Stampede Corral",
            "popularity": 0.804
        },
        {
            "id": 46915,
            "original_name": "Buckwild",
            "popularity": 0.6
        },
        {
            "id": 102935,
            "original_name": "Auckward Love",
            "popularity": 0.934
        }
    ],
    "relations": [],
    "top20": [
        {
            "id": 30116,
            "original_name": "Burns Chuckwagon From The Stampede Coral",
            "popularity": 0.6
        },
        {
            "id": 32123,
            "original_name": "Duckworth",
            "popularity": 0.6
        },
        {
            "id": 33643,
            "original_name": "Burns Chuckwagon From the Stampede Corral",
            "popularity": 0.804
        },
        {
            "id": 46915,
            "original_name": "Buckwild",
            "popularity": 0.6
        },
        {
            "id": 102935,
            "original_name": "Auckward Love",
            "popularity": 0.934
        }
    ]
}