{
    "data": [
        {
            "id": 60357,
            "original_name": "Trudeau II: Maverick in the Making",
            "popularity": 0.935
        },
        {
            "id": 90528,
            "original_name": "Pierre Elliott Trudeau: Memoirs",
            "popularity": 0.984
        },
        {
            "id": 132319,
            "original_name": "Justin Trudeau - L'Autre Amerique",
            "popularity": 0.6
        }
    ],
    "relations": [],
    "top20": [
        {
            "id": 60357,
            "original_name": "Trudeau II: Maverick in the Making",
            "popularity": 0.935
        },
        {
            "id": 90528,
            "original_name": "Pierre Elliott Trudeau: Memoirs",
            "popularity": 0.984
        },
        {
            "id": 132319,
            "original_name": "Justin Trudeau - L'Autre Amerique",
            "popularity": 0.6
        }
    ]
}