{
    "data": [
        {
            "id": 48611,
            "original_name": "The Defection of Simas Kudirka",
            "popularity": 0.6
        }
    ],
    "relations": [],
    "top20": [
        {
            "id": 48611,
            "original_name": "The Defection of Simas Kudirka",
            "popularity": 0.6
        }
    ]
}