{
    "data": [
        {
            "id": 52420,
            "original_name": "Budsaba Rei Ruk",
            "popularity": 0.6
        }
    ],
    "relations": [],
    "top20": [
        {
            "id": 52420,
            "original_name": "Budsaba Rei Ruk",
            "popularity": 0.6
        }
    ]
}