{
    "data": [
        {
            "id": 4238,
            "original_name": "The King of Queens",
            "popularity": 33.813
        },
        {
            "id": 8256,
            "original_name": "Scream Queens",
            "popularity": 10.789
        },
        {
            "id": 10785,
            "original_name": "Queensland Weekender",
            "popularity": 0.6
        },
        {
            "id": 18505,
            "original_name": "Queens Supreme",
            "popularity": 3.945
        },
        {
            "id": 28533,
            "original_name": "13 Queens Boulevard",
            "popularity": 1.842
        },
        {
            "id": 29713,
            "original_name": "Queensland Rules",
            "popularity": 0.6
        },
        {
            "id": 35039,
            "original_name": "The Queens of Drag: NYC",
            "popularity": 0.6
        },
        {
            "id": 38371,
            "original_name": "Pawn Queens",
            "popularity": 0.6
        },
        {
            "id": 39816,
            "original_name": "Pawn Queens",
            "popularity": 0.6
        },
        {
            "id": 43071,
            "original_name": "Kings and Queens of England",
            "popularity": 0.6
        },
        {
            "id": 43293,
            "original_name": "Aoi and Mutsuki: A Pair of Queens",
            "popularity": 0.804
        },
        {
            "id": 57810,
            "original_name": "She-Wolves: England's Early Queens",
            "popularity": 1.124
        },
        {
            "id": 61950,
            "original_name": "Fashion Queens",
            "popularity": 0.6
        },
        {
            "id": 62046,
            "original_name": "Scream Queens",
            "popularity": 90.987
        },
        {
            "id": 62679,
            "original_name": "Queens of Drama",
            "popularity": 1.738
        },
        {
            "id": 70137,
            "original_name": "Queens",
            "popularity": 2.607
        },
        {
            "id": 70477,
            "original_name": "Cooking With Drag Queens",
            "popularity": 0.6
        },
        {
            "id": 71759,
            "original_name": "Camping Queens",
            "popularity": 0.6
        },
        {
            "id": 74847,
            "original_name": "Queens of Comedy",
            "popularity": 0.6
        },
        {
            "id": 75968,
            "original_name": "2 Dope Queens",
            "popularity": 3.386
        },
        {
            "id": 77615,
            "original_name": "Kings and Queens",
            "popularity": 0.841
        },
        {
            "id": 78788,
            "original_name": "Homecoming Queens",
            "popularity": 1.159
        },
        {
            "id": 82139,
            "original_name": "Queens of Mystery",
            "popularity": 4.019
        },
        {
            "id": 83675,
            "original_name": "The Queens Project",
            "popularity": 0.855
        },
        {
            "id": 85392,
            "original_name": "Queens Blade: Unlimited",
            "popularity": 1.951
        },
        {
            "id": 89457,
            "original_name": "Prom Queens",
            "popularity": 0.6
        },
        {
            "id": 96231,
            "original_name": "Awkwafina is Nora From Queens",
            "popularity": 10.882
        },
        {
            "id": 98319,
            "original_name": "Fierce Queens",
            "popularity": 1.4
        },
        {
            "id": 99735,
            "original_name": "American Gangster:Trap Queens",
            "popularity": 0.6
        },
        {
            "id": 105346,
            "original_name": "la reina de queens",
            "popularity": 0.6
        },
        {
            "id": 105582,
            "original_name": "Beauty Queens",
            "popularity": 1.246
        },
        {
            "id": 107890,
            "original_name": "Queens",
            "popularity": 0.6
        },
        {
            "id": 109505,
            "original_name": "God Shave The Queens",
            "popularity": 0.836
        },
        {
            "id": 110922,
            "original_name": "Drag Queens Of London",
            "popularity": 0.6
        },
        {
            "id": 111875,
            "original_name": "Queens",
            "popularity": 0.6
        },
        {
            "id": 115270,
            "original_name": "Queens Christmas Broadcast 2020",
            "popularity": 0.6
        },
        {
            "id": 126185,
            "original_name": "Brave New Girls: Transgender Beauty Queens",
            "popularity": 0.6
        },
        {
            "id": 127390,
            "original_name": "Queens",
            "popularity": 20.087
        },
        {
            "id": 129337,
            "original_name": "Queens of Comedy",
            "popularity": 1.534
        },
        {
            "id": 132975,
            "original_name": "Elizabeth I & Elizabeth II: Britain's Golden Queens",
            "popularity": 0.6
        },
        {
            "id": 133926,
            "original_name": "Notorious Queens",
            "popularity": 0.84
        },
        {
            "id": 136084,
            "original_name": "Once Upon a Time in Queens",
            "popularity": 0.6
        },
        {
            "id": 139541,
            "original_name": "Binge Queens",
            "popularity": 2.072
        }
    ],
    "relations": [
        {
            "character": "ueensl"
        }
    ],
    "top20": [
        {
            "id": 62046,
            "original_name": "Scream Queens",
            "popularity": 90.987
        },
        {
            "id": 4238,
            "original_name": "The King of Queens",
            "popularity": 33.813
        },
        {
            "id": 127390,
            "original_name": "Queens",
            "popularity": 20.087
        },
        {
            "id": 96231,
            "original_name": "Awkwafina is Nora From Queens",
            "popularity": 10.882
        },
        {
            "id": 8256,
            "original_name": "Scream Queens",
            "popularity": 10.789
        },
        {
            "id": 82139,
            "original_name": "Queens of Mystery",
            "popularity": 4.019
        },
        {
            "id": 18505,
            "original_name": "Queens Supreme",
            "popularity": 3.945
        },
        {
            "id": 75968,
            "original_name": "2 Dope Queens",
            "popularity": 3.386
        },
        {
            "id": 70137,
            "original_name": "Queens",
            "popularity": 2.607
        },
        {
            "id": 139541,
            "original_name": "Binge Queens",
            "popularity": 2.072
        },
        {
            "id": 85392,
            "original_name": "Queens Blade: Unlimited",
            "popularity": 1.951
        },
        {
            "id": 28533,
            "original_name": "13 Queens Boulevard",
            "popularity": 1.842
        },
        {
            "id": 62679,
            "original_name": "Queens of Drama",
            "popularity": 1.738
        },
        {
            "id": 129337,
            "original_name": "Queens of Comedy",
            "popularity": 1.534
        },
        {
            "id": 98319,
            "original_name": "Fierce Queens",
            "popularity": 1.4
        },
        {
            "id": 105582,
            "original_name": "Beauty Queens",
            "popularity": 1.246
        },
        {
            "id": 78788,
            "original_name": "Homecoming Queens",
            "popularity": 1.159
        },
        {
            "id": 57810,
            "original_name": "She-Wolves: England's Early Queens",
            "popularity": 1.124
        },
        {
            "id": 83675,
            "original_name": "The Queens Project",
            "popularity": 0.855
        },
        {
            "id": 77615,
            "original_name": "Kings and Queens",
            "popularity": 0.841
        }
    ]
}