{
    "data": [
        {
            "id": 43688,
            "original_name": "Dov'eri quella notte",
            "popularity": 0.6
        },
        {
            "id": 68381,
            "original_name": "La huella del crimen",
            "popularity": 0.703
        },
        {
            "id": 81994,
            "original_name": "Las huellas del secretario",
            "popularity": 0.6
        },
        {
            "id": 135299,
            "original_name": "Emma Reyes La Huella de la Infancia (2021)",
            "popularity": 0.6
        }
    ],
    "relations": [],
    "top20": [
        {
            "id": 43688,
            "original_name": "Dov'eri quella notte",
            "popularity": 0.6
        },
        {
            "id": 68381,
            "original_name": "La huella del crimen",
            "popularity": 0.703
        },
        {
            "id": 81994,
            "original_name": "Las huellas del secretario",
            "popularity": 0.6
        },
        {
            "id": 135299,
            "original_name": "Emma Reyes La Huella de la Infancia (2021)",
            "popularity": 0.6
        }
    ]
}