{
    "data": [
        {
            "id": 7637,
            "original_name": "Quelli dell' Intervallo",
            "popularity": 0.6
        },
        {
            "id": 34198,
            "original_name": "Quelli che...",
            "popularity": 0.6
        },
        {
            "id": 41471,
            "original_name": "Quelli dell'intervallo in vacanza",
            "popularity": 0.6
        },
        {
            "id": 41494,
            "original_name": "Quelli della speciale",
            "popularity": 0.6
        },
        {
            "id": 41554,
            "original_name": "Quelli dell'Intervallo Cafe",
            "popularity": 0.613
        },
        {
            "id": 79369,
            "original_name": "Quelli della notte - Il meglio di",
            "popularity": 0.6
        }
    ],
    "relations": [],
    "top20": [
        {
            "id": 7637,
            "original_name": "Quelli dell' Intervallo",
            "popularity": 0.6
        },
        {
            "id": 34198,
            "original_name": "Quelli che...",
            "popularity": 0.6
        },
        {
            "id": 41471,
            "original_name": "Quelli dell'intervallo in vacanza",
            "popularity": 0.6
        },
        {
            "id": 41494,
            "original_name": "Quelli della speciale",
            "popularity": 0.6
        },
        {
            "id": 41554,
            "original_name": "Quelli dell'Intervallo Cafe",
            "popularity": 0.613
        },
        {
            "id": 79369,
            "original_name": "Quelli della notte - Il meglio di",
            "popularity": 0.6
        }
    ]
}