{
    "data": [
        {
            "id": 63658,
            "original_name": "Inspektion Lauenstadt",
            "popularity": 0.6
        },
        {
            "id": 120203,
            "original_name": "Influenserne",
            "popularity": 0.656
        },
        {
            "id": 120625,
            "original_name": "Snefrid og Erik blir influensere",
            "popularity": 1.078
        },
        {
            "id": 138046,
            "original_name": "Jagten p\u00e5 regnbuens farver",
            "popularity": 1.755
        }
    ],
    "relations": [],
    "top20": [
        {
            "id": 63658,
            "original_name": "Inspektion Lauenstadt",
            "popularity": 0.6
        },
        {
            "id": 120203,
            "original_name": "Influenserne",
            "popularity": 0.656
        },
        {
            "id": 120625,
            "original_name": "Snefrid og Erik blir influensere",
            "popularity": 1.078
        },
        {
            "id": 138046,
            "original_name": "Jagten p\u00e5 regnbuens farver",
            "popularity": 1.755
        }
    ]
}