{
    "data": [
        {
            "id": 3095,
            "original_name": "Con Lo Que Cuenta Este Pa\u00eds",
            "popularity": 0.6
        },
        {
            "id": 4835,
            "original_name": "Frauentausch",
            "popularity": 1.206
        },
        {
            "id": 38306,
            "original_name": "Cuenta atr\u00e1s",
            "popularity": 1.4
        },
        {
            "id": 98861,
            "original_name": "Borr\u00f3n y cuenta nueva",
            "popularity": 3.848
        },
        {
            "id": 111480,
            "original_name": "Esquenta!",
            "popularity": 0.6
        },
        {
            "id": 116259,
            "original_name": "Lo que la gente cuenta",
            "popularity": 7.964
        }
    ],
    "relations": [],
    "top20": [
        {
            "id": 3095,
            "original_name": "Con Lo Que Cuenta Este Pa\u00eds",
            "popularity": 0.6
        },
        {
            "id": 4835,
            "original_name": "Frauentausch",
            "popularity": 1.206
        },
        {
            "id": 38306,
            "original_name": "Cuenta atr\u00e1s",
            "popularity": 1.4
        },
        {
            "id": 98861,
            "original_name": "Borr\u00f3n y cuenta nueva",
            "popularity": 3.848
        },
        {
            "id": 111480,
            "original_name": "Esquenta!",
            "popularity": 0.6
        },
        {
            "id": 116259,
            "original_name": "Lo que la gente cuenta",
            "popularity": 7.964
        }
    ]
}