{
    "data": [
        {
            "id": 7555,
            "original_name": "It's Anybody's Guess",
            "popularity": 0.6
        },
        {
            "id": 9791,
            "original_name": "Wild Guess",
            "popularity": 0.6
        },
        {
            "id": 11714,
            "original_name": "Eye Guess",
            "popularity": 0.6
        },
        {
            "id": 12381,
            "original_name": "Guess What",
            "popularity": 0.6
        },
        {
            "id": 22196,
            "original_name": "Guess My Story (CA)",
            "popularity": 0.6
        },
        {
            "id": 22370,
            "original_name": "Guess Who's Coming to Dinner? (UK)",
            "popularity": 0.6
        },
        {
            "id": 22912,
            "original_name": "Guess My Story (UK)",
            "popularity": 0.6
        },
        {
            "id": 23006,
            "original_name": "Guess What (US)",
            "popularity": 0.6
        },
        {
            "id": 25024,
            "original_name": "Guess Who's Coming to Decorate",
            "popularity": 0.6
        },
        {
            "id": 25215,
            "original_name": "Guess What (AU)",
            "popularity": 0.6
        },
        {
            "id": 25978,
            "original_name": "Guess Who's Coming Over?",
            "popularity": 0.6
        },
        {
            "id": 27340,
            "original_name": "Guess Who's Coming To Dinner? (AU)",
            "popularity": 0.6
        },
        {
            "id": 31462,
            "original_name": "Second Guess",
            "popularity": 0.6
        },
        {
            "id": 31942,
            "original_name": "Guess with Jess",
            "popularity": 1.195
        },
        {
            "id": 32244,
            "original_name": "Guesstimation",
            "popularity": 0.6
        },
        {
            "id": 32988,
            "original_name": "Guess What",
            "popularity": 0.6
        },
        {
            "id": 33287,
            "original_name": "Guess My Story",
            "popularity": 0.6
        },
        {
            "id": 34628,
            "original_name": "Guess",
            "popularity": 0.6
        },
        {
            "id": 46410,
            "original_name": "Guess How Much I Love You",
            "popularity": 2.578
        },
        {
            "id": 60747,
            "original_name": "The Guess List",
            "popularity": 0.6
        },
        {
            "id": 61614,
            "original_name": "Dr. Suess Cartoons",
            "popularity": 0.6
        },
        {
            "id": 88367,
            "original_name": "Scooby-Doo and Guess Who?",
            "popularity": 18.151
        },
        {
            "id": 98448,
            "original_name": "Prouesses d'ingenierie",
            "popularity": 0.6
        },
        {
            "id": 111116,
            "original_name": "Guessable",
            "popularity": 2.23
        }
    ],
    "relations": [
        {
            "character": "uesst"
        },
        {
            "character": "uesse"
        },
        {
            "character": "uessa"
        }
    ],
    "top20": [
        {
            "id": 88367,
            "original_name": "Scooby-Doo and Guess Who?",
            "popularity": 18.151
        },
        {
            "id": 46410,
            "original_name": "Guess How Much I Love You",
            "popularity": 2.578
        },
        {
            "id": 111116,
            "original_name": "Guessable",
            "popularity": 2.23
        },
        {
            "id": 31942,
            "original_name": "Guess with Jess",
            "popularity": 1.195
        },
        {
            "id": 22912,
            "original_name": "Guess My Story (UK)",
            "popularity": 0.6
        },
        {
            "id": 12381,
            "original_name": "Guess What",
            "popularity": 0.6
        },
        {
            "id": 25024,
            "original_name": "Guess Who's Coming to Decorate",
            "popularity": 0.6
        },
        {
            "id": 31462,
            "original_name": "Second Guess",
            "popularity": 0.6
        },
        {
            "id": 33287,
            "original_name": "Guess My Story",
            "popularity": 0.6
        },
        {
            "id": 22196,
            "original_name": "Guess My Story (CA)",
            "popularity": 0.6
        },
        {
            "id": 23006,
            "original_name": "Guess What (US)",
            "popularity": 0.6
        },
        {
            "id": 22370,
            "original_name": "Guess Who's Coming to Dinner? (UK)",
            "popularity": 0.6
        },
        {
            "id": 27340,
            "original_name": "Guess Who's Coming To Dinner? (AU)",
            "popularity": 0.6
        },
        {
            "id": 25978,
            "original_name": "Guess Who's Coming Over?",
            "popularity": 0.6
        },
        {
            "id": 7555,
            "original_name": "It's Anybody's Guess",
            "popularity": 0.6
        },
        {
            "id": 25215,
            "original_name": "Guess What (AU)",
            "popularity": 0.6
        },
        {
            "id": 32988,
            "original_name": "Guess What",
            "popularity": 0.6
        },
        {
            "id": 9791,
            "original_name": "Wild Guess",
            "popularity": 0.6
        },
        {
            "id": 32244,
            "original_name": "Guesstimation",
            "popularity": 0.6
        },
        {
            "id": 11714,
            "original_name": "Eye Guess",
            "popularity": 0.6
        }
    ]
}