{
    "data": [
        {
            "id": 1840,
            "original_name": "The Bugaloos",
            "popularity": 1.167
        }
    ],
    "relations": [],
    "top20": [
        {
            "id": 1840,
            "original_name": "The Bugaloos",
            "popularity": 1.167
        }
    ]
}