{
    "data": [
        {
            "id": 18175,
            "original_name": "Sugat ng Kahapon",
            "popularity": 0.6
        },
        {
            "id": 21780,
            "original_name": "Jugate Conmigo",
            "popularity": 0.6
        },
        {
            "id": 43557,
            "original_name": "Kahit Puso'y Masugatan",
            "popularity": 0.6
        }
    ],
    "relations": [],
    "top20": [
        {
            "id": 18175,
            "original_name": "Sugat ng Kahapon",
            "popularity": 0.6
        },
        {
            "id": 21780,
            "original_name": "Jugate Conmigo",
            "popularity": 0.6
        },
        {
            "id": 43557,
            "original_name": "Kahit Puso'y Masugatan",
            "popularity": 0.6
        }
    ]
}