{
    "data": [
        {
            "id": 26996,
            "original_name": "Vrouwenvleugel",
            "popularity": 1.764
        }
    ],
    "relations": [],
    "top20": [
        {
            "id": 26996,
            "original_name": "Vrouwenvleugel",
            "popularity": 1.764
        }
    ]
}