{
    "data": [
        {
            "id": 10536,
            "original_name": "The Mike Douglas Show",
            "popularity": 2.722
        },
        {
            "id": 19449,
            "original_name": "Douglas Fairbanks, Jr., Presents",
            "popularity": 1.512
        },
        {
            "id": 20277,
            "original_name": "Zougla",
            "popularity": 0.6
        },
        {
            "id": 25120,
            "original_name": "Prairie Giant: The Tommy Douglas Story",
            "popularity": 1.473
        },
        {
            "id": 26959,
            "original_name": "Douglas Edwards With The News",
            "popularity": 0.6
        },
        {
            "id": 53974,
            "original_name": "Funny HaHa TV: The Douglas Web",
            "popularity": 0.6
        },
        {
            "id": 66918,
            "original_name": "Douglas Family Gold",
            "popularity": 0.6
        },
        {
            "id": 90912,
            "original_name": "Douglas Ferregui's Like Me",
            "popularity": 0.6
        }
    ],
    "relations": [],
    "top20": [
        {
            "id": 10536,
            "original_name": "The Mike Douglas Show",
            "popularity": 2.722
        },
        {
            "id": 19449,
            "original_name": "Douglas Fairbanks, Jr., Presents",
            "popularity": 1.512
        },
        {
            "id": 20277,
            "original_name": "Zougla",
            "popularity": 0.6
        },
        {
            "id": 25120,
            "original_name": "Prairie Giant: The Tommy Douglas Story",
            "popularity": 1.473
        },
        {
            "id": 26959,
            "original_name": "Douglas Edwards With The News",
            "popularity": 0.6
        },
        {
            "id": 53974,
            "original_name": "Funny HaHa TV: The Douglas Web",
            "popularity": 0.6
        },
        {
            "id": 66918,
            "original_name": "Douglas Family Gold",
            "popularity": 0.6
        },
        {
            "id": 90912,
            "original_name": "Douglas Ferregui's Like Me",
            "popularity": 0.6
        }
    ]
}