{
    "data": [
        {
            "id": 10247,
            "original_name": "Dan August",
            "popularity": 2.029
        },
        {
            "id": 12800,
            "original_name": "Mundo de Juguete",
            "popularity": 0.6
        },
        {
            "id": 22208,
            "original_name": "Massugu ni Ikou",
            "popularity": 0.6
        },
        {
            "id": 27960,
            "original_name": "Tsugumi e...",
            "popularity": 0.655
        },
        {
            "id": 34430,
            "original_name": "UgunsGr\u0113ks",
            "popularity": 0.6
        },
        {
            "id": 41435,
            "original_name": "Saugut",
            "popularity": 0.6
        },
        {
            "id": 41443,
            "original_name": "Tutti gli uomini sono uguali",
            "popularity": 0.6
        },
        {
            "id": 42367,
            "original_name": "Os Grandes Portugueses",
            "popularity": 0.6
        },
        {
            "id": 42974,
            "original_name": "Teva: Op\u00e9ration Gauguin",
            "popularity": 0.6
        },
        {
            "id": 44672,
            "original_name": "Augustine: The Decline of the Roman Empire",
            "popularity": 1.273
        },
        {
            "id": 46160,
            "original_name": "Barriga de Aluguel",
            "popularity": 1.771
        },
        {
            "id": 47304,
            "original_name": "The 52nd Presidential Inaugural Gala",
            "popularity": 0.6
        },
        {
            "id": 47308,
            "original_name": "United States presidential inaugural balls",
            "popularity": 0.6
        },
        {
            "id": 47309,
            "original_name": "An American Reunion: The People's Inaugural Celebration",
            "popularity": 0.6
        },
        {
            "id": 49226,
            "original_name": "San Francisco Symphony Inaugural Gala",
            "popularity": 0.6
        },
        {
            "id": 49518,
            "original_name": "Gauguin the Savage",
            "popularity": 0.6
        },
        {
            "id": 52243,
            "original_name": "August Strindberg: Ett liv",
            "popularity": 2.483
        },
        {
            "id": 56369,
            "original_name": "The 53rd Presidential Inaugural Gala",
            "popularity": 0.6
        },
        {
            "id": 57112,
            "original_name": "Mattsugu",
            "popularity": 0.6
        },
        {
            "id": 67876,
            "original_name": "\u00bfPor qu\u00e9 Uruguay?",
            "popularity": 0.6
        },
        {
            "id": 72195,
            "original_name": "Masterchef Uruguay",
            "popularity": 1.18
        },
        {
            "id": 73615,
            "original_name": "August",
            "popularity": 1.75
        },
        {
            "id": 75674,
            "original_name": "Paul Gauguin",
            "popularity": 0.6
        },
        {
            "id": 76201,
            "original_name": "Fugueuse",
            "popularity": 8.725
        },
        {
            "id": 78090,
            "original_name": "Rua Augusta",
            "popularity": 1.062
        },
        {
            "id": 79633,
            "original_name": "Portugueses pelo Mundo",
            "popularity": 0.611
        },
        {
            "id": 80382,
            "original_name": "Die unfreiwilligen Reisen des Moritz August Benjowski",
            "popularity": 2.067
        },
        {
            "id": 83177,
            "original_name": "Ein Mann kam im August",
            "popularity": 0.96
        },
        {
            "id": 93434,
            "original_name": "Portugu\u00eas",
            "popularity": 0.6
        },
        {
            "id": 93436,
            "original_name": "Portugu\u00eas - Professor Nolsen",
            "popularity": 0.6
        },
        {
            "id": 94321,
            "original_name": "The Legend of Dugu",
            "popularity": 0.6
        },
        {
            "id": 95878,
            "original_name": "Hist\u00f3ria da Gastronomia Portuguesa",
            "popularity": 0.6
        },
        {
            "id": 96076,
            "original_name": "En fugue",
            "popularity": 0.6
        },
        {
            "id": 98505,
            "original_name": "Uruguay",
            "popularity": 0.6
        },
        {
            "id": 99189,
            "original_name": "La fuite des huguenots",
            "popularity": 0.6
        },
        {
            "id": 100446,
            "original_name": "Masterchef Uruguay Profesionales",
            "popularity": 0.6
        },
        {
            "id": 107966,
            "original_name": "Krabb\u00e9 zoekt Gauguin",
            "popularity": 0.663
        },
        {
            "id": 119184,
            "original_name": "Augusto - Il primo imperatore",
            "popularity": 2.395
        },
        {
            "id": 121179,
            "original_name": "Johansens sidste ugudelige dage",
            "popularity": 0.6
        },
        {
            "id": 126306,
            "original_name": "Cheetah In August",
            "popularity": 0.6
        },
        {
            "id": 126776,
            "original_name": "TV-PORTUGUESA",
            "popularity": 0.6
        },
        {
            "id": 127983,
            "original_name": "Sixteen Shoukougun",
            "popularity": 0.6
        },
        {
            "id": 132797,
            "original_name": "Fugueuse",
            "popularity": 4.953
        },
        {
            "id": 134245,
            "original_name": "N\u00f3s, Portugueses",
            "popularity": 0.6
        }
    ],
    "relations": [
        {
            "character": "ugus"
        },
        {
            "character": "ugue"
        },
        {
            "character": "ugum"
        },
        {
            "character": "ugun"
        },
        {
            "character": "ugut"
        },
        {
            "character": "ugua"
        },
        {
            "character": "ugui"
        },
        {
            "character": "ugur"
        },
        {
            "character": "ugud"
        }
    ],
    "top20": [
        {
            "id": 76201,
            "original_name": "Fugueuse",
            "popularity": 8.725
        },
        {
            "id": 132797,
            "original_name": "Fugueuse",
            "popularity": 4.953
        },
        {
            "id": 52243,
            "original_name": "August Strindberg: Ett liv",
            "popularity": 2.483
        },
        {
            "id": 119184,
            "original_name": "Augusto - Il primo imperatore",
            "popularity": 2.395
        },
        {
            "id": 80382,
            "original_name": "Die unfreiwilligen Reisen des Moritz August Benjowski",
            "popularity": 2.067
        },
        {
            "id": 10247,
            "original_name": "Dan August",
            "popularity": 2.029
        },
        {
            "id": 46160,
            "original_name": "Barriga de Aluguel",
            "popularity": 1.771
        },
        {
            "id": 73615,
            "original_name": "August",
            "popularity": 1.75
        },
        {
            "id": 44672,
            "original_name": "Augustine: The Decline of the Roman Empire",
            "popularity": 1.273
        },
        {
            "id": 72195,
            "original_name": "Masterchef Uruguay",
            "popularity": 1.18
        },
        {
            "id": 78090,
            "original_name": "Rua Augusta",
            "popularity": 1.062
        },
        {
            "id": 83177,
            "original_name": "Ein Mann kam im August",
            "popularity": 0.96
        },
        {
            "id": 107966,
            "original_name": "Krabb\u00e9 zoekt Gauguin",
            "popularity": 0.663
        },
        {
            "id": 27960,
            "original_name": "Tsugumi e...",
            "popularity": 0.655
        },
        {
            "id": 79633,
            "original_name": "Portugueses pelo Mundo",
            "popularity": 0.611
        },
        {
            "id": 12800,
            "original_name": "Mundo de Juguete",
            "popularity": 0.6
        },
        {
            "id": 34430,
            "original_name": "UgunsGr\u0113ks",
            "popularity": 0.6
        },
        {
            "id": 41443,
            "original_name": "Tutti gli uomini sono uguali",
            "popularity": 0.6
        },
        {
            "id": 22208,
            "original_name": "Massugu ni Ikou",
            "popularity": 0.6
        },
        {
            "id": 41435,
            "original_name": "Saugut",
            "popularity": 0.6
        }
    ]
}