{
    "data": [
        {
            "id": 199,
            "original_name": "Kabuhayang Swak na Swak",
            "popularity": 0.6
        },
        {
            "id": 5387,
            "original_name": "Makuha Ka sa Tikim",
            "popularity": 0.6
        },
        {
            "id": 7767,
            "original_name": "Habang May Buhay",
            "popularity": 0.6
        },
        {
            "id": 11224,
            "original_name": "I Am the Greatest: The Adventures of Muhammad Ali",
            "popularity": 0.88
        },
        {
            "id": 14055,
            "original_name": "Dharti Ka Veer Yodha Prithviraj Chauhan",
            "popularity": 0.998
        },
        {
            "id": 16215,
            "original_name": "Buhay Ng Buhay Ko",
            "popularity": 0.6
        },
        {
            "id": 18659,
            "original_name": "Shaurya Aur Suhani",
            "popularity": 0.6
        },
        {
            "id": 18794,
            "original_name": "Mukha ng Buhay",
            "popularity": 0.6
        },
        {
            "id": 19318,
            "original_name": "Kumikitang Kabuhayan",
            "popularity": 0.6
        },
        {
            "id": 23647,
            "original_name": "Habang May Buhay",
            "popularity": 0.6
        },
        {
            "id": 23975,
            "original_name": "Tsuhan-Man",
            "popularity": 0.96
        },
        {
            "id": 33045,
            "original_name": "Panahon Ko 'to!: Ang Game Show ng Buhay Ko",
            "popularity": 0.6
        },
        {
            "id": 37728,
            "original_name": "Buhawi Jack",
            "popularity": 0.6
        },
        {
            "id": 37772,
            "original_name": "SHIBUHARA GIRLS",
            "popularity": 0.6
        },
        {
            "id": 39094,
            "original_name": "Khuda Aur Muhabbat",
            "popularity": 0.6
        },
        {
            "id": 39402,
            "original_name": "Hanep Buhay",
            "popularity": 0.6
        },
        {
            "id": 40320,
            "original_name": "Tunay Na Buhay",
            "popularity": 0.6
        },
        {
            "id": 41304,
            "original_name": "Zuhause im Gl\u00fcck \u2013 Unser Einzug in ein neues Leben",
            "popularity": 0.6
        },
        {
            "id": 46640,
            "original_name": "The Life of Muhammad",
            "popularity": 0.6
        },
        {
            "id": 50217,
            "original_name": "Tuhan Ada Dimana-mana",
            "popularity": 0.6
        },
        {
            "id": 50690,
            "original_name": "Muhabbet Kral\u0131",
            "popularity": 0.6
        },
        {
            "id": 51794,
            "original_name": "Surat Kecil Untuk Tuhan The Series",
            "popularity": 0.6
        },
        {
            "id": 53400,
            "original_name": "ZDF@Bauhaus",
            "popularity": 0.673
        },
        {
            "id": 54035,
            "original_name": "Muhammad Rasul Allah",
            "popularity": 0.6
        },
        {
            "id": 54249,
            "original_name": "Batta Wa Akhwatuha",
            "popularity": 0.6
        },
        {
            "id": 57372,
            "original_name": "Sapne Suhane Ladakpan Ke",
            "popularity": 1.769
        },
        {
            "id": 57806,
            "original_name": "Muhammad The Final Legacy",
            "popularity": 0.6
        },
        {
            "id": 58191,
            "original_name": "Isang Dakot Na Luha",
            "popularity": 0.6
        },
        {
            "id": 59959,
            "original_name": "Prinsesa ng Buhay Ko",
            "popularity": 0.6
        },
        {
            "id": 69619,
            "original_name": "\u010cetn\u00edci z Luha\u010dovic",
            "popularity": 0.941
        },
        {
            "id": 70679,
            "original_name": "Die Muhammad Ali Story",
            "popularity": 0.6
        },
        {
            "id": 74980,
            "original_name": "Bei Neuhaus zu Haus",
            "popularity": 0.6
        },
        {
            "id": 79026,
            "original_name": "Hakan: Muhaf\u0131z",
            "popularity": 28.11
        },
        {
            "id": 79038,
            "original_name": "Truhanes",
            "popularity": 0.84
        },
        {
            "id": 83814,
            "original_name": "Akutou ~ Juuhanzai Sousahan",
            "popularity": 0.6
        },
        {
            "id": 87148,
            "original_name": "What's My Name | Muhammad Ali",
            "popularity": 2.922
        },
        {
            "id": 92175,
            "original_name": "Lelaki Kiriman Tuhan",
            "popularity": 0.934
        },
        {
            "id": 95122,
            "original_name": "Tri, dva, jedan - kuhaj!",
            "popularity": 2.922
        },
        {
            "id": 101006,
            "original_name": "Hontou ni Atta Hitozuma Furin Kokuhaku",
            "popularity": 0.6
        },
        {
            "id": 102815,
            "original_name": "La Buhardilla",
            "popularity": 1.211
        },
        {
            "id": 102849,
            "original_name": "Hapi Ang Buhay",
            "popularity": 0.6
        },
        {
            "id": 103001,
            "original_name": "Buhay Na Buhay",
            "popularity": 0.6
        },
        {
            "id": 105186,
            "original_name": "Magandang Buhay",
            "popularity": 0.6
        },
        {
            "id": 105886,
            "original_name": "Zvl\u00e1\u0161tn\u00ed znamen\u00ed touha",
            "popularity": 0.6
        },
        {
            "id": 108342,
            "original_name": "Bidadari Kiriman Tuhan",
            "popularity": 0.895
        },
        {
            "id": 108886,
            "original_name": "Rauhantekij\u00e4",
            "popularity": 2.965
        },
        {
            "id": 118166,
            "original_name": "Die Liveshow bei Dir zuhause",
            "popularity": 0.6
        },
        {
            "id": 124148,
            "original_name": "Khudkash Muhabbat",
            "popularity": 0.6
        },
        {
            "id": 127951,
            "original_name": "Sabarlah Duhai Hati",
            "popularity": 0.707
        },
        {
            "id": 128907,
            "original_name": "Muhammad Ali",
            "popularity": 2.269
        },
        {
            "id": 133234,
            "original_name": "Nagbabagang Luha",
            "popularity": 0.6
        }
    ],
    "relations": [
        {
            "character": "uhay"
        },
        {
            "character": "uham"
        },
        {
            "character": "uhan"
        },
        {
            "character": "uhaw"
        },
        {
            "character": "uhar"
        },
        {
            "character": "uhab"
        },
        {
            "character": "uhau"
        },
        {
            "character": "uhaf"
        },
        {
            "character": "uhaj"
        },
        {
            "character": "uhak"
        },
        {
            "character": "uhai"
        }
    ],
    "top20": [
        {
            "id": 79026,
            "original_name": "Hakan: Muhaf\u0131z",
            "popularity": 28.11
        },
        {
            "id": 108886,
            "original_name": "Rauhantekij\u00e4",
            "popularity": 2.965
        },
        {
            "id": 95122,
            "original_name": "Tri, dva, jedan - kuhaj!",
            "popularity": 2.922
        },
        {
            "id": 87148,
            "original_name": "What's My Name | Muhammad Ali",
            "popularity": 2.922
        },
        {
            "id": 128907,
            "original_name": "Muhammad Ali",
            "popularity": 2.269
        },
        {
            "id": 57372,
            "original_name": "Sapne Suhane Ladakpan Ke",
            "popularity": 1.769
        },
        {
            "id": 102815,
            "original_name": "La Buhardilla",
            "popularity": 1.211
        },
        {
            "id": 14055,
            "original_name": "Dharti Ka Veer Yodha Prithviraj Chauhan",
            "popularity": 0.998
        },
        {
            "id": 23975,
            "original_name": "Tsuhan-Man",
            "popularity": 0.96
        },
        {
            "id": 69619,
            "original_name": "\u010cetn\u00edci z Luha\u010dovic",
            "popularity": 0.941
        },
        {
            "id": 92175,
            "original_name": "Lelaki Kiriman Tuhan",
            "popularity": 0.934
        },
        {
            "id": 108342,
            "original_name": "Bidadari Kiriman Tuhan",
            "popularity": 0.895
        },
        {
            "id": 11224,
            "original_name": "I Am the Greatest: The Adventures of Muhammad Ali",
            "popularity": 0.88
        },
        {
            "id": 79038,
            "original_name": "Truhanes",
            "popularity": 0.84
        },
        {
            "id": 127951,
            "original_name": "Sabarlah Duhai Hati",
            "popularity": 0.707
        },
        {
            "id": 53400,
            "original_name": "ZDF@Bauhaus",
            "popularity": 0.673
        },
        {
            "id": 199,
            "original_name": "Kabuhayang Swak na Swak",
            "popularity": 0.6
        },
        {
            "id": 5387,
            "original_name": "Makuha Ka sa Tikim",
            "popularity": 0.6
        },
        {
            "id": 7767,
            "original_name": "Habang May Buhay",
            "popularity": 0.6
        },
        {
            "id": 16215,
            "original_name": "Buhay Ng Buhay Ko",
            "popularity": 0.6
        }
    ]
}