{
    "data": [
        {
            "id": 41304,
            "original_name": "Zuhause im Gl\u00fcck \u2013 Unser Einzug in ein neues Leben",
            "popularity": 0.6
        },
        {
            "id": 53400,
            "original_name": "ZDF@Bauhaus",
            "popularity": 0.673
        },
        {
            "id": 74980,
            "original_name": "Bei Neuhaus zu Haus",
            "popularity": 0.6
        },
        {
            "id": 118166,
            "original_name": "Die Liveshow bei Dir zuhause",
            "popularity": 0.6
        }
    ],
    "relations": [],
    "top20": [
        {
            "id": 41304,
            "original_name": "Zuhause im Gl\u00fcck \u2013 Unser Einzug in ein neues Leben",
            "popularity": 0.6
        },
        {
            "id": 53400,
            "original_name": "ZDF@Bauhaus",
            "popularity": 0.673
        },
        {
            "id": 74980,
            "original_name": "Bei Neuhaus zu Haus",
            "popularity": 0.6
        },
        {
            "id": 118166,
            "original_name": "Die Liveshow bei Dir zuhause",
            "popularity": 0.6
        }
    ]
}