{
    "data": [
        {
            "id": 14519,
            "original_name": "(All Quiet on the) Preston Front",
            "popularity": 6.762
        },
        {
            "id": 20223,
            "original_name": "Effie: Just Quietly",
            "popularity": 0.6
        },
        {
            "id": 26776,
            "original_name": "A Quiet Conspiracy",
            "popularity": 0.6
        },
        {
            "id": 40033,
            "original_name": "A Quiet Word With ...",
            "popularity": 0.6
        },
        {
            "id": 44123,
            "original_name": "Quiet Campus",
            "popularity": 0.6
        }
    ],
    "relations": [],
    "top20": [
        {
            "id": 14519,
            "original_name": "(All Quiet on the) Preston Front",
            "popularity": 6.762
        },
        {
            "id": 20223,
            "original_name": "Effie: Just Quietly",
            "popularity": 0.6
        },
        {
            "id": 26776,
            "original_name": "A Quiet Conspiracy",
            "popularity": 0.6
        },
        {
            "id": 40033,
            "original_name": "A Quiet Word With ...",
            "popularity": 0.6
        },
        {
            "id": 44123,
            "original_name": "Quiet Campus",
            "popularity": 0.6
        }
    ]
}