{
    "data": [
        {
            "id": 19982,
            "original_name": "Juilliard and Beyond: A Life in Music",
            "popularity": 0.6
        },
        {
            "id": 113340,
            "original_name": "Une saison \u00e0 la Juilliard School",
            "popularity": 0.6
        },
        {
            "id": 126097,
            "original_name": "Factor Guillier",
            "popularity": 0.93
        }
    ],
    "relations": [],
    "top20": [
        {
            "id": 19982,
            "original_name": "Juilliard and Beyond: A Life in Music",
            "popularity": 0.6
        },
        {
            "id": 113340,
            "original_name": "Une saison \u00e0 la Juilliard School",
            "popularity": 0.6
        },
        {
            "id": 126097,
            "original_name": "Factor Guillier",
            "popularity": 0.93
        }
    ]
}