{
    "data": [
        {
            "id": 36485,
            "original_name": "Robs Grote Tuinverbouwing",
            "popularity": 0.6
        }
    ],
    "relations": [],
    "top20": [
        {
            "id": 36485,
            "original_name": "Robs Grote Tuinverbouwing",
            "popularity": 0.6
        }
    ]
}