{
    "data": [
        {
            "id": 22090,
            "original_name": "Pauline's Quirkes",
            "popularity": 0.6
        },
        {
            "id": 61874,
            "original_name": "Quirke",
            "popularity": 4.756
        }
    ],
    "relations": [],
    "top20": [
        {
            "id": 22090,
            "original_name": "Pauline's Quirkes",
            "popularity": 0.6
        },
        {
            "id": 61874,
            "original_name": "Quirke",
            "popularity": 4.756
        }
    ]
}