{
    "data": [
        {
            "id": 20345,
            "original_name": "Wan Wan Celeb Soreyuke! Tetsunoshin",
            "popularity": 1.509
        },
        {
            "id": 23702,
            "original_name": "Soreyuke! Gedou Otometai",
            "popularity": 0.604
        },
        {
            "id": 62304,
            "original_name": "LUKE! Die Woche und ich",
            "popularity": 0.6
        },
        {
            "id": 109361,
            "original_name": "LUKE! Die Schule und ich",
            "popularity": 0.602
        },
        {
            "id": 109362,
            "original_name": "LUKE! Die Greatnightshow",
            "popularity": 0.6
        }
    ],
    "relations": [],
    "top20": [
        {
            "id": 20345,
            "original_name": "Wan Wan Celeb Soreyuke! Tetsunoshin",
            "popularity": 1.509
        },
        {
            "id": 23702,
            "original_name": "Soreyuke! Gedou Otometai",
            "popularity": 0.604
        },
        {
            "id": 62304,
            "original_name": "LUKE! Die Woche und ich",
            "popularity": 0.6
        },
        {
            "id": 109361,
            "original_name": "LUKE! Die Schule und ich",
            "popularity": 0.602
        },
        {
            "id": 109362,
            "original_name": "LUKE! Die Greatnightshow",
            "popularity": 0.6
        }
    ]
}