{
    "data": [
        {
            "id": 20002,
            "original_name": "Huckleberry no Bouken",
            "popularity": 0.6
        },
        {
            "id": 21487,
            "original_name": "JIUKEN",
            "popularity": 0.6
        },
        {
            "id": 28246,
            "original_name": "Space Oz no Bouken",
            "popularity": 0.6
        },
        {
            "id": 35848,
            "original_name": "Wilde keuken, De",
            "popularity": 0.6
        },
        {
            "id": 38394,
            "original_name": "De Keuken van de Meester",
            "popularity": 0.6
        },
        {
            "id": 73808,
            "original_name": "Halsduken",
            "popularity": 0.608
        },
        {
            "id": 75139,
            "original_name": "Ukens vinner",
            "popularity": 1.167
        },
        {
            "id": 84198,
            "original_name": "Gekokujo Juken",
            "popularity": 0.626
        },
        {
            "id": 113958,
            "original_name": "De proefkeuken",
            "popularity": 0.639
        },
        {
            "id": 119942,
            "original_name": "De Wilde Keuken",
            "popularity": 0.644
        },
        {
            "id": 136017,
            "original_name": "De Wereldkeuken",
            "popularity": 0.6
        },
        {
            "id": 138126,
            "original_name": "Kotetsu no Daibouken",
            "popularity": 0.827
        }
    ],
    "relations": [],
    "top20": [
        {
            "id": 20002,
            "original_name": "Huckleberry no Bouken",
            "popularity": 0.6
        },
        {
            "id": 21487,
            "original_name": "JIUKEN",
            "popularity": 0.6
        },
        {
            "id": 28246,
            "original_name": "Space Oz no Bouken",
            "popularity": 0.6
        },
        {
            "id": 35848,
            "original_name": "Wilde keuken, De",
            "popularity": 0.6
        },
        {
            "id": 38394,
            "original_name": "De Keuken van de Meester",
            "popularity": 0.6
        },
        {
            "id": 73808,
            "original_name": "Halsduken",
            "popularity": 0.608
        },
        {
            "id": 75139,
            "original_name": "Ukens vinner",
            "popularity": 1.167
        },
        {
            "id": 84198,
            "original_name": "Gekokujo Juken",
            "popularity": 0.626
        },
        {
            "id": 113958,
            "original_name": "De proefkeuken",
            "popularity": 0.639
        },
        {
            "id": 119942,
            "original_name": "De Wilde Keuken",
            "popularity": 0.644
        },
        {
            "id": 136017,
            "original_name": "De Wereldkeuken",
            "popularity": 0.6
        },
        {
            "id": 138126,
            "original_name": "Kotetsu no Daibouken",
            "popularity": 0.827
        }
    ]
}