{
    "data": [
        {
            "id": 34212,
            "original_name": "Otogi-Juushi Akazukin",
            "popularity": 1.34
        }
    ],
    "relations": [],
    "top20": [
        {
            "id": 34212,
            "original_name": "Otogi-Juushi Akazukin",
            "popularity": 1.34
        }
    ]
}