{
    "data": [
        {
            "id": 16085,
            "original_name": "Et Dukkehjem",
            "popularity": 0.6
        },
        {
            "id": 16597,
            "original_name": "Hukkaputki",
            "popularity": 0.6
        },
        {
            "id": 17897,
            "original_name": "Nukkad",
            "popularity": 0.6
        },
        {
            "id": 24753,
            "original_name": "12 steden, 13 ongelukken",
            "popularity": 3.902
        },
        {
            "id": 27706,
            "original_name": "Gelukkig je bent er",
            "popularity": 0.6
        },
        {
            "id": 29402,
            "original_name": "Geld maakt gelukkig?",
            "popularity": 0.6
        },
        {
            "id": 30549,
            "original_name": "Niet gelukkig, geld terug",
            "popularity": 0.6
        },
        {
            "id": 36967,
            "original_name": "Hoe word ik gelukkig",
            "popularity": 0.6
        },
        {
            "id": 37832,
            "original_name": "21 manieren om gelukkig te worden",
            "popularity": 0.6
        },
        {
            "id": 49926,
            "original_name": "Komedi Dukkani",
            "popularity": 1.176
        },
        {
            "id": 52768,
            "original_name": "Et dukkehjem",
            "popularity": 0.6
        },
        {
            "id": 56769,
            "original_name": "Luang Lub Tub Taek Tukky Tukky Show",
            "popularity": 0.6
        },
        {
            "id": 57281,
            "original_name": "Tukka auki",
            "popularity": 0.6
        },
        {
            "id": 72375,
            "original_name": "Stukken van Mensen",
            "popularity": 0.6
        },
        {
            "id": 72886,
            "original_name": "Sukkertoppen",
            "popularity": 0.6
        },
        {
            "id": 79032,
            "original_name": "Tjukken og lillemor",
            "popularity": 0.638
        },
        {
            "id": 88120,
            "original_name": "Panik f\u00f8r lukketid",
            "popularity": 0.6
        },
        {
            "id": 95017,
            "original_name": "Da Sj\u00e6lland lukkede ned",
            "popularity": 0.6
        },
        {
            "id": 96543,
            "original_name": "Mighty Man and Yukk",
            "popularity": 1.728
        },
        {
            "id": 97095,
            "original_name": "Sukkerchok",
            "popularity": 0.6
        },
        {
            "id": 120430,
            "original_name": "Lys p\u00e5 den lukkede",
            "popularity": 0.6
        },
        {
            "id": 121198,
            "original_name": "Lukket visning",
            "popularity": 0.6
        },
        {
            "id": 131542,
            "original_name": "Molukkers in Nederland 70 jaar op weg naar huis",
            "popularity": 0.6
        },
        {
            "id": 131951,
            "original_name": "Bidt, br\u00e6ndt og stukket",
            "popularity": 0.6
        }
    ],
    "relations": [
        {
            "character": "ukke"
        },
        {
            "character": "ukka"
        },
        {
            "character": "ukki"
        },
        {
            "character": "ukky"
        }
    ],
    "top20": [
        {
            "id": 24753,
            "original_name": "12 steden, 13 ongelukken",
            "popularity": 3.902
        },
        {
            "id": 96543,
            "original_name": "Mighty Man and Yukk",
            "popularity": 1.728
        },
        {
            "id": 49926,
            "original_name": "Komedi Dukkani",
            "popularity": 1.176
        },
        {
            "id": 79032,
            "original_name": "Tjukken og lillemor",
            "popularity": 0.638
        },
        {
            "id": 37832,
            "original_name": "21 manieren om gelukkig te worden",
            "popularity": 0.6
        },
        {
            "id": 29402,
            "original_name": "Geld maakt gelukkig?",
            "popularity": 0.6
        },
        {
            "id": 97095,
            "original_name": "Sukkerchok",
            "popularity": 0.6
        },
        {
            "id": 27706,
            "original_name": "Gelukkig je bent er",
            "popularity": 0.6
        },
        {
            "id": 72886,
            "original_name": "Sukkertoppen",
            "popularity": 0.6
        },
        {
            "id": 17897,
            "original_name": "Nukkad",
            "popularity": 0.6
        },
        {
            "id": 30549,
            "original_name": "Niet gelukkig, geld terug",
            "popularity": 0.6
        },
        {
            "id": 16085,
            "original_name": "Et Dukkehjem",
            "popularity": 0.6
        },
        {
            "id": 72375,
            "original_name": "Stukken van Mensen",
            "popularity": 0.6
        },
        {
            "id": 36967,
            "original_name": "Hoe word ik gelukkig",
            "popularity": 0.6
        },
        {
            "id": 52768,
            "original_name": "Et dukkehjem",
            "popularity": 0.6
        },
        {
            "id": 95017,
            "original_name": "Da Sj\u00e6lland lukkede ned",
            "popularity": 0.6
        },
        {
            "id": 56769,
            "original_name": "Luang Lub Tub Taek Tukky Tukky Show",
            "popularity": 0.6
        },
        {
            "id": 16597,
            "original_name": "Hukkaputki",
            "popularity": 0.6
        },
        {
            "id": 88120,
            "original_name": "Panik f\u00f8r lukketid",
            "popularity": 0.6
        },
        {
            "id": 57281,
            "original_name": "Tukka auki",
            "popularity": 0.6
        }
    ]
}