{
    "data": [
        {
            "id": 3228,
            "original_name": "Juukou B-Fighter",
            "popularity": 0.842
        },
        {
            "id": 61436,
            "original_name": "Koukou Butouden Crows",
            "popularity": 0.6
        },
        {
            "id": 83920,
            "original_name": "Choukou Tenshi Escalayer",
            "popularity": 0.6
        },
        {
            "id": 127983,
            "original_name": "Sixteen Shoukougun",
            "popularity": 0.6
        }
    ],
    "relations": [],
    "top20": [
        {
            "id": 3228,
            "original_name": "Juukou B-Fighter",
            "popularity": 0.842
        },
        {
            "id": 61436,
            "original_name": "Koukou Butouden Crows",
            "popularity": 0.6
        },
        {
            "id": 83920,
            "original_name": "Choukou Tenshi Escalayer",
            "popularity": 0.6
        },
        {
            "id": 127983,
            "original_name": "Sixteen Shoukougun",
            "popularity": 0.6
        }
    ]
}