{
    "data": [
        {
            "id": 648,
            "original_name": "The Incredible Hulk",
            "popularity": 24.226
        },
        {
            "id": 6332,
            "original_name": "The Incredible Hulk",
            "popularity": 16.484
        },
        {
            "id": 7374,
            "original_name": "Hulk Hogan's Celebrity Championship Wrestling",
            "popularity": 1.761
        },
        {
            "id": 11016,
            "original_name": "Hulk Hogan's Rock 'n' Wrestling",
            "popularity": 3.839
        },
        {
            "id": 11328,
            "original_name": "The Incredible Hulk",
            "popularity": 6.983
        },
        {
            "id": 37638,
            "original_name": "Mrs. Tendulkar",
            "popularity": 0.6
        },
        {
            "id": 38309,
            "original_name": "Faulks On Fiction",
            "popularity": 0.6
        },
        {
            "id": 40044,
            "original_name": "Marvel\u2019s Hulk and the Agents of S.M.A.S.H",
            "popularity": 22.309
        },
        {
            "id": 43422,
            "original_name": "Pulkkinen",
            "popularity": 1.288
        },
        {
            "id": 50272,
            "original_name": "Kabulkan Doaku",
            "popularity": 0.6
        },
        {
            "id": 55030,
            "original_name": "Klasses julkalender",
            "popularity": 0.6
        },
        {
            "id": 58402,
            "original_name": "Mulk",
            "popularity": 0.6
        },
        {
            "id": 65487,
            "original_name": "Ultimate Wolverine vs. Hulk",
            "popularity": 1.267
        },
        {
            "id": 65697,
            "original_name": "Ummikot ulkomailla",
            "popularity": 0.6
        },
        {
            "id": 69048,
            "original_name": "The Wild Life of Tim Faulkner",
            "popularity": 0.6
        },
        {
            "id": 86859,
            "original_name": "Bambulka a Bazil\u00ednek",
            "popularity": 0.6
        },
        {
            "id": 90436,
            "original_name": "Ohne Maulkorb",
            "popularity": 0.6
        },
        {
            "id": 91573,
            "original_name": "L\u00edskulka",
            "popularity": 0.6
        },
        {
            "id": 91906,
            "original_name": "Fem myror \u00e4r fler \u00e4n fyra elefanter (julkalender)",
            "popularity": 1.757
        },
        {
            "id": 92783,
            "original_name": "She-Hulk",
            "popularity": 10.556
        },
        {
            "id": 96206,
            "original_name": "Vazelina hjulkalender",
            "popularity": 4.033
        },
        {
            "id": 99731,
            "original_name": "Vulkane in Neuseeland",
            "popularity": 0.6
        },
        {
            "id": 126209,
            "original_name": "Julkalendern",
            "popularity": 235.578
        },
        {
            "id": 128744,
            "original_name": "KAJ:s julkalender",
            "popularity": 0.6
        },
        {
            "id": 129017,
            "original_name": "Toulky \u010ceskem budoucnosti",
            "popularity": 0.6
        }
    ],
    "relations": [
        {
            "character": "ulka"
        },
        {
            "character": "ulks"
        },
        {
            "character": "ulkk"
        },
        {
            "character": "ulko"
        },
        {
            "character": "ulkn"
        },
        {
            "character": "ulky"
        }
    ],
    "top20": [
        {
            "id": 126209,
            "original_name": "Julkalendern",
            "popularity": 235.578
        },
        {
            "id": 648,
            "original_name": "The Incredible Hulk",
            "popularity": 24.226
        },
        {
            "id": 40044,
            "original_name": "Marvel\u2019s Hulk and the Agents of S.M.A.S.H",
            "popularity": 22.309
        },
        {
            "id": 6332,
            "original_name": "The Incredible Hulk",
            "popularity": 16.484
        },
        {
            "id": 92783,
            "original_name": "She-Hulk",
            "popularity": 10.556
        },
        {
            "id": 11328,
            "original_name": "The Incredible Hulk",
            "popularity": 6.983
        },
        {
            "id": 96206,
            "original_name": "Vazelina hjulkalender",
            "popularity": 4.033
        },
        {
            "id": 11016,
            "original_name": "Hulk Hogan's Rock 'n' Wrestling",
            "popularity": 3.839
        },
        {
            "id": 7374,
            "original_name": "Hulk Hogan's Celebrity Championship Wrestling",
            "popularity": 1.761
        },
        {
            "id": 91906,
            "original_name": "Fem myror \u00e4r fler \u00e4n fyra elefanter (julkalender)",
            "popularity": 1.757
        },
        {
            "id": 43422,
            "original_name": "Pulkkinen",
            "popularity": 1.288
        },
        {
            "id": 65487,
            "original_name": "Ultimate Wolverine vs. Hulk",
            "popularity": 1.267
        },
        {
            "id": 69048,
            "original_name": "The Wild Life of Tim Faulkner",
            "popularity": 0.6
        },
        {
            "id": 55030,
            "original_name": "Klasses julkalender",
            "popularity": 0.6
        },
        {
            "id": 37638,
            "original_name": "Mrs. Tendulkar",
            "popularity": 0.6
        },
        {
            "id": 86859,
            "original_name": "Bambulka a Bazil\u00ednek",
            "popularity": 0.6
        },
        {
            "id": 38309,
            "original_name": "Faulks On Fiction",
            "popularity": 0.6
        },
        {
            "id": 50272,
            "original_name": "Kabulkan Doaku",
            "popularity": 0.6
        },
        {
            "id": 65697,
            "original_name": "Ummikot ulkomailla",
            "popularity": 0.6
        },
        {
            "id": 58402,
            "original_name": "Mulk",
            "popularity": 0.6
        }
    ]
}