{
    "data": [
        {
            "id": 10201,
            "original_name": "Bullpitt!",
            "popularity": 0.6
        }
    ],
    "relations": [],
    "top20": [
        {
            "id": 10201,
            "original_name": "Bullpitt!",
            "popularity": 0.6
        }
    ]
}