{
    "data": [
        {
            "id": 57811,
            "original_name": "Jiskefet: Multilul",
            "popularity": 0.6
        }
    ],
    "relations": [],
    "top20": [
        {
            "id": 57811,
            "original_name": "Jiskefet: Multilul",
            "popularity": 0.6
        }
    ]
}