{
    "data": [
        {
            "id": 20240,
            "original_name": "Sunday Live with Adam Boulton",
            "popularity": 0.6
        },
        {
            "id": 39075,
            "original_name": "Boulton & Co",
            "popularity": 0.6
        },
        {
            "id": 64344,
            "original_name": "Tras Lo Oculto",
            "popularity": 0.6
        },
        {
            "id": 79527,
            "original_name": "Tocando o Oculto",
            "popularity": 0.6
        },
        {
            "id": 81278,
            "original_name": "El Cine Oculto",
            "popularity": 0.6
        },
        {
            "id": 87392,
            "original_name": "Quem Quer Namorar com o Agricultor?",
            "popularity": 0.6
        },
        {
            "id": 90916,
            "original_name": "Portugal Culto e Oculto",
            "popularity": 0.6
        },
        {
            "id": 98866,
            "original_name": "El mundo oculto de Sabrina",
            "popularity": 1.743
        }
    ],
    "relations": [],
    "top20": [
        {
            "id": 20240,
            "original_name": "Sunday Live with Adam Boulton",
            "popularity": 0.6
        },
        {
            "id": 39075,
            "original_name": "Boulton & Co",
            "popularity": 0.6
        },
        {
            "id": 64344,
            "original_name": "Tras Lo Oculto",
            "popularity": 0.6
        },
        {
            "id": 79527,
            "original_name": "Tocando o Oculto",
            "popularity": 0.6
        },
        {
            "id": 81278,
            "original_name": "El Cine Oculto",
            "popularity": 0.6
        },
        {
            "id": 87392,
            "original_name": "Quem Quer Namorar com o Agricultor?",
            "popularity": 0.6
        },
        {
            "id": 90916,
            "original_name": "Portugal Culto e Oculto",
            "popularity": 0.6
        },
        {
            "id": 98866,
            "original_name": "El mundo oculto de Sabrina",
            "popularity": 1.743
        }
    ]
}