{
    "data": [
        {
            "id": 31808,
            "original_name": "Gumapang Ka Sa Lusak",
            "popularity": 0.6
        }
    ],
    "relations": [],
    "top20": [
        {
            "id": 31808,
            "original_name": "Gumapang Ka Sa Lusak",
            "popularity": 0.6
        }
    ]
}