{
    "data": [
        {
            "id": 107,
            "original_name": "Lagot Ka, Isusumbong Kita",
            "popularity": 0.894
        },
        {
            "id": 471,
            "original_name": "Number 1 Single",
            "popularity": 0.6
        },
        {
            "id": 578,
            "original_name": "Numb3rs",
            "popularity": 29.474
        },
        {
            "id": 873,
            "original_name": "Columbo",
            "popularity": 54.221
        },
        {
            "id": 1007,
            "original_name": "Mrs. Columbo",
            "popularity": 4.445
        },
        {
            "id": 1491,
            "original_name": "Dumbo's Circus",
            "popularity": 3.552
        },
        {
            "id": 1561,
            "original_name": "Crumbs",
            "popularity": 3.632
        },
        {
            "id": 2169,
            "original_name": "Dumber & Dumberest",
            "popularity": 0.6
        },
        {
            "id": 2708,
            "original_name": "Under the Umbrella Tree",
            "popularity": 2.804
        },
        {
            "id": 3229,
            "original_name": "Number 96",
            "popularity": 10.466
        },
        {
            "id": 3278,
            "original_name": "Numberjacks",
            "popularity": 4.925
        },
        {
            "id": 4429,
            "original_name": "The Lion King's Timon & Pumbaa",
            "popularity": 37.104
        },
        {
            "id": 5199,
            "original_name": "Road Hockey Rumble",
            "popularity": 0.6
        },
        {
            "id": 5195,
            "original_name": "DumbLand",
            "popularity": 3.786
        },
        {
            "id": 7014,
            "original_name": "Jodi Number One",
            "popularity": 0.6
        },
        {
            "id": 7651,
            "original_name": "World's Dumbest...",
            "popularity": 0.84
        },
        {
            "id": 7972,
            "original_name": "Dumb and Dumber",
            "popularity": 4.158
        },
        {
            "id": 8064,
            "original_name": "As the Cookie Crumbles",
            "popularity": 0.6
        },
        {
            "id": 8604,
            "original_name": "Yeh Hai Mumbai Meri Jaan",
            "popularity": 0.6
        },
        {
            "id": 8887,
            "original_name": "Thumb Candy: The History of Computer Games",
            "popularity": 0.6
        },
        {
            "id": 9015,
            "original_name": "Number Ones",
            "popularity": 0.6
        },
        {
            "id": 9022,
            "original_name": "Cucumber",
            "popularity": 0.6
        },
        {
            "id": 9170,
            "original_name": "Thumb Wrestling Federation",
            "popularity": 0.842
        },
        {
            "id": 10206,
            "original_name": "Number Please",
            "popularity": 0.6
        },
        {
            "id": 10471,
            "original_name": "Real Sports with Bryant Gumbel",
            "popularity": 4.737
        },
        {
            "id": 11214,
            "original_name": "Jumble",
            "popularity": 0.6
        },
        {
            "id": 12105,
            "original_name": "Your Number's Up",
            "popularity": 0.6
        },
        {
            "id": 12411,
            "original_name": "America's Dumbest Criminals",
            "popularity": 0.68
        },
        {
            "id": 12442,
            "original_name": "The Mumbly Cartoon Show",
            "popularity": 2.195
        },
        {
            "id": 12649,
            "original_name": "George Stroumboulopoulos Tonight",
            "popularity": 2.344
        },
        {
            "id": 12784,
            "original_name": "Outnumbered",
            "popularity": 4.937
        },
        {
            "id": 13316,
            "original_name": "Thumb Bandits",
            "popularity": 0.6
        },
        {
            "id": 13461,
            "original_name": "Jumborg Ace",
            "popularity": 0.859
        },
        {
            "id": 13984,
            "original_name": "Bumble",
            "popularity": 0.876
        },
        {
            "id": 14043,
            "original_name": "Numbertime",
            "popularity": 0.6
        },
        {
            "id": 14721,
            "original_name": "Jumble",
            "popularity": 0.6
        },
        {
            "id": 15075,
            "original_name": "Mumble Bumble",
            "popularity": 0.6
        },
        {
            "id": 15198,
            "original_name": "Talking Telephone Numbers",
            "popularity": 0.659
        },
        {
            "id": 16728,
            "original_name": "The Gumby Show",
            "popularity": 1.939
        },
        {
            "id": 16875,
            "original_name": "Lucky Numbers",
            "popularity": 0.6
        },
        {
            "id": 17220,
            "original_name": "Number One With a Bullet",
            "popularity": 0.6
        },
        {
            "id": 18532,
            "original_name": "Mumbai Calling",
            "popularity": 1.4
        },
        {
            "id": 18753,
            "original_name": "Surviving Columbus",
            "popularity": 0.6
        },
        {
            "id": 18900,
            "original_name": "Public Eye with Bryant Gumbel",
            "popularity": 0.6
        },
        {
            "id": 19116,
            "original_name": "Drumbeat",
            "popularity": 0.6
        },
        {
            "id": 20063,
            "original_name": "The Silver Brumby",
            "popularity": 1.382
        },
        {
            "id": 20083,
            "original_name": "Gumbasia",
            "popularity": 0.6
        },
        {
            "id": 20623,
            "original_name": "Jodi Number One",
            "popularity": 0.6
        },
        {
            "id": 20625,
            "original_name": "Jodi Number One",
            "popularity": 0.6
        },
        {
            "id": 20744,
            "original_name": "Kumbira",
            "popularity": 0.6
        },
        {
            "id": 21063,
            "original_name": "Let's Rhumba",
            "popularity": 0.6
        },
        {
            "id": 21258,
            "original_name": "Jacobo Timerman: Prisoner Without a Name, Cell Without a Number",
            "popularity": 0.6
        },
        {
            "id": 21366,
            "original_name": "The Number Man - Bach at Three Hundred",
            "popularity": 0.6
        },
        {
            "id": 21834,
            "original_name": "Number 96 (US)",
            "popularity": 1.34
        },
        {
            "id": 22085,
            "original_name": "The Bumblies",
            "popularity": 0.84
        },
        {
            "id": 22888,
            "original_name": "Gumby Adventures",
            "popularity": 1.778
        },
        {
            "id": 23126,
            "original_name": "Rumble",
            "popularity": 0.6
        },
        {
            "id": 23298,
            "original_name": "Silent Number",
            "popularity": 0.639
        },
        {
            "id": 24550,
            "original_name": "DIY Plumbing",
            "popularity": 0.6
        },
        {
            "id": 25681,
            "original_name": "40 Dumbest Celebrity Quotes... Ever",
            "popularity": 0.6
        },
        {
            "id": 25942,
            "original_name": "Chromiumblue.com",
            "popularity": 1.468
        },
        {
            "id": 26105,
            "original_name": "Australia By Numbers",
            "popularity": 0.6
        },
        {
            "id": 27166,
            "original_name": "The Humble Report",
            "popularity": 0.6
        },
        {
            "id": 27191,
            "original_name": "Het Ei van Columbus",
            "popularity": 0.6
        },
        {
            "id": 27295,
            "original_name": "The National Lottery: We Got Your Number",
            "popularity": 0.6
        },
        {
            "id": 27422,
            "original_name": "The True Adventures of Christopher Columbus",
            "popularity": 0.832
        },
        {
            "id": 27540,
            "original_name": "Number Six",
            "popularity": 0.6
        },
        {
            "id": 27655,
            "original_name": "Jumbo Spencer",
            "popularity": 1.09
        },
        {
            "id": 27804,
            "original_name": "Dumb Bunnies",
            "popularity": 0.6
        },
        {
            "id": 28622,
            "original_name": "Young, Dumb And Living Off Mum",
            "popularity": 0.6
        },
        {
            "id": 28664,
            "original_name": "Hey! Bumboo",
            "popularity": 0.6
        },
        {
            "id": 28978,
            "original_name": "Ed the Plumber",
            "popularity": 0.6
        },
        {
            "id": 29421,
            "original_name": "Number 10",
            "popularity": 0.736
        },
        {
            "id": 29609,
            "original_name": "The Number Crew",
            "popularity": 0.6
        },
        {
            "id": 30542,
            "original_name": "The Wumblers",
            "popularity": 0.6
        },
        {
            "id": 31064,
            "original_name": "Rubbish, King of the Jumble",
            "popularity": 0.6
        },
        {
            "id": 32263,
            "original_name": "We've Got Your Number",
            "popularity": 0.6
        },
        {
            "id": 33411,
            "original_name": "Magic Numbers",
            "popularity": 0.856
        },
        {
            "id": 34459,
            "original_name": "Young, Dumb and Living Off Mum",
            "popularity": 0.6
        },
        {
            "id": 34985,
            "original_name": "Letters and Numbers",
            "popularity": 0.6
        },
        {
            "id": 35925,
            "original_name": "Body in Numbers",
            "popularity": 0.6
        },
        {
            "id": 36319,
            "original_name": "E numbers: An Edible Adventure",
            "popularity": 0.6
        },
        {
            "id": 36346,
            "original_name": "Gumball 3000",
            "popularity": 1.457
        },
        {
            "id": 36735,
            "original_name": "The Grumbleweeds Radio Show",
            "popularity": 0.6
        },
        {
            "id": 37606,
            "original_name": "The Amazing World of Gumball",
            "popularity": 121.144
        },
        {
            "id": 42934,
            "original_name": "Columbus and the Age of Discovery",
            "popularity": 0.6
        },
        {
            "id": 43431,
            "original_name": "Zulu Gumball",
            "popularity": 2.301
        },
        {
            "id": 43650,
            "original_name": "Arabela se vrac\u00ed aneb Rumburak kr\u00e1lem \u0158\u00ed\u0161e poh\u00e1dek",
            "popularity": 2.29
        },
        {
            "id": 44496,
            "original_name": "Cirkus Humberto",
            "popularity": 1.569
        },
        {
            "id": 44928,
            "original_name": "The Umbrella",
            "popularity": 1.11
        },
        {
            "id": 45626,
            "original_name": "Girl Number 9",
            "popularity": 1.712
        },
        {
            "id": 46851,
            "original_name": "Tiny Tumble",
            "popularity": 0.6
        },
        {
            "id": 46979,
            "original_name": "My House in Umbria",
            "popularity": 0.6
        },
        {
            "id": 47909,
            "original_name": "Think of a Number",
            "popularity": 0.62
        },
        {
            "id": 48151,
            "original_name": "Detective Columbus",
            "popularity": 0.6
        },
        {
            "id": 48332,
            "original_name": "Christopher Columbus",
            "popularity": 2.931
        },
        {
            "id": 49452,
            "original_name": "Numberphile",
            "popularity": 0.7
        },
        {
            "id": 50021,
            "original_name": "Bumba",
            "popularity": 4.074
        },
        {
            "id": 53175,
            "original_name": "Lumini \u0219i umbre",
            "popularity": 0.6
        },
        {
            "id": 53358,
            "original_name": "Wild Shepherdess with Kate Humble",
            "popularity": 0.6
        },
        {
            "id": 53925,
            "original_name": "Meltem Cumbul Show",
            "popularity": 0.6
        },
        {
            "id": 55393,
            "original_name": "Dumb, Drunk & Racist",
            "popularity": 0.6
        },
        {
            "id": 56169,
            "original_name": "Borisut Bumbut Kaen",
            "popularity": 0.6
        },
        {
            "id": 57293,
            "original_name": "Martina & Esko: Isku Kolumbiaan",
            "popularity": 0.6
        },
        {
            "id": 57956,
            "original_name": "Rumbarola",
            "popularity": 0.6
        },
        {
            "id": 58948,
            "original_name": "Stage a Number",
            "popularity": 0.6
        },
        {
            "id": 59245,
            "original_name": "America By the Numbers with Maria Hinojosa: Clarkston Georgia",
            "popularity": 0.6
        },
        {
            "id": 59484,
            "original_name": "Numbers Never Lie",
            "popularity": 0.6
        },
        {
            "id": 59691,
            "original_name": "Amchi Mumbai",
            "popularity": 0.6
        },
        {
            "id": 60244,
            "original_name": "Tumbletown Tales",
            "popularity": 0.6
        },
        {
            "id": 60936,
            "original_name": "The Numbers Game",
            "popularity": 0.6
        },
        {
            "id": 61602,
            "original_name": "Cumbia Ninja",
            "popularity": 63.54
        },
        {
            "id": 61932,
            "original_name": "Cucumber",
            "popularity": 5.193
        },
        {
            "id": 62111,
            "original_name": "Umbre",
            "popularity": 9.294
        },
        {
            "id": 62656,
            "original_name": "Reno Rumble",
            "popularity": 1.212
        },
        {
            "id": 63156,
            "original_name": "Kate Humble: Living with Nomads",
            "popularity": 0.856
        },
        {
            "id": 65047,
            "original_name": "Tumble Leaf",
            "popularity": 1.835
        },
        {
            "id": 66360,
            "original_name": "Singgasana Brama Kumbara",
            "popularity": 0.626
        },
        {
            "id": 67329,
            "original_name": "Bottersnikes & Gumbles",
            "popularity": 3.247
        },
        {
            "id": 67855,
            "original_name": "Zumbo's Just Desserts",
            "popularity": 4.303
        },
        {
            "id": 69804,
            "original_name": "Borisut Bumbut Kaen",
            "popularity": 0.6
        },
        {
            "id": 72479,
            "original_name": "Zombie Dumb",
            "popularity": 1.487
        },
        {
            "id": 72754,
            "original_name": "Kumbaya!",
            "popularity": 0.6
        },
        {
            "id": 72867,
            "original_name": "Dumbest Stuff on Wheels",
            "popularity": 1.238
        },
        {
            "id": 73364,
            "original_name": "Murder by Numbers",
            "popularity": 0.925
        },
        {
            "id": 74819,
            "original_name": "Die drei Klumberger",
            "popularity": 0.6
        },
        {
            "id": 75006,
            "original_name": "The Umbrella Academy",
            "popularity": 150.323
        },
        {
            "id": 76615,
            "original_name": "Tumberos",
            "popularity": 1.53
        },
        {
            "id": 76769,
            "original_name": "Brama Kumbara",
            "popularity": 0.874
        },
        {
            "id": 77164,
            "original_name": "Numb Chucks",
            "popularity": 0.6
        },
        {
            "id": 77630,
            "original_name": "KILLUMBIA USA",
            "popularity": 0.6
        },
        {
            "id": 77867,
            "original_name": "The Real Tom Thumb: History's Smallest Superstar",
            "popularity": 0.6
        },
        {
            "id": 77885,
            "original_name": "Climate Change By The Numbers",
            "popularity": 0.6
        },
        {
            "id": 78031,
            "original_name": "Adriano Zumbo",
            "popularity": 0.6
        },
        {
            "id": 78924,
            "original_name": "Cumbia Pop",
            "popularity": 0.6
        },
        {
            "id": 80000,
            "original_name": "Mem\u00f3rias do Chumbo - O Futebol nos Tempos do Condor",
            "popularity": 0.84
        },
        {
            "id": 80617,
            "original_name": "Mumbai Railway",
            "popularity": 0.6
        },
        {
            "id": 80618,
            "original_name": "Mumbai Railway",
            "popularity": 0.6
        },
        {
            "id": 81625,
            "original_name": "Rumburak",
            "popularity": 0.6
        },
        {
            "id": 81780,
            "original_name": "De Columbus",
            "popularity": 0.728
        },
        {
            "id": 83041,
            "original_name": "Magic Numbers: Hannah Fry's Mysterious World of Maths",
            "popularity": 0.747
        },
        {
            "id": 83327,
            "original_name": "Zumbis em Bras\u00edlia",
            "popularity": 0.855
        },
        {
            "id": 86474,
            "original_name": "Kate Humble: Into the Volcano",
            "popularity": 0.6
        },
        {
            "id": 87070,
            "original_name": "Cricket Fever: Mumbai Indians",
            "popularity": 0.667
        },
        {
            "id": 88263,
            "original_name": "Extreme Wives with Kate Humble",
            "popularity": 0.6
        },
        {
            "id": 89405,
            "original_name": "Zumba Tone Up",
            "popularity": 0.6
        },
        {
            "id": 90232,
            "original_name": "Kolumbowie",
            "popularity": 0.6
        },
        {
            "id": 91469,
            "original_name": "Rumble & Hum",
            "popularity": 0.6
        },
        {
            "id": 92491,
            "original_name": "Young Dumb and Banged Up in the Sun",
            "popularity": 0.6
        },
        {
            "id": 94074,
            "original_name": "Les Chumballs",
            "popularity": 0.6
        },
        {
            "id": 94213,
            "original_name": "Big Brother Columbus",
            "popularity": 0.6
        },
        {
            "id": 94569,
            "original_name": "Back to the Land with Kate Humble",
            "popularity": 0.6
        },
        {
            "id": 94571,
            "original_name": "Kate Humble: Off the Beaten Track",
            "popularity": 0.6
        },
        {
            "id": 94591,
            "original_name": "Dumbotz",
            "popularity": 0.6
        },
        {
            "id": 95098,
            "original_name": "Chico Chica Boumba Pepper school",
            "popularity": 0.6
        },
        {
            "id": 95138,
            "original_name": "wonderdumb",
            "popularity": 0.6
        },
        {
            "id": 95585,
            "original_name": "Numbers",
            "popularity": 0.698
        },
        {
            "id": 96036,
            "original_name": "Egipto: el buscador de tumbas",
            "popularity": 0.6
        },
        {
            "id": 96237,
            "original_name": "The White House Plumbers",
            "popularity": 1.204
        },
        {
            "id": 96485,
            "original_name": "1491: The Untold Story of the Americas Before Columbus",
            "popularity": 0.6
        },
        {
            "id": 96870,
            "original_name": "Jamtara \u2013 Sabka Number Ayega",
            "popularity": 3.042
        },
        {
            "id": 97128,
            "original_name": "Cumbres",
            "popularity": 0.6
        },
        {
            "id": 97513,
            "original_name": "El internado: Las Cumbres",
            "popularity": 93.183
        },
        {
            "id": 97699,
            "original_name": "Charlie & the Numbers",
            "popularity": 0.6
        },
        {
            "id": 100738,
            "original_name": "Zumbers",
            "popularity": 0.6
        },
        {
            "id": 100741,
            "original_name": "Rumble: The Indians Who Rocked the World",
            "popularity": 0.612
        },
        {
            "id": 102508,
            "original_name": "Absolutely India: Mancs in Mumbai",
            "popularity": 0.623
        },
        {
            "id": 104830,
            "original_name": "Rumbo al ingles",
            "popularity": 0.6
        },
        {
            "id": 105466,
            "original_name": "Bitte umbl\u00e4ttern",
            "popularity": 3.502
        },
        {
            "id": 105887,
            "original_name": "Tumble",
            "popularity": 0.6
        },
        {
            "id": 105974,
            "original_name": "Wrong Number",
            "popularity": 0.6
        },
        {
            "id": 106009,
            "original_name": "Numberblocks",
            "popularity": 2.945
        },
        {
            "id": 106642,
            "original_name": "iNumber Number",
            "popularity": 0.6
        },
        {
            "id": 111746,
            "original_name": "Escape to the Farm with Kate Humble",
            "popularity": 1.093
        },
        {
            "id": 116272,
            "original_name": "Las V\u00edrgenes de la Cumbia",
            "popularity": 0.6
        },
        {
            "id": 117082,
            "original_name": "World War II In Numbers",
            "popularity": 0.6
        },
        {
            "id": 118167,
            "original_name": "The Jumbo Jet: 50 Years in the Sky",
            "popularity": 0.6
        },
        {
            "id": 120381,
            "original_name": "Gumball 3000 Norge",
            "popularity": 0.6
        },
        {
            "id": 120478,
            "original_name": "Kate Humble's Coastal Britain",
            "popularity": 0.84
        },
        {
            "id": 122332,
            "original_name": "Th\u00e9r\u00e8se Humbert",
            "popularity": 0.6
        },
        {
            "id": 122392,
            "original_name": "Scout & The Gumboot Kids",
            "popularity": 0.891
        },
        {
            "id": 122447,
            "original_name": "Sumber Rezeki: The Series",
            "popularity": 0.6
        },
        {
            "id": 124560,
            "original_name": "The Great War in Numbers",
            "popularity": 0.6
        },
        {
            "id": 127311,
            "original_name": "Zumbar",
            "popularity": 0.6
        },
        {
            "id": 129091,
            "original_name": "La tumba perdida de atila",
            "popularity": 0.6
        },
        {
            "id": 129957,
            "original_name": "A Country Life for Half the Price with Kate Humble",
            "popularity": 0.6
        },
        {
            "id": 133529,
            "original_name": "The Gumball Chronicles",
            "popularity": 7.017
        },
        {
            "id": 133653,
            "original_name": "The Lord Of The Thumb",
            "popularity": 0.922
        },
        {
            "id": 135622,
            "original_name": "O Brado Retumbante",
            "popularity": 0.6
        },
        {
            "id": 135684,
            "original_name": "Celebrity Letters And Numbers",
            "popularity": 0.63
        },
        {
            "id": 138670,
            "original_name": "Kate Humble: Good Life, Green Life",
            "popularity": 1.264
        }
    ],
    "relations": [
        {
            "character": "umbo"
        },
        {
            "character": "umbe"
        },
        {
            "character": "umb3"
        },
        {
            "character": "umbs"
        },
        {
            "character": "umbr"
        },
        {
            "character": "umba"
        },
        {
            "character": "umbl"
        },
        {
            "character": "umby"
        },
        {
            "character": "umbu"
        },
        {
            "character": "umbi"
        }
    ],
    "top20": [
        {
            "id": 75006,
            "original_name": "The Umbrella Academy",
            "popularity": 150.323
        },
        {
            "id": 37606,
            "original_name": "The Amazing World of Gumball",
            "popularity": 121.144
        },
        {
            "id": 97513,
            "original_name": "El internado: Las Cumbres",
            "popularity": 93.183
        },
        {
            "id": 61602,
            "original_name": "Cumbia Ninja",
            "popularity": 63.54
        },
        {
            "id": 873,
            "original_name": "Columbo",
            "popularity": 54.221
        },
        {
            "id": 4429,
            "original_name": "The Lion King's Timon & Pumbaa",
            "popularity": 37.104
        },
        {
            "id": 578,
            "original_name": "Numb3rs",
            "popularity": 29.474
        },
        {
            "id": 3229,
            "original_name": "Number 96",
            "popularity": 10.466
        },
        {
            "id": 62111,
            "original_name": "Umbre",
            "popularity": 9.294
        },
        {
            "id": 133529,
            "original_name": "The Gumball Chronicles",
            "popularity": 7.017
        },
        {
            "id": 61932,
            "original_name": "Cucumber",
            "popularity": 5.193
        },
        {
            "id": 12784,
            "original_name": "Outnumbered",
            "popularity": 4.937
        },
        {
            "id": 3278,
            "original_name": "Numberjacks",
            "popularity": 4.925
        },
        {
            "id": 10471,
            "original_name": "Real Sports with Bryant Gumbel",
            "popularity": 4.737
        },
        {
            "id": 1007,
            "original_name": "Mrs. Columbo",
            "popularity": 4.445
        },
        {
            "id": 67855,
            "original_name": "Zumbo's Just Desserts",
            "popularity": 4.303
        },
        {
            "id": 7972,
            "original_name": "Dumb and Dumber",
            "popularity": 4.158
        },
        {
            "id": 50021,
            "original_name": "Bumba",
            "popularity": 4.074
        },
        {
            "id": 5195,
            "original_name": "DumbLand",
            "popularity": 3.786
        },
        {
            "id": 1561,
            "original_name": "Crumbs",
            "popularity": 3.632
        }
    ]
}