{
    "data": [
        {
            "id": 4296,
            "original_name": "Arthur's Treasured Volumes",
            "popularity": 0.6
        },
        {
            "id": 5998,
            "original_name": "Argumental",
            "popularity": 2.764
        },
        {
            "id": 11659,
            "original_name": "Les Jumeaux du Bout du Monde",
            "popularity": 1.788
        },
        {
            "id": 11664,
            "original_name": "The Robert Guillaume Show",
            "popularity": 0.853
        },
        {
            "id": 14215,
            "original_name": "YUMee",
            "popularity": 0.6
        },
        {
            "id": 14990,
            "original_name": "Assume the Position with Mr. Wuhl",
            "popularity": 0.6
        },
        {
            "id": 15219,
            "original_name": "Menoume Ellada",
            "popularity": 0.6
        },
        {
            "id": 15615,
            "original_name": "Ek Packet Umeed",
            "popularity": 0.622
        },
        {
            "id": 16058,
            "original_name": "I Love the '70s: Volume 2",
            "popularity": 4.263
        },
        {
            "id": 16398,
            "original_name": "24 Konsument",
            "popularity": 0.6
        },
        {
            "id": 18362,
            "original_name": "I.R.S. Records Presents The Cutting Edge Volumes I & II",
            "popularity": 0.6
        },
        {
            "id": 19590,
            "original_name": "New York: A Documentary Film",
            "popularity": 2.096
        },
        {
            "id": 21661,
            "original_name": "Hum Sub Umeed Se Hain",
            "popularity": 0.6
        },
        {
            "id": 21985,
            "original_name": "Ippatsu Kiki Musume",
            "popularity": 2.665
        },
        {
            "id": 25334,
            "original_name": "Heston Blumenthal: In Search of Perfection",
            "popularity": 0.622
        },
        {
            "id": 27360,
            "original_name": "Hakusen Nagashi~Yume Miro Goro Sugitemo",
            "popularity": 0.6
        },
        {
            "id": 29742,
            "original_name": "The Dunstan Documentaries",
            "popularity": 0.6
        },
        {
            "id": 33518,
            "original_name": "Document",
            "popularity": 0.6
        },
        {
            "id": 33586,
            "original_name": "Documentary '60",
            "popularity": 0.6
        },
        {
            "id": 34473,
            "original_name": "Dhoondh Legi Manzil Humein",
            "popularity": 0.6
        },
        {
            "id": 35522,
            "original_name": "Assume the Position 201 with Mr. Wuhl",
            "popularity": 0.6
        },
        {
            "id": 37142,
            "original_name": "Closing Arguments",
            "popularity": 0.6
        },
        {
            "id": 37199,
            "original_name": "NCRV Dokument: Spookhuis",
            "popularity": 0.6
        },
        {
            "id": 37312,
            "original_name": "Tsumetai Tsuki",
            "popularity": 0.6
        },
        {
            "id": 38226,
            "original_name": "Monumental Challenge",
            "popularity": 0.6
        },
        {
            "id": 38902,
            "original_name": "Dokumentado",
            "popularity": 0.6
        },
        {
            "id": 39675,
            "original_name": "Investigative Documentaries",
            "popularity": 0.6
        },
        {
            "id": 40406,
            "original_name": "50 Documentaries to See Before You Die",
            "popularity": 0.6
        },
        {
            "id": 40643,
            "original_name": "Gro\u00dfstadttr\u00e4ume",
            "popularity": 0.6
        },
        {
            "id": 40861,
            "original_name": "Insel der Tr\u00e4ume",
            "popularity": 2.161
        },
        {
            "id": 42459,
            "original_name": "Ulalume: Howling at New Moon",
            "popularity": 0.6
        },
        {
            "id": 42463,
            "original_name": "Brando: The Documentary",
            "popularity": 1.84
        },
        {
            "id": 42875,
            "original_name": "Elveda Rumeli",
            "popularity": 0.629
        },
        {
            "id": 42979,
            "original_name": "World Destruction: Sekai Bokumetsu no Rokunin",
            "popularity": 4.521
        },
        {
            "id": 43533,
            "original_name": "Consumed",
            "popularity": 1.025
        },
        {
            "id": 45907,
            "original_name": "Numer0n",
            "popularity": 0.6
        },
        {
            "id": 46264,
            "original_name": "Keiji Gasahime: Tokumei Kataku sousahan",
            "popularity": 0.6
        },
        {
            "id": 47562,
            "original_name": "Inside Amy Schumer",
            "popularity": 6.369
        },
        {
            "id": 48935,
            "original_name": "Flower Power Ost - Die Blumenkinder des Sozialismus",
            "popularity": 0.6
        },
        {
            "id": 49283,
            "original_name": "Shiquan Shimei Zhi Youmeng Niandai",
            "popularity": 0.6
        },
        {
            "id": 49772,
            "original_name": "Dokument Utifr\u00e5n",
            "popularity": 0.84
        },
        {
            "id": 49850,
            "original_name": "SVT Dokument\u00e4r",
            "popularity": 0.6
        },
        {
            "id": 50177,
            "original_name": "Dokument 2: Krigens pris",
            "popularity": 0.6
        },
        {
            "id": 51041,
            "original_name": "Fred Dibnah's Magnificent Monuments",
            "popularity": 0.6
        },
        {
            "id": 51065,
            "original_name": "Reumert prisen 2003",
            "popularity": 0.6
        },
        {
            "id": 52505,
            "original_name": "Treasure Hunters Documentary",
            "popularity": 0.6
        },
        {
            "id": 53570,
            "original_name": "Monumental Mysteries",
            "popularity": 0.6
        },
        {
            "id": 55180,
            "original_name": "Fraga Olle Dokumentaren",
            "popularity": 0.6
        },
        {
            "id": 57268,
            "original_name": "Kitchen Chemistry with Heston Blumenthal",
            "popularity": 0.6
        },
        {
            "id": 57292,
            "original_name": "Martina & Esko: Vauvakuumetta",
            "popularity": 0.6
        },
        {
            "id": 57831,
            "original_name": "The Instrument Bank",
            "popularity": 0.6
        },
        {
            "id": 60140,
            "original_name": "Ihaka: Blunt Instrument",
            "popularity": 0.6
        },
        {
            "id": 60500,
            "original_name": "Moving To His Music: The Two Muses of Guillaume C\u00f4t\u00e9",
            "popularity": 0.6
        },
        {
            "id": 62189,
            "original_name": "Documentos TV",
            "popularity": 0.672
        },
        {
            "id": 63593,
            "original_name": "Documentary Now!",
            "popularity": 9.134
        },
        {
            "id": 63843,
            "original_name": "Huume-Suomen historia",
            "popularity": 0.6
        },
        {
            "id": 65054,
            "original_name": "Consumed: The Real Restaurant Business",
            "popularity": 0.6
        },
        {
            "id": 67214,
            "original_name": "I delitti del BarLume",
            "popularity": 4.403
        },
        {
            "id": 68439,
            "original_name": "Passe-moi les jumelles",
            "popularity": 0.6
        },
        {
            "id": 68905,
            "original_name": "Chumel con Chumel Torres",
            "popularity": 1.973
        },
        {
            "id": 69111,
            "original_name": "Umetni raj",
            "popularity": 0.6
        },
        {
            "id": 71372,
            "original_name": "Amnesie Numerique",
            "popularity": 0.6
        },
        {
            "id": 71571,
            "original_name": "Dokument inifr\u00e5n: Fallet Kevin",
            "popularity": 0.6
        },
        {
            "id": 71629,
            "original_name": "Blaues Blut und Gr\u00fcner Daumen",
            "popularity": 0.6
        },
        {
            "id": 75861,
            "original_name": "The Story of the Costume Drama",
            "popularity": 0.6
        },
        {
            "id": 76199,
            "original_name": "Rural America Documentary Project",
            "popularity": 0.6
        },
        {
            "id": 76762,
            "original_name": "Geheimkommando Bumerang",
            "popularity": 0.933
        },
        {
            "id": 77080,
            "original_name": "Der schwarze Bumerang",
            "popularity": 1.46
        },
        {
            "id": 78382,
            "original_name": "\u30a6\u30a4\u30f3\u30b0\u30de\u30f3 Yume Senshi Wingman",
            "popularity": 0.6
        },
        {
            "id": 78403,
            "original_name": "La Reina del Sur (Resumen)",
            "popularity": 7.813
        },
        {
            "id": 78404,
            "original_name": "Rebelde (Resumen)",
            "popularity": 1.4
        },
        {
            "id": 82017,
            "original_name": "Dokumentarna produkcija HRT-a",
            "popularity": 0.6
        },
        {
            "id": 82111,
            "original_name": "Krieg der Tr\u00e4ume - 1918-1939",
            "popularity": 1.777
        },
        {
            "id": 83233,
            "original_name": "Allume-moi",
            "popularity": 0.6
        },
        {
            "id": 83385,
            "original_name": "Mein Revier \u2013 Ordnungsh\u00fcter r\u00e4umen auf",
            "popularity": 0.6
        },
        {
            "id": 83857,
            "original_name": "Bakumatsu Gurume Bushimeshi",
            "popularity": 0.602
        },
        {
            "id": 84836,
            "original_name": "BBS: The Documentary",
            "popularity": 0.6
        },
        {
            "id": 86838,
            "original_name": "Costume Quest",
            "popularity": 1.713
        },
        {
            "id": 88875,
            "original_name": "Destination jardin avec Guillaume",
            "popularity": 0.6
        },
        {
            "id": 91360,
            "original_name": "Les Allumettes su\u00e9doises",
            "popularity": 2.045
        },
        {
            "id": 92002,
            "original_name": "Les documentaires de Karine Ferri",
            "popularity": 0.6
        },
        {
            "id": 92984,
            "original_name": "Pusteblume",
            "popularity": 0.6
        },
        {
            "id": 93375,
            "original_name": "Pandas dans la brume",
            "popularity": 1.557
        },
        {
            "id": 93418,
            "original_name": "Jikulumessu",
            "popularity": 0.6
        },
        {
            "id": 93723,
            "original_name": "Living Undocumented",
            "popularity": 2.106
        },
        {
            "id": 94042,
            "original_name": "Lulu Vroumette",
            "popularity": 0.6
        },
        {
            "id": 94366,
            "original_name": "Ryuusei Sentai Musumet",
            "popularity": 0.622
        },
        {
            "id": 94457,
            "original_name": "Gabinet numer 5",
            "popularity": 0.6
        },
        {
            "id": 96307,
            "original_name": "Zsarumel\u00f3",
            "popularity": 0.894
        },
        {
            "id": 98337,
            "original_name": "Des monuments et des hommes",
            "popularity": 7.425
        },
        {
            "id": 98339,
            "original_name": "Art Stories, l'\u00e2me des monuments",
            "popularity": 0.6
        },
        {
            "id": 98605,
            "original_name": "Monuments Sacr\u00e9s",
            "popularity": 0.6
        },
        {
            "id": 99780,
            "original_name": "Monument Men - The Road to Rushmore",
            "popularity": 0.6
        },
        {
            "id": 100254,
            "original_name": "Monumental",
            "popularity": 0.6
        },
        {
            "id": 100417,
            "original_name": "Marielle: O Document\u00e1rio",
            "popularity": 1.96
        },
        {
            "id": 101208,
            "original_name": "Dokument 65",
            "popularity": 0.6
        },
        {
            "id": 102668,
            "original_name": "Documental: Expedici\u00f3n Guyana",
            "popularity": 0.6
        },
        {
            "id": 102913,
            "original_name": "Au royaume des fourmis",
            "popularity": 0.6
        },
        {
            "id": 103088,
            "original_name": "Amy Schumer Learns to Cook",
            "popularity": 0.725
        },
        {
            "id": 103342,
            "original_name": "\u30bb\u30eb\u30d5 Documentary of \u65e5\u5411\u574246",
            "popularity": 0.6
        },
        {
            "id": 103753,
            "original_name": "Napol\u00e9on, le documentaire",
            "popularity": 0.6
        },
        {
            "id": 104015,
            "original_name": "\u0633\u0639\u064a\u0643\u0645 \u0645\u0634\u0643\u0648\u0631 Presumed Dead",
            "popularity": 0.6
        },
        {
            "id": 104684,
            "original_name": "MTV Rockumentary",
            "popularity": 0.6
        },
        {
            "id": 105278,
            "original_name": "Graffiti (s\u00e9rie documentaire)",
            "popularity": 0.914
        },
        {
            "id": 105885,
            "original_name": "Monuments \u00e9ternels",
            "popularity": 0.6
        },
        {
            "id": 106597,
            "original_name": "Shin chan - Die neuen Folgen, Volume 1-4",
            "popularity": 3.948
        },
        {
            "id": 107565,
            "original_name": "De bonne humeur",
            "popularity": 0.6
        },
        {
            "id": 108928,
            "original_name": "Baumeister der Republik",
            "popularity": 0.652
        },
        {
            "id": 111346,
            "original_name": "\u6211\u4eec\uff1a\u300a\u593a\u51a0\u300b\u5e55\u540e\u7eaa\u5b9e How We Leapt\uff1f- A Documentary About the Movie Leap",
            "popularity": 0.6
        },
        {
            "id": 111755,
            "original_name": "Jo\u00eb au royaume des mouches",
            "popularity": 0.6
        },
        {
            "id": 112104,
            "original_name": "Healing Documentary tree tree II",
            "popularity": 0.6
        },
        {
            "id": 112247,
            "original_name": "Documentary: The Series",
            "popularity": 0.6
        },
        {
            "id": 112359,
            "original_name": "Cap Kakumei Bottleman",
            "popularity": 1.185
        },
        {
            "id": 112828,
            "original_name": "Ce Qu'il Faut Go\u00fbter Absolument",
            "popularity": 0.6
        },
        {
            "id": 112874,
            "original_name": "Exhumed: A History of Zombies",
            "popularity": 0.845
        },
        {
            "id": 113105,
            "original_name": "Le royaume des momies \u00e9gyptiennes",
            "popularity": 0.6
        },
        {
            "id": 114143,
            "original_name": "Jeff et L\u00e9o, flics et jumeaux",
            "popularity": 0.6
        },
        {
            "id": 114982,
            "original_name": "Trygdekontoret - Dokumentar",
            "popularity": 0.6
        },
        {
            "id": 115733,
            "original_name": "Rumeurs",
            "popularity": 1.53
        },
        {
            "id": 116684,
            "original_name": "Les Documents interdits",
            "popularity": 0.67
        },
        {
            "id": 116846,
            "original_name": "ntv Dokumentation",
            "popularity": 0.6
        },
        {
            "id": 116939,
            "original_name": "Exhumed",
            "popularity": 0.6
        },
        {
            "id": 117191,
            "original_name": "America's National Monuments",
            "popularity": 0.6
        },
        {
            "id": 117964,
            "original_name": "Dybvaaaaad - Ogs\u00e5 som dokumentarserie",
            "popularity": 0.6
        },
        {
            "id": 119096,
            "original_name": "Saveur Bitume",
            "popularity": 0.6
        },
        {
            "id": 119113,
            "original_name": "De Vijf Zintuigen Efteling Documentaires",
            "popularity": 0.6
        },
        {
            "id": 120280,
            "original_name": "DreamWorks Spooky Stories Volume 2",
            "popularity": 1.379
        },
        {
            "id": 120546,
            "original_name": "With You: Mitsumeteitai",
            "popularity": 0.6
        },
        {
            "id": 122116,
            "original_name": "Sumer Singh Case Files: Girlfriends",
            "popularity": 0.84
        },
        {
            "id": 122880,
            "original_name": "Documentaries for Developers",
            "popularity": 0.6
        },
        {
            "id": 123973,
            "original_name": "Dans les secrets des monuments de France",
            "popularity": 0.6
        },
        {
            "id": 125983,
            "original_name": "Dokument inifr\u00e5n: De utvalda barnen",
            "popularity": 0.84
        },
        {
            "id": 126049,
            "original_name": "Dokumente, die die Welt bewegen",
            "popularity": 0.866
        },
        {
            "id": 126083,
            "original_name": "TV Monument",
            "popularity": 0.6
        },
        {
            "id": 126302,
            "original_name": "Socios y colegas: documentos de la vida laboral",
            "popularity": 0.6
        },
        {
            "id": 127377,
            "original_name": "Chasseurs d'\u00e9cume",
            "popularity": 0.6
        },
        {
            "id": 129630,
            "original_name": "Yelawolf: A Slumerican Life",
            "popularity": 0.6
        },
        {
            "id": 129739,
            "original_name": "\u300cD-cumentary : TAEMIN\u300d",
            "popularity": 0.6
        },
        {
            "id": 130248,
            "original_name": "Documentos TV",
            "popularity": 0.6
        },
        {
            "id": 130261,
            "original_name": "Dokument inifr\u00e5n: Roy m\u00e5ste leva",
            "popularity": 0.6
        },
        {
            "id": 130875,
            "original_name": "P3dokumentar",
            "popularity": 0.6
        },
        {
            "id": 131118,
            "original_name": "Dokument inifr\u00e5n: Vaccinkrigarna",
            "popularity": 0.6
        },
        {
            "id": 131119,
            "original_name": "Dokument inifr\u00e5n: Att r\u00e4dda ett barn",
            "popularity": 0.6
        },
        {
            "id": 131422,
            "original_name": "Umeed",
            "popularity": 0.6
        },
        {
            "id": 131773,
            "original_name": "Kingdoms of Sumeria",
            "popularity": 0.6
        },
        {
            "id": 134974,
            "original_name": "Le Royaume",
            "popularity": 0.6
        },
        {
            "id": 135279,
            "original_name": "Dokument inifr\u00e5n: Under ytan",
            "popularity": 0.6
        },
        {
            "id": 135512,
            "original_name": "GloboNews Document\u00e1rio",
            "popularity": 0.6
        },
        {
            "id": 137623,
            "original_name": "Instruments of Death",
            "popularity": 0.6
        },
        {
            "id": 137832,
            "original_name": "Cherry Blossom UK Tour Documentary",
            "popularity": 17.09
        },
        {
            "id": 138928,
            "original_name": "Kaljave gume",
            "popularity": 0.6
        },
        {
            "id": 152354,
            "original_name": "Toumei Shoujo Ea",
            "popularity": 0.6
        }
    ],
    "relations": [
        {
            "character": "umes"
        },
        {
            "character": "umen"
        },
        {
            "character": "umea"
        },
        {
            "character": "umee"
        },
        {
            "character": "umei"
        },
        {
            "character": "umet"
        },
        {
            "character": "umel"
        },
        {
            "character": "umed"
        },
        {
            "character": "umer"
        },
        {
            "character": "umeu"
        }
    ],
    "top20": [
        {
            "id": 137832,
            "original_name": "Cherry Blossom UK Tour Documentary",
            "popularity": 17.09
        },
        {
            "id": 63593,
            "original_name": "Documentary Now!",
            "popularity": 9.134
        },
        {
            "id": 78403,
            "original_name": "La Reina del Sur (Resumen)",
            "popularity": 7.813
        },
        {
            "id": 98337,
            "original_name": "Des monuments et des hommes",
            "popularity": 7.425
        },
        {
            "id": 47562,
            "original_name": "Inside Amy Schumer",
            "popularity": 6.369
        },
        {
            "id": 42979,
            "original_name": "World Destruction: Sekai Bokumetsu no Rokunin",
            "popularity": 4.521
        },
        {
            "id": 67214,
            "original_name": "I delitti del BarLume",
            "popularity": 4.403
        },
        {
            "id": 16058,
            "original_name": "I Love the '70s: Volume 2",
            "popularity": 4.263
        },
        {
            "id": 106597,
            "original_name": "Shin chan - Die neuen Folgen, Volume 1-4",
            "popularity": 3.948
        },
        {
            "id": 5998,
            "original_name": "Argumental",
            "popularity": 2.764
        },
        {
            "id": 21985,
            "original_name": "Ippatsu Kiki Musume",
            "popularity": 2.665
        },
        {
            "id": 40861,
            "original_name": "Insel der Tr\u00e4ume",
            "popularity": 2.161
        },
        {
            "id": 93723,
            "original_name": "Living Undocumented",
            "popularity": 2.106
        },
        {
            "id": 19590,
            "original_name": "New York: A Documentary Film",
            "popularity": 2.096
        },
        {
            "id": 91360,
            "original_name": "Les Allumettes su\u00e9doises",
            "popularity": 2.045
        },
        {
            "id": 68905,
            "original_name": "Chumel con Chumel Torres",
            "popularity": 1.973
        },
        {
            "id": 100417,
            "original_name": "Marielle: O Document\u00e1rio",
            "popularity": 1.96
        },
        {
            "id": 42463,
            "original_name": "Brando: The Documentary",
            "popularity": 1.84
        },
        {
            "id": 11659,
            "original_name": "Les Jumeaux du Bout du Monde",
            "popularity": 1.788
        },
        {
            "id": 82111,
            "original_name": "Krieg der Tr\u00e4ume - 1918-1939",
            "popularity": 1.777
        }
    ]
}