{
    "data": [
        {
            "id": 42875,
            "original_name": "Elveda Rumeli",
            "popularity": 0.629
        },
        {
            "id": 68439,
            "original_name": "Passe-moi les jumelles",
            "popularity": 0.6
        },
        {
            "id": 68905,
            "original_name": "Chumel con Chumel Torres",
            "popularity": 1.973
        },
        {
            "id": 96307,
            "original_name": "Zsarumel\u00f3",
            "popularity": 0.894
        }
    ],
    "relations": [],
    "top20": [
        {
            "id": 42875,
            "original_name": "Elveda Rumeli",
            "popularity": 0.629
        },
        {
            "id": 68439,
            "original_name": "Passe-moi les jumelles",
            "popularity": 0.6
        },
        {
            "id": 68905,
            "original_name": "Chumel con Chumel Torres",
            "popularity": 1.973
        },
        {
            "id": 96307,
            "original_name": "Zsarumel\u00f3",
            "popularity": 0.894
        }
    ]
}