{
    "data": [
        {
            "id": 127771,
            "original_name": "Dansk humors bedste",
            "popularity": 0.6
        }
    ],
    "relations": [],
    "top20": [
        {
            "id": 127771,
            "original_name": "Dansk humors bedste",
            "popularity": 0.6
        }
    ]
}