{
    "data": [
        {
            "id": 2125,
            "original_name": "Time Trumpet",
            "popularity": 1.759
        },
        {
            "id": 5349,
            "original_name": "Barnaby Flowers Bumper Bonanza",
            "popularity": 0.6
        },
        {
            "id": 6634,
            "original_name": "Bumper Stumpers",
            "popularity": 0.6
        },
        {
            "id": 10132,
            "original_name": "Stumpers",
            "popularity": 0.6
        },
        {
            "id": 13947,
            "original_name": "Dumped",
            "popularity": 0.6
        },
        {
            "id": 26080,
            "original_name": "Colonel Trumper's Private War",
            "popularity": 0.6
        },
        {
            "id": 26827,
            "original_name": "Jumpers for Goalposts",
            "popularity": 0.948
        },
        {
            "id": 28168,
            "original_name": "Pumper Pups",
            "popularity": 0.6
        },
        {
            "id": 30231,
            "original_name": "Big Bumper Science Quiz",
            "popularity": 0.6
        },
        {
            "id": 33187,
            "original_name": "Glumpers",
            "popularity": 0.6
        },
        {
            "id": 33613,
            "original_name": "Strumpet City",
            "popularity": 0.6
        },
        {
            "id": 40964,
            "original_name": "Der Prinz von Pumpelonien",
            "popularity": 0.6
        },
        {
            "id": 48053,
            "original_name": "I Want to be a Showjumper",
            "popularity": 0.6
        },
        {
            "id": 63681,
            "original_name": "Die Kumpel",
            "popularity": 1.31
        },
        {
            "id": 82673,
            "original_name": "Kumpel mit Chauffeur",
            "popularity": 0.6
        },
        {
            "id": 95759,
            "original_name": "DumpertReeten",
            "popularity": 27.17
        },
        {
            "id": 120044,
            "original_name": "Mind Jumper",
            "popularity": 1.119
        },
        {
            "id": 126301,
            "original_name": "Super Pumped",
            "popularity": 10.541
        },
        {
            "id": 134193,
            "original_name": "Tierische Kumpel",
            "popularity": 0.6
        },
        {
            "id": 135242,
            "original_name": "Les Crumpets",
            "popularity": 0.6
        }
    ],
    "relations": [],
    "top20": [
        {
            "id": 2125,
            "original_name": "Time Trumpet",
            "popularity": 1.759
        },
        {
            "id": 5349,
            "original_name": "Barnaby Flowers Bumper Bonanza",
            "popularity": 0.6
        },
        {
            "id": 6634,
            "original_name": "Bumper Stumpers",
            "popularity": 0.6
        },
        {
            "id": 10132,
            "original_name": "Stumpers",
            "popularity": 0.6
        },
        {
            "id": 13947,
            "original_name": "Dumped",
            "popularity": 0.6
        },
        {
            "id": 26080,
            "original_name": "Colonel Trumper's Private War",
            "popularity": 0.6
        },
        {
            "id": 26827,
            "original_name": "Jumpers for Goalposts",
            "popularity": 0.948
        },
        {
            "id": 28168,
            "original_name": "Pumper Pups",
            "popularity": 0.6
        },
        {
            "id": 30231,
            "original_name": "Big Bumper Science Quiz",
            "popularity": 0.6
        },
        {
            "id": 33187,
            "original_name": "Glumpers",
            "popularity": 0.6
        },
        {
            "id": 33613,
            "original_name": "Strumpet City",
            "popularity": 0.6
        },
        {
            "id": 40964,
            "original_name": "Der Prinz von Pumpelonien",
            "popularity": 0.6
        },
        {
            "id": 48053,
            "original_name": "I Want to be a Showjumper",
            "popularity": 0.6
        },
        {
            "id": 63681,
            "original_name": "Die Kumpel",
            "popularity": 1.31
        },
        {
            "id": 82673,
            "original_name": "Kumpel mit Chauffeur",
            "popularity": 0.6
        },
        {
            "id": 95759,
            "original_name": "DumpertReeten",
            "popularity": 27.17
        },
        {
            "id": 120044,
            "original_name": "Mind Jumper",
            "popularity": 1.119
        },
        {
            "id": 126301,
            "original_name": "Super Pumped",
            "popularity": 10.541
        },
        {
            "id": 134193,
            "original_name": "Tierische Kumpel",
            "popularity": 0.6
        },
        {
            "id": 135242,
            "original_name": "Les Crumpets",
            "popularity": 0.6
        }
    ]
}