{
    "data": [
        {
            "id": 5160,
            "original_name": "Grumpy Old Women",
            "popularity": 0.606
        },
        {
            "id": 15171,
            "original_name": "Grumpy Old Men",
            "popularity": 2.161
        },
        {
            "id": 15770,
            "original_name": "Gaybo's Grumpy Men",
            "popularity": 0.6
        },
        {
            "id": 27551,
            "original_name": "Grumpy Old Holidays",
            "popularity": 0.6
        }
    ],
    "relations": [],
    "top20": [
        {
            "id": 5160,
            "original_name": "Grumpy Old Women",
            "popularity": 0.606
        },
        {
            "id": 15171,
            "original_name": "Grumpy Old Men",
            "popularity": 2.161
        },
        {
            "id": 15770,
            "original_name": "Gaybo's Grumpy Men",
            "popularity": 0.6
        },
        {
            "id": 27551,
            "original_name": "Grumpy Old Holidays",
            "popularity": 0.6
        }
    ]
}