{
    "data": [
        {
            "id": 61377,
            "original_name": "Traumwohnung in der Traumstadt",
            "popularity": 0.6
        }
    ],
    "relations": [],
    "top20": [
        {
            "id": 61377,
            "original_name": "Traumwohnung in der Traumstadt",
            "popularity": 0.6
        }
    ]
}