{
    "data": [
        {
            "id": 11960,
            "original_name": "Lunar Jim",
            "popularity": 1.462
        },
        {
            "id": 12503,
            "original_name": "Runaround",
            "popularity": 0.6
        },
        {
            "id": 18485,
            "original_name": "Runaround",
            "popularity": 0.6
        },
        {
            "id": 41905,
            "original_name": "Midnight Runaround",
            "popularity": 0.6
        },
        {
            "id": 45113,
            "original_name": "Punar Vivaaham",
            "popularity": 2.643
        },
        {
            "id": 46943,
            "original_name": "Punar Vivah - Zindagi Milegi Dobara",
            "popularity": 4.046
        },
        {
            "id": 83033,
            "original_name": "Xopunar Asutia Rang",
            "popularity": 0.6
        },
        {
            "id": 84232,
            "original_name": "Operation Dunarea",
            "popularity": 1.355
        },
        {
            "id": 136470,
            "original_name": "Lunar Eclipse",
            "popularity": 0.6
        }
    ],
    "relations": [],
    "top20": [
        {
            "id": 11960,
            "original_name": "Lunar Jim",
            "popularity": 1.462
        },
        {
            "id": 12503,
            "original_name": "Runaround",
            "popularity": 0.6
        },
        {
            "id": 18485,
            "original_name": "Runaround",
            "popularity": 0.6
        },
        {
            "id": 41905,
            "original_name": "Midnight Runaround",
            "popularity": 0.6
        },
        {
            "id": 45113,
            "original_name": "Punar Vivaaham",
            "popularity": 2.643
        },
        {
            "id": 46943,
            "original_name": "Punar Vivah - Zindagi Milegi Dobara",
            "popularity": 4.046
        },
        {
            "id": 83033,
            "original_name": "Xopunar Asutia Rang",
            "popularity": 0.6
        },
        {
            "id": 84232,
            "original_name": "Operation Dunarea",
            "popularity": 1.355
        },
        {
            "id": 136470,
            "original_name": "Lunar Eclipse",
            "popularity": 0.6
        }
    ]
}