{
    "data": [
        {
            "id": 101617,
            "original_name": "Afghanistan: Das verwundete Land",
            "popularity": 1.08
        },
        {
            "id": 113169,
            "original_name": "Julefilmene vi er rundet af",
            "popularity": 0.6
        },
        {
            "id": 116471,
            "original_name": "Holger er stadig forsvundet",
            "popularity": 0.6
        },
        {
            "id": 123709,
            "original_name": "Forsvundet",
            "popularity": 0.6
        }
    ],
    "relations": [],
    "top20": [
        {
            "id": 101617,
            "original_name": "Afghanistan: Das verwundete Land",
            "popularity": 1.08
        },
        {
            "id": 113169,
            "original_name": "Julefilmene vi er rundet af",
            "popularity": 0.6
        },
        {
            "id": 116471,
            "original_name": "Holger er stadig forsvundet",
            "popularity": 0.6
        },
        {
            "id": 123709,
            "original_name": "Forsvundet",
            "popularity": 0.6
        }
    ]
}