{
    "data": [
        {
            "id": 3143,
            "original_name": "Conservative Roundtable",
            "popularity": 0.6
        },
        {
            "id": 27586,
            "original_name": "On Record: The Soundtrack of Our Lives",
            "popularity": 0.6
        },
        {
            "id": 71204,
            "original_name": "Soundtracks: Songs That Defined History",
            "popularity": 2.142
        },
        {
            "id": 71730,
            "original_name": "Rundt p\u00e5 gulvet",
            "popularity": 1.438
        },
        {
            "id": 84188,
            "original_name": "Jorden rundt p\u00e5 seks steg",
            "popularity": 1.192
        },
        {
            "id": 96095,
            "original_name": "Soundtrack",
            "popularity": 7.429
        },
        {
            "id": 120696,
            "original_name": "Landmand s\u00f8ger k\u00e6rlighed jorden rundt",
            "popularity": 0.6
        },
        {
            "id": 127281,
            "original_name": "DR2 Soundtrack",
            "popularity": 0.6
        }
    ],
    "relations": [],
    "top20": [
        {
            "id": 3143,
            "original_name": "Conservative Roundtable",
            "popularity": 0.6
        },
        {
            "id": 27586,
            "original_name": "On Record: The Soundtrack of Our Lives",
            "popularity": 0.6
        },
        {
            "id": 71204,
            "original_name": "Soundtracks: Songs That Defined History",
            "popularity": 2.142
        },
        {
            "id": 71730,
            "original_name": "Rundt p\u00e5 gulvet",
            "popularity": 1.438
        },
        {
            "id": 84188,
            "original_name": "Jorden rundt p\u00e5 seks steg",
            "popularity": 1.192
        },
        {
            "id": 96095,
            "original_name": "Soundtrack",
            "popularity": 7.429
        },
        {
            "id": 120696,
            "original_name": "Landmand s\u00f8ger k\u00e6rlighed jorden rundt",
            "popularity": 0.6
        },
        {
            "id": 127281,
            "original_name": "DR2 Soundtrack",
            "popularity": 0.6
        }
    ]
}