{
    "data": [
        {
            "id": 38469,
            "original_name": "Kongsvik Ungdomsskole",
            "popularity": 0.6
        },
        {
            "id": 101054,
            "original_name": "Eungdabhara 1994",
            "popularity": 0.6
        },
        {
            "id": 114797,
            "original_name": "Kongsvik Ungdomskole",
            "popularity": 0.6
        }
    ],
    "relations": [],
    "top20": [
        {
            "id": 38469,
            "original_name": "Kongsvik Ungdomsskole",
            "popularity": 0.6
        },
        {
            "id": 101054,
            "original_name": "Eungdabhara 1994",
            "popularity": 0.6
        },
        {
            "id": 114797,
            "original_name": "Kongsvik Ungdomskole",
            "popularity": 0.6
        }
    ]
}