{
    "data": [
        {
            "id": 6431,
            "original_name": "Opportunity Knocks",
            "popularity": 0.6
        },
        {
            "id": 7813,
            "original_name": "Community Diary",
            "popularity": 0.6
        },
        {
            "id": 8816,
            "original_name": "Opportunity Knocks",
            "popularity": 0.842
        },
        {
            "id": 9615,
            "original_name": "Christian Community Television",
            "popularity": 0.6
        },
        {
            "id": 12420,
            "original_name": "Diplomatic Immunity",
            "popularity": 0.6
        },
        {
            "id": 12488,
            "original_name": "No Opportunity Wasted",
            "popularity": 0.6
        },
        {
            "id": 16608,
            "original_name": "Community Round-Up",
            "popularity": 0.6
        },
        {
            "id": 16848,
            "original_name": "Operatunity Oz",
            "popularity": 0.6
        },
        {
            "id": 18097,
            "original_name": "Diplomatic Immunity",
            "popularity": 1.774
        },
        {
            "id": 18347,
            "original_name": "Community",
            "popularity": 51.494
        },
        {
            "id": 18570,
            "original_name": "The Opportunity Line",
            "popularity": 0.6
        },
        {
            "id": 19718,
            "original_name": "Community Dateline",
            "popularity": 0.6
        },
        {
            "id": 24541,
            "original_name": "Bob Says Opportunity Knocks",
            "popularity": 1.09
        },
        {
            "id": 24791,
            "original_name": "Community Service",
            "popularity": 0.6
        },
        {
            "id": 28250,
            "original_name": "Opportunity Knocks (AU)",
            "popularity": 0.6
        },
        {
            "id": 127647,
            "original_name": "Dothan Community Broadcasting",
            "popularity": 6.552
        }
    ],
    "relations": [],
    "top20": [
        {
            "id": 6431,
            "original_name": "Opportunity Knocks",
            "popularity": 0.6
        },
        {
            "id": 7813,
            "original_name": "Community Diary",
            "popularity": 0.6
        },
        {
            "id": 8816,
            "original_name": "Opportunity Knocks",
            "popularity": 0.842
        },
        {
            "id": 9615,
            "original_name": "Christian Community Television",
            "popularity": 0.6
        },
        {
            "id": 12420,
            "original_name": "Diplomatic Immunity",
            "popularity": 0.6
        },
        {
            "id": 12488,
            "original_name": "No Opportunity Wasted",
            "popularity": 0.6
        },
        {
            "id": 16608,
            "original_name": "Community Round-Up",
            "popularity": 0.6
        },
        {
            "id": 16848,
            "original_name": "Operatunity Oz",
            "popularity": 0.6
        },
        {
            "id": 18097,
            "original_name": "Diplomatic Immunity",
            "popularity": 1.774
        },
        {
            "id": 18347,
            "original_name": "Community",
            "popularity": 51.494
        },
        {
            "id": 18570,
            "original_name": "The Opportunity Line",
            "popularity": 0.6
        },
        {
            "id": 19718,
            "original_name": "Community Dateline",
            "popularity": 0.6
        },
        {
            "id": 24541,
            "original_name": "Bob Says Opportunity Knocks",
            "popularity": 1.09
        },
        {
            "id": 24791,
            "original_name": "Community Service",
            "popularity": 0.6
        },
        {
            "id": 28250,
            "original_name": "Opportunity Knocks (AU)",
            "popularity": 0.6
        },
        {
            "id": 127647,
            "original_name": "Dothan Community Broadcasting",
            "popularity": 6.552
        }
    ]
}