{
    "data": [
        {
            "id": 51676,
            "original_name": "DC's World's Funnest",
            "popularity": 0.874
        }
    ],
    "relations": [],
    "top20": [
        {
            "id": 51676,
            "original_name": "DC's World's Funnest",
            "popularity": 0.874
        }
    ]
}