{
    "data": [
        {
            "id": 14443,
            "original_name": "Gunslinger",
            "popularity": 1.926
        },
        {
            "id": 31731,
            "original_name": "Gunslinger Girl",
            "popularity": 5.105
        },
        {
            "id": 61449,
            "original_name": "Gunslingers",
            "popularity": 1.583
        }
    ],
    "relations": [],
    "top20": [
        {
            "id": 14443,
            "original_name": "Gunslinger",
            "popularity": 1.926
        },
        {
            "id": 31731,
            "original_name": "Gunslinger Girl",
            "popularity": 5.105
        },
        {
            "id": 61449,
            "original_name": "Gunslingers",
            "popularity": 1.583
        }
    ]
}