{
    "data": [
        {
            "id": 8118,
            "original_name": "Maayong Buntag Kapamilya",
            "popularity": 0.6
        },
        {
            "id": 77752,
            "original_name": "Untag",
            "popularity": 1.115
        }
    ],
    "relations": [],
    "top20": [
        {
            "id": 8118,
            "original_name": "Maayong Buntag Kapamilya",
            "popularity": 0.6
        },
        {
            "id": 77752,
            "original_name": "Untag",
            "popularity": 1.115
        }
    ]
}