{
    "data": [
        {
            "id": 100402,
            "original_name": "Unterleuten - Das zerrissene Dorf",
            "popularity": 3.281
        }
    ],
    "relations": [],
    "top20": [
        {
            "id": 100402,
            "original_name": "Unterleuten - Das zerrissene Dorf",
            "popularity": 3.281
        }
    ]
}