{
    "data": [
        {
            "id": 153,
            "original_name": "Scarborough Country",
            "popularity": 0.6
        },
        {
            "id": 305,
            "original_name": "Adventures in Rainbow Country",
            "popularity": 1.368
        },
        {
            "id": 834,
            "original_name": "Westcountry Live",
            "popularity": 0.6
        },
        {
            "id": 2018,
            "original_name": "Country Calendar",
            "popularity": 0.6
        },
        {
            "id": 2023,
            "original_name": "Countryfile",
            "popularity": 11.257
        },
        {
            "id": 2784,
            "original_name": "Donkey Kong Country",
            "popularity": 6.828
        },
        {
            "id": 2916,
            "original_name": "How to Start Your Own Country",
            "popularity": 0.6
        },
        {
            "id": 3192,
            "original_name": "Country Fried Home Videos",
            "popularity": 0.6
        },
        {
            "id": 3391,
            "original_name": "Pop! Goes the Country",
            "popularity": 0.6
        },
        {
            "id": 4328,
            "original_name": "A Country Practice",
            "popularity": 17.228
        },
        {
            "id": 4400,
            "original_name": "Kingswood Country",
            "popularity": 1.266
        },
        {
            "id": 4468,
            "original_name": "The Huntress",
            "popularity": 5.924
        },
        {
            "id": 4972,
            "original_name": "Country Spirit",
            "popularity": 0.6
        },
        {
            "id": 5355,
            "original_name": "Eurovision: Your Country Needs You",
            "popularity": 0.6
        },
        {
            "id": 5958,
            "original_name": "The Wide Country",
            "popularity": 1.508
        },
        {
            "id": 6185,
            "original_name": "The Edwardian Country House",
            "popularity": 0.741
        },
        {
            "id": 6390,
            "original_name": "Escape to the Country",
            "popularity": 60.157
        },
        {
            "id": 7126,
            "original_name": "Country Fried Planet",
            "popularity": 0.6
        },
        {
            "id": 8479,
            "original_name": "Country House Rescue",
            "popularity": 1.006
        },
        {
            "id": 10238,
            "original_name": "Texas Country Reporter",
            "popularity": 0.6
        },
        {
            "id": 10297,
            "original_name": "Carter Country",
            "popularity": 3.76
        },
        {
            "id": 10787,
            "original_name": "CBC News: Country Canada",
            "popularity": 0.6
        },
        {
            "id": 10858,
            "original_name": "Free Country",
            "popularity": 1.055
        },
        {
            "id": 13991,
            "original_name": "What a Country!",
            "popularity": 0.715
        },
        {
            "id": 14359,
            "original_name": "Gone Country",
            "popularity": 1.387
        },
        {
            "id": 14529,
            "original_name": "Cariboo Country",
            "popularity": 0.6
        },
        {
            "id": 14999,
            "original_name": "Hot Country Nights",
            "popularity": 2.019
        },
        {
            "id": 15791,
            "original_name": "The Country Mouse and the City Mouse: A Christmas Tale",
            "popularity": 0.6
        },
        {
            "id": 16220,
            "original_name": "Country Style",
            "popularity": 0.6
        },
        {
            "id": 16554,
            "original_name": "TNN Country News",
            "popularity": 0.6
        },
        {
            "id": 16555,
            "original_name": "Hot Hip and Country",
            "popularity": 0.6
        },
        {
            "id": 16882,
            "original_name": "The Country Mouse and the City Mouse Adventures",
            "popularity": 3.017
        },
        {
            "id": 17417,
            "original_name": "ITV News West Country",
            "popularity": 0.6
        },
        {
            "id": 17912,
            "original_name": "CMT Cross Country",
            "popularity": 0.6
        },
        {
            "id": 18940,
            "original_name": "Cook's Country",
            "popularity": 1.866
        },
        {
            "id": 19208,
            "original_name": "Math Country",
            "popularity": 0.6
        },
        {
            "id": 19933,
            "original_name": "Totally Untrue History Of...",
            "popularity": 0.6
        },
        {
            "id": 20319,
            "original_name": "Top 20 Country Countdown",
            "popularity": 0.6
        },
        {
            "id": 20995,
            "original_name": "A Country Parish",
            "popularity": 0.6
        },
        {
            "id": 21364,
            "original_name": "The American West: Steinbeck Country",
            "popularity": 0.6
        },
        {
            "id": 21557,
            "original_name": "Headline Country",
            "popularity": 0.6
        },
        {
            "id": 22016,
            "original_name": "Born Country",
            "popularity": 0.6
        },
        {
            "id": 22413,
            "original_name": "The Far Country",
            "popularity": 1.01
        },
        {
            "id": 22420,
            "original_name": "Country Matters",
            "popularity": 1.685
        },
        {
            "id": 22580,
            "original_name": "Country Music Spotlight",
            "popularity": 0.6
        },
        {
            "id": 23836,
            "original_name": "Country Tracks",
            "popularity": 1.235
        },
        {
            "id": 24239,
            "original_name": "Down Home Country",
            "popularity": 0.6
        },
        {
            "id": 25443,
            "original_name": "Country Club",
            "popularity": 0.6
        },
        {
            "id": 25535,
            "original_name": "Country Hoedown",
            "popularity": 0.6
        },
        {
            "id": 25562,
            "original_name": "Country Music Awards",
            "popularity": 0.6
        },
        {
            "id": 25626,
            "original_name": "Country Joy",
            "popularity": 0.6
        },
        {
            "id": 25724,
            "original_name": "Country Roads",
            "popularity": 0.6
        },
        {
            "id": 26022,
            "original_name": "A Big Country",
            "popularity": 0.6
        },
        {
            "id": 26425,
            "original_name": "Music Country USA",
            "popularity": 0.6
        },
        {
            "id": 26962,
            "original_name": "Country Call",
            "popularity": 0.6
        },
        {
            "id": 27054,
            "original_name": "The Country Music Hour",
            "popularity": 0.6
        },
        {
            "id": 27151,
            "original_name": "Country Road",
            "popularity": 0.6
        },
        {
            "id": 27243,
            "original_name": "Country Style",
            "popularity": 0.6
        },
        {
            "id": 27432,
            "original_name": "Heart of the Country",
            "popularity": 0.923
        },
        {
            "id": 27477,
            "original_name": "Country Music Across America",
            "popularity": 0.6
        },
        {
            "id": 27860,
            "original_name": "John Edward Cross Country",
            "popularity": 0.628
        },
        {
            "id": 28631,
            "original_name": "Tales from the Country",
            "popularity": 0.842
        },
        {
            "id": 28867,
            "original_name": "Castle In The Country",
            "popularity": 2.339
        },
        {
            "id": 29266,
            "original_name": "Build a New Life In the Country",
            "popularity": 1.216
        },
        {
            "id": 29561,
            "original_name": "Country Style (US)",
            "popularity": 0.6
        },
        {
            "id": 29646,
            "original_name": "ABC In Concert Country",
            "popularity": 0.6
        },
        {
            "id": 30324,
            "original_name": "The Country Boy",
            "popularity": 0.6
        },
        {
            "id": 31213,
            "original_name": "Grand Old Country",
            "popularity": 0.6
        },
        {
            "id": 31638,
            "original_name": "The Bizarre Country",
            "popularity": 0.6
        },
        {
            "id": 32926,
            "original_name": "Countrywise",
            "popularity": 0.706
        },
        {
            "id": 33185,
            "original_name": "Country Hoedown",
            "popularity": 0.6
        },
        {
            "id": 33479,
            "original_name": "Down Home Country",
            "popularity": 0.6
        },
        {
            "id": 33561,
            "original_name": "My Kind of Country",
            "popularity": 0.6
        },
        {
            "id": 33574,
            "original_name": "Country Roads",
            "popularity": 0.6
        },
        {
            "id": 33594,
            "original_name": "Comin' Up Country",
            "popularity": 0.6
        },
        {
            "id": 33603,
            "original_name": "Country Joy",
            "popularity": 0.6
        },
        {
            "id": 33638,
            "original_name": "Country Sunshine With Myrna Lorrie",
            "popularity": 0.6
        },
        {
            "id": 33889,
            "original_name": "Goin' Country",
            "popularity": 0.6
        },
        {
            "id": 35004,
            "original_name": "Countrytime",
            "popularity": 0.6
        },
        {
            "id": 35009,
            "original_name": "Countrytime",
            "popularity": 0.6
        },
        {
            "id": 35874,
            "original_name": "Countryt\u00e9ime",
            "popularity": 0.6
        },
        {
            "id": 35891,
            "original_name": "West Country Tales",
            "popularity": 0.6
        },
        {
            "id": 36268,
            "original_name": "Academy of Country Music Awards",
            "popularity": 1.614
        },
        {
            "id": 37871,
            "original_name": "Countrywise Kitchen",
            "popularity": 0.6
        },
        {
            "id": 39660,
            "original_name": "The 2010 American Country Awards",
            "popularity": 0.6
        },
        {
            "id": 40454,
            "original_name": "Malibu Country",
            "popularity": 1.816
        },
        {
            "id": 41620,
            "original_name": "In Wine Country",
            "popularity": 0.6
        },
        {
            "id": 44471,
            "original_name": "Century of Country",
            "popularity": 0.6
        },
        {
            "id": 44497,
            "original_name": "City Celebrity Country Nobody",
            "popularity": 0.6
        },
        {
            "id": 44691,
            "original_name": "To the Wild Country",
            "popularity": 0.6
        },
        {
            "id": 45366,
            "original_name": "Country Couples",
            "popularity": 0.6
        },
        {
            "id": 46320,
            "original_name": "I Love My Country",
            "popularity": 0.6
        },
        {
            "id": 46781,
            "original_name": "John A.: Birth of a Country",
            "popularity": 0.6
        },
        {
            "id": 48492,
            "original_name": "A Day in the Country: Impressionism and the French Landscape",
            "popularity": 0.6
        },
        {
            "id": 49309,
            "original_name": "The High Art of the Low Countries",
            "popularity": 1.4
        },
        {
            "id": 49761,
            "original_name": "How to Build a New Life in The Country",
            "popularity": 0.6
        },
        {
            "id": 55523,
            "original_name": "Ted Nugent's Gun Country",
            "popularity": 0.6
        },
        {
            "id": 55617,
            "original_name": "High Country Rescue",
            "popularity": 0.6
        },
        {
            "id": 55804,
            "original_name": "Country Show Cook Off",
            "popularity": 0.6
        },
        {
            "id": 56318,
            "original_name": "America's Music: The Roots of Country",
            "popularity": 0.6
        },
        {
            "id": 56505,
            "original_name": "The Man Without a Country",
            "popularity": 0.6
        },
        {
            "id": 57183,
            "original_name": "The Women of Country",
            "popularity": 0.6
        },
        {
            "id": 57562,
            "original_name": "Countryside 999",
            "popularity": 0.6
        },
        {
            "id": 57618,
            "original_name": "A Town & Country Murder",
            "popularity": 0.6
        },
        {
            "id": 57797,
            "original_name": "Leibowitz - Faith, Country and Man",
            "popularity": 0.6
        },
        {
            "id": 58095,
            "original_name": "Canadian Country Music Awards",
            "popularity": 1.082
        },
        {
            "id": 58701,
            "original_name": "Country House Sunday",
            "popularity": 0.6
        },
        {
            "id": 59588,
            "original_name": "The Country House Revealed",
            "popularity": 0.6
        },
        {
            "id": 59648,
            "original_name": "Weed Country",
            "popularity": 1.574
        },
        {
            "id": 60053,
            "original_name": "In God's Country",
            "popularity": 0.6
        },
        {
            "id": 62791,
            "original_name": "SunTrap",
            "popularity": 1.386
        },
        {
            "id": 62948,
            "original_name": "Country Buck$",
            "popularity": 0.6
        },
        {
            "id": 63640,
            "original_name": "Country Strife: Abz on the Farm",
            "popularity": 0.6
        },
        {
            "id": 64253,
            "original_name": "Die Country Kids aus der Steiermark",
            "popularity": 1.128
        },
        {
            "id": 64402,
            "original_name": "Outlaw Country",
            "popularity": 0.6
        },
        {
            "id": 66388,
            "original_name": "American Country Countdown Awards",
            "popularity": 0.6
        },
        {
            "id": 68583,
            "original_name": "Untraditional",
            "popularity": 1.592
        },
        {
            "id": 70002,
            "original_name": "Friday Night Tykes: Steel Country",
            "popularity": 0.6
        },
        {
            "id": 70596,
            "original_name": "This Country",
            "popularity": 2.462
        },
        {
            "id": 71950,
            "original_name": "Countryfile Spring Diaries",
            "popularity": 0.6
        },
        {
            "id": 72356,
            "original_name": "I Escaped To The Country",
            "popularity": 0.888
        },
        {
            "id": 72971,
            "original_name": "For King & Country",
            "popularity": 0.6
        },
        {
            "id": 72972,
            "original_name": "For King & Country",
            "popularity": 0.6
        },
        {
            "id": 72973,
            "original_name": "For King & Country",
            "popularity": 0.6
        },
        {
            "id": 73978,
            "original_name": "Country 2.0",
            "popularity": 0.6
        },
        {
            "id": 75668,
            "original_name": "Mary Berry's Country House Secrets",
            "popularity": 0.6
        },
        {
            "id": 77601,
            "original_name": "Wild Wild Country",
            "popularity": 6.665
        },
        {
            "id": 82816,
            "original_name": "Lovecraft Country",
            "popularity": 34.67
        },
        {
            "id": 83966,
            "original_name": "Ruth Mott's Country Christmas",
            "popularity": 0.6
        },
        {
            "id": 84087,
            "original_name": "Real Country",
            "popularity": 1.212
        },
        {
            "id": 86318,
            "original_name": "The Great British Countryside",
            "popularity": 0.6
        },
        {
            "id": 86558,
            "original_name": "Country Music",
            "popularity": 2.361
        },
        {
            "id": 88915,
            "original_name": "Backcountry Rescue",
            "popularity": 0.6
        },
        {
            "id": 90158,
            "original_name": "From The Beautiful Country",
            "popularity": 0.6
        },
        {
            "id": 92857,
            "original_name": "Tout simplement country",
            "popularity": 8.135
        },
        {
            "id": 95973,
            "original_name": "Murder in Amish Country",
            "popularity": 0.6
        },
        {
            "id": 96739,
            "original_name": "Pour l'amour du country",
            "popularity": 1.628
        },
        {
            "id": 96744,
            "original_name": "Au c\u0153ur du country",
            "popularity": 0.6
        },
        {
            "id": 99644,
            "original_name": "Big Cat Country",
            "popularity": 0.6
        },
        {
            "id": 100640,
            "original_name": "Gone Country",
            "popularity": 0.6
        },
        {
            "id": 102638,
            "original_name": "Critter Fixers: Country Vets",
            "popularity": 0.977
        },
        {
            "id": 105884,
            "original_name": "Legendy folku a country",
            "popularity": 0.6
        },
        {
            "id": 107593,
            "original_name": "My Kind of Country",
            "popularity": 1.176
        },
        {
            "id": 111928,
            "original_name": "Country Ever After",
            "popularity": 1.882
        },
        {
            "id": 112227,
            "original_name": "The Wayward Guide for the Untrained Eye",
            "popularity": 7.525
        },
        {
            "id": 113050,
            "original_name": "Sarah Beeny's New Life in the Country",
            "popularity": 24.304
        },
        {
            "id": 114878,
            "original_name": "A Very Country Christmas",
            "popularity": 0.6
        },
        {
            "id": 115007,
            "original_name": "Passion Country",
            "popularity": 0.6
        },
        {
            "id": 116803,
            "original_name": "Ray Mears' Country Tracks",
            "popularity": 0.6
        },
        {
            "id": 117171,
            "original_name": "Country Musikkens Historie",
            "popularity": 0.6
        },
        {
            "id": 117643,
            "original_name": "Country House Hunters Australia",
            "popularity": 0.6
        },
        {
            "id": 119180,
            "original_name": "Country Comfort",
            "popularity": 5.366
        },
        {
            "id": 125321,
            "original_name": "CMA Country Music Festival",
            "popularity": 0.918
        },
        {
            "id": 125555,
            "original_name": "Cameron Country",
            "popularity": 0.6
        },
        {
            "id": 128629,
            "original_name": "Movin' to the Country",
            "popularity": 0.6
        },
        {
            "id": 129434,
            "original_name": "Obsessive Compulsive Country House Cleaners",
            "popularity": 0.6
        },
        {
            "id": 129465,
            "original_name": "For Ball and Country",
            "popularity": 0.6
        },
        {
            "id": 129957,
            "original_name": "A Country Life for Half the Price with Kate Humble",
            "popularity": 0.6
        },
        {
            "id": 130630,
            "original_name": "Border Country:The Story of Britain's Lost Middleland",
            "popularity": 0.6
        },
        {
            "id": 130693,
            "original_name": "Old Country",
            "popularity": 0.6
        },
        {
            "id": 131883,
            "original_name": "I Escaped to the Country",
            "popularity": 0.6
        },
        {
            "id": 135040,
            "original_name": "The Farmers' Country Showdown",
            "popularity": 0.6
        },
        {
            "id": 135290,
            "original_name": "Michel Roux's French Country Cooking",
            "popularity": 4.277
        },
        {
            "id": 137341,
            "original_name": "Going Country",
            "popularity": 4.595
        }
    ],
    "relations": [
        {
            "character": "untry"
        },
        {
            "character": "untre"
        },
        {
            "character": "untru"
        },
        {
            "character": "untri"
        },
        {
            "character": "untra"
        }
    ],
    "top20": [
        {
            "id": 6390,
            "original_name": "Escape to the Country",
            "popularity": 60.157
        },
        {
            "id": 82816,
            "original_name": "Lovecraft Country",
            "popularity": 34.67
        },
        {
            "id": 113050,
            "original_name": "Sarah Beeny's New Life in the Country",
            "popularity": 24.304
        },
        {
            "id": 4328,
            "original_name": "A Country Practice",
            "popularity": 17.228
        },
        {
            "id": 2023,
            "original_name": "Countryfile",
            "popularity": 11.257
        },
        {
            "id": 92857,
            "original_name": "Tout simplement country",
            "popularity": 8.135
        },
        {
            "id": 112227,
            "original_name": "The Wayward Guide for the Untrained Eye",
            "popularity": 7.525
        },
        {
            "id": 2784,
            "original_name": "Donkey Kong Country",
            "popularity": 6.828
        },
        {
            "id": 77601,
            "original_name": "Wild Wild Country",
            "popularity": 6.665
        },
        {
            "id": 4468,
            "original_name": "The Huntress",
            "popularity": 5.924
        },
        {
            "id": 119180,
            "original_name": "Country Comfort",
            "popularity": 5.366
        },
        {
            "id": 137341,
            "original_name": "Going Country",
            "popularity": 4.595
        },
        {
            "id": 135290,
            "original_name": "Michel Roux's French Country Cooking",
            "popularity": 4.277
        },
        {
            "id": 10297,
            "original_name": "Carter Country",
            "popularity": 3.76
        },
        {
            "id": 16882,
            "original_name": "The Country Mouse and the City Mouse Adventures",
            "popularity": 3.017
        },
        {
            "id": 70596,
            "original_name": "This Country",
            "popularity": 2.462
        },
        {
            "id": 86558,
            "original_name": "Country Music",
            "popularity": 2.361
        },
        {
            "id": 28867,
            "original_name": "Castle In The Country",
            "popularity": 2.339
        },
        {
            "id": 14999,
            "original_name": "Hot Country Nights",
            "popularity": 2.019
        },
        {
            "id": 111928,
            "original_name": "Country Ever After",
            "popularity": 1.882
        }
    ]
}