{
    "data": [
        {
            "id": 53825,
            "original_name": "Tutkunum Sana",
            "popularity": 0.6
        }
    ],
    "relations": [],
    "top20": [
        {
            "id": 53825,
            "original_name": "Tutkunum Sana",
            "popularity": 0.6
        }
    ]
}