{
    "data": [
        {
            "id": 127629,
            "original_name": "Rupaya 500",
            "popularity": 7.879
        }
    ],
    "relations": [],
    "top20": [
        {
            "id": 127629,
            "original_name": "Rupaya 500",
            "popularity": 7.879
        }
    ]
}