{
    "data": [
        {
            "id": 105574,
            "original_name": "2020 AMA Supercross Championship",
            "popularity": 0.6
        }
    ],
    "relations": [],
    "top20": [
        {
            "id": 105574,
            "original_name": "2020 AMA Supercross Championship",
            "popularity": 0.6
        }
    ]
}