{
    "data": [
        {
            "id": 736,
            "original_name": "Pinoy Pop Superstar",
            "popularity": 0.6
        },
        {
            "id": 823,
            "original_name": "WWF Superstars Of Wrestling",
            "popularity": 5.215
        },
        {
            "id": 1207,
            "original_name": "SuperStar KZ",
            "popularity": 0.6
        },
        {
            "id": 1361,
            "original_name": "Handyman Superstar Challenge",
            "popularity": 0.6
        },
        {
            "id": 2596,
            "original_name": "Soapstar Superstar",
            "popularity": 1.532
        },
        {
            "id": 2776,
            "original_name": "Saturday Superstore",
            "popularity": 1.12
        },
        {
            "id": 3027,
            "original_name": "Little Big Superstar",
            "popularity": 0.6
        },
        {
            "id": 3869,
            "original_name": "The Krofft Supershow",
            "popularity": 0.6
        },
        {
            "id": 4758,
            "original_name": "The Krofft Superstar Hour",
            "popularity": 0.6
        },
        {
            "id": 4832,
            "original_name": "Superstorm",
            "popularity": 2.486
        },
        {
            "id": 4993,
            "original_name": "Fast Cars and Superstars: The Gillette Young Guns Celebrity Race",
            "popularity": 0.6
        },
        {
            "id": 5643,
            "original_name": "Eesti otsib superstaari",
            "popularity": 0.6
        },
        {
            "id": 6086,
            "original_name": "\u010cesko hled\u00e1 SuperStar",
            "popularity": 1.91
        },
        {
            "id": 6124,
            "original_name": "Deutschland sucht den Superstar",
            "popularity": 3.638
        },
        {
            "id": 6284,
            "original_name": "Slovensko h\u013ead\u00e1 SuperStar",
            "popularity": 0.919
        },
        {
            "id": 6328,
            "original_name": "Campus SuperStar",
            "popularity": 0.6
        },
        {
            "id": 7372,
            "original_name": "The Supersizers...",
            "popularity": 1.495
        },
        {
            "id": 7443,
            "original_name": "Football Superstar",
            "popularity": 0.917
        },
        {
            "id": 7774,
            "original_name": "Britain's Got the Pop Factor... and Possibly a New Celebrity Jesus Christ Soapstar Superstar Strictly on Ice",
            "popularity": 1.171
        },
        {
            "id": 9324,
            "original_name": "Superstar Chef Challenge",
            "popularity": 0.6
        },
        {
            "id": 9611,
            "original_name": "Sirasa Superstar",
            "popularity": 0.6
        },
        {
            "id": 10599,
            "original_name": "The ABC Saturday Superstar Movie",
            "popularity": 0.912
        },
        {
            "id": 11503,
            "original_name": "Project Superstar",
            "popularity": 0.6
        },
        {
            "id": 11564,
            "original_name": "Superstar USA",
            "popularity": 0.6
        },
        {
            "id": 13540,
            "original_name": "Hay Superstar",
            "popularity": 0.6
        },
        {
            "id": 13839,
            "original_name": "Hanna-Barbera Superstars 10",
            "popularity": 0.6
        },
        {
            "id": 14851,
            "original_name": "Celebrity Rap Superstar",
            "popularity": 0.6
        },
        {
            "id": 15312,
            "original_name": "Superstar Hair Challenge",
            "popularity": 0.84
        },
        {
            "id": 15323,
            "original_name": "Designer Superstar Challenge",
            "popularity": 0.6
        },
        {
            "id": 15748,
            "original_name": "GMA Supershow",
            "popularity": 0.6
        },
        {
            "id": 16281,
            "original_name": "WWE Superstars",
            "popularity": 11.446
        },
        {
            "id": 16393,
            "original_name": "Superstars of Dance",
            "popularity": 0.6
        },
        {
            "id": 16593,
            "original_name": "Supersense",
            "popularity": 0.6
        },
        {
            "id": 16805,
            "original_name": "i-Generation Superstars of Wrestling",
            "popularity": 0.6
        },
        {
            "id": 17133,
            "original_name": "Superstars on the Superstation",
            "popularity": 0.6
        },
        {
            "id": 17918,
            "original_name": "Supersize vs Superskinny",
            "popularity": 3.041
        },
        {
            "id": 18623,
            "original_name": "Mummy Ke Superstars",
            "popularity": 0.6
        },
        {
            "id": 20091,
            "original_name": "Project SuperStar",
            "popularity": 0.6
        },
        {
            "id": 20487,
            "original_name": "Superstars",
            "popularity": 0.6
        },
        {
            "id": 20705,
            "original_name": "Project Superstar Malaysia",
            "popularity": 0.6
        },
        {
            "id": 21248,
            "original_name": "Supersize She",
            "popularity": 0.6
        },
        {
            "id": 22465,
            "original_name": "Bert D'Angelo Superstar",
            "popularity": 1.774
        },
        {
            "id": 22659,
            "original_name": "Superstars",
            "popularity": 0.6
        },
        {
            "id": 22832,
            "original_name": "SuperSecret TV Formulas",
            "popularity": 0.6
        },
        {
            "id": 24736,
            "original_name": "Science Of Superstorms",
            "popularity": 0.6
        },
        {
            "id": 24746,
            "original_name": "Supersonic",
            "popularity": 0.6
        },
        {
            "id": 25393,
            "original_name": "Poker Superstars",
            "popularity": 0.926
        },
        {
            "id": 25940,
            "original_name": "Ian Wright's Supersize Kids",
            "popularity": 0.6
        },
        {
            "id": 29811,
            "original_name": "Supersize Surgery",
            "popularity": 0.6
        },
        {
            "id": 30065,
            "original_name": "Literary Superstar",
            "popularity": 0.6
        },
        {
            "id": 31217,
            "original_name": "SuperStar",
            "popularity": 1.17
        },
        {
            "id": 31486,
            "original_name": "Sajid's Superstars",
            "popularity": 0.6
        },
        {
            "id": 38492,
            "original_name": "Supersize Versus Superskinny Kids",
            "popularity": 0.6
        },
        {
            "id": 38515,
            "original_name": "CMT's Next Superstar",
            "popularity": 0.6
        },
        {
            "id": 38714,
            "original_name": "Superscrimpers",
            "popularity": 0.6
        },
        {
            "id": 39053,
            "original_name": "Dance Ke Superstars",
            "popularity": 0.6
        },
        {
            "id": 39092,
            "original_name": "Kitchen Superstar",
            "popularity": 0.6
        },
        {
            "id": 39573,
            "original_name": "Supershow",
            "popularity": 0.6
        },
        {
            "id": 40405,
            "original_name": "Supershow Extreme Live Performances",
            "popularity": 0.6
        },
        {
            "id": 42292,
            "original_name": "Cricket Superstar",
            "popularity": 0.6
        },
        {
            "id": 43205,
            "original_name": "Jesus Christ Superstar: 2000",
            "popularity": 0.6
        },
        {
            "id": 49859,
            "original_name": "Superstunt",
            "popularity": 0.6
        },
        {
            "id": 51337,
            "original_name": "Bantuekrak Superstar",
            "popularity": 0.6
        },
        {
            "id": 53010,
            "original_name": "Supersized Earth",
            "popularity": 0.6
        },
        {
            "id": 54785,
            "original_name": "SuperStar",
            "popularity": 0.6
        },
        {
            "id": 54919,
            "original_name": "Super Troupers",
            "popularity": 0.6
        },
        {
            "id": 55287,
            "original_name": "SuperScrimpers: Waste Not Want Not",
            "popularity": 0.6
        },
        {
            "id": 55819,
            "original_name": "Superscrimpers Challenge",
            "popularity": 0.6
        },
        {
            "id": 58652,
            "original_name": "\u0e04\u0e27\u0e32\u0e21\u0e25\u0e31\u0e1a\u0e02\u0e2d\u0e07 Superstar",
            "popularity": 1.183
        },
        {
            "id": 58857,
            "original_name": "Supermarket Superstar",
            "popularity": 0.6
        },
        {
            "id": 59015,
            "original_name": "Supersonic",
            "popularity": 0.6
        },
        {
            "id": 59404,
            "original_name": "Bert D'Angelo/Superstar",
            "popularity": 0.6
        },
        {
            "id": 61723,
            "original_name": "Barnas Supershow",
            "popularity": 0.6
        },
        {
            "id": 62649,
            "original_name": "Superstore",
            "popularity": 48.311
        },
        {
            "id": 66690,
            "original_name": "SuperStar",
            "popularity": 0.942
        },
        {
            "id": 67021,
            "original_name": "Legend of the Superstition Mountains",
            "popularity": 0.6
        },
        {
            "id": 71358,
            "original_name": "Wannueng Jaa Pben Superstar",
            "popularity": 0.6
        },
        {
            "id": 73162,
            "original_name": "Living With a Superstar",
            "popularity": 0.6
        },
        {
            "id": 74104,
            "original_name": "Superstition",
            "popularity": 13.333
        },
        {
            "id": 76363,
            "original_name": "India's Next Superstars",
            "popularity": 1.4
        },
        {
            "id": 77007,
            "original_name": "WWF Superstars",
            "popularity": 0.6
        },
        {
            "id": 77113,
            "original_name": "Superstars",
            "popularity": 0.6
        },
        {
            "id": 77867,
            "original_name": "The Real Tom Thumb: History's Smallest Superstar",
            "popularity": 0.6
        },
        {
            "id": 83004,
            "original_name": "The Superstars",
            "popularity": 0.6
        },
        {
            "id": 86678,
            "original_name": "Concorde: The Supersonic Race",
            "popularity": 0.6
        },
        {
            "id": 88565,
            "original_name": "Supershoppers",
            "popularity": 0.6
        },
        {
            "id": 90785,
            "original_name": "Superstar Singer",
            "popularity": 0.84
        },
        {
            "id": 91103,
            "original_name": "Supersize My Pool",
            "popularity": 0.6
        },
        {
            "id": 92196,
            "original_name": "Muzikal Lawak Superstar",
            "popularity": 0.715
        },
        {
            "id": 92223,
            "original_name": "Rome's Chariot Superstar",
            "popularity": 0.924
        },
        {
            "id": 92754,
            "original_name": "Survivre aux soupers de semaine",
            "popularity": 0.6
        },
        {
            "id": 95239,
            "original_name": "Superstructures: Engineering Marvels",
            "popularity": 1.396
        },
        {
            "id": 103220,
            "original_name": "Superschiffe: Giganten der Weltmeere",
            "popularity": 0.6
        },
        {
            "id": 111470,
            "original_name": "Supersized Hospital",
            "popularity": 0.6
        },
        {
            "id": 112494,
            "original_name": "Ancient Superstructures",
            "popularity": 1.008
        },
        {
            "id": 117200,
            "original_name": "Vunders\u0151n \u00e9s Zuperszexi",
            "popularity": 0.6
        },
        {
            "id": 121667,
            "original_name": "WWE: 50 Greatest Women Superstars",
            "popularity": 0.6
        },
        {
            "id": 123847,
            "original_name": "Gema Lawak Superstar",
            "popularity": 0.6
        },
        {
            "id": 129872,
            "original_name": "Storm Troupers: The Fight to Forecast the Weather",
            "popularity": 0.6
        },
        {
            "id": 130576,
            "original_name": "Superstars of Wrestling",
            "popularity": 0.6
        },
        {
            "id": 131993,
            "original_name": "Superstar",
            "popularity": 0.61
        },
        {
            "id": 132785,
            "original_name": "Supersize Structures",
            "popularity": 0.6
        },
        {
            "id": 135213,
            "original_name": "Siegfried and Roy - Superstars Of Magic",
            "popularity": 0.6
        }
    ],
    "relations": [
        {
            "character": "uperst"
        },
        {
            "character": "upersh"
        },
        {
            "character": "upersi"
        },
        {
            "character": "uperse"
        },
        {
            "character": "upersk"
        },
        {
            "character": "uperso"
        },
        {
            "character": "upersc"
        },
        {
            "character": "upersz"
        }
    ],
    "top20": [
        {
            "id": 62649,
            "original_name": "Superstore",
            "popularity": 48.311
        },
        {
            "id": 74104,
            "original_name": "Superstition",
            "popularity": 13.333
        },
        {
            "id": 16281,
            "original_name": "WWE Superstars",
            "popularity": 11.446
        },
        {
            "id": 823,
            "original_name": "WWF Superstars Of Wrestling",
            "popularity": 5.215
        },
        {
            "id": 6124,
            "original_name": "Deutschland sucht den Superstar",
            "popularity": 3.638
        },
        {
            "id": 17918,
            "original_name": "Supersize vs Superskinny",
            "popularity": 3.041
        },
        {
            "id": 4832,
            "original_name": "Superstorm",
            "popularity": 2.486
        },
        {
            "id": 6086,
            "original_name": "\u010cesko hled\u00e1 SuperStar",
            "popularity": 1.91
        },
        {
            "id": 22465,
            "original_name": "Bert D'Angelo Superstar",
            "popularity": 1.774
        },
        {
            "id": 2596,
            "original_name": "Soapstar Superstar",
            "popularity": 1.532
        },
        {
            "id": 7372,
            "original_name": "The Supersizers...",
            "popularity": 1.495
        },
        {
            "id": 76363,
            "original_name": "India's Next Superstars",
            "popularity": 1.4
        },
        {
            "id": 95239,
            "original_name": "Superstructures: Engineering Marvels",
            "popularity": 1.396
        },
        {
            "id": 58652,
            "original_name": "\u0e04\u0e27\u0e32\u0e21\u0e25\u0e31\u0e1a\u0e02\u0e2d\u0e07 Superstar",
            "popularity": 1.183
        },
        {
            "id": 7774,
            "original_name": "Britain's Got the Pop Factor... and Possibly a New Celebrity Jesus Christ Soapstar Superstar Strictly on Ice",
            "popularity": 1.171
        },
        {
            "id": 31217,
            "original_name": "SuperStar",
            "popularity": 1.17
        },
        {
            "id": 2776,
            "original_name": "Saturday Superstore",
            "popularity": 1.12
        },
        {
            "id": 112494,
            "original_name": "Ancient Superstructures",
            "popularity": 1.008
        },
        {
            "id": 66690,
            "original_name": "SuperStar",
            "popularity": 0.942
        },
        {
            "id": 25393,
            "original_name": "Poker Superstars",
            "popularity": 0.926
        }
    ]
}