{
    "data": [
        {
            "id": 3209,
            "original_name": "Clifford's Puppy Days",
            "popularity": 5.937
        },
        {
            "id": 11792,
            "original_name": "The Puppy's Further Adventures",
            "popularity": 0.6
        },
        {
            "id": 12978,
            "original_name": "The Scooby & Scrappy-Doo/Puppy Hour",
            "popularity": 2.283
        },
        {
            "id": 17327,
            "original_name": "Puppy Bowl",
            "popularity": 0.6
        },
        {
            "id": 18828,
            "original_name": "T.U.F.F. Puppy",
            "popularity": 13.188
        },
        {
            "id": 41622,
            "original_name": "Puppy in My Pocket: Adventures in Pocketville",
            "popularity": 1.481
        },
        {
            "id": 57541,
            "original_name": "The Cricket and the Puppy",
            "popularity": 0.6
        },
        {
            "id": 61174,
            "original_name": "Bee and Puppycat",
            "popularity": 4.099
        },
        {
            "id": 63288,
            "original_name": "Puppy Love",
            "popularity": 1.275
        },
        {
            "id": 72089,
            "original_name": "Puppy Dog Pals",
            "popularity": 15.62
        },
        {
            "id": 89750,
            "original_name": "Puppy School",
            "popularity": 0.6
        },
        {
            "id": 104065,
            "original_name": "Playtime with Puppy Dog Pals",
            "popularity": 0.6
        },
        {
            "id": 119859,
            "original_name": "Dog Squad Puppy School",
            "popularity": 0.6
        },
        {
            "id": 125620,
            "original_name": "Senior Secret Love: Puppy Honey",
            "popularity": 0.6
        },
        {
            "id": 133153,
            "original_name": "Puppy Place",
            "popularity": 5.542
        },
        {
            "id": 136024,
            "original_name": "Puppy Days",
            "popularity": 0.6
        }
    ],
    "relations": [],
    "top20": [
        {
            "id": 3209,
            "original_name": "Clifford's Puppy Days",
            "popularity": 5.937
        },
        {
            "id": 11792,
            "original_name": "The Puppy's Further Adventures",
            "popularity": 0.6
        },
        {
            "id": 12978,
            "original_name": "The Scooby & Scrappy-Doo/Puppy Hour",
            "popularity": 2.283
        },
        {
            "id": 17327,
            "original_name": "Puppy Bowl",
            "popularity": 0.6
        },
        {
            "id": 18828,
            "original_name": "T.U.F.F. Puppy",
            "popularity": 13.188
        },
        {
            "id": 41622,
            "original_name": "Puppy in My Pocket: Adventures in Pocketville",
            "popularity": 1.481
        },
        {
            "id": 57541,
            "original_name": "The Cricket and the Puppy",
            "popularity": 0.6
        },
        {
            "id": 61174,
            "original_name": "Bee and Puppycat",
            "popularity": 4.099
        },
        {
            "id": 63288,
            "original_name": "Puppy Love",
            "popularity": 1.275
        },
        {
            "id": 72089,
            "original_name": "Puppy Dog Pals",
            "popularity": 15.62
        },
        {
            "id": 89750,
            "original_name": "Puppy School",
            "popularity": 0.6
        },
        {
            "id": 104065,
            "original_name": "Playtime with Puppy Dog Pals",
            "popularity": 0.6
        },
        {
            "id": 119859,
            "original_name": "Dog Squad Puppy School",
            "popularity": 0.6
        },
        {
            "id": 125620,
            "original_name": "Senior Secret Love: Puppy Honey",
            "popularity": 0.6
        },
        {
            "id": 133153,
            "original_name": "Puppy Place",
            "popularity": 5.542
        },
        {
            "id": 136024,
            "original_name": "Puppy Days",
            "popularity": 0.6
        }
    ]
}