{
    "data": [
        {
            "id": 98602,
            "original_name": "Le Long de la Muraille de Chine",
            "popularity": 0.6
        },
        {
            "id": 107324,
            "original_name": "Churails",
            "popularity": 1.937
        },
        {
            "id": 136853,
            "original_name": "L'Histoire de la grande muraille de chine",
            "popularity": 0.6
        }
    ],
    "relations": [],
    "top20": [
        {
            "id": 98602,
            "original_name": "Le Long de la Muraille de Chine",
            "popularity": 0.6
        },
        {
            "id": 107324,
            "original_name": "Churails",
            "popularity": 1.937
        },
        {
            "id": 136853,
            "original_name": "L'Histoire de la grande muraille de chine",
            "popularity": 0.6
        }
    ]
}