{
    "data": [
        {
            "id": 615,
            "original_name": "Futurama",
            "popularity": 156.482
        },
        {
            "id": 15672,
            "original_name": "El Juramento",
            "popularity": 0.6
        },
        {
            "id": 34877,
            "original_name": "Toonturama",
            "popularity": 0.6
        },
        {
            "id": 91014,
            "original_name": "Kailasapuram",
            "popularity": 0.6
        },
        {
            "id": 99172,
            "original_name": "Areva Uramin",
            "popularity": 0.6
        }
    ],
    "relations": [],
    "top20": [
        {
            "id": 615,
            "original_name": "Futurama",
            "popularity": 156.482
        },
        {
            "id": 15672,
            "original_name": "El Juramento",
            "popularity": 0.6
        },
        {
            "id": 34877,
            "original_name": "Toonturama",
            "popularity": 0.6
        },
        {
            "id": 91014,
            "original_name": "Kailasapuram",
            "popularity": 0.6
        },
        {
            "id": 99172,
            "original_name": "Areva Uramin",
            "popularity": 0.6
        }
    ]
}