{
    "data": [
        {
            "id": 8212,
            "original_name": "The Suburbs",
            "popularity": 0.6
        },
        {
            "id": 15498,
            "original_name": "The Suburbs",
            "popularity": 0.6
        },
        {
            "id": 90559,
            "original_name": "City vs. Burbs",
            "popularity": 0.6
        },
        {
            "id": 139474,
            "original_name": "Run The Burbs",
            "popularity": 1.184
        }
    ],
    "relations": [],
    "top20": [
        {
            "id": 8212,
            "original_name": "The Suburbs",
            "popularity": 0.6
        },
        {
            "id": 15498,
            "original_name": "The Suburbs",
            "popularity": 0.6
        },
        {
            "id": 90559,
            "original_name": "City vs. Burbs",
            "popularity": 0.6
        },
        {
            "id": 139474,
            "original_name": "Run The Burbs",
            "popularity": 1.184
        }
    ]
}