{
    "data": [
        {
            "id": 4533,
            "original_name": "Anthony Bourdain: No Reservations",
            "popularity": 5.463
        },
        {
            "id": 43131,
            "original_name": "Anthony Bourdain's Alternation Universe",
            "popularity": 0.6
        },
        {
            "id": 56305,
            "original_name": "Anthony Bourdain: Parts Unknown",
            "popularity": 7.942
        },
        {
            "id": 68772,
            "original_name": "Raw Craft with Anthony Bourdain",
            "popularity": 0.6
        }
    ],
    "relations": [],
    "top20": [
        {
            "id": 4533,
            "original_name": "Anthony Bourdain: No Reservations",
            "popularity": 5.463
        },
        {
            "id": 43131,
            "original_name": "Anthony Bourdain's Alternation Universe",
            "popularity": 0.6
        },
        {
            "id": 56305,
            "original_name": "Anthony Bourdain: Parts Unknown",
            "popularity": 7.942
        },
        {
            "id": 68772,
            "original_name": "Raw Craft with Anthony Bourdain",
            "popularity": 0.6
        }
    ]
}