{
    "data": [
        {
            "id": 3054,
            "original_name": "Multi-Coloured Swap Shop",
            "popularity": 0.6
        },
        {
            "id": 4296,
            "original_name": "Arthur's Treasured Volumes",
            "popularity": 0.6
        },
        {
            "id": 5867,
            "original_name": "Stolen Women: Captured Hearts",
            "popularity": 1.09
        },
        {
            "id": 13058,
            "original_name": "PopCultured",
            "popularity": 0.6
        },
        {
            "id": 20622,
            "original_name": "Fractured Flickers",
            "popularity": 0.981
        },
        {
            "id": 22648,
            "original_name": "Captured",
            "popularity": 0.6
        },
        {
            "id": 25044,
            "original_name": "Fractured Phrases",
            "popularity": 0.6
        },
        {
            "id": 47188,
            "original_name": "The Man Who Captured Eichmann",
            "popularity": 0.6
        },
        {
            "id": 61178,
            "original_name": "\u30b3\u30fc\u30d7\u30b9\u30d1\u30fc\u30c6\u30a3\u30fc Tortured Souls",
            "popularity": 14.349
        },
        {
            "id": 86564,
            "original_name": "Fractured Fairy Tales",
            "popularity": 0.6
        },
        {
            "id": 102770,
            "original_name": "How To Get Featured On Deadline",
            "popularity": 7.715
        },
        {
            "id": 104415,
            "original_name": "Pentangle Captured Live",
            "popularity": 0.6
        },
        {
            "id": 120927,
            "original_name": "Paranormal Captured",
            "popularity": 0.6
        }
    ],
    "relations": [],
    "top20": [
        {
            "id": 3054,
            "original_name": "Multi-Coloured Swap Shop",
            "popularity": 0.6
        },
        {
            "id": 4296,
            "original_name": "Arthur's Treasured Volumes",
            "popularity": 0.6
        },
        {
            "id": 5867,
            "original_name": "Stolen Women: Captured Hearts",
            "popularity": 1.09
        },
        {
            "id": 13058,
            "original_name": "PopCultured",
            "popularity": 0.6
        },
        {
            "id": 20622,
            "original_name": "Fractured Flickers",
            "popularity": 0.981
        },
        {
            "id": 22648,
            "original_name": "Captured",
            "popularity": 0.6
        },
        {
            "id": 25044,
            "original_name": "Fractured Phrases",
            "popularity": 0.6
        },
        {
            "id": 47188,
            "original_name": "The Man Who Captured Eichmann",
            "popularity": 0.6
        },
        {
            "id": 61178,
            "original_name": "\u30b3\u30fc\u30d7\u30b9\u30d1\u30fc\u30c6\u30a3\u30fc Tortured Souls",
            "popularity": 14.349
        },
        {
            "id": 86564,
            "original_name": "Fractured Fairy Tales",
            "popularity": 0.6
        },
        {
            "id": 102770,
            "original_name": "How To Get Featured On Deadline",
            "popularity": 7.715
        },
        {
            "id": 104415,
            "original_name": "Pentangle Captured Live",
            "popularity": 0.6
        },
        {
            "id": 120927,
            "original_name": "Paranormal Captured",
            "popularity": 0.6
        }
    ]
}