{
    "data": [
        {
            "id": 6399,
            "original_name": "Shirl's Neighbourhood",
            "popularity": 0.6
        },
        {
            "id": 13696,
            "original_name": "Dame Edna's Neighbourhood Watch",
            "popularity": 1.4
        },
        {
            "id": 21964,
            "original_name": "Neighbourhood Watched",
            "popularity": 0.6
        },
        {
            "id": 32801,
            "original_name": "Neighbourhood",
            "popularity": 0.6
        },
        {
            "id": 43958,
            "original_name": "Million Dollar Neighbourhood",
            "popularity": 0.6
        },
        {
            "id": 57628,
            "original_name": "Neighbourhood Force",
            "popularity": 0.6
        },
        {
            "id": 59706,
            "original_name": "Neighbourhood Watched",
            "popularity": 0.6
        },
        {
            "id": 74230,
            "original_name": "Neighbourhood Blues",
            "popularity": 0.6
        }
    ],
    "relations": [],
    "top20": [
        {
            "id": 6399,
            "original_name": "Shirl's Neighbourhood",
            "popularity": 0.6
        },
        {
            "id": 13696,
            "original_name": "Dame Edna's Neighbourhood Watch",
            "popularity": 1.4
        },
        {
            "id": 21964,
            "original_name": "Neighbourhood Watched",
            "popularity": 0.6
        },
        {
            "id": 32801,
            "original_name": "Neighbourhood",
            "popularity": 0.6
        },
        {
            "id": 43958,
            "original_name": "Million Dollar Neighbourhood",
            "popularity": 0.6
        },
        {
            "id": 57628,
            "original_name": "Neighbourhood Force",
            "popularity": 0.6
        },
        {
            "id": 59706,
            "original_name": "Neighbourhood Watched",
            "popularity": 0.6
        },
        {
            "id": 74230,
            "original_name": "Neighbourhood Blues",
            "popularity": 0.6
        }
    ]
}