{
    "data": [
        {
            "id": 5546,
            "original_name": "Souris noire",
            "popularity": 0.6
        },
        {
            "id": 53472,
            "original_name": "Imam of The Jurists",
            "popularity": 0.6
        },
        {
            "id": 57540,
            "original_name": "Big Trouble in Tourist Thailand",
            "popularity": 0.6
        },
        {
            "id": 57560,
            "original_name": "John Sergeant on the Tourist Trail",
            "popularity": 0.6
        },
        {
            "id": 59391,
            "original_name": "Dark Tourism",
            "popularity": 0.6
        },
        {
            "id": 59884,
            "original_name": "The Suicide Tourist",
            "popularity": 1.12
        },
        {
            "id": 63326,
            "original_name": "Itsutsu Boshi Tourist",
            "popularity": 1.4
        },
        {
            "id": 66221,
            "original_name": "Tip la souris",
            "popularity": 0.6
        },
        {
            "id": 70511,
            "original_name": "Jurismia!",
            "popularity": 1.4
        },
        {
            "id": 73000,
            "original_name": "The Miniaturist",
            "popularity": 11.753
        },
        {
            "id": 73084,
            "original_name": "Turisti per Caso",
            "popularity": 1.514
        },
        {
            "id": 73086,
            "original_name": "Turisti per caso - L'Italia s'\u00e8 desta",
            "popularity": 0.6
        },
        {
            "id": 76848,
            "original_name": "Les Touristes",
            "popularity": 0.627
        },
        {
            "id": 81002,
            "original_name": "Dark Tourist",
            "popularity": 5.518
        },
        {
            "id": 92903,
            "original_name": "Bienvenue aux touristes",
            "popularity": 0.983
        },
        {
            "id": 92980,
            "original_name": "El turista",
            "popularity": 0.6
        },
        {
            "id": 94486,
            "original_name": "Souris souris",
            "popularity": 1.775
        },
        {
            "id": 102822,
            "original_name": "Les fleuristes",
            "popularity": 1.286
        },
        {
            "id": 104546,
            "original_name": "La Maison Des Souris",
            "popularity": 0.6
        },
        {
            "id": 105031,
            "original_name": "Jim Gaffigan: The Pale Tourist",
            "popularity": 1.208
        },
        {
            "id": 120909,
            "original_name": "The Tourist",
            "popularity": 7.1
        },
        {
            "id": 128929,
            "original_name": "Les Touristes, Mission Agriculteurs",
            "popularity": 0.6
        },
        {
            "id": 128932,
            "original_name": "Les Touristes, Mission cascadeurs",
            "popularity": 0.6
        },
        {
            "id": 131420,
            "original_name": "Tourist Trap",
            "popularity": 0.6
        },
        {
            "id": 132535,
            "original_name": "IK1 \u2013 Touristen in Gefahr",
            "popularity": 0.862
        },
        {
            "id": 134719,
            "original_name": "Die Job-Touristen",
            "popularity": 0.6
        }
    ],
    "relations": [
        {
            "character": "urist"
        },
        {
            "character": "urism"
        }
    ],
    "top20": [
        {
            "id": 73000,
            "original_name": "The Miniaturist",
            "popularity": 11.753
        },
        {
            "id": 120909,
            "original_name": "The Tourist",
            "popularity": 7.1
        },
        {
            "id": 81002,
            "original_name": "Dark Tourist",
            "popularity": 5.518
        },
        {
            "id": 94486,
            "original_name": "Souris souris",
            "popularity": 1.775
        },
        {
            "id": 73084,
            "original_name": "Turisti per Caso",
            "popularity": 1.514
        },
        {
            "id": 70511,
            "original_name": "Jurismia!",
            "popularity": 1.4
        },
        {
            "id": 63326,
            "original_name": "Itsutsu Boshi Tourist",
            "popularity": 1.4
        },
        {
            "id": 102822,
            "original_name": "Les fleuristes",
            "popularity": 1.286
        },
        {
            "id": 105031,
            "original_name": "Jim Gaffigan: The Pale Tourist",
            "popularity": 1.208
        },
        {
            "id": 59884,
            "original_name": "The Suicide Tourist",
            "popularity": 1.12
        },
        {
            "id": 92903,
            "original_name": "Bienvenue aux touristes",
            "popularity": 0.983
        },
        {
            "id": 132535,
            "original_name": "IK1 \u2013 Touristen in Gefahr",
            "popularity": 0.862
        },
        {
            "id": 76848,
            "original_name": "Les Touristes",
            "popularity": 0.627
        },
        {
            "id": 66221,
            "original_name": "Tip la souris",
            "popularity": 0.6
        },
        {
            "id": 57560,
            "original_name": "John Sergeant on the Tourist Trail",
            "popularity": 0.6
        },
        {
            "id": 57540,
            "original_name": "Big Trouble in Tourist Thailand",
            "popularity": 0.6
        },
        {
            "id": 53472,
            "original_name": "Imam of The Jurists",
            "popularity": 0.6
        },
        {
            "id": 73086,
            "original_name": "Turisti per caso - L'Italia s'\u00e8 desta",
            "popularity": 0.6
        },
        {
            "id": 5546,
            "original_name": "Souris noire",
            "popularity": 0.6
        },
        {
            "id": 59391,
            "original_name": "Dark Tourism",
            "popularity": 0.6
        }
    ]
}