{
    "data": [
        {
            "id": 16017,
            "original_name": "Juritzen direkte",
            "popularity": 0.6
        },
        {
            "id": 102394,
            "original_name": "Kompani Lauritzen",
            "popularity": 1.183
        }
    ],
    "relations": [],
    "top20": [
        {
            "id": 16017,
            "original_name": "Juritzen direkte",
            "popularity": 0.6
        },
        {
            "id": 102394,
            "original_name": "Kompani Lauritzen",
            "popularity": 1.183
        }
    ]
}