{
    "data": [
        {
            "id": 149,
            "original_name": "The Journal Editorial Report",
            "popularity": 0.6
        },
        {
            "id": 2921,
            "original_name": "The Journal",
            "popularity": 0.6
        },
        {
            "id": 3196,
            "original_name": "Washington Journal",
            "popularity": 0.6
        },
        {
            "id": 9138,
            "original_name": "Jeopardy! Ultimate Tournament of Champions",
            "popularity": 0.6
        },
        {
            "id": 10357,
            "original_name": "Bill Moyers Journal",
            "popularity": 0.6
        },
        {
            "id": 11293,
            "original_name": "Turnabout",
            "popularity": 0.6
        },
        {
            "id": 11326,
            "original_name": "Le T\u00e9l\u00e9journal",
            "popularity": 0.6
        },
        {
            "id": 11917,
            "original_name": "The Tournament",
            "popularity": 1.507
        },
        {
            "id": 15120,
            "original_name": "Tournament of the Gods",
            "popularity": 0.6
        },
        {
            "id": 15225,
            "original_name": "Jurnalul TVR",
            "popularity": 0.6
        },
        {
            "id": 17700,
            "original_name": "European Journal",
            "popularity": 0.6
        },
        {
            "id": 18262,
            "original_name": "David Brinkley's Journal",
            "popularity": 0.6
        },
        {
            "id": 18959,
            "original_name": "A Sunday Journal",
            "popularity": 0.6
        },
        {
            "id": 19098,
            "original_name": "Journal",
            "popularity": 0.6
        },
        {
            "id": 19345,
            "original_name": "Dr. Hudson's Secret Journal",
            "popularity": 0.6
        },
        {
            "id": 19404,
            "original_name": "Le Journal du soir",
            "popularity": 0.6
        },
        {
            "id": 22203,
            "original_name": "Out Of The Fiery Furnace",
            "popularity": 0.6
        },
        {
            "id": 23811,
            "original_name": "Gardener's Journal",
            "popularity": 0.6
        },
        {
            "id": 27391,
            "original_name": "Le Grand Journal",
            "popularity": 1.4
        },
        {
            "id": 29464,
            "original_name": "20 heures le journal",
            "popularity": 0.6
        },
        {
            "id": 30173,
            "original_name": "Filmjournaal Cannes",
            "popularity": 0.6
        },
        {
            "id": 33575,
            "original_name": "Journal",
            "popularity": 0.6
        },
        {
            "id": 33851,
            "original_name": "American Journal",
            "popularity": 0.6
        },
        {
            "id": 34401,
            "original_name": "Aksyon JournalisMO",
            "popularity": 0.6
        },
        {
            "id": 34637,
            "original_name": "Het Journaal",
            "popularity": 0.6
        },
        {
            "id": 36438,
            "original_name": "WK Journaal",
            "popularity": 0.6
        },
        {
            "id": 37556,
            "original_name": "Jeugdjournaal",
            "popularity": 0.6
        },
        {
            "id": 38154,
            "original_name": "Tony Brown's Journal",
            "popularity": 0.6
        },
        {
            "id": 38265,
            "original_name": "Tournament of Roses Parade",
            "popularity": 0.6
        },
        {
            "id": 38276,
            "original_name": "Civil War Journal",
            "popularity": 1.467
        },
        {
            "id": 38715,
            "original_name": "Het Sinterklaasjournaal",
            "popularity": 4.449
        },
        {
            "id": 39267,
            "original_name": "Seek for Surname History",
            "popularity": 0.6
        },
        {
            "id": 39628,
            "original_name": "Journalists Killed in the Line of Duty",
            "popularity": 0.6
        },
        {
            "id": 40467,
            "original_name": "Turnabout",
            "popularity": 2.049
        },
        {
            "id": 44521,
            "original_name": "Dream Journal",
            "popularity": 0.6
        },
        {
            "id": 45525,
            "original_name": "116th Annual Tournament of Roses Parade",
            "popularity": 0.6
        },
        {
            "id": 45530,
            "original_name": "115th Annual Tournament of Roses Parade",
            "popularity": 0.6
        },
        {
            "id": 45540,
            "original_name": "CBS Tournament of Roses Parade",
            "popularity": 0.6
        },
        {
            "id": 45580,
            "original_name": "CBS Tournament of Roses Parade",
            "popularity": 0.6
        },
        {
            "id": 45581,
            "original_name": "Tournament of Roses Parade",
            "popularity": 0.6
        },
        {
            "id": 46280,
            "original_name": "Louis Rukeyser's Business Journal",
            "popularity": 0.6
        },
        {
            "id": 46364,
            "original_name": "CBS Tournament of Roses Parade and Pageant",
            "popularity": 0.6
        },
        {
            "id": 51905,
            "original_name": "NOS Journaal",
            "popularity": 0.6
        },
        {
            "id": 52174,
            "original_name": "The Legend of Hundred Family Surnames",
            "popularity": 0.6
        },
        {
            "id": 52635,
            "original_name": "Le Petit Journal",
            "popularity": 1.031
        },
        {
            "id": 53011,
            "original_name": "The Journalism Show",
            "popularity": 0.6
        },
        {
            "id": 53372,
            "original_name": "86th Annual Pasadena Tournament of Roses Parade",
            "popularity": 0.6
        },
        {
            "id": 56036,
            "original_name": "Love Match Turnaround",
            "popularity": 0.6
        },
        {
            "id": 56145,
            "original_name": "80th Tournament of Roses Parade",
            "popularity": 0.6
        },
        {
            "id": 56396,
            "original_name": "34th Masters Tournament",
            "popularity": 0.6
        },
        {
            "id": 56514,
            "original_name": "Discovery Journal",
            "popularity": 0.6
        },
        {
            "id": 57178,
            "original_name": "1997 Masters Tournament",
            "popularity": 0.6
        },
        {
            "id": 57188,
            "original_name": "1992 Masters Tournament",
            "popularity": 0.6
        },
        {
            "id": 58096,
            "original_name": "Scotties Tournament of Hearts",
            "popularity": 0.6
        },
        {
            "id": 60099,
            "original_name": "Motorjournalen",
            "popularity": 0.6
        },
        {
            "id": 64623,
            "original_name": "Die Journalistin",
            "popularity": 0.711
        },
        {
            "id": 65491,
            "original_name": "Vikings: Athelstan's Journal",
            "popularity": 2.399
        },
        {
            "id": 77449,
            "original_name": "1973, Journal de Guerre",
            "popularity": 0.6
        },
        {
            "id": 77451,
            "original_name": "Black Journal",
            "popularity": 0.841
        },
        {
            "id": 77594,
            "original_name": "Japan Railway Journal",
            "popularity": 0.64
        },
        {
            "id": 77905,
            "original_name": "Curious Minds:  Photojournalism",
            "popularity": 0.6
        },
        {
            "id": 79285,
            "original_name": "Gold Stars: The Story of the FIFA World Cup Tournaments",
            "popularity": 1.075
        },
        {
            "id": 80288,
            "original_name": "Cik Sempurna",
            "popularity": 1.74
        },
        {
            "id": 80499,
            "original_name": "NET Journal",
            "popularity": 0.6
        },
        {
            "id": 83638,
            "original_name": "LA Nocturna",
            "popularity": 0.6
        },
        {
            "id": 86821,
            "original_name": "Journal Journey with Rattawan",
            "popularity": 0.6
        },
        {
            "id": 88969,
            "original_name": "heute journal",
            "popularity": 1.574
        },
        {
            "id": 97755,
            "original_name": "La Nocturna",
            "popularity": 0.6
        },
        {
            "id": 97885,
            "original_name": "Tolong Sempurnakan Cerita Mami",
            "popularity": 1.117
        },
        {
            "id": 100095,
            "original_name": "Tournament of Champions",
            "popularity": 0.6
        },
        {
            "id": 100452,
            "original_name": "Le Journal",
            "popularity": 0.847
        },
        {
            "id": 101544,
            "original_name": "Fen\u00eatre(s) - Journal de confinement",
            "popularity": 0.6
        },
        {
            "id": 101788,
            "original_name": "Journal TV RTS",
            "popularity": 0.6
        },
        {
            "id": 103815,
            "original_name": "Dossiers Surnaturels",
            "popularity": 0.6
        },
        {
            "id": 104512,
            "original_name": "Journalisten fragen - Politiker antworten",
            "popularity": 1.27
        },
        {
            "id": 104728,
            "original_name": "Tournament of Laughs",
            "popularity": 0.84
        },
        {
            "id": 105051,
            "original_name": "Journal d'un Hikikomori",
            "popularity": 0.6
        },
        {
            "id": 105079,
            "original_name": "Hamburg Journal",
            "popularity": 3.554
        },
        {
            "id": 105184,
            "original_name": "Kulturjournal",
            "popularity": 4.807
        },
        {
            "id": 110976,
            "original_name": "Den \u00f6verl\u00e4gsne journalisten",
            "popularity": 0.84
        },
        {
            "id": 118949,
            "original_name": "Cher Journal",
            "popularity": 0.84
        },
        {
            "id": 123744,
            "original_name": "Tak Sempurna Mencintaimu",
            "popularity": 0.935
        },
        {
            "id": 126215,
            "original_name": "The Chadwick Journals",
            "popularity": 0.6
        },
        {
            "id": 126861,
            "original_name": "21 Day Body Turnaround with Michael Mosley",
            "popularity": 0.84
        },
        {
            "id": 129090,
            "original_name": "WELTjournal+",
            "popularity": 0.6
        },
        {
            "id": 129098,
            "original_name": "WELTjournal",
            "popularity": 0.6
        },
        {
            "id": 133723,
            "original_name": "Harry Potter: Hogwarts Tournament of Houses",
            "popularity": 103.198
        },
        {
            "id": 138196,
            "original_name": "The Tournament",
            "popularity": 4.826
        },
        {
            "id": 139477,
            "original_name": "Yellowstone Journals",
            "popularity": 0.814
        }
    ],
    "relations": [
        {
            "character": "urnal"
        },
        {
            "character": "urnam"
        },
        {
            "character": "urnab"
        },
        {
            "character": "urnac"
        },
        {
            "character": "urnaa"
        },
        {
            "character": "urnar"
        },
        {
            "character": "urnak"
        },
        {
            "character": "urnat"
        }
    ],
    "top20": [
        {
            "id": 133723,
            "original_name": "Harry Potter: Hogwarts Tournament of Houses",
            "popularity": 103.198
        },
        {
            "id": 138196,
            "original_name": "The Tournament",
            "popularity": 4.826
        },
        {
            "id": 105184,
            "original_name": "Kulturjournal",
            "popularity": 4.807
        },
        {
            "id": 38715,
            "original_name": "Het Sinterklaasjournaal",
            "popularity": 4.449
        },
        {
            "id": 105079,
            "original_name": "Hamburg Journal",
            "popularity": 3.554
        },
        {
            "id": 65491,
            "original_name": "Vikings: Athelstan's Journal",
            "popularity": 2.399
        },
        {
            "id": 40467,
            "original_name": "Turnabout",
            "popularity": 2.049
        },
        {
            "id": 80288,
            "original_name": "Cik Sempurna",
            "popularity": 1.74
        },
        {
            "id": 88969,
            "original_name": "heute journal",
            "popularity": 1.574
        },
        {
            "id": 11917,
            "original_name": "The Tournament",
            "popularity": 1.507
        },
        {
            "id": 38276,
            "original_name": "Civil War Journal",
            "popularity": 1.467
        },
        {
            "id": 27391,
            "original_name": "Le Grand Journal",
            "popularity": 1.4
        },
        {
            "id": 104512,
            "original_name": "Journalisten fragen - Politiker antworten",
            "popularity": 1.27
        },
        {
            "id": 97885,
            "original_name": "Tolong Sempurnakan Cerita Mami",
            "popularity": 1.117
        },
        {
            "id": 79285,
            "original_name": "Gold Stars: The Story of the FIFA World Cup Tournaments",
            "popularity": 1.075
        },
        {
            "id": 52635,
            "original_name": "Le Petit Journal",
            "popularity": 1.031
        },
        {
            "id": 123744,
            "original_name": "Tak Sempurna Mencintaimu",
            "popularity": 0.935
        },
        {
            "id": 100452,
            "original_name": "Le Journal",
            "popularity": 0.847
        },
        {
            "id": 77451,
            "original_name": "Black Journal",
            "popularity": 0.841
        },
        {
            "id": 104728,
            "original_name": "Tournament of Laughs",
            "popularity": 0.84
        }
    ]
}