{
    "data": [
        {
            "id": 3184,
            "original_name": "Journeyman",
            "popularity": 9.841
        }
    ],
    "relations": [],
    "top20": [
        {
            "id": 3184,
            "original_name": "Journeyman",
            "popularity": 9.841
        }
    ]
}