{
    "data": [
        {
            "id": 39178,
            "original_name": "Blusang Itim",
            "popularity": 0.6
        }
    ],
    "relations": [],
    "top20": [
        {
            "id": 39178,
            "original_name": "Blusang Itim",
            "popularity": 0.6
        }
    ]
}