{
    "data": [
        {
            "id": 2163,
            "original_name": "Your Business",
            "popularity": 0.6
        },
        {
            "id": 2814,
            "original_name": "Cavuto on Business",
            "popularity": 0.6
        },
        {
            "id": 3402,
            "original_name": "The Business",
            "popularity": 0.884
        },
        {
            "id": 3420,
            "original_name": "Business Center",
            "popularity": 0.6
        },
        {
            "id": 3519,
            "original_name": "World Business",
            "popularity": 0.6
        },
        {
            "id": 3644,
            "original_name": "Today's Business",
            "popularity": 0.6
        },
        {
            "id": 4836,
            "original_name": "World Business Review",
            "popularity": 0.6
        },
        {
            "id": 4960,
            "original_name": "Business Centre Europe",
            "popularity": 0.6
        },
        {
            "id": 6101,
            "original_name": "Today's Business",
            "popularity": 0.6
        },
        {
            "id": 6482,
            "original_name": "The Business",
            "popularity": 0.962
        },
        {
            "id": 7659,
            "original_name": "Your Business Success",
            "popularity": 0.6
        },
        {
            "id": 7663,
            "original_name": "Very Small Business",
            "popularity": 0.6
        },
        {
            "id": 7984,
            "original_name": "ASB Business",
            "popularity": 0.6
        },
        {
            "id": 8006,
            "original_name": "We Mean Business",
            "popularity": 0.6
        },
        {
            "id": 8049,
            "original_name": "NZI Business",
            "popularity": 0.6
        },
        {
            "id": 10105,
            "original_name": "Nightly Business Report",
            "popularity": 0.6
        },
        {
            "id": 10892,
            "original_name": "Business International",
            "popularity": 0.6
        },
        {
            "id": 11134,
            "original_name": "Family Business",
            "popularity": 0.989
        },
        {
            "id": 11476,
            "original_name": "Monkey Business",
            "popularity": 0.749
        },
        {
            "id": 12538,
            "original_name": "Inside Business",
            "popularity": 0.6
        },
        {
            "id": 12658,
            "original_name": "Business Traveller",
            "popularity": 0.6
        },
        {
            "id": 12682,
            "original_name": "Asia Business Report",
            "popularity": 0.6
        },
        {
            "id": 12737,
            "original_name": "First Business",
            "popularity": 0.6
        },
        {
            "id": 13073,
            "original_name": "Business Morning",
            "popularity": 0.6
        },
        {
            "id": 13076,
            "original_name": "Small Business School",
            "popularity": 0.6
        },
        {
            "id": 13196,
            "original_name": "Business Tonight",
            "popularity": 0.6
        },
        {
            "id": 13200,
            "original_name": "Business Insiders",
            "popularity": 0.6
        },
        {
            "id": 13381,
            "original_name": "World Business Report",
            "popularity": 0.6
        },
        {
            "id": 13758,
            "original_name": "Funny Business",
            "popularity": 0.924
        },
        {
            "id": 14137,
            "original_name": "Fox Business Happy Hour",
            "popularity": 0.6
        },
        {
            "id": 14204,
            "original_name": "Business Nation",
            "popularity": 0.6
        },
        {
            "id": 14227,
            "original_name": "Tricky Business",
            "popularity": 1.091
        },
        {
            "id": 14283,
            "original_name": "The Opening Bell on Fox Business",
            "popularity": 0.6
        },
        {
            "id": 14467,
            "original_name": "Business Center",
            "popularity": 0.6
        },
        {
            "id": 14631,
            "original_name": "Fox Business Morning",
            "popularity": 0.6
        },
        {
            "id": 14758,
            "original_name": "Business Centre Australia",
            "popularity": 0.6
        },
        {
            "id": 17054,
            "original_name": "Mind Your Own Business",
            "popularity": 0.6
        },
        {
            "id": 17159,
            "original_name": "My Bare Lady 2: Open For Business!",
            "popularity": 0.6
        },
        {
            "id": 17180,
            "original_name": "Inside the Business",
            "popularity": 0.6
        },
        {
            "id": 20435,
            "original_name": "Business Today",
            "popularity": 0.6
        },
        {
            "id": 21777,
            "original_name": "That's Showbusiness",
            "popularity": 0.6
        },
        {
            "id": 21944,
            "original_name": "Neil Morrissey's Risky Business",
            "popularity": 0.6
        },
        {
            "id": 22206,
            "original_name": "The Family Business",
            "popularity": 0.6
        },
        {
            "id": 22380,
            "original_name": "Secret Men's Business",
            "popularity": 0.6
        },
        {
            "id": 23045,
            "original_name": "Grandad's Back In Business",
            "popularity": 0.6
        },
        {
            "id": 24117,
            "original_name": "Family Business (UK)",
            "popularity": 0.6
        },
        {
            "id": 24214,
            "original_name": "Unfinished Business",
            "popularity": 0.648
        },
        {
            "id": 24906,
            "original_name": "Risky Business",
            "popularity": 0.6
        },
        {
            "id": 25431,
            "original_name": "A Little Big Business",
            "popularity": 0.841
        },
        {
            "id": 25881,
            "original_name": "Taking Care of Business",
            "popularity": 0.6
        },
        {
            "id": 26246,
            "original_name": "Business World News",
            "popularity": 0.6
        },
        {
            "id": 26360,
            "original_name": "Business Sunday",
            "popularity": 0.6
        },
        {
            "id": 26722,
            "original_name": "Make 'Em Laugh: The Funny Business of America",
            "popularity": 0.6
        },
        {
            "id": 27534,
            "original_name": "Mr Showbusiness",
            "popularity": 0.6
        },
        {
            "id": 27996,
            "original_name": "Family Business",
            "popularity": 0.6
        },
        {
            "id": 30721,
            "original_name": "Business Breakfast",
            "popularity": 0.6
        },
        {
            "id": 31564,
            "original_name": "Rosy Business: Righteous Sea of Heroic Love",
            "popularity": 0.6
        },
        {
            "id": 31996,
            "original_name": "Brandy & Ray J: A Family Business",
            "popularity": 0.6
        },
        {
            "id": 32092,
            "original_name": "Business Edition",
            "popularity": 0.6
        },
        {
            "id": 32257,
            "original_name": "Usapang Business",
            "popularity": 0.6
        },
        {
            "id": 32935,
            "original_name": "It's a Business",
            "popularity": 0.601
        },
        {
            "id": 33090,
            "original_name": "Louie Spence's Showbusiness",
            "popularity": 0.6
        },
        {
            "id": 34584,
            "original_name": "History's Business",
            "popularity": 0.6
        },
        {
            "id": 35050,
            "original_name": "Dick and Dom's Funny Business",
            "popularity": 1.094
        },
        {
            "id": 35170,
            "original_name": "Family Business",
            "popularity": 0.6
        },
        {
            "id": 35670,
            "original_name": "The Business Inspector",
            "popularity": 0.6
        },
        {
            "id": 38911,
            "original_name": "This Is Show Business",
            "popularity": 0.6
        },
        {
            "id": 41839,
            "original_name": "Business World News",
            "popularity": 0.6
        },
        {
            "id": 42023,
            "original_name": "Tricky Business",
            "popularity": 3.123
        },
        {
            "id": 44046,
            "original_name": "Business Today",
            "popularity": 0.6
        },
        {
            "id": 45704,
            "original_name": "Asia's Business",
            "popularity": 0.6
        },
        {
            "id": 46280,
            "original_name": "Louis Rukeyser's Business Journal",
            "popularity": 0.6
        },
        {
            "id": 47956,
            "original_name": "The Risk Business",
            "popularity": 0.6
        },
        {
            "id": 48755,
            "original_name": "George Burns Celebrates 80 Years in Show Business",
            "popularity": 0.6
        },
        {
            "id": 52058,
            "original_name": "Secret Meat Business",
            "popularity": 0.6
        },
        {
            "id": 58320,
            "original_name": "The Nation's Business",
            "popularity": 0.6
        },
        {
            "id": 58969,
            "original_name": "Dirty Business",
            "popularity": 0.6
        },
        {
            "id": 65054,
            "original_name": "Consumed: The Real Restaurant Business",
            "popularity": 0.6
        },
        {
            "id": 66005,
            "original_name": "About the Business",
            "popularity": 0.6
        },
        {
            "id": 71443,
            "original_name": "The Business of Life",
            "popularity": 0.6
        },
        {
            "id": 76507,
            "original_name": "Hits, Hype & Hustle: An Insider's Guide to the Music Business",
            "popularity": 0.6
        },
        {
            "id": 77606,
            "original_name": "The Boss Baby: Back in Business",
            "popularity": 47.585
        },
        {
            "id": 79945,
            "original_name": "The Sex Business",
            "popularity": 0.6
        },
        {
            "id": 81955,
            "original_name": "Back in Very Small Business",
            "popularity": 0.788
        },
        {
            "id": 84007,
            "original_name": "Carl Weber's The Family Business",
            "popularity": 3.898
        },
        {
            "id": 86457,
            "original_name": "Business Nightmares with Evan Davis",
            "popularity": 0.6
        },
        {
            "id": 88995,
            "original_name": "Moonshiners Whiskey Business",
            "popularity": 0.6
        },
        {
            "id": 89785,
            "original_name": "Family Business",
            "popularity": 12.273
        },
        {
            "id": 91879,
            "original_name": "Howard Shultz Teaches Business Leadership",
            "popularity": 0.6
        },
        {
            "id": 94112,
            "original_name": "Secret Bridesmaids' Business",
            "popularity": 8.167
        },
        {
            "id": 104336,
            "original_name": "Sexy Business",
            "popularity": 1.468
        },
        {
            "id": 105305,
            "original_name": "The Business of Drugs",
            "popularity": 5.596
        },
        {
            "id": 120010,
            "original_name": "Businessfellen",
            "popularity": 0.6
        },
        {
            "id": 132635,
            "original_name": "Born for Business",
            "popularity": 0.6
        }
    ],
    "relations": [
        {
            "character": "usiness!"
        },
        {
            "character": "usinessf"
        }
    ],
    "top20": [
        {
            "id": 77606,
            "original_name": "The Boss Baby: Back in Business",
            "popularity": 47.585
        },
        {
            "id": 89785,
            "original_name": "Family Business",
            "popularity": 12.273
        },
        {
            "id": 94112,
            "original_name": "Secret Bridesmaids' Business",
            "popularity": 8.167
        },
        {
            "id": 105305,
            "original_name": "The Business of Drugs",
            "popularity": 5.596
        },
        {
            "id": 84007,
            "original_name": "Carl Weber's The Family Business",
            "popularity": 3.898
        },
        {
            "id": 42023,
            "original_name": "Tricky Business",
            "popularity": 3.123
        },
        {
            "id": 104336,
            "original_name": "Sexy Business",
            "popularity": 1.468
        },
        {
            "id": 35050,
            "original_name": "Dick and Dom's Funny Business",
            "popularity": 1.094
        },
        {
            "id": 14227,
            "original_name": "Tricky Business",
            "popularity": 1.091
        },
        {
            "id": 11134,
            "original_name": "Family Business",
            "popularity": 0.989
        },
        {
            "id": 6482,
            "original_name": "The Business",
            "popularity": 0.962
        },
        {
            "id": 13758,
            "original_name": "Funny Business",
            "popularity": 0.924
        },
        {
            "id": 3402,
            "original_name": "The Business",
            "popularity": 0.884
        },
        {
            "id": 25431,
            "original_name": "A Little Big Business",
            "popularity": 0.841
        },
        {
            "id": 81955,
            "original_name": "Back in Very Small Business",
            "popularity": 0.788
        },
        {
            "id": 11476,
            "original_name": "Monkey Business",
            "popularity": 0.749
        },
        {
            "id": 24214,
            "original_name": "Unfinished Business",
            "popularity": 0.648
        },
        {
            "id": 32935,
            "original_name": "It's a Business",
            "popularity": 0.601
        },
        {
            "id": 2163,
            "original_name": "Your Business",
            "popularity": 0.6
        },
        {
            "id": 2814,
            "original_name": "Cavuto on Business",
            "popularity": 0.6
        }
    ]
}