{
    "data": [
        {
            "id": 126965,
            "original_name": "Russisch, bitte!",
            "popularity": 0.6
        }
    ],
    "relations": [],
    "top20": [
        {
            "id": 126965,
            "original_name": "Russisch, bitte!",
            "popularity": 0.6
        }
    ]
}