{
    "data": [
        {
            "id": 53218,
            "original_name": "Al Hobb al Mustahil",
            "popularity": 0.6
        }
    ],
    "relations": [],
    "top20": [
        {
            "id": 53218,
            "original_name": "Al Hobb al Mustahil",
            "popularity": 0.6
        }
    ]
}