{
    "data": [
        {
            "id": 25845,
            "original_name": "Simplemente Futbol",
            "popularity": 1.376
        },
        {
            "id": 33635,
            "original_name": "FIFA Futbol Mundial",
            "popularity": 0.6
        },
        {
            "id": 39691,
            "original_name": "Futbolilits",
            "popularity": 0.84
        },
        {
            "id": 48834,
            "original_name": "Outbound Love",
            "popularity": 0.6
        },
        {
            "id": 54023,
            "original_name": "Futbol Ate\u015fi",
            "popularity": 0.6
        },
        {
            "id": 54064,
            "original_name": "Beyaz Futbol",
            "popularity": 0.6
        },
        {
            "id": 54387,
            "original_name": "Derin Futbol",
            "popularity": 0.6
        },
        {
            "id": 104505,
            "original_name": "Futbolistas por el mundo",
            "popularity": 4.889
        },
        {
            "id": 126166,
            "original_name": "\u015eehrin Futbolu",
            "popularity": 0.931
        }
    ],
    "relations": [],
    "top20": [
        {
            "id": 25845,
            "original_name": "Simplemente Futbol",
            "popularity": 1.376
        },
        {
            "id": 33635,
            "original_name": "FIFA Futbol Mundial",
            "popularity": 0.6
        },
        {
            "id": 39691,
            "original_name": "Futbolilits",
            "popularity": 0.84
        },
        {
            "id": 48834,
            "original_name": "Outbound Love",
            "popularity": 0.6
        },
        {
            "id": 54023,
            "original_name": "Futbol Ate\u015fi",
            "popularity": 0.6
        },
        {
            "id": 54064,
            "original_name": "Beyaz Futbol",
            "popularity": 0.6
        },
        {
            "id": 54387,
            "original_name": "Derin Futbol",
            "popularity": 0.6
        },
        {
            "id": 104505,
            "original_name": "Futbolistas por el mundo",
            "popularity": 4.889
        },
        {
            "id": 126166,
            "original_name": "\u015eehrin Futbolu",
            "popularity": 0.931
        }
    ]
}