{
    "data": [
        {
            "id": 63551,
            "original_name": "Aus gutem Haus",
            "popularity": 2.446
        }
    ],
    "relations": [],
    "top20": [
        {
            "id": 63551,
            "original_name": "Aus gutem Haus",
            "popularity": 2.446
        }
    ]
}