{
    "data": [
        {
            "id": 122970,
            "original_name": "Butir-Butir Pasir di Laut",
            "popularity": 0.867
        }
    ],
    "relations": [],
    "top20": [
        {
            "id": 122970,
            "original_name": "Butir-Butir Pasir di Laut",
            "popularity": 0.867
        }
    ]
}