{
    "data": [
        {
            "id": 1338,
            "original_name": "Alarm f\u00fcr Cobra 11 \u2013 Die Autobahnpolizei",
            "popularity": 67.424
        },
        {
            "id": 50957,
            "original_name": "The Autobiography of Miss Jane Pittman",
            "popularity": 0.6
        },
        {
            "id": 55648,
            "original_name": "Sarutobi Sansei",
            "popularity": 0.6
        },
        {
            "id": 65559,
            "original_name": "Autobazar Monte Karlo",
            "popularity": 0.93
        },
        {
            "id": 68422,
            "original_name": "TV total Autoball",
            "popularity": 0.6
        },
        {
            "id": 74625,
            "original_name": "Autobahn Ost",
            "popularity": 0.6
        },
        {
            "id": 88414,
            "original_name": "Elizabeth Smart: Autobiography",
            "popularity": 0.601
        },
        {
            "id": 96273,
            "original_name": "A2 \u2013 Abenteuer Autobahn",
            "popularity": 0.667
        },
        {
            "id": 124919,
            "original_name": "Abenteuer Autobahn - Brennpunkte",
            "popularity": 0.884
        }
    ],
    "relations": [],
    "top20": [
        {
            "id": 1338,
            "original_name": "Alarm f\u00fcr Cobra 11 \u2013 Die Autobahnpolizei",
            "popularity": 67.424
        },
        {
            "id": 50957,
            "original_name": "The Autobiography of Miss Jane Pittman",
            "popularity": 0.6
        },
        {
            "id": 55648,
            "original_name": "Sarutobi Sansei",
            "popularity": 0.6
        },
        {
            "id": 65559,
            "original_name": "Autobazar Monte Karlo",
            "popularity": 0.93
        },
        {
            "id": 68422,
            "original_name": "TV total Autoball",
            "popularity": 0.6
        },
        {
            "id": 74625,
            "original_name": "Autobahn Ost",
            "popularity": 0.6
        },
        {
            "id": 88414,
            "original_name": "Elizabeth Smart: Autobiography",
            "popularity": 0.601
        },
        {
            "id": 96273,
            "original_name": "A2 \u2013 Abenteuer Autobahn",
            "popularity": 0.667
        },
        {
            "id": 124919,
            "original_name": "Abenteuer Autobahn - Brennpunkte",
            "popularity": 0.884
        }
    ]
}