{
    "data": [
        {
            "id": 17050,
            "original_name": "World'd Funniest Animal Outtakes, Part 1",
            "popularity": 0.6
        },
        {
            "id": 18172,
            "original_name": "Outtake TV",
            "popularity": 0.635
        },
        {
            "id": 21951,
            "original_name": "Outdoor Outtakes",
            "popularity": 0.6
        },
        {
            "id": 22866,
            "original_name": "Pinks All Outtakes",
            "popularity": 0.6
        },
        {
            "id": 25008,
            "original_name": "Three's Outtakes",
            "popularity": 0.6
        },
        {
            "id": 87816,
            "original_name": "Yuttakarn Prab Nang Marn (2018)",
            "popularity": 0.6
        }
    ],
    "relations": [],
    "top20": [
        {
            "id": 17050,
            "original_name": "World'd Funniest Animal Outtakes, Part 1",
            "popularity": 0.6
        },
        {
            "id": 18172,
            "original_name": "Outtake TV",
            "popularity": 0.635
        },
        {
            "id": 21951,
            "original_name": "Outdoor Outtakes",
            "popularity": 0.6
        },
        {
            "id": 22866,
            "original_name": "Pinks All Outtakes",
            "popularity": 0.6
        },
        {
            "id": 25008,
            "original_name": "Three's Outtakes",
            "popularity": 0.6
        },
        {
            "id": 87816,
            "original_name": "Yuttakarn Prab Nang Marn (2018)",
            "popularity": 0.6
        }
    ]
}