{
    "data": [
        {
            "id": 84505,
            "original_name": "Divadlo Na z\u00e1bradl\u00ed",
            "popularity": 0.6
        },
        {
            "id": 87304,
            "original_name": "Zk\u00e1za Dejvick\u00e9ho divadla",
            "popularity": 1.4
        },
        {
            "id": 93529,
            "original_name": "N\u00e1rodn\u00ed divadlo: M\u00fdtus a realita",
            "popularity": 1.4
        },
        {
            "id": 93633,
            "original_name": "N\u00e1rodn\u00ed divadlo, jak je nezn\u00e1te",
            "popularity": 0.885
        }
    ],
    "relations": [],
    "top20": [
        {
            "id": 84505,
            "original_name": "Divadlo Na z\u00e1bradl\u00ed",
            "popularity": 0.6
        },
        {
            "id": 87304,
            "original_name": "Zk\u00e1za Dejvick\u00e9ho divadla",
            "popularity": 1.4
        },
        {
            "id": 93529,
            "original_name": "N\u00e1rodn\u00ed divadlo: M\u00fdtus a realita",
            "popularity": 1.4
        },
        {
            "id": 93633,
            "original_name": "N\u00e1rodn\u00ed divadlo, jak je nezn\u00e1te",
            "popularity": 0.885
        }
    ]
}