{
    "data": [
        {
            "id": 5847,
            "original_name": "Varan-TV",
            "popularity": 0.6
        },
        {
            "id": 8259,
            "original_name": "K\u014d\u1e6d\u012b\u1e63vara\u1e49",
            "popularity": 0.6
        },
        {
            "id": 37340,
            "original_name": "Uitgesproken VARA",
            "popularity": 0.6
        },
        {
            "id": 41535,
            "original_name": "Quei due sopra il varano",
            "popularity": 0.677
        },
        {
            "id": 71853,
            "original_name": "Autovaras",
            "popularity": 0.909
        },
        {
            "id": 94182,
            "original_name": "Varane : Destin de Champion",
            "popularity": 1.4
        },
        {
            "id": 95051,
            "original_name": "VivaRaiPlay!",
            "popularity": 0.6
        },
        {
            "id": 104402,
            "original_name": "Nammane Yuvarani",
            "popularity": 0.6
        },
        {
            "id": 109944,
            "original_name": "Mo\u010dvara",
            "popularity": 3.88
        },
        {
            "id": 139354,
            "original_name": "Thiruvarangu",
            "popularity": 0.6
        },
        {
            "id": 139355,
            "original_name": "Thiruvarangu",
            "popularity": 8.776
        }
    ],
    "relations": [],
    "top20": [
        {
            "id": 5847,
            "original_name": "Varan-TV",
            "popularity": 0.6
        },
        {
            "id": 8259,
            "original_name": "K\u014d\u1e6d\u012b\u1e63vara\u1e49",
            "popularity": 0.6
        },
        {
            "id": 37340,
            "original_name": "Uitgesproken VARA",
            "popularity": 0.6
        },
        {
            "id": 41535,
            "original_name": "Quei due sopra il varano",
            "popularity": 0.677
        },
        {
            "id": 71853,
            "original_name": "Autovaras",
            "popularity": 0.909
        },
        {
            "id": 94182,
            "original_name": "Varane : Destin de Champion",
            "popularity": 1.4
        },
        {
            "id": 95051,
            "original_name": "VivaRaiPlay!",
            "popularity": 0.6
        },
        {
            "id": 104402,
            "original_name": "Nammane Yuvarani",
            "popularity": 0.6
        },
        {
            "id": 109944,
            "original_name": "Mo\u010dvara",
            "popularity": 3.88
        },
        {
            "id": 139354,
            "original_name": "Thiruvarangu",
            "popularity": 0.6
        },
        {
            "id": 139355,
            "original_name": "Thiruvarangu",
            "popularity": 8.776
        }
    ]
}