{
    "data": [
        {
            "id": 47184,
            "original_name": "Pavarotti on Miami Beach",
            "popularity": 0.6
        },
        {
            "id": 47805,
            "original_name": "Pavarotti in Hyde Park",
            "popularity": 0.6
        },
        {
            "id": 48839,
            "original_name": "Pavarotti in Philadelphia: La Boheme",
            "popularity": 0.6
        },
        {
            "id": 49169,
            "original_name": "Pavarotti in Paris",
            "popularity": 0.6
        }
    ],
    "relations": [],
    "top20": [
        {
            "id": 47184,
            "original_name": "Pavarotti on Miami Beach",
            "popularity": 0.6
        },
        {
            "id": 47805,
            "original_name": "Pavarotti in Hyde Park",
            "popularity": 0.6
        },
        {
            "id": 48839,
            "original_name": "Pavarotti in Philadelphia: La Boheme",
            "popularity": 0.6
        },
        {
            "id": 49169,
            "original_name": "Pavarotti in Paris",
            "popularity": 0.6
        }
    ]
}