{
    "data": [
        {
            "id": 136860,
            "original_name": "Vegfer\u00f0",
            "popularity": 0.6
        }
    ],
    "relations": [],
    "top20": [
        {
            "id": 136860,
            "original_name": "Vegfer\u00f0",
            "popularity": 0.6
        }
    ]
}