{
    "data": [
        {
            "id": 4557,
            "original_name": "Lovejoy",
            "popularity": 21.48
        },
        {
            "id": 22404,
            "original_name": "Tim Lovejoy and the Allstars",
            "popularity": 0.6
        }
    ],
    "relations": [],
    "top20": [
        {
            "id": 4557,
            "original_name": "Lovejoy",
            "popularity": 21.48
        },
        {
            "id": 22404,
            "original_name": "Tim Lovejoy and the Allstars",
            "popularity": 0.6
        }
    ]
}