{
    "data": [
        {
            "id": 37275,
            "original_name": "Konec velk\u00fdch pr\u00e1zdnin",
            "popularity": 0.665
        },
        {
            "id": 40994,
            "original_name": "Der Havelkaiser",
            "popularity": 1.24
        },
        {
            "id": 72583,
            "original_name": "Mal\u00fd pitaval z velk\u00e9ho m\u011bsta",
            "popularity": 0.944
        },
        {
            "id": 91515,
            "original_name": "Velk\u00e9 sedlo",
            "popularity": 0.6
        },
        {
            "id": 105917,
            "original_name": "Zlo\u010diny Velk\u00e9 Prahy",
            "popularity": 2.861
        },
        {
            "id": 118266,
            "original_name": "Velkommen til verden",
            "popularity": 0.6
        },
        {
            "id": 118291,
            "original_name": "Velkommen i Klubben",
            "popularity": 0.6
        },
        {
            "id": 120349,
            "original_name": "Velkommen til Utmark",
            "popularity": 3.964
        },
        {
            "id": 120702,
            "original_name": "L\u00f8vens hule - velkommen til virkeligheden",
            "popularity": 0.6
        }
    ],
    "relations": [],
    "top20": [
        {
            "id": 37275,
            "original_name": "Konec velk\u00fdch pr\u00e1zdnin",
            "popularity": 0.665
        },
        {
            "id": 40994,
            "original_name": "Der Havelkaiser",
            "popularity": 1.24
        },
        {
            "id": 72583,
            "original_name": "Mal\u00fd pitaval z velk\u00e9ho m\u011bsta",
            "popularity": 0.944
        },
        {
            "id": 91515,
            "original_name": "Velk\u00e9 sedlo",
            "popularity": 0.6
        },
        {
            "id": 105917,
            "original_name": "Zlo\u010diny Velk\u00e9 Prahy",
            "popularity": 2.861
        },
        {
            "id": 118266,
            "original_name": "Velkommen til verden",
            "popularity": 0.6
        },
        {
            "id": 118291,
            "original_name": "Velkommen i Klubben",
            "popularity": 0.6
        },
        {
            "id": 120349,
            "original_name": "Velkommen til Utmark",
            "popularity": 3.964
        },
        {
            "id": 120702,
            "original_name": "L\u00f8vens hule - velkommen til virkeligheden",
            "popularity": 0.6
        }
    ]
}