{
    "data": [
        {
            "id": 74588,
            "original_name": "Conquistadores Adventvm",
            "popularity": 6.473
        }
    ],
    "relations": [],
    "top20": [
        {
            "id": 74588,
            "original_name": "Conquistadores Adventvm",
            "popularity": 6.473
        }
    ]
}