{
    "data": [
        {
            "id": 44,
            "original_name": "Adventures of Sonic the Hedgehog",
            "popularity": 11.28
        },
        {
            "id": 203,
            "original_name": "The Sarah Jane Adventures",
            "popularity": 10.21
        },
        {
            "id": 240,
            "original_name": "Jackie Chan Adventures",
            "popularity": 30.825
        },
        {
            "id": 305,
            "original_name": "Adventures in Rainbow Country",
            "popularity": 1.368
        },
        {
            "id": 325,
            "original_name": "The Adventures of the Galaxy Rangers",
            "popularity": 5.139
        },
        {
            "id": 430,
            "original_name": "The Adventures of Sam & Max: Freelance Police",
            "popularity": 2.828
        },
        {
            "id": 635,
            "original_name": "The Adventures of Shirley Holmes",
            "popularity": 2.421
        },
        {
            "id": 897,
            "original_name": "The Grim Adventures of Billy and Mandy",
            "popularity": 85.562
        },
        {
            "id": 915,
            "original_name": "The Secret Adventures of Jules Verne",
            "popularity": 3.481
        },
        {
            "id": 952,
            "original_name": "The Adventures of Ozzie and Harriet",
            "popularity": 4.276
        },
        {
            "id": 1168,
            "original_name": "The Real Adventures of Jonny Quest",
            "popularity": 11.511
        },
        {
            "id": 1244,
            "original_name": "The Adventures of the Black Stallion",
            "popularity": 4.633
        },
        {
            "id": 1463,
            "original_name": "The Adventures of Brisco County, Jr.",
            "popularity": 9.29
        },
        {
            "id": 1511,
            "original_name": "The Adventures of Twizzle",
            "popularity": 0.6
        },
        {
            "id": 1570,
            "original_name": "The Adventures of Tintin",
            "popularity": 41.613
        },
        {
            "id": 1727,
            "original_name": "Tarzan: The Epic Adventures",
            "popularity": 4.17
        },
        {
            "id": 1830,
            "original_name": "Tiny Toon Adventures",
            "popularity": 15.345
        },
        {
            "id": 1841,
            "original_name": "The Adventures of Sinbad",
            "popularity": 9.393
        },
        {
            "id": 1931,
            "original_name": "Disney's Adventures of the Gummi Bears",
            "popularity": 22.043
        },
        {
            "id": 2005,
            "original_name": "The New Adventures of Winnie the Pooh",
            "popularity": 17.338
        },
        {
            "id": 2129,
            "original_name": "The Adventures of Jimmy Neutron: Boy Genius",
            "popularity": 71.121
        },
        {
            "id": 2168,
            "original_name": "The Adventures of Teddy Ruxpin",
            "popularity": 2.572
        },
        {
            "id": 2227,
            "original_name": "The Adventures of Brigadier Wellington-Bull",
            "popularity": 0.6
        },
        {
            "id": 2257,
            "original_name": "The Adventures of Lano and Woodley",
            "popularity": 1.217
        },
        {
            "id": 2368,
            "original_name": "The Adventures of Mary-Kate & Ashley",
            "popularity": 0.6
        },
        {
            "id": 2717,
            "original_name": "Russell Coight's All Aussie Adventures",
            "popularity": 0.971
        },
        {
            "id": 2824,
            "original_name": "The Adventures of Pete & Pete",
            "popularity": 7.61
        },
        {
            "id": 2867,
            "original_name": "The New Adventures of He-Man",
            "popularity": 6.683
        },
        {
            "id": 2982,
            "original_name": "The New Adventures of Gilligan",
            "popularity": 1.674
        },
        {
            "id": 3560,
            "original_name": "The Adventures of Blinky Bill",
            "popularity": 2.915
        },
        {
            "id": 3915,
            "original_name": "Adventures in Hollyhood",
            "popularity": 0.669
        },
        {
            "id": 4083,
            "original_name": "URBO: The Adventures of Pax Afrika",
            "popularity": 0.6
        },
        {
            "id": 4224,
            "original_name": "Da Adventures of Pedro Penduko",
            "popularity": 0.626
        },
        {
            "id": 4402,
            "original_name": "The New Adventures of Old Christine",
            "popularity": 13.771
        },
        {
            "id": 4434,
            "original_name": "Adventures from the Book of Virtues",
            "popularity": 5.453
        },
        {
            "id": 4444,
            "original_name": "The Adventures of Aggie",
            "popularity": 0.6
        },
        {
            "id": 4515,
            "original_name": "Lois & Clark: The New Adventures of Superman",
            "popularity": 39.061
        },
        {
            "id": 4625,
            "original_name": "The New Batman Adventures",
            "popularity": 35.175
        },
        {
            "id": 4730,
            "original_name": "The Adventures of Portland Bill",
            "popularity": 0.6
        },
        {
            "id": 5315,
            "original_name": "The New Adventures of Robin Hood",
            "popularity": 4.846
        },
        {
            "id": 5323,
            "original_name": "The Adventures of Oky Doky",
            "popularity": 0.6
        },
        {
            "id": 5609,
            "original_name": "The Adventures of Champion",
            "popularity": 2.122
        },
        {
            "id": 5790,
            "original_name": "Drew Carey's Sporting Adventures",
            "popularity": 0.6
        },
        {
            "id": 5866,
            "original_name": "The Life and Adventures of Nicholas Nickleby",
            "popularity": 2.017
        },
        {
            "id": 6046,
            "original_name": "El Tigre: The Adventures of Manny Rivera",
            "popularity": 8.221
        },
        {
            "id": 6498,
            "original_name": "The Adventures of Black Beauty",
            "popularity": 4.418
        },
        {
            "id": 6506,
            "original_name": "The Adventures of Grady Greenspace",
            "popularity": 0.6
        },
        {
            "id": 6673,
            "original_name": "The Marvelous Misadventures of Flapjack",
            "popularity": 13.197
        },
        {
            "id": 6717,
            "original_name": "The Adventures of Don Quick",
            "popularity": 1.277
        },
        {
            "id": 7163,
            "original_name": "The Adventures of Hello Kitty & Friends",
            "popularity": 1.09
        },
        {
            "id": 7330,
            "original_name": "Iron Man: Armored Adventures",
            "popularity": 13.192
        },
        {
            "id": 7654,
            "original_name": "The Olympic Adventures of Fuwa",
            "popularity": 0.6
        },
        {
            "id": 8103,
            "original_name": "The Adventures of Superpup",
            "popularity": 0.6
        },
        {
            "id": 8202,
            "original_name": "The Adventures of Pleakley",
            "popularity": 0.6
        },
        {
            "id": 8489,
            "original_name": "The Adventures of Sir Prancelot",
            "popularity": 0.6
        },
        {
            "id": 8627,
            "original_name": "The Spooktacular New Adventures of Casper",
            "popularity": 7.257
        },
        {
            "id": 8959,
            "original_name": "Mike & Mike's Excellent X-Canada Adventures",
            "popularity": 0.6
        },
        {
            "id": 9098,
            "original_name": "The Adventures of Pow Wow",
            "popularity": 0.6
        },
        {
            "id": 9244,
            "original_name": "Average Angler Adventures",
            "popularity": 0.6
        },
        {
            "id": 9310,
            "original_name": "Adventures of Stephen Brown",
            "popularity": 0.6
        },
        {
            "id": 10009,
            "original_name": "The New Adventures of Mighty Mouse and Heckle & Jeckle",
            "popularity": 1.276
        },
        {
            "id": 10034,
            "original_name": "The Misadventures of Sheriff Lobo",
            "popularity": 3.758
        },
        {
            "id": 10161,
            "original_name": "Awesome Adventures",
            "popularity": 0.6
        },
        {
            "id": 10273,
            "original_name": "The Adventures of T-Rex",
            "popularity": 4.667
        },
        {
            "id": 10313,
            "original_name": "The Adventures of Don Coyote and Sancho Panda",
            "popularity": 5.636
        },
        {
            "id": 10326,
            "original_name": "The Further Adventures of SuperTed",
            "popularity": 3.058
        },
        {
            "id": 10375,
            "original_name": "Midnight Patrol: Adventures in the Dream Zone",
            "popularity": 0.6
        },
        {
            "id": 10393,
            "original_name": "The Adventures of Robin Hood",
            "popularity": 9.56
        },
        {
            "id": 10432,
            "original_name": "Adventures in Wonderland",
            "popularity": 2.627
        },
        {
            "id": 10502,
            "original_name": "The New Adventures of Batman",
            "popularity": 4.86
        },
        {
            "id": 10573,
            "original_name": "The Adventures of Rupert Bear",
            "popularity": 0.6
        },
        {
            "id": 10777,
            "original_name": "The Adventures of Chico and Guapo",
            "popularity": 0.6
        },
        {
            "id": 10786,
            "original_name": "The New Adventures of Superman",
            "popularity": 4.516
        },
        {
            "id": 10794,
            "original_name": "The Adventures of Rin Tin Tin",
            "popularity": 5.388
        },
        {
            "id": 10984,
            "original_name": "The Adventures of Ellery Queen",
            "popularity": 0.6
        },
        {
            "id": 11007,
            "original_name": "The New Adventures of Beans Baxter",
            "popularity": 1.492
        },
        {
            "id": 11161,
            "original_name": "The Adventures of Gulliver",
            "popularity": 2.74
        },
        {
            "id": 11224,
            "original_name": "I Am the Greatest: The Adventures of Muhammad Ali",
            "popularity": 0.88
        },
        {
            "id": 11291,
            "original_name": "The Adventures of Tugboat Annie",
            "popularity": 0.6
        },
        {
            "id": 11606,
            "original_name": "The Adventures of Mark & Brian",
            "popularity": 0.6
        },
        {
            "id": 11720,
            "original_name": "Adventures in Paradise",
            "popularity": 17.838
        },
        {
            "id": 11732,
            "original_name": "The Adventures of Paddington Bear",
            "popularity": 6.127
        },
        {
            "id": 11792,
            "original_name": "The Puppy's Further Adventures",
            "popularity": 0.6
        },
        {
            "id": 11793,
            "original_name": "Star Street: The Adventures of the Star Kids",
            "popularity": 0.6
        },
        {
            "id": 11844,
            "original_name": "The New Adventures of Flash Gordon",
            "popularity": 4.874
        },
        {
            "id": 12154,
            "original_name": "The Adventures of Sir Lancelot",
            "popularity": 6.109
        },
        {
            "id": 12600,
            "original_name": "The Adventures of Super Mario Bros. 3",
            "popularity": 1.304
        },
        {
            "id": 12617,
            "original_name": "Huey's Cooking Adventures",
            "popularity": 0.6
        },
        {
            "id": 12662,
            "original_name": "Adventures of Superman",
            "popularity": 6.845
        },
        {
            "id": 13066,
            "original_name": "The Adventures of Over the Hedge",
            "popularity": 0.6
        },
        {
            "id": 13281,
            "original_name": "Your Kaiser Dealer Presents Kaiser-Frazer \"Adventures in Mystery\" Starring Betty Furness in \"Byline\"",
            "popularity": 0.6
        },
        {
            "id": 13412,
            "original_name": "The Famous Adventures of Mr. Magoo",
            "popularity": 1.581
        },
        {
            "id": 13476,
            "original_name": "The Adventures of Hiram Holliday",
            "popularity": 1.539
        },
        {
            "id": 13508,
            "original_name": "The Adventures of Jim Bowie",
            "popularity": 7.413
        },
        {
            "id": 13545,
            "original_name": "The Undersea Adventures of Captain Nemo",
            "popularity": 1.808
        },
        {
            "id": 13605,
            "original_name": "Jakers! The Adventures of Piggley Winks",
            "popularity": 4.505
        },
        {
            "id": 13606,
            "original_name": "Mighty Mouse: The New Adventures",
            "popularity": 2.421
        },
        {
            "id": 13652,
            "original_name": "The New Adventures of Charlie Chan",
            "popularity": 0.914
        },
        {
            "id": 13658,
            "original_name": "The Adventures of Wild Bill Hickok",
            "popularity": 7.245
        },
        {
            "id": 13734,
            "original_name": "Pocket Dragon Adventures",
            "popularity": 1.989
        },
        {
            "id": 13756,
            "original_name": "Les Aventures de Virulysse",
            "popularity": 0.6
        },
        {
            "id": 14100,
            "original_name": "Care Bears: Adventures in Care-a-lot",
            "popularity": 3.639
        },
        {
            "id": 14116,
            "original_name": "The New Adventures of Speed Racer",
            "popularity": 0.885
        },
        {
            "id": 14339,
            "original_name": "The Adventures of Timothy Pilgrim",
            "popularity": 0.6
        },
        {
            "id": 14396,
            "original_name": "The Adventures of Super Mario Bros. 3",
            "popularity": 43.215
        },
        {
            "id": 14460,
            "original_name": "The Adventures of Dudley the Dragon",
            "popularity": 1.486
        },
        {
            "id": 14558,
            "original_name": "The New Adventures of Huckleberry Finn",
            "popularity": 3.435
        },
        {
            "id": 14578,
            "original_name": "The Adventures of Peter Pan",
            "popularity": 9.367
        },
        {
            "id": 14590,
            "original_name": "The Adventures of Dr. Fu Manchu",
            "popularity": 1.687
        },
        {
            "id": 14675,
            "original_name": "The New Adventures of Jonny Quest",
            "popularity": 4.753
        },
        {
            "id": 14677,
            "original_name": "The New Adventures of Zorro",
            "popularity": 3.245
        },
        {
            "id": 14778,
            "original_name": "Magic Adventures of Mumfie",
            "popularity": 0.6
        },
        {
            "id": 14907,
            "original_name": "The New Adventures of Blinky Bill",
            "popularity": 0.6
        },
        {
            "id": 14941,
            "original_name": "The Adventures of Sam",
            "popularity": 0.6
        },
        {
            "id": 14993,
            "original_name": "Betsy's Kindergarten Adventures",
            "popularity": 0.6
        },
        {
            "id": 15640,
            "original_name": "Micro Ventures",
            "popularity": 0.777
        },
        {
            "id": 15734,
            "original_name": "The Adventures of William Tell",
            "popularity": 3.182
        },
        {
            "id": 15773,
            "original_name": "Les Aventures de Robinson Cruso\u00eb",
            "popularity": 1.127
        },
        {
            "id": 15841,
            "original_name": "The New Adventures of Zorro",
            "popularity": 1.495
        },
        {
            "id": 16282,
            "original_name": "The Cheesy Adventures of Captain Mac A. Roni",
            "popularity": 0.6
        },
        {
            "id": 16523,
            "original_name": "Bob's Big Adventures",
            "popularity": 1.09
        },
        {
            "id": 16866,
            "original_name": "The New Adventures of Beany and Cecil",
            "popularity": 0.6
        },
        {
            "id": 16882,
            "original_name": "The Country Mouse and the City Mouse Adventures",
            "popularity": 3.017
        },
        {
            "id": 17078,
            "original_name": "Mowgli: The New Adventures of the Jungle Book",
            "popularity": 3.26
        },
        {
            "id": 17115,
            "original_name": "The Adventures Of Morecambe & Wise",
            "popularity": 0.6
        },
        {
            "id": 17248,
            "original_name": "Keith Famie's Adventures",
            "popularity": 0.6
        },
        {
            "id": 17296,
            "original_name": "The Adventures of Superboy",
            "popularity": 1.812
        },
        {
            "id": 17539,
            "original_name": "The Adventures of Kit Carson",
            "popularity": 8.254
        },
        {
            "id": 17840,
            "original_name": "Skippy: Adventures in Bushtown",
            "popularity": 0.805
        },
        {
            "id": 17922,
            "original_name": "Adventures on Kythera",
            "popularity": 0.6
        },
        {
            "id": 17937,
            "original_name": "Ghost Adventures",
            "popularity": 11.187
        },
        {
            "id": 18203,
            "original_name": "Madventures",
            "popularity": 1.526
        },
        {
            "id": 18516,
            "original_name": "The New Adventures of Black Beauty",
            "popularity": 4.673
        },
        {
            "id": 19059,
            "original_name": "The Adventures of Hyperman",
            "popularity": 1.768
        },
        {
            "id": 19076,
            "original_name": "Amazing Adventures of a Nobody",
            "popularity": 0.6
        },
        {
            "id": 19283,
            "original_name": "The New Adventures Of Madeline",
            "popularity": 1.243
        },
        {
            "id": 19381,
            "original_name": "The Adventures of Pinocchio",
            "popularity": 0.6
        },
        {
            "id": 19537,
            "original_name": "The Secret City Adventures",
            "popularity": 0.911
        },
        {
            "id": 19579,
            "original_name": "The Superman/Batman Adventures",
            "popularity": 0.893
        },
        {
            "id": 19736,
            "original_name": "The New Adventures of Pinocchio",
            "popularity": 0.6
        },
        {
            "id": 19811,
            "original_name": "The Decorating Adventures of Ambrose Price",
            "popularity": 0.6
        },
        {
            "id": 20232,
            "original_name": "The Magical Adventures of Quasimodo",
            "popularity": 0.6
        },
        {
            "id": 20326,
            "original_name": "The Adventures of the Bush Patrol",
            "popularity": 0.678
        },
        {
            "id": 20512,
            "original_name": "Adventures in Booga Booga Land",
            "popularity": 0.6
        },
        {
            "id": 20851,
            "original_name": "Dan Cruickshank's Adventures in Architecture",
            "popularity": 0.6
        },
        {
            "id": 21091,
            "original_name": "Les Aventures de Michel Vaillant",
            "popularity": 0.6
        },
        {
            "id": 21135,
            "original_name": "Bugtime Adventures",
            "popularity": 0.6
        },
        {
            "id": 21149,
            "original_name": "The Adventures of the Scarlet Pimpernel",
            "popularity": 1.393
        },
        {
            "id": 21152,
            "original_name": "The Life and Adventures of Santa Claus",
            "popularity": 0.84
        },
        {
            "id": 21304,
            "original_name": "The Adventures of Paddy the Pelican",
            "popularity": 0.6
        },
        {
            "id": 21683,
            "original_name": "On Your Own Adventures",
            "popularity": 0.6
        },
        {
            "id": 21795,
            "original_name": "The Adventures Of Chich",
            "popularity": 0.6
        },
        {
            "id": 22679,
            "original_name": "Top Dogs: Adventures in War, Sea and Ice",
            "popularity": 0.6
        },
        {
            "id": 22789,
            "original_name": "The Adventures of Captain Pugwash",
            "popularity": 0.6
        },
        {
            "id": 22888,
            "original_name": "Gumby Adventures",
            "popularity": 1.778
        },
        {
            "id": 22932,
            "original_name": "The New Adventures of Martin Kane",
            "popularity": 0.6
        },
        {
            "id": 23028,
            "original_name": "The Further Adventures of the Three Musketeers",
            "popularity": 1.741
        },
        {
            "id": 23297,
            "original_name": "South Pacific Adventures",
            "popularity": 0.6
        },
        {
            "id": 23526,
            "original_name": "URBO: The Adventures of Pax Afrika",
            "popularity": 0.6
        },
        {
            "id": 23546,
            "original_name": "The Adventures of A.R.K.",
            "popularity": 0.6
        },
        {
            "id": 24021,
            "original_name": "Adventures In Jazz",
            "popularity": 0.6
        },
        {
            "id": 24030,
            "original_name": "The New Adventures of Spin and Marty",
            "popularity": 2.537
        },
        {
            "id": 24122,
            "original_name": "The Further Adventures of Spin and Marty",
            "popularity": 1.146
        },
        {
            "id": 24220,
            "original_name": "Adventures Of A Jungle Boy",
            "popularity": 0.6
        },
        {
            "id": 24319,
            "original_name": "Adventures Of The Falcon",
            "popularity": 2.345
        },
        {
            "id": 24358,
            "original_name": "Off The Hook: Fishing Ventures",
            "popularity": 0.6
        },
        {
            "id": 24412,
            "original_name": "The Adventures Of The Sea Hawk",
            "popularity": 0.6
        },
        {
            "id": 24499,
            "original_name": "Real Kids, Real Adventures",
            "popularity": 2.571
        },
        {
            "id": 24917,
            "original_name": "The New Adventures Of Ocean Girl",
            "popularity": 1.341
        },
        {
            "id": 25186,
            "original_name": "The Adventures of Spot",
            "popularity": 2.581
        },
        {
            "id": 25192,
            "original_name": "The Terrific Adventures Of The Terrible Ten",
            "popularity": 0.6
        },
        {
            "id": 25355,
            "original_name": "The Completely Mental Misadventures of Ed Grimley",
            "popularity": 3.235
        },
        {
            "id": 25592,
            "original_name": "The New Adventures of the Lone Ranger",
            "popularity": 0.804
        },
        {
            "id": 25794,
            "original_name": "The Adventures of Swiss Family Robinson",
            "popularity": 3.866
        },
        {
            "id": 27177,
            "original_name": "The Very Good Adventures of Yam Roll in Happy Kingdom",
            "popularity": 0.804
        },
        {
            "id": 27229,
            "original_name": "The Incredible Adventures of Professor Branestawm",
            "popularity": 0.6
        },
        {
            "id": 27382,
            "original_name": "The Everyday Adventures of Hannah Handleman",
            "popularity": 0.6
        },
        {
            "id": 27422,
            "original_name": "The True Adventures of Christopher Columbus",
            "popularity": 0.832
        },
        {
            "id": 27513,
            "original_name": "The Adventures Of Long John Silver",
            "popularity": 0.964
        },
        {
            "id": 27794,
            "original_name": "The Many Adventures of Mr. Mailman",
            "popularity": 0.6
        },
        {
            "id": 27917,
            "original_name": "Adventures with Kanga Roddy",
            "popularity": 1.301
        },
        {
            "id": 28040,
            "original_name": "Adventures of Little El Cid",
            "popularity": 1.253
        },
        {
            "id": 28053,
            "original_name": "Adventures in Doggie Daycare",
            "popularity": 0.6
        },
        {
            "id": 28741,
            "original_name": "The Adventures Of Charlie Quick",
            "popularity": 0.6
        },
        {
            "id": 28788,
            "original_name": "Celebrity Adventures",
            "popularity": 0.6
        },
        {
            "id": 28796,
            "original_name": "Honeymoon Adventures",
            "popularity": 0.6
        },
        {
            "id": 29186,
            "original_name": "Dangerous Adventures for Boys",
            "popularity": 0.6
        },
        {
            "id": 29205,
            "original_name": "The Adventures of Skippy",
            "popularity": 0.921
        },
        {
            "id": 29420,
            "original_name": "The Adventures of Big Handsome Guy and His Little Friend",
            "popularity": 0.6
        },
        {
            "id": 29484,
            "original_name": "Adventures in Eating",
            "popularity": 0.6
        },
        {
            "id": 29545,
            "original_name": "Adventures of the Seaspray",
            "popularity": 0.6
        },
        {
            "id": 30034,
            "original_name": "The Adventures of Parsley",
            "popularity": 0.6
        },
        {
            "id": 30101,
            "original_name": "Further Adventures Of Lucky Jim",
            "popularity": 0.6
        },
        {
            "id": 30454,
            "original_name": "The Adventures of Danny & The Dingo",
            "popularity": 0.6
        },
        {
            "id": 30518,
            "original_name": "Gadget Boy's Adventures in History",
            "popularity": 1.789
        },
        {
            "id": 30634,
            "original_name": "The Adventures of Raggedy Ann and Andy",
            "popularity": 1.96
        },
        {
            "id": 30697,
            "original_name": "Jack Hanna's Animal Adventures",
            "popularity": 0.974
        },
        {
            "id": 30841,
            "original_name": "The Adventures of Bottle Top Bill and His Best Friend Corky",
            "popularity": 0.6
        },
        {
            "id": 31129,
            "original_name": "Green Screen Adventures",
            "popularity": 0.6
        },
        {
            "id": 31452,
            "original_name": "Gourmet's Adventures With Ruth",
            "popularity": 0.6
        },
        {
            "id": 31749,
            "original_name": "The Adventures of Batman",
            "popularity": 7.08
        },
        {
            "id": 32392,
            "original_name": "Noddy's Toyland Adventures",
            "popularity": 2.921
        },
        {
            "id": 33473,
            "original_name": "The Adventures of Chuck and Friends",
            "popularity": 4.332
        },
        {
            "id": 33793,
            "original_name": "Babar and the Adventures of Badou",
            "popularity": 5.466
        },
        {
            "id": 33835,
            "original_name": "Strawberry Shortcake's Berry Bitty Adventures",
            "popularity": 5.068
        },
        {
            "id": 34130,
            "original_name": "Olliver's Adventures",
            "popularity": 0.6
        },
        {
            "id": 34450,
            "original_name": "The Cartoon Adventures of Larryboy",
            "popularity": 0.6
        },
        {
            "id": 34467,
            "original_name": "The Jamie Lee Adventures",
            "popularity": 0.6
        },
        {
            "id": 34937,
            "original_name": "The Adventures of a Sexual Miscreant",
            "popularity": 0.6
        },
        {
            "id": 34942,
            "original_name": "Bill & Ted's Excellent Adventures",
            "popularity": 0.962
        },
        {
            "id": 35006,
            "original_name": "Bill & Ted's Excellent Adventures",
            "popularity": 4.36
        },
        {
            "id": 35355,
            "original_name": "Adventures on Orsum Island",
            "popularity": 0.6
        },
        {
            "id": 35407,
            "original_name": "Les Aventures de Colargol",
            "popularity": 1.047
        },
        {
            "id": 35566,
            "original_name": "The Adventures of Edward the Less",
            "popularity": 1.4
        },
        {
            "id": 36399,
            "original_name": "Great Railway Adventures with Dan Cruickshank",
            "popularity": 0.6
        },
        {
            "id": 37704,
            "original_name": "Bucket & Skinner's Epic Adventures",
            "popularity": 3.088
        },
        {
            "id": 39294,
            "original_name": "The Adventures of Tim and Moby",
            "popularity": 0.6
        },
        {
            "id": 39867,
            "original_name": "Adventures in Jazz",
            "popularity": 0.6
        },
        {
            "id": 40090,
            "original_name": "The Restaurant Adventures of Caroline & Dave",
            "popularity": 0.6
        },
        {
            "id": 40111,
            "original_name": "The Real Estate Adventures of Sandy & Maryse",
            "popularity": 0.6
        },
        {
            "id": 40157,
            "original_name": "The Extraordinary Adventures of Poppy Cat",
            "popularity": 1.192
        },
        {
            "id": 40211,
            "original_name": "The Adventures of Massey Ferguson",
            "popularity": 0.6
        },
        {
            "id": 40213,
            "original_name": "Pilars Adventures",
            "popularity": 0.6
        },
        {
            "id": 40307,
            "original_name": "The Adventures of Clint and Mac",
            "popularity": 0.6
        },
        {
            "id": 40409,
            "original_name": "The Adventures of a Jungle Boy",
            "popularity": 0.6
        },
        {
            "id": 41622,
            "original_name": "Puppy in My Pocket: Adventures in Pocketville",
            "popularity": 1.481
        },
        {
            "id": 41634,
            "original_name": "Adventures Abroad",
            "popularity": 0.6
        },
        {
            "id": 41660,
            "original_name": "Gore-Tex Outdoor Adventures",
            "popularity": 0.6
        },
        {
            "id": 42307,
            "original_name": "The High Fructose Adventures of Annoying Orange",
            "popularity": 7.553
        },
        {
            "id": 42662,
            "original_name": "Adventures with Angela",
            "popularity": 0.6
        },
        {
            "id": 43359,
            "original_name": "The Adventures of Jimmy Neutron: Confusion Fusion",
            "popularity": 0.634
        },
        {
            "id": 43616,
            "original_name": "Adventures with Purpose",
            "popularity": 0.6
        },
        {
            "id": 43749,
            "original_name": "The New Adventures of Davy Crockett",
            "popularity": 1.4
        },
        {
            "id": 44084,
            "original_name": "The Adventures of Boston Blackie",
            "popularity": 5.979
        },
        {
            "id": 44293,
            "original_name": "Redneck Adventures Television Show: Bass Hawgin' & Snapper Chummin'",
            "popularity": 0.6
        },
        {
            "id": 44593,
            "original_name": "Pac-Man and the Ghostly Adventures",
            "popularity": 10.412
        },
        {
            "id": 44854,
            "original_name": "The Adventures of Abney & Teal",
            "popularity": 2.001
        },
        {
            "id": 44905,
            "original_name": "Pinoy Adventures",
            "popularity": 0.6
        },
        {
            "id": 45159,
            "original_name": "The Adventures of Timmy the Tooth",
            "popularity": 0.6
        },
        {
            "id": 45327,
            "original_name": "Dawn Wells Reel Adventures",
            "popularity": 0.6
        },
        {
            "id": 45541,
            "original_name": "The Adventures of Bottle Top Bill",
            "popularity": 0.6
        },
        {
            "id": 45683,
            "original_name": "The New Adventures of Mother Goose",
            "popularity": 0.6
        },
        {
            "id": 46263,
            "original_name": "The Bite-Sized Adventures of Sam Sandwich",
            "popularity": 0.844
        },
        {
            "id": 46532,
            "original_name": "The Adventures of Figaro Pho",
            "popularity": 1.96
        },
        {
            "id": 46663,
            "original_name": "The Adventures of Francie and Josie",
            "popularity": 0.6
        },
        {
            "id": 46763,
            "original_name": "Michael J. Fox: Adventures Of An Incurable Optimist",
            "popularity": 0.6
        },
        {
            "id": 46825,
            "original_name": "Rooster Teeth Animated Adventures",
            "popularity": 20.52
        },
        {
            "id": 47266,
            "original_name": "The Adventures Of Big Jeff",
            "popularity": 0.6
        },
        {
            "id": 47858,
            "original_name": "The Amazing Adventures of Morph",
            "popularity": 0.6
        },
        {
            "id": 49116,
            "original_name": "Crispy Adventures",
            "popularity": 0.6
        },
        {
            "id": 50082,
            "original_name": "Funtik's Adventures",
            "popularity": 0.6
        },
        {
            "id": 51718,
            "original_name": "The New Adventures of Nanoboy",
            "popularity": 0.6
        },
        {
            "id": 52393,
            "original_name": "The Adventures of Figaro Pho, Fun, Fears and Foul Odours",
            "popularity": 0.6
        },
        {
            "id": 53055,
            "original_name": "Jean-Michel Cousteau's Ocean Adventures",
            "popularity": 0.6
        },
        {
            "id": 53113,
            "original_name": "Les nouvelles aventures de Peter Pan",
            "popularity": 3.163
        },
        {
            "id": 55358,
            "original_name": "Mini Adventures of Winnie the Pooh",
            "popularity": 1.299
        },
        {
            "id": 55411,
            "original_name": "The Adventures of an Arlequin",
            "popularity": 0.6
        },
        {
            "id": 55416,
            "original_name": "The Culinary Adventures of Baron Ambrosia",
            "popularity": 0.6
        },
        {
            "id": 55568,
            "original_name": "Swampy s Underground Adventures",
            "popularity": 0.6
        },
        {
            "id": 55581,
            "original_name": "Minecraft: The n00b Adventures",
            "popularity": 0.6
        },
        {
            "id": 55736,
            "original_name": "Ben Fogle's Year Of Adventures",
            "popularity": 0.6
        },
        {
            "id": 56027,
            "original_name": "I Love My Tractor the adventures of Massey Ferguson",
            "popularity": 0.6
        },
        {
            "id": 56130,
            "original_name": "The Adventures of Electra Elf",
            "popularity": 0.6
        },
        {
            "id": 56664,
            "original_name": "The Adventures of Cyclone Malone",
            "popularity": 0.6
        },
        {
            "id": 56847,
            "original_name": "Dangerman: Adventures with Geoff Mackley",
            "popularity": 0.6
        },
        {
            "id": 57060,
            "original_name": "Les aventures de Petit Ours Brun",
            "popularity": 1.246
        },
        {
            "id": 57073,
            "original_name": "The Adventures of Sam the Squirrel",
            "popularity": 0.6
        },
        {
            "id": 57547,
            "original_name": "Colin & Graham's Excellent Adventures",
            "popularity": 0.6
        },
        {
            "id": 57880,
            "original_name": "Pirates: Adventures in Art",
            "popularity": 1.34
        },
        {
            "id": 58390,
            "original_name": "The Adventures of the Terrible Ten",
            "popularity": 0.6
        },
        {
            "id": 58535,
            "original_name": "Railway Adventures Across Australia",
            "popularity": 0.6
        },
        {
            "id": 58938,
            "original_name": "Docventures",
            "popularity": 3.898
        },
        {
            "id": 59027,
            "original_name": "The Adventures of Parsley",
            "popularity": 0.6
        },
        {
            "id": 59595,
            "original_name": "Clem and Lachlan's Adventures",
            "popularity": 0.6
        },
        {
            "id": 59757,
            "original_name": "Adventures on Islands",
            "popularity": 0.6
        },
        {
            "id": 59874,
            "original_name": "Pat Callinan's 4x4 Adventures",
            "popularity": 0.883
        },
        {
            "id": 59920,
            "original_name": "Sesame Street: Bert and Ernie's Great Adventures",
            "popularity": 0.6
        },
        {
            "id": 59943,
            "original_name": "Pat Callinan\u2019s 4x4 Adventures",
            "popularity": 0.6
        },
        {
            "id": 60215,
            "original_name": "Outback Adventures",
            "popularity": 0.6
        },
        {
            "id": 60325,
            "original_name": "Vipo: Adventures of the Flying Dog",
            "popularity": 0.746
        },
        {
            "id": 60799,
            "original_name": "Les aventures de Bob Moran",
            "popularity": 0.6
        },
        {
            "id": 60838,
            "original_name": "Les aventures du capitaine L\u00fcckner",
            "popularity": 1.151
        },
        {
            "id": 61595,
            "original_name": "Les aventures du Grand Nord",
            "popularity": 0.6
        },
        {
            "id": 61886,
            "original_name": "The Adventures of Puss in Boots",
            "popularity": 12.093
        },
        {
            "id": 62318,
            "original_name": "Les nouvelles aventures de Lucky Luke",
            "popularity": 6.406
        },
        {
            "id": 63635,
            "original_name": "Ghost Adventures: Aftershocks",
            "popularity": 1.902
        },
        {
            "id": 64112,
            "original_name": "Sooty's Amazing Adventures",
            "popularity": 4.488
        },
        {
            "id": 64586,
            "original_name": "The New Adventures of Lassie",
            "popularity": 2.656
        },
        {
            "id": 65334,
            "original_name": "Miraculous, les aventures de Ladybug et Chat Noir",
            "popularity": 304.591
        },
        {
            "id": 65833,
            "original_name": "Les aventures de Papa Poule",
            "popularity": 0.674
        },
        {
            "id": 66039,
            "original_name": "Les Aventures de Saturnin",
            "popularity": 2.008
        },
        {
            "id": 66265,
            "original_name": "The Adventures of Voopa the Goolash",
            "popularity": 0.6
        },
        {
            "id": 66269,
            "original_name": "Fluffy's Food Adventures",
            "popularity": 2.236
        },
        {
            "id": 66837,
            "original_name": "LEGO Star Wars: The Freemaker Adventures",
            "popularity": 13.444
        },
        {
            "id": 67242,
            "original_name": "Home: Adventures with Tip & Oh",
            "popularity": 4.95
        },
        {
            "id": 68939,
            "original_name": "Les aventures du Pharmachien",
            "popularity": 3.27
        },
        {
            "id": 69592,
            "original_name": "Les Aventures d'en Massagran",
            "popularity": 0.84
        },
        {
            "id": 70232,
            "original_name": "Les aventures d'un gentleman-voyageur",
            "popularity": 0.6
        },
        {
            "id": 71530,
            "original_name": "Sam Fox: Extreme Adventures",
            "popularity": 0.71
        },
        {
            "id": 71671,
            "original_name": "Max Adventures: Magilika",
            "popularity": 0.6
        },
        {
            "id": 73197,
            "original_name": "Les Incroyables Aventures de Nabilla & Thomas",
            "popularity": 0.6
        },
        {
            "id": 73903,
            "original_name": "The New Adventures of Figaro Pho",
            "popularity": 1.914
        },
        {
            "id": 75444,
            "original_name": "The Adventures of Donkey Ollie",
            "popularity": 0.6
        },
        {
            "id": 75657,
            "original_name": "The Life and Adventures of Nick Nickleby",
            "popularity": 2.416
        },
        {
            "id": 76325,
            "original_name": "The Horrible Terrible Misadventures of David Atkins",
            "popularity": 0.6
        },
        {
            "id": 76534,
            "original_name": "The Adventures of Kid Danger",
            "popularity": 3.143
        },
        {
            "id": 78408,
            "original_name": "Andy's Prehistoric Adventures",
            "popularity": 0.6
        },
        {
            "id": 78414,
            "original_name": "Sonic Mania Adventures",
            "popularity": 6.37
        },
        {
            "id": 78601,
            "original_name": "The Adventures of Dr. Buckeye Bottoms",
            "popularity": 0.633
        },
        {
            "id": 78764,
            "original_name": "Bapt&Ga\u00ebl et Les Aventures de la Couille Cosmique",
            "popularity": 1.194
        },
        {
            "id": 78993,
            "original_name": "GoGo\u2019s Adventures with English",
            "popularity": 0.6
        },
        {
            "id": 79029,
            "original_name": "LesD\u00e9sastreusesaventuresdesorphelinsBaudelaire",
            "popularity": 0.6
        },
        {
            "id": 79242,
            "original_name": "Chilling Adventures of Sabrina",
            "popularity": 106.014
        },
        {
            "id": 79371,
            "original_name": "The Adventures of Rocky and Bullwinkle",
            "popularity": 3.14
        },
        {
            "id": 79821,
            "original_name": "The Webventures of Justin and Alden",
            "popularity": 1.322
        },
        {
            "id": 79903,
            "original_name": "The Adventures of Hatim",
            "popularity": 1.108
        },
        {
            "id": 80863,
            "original_name": "The Misadventures of Romesh Ranganathan",
            "popularity": 1.283
        },
        {
            "id": 81486,
            "original_name": "Bug Juice: My Adventures at Camp",
            "popularity": 0.6
        },
        {
            "id": 82080,
            "original_name": "The Wild Adventures of Blinky Bill",
            "popularity": 0.691
        },
        {
            "id": 82098,
            "original_name": "DC Super Heroes: The Filmation Adventures",
            "popularity": 2.998
        },
        {
            "id": 82610,
            "original_name": "Explorers: Adventures of the Century",
            "popularity": 0.849
        },
        {
            "id": 84426,
            "original_name": "Aventures",
            "popularity": 0.6
        },
        {
            "id": 84427,
            "original_name": "Aventures",
            "popularity": 0.6
        },
        {
            "id": 84428,
            "original_name": "Aventures",
            "popularity": 0.6
        },
        {
            "id": 85334,
            "original_name": "Nuclear Sharks - Cold War Submarine Adventures",
            "popularity": 0.6
        },
        {
            "id": 85536,
            "original_name": "Star Wars Galaxy of Adventures",
            "popularity": 3.471
        },
        {
            "id": 85709,
            "original_name": "Andy's Safari Adventures",
            "popularity": 0.6
        },
        {
            "id": 86246,
            "original_name": "Les nouvelles aventures de Vidocq",
            "popularity": 1.921
        },
        {
            "id": 88301,
            "original_name": "The Adventures of Gogol",
            "popularity": 0.6
        },
        {
            "id": 89092,
            "original_name": "Barbie: Dreamhouse Adventures",
            "popularity": 18.47
        },
        {
            "id": 89394,
            "original_name": "Reggae Shark Adventures",
            "popularity": 0.6
        },
        {
            "id": 90039,
            "original_name": "Les Aventures de Tintin, d'apr\u00e8s Herg\u00e9",
            "popularity": 1.501
        },
        {
            "id": 92143,
            "original_name": "Aventures Cara\u00efbes",
            "popularity": 1.127
        },
        {
            "id": 92145,
            "original_name": "Aventures de m\u00e9decine",
            "popularity": 0.6
        },
        {
            "id": 92233,
            "original_name": "Wild Adventures with Bedi Brothers",
            "popularity": 0.6
        },
        {
            "id": 93508,
            "original_name": "Marvel Super Hero Adventures",
            "popularity": 2.138
        },
        {
            "id": 93521,
            "original_name": "Ghost Adventures: Serial Killer Spirits",
            "popularity": 1.14
        },
        {
            "id": 94107,
            "original_name": "LEGO City Adventures",
            "popularity": 4.861
        },
        {
            "id": 94250,
            "original_name": "The Adventures of Blinky Bill",
            "popularity": 0.6
        },
        {
            "id": 94687,
            "original_name": "Max Adventures - Die Unterwasser-Abenteuer",
            "popularity": 0.6
        },
        {
            "id": 94897,
            "original_name": "Andy's Wild Adventures",
            "popularity": 0.964
        },
        {
            "id": 95548,
            "original_name": "Andy's Dinosaur Adventures",
            "popularity": 0.6
        },
        {
            "id": 96650,
            "original_name": "The Adventures of Paddington",
            "popularity": 12.399
        },
        {
            "id": 96869,
            "original_name": "Wally West Adventures",
            "popularity": 0.6
        },
        {
            "id": 97121,
            "original_name": "Ghost Adventures: Screaming Room",
            "popularity": 1.514
        },
        {
            "id": 97459,
            "original_name": "The Undersea Adventures of Ripples and His Friends",
            "popularity": 0.6
        },
        {
            "id": 97563,
            "original_name": "The Adventures of Young Indiana Jones",
            "popularity": 3.286
        },
        {
            "id": 98689,
            "original_name": "Guides d'aventures",
            "popularity": 1.147
        },
        {
            "id": 99435,
            "original_name": "Andy's Aquatic Adventures",
            "popularity": 0.6
        },
        {
            "id": 100605,
            "original_name": "Shaun the Sheep: Adventures from Mossy Bottom",
            "popularity": 2.542
        },
        {
            "id": 100677,
            "original_name": "LMN's: Adventures in the Microworld",
            "popularity": 0.6
        },
        {
            "id": 101282,
            "original_name": "Les Aventures de Doroth\u00e9e : Un AMI",
            "popularity": 0.84
        },
        {
            "id": 101284,
            "original_name": "Les aventures de Michel Vaillant",
            "popularity": 0.6
        },
        {
            "id": 102325,
            "original_name": "Stewart Copeland's Adventures In Music",
            "popularity": 0.6
        },
        {
            "id": 102628,
            "original_name": "Les Aventures de Tintin, d'apr\u00e8s Herg\u00e9",
            "popularity": 0.6
        },
        {
            "id": 103587,
            "original_name": "Britain's Biggest Adventures with Bear Grylls",
            "popularity": 1.103
        },
        {
            "id": 104614,
            "original_name": "Ghost Adventures: Quarantine",
            "popularity": 1.534
        },
        {
            "id": 105121,
            "original_name": "Saban's Adventures of Oliver Twist",
            "popularity": 0.6
        },
        {
            "id": 105122,
            "original_name": "Les Aventures de Carlos",
            "popularity": 0.6
        },
        {
            "id": 105138,
            "original_name": "The Adventures of The Disney Fairies",
            "popularity": 0.6
        },
        {
            "id": 105693,
            "original_name": "The Adventures Of Abbaas Mastan",
            "popularity": 0.6
        },
        {
            "id": 106147,
            "original_name": "Fearless Adventures with Jack Randall",
            "popularity": 0.6
        },
        {
            "id": 107104,
            "original_name": "Tobuscus Adventures",
            "popularity": 0.6
        },
        {
            "id": 107166,
            "original_name": "The Adventures of Bandolero",
            "popularity": 0.6
        },
        {
            "id": 108183,
            "original_name": "Care Bears: Adventures in Care-A-Lot",
            "popularity": 0.603
        },
        {
            "id": 108269,
            "original_name": "Miffy's Adventures Big and Small",
            "popularity": 1.133
        },
        {
            "id": 108538,
            "original_name": "Moka's Fabulous Adventures!",
            "popularity": 1.058
        },
        {
            "id": 108862,
            "original_name": "Where's My Water?: Swampy's Underground Adventures",
            "popularity": 1.14
        },
        {
            "id": 110715,
            "original_name": "Joanna Lumley's Unseen Adventures",
            "popularity": 0.6
        },
        {
            "id": 111488,
            "original_name": "Popeye's Island Adventures",
            "popularity": 1.315
        },
        {
            "id": 113768,
            "original_name": "Les aventures de Thierry Ricourt",
            "popularity": 0.6
        },
        {
            "id": 113905,
            "original_name": "Nutri Ventures",
            "popularity": 1.772
        },
        {
            "id": 115748,
            "original_name": "Scholastic Storybook Treasures - 20 Holiday Adventures",
            "popularity": 0.6
        },
        {
            "id": 116453,
            "original_name": "Bubbles' Big Adventures",
            "popularity": 0.6
        },
        {
            "id": 116928,
            "original_name": "Ghost Adventures: Top 10",
            "popularity": 1.187
        },
        {
            "id": 117284,
            "original_name": "Railway Adventures Across Europe",
            "popularity": 0.6
        },
        {
            "id": 117989,
            "original_name": "Les aventures du jeune Voltaire",
            "popularity": 3.786
        },
        {
            "id": 119160,
            "original_name": "Austin Stevens Adventures",
            "popularity": 0.6
        },
        {
            "id": 119365,
            "original_name": "The Astonishing Adventures of Alfred",
            "popularity": 0.84
        },
        {
            "id": 119922,
            "original_name": "Madventures Suomi",
            "popularity": 0.6
        },
        {
            "id": 121500,
            "original_name": "Les aventures tumultueuses de Jack Carter",
            "popularity": 0.6
        },
        {
            "id": 121922,
            "original_name": "Hello Kitty and Friends Supercute Adventures",
            "popularity": 2.679
        },
        {
            "id": 122372,
            "original_name": "Batman Adventures: Mad Love",
            "popularity": 0.6
        },
        {
            "id": 122881,
            "original_name": "Les nouvelles aventures de Saturnin",
            "popularity": 0.6
        },
        {
            "id": 123739,
            "original_name": "Aventures dans le monde perdu de Sir Conan Doyle",
            "popularity": 0.6
        },
        {
            "id": 124648,
            "original_name": "Hatchimals: Adventures in Hatchtopia",
            "popularity": 0.605
        },
        {
            "id": 125860,
            "original_name": "Les aventures de Monsieur Pickwick",
            "popularity": 0.6
        },
        {
            "id": 125928,
            "original_name": "My Adventures with Superman",
            "popularity": 0.6
        },
        {
            "id": 125993,
            "original_name": "New Space Adventures: Mars",
            "popularity": 0.6
        },
        {
            "id": 126388,
            "original_name": "Kid's Zombie Adventures Series By Berry Wood",
            "popularity": 0.727
        },
        {
            "id": 126671,
            "original_name": "Brian Cox's Adventures in Space and Time",
            "popularity": 0.84
        },
        {
            "id": 127499,
            "original_name": "Our Wild Adventures",
            "popularity": 0.84
        },
        {
            "id": 127736,
            "original_name": "Les Aventures Fantastiques du Commandant Cousteau",
            "popularity": 0.841
        },
        {
            "id": 129425,
            "original_name": "Scholastic Storybook Treasures - 20 Family Adventures",
            "popularity": 0.6
        },
        {
            "id": 130114,
            "original_name": "Adventures of Captain Marvel",
            "popularity": 1.4
        },
        {
            "id": 131102,
            "original_name": "The World's Greatest Balloon Adventures",
            "popularity": 0.6
        },
        {
            "id": 132637,
            "original_name": "The New Adventures of China Smith",
            "popularity": 0.6
        },
        {
            "id": 133591,
            "original_name": "Nigel Marven's Cruise Ship Adventures",
            "popularity": 0.6
        },
        {
            "id": 133699,
            "original_name": "Gaby & Alex Adventures",
            "popularity": 0.6
        },
        {
            "id": 134674,
            "original_name": "Paul Merton's Adventures",
            "popularity": 0.6
        },
        {
            "id": 136025,
            "original_name": "Space Misadventures",
            "popularity": 0.6
        },
        {
            "id": 136986,
            "original_name": "Les Aventures des Barbapapa",
            "popularity": 1.4
        },
        {
            "id": 138131,
            "original_name": "Max Adventures",
            "popularity": 0.6
        },
        {
            "id": 138217,
            "original_name": "Les nouvelles aventures de Saturnin",
            "popularity": 0.6
        },
        {
            "id": 139091,
            "original_name": "Les aventures de la courte \u00e9chelle",
            "popularity": 0.6
        },
        {
            "id": 139097,
            "original_name": "X's Adventures In Minecraft",
            "popularity": 0.6
        },
        {
            "id": 139612,
            "original_name": "Mickey Mouse Mixed-Up Adventures",
            "popularity": 3.479
        },
        {
            "id": 152569,
            "original_name": "The New Animated Adventures of Flash Gordon",
            "popularity": 0.6
        }
    ],
    "relations": [
        {
            "character": "venturesd"
        },
        {
            "character": "ventures!"
        }
    ],
    "top20": [
        {
            "id": 65334,
            "original_name": "Miraculous, les aventures de Ladybug et Chat Noir",
            "popularity": 304.591
        },
        {
            "id": 79242,
            "original_name": "Chilling Adventures of Sabrina",
            "popularity": 106.014
        },
        {
            "id": 897,
            "original_name": "The Grim Adventures of Billy and Mandy",
            "popularity": 85.562
        },
        {
            "id": 2129,
            "original_name": "The Adventures of Jimmy Neutron: Boy Genius",
            "popularity": 71.121
        },
        {
            "id": 14396,
            "original_name": "The Adventures of Super Mario Bros. 3",
            "popularity": 43.215
        },
        {
            "id": 1570,
            "original_name": "The Adventures of Tintin",
            "popularity": 41.613
        },
        {
            "id": 4515,
            "original_name": "Lois & Clark: The New Adventures of Superman",
            "popularity": 39.061
        },
        {
            "id": 4625,
            "original_name": "The New Batman Adventures",
            "popularity": 35.175
        },
        {
            "id": 240,
            "original_name": "Jackie Chan Adventures",
            "popularity": 30.825
        },
        {
            "id": 1931,
            "original_name": "Disney's Adventures of the Gummi Bears",
            "popularity": 22.043
        },
        {
            "id": 46825,
            "original_name": "Rooster Teeth Animated Adventures",
            "popularity": 20.52
        },
        {
            "id": 89092,
            "original_name": "Barbie: Dreamhouse Adventures",
            "popularity": 18.47
        },
        {
            "id": 11720,
            "original_name": "Adventures in Paradise",
            "popularity": 17.838
        },
        {
            "id": 2005,
            "original_name": "The New Adventures of Winnie the Pooh",
            "popularity": 17.338
        },
        {
            "id": 1830,
            "original_name": "Tiny Toon Adventures",
            "popularity": 15.345
        },
        {
            "id": 4402,
            "original_name": "The New Adventures of Old Christine",
            "popularity": 13.771
        },
        {
            "id": 66837,
            "original_name": "LEGO Star Wars: The Freemaker Adventures",
            "popularity": 13.444
        },
        {
            "id": 6673,
            "original_name": "The Marvelous Misadventures of Flapjack",
            "popularity": 13.197
        },
        {
            "id": 7330,
            "original_name": "Iron Man: Armored Adventures",
            "popularity": 13.192
        },
        {
            "id": 96650,
            "original_name": "The Adventures of Paddington",
            "popularity": 12.399
        }
    ]
}