{
    "data": [
        {
            "id": 2311,
            "original_name": "The House of Venus Show",
            "popularity": 0.6
        },
        {
            "id": 4894,
            "original_name": "Mars vs Venus",
            "popularity": 0.6
        },
        {
            "id": 6236,
            "original_name": "Quizon Avenue",
            "popularity": 0.6
        },
        {
            "id": 7005,
            "original_name": "Marx and Venus",
            "popularity": 0.6
        },
        {
            "id": 7146,
            "original_name": "1600 Pennsylvania Avenue",
            "popularity": 0.6
        },
        {
            "id": 9265,
            "original_name": "79 Park Avenue",
            "popularity": 2.604
        },
        {
            "id": 9648,
            "original_name": "The Revenue Men",
            "popularity": 1.144
        },
        {
            "id": 12981,
            "original_name": "Life on Venus Ave.",
            "popularity": 0.6
        },
        {
            "id": 13244,
            "original_name": "Mogadishu Avenue",
            "popularity": 0.6
        },
        {
            "id": 14986,
            "original_name": "Laurel Avenue",
            "popularity": 1.12
        },
        {
            "id": 26685,
            "original_name": "Pathfinders to Venus",
            "popularity": 0.6
        },
        {
            "id": 28293,
            "original_name": "Seventh Avenue",
            "popularity": 0.935
        },
        {
            "id": 29762,
            "original_name": "22 avenue de la Victoire",
            "popularity": 1.4
        },
        {
            "id": 31119,
            "original_name": "Park Avenue",
            "popularity": 0.6
        },
        {
            "id": 31161,
            "original_name": "Hunting Venus",
            "popularity": 0.6
        },
        {
            "id": 35927,
            "original_name": "Bienvenue aux dames",
            "popularity": 0.6
        },
        {
            "id": 35961,
            "original_name": "Venus & Serena: For Real",
            "popularity": 0.6
        },
        {
            "id": 39961,
            "original_name": "Maple Avenue",
            "popularity": 0.6
        },
        {
            "id": 41486,
            "original_name": "Fratelli Benvenuti",
            "popularity": 0.6
        },
        {
            "id": 41495,
            "original_name": "La famiglia Benvenuti",
            "popularity": 0.6
        },
        {
            "id": 43188,
            "original_name": "666 Park Avenue",
            "popularity": 11.225
        },
        {
            "id": 45573,
            "original_name": "Men Are from Mars, Women Are from Venus",
            "popularity": 4.086
        },
        {
            "id": 47133,
            "original_name": "Grand Avenue",
            "popularity": 0.6
        },
        {
            "id": 49276,
            "original_name": "Panienki z Park Avenue",
            "popularity": 0.6
        },
        {
            "id": 52019,
            "original_name": "Venus",
            "popularity": 0.6
        },
        {
            "id": 62480,
            "original_name": "Venus Vs Mars",
            "popularity": 0.6
        },
        {
            "id": 66327,
            "original_name": "Benvenuti a tavola",
            "popularity": 1.166
        },
        {
            "id": 72399,
            "original_name": "Bienvenue \u00e0 Nimbao",
            "popularity": 0.6
        },
        {
            "id": 77293,
            "original_name": "VENUS PROJECT\uff08\u30f4\u30a3\u30fc\u30ca\u30b9 \u30d7\u30ed\u30b8\u30a7\u30af\u30c8\uff09\uff0dCLIMAX\uff0d",
            "popularity": 0.6
        },
        {
            "id": 79941,
            "original_name": "Venus on the Hard Drive",
            "popularity": 0.6
        },
        {
            "id": 83698,
            "original_name": "Bienvenue Macelino !",
            "popularity": 4.643
        },
        {
            "id": 85339,
            "original_name": "A Touch of Venus",
            "popularity": 0.6
        },
        {
            "id": 90811,
            "original_name": "Avenue 5",
            "popularity": 10.469
        },
        {
            "id": 92903,
            "original_name": "Bienvenue aux touristes",
            "popularity": 0.983
        },
        {
            "id": 96131,
            "original_name": "Bienvenue chez les cheaps",
            "popularity": 0.618
        },
        {
            "id": 100103,
            "original_name": "El Jard\u00edn de Venus",
            "popularity": 1.4
        },
        {
            "id": 110857,
            "original_name": "Bienvenue dans le nanomonde",
            "popularity": 0.6
        },
        {
            "id": 113182,
            "original_name": "Audrey est revenue",
            "popularity": 8.96
        },
        {
            "id": 121415,
            "original_name": "Le 101, ouest, avenue des Pins",
            "popularity": 0.6
        },
        {
            "id": 124438,
            "original_name": "Bienvenue \u00e0 la shop!",
            "popularity": 6.443
        },
        {
            "id": 128751,
            "original_name": "Streets & Avenues",
            "popularity": 0.6
        }
    ],
    "relations": [
        {
            "character": "venus"
        },
        {
            "character": "venue"
        },
        {
            "character": "venut"
        }
    ],
    "top20": [
        {
            "id": 43188,
            "original_name": "666 Park Avenue",
            "popularity": 11.225
        },
        {
            "id": 90811,
            "original_name": "Avenue 5",
            "popularity": 10.469
        },
        {
            "id": 113182,
            "original_name": "Audrey est revenue",
            "popularity": 8.96
        },
        {
            "id": 124438,
            "original_name": "Bienvenue \u00e0 la shop!",
            "popularity": 6.443
        },
        {
            "id": 83698,
            "original_name": "Bienvenue Macelino !",
            "popularity": 4.643
        },
        {
            "id": 45573,
            "original_name": "Men Are from Mars, Women Are from Venus",
            "popularity": 4.086
        },
        {
            "id": 9265,
            "original_name": "79 Park Avenue",
            "popularity": 2.604
        },
        {
            "id": 29762,
            "original_name": "22 avenue de la Victoire",
            "popularity": 1.4
        },
        {
            "id": 100103,
            "original_name": "El Jard\u00edn de Venus",
            "popularity": 1.4
        },
        {
            "id": 66327,
            "original_name": "Benvenuti a tavola",
            "popularity": 1.166
        },
        {
            "id": 9648,
            "original_name": "The Revenue Men",
            "popularity": 1.144
        },
        {
            "id": 14986,
            "original_name": "Laurel Avenue",
            "popularity": 1.12
        },
        {
            "id": 92903,
            "original_name": "Bienvenue aux touristes",
            "popularity": 0.983
        },
        {
            "id": 28293,
            "original_name": "Seventh Avenue",
            "popularity": 0.935
        },
        {
            "id": 96131,
            "original_name": "Bienvenue chez les cheaps",
            "popularity": 0.618
        },
        {
            "id": 2311,
            "original_name": "The House of Venus Show",
            "popularity": 0.6
        },
        {
            "id": 4894,
            "original_name": "Mars vs Venus",
            "popularity": 0.6
        },
        {
            "id": 6236,
            "original_name": "Quizon Avenue",
            "popularity": 0.6
        },
        {
            "id": 7005,
            "original_name": "Marx and Venus",
            "popularity": 0.6
        },
        {
            "id": 7146,
            "original_name": "1600 Pennsylvania Avenue",
            "popularity": 0.6
        }
    ]
}