{
    "data": [
        {
            "id": 3993,
            "original_name": "Second Verdict",
            "popularity": 0.6
        },
        {
            "id": 4851,
            "original_name": "The Verdict",
            "popularity": 0.6
        },
        {
            "id": 9137,
            "original_name": "Gana la Verde",
            "popularity": 0.6
        },
        {
            "id": 10298,
            "original_name": "Riverdale",
            "popularity": 29.524
        },
        {
            "id": 12185,
            "original_name": "Consider Your Verdict",
            "popularity": 0.6
        },
        {
            "id": 13123,
            "original_name": "Verdict with Dan Abrams",
            "popularity": 0.6
        },
        {
            "id": 13919,
            "original_name": "La Verdad Oculta",
            "popularity": 0.6
        },
        {
            "id": 14156,
            "original_name": "Nada m\u00e1s que la verdad",
            "popularity": 0.6
        },
        {
            "id": 18261,
            "original_name": "Verdict for Tomorrow: The Eichmann Trial on Television",
            "popularity": 0.6
        },
        {
            "id": 20749,
            "original_name": "Busters verden",
            "popularity": 0.6
        },
        {
            "id": 23051,
            "original_name": "The Verdict is Yours",
            "popularity": 0.6
        },
        {
            "id": 24589,
            "original_name": "The Wright Verdicts",
            "popularity": 2.152
        },
        {
            "id": 29206,
            "original_name": "Second Verdict",
            "popularity": 0.6
        },
        {
            "id": 29934,
            "original_name": "Verdict",
            "popularity": 0.6
        },
        {
            "id": 34002,
            "original_name": "Soul Quest Overdrive",
            "popularity": 1.174
        },
        {
            "id": 35847,
            "original_name": "The Robert Verdi Show Starring Robert Verdi",
            "popularity": 0.6
        },
        {
            "id": 36369,
            "original_name": "Second Verdict Great Criminal Mysteries",
            "popularity": 0.6
        },
        {
            "id": 41214,
            "original_name": "Unter Verdacht",
            "popularity": 5.592
        },
        {
            "id": 43445,
            "original_name": "Final Verdict",
            "popularity": 0.6
        },
        {
            "id": 46901,
            "original_name": "Amores verdaderos",
            "popularity": 20.89
        },
        {
            "id": 51135,
            "original_name": "Bubber i verden",
            "popularity": 0.6
        },
        {
            "id": 53535,
            "original_name": "Verden if\u00f8lge...",
            "popularity": 0.6
        },
        {
            "id": 54466,
            "original_name": "Shanes verden II",
            "popularity": 0.6
        },
        {
            "id": 58604,
            "original_name": "Cleverdicks",
            "popularity": 0.6
        },
        {
            "id": 62917,
            "original_name": "Verdades Secretas",
            "popularity": 26.0
        },
        {
            "id": 65363,
            "original_name": "Wij zijn K3! De droom gaat verder",
            "popularity": 0.61
        },
        {
            "id": 65451,
            "original_name": "Verdammt Verliebt",
            "popularity": 2.246
        },
        {
            "id": 65681,
            "original_name": "Apocalypse, Verdun",
            "popularity": 4.334
        },
        {
            "id": 66780,
            "original_name": "Les aventuriers du Rio Verde",
            "popularity": 0.6
        },
        {
            "id": 69050,
            "original_name": "Riverdale",
            "popularity": 849.895
        },
        {
            "id": 69302,
            "original_name": "Den anden verden",
            "popularity": 0.6
        },
        {
            "id": 69692,
            "original_name": "Ouro Verde",
            "popularity": 6.746
        },
        {
            "id": 71240,
            "original_name": "La verdad de Laura",
            "popularity": 1.796
        },
        {
            "id": 72958,
            "original_name": "El Gordo: Una historia verdadera",
            "popularity": 1.033
        },
        {
            "id": 76298,
            "original_name": "Live redder verden. Litt.",
            "popularity": 0.6
        },
        {
            "id": 77305,
            "original_name": "La traccia verde",
            "popularity": 1.057
        },
        {
            "id": 77481,
            "original_name": "Verdi",
            "popularity": 1.942
        },
        {
            "id": 78678,
            "original_name": "La verdad",
            "popularity": 7.264
        },
        {
            "id": 79250,
            "original_name": "Verdades ocultas",
            "popularity": 14.587
        },
        {
            "id": 79337,
            "original_name": "Spoorloos verdwenen",
            "popularity": 0.61
        },
        {
            "id": 79441,
            "original_name": "Tatverdacht: Team Frankfurt ermittelt",
            "popularity": 0.855
        },
        {
            "id": 81131,
            "original_name": "Fosse/Verdon",
            "popularity": 7.514
        },
        {
            "id": 82542,
            "original_name": "Sofies Verden",
            "popularity": 0.6
        },
        {
            "id": 82978,
            "original_name": "Dercy de Verdade",
            "popularity": 0.892
        },
        {
            "id": 83207,
            "original_name": "Sin Miedo a la Verdad",
            "popularity": 13.185
        },
        {
            "id": 88787,
            "original_name": "Verd\u00e4chtig",
            "popularity": 0.6
        },
        {
            "id": 89044,
            "original_name": "Stimmen aus der H\u00f6lle \u2013 Verdun 1916",
            "popularity": 0.6
        },
        {
            "id": 90421,
            "original_name": "Lo que la verdad esconde: Caso Asunta",
            "popularity": 1.101
        },
        {
            "id": 91260,
            "original_name": "History's Verdict",
            "popularity": 0.6
        },
        {
            "id": 91699,
            "original_name": "Frontera Verde",
            "popularity": 9.437
        },
        {
            "id": 94144,
            "original_name": "The Verdict - State Vs Nanavati",
            "popularity": 1.969
        },
        {
            "id": 98224,
            "original_name": "Oro verde",
            "popularity": 2.983
        },
        {
            "id": 99502,
            "original_name": "Verdensm\u00e6nd",
            "popularity": 0.6
        },
        {
            "id": 102806,
            "original_name": "F\u00f8rst til verdens ende",
            "popularity": 0.6
        },
        {
            "id": 104178,
            "original_name": "Verdenskrigens Danske Skygger",
            "popularity": 0.6
        },
        {
            "id": 104492,
            "original_name": "Drenger\u00f8v i verdensklasse",
            "popularity": 0.6
        },
        {
            "id": 104559,
            "original_name": "Vores vilde verden",
            "popularity": 0.6
        },
        {
            "id": 106301,
            "original_name": "\u30ab\u30fc\u30c9\u30d5\u30a1\u30a4\u30c8!! \u30f4\u30a1\u30f3\u30ac\u30fc\u30c9 overDress",
            "popularity": 22.699
        },
        {
            "id": 106560,
            "original_name": "Verdammte See",
            "popularity": 0.6
        },
        {
            "id": 107335,
            "original_name": "Verdad Oculta",
            "popularity": 1.834
        },
        {
            "id": 110171,
            "original_name": "Jan Thomas\u2019 verden",
            "popularity": 0.6
        },
        {
            "id": 111635,
            "original_name": "Un don verdadero",
            "popularity": 0.6
        },
        {
            "id": 111938,
            "original_name": "Erik in de Verdeelde Staten",
            "popularity": 0.6
        },
        {
            "id": 113636,
            "original_name": "Verdoofd",
            "popularity": 1.138
        },
        {
            "id": 113904,
            "original_name": "Jul i verdensrummet",
            "popularity": 1.489
        },
        {
            "id": 114248,
            "original_name": "Verdens Lykkeligste Landshold",
            "popularity": 0.6
        },
        {
            "id": 114863,
            "original_name": "Mentiras verdaderas",
            "popularity": 35.874
        },
        {
            "id": 115692,
            "original_name": "Verdens Beste SFO",
            "popularity": 0.6
        },
        {
            "id": 116348,
            "original_name": "Sundby mot verden",
            "popularity": 0.6
        },
        {
            "id": 118266,
            "original_name": "Velkommen til verden",
            "popularity": 0.6
        },
        {
            "id": 120311,
            "original_name": "Verdens dejligste m\u00f8gunger",
            "popularity": 0.6
        },
        {
            "id": 120575,
            "original_name": "Sophie Elises verden",
            "popularity": 0.6
        },
        {
            "id": 121038,
            "original_name": "Roc\u00edo, contar la verdad para seguir viva",
            "popularity": 18.087
        },
        {
            "id": 121444,
            "original_name": "I pigernes skjulte verden",
            "popularity": 0.6
        },
        {
            "id": 122086,
            "original_name": "Fantorangens verden",
            "popularity": 0.6
        },
        {
            "id": 122507,
            "original_name": "Jonahs dyreverden",
            "popularity": 0.6
        },
        {
            "id": 122621,
            "original_name": "Poder & verdad",
            "popularity": 2.935
        },
        {
            "id": 124876,
            "original_name": "2. Verdenskrig i Skandinavien",
            "popularity": 0.6
        },
        {
            "id": 128236,
            "original_name": "Roswell: The Final Verdict",
            "popularity": 1.718
        },
        {
            "id": 133341,
            "original_name": "Team Sonic Racing Overdrive",
            "popularity": 4.7
        },
        {
            "id": 133907,
            "original_name": "Dringend Tatverd\u00e4chtig - Duisburg Crime Stories",
            "popularity": 0.6
        },
        {
            "id": 135193,
            "original_name": "Malverde: El Santo Patr\u00f3n",
            "popularity": 319.15
        },
        {
            "id": 136167,
            "original_name": "La dura verdad sobre la dictadura de Franco",
            "popularity": 1.176
        },
        {
            "id": 136295,
            "original_name": "Verdades Secretas 2",
            "popularity": 14.875
        },
        {
            "id": 137168,
            "original_name": "Dolores: La verdad sobre el caso Wanninkhof",
            "popularity": 9.844
        },
        {
            "id": 137831,
            "original_name": "After The Verdict",
            "popularity": 0.6
        },
        {
            "id": 138613,
            "original_name": "Verdade do Vinho",
            "popularity": 0.6
        },
        {
            "id": 139419,
            "original_name": "Gutter mot verden",
            "popularity": 2.915
        },
        {
            "id": 152545,
            "original_name": "En Vild Hverdag",
            "popularity": 1.4
        }
    ],
    "relations": [
        {
            "character": "verdi"
        },
        {
            "character": "verde"
        },
        {
            "character": "verda"
        },
        {
            "character": "verdr"
        },
        {
            "character": "verdu"
        },
        {
            "character": "verdw"
        },
        {
            "character": "verdo"
        }
    ],
    "top20": [
        {
            "id": 69050,
            "original_name": "Riverdale",
            "popularity": 849.895
        },
        {
            "id": 135193,
            "original_name": "Malverde: El Santo Patr\u00f3n",
            "popularity": 319.15
        },
        {
            "id": 114863,
            "original_name": "Mentiras verdaderas",
            "popularity": 35.874
        },
        {
            "id": 10298,
            "original_name": "Riverdale",
            "popularity": 29.524
        },
        {
            "id": 62917,
            "original_name": "Verdades Secretas",
            "popularity": 26.0
        },
        {
            "id": 106301,
            "original_name": "\u30ab\u30fc\u30c9\u30d5\u30a1\u30a4\u30c8!! \u30f4\u30a1\u30f3\u30ac\u30fc\u30c9 overDress",
            "popularity": 22.699
        },
        {
            "id": 46901,
            "original_name": "Amores verdaderos",
            "popularity": 20.89
        },
        {
            "id": 121038,
            "original_name": "Roc\u00edo, contar la verdad para seguir viva",
            "popularity": 18.087
        },
        {
            "id": 136295,
            "original_name": "Verdades Secretas 2",
            "popularity": 14.875
        },
        {
            "id": 79250,
            "original_name": "Verdades ocultas",
            "popularity": 14.587
        },
        {
            "id": 83207,
            "original_name": "Sin Miedo a la Verdad",
            "popularity": 13.185
        },
        {
            "id": 137168,
            "original_name": "Dolores: La verdad sobre el caso Wanninkhof",
            "popularity": 9.844
        },
        {
            "id": 91699,
            "original_name": "Frontera Verde",
            "popularity": 9.437
        },
        {
            "id": 81131,
            "original_name": "Fosse/Verdon",
            "popularity": 7.514
        },
        {
            "id": 78678,
            "original_name": "La verdad",
            "popularity": 7.264
        },
        {
            "id": 69692,
            "original_name": "Ouro Verde",
            "popularity": 6.746
        },
        {
            "id": 41214,
            "original_name": "Unter Verdacht",
            "popularity": 5.592
        },
        {
            "id": 133341,
            "original_name": "Team Sonic Racing Overdrive",
            "popularity": 4.7
        },
        {
            "id": 65681,
            "original_name": "Apocalypse, Verdun",
            "popularity": 4.334
        },
        {
            "id": 98224,
            "original_name": "Oro verde",
            "popularity": 2.983
        }
    ]
}