{
    "data": [
        {
            "id": 20097,
            "original_name": "D\u00e9couverte",
            "popularity": 3.792
        },
        {
            "id": 59782,
            "original_name": "Diverted",
            "popularity": 0.62
        },
        {
            "id": 60018,
            "original_name": "David Attenborough's Rise of Animals: Triumph of the Vertebrates",
            "popularity": 2.299
        },
        {
            "id": 67599,
            "original_name": "Espace D\u00e9couvertes",
            "popularity": 0.918
        },
        {
            "id": 69955,
            "original_name": "Plan\u00e8te Terre - \u00c0 la d\u00e9couverte des myst\u00e8res de l'\u00e9volution",
            "popularity": 0.83
        },
        {
            "id": 75516,
            "original_name": "La semaine verte",
            "popularity": 8.259
        },
        {
            "id": 79790,
            "original_name": "L'australie rouge et verte",
            "popularity": 0.6
        },
        {
            "id": 81344,
            "original_name": "Volverte a ver",
            "popularity": 0.886
        },
        {
            "id": 82970,
            "original_name": "Roc\u00edo D\u00farcal, volver a verte",
            "popularity": 0.806
        },
        {
            "id": 83913,
            "original_name": "U-Prince The Series: The Extroverted Humanist",
            "popularity": 0.6
        },
        {
            "id": 88792,
            "original_name": "Foncouverte",
            "popularity": 0.6
        },
        {
            "id": 93865,
            "original_name": "Mission verte",
            "popularity": 0.61
        },
        {
            "id": 98336,
            "original_name": "Reportages D\u00e9couverte",
            "popularity": 0.6
        },
        {
            "id": 98645,
            "original_name": "\u00c0 la D\u00e9couverte de la Sib\u00e9rie",
            "popularity": 0.6
        },
        {
            "id": 107138,
            "original_name": "Para verte mejor",
            "popularity": 0.6
        },
        {
            "id": 118058,
            "original_name": "Perverted Thomas",
            "popularity": 0.6
        },
        {
            "id": 119805,
            "original_name": "Cuisine Ouverte",
            "popularity": 0.84
        },
        {
            "id": 132887,
            "original_name": "La d\u00e9couverte des derniers tombeaux d'Egypte",
            "popularity": 0.6
        },
        {
            "id": 137102,
            "original_name": "Van Rossem Vertelt",
            "popularity": 0.6
        }
    ],
    "relations": [],
    "top20": [
        {
            "id": 20097,
            "original_name": "D\u00e9couverte",
            "popularity": 3.792
        },
        {
            "id": 59782,
            "original_name": "Diverted",
            "popularity": 0.62
        },
        {
            "id": 60018,
            "original_name": "David Attenborough's Rise of Animals: Triumph of the Vertebrates",
            "popularity": 2.299
        },
        {
            "id": 67599,
            "original_name": "Espace D\u00e9couvertes",
            "popularity": 0.918
        },
        {
            "id": 69955,
            "original_name": "Plan\u00e8te Terre - \u00c0 la d\u00e9couverte des myst\u00e8res de l'\u00e9volution",
            "popularity": 0.83
        },
        {
            "id": 75516,
            "original_name": "La semaine verte",
            "popularity": 8.259
        },
        {
            "id": 79790,
            "original_name": "L'australie rouge et verte",
            "popularity": 0.6
        },
        {
            "id": 81344,
            "original_name": "Volverte a ver",
            "popularity": 0.886
        },
        {
            "id": 82970,
            "original_name": "Roc\u00edo D\u00farcal, volver a verte",
            "popularity": 0.806
        },
        {
            "id": 83913,
            "original_name": "U-Prince The Series: The Extroverted Humanist",
            "popularity": 0.6
        },
        {
            "id": 88792,
            "original_name": "Foncouverte",
            "popularity": 0.6
        },
        {
            "id": 93865,
            "original_name": "Mission verte",
            "popularity": 0.61
        },
        {
            "id": 98336,
            "original_name": "Reportages D\u00e9couverte",
            "popularity": 0.6
        },
        {
            "id": 98645,
            "original_name": "\u00c0 la D\u00e9couverte de la Sib\u00e9rie",
            "popularity": 0.6
        },
        {
            "id": 107138,
            "original_name": "Para verte mejor",
            "popularity": 0.6
        },
        {
            "id": 118058,
            "original_name": "Perverted Thomas",
            "popularity": 0.6
        },
        {
            "id": 119805,
            "original_name": "Cuisine Ouverte",
            "popularity": 0.84
        },
        {
            "id": 132887,
            "original_name": "La d\u00e9couverte des derniers tombeaux d'Egypte",
            "popularity": 0.6
        },
        {
            "id": 137102,
            "original_name": "Van Rossem Vertelt",
            "popularity": 0.6
        }
    ]
}