{
    "data": [
        {
            "id": 25276,
            "original_name": "Silverville",
            "popularity": 0.6
        },
        {
            "id": 52052,
            "original_name": "Mijn Vieze, Vette, Vervelende Verloofde",
            "popularity": 0.6
        },
        {
            "id": 116619,
            "original_name": "The Overview",
            "popularity": 0.84
        },
        {
            "id": 121254,
            "original_name": "Red Hat Satellite Technical Overview (RH053)",
            "popularity": 0.82
        },
        {
            "id": 125115,
            "original_name": "Overview",
            "popularity": 1.625
        }
    ],
    "relations": [],
    "top20": [
        {
            "id": 25276,
            "original_name": "Silverville",
            "popularity": 0.6
        },
        {
            "id": 52052,
            "original_name": "Mijn Vieze, Vette, Vervelende Verloofde",
            "popularity": 0.6
        },
        {
            "id": 116619,
            "original_name": "The Overview",
            "popularity": 0.84
        },
        {
            "id": 121254,
            "original_name": "Red Hat Satellite Technical Overview (RH053)",
            "popularity": 0.82
        },
        {
            "id": 125115,
            "original_name": "Overview",
            "popularity": 1.625
        }
    ]
}