{
    "data": [
        {
            "id": 88350,
            "original_name": "Ingemann og Vestkysten",
            "popularity": 0.6
        },
        {
            "id": 112462,
            "original_name": "Vild Vild Vestkyst",
            "popularity": 0.6
        }
    ],
    "relations": [],
    "top20": [
        {
            "id": 88350,
            "original_name": "Ingemann og Vestkysten",
            "popularity": 0.6
        },
        {
            "id": 112462,
            "original_name": "Vild Vild Vestkyst",
            "popularity": 0.6
        }
    ]
}