{
    "data": [
        {
            "id": 5816,
            "original_name": "Sci Fi Investigates",
            "popularity": 0.6
        },
        {
            "id": 7242,
            "original_name": "BBC Scotland Investigates",
            "popularity": 0.6
        },
        {
            "id": 7251,
            "original_name": "Marlene Marlowe Investigates",
            "popularity": 0.626
        },
        {
            "id": 13427,
            "original_name": "Hetty Wainthropp Investigates",
            "popularity": 5.459
        },
        {
            "id": 16467,
            "original_name": "Interpol Investigates",
            "popularity": 0.6
        },
        {
            "id": 18636,
            "original_name": "Julian Fellowes Investigates: A Most Mysterious Murder",
            "popularity": 0.951
        },
        {
            "id": 25835,
            "original_name": "Jane Goldman Investigates",
            "popularity": 1.122
        },
        {
            "id": 28445,
            "original_name": "Newsround Investigates",
            "popularity": 0.6
        },
        {
            "id": 29675,
            "original_name": "THS Investigates",
            "popularity": 0.6
        },
        {
            "id": 36985,
            "original_name": "Jemima Shore Investigates",
            "popularity": 0.89
        },
        {
            "id": 37255,
            "original_name": "Missing Children: Lorraine Kelly Investigates",
            "popularity": 0.6
        },
        {
            "id": 37465,
            "original_name": "Derren Brown Investigates",
            "popularity": 0.6
        },
        {
            "id": 47905,
            "original_name": "Al Jazeera Investigates",
            "popularity": 0.6
        },
        {
            "id": 49151,
            "original_name": "NBC Investigates Bob Hope",
            "popularity": 0.6
        },
        {
            "id": 52348,
            "original_name": "The Soup Investigates",
            "popularity": 0.6
        },
        {
            "id": 69545,
            "original_name": "National Enquirer Investigates",
            "popularity": 0.6
        },
        {
            "id": 76458,
            "original_name": "People Magazine Investigates",
            "popularity": 5.94
        },
        {
            "id": 76475,
            "original_name": "Stacey Dooley Investigates",
            "popularity": 1.442
        },
        {
            "id": 78170,
            "original_name": "Marcia Clark Investigates The First 48",
            "popularity": 0.6
        },
        {
            "id": 90634,
            "original_name": "People Magazine Investigates: Cults",
            "popularity": 0.86
        },
        {
            "id": 95088,
            "original_name": "VICE Investigates",
            "popularity": 7.817
        },
        {
            "id": 102185,
            "original_name": "David Lomas Investigates",
            "popularity": 0.968
        },
        {
            "id": 112181,
            "original_name": "Food Unwrapped Investigates",
            "popularity": 0.764
        },
        {
            "id": 125842,
            "original_name": "People Magazine Investigates: Crimes of Fashion",
            "popularity": 0.6
        },
        {
            "id": 130228,
            "original_name": "Debi Marshall Investigates: Frozen Lies",
            "popularity": 0.6
        },
        {
            "id": 134059,
            "original_name": "BBC Wales Investigates",
            "popularity": 0.6
        }
    ],
    "relations": [
        {
            "character": "vestigates"
        }
    ],
    "top20": [
        {
            "id": 95088,
            "original_name": "VICE Investigates",
            "popularity": 7.817
        },
        {
            "id": 76458,
            "original_name": "People Magazine Investigates",
            "popularity": 5.94
        },
        {
            "id": 13427,
            "original_name": "Hetty Wainthropp Investigates",
            "popularity": 5.459
        },
        {
            "id": 76475,
            "original_name": "Stacey Dooley Investigates",
            "popularity": 1.442
        },
        {
            "id": 25835,
            "original_name": "Jane Goldman Investigates",
            "popularity": 1.122
        },
        {
            "id": 102185,
            "original_name": "David Lomas Investigates",
            "popularity": 0.968
        },
        {
            "id": 18636,
            "original_name": "Julian Fellowes Investigates: A Most Mysterious Murder",
            "popularity": 0.951
        },
        {
            "id": 36985,
            "original_name": "Jemima Shore Investigates",
            "popularity": 0.89
        },
        {
            "id": 90634,
            "original_name": "People Magazine Investigates: Cults",
            "popularity": 0.86
        },
        {
            "id": 112181,
            "original_name": "Food Unwrapped Investigates",
            "popularity": 0.764
        },
        {
            "id": 7251,
            "original_name": "Marlene Marlowe Investigates",
            "popularity": 0.626
        },
        {
            "id": 29675,
            "original_name": "THS Investigates",
            "popularity": 0.6
        },
        {
            "id": 37465,
            "original_name": "Derren Brown Investigates",
            "popularity": 0.6
        },
        {
            "id": 49151,
            "original_name": "NBC Investigates Bob Hope",
            "popularity": 0.6
        },
        {
            "id": 7242,
            "original_name": "BBC Scotland Investigates",
            "popularity": 0.6
        },
        {
            "id": 28445,
            "original_name": "Newsround Investigates",
            "popularity": 0.6
        },
        {
            "id": 37255,
            "original_name": "Missing Children: Lorraine Kelly Investigates",
            "popularity": 0.6
        },
        {
            "id": 16467,
            "original_name": "Interpol Investigates",
            "popularity": 0.6
        },
        {
            "id": 47905,
            "original_name": "Al Jazeera Investigates",
            "popularity": 0.6
        },
        {
            "id": 5816,
            "original_name": "Sci Fi Investigates",
            "popularity": 0.6
        }
    ]
}