{
    "data": [
        {
            "id": 42429,
            "original_name": "The Firemen of Viggi\u00f9",
            "popularity": 0.6
        }
    ],
    "relations": [],
    "top20": [
        {
            "id": 42429,
            "original_name": "The Firemen of Viggi\u00f9",
            "popularity": 0.6
        }
    ]
}