{
    "data": [
        {
            "id": 9184,
            "original_name": "Ch\u014d K\u014dsoku Galvion",
            "popularity": 0.6
        },
        {
            "id": 79873,
            "original_name": "Aviones de combate",
            "popularity": 0.6
        },
        {
            "id": 87753,
            "original_name": "Un avion sans elle",
            "popularity": 1.068
        },
        {
            "id": 132165,
            "original_name": "Les avions du bout du monde",
            "popularity": 0.6
        },
        {
            "id": 132570,
            "original_name": "Par avion",
            "popularity": 0.6
        },
        {
            "id": 133346,
            "original_name": "Aviond\u017eije",
            "popularity": 5.542
        },
        {
            "id": 135686,
            "original_name": "Les pires accidents : Avions",
            "popularity": 0.6
        }
    ],
    "relations": [],
    "top20": [
        {
            "id": 9184,
            "original_name": "Ch\u014d K\u014dsoku Galvion",
            "popularity": 0.6
        },
        {
            "id": 79873,
            "original_name": "Aviones de combate",
            "popularity": 0.6
        },
        {
            "id": 87753,
            "original_name": "Un avion sans elle",
            "popularity": 1.068
        },
        {
            "id": 132165,
            "original_name": "Les avions du bout du monde",
            "popularity": 0.6
        },
        {
            "id": 132570,
            "original_name": "Par avion",
            "popularity": 0.6
        },
        {
            "id": 133346,
            "original_name": "Aviond\u017eije",
            "popularity": 5.542
        },
        {
            "id": 135686,
            "original_name": "Les pires accidents : Avions",
            "popularity": 0.6
        }
    ]
}