{
    "data": [
        {
            "id": 73053,
            "original_name": "Virage Nord",
            "popularity": 2.167
        },
        {
            "id": 104186,
            "original_name": "Virago",
            "popularity": 0.867
        },
        {
            "id": 119916,
            "original_name": "Virage",
            "popularity": 5.065
        }
    ],
    "relations": [],
    "top20": [
        {
            "id": 73053,
            "original_name": "Virage Nord",
            "popularity": 2.167
        },
        {
            "id": 104186,
            "original_name": "Virago",
            "popularity": 0.867
        },
        {
            "id": 119916,
            "original_name": "Virage",
            "popularity": 5.065
        }
    ]
}