{
    "data": [
        {
            "id": 12713,
            "original_name": "Vivir un poco",
            "popularity": 0.6
        },
        {
            "id": 16438,
            "original_name": "Volver a Vivir",
            "popularity": 0.6
        },
        {
            "id": 18051,
            "original_name": "D\u00e9jame vivir",
            "popularity": 0.6
        },
        {
            "id": 58362,
            "original_name": "Vivir a Destiempo",
            "popularity": 0.6
        },
        {
            "id": 58867,
            "original_name": "Mentir para vivir",
            "popularity": 1.575
        },
        {
            "id": 69274,
            "original_name": "Quiero vivir a tu lado",
            "popularity": 2.691
        },
        {
            "id": 81771,
            "original_name": "\u00a1Qu\u00e9 bello es sobrevivir!",
            "popularity": 0.6
        },
        {
            "id": 82516,
            "original_name": "Vivir sin Permiso",
            "popularity": 20.144
        },
        {
            "id": 99244,
            "original_name": "Alguien por quien vivir",
            "popularity": 2.036
        },
        {
            "id": 103086,
            "original_name": "Amar y Vivir",
            "popularity": 38.155
        },
        {
            "id": 103787,
            "original_name": "C\u00f3mo sobrevivir soltero",
            "popularity": 16.848
        },
        {
            "id": 104981,
            "original_name": "Vivir as\u00ed",
            "popularity": 2.425
        },
        {
            "id": 127962,
            "original_name": "Sobrevivir\u00e9: After Show",
            "popularity": 24.5
        },
        {
            "id": 133012,
            "original_name": "Un d\u00eda para vivir",
            "popularity": 12.512
        },
        {
            "id": 138231,
            "original_name": "El coraje de vivir",
            "popularity": 0.84
        },
        {
            "id": 138340,
            "original_name": "Sainz: Vivir para competir",
            "popularity": 7.906
        }
    ],
    "relations": [],
    "top20": [
        {
            "id": 12713,
            "original_name": "Vivir un poco",
            "popularity": 0.6
        },
        {
            "id": 16438,
            "original_name": "Volver a Vivir",
            "popularity": 0.6
        },
        {
            "id": 18051,
            "original_name": "D\u00e9jame vivir",
            "popularity": 0.6
        },
        {
            "id": 58362,
            "original_name": "Vivir a Destiempo",
            "popularity": 0.6
        },
        {
            "id": 58867,
            "original_name": "Mentir para vivir",
            "popularity": 1.575
        },
        {
            "id": 69274,
            "original_name": "Quiero vivir a tu lado",
            "popularity": 2.691
        },
        {
            "id": 81771,
            "original_name": "\u00a1Qu\u00e9 bello es sobrevivir!",
            "popularity": 0.6
        },
        {
            "id": 82516,
            "original_name": "Vivir sin Permiso",
            "popularity": 20.144
        },
        {
            "id": 99244,
            "original_name": "Alguien por quien vivir",
            "popularity": 2.036
        },
        {
            "id": 103086,
            "original_name": "Amar y Vivir",
            "popularity": 38.155
        },
        {
            "id": 103787,
            "original_name": "C\u00f3mo sobrevivir soltero",
            "popularity": 16.848
        },
        {
            "id": 104981,
            "original_name": "Vivir as\u00ed",
            "popularity": 2.425
        },
        {
            "id": 127962,
            "original_name": "Sobrevivir\u00e9: After Show",
            "popularity": 24.5
        },
        {
            "id": 133012,
            "original_name": "Un d\u00eda para vivir",
            "popularity": 12.512
        },
        {
            "id": 138231,
            "original_name": "El coraje de vivir",
            "popularity": 0.84
        },
        {
            "id": 138340,
            "original_name": "Sainz: Vivir para competir",
            "popularity": 7.906
        }
    ]
}