{
    "data": [
        {
            "id": 16900,
            "original_name": "Voetbalvrouwen",
            "popularity": 2.729
        },
        {
            "id": 30641,
            "original_name": "Voetbal International",
            "popularity": 2.945
        },
        {
            "id": 38468,
            "original_name": "Beste Voetballers Ooit, De",
            "popularity": 0.6
        },
        {
            "id": 38747,
            "original_name": "Voetbalfans",
            "popularity": 0.6
        },
        {
            "id": 54322,
            "original_name": "Voetspore",
            "popularity": 0.6
        },
        {
            "id": 63611,
            "original_name": "Voetbal Inside",
            "popularity": 1.276
        },
        {
            "id": 76612,
            "original_name": "Voetbalmaffia",
            "popularity": 0.738
        },
        {
            "id": 77958,
            "original_name": "Voetspore - The Great Rift Valley",
            "popularity": 0.6
        },
        {
            "id": 114111,
            "original_name": "In de voetsporen van",
            "popularity": 0.6
        },
        {
            "id": 114839,
            "original_name": "Ziggo Sport: Paniekvoetbal",
            "popularity": 1.248
        },
        {
            "id": 114843,
            "original_name": "Voetbal International LIVE",
            "popularity": 0.613
        },
        {
            "id": 115979,
            "original_name": "Studio Voetbal",
            "popularity": 13.46
        },
        {
            "id": 122174,
            "original_name": "Viervoeters",
            "popularity": 0.6
        },
        {
            "id": 125153,
            "original_name": "Voetbaldroom: Alles Op Het Spel",
            "popularity": 0.7
        },
        {
            "id": 127350,
            "original_name": "Bet-boys voetbalshow",
            "popularity": 0.6
        }
    ],
    "relations": [],
    "top20": [
        {
            "id": 16900,
            "original_name": "Voetbalvrouwen",
            "popularity": 2.729
        },
        {
            "id": 30641,
            "original_name": "Voetbal International",
            "popularity": 2.945
        },
        {
            "id": 38468,
            "original_name": "Beste Voetballers Ooit, De",
            "popularity": 0.6
        },
        {
            "id": 38747,
            "original_name": "Voetbalfans",
            "popularity": 0.6
        },
        {
            "id": 54322,
            "original_name": "Voetspore",
            "popularity": 0.6
        },
        {
            "id": 63611,
            "original_name": "Voetbal Inside",
            "popularity": 1.276
        },
        {
            "id": 76612,
            "original_name": "Voetbalmaffia",
            "popularity": 0.738
        },
        {
            "id": 77958,
            "original_name": "Voetspore - The Great Rift Valley",
            "popularity": 0.6
        },
        {
            "id": 114111,
            "original_name": "In de voetsporen van",
            "popularity": 0.6
        },
        {
            "id": 114839,
            "original_name": "Ziggo Sport: Paniekvoetbal",
            "popularity": 1.248
        },
        {
            "id": 114843,
            "original_name": "Voetbal International LIVE",
            "popularity": 0.613
        },
        {
            "id": 115979,
            "original_name": "Studio Voetbal",
            "popularity": 13.46
        },
        {
            "id": 122174,
            "original_name": "Viervoeters",
            "popularity": 0.6
        },
        {
            "id": 125153,
            "original_name": "Voetbaldroom: Alles Op Het Spel",
            "popularity": 0.7
        },
        {
            "id": 127350,
            "original_name": "Bet-boys voetbalshow",
            "popularity": 0.6
        }
    ]
}