{
    "data": [
        {
            "id": 41520,
            "original_name": "La figlia di Elisa \u2013 Ritorno a Rivombrosa",
            "popularity": 1.4
        },
        {
            "id": 41775,
            "original_name": "Elisa di Rivombrosa",
            "popularity": 2.728
        }
    ],
    "relations": [],
    "top20": [
        {
            "id": 41520,
            "original_name": "La figlia di Elisa \u2013 Ritorno a Rivombrosa",
            "popularity": 1.4
        },
        {
            "id": 41775,
            "original_name": "Elisa di Rivombrosa",
            "popularity": 2.728
        }
    ]
}