{
    "data": [
        {
            "id": 44873,
            "original_name": "Broken Vow",
            "popularity": 0.851
        },
        {
            "id": 49920,
            "original_name": "The Vow",
            "popularity": 14.902
        },
        {
            "id": 59679,
            "original_name": "Fatal Vows",
            "popularity": 0.878
        },
        {
            "id": 67836,
            "original_name": "Jim & Chrissy: Vow or Never",
            "popularity": 0.6
        },
        {
            "id": 125030,
            "original_name": "The Broken Marriage Vow",
            "popularity": 2.26
        }
    ],
    "relations": [],
    "top20": [
        {
            "id": 44873,
            "original_name": "Broken Vow",
            "popularity": 0.851
        },
        {
            "id": 49920,
            "original_name": "The Vow",
            "popularity": 14.902
        },
        {
            "id": 59679,
            "original_name": "Fatal Vows",
            "popularity": 0.878
        },
        {
            "id": 67836,
            "original_name": "Jim & Chrissy: Vow or Never",
            "popularity": 0.6
        },
        {
            "id": 125030,
            "original_name": "The Broken Marriage Vow",
            "popularity": 2.26
        }
    ]
}