{
    "data": [
        {
            "id": 82187,
            "original_name": "Tu vivras ma fille",
            "popularity": 0.701
        },
        {
            "id": 84322,
            "original_name": "FESTA DE PALAVRAS",
            "popularity": 0.603
        }
    ],
    "relations": [],
    "top20": [
        {
            "id": 82187,
            "original_name": "Tu vivras ma fille",
            "popularity": 0.701
        },
        {
            "id": 84322,
            "original_name": "FESTA DE PALAVRAS",
            "popularity": 0.603
        }
    ]
}