{
    "data": [
        {
            "id": 8007,
            "original_name": "Chi vuol essere milionario?",
            "popularity": 1.036
        },
        {
            "id": 9158,
            "original_name": "Saunavuoro",
            "popularity": 0.6
        },
        {
            "id": 17326,
            "original_name": "Uutisvuoto",
            "popularity": 1.19
        },
        {
            "id": 17653,
            "original_name": "Chi vuol essere miliardario?",
            "popularity": 0.6
        },
        {
            "id": 75317,
            "original_name": "Sadan vuoden talo",
            "popularity": 0.6
        },
        {
            "id": 126077,
            "original_name": "Lehm\u00e4n vuosi",
            "popularity": 0.6
        },
        {
            "id": 134247,
            "original_name": "Pilluralli - itsen\u00e4istymisen vuosi",
            "popularity": 0.6
        }
    ],
    "relations": [],
    "top20": [
        {
            "id": 8007,
            "original_name": "Chi vuol essere milionario?",
            "popularity": 1.036
        },
        {
            "id": 9158,
            "original_name": "Saunavuoro",
            "popularity": 0.6
        },
        {
            "id": 17326,
            "original_name": "Uutisvuoto",
            "popularity": 1.19
        },
        {
            "id": 17653,
            "original_name": "Chi vuol essere miliardario?",
            "popularity": 0.6
        },
        {
            "id": 75317,
            "original_name": "Sadan vuoden talo",
            "popularity": 0.6
        },
        {
            "id": 126077,
            "original_name": "Lehm\u00e4n vuosi",
            "popularity": 0.6
        },
        {
            "id": 134247,
            "original_name": "Pilluralli - itsen\u00e4istymisen vuosi",
            "popularity": 0.6
        }
    ]
}