{
    "data": [
        {
            "id": 28693,
            "original_name": "Vuurzee",
            "popularity": 2.435
        },
        {
            "id": 36357,
            "original_name": "In het Vuur van de Storm",
            "popularity": 0.6
        },
        {
            "id": 38256,
            "original_name": "Dichtbij het vuur",
            "popularity": 0.6
        },
        {
            "id": 43804,
            "original_name": "Beatrix, Oranje onder vuur",
            "popularity": 0.6
        },
        {
            "id": 85592,
            "original_name": "Helden van hier: Door het vuur",
            "popularity": 0.615
        },
        {
            "id": 122169,
            "original_name": "Onder Vuur",
            "popularity": 6.307
        },
        {
            "id": 135126,
            "original_name": "Tussen 2 Vuurtjes",
            "popularity": 0.6
        }
    ],
    "relations": [],
    "top20": [
        {
            "id": 28693,
            "original_name": "Vuurzee",
            "popularity": 2.435
        },
        {
            "id": 36357,
            "original_name": "In het Vuur van de Storm",
            "popularity": 0.6
        },
        {
            "id": 38256,
            "original_name": "Dichtbij het vuur",
            "popularity": 0.6
        },
        {
            "id": 43804,
            "original_name": "Beatrix, Oranje onder vuur",
            "popularity": 0.6
        },
        {
            "id": 85592,
            "original_name": "Helden van hier: Door het vuur",
            "popularity": 0.615
        },
        {
            "id": 122169,
            "original_name": "Onder Vuur",
            "popularity": 6.307
        },
        {
            "id": 135126,
            "original_name": "Tussen 2 Vuurtjes",
            "popularity": 0.6
        }
    ]
}