{
    "data": [
        {
            "id": 7297,
            "original_name": "Scallywagga",
            "popularity": 0.6
        },
        {
            "id": 10195,
            "original_name": "Diggs Tailwagger",
            "popularity": 0.6
        },
        {
            "id": 94245,
            "original_name": "Swagger",
            "popularity": 27.119
        }
    ],
    "relations": [],
    "top20": [
        {
            "id": 7297,
            "original_name": "Scallywagga",
            "popularity": 0.6
        },
        {
            "id": 10195,
            "original_name": "Diggs Tailwagger",
            "popularity": 0.6
        },
        {
            "id": 94245,
            "original_name": "Swagger",
            "popularity": 27.119
        }
    ]
}