{
    "data": [
        {
            "id": 115899,
            "original_name": "Waldgericht - Ein Schwarzwaldkrimi",
            "popularity": 1.391
        }
    ],
    "relations": [],
    "top20": [
        {
            "id": 115899,
            "original_name": "Waldgericht - Ein Schwarzwaldkrimi",
            "popularity": 1.391
        }
    ]
}