{
    "data": [
        {
            "id": 233,
            "original_name": "Who Wants to Be a Superhero?",
            "popularity": 1.265
        },
        {
            "id": 2225,
            "original_name": "Who Wants to Be a Millionaire?",
            "popularity": 12.951
        },
        {
            "id": 2240,
            "original_name": "Who Wants to Be a Super Millionaire",
            "popularity": 0.6
        },
        {
            "id": 5990,
            "original_name": "Who Wants to Be a Millionaire?",
            "popularity": 0.6
        },
        {
            "id": 6890,
            "original_name": "Who Wants to Be a Millionaire?",
            "popularity": 0.6
        },
        {
            "id": 7147,
            "original_name": "Farmer Wants a Wife",
            "popularity": 1.127
        },
        {
            "id": 8167,
            "original_name": "Who Wants to Be a Millionaire?",
            "popularity": 0.6
        },
        {
            "id": 8175,
            "original_name": "Who Wants to Be a Millionaire?",
            "popularity": 0.6
        },
        {
            "id": 8222,
            "original_name": "Who Wants to Be a Millionaire?",
            "popularity": 0.84
        },
        {
            "id": 8277,
            "original_name": "Who Wants to Be a Millionaire?",
            "popularity": 0.6
        },
        {
            "id": 8281,
            "original_name": "Who Wants to Be a Millionaire?",
            "popularity": 0.6
        },
        {
            "id": 8289,
            "original_name": "Who Wants to Be a Millionaire?",
            "popularity": 0.6
        },
        {
            "id": 8299,
            "original_name": "Who Wants to Be a Millionaire: Canadian Edition",
            "popularity": 0.6
        },
        {
            "id": 8317,
            "original_name": "Who Wants to Be a Millionaire?",
            "popularity": 0.6
        },
        {
            "id": 8502,
            "original_name": "Megan Wants a Millionaire",
            "popularity": 1.4
        },
        {
            "id": 10835,
            "original_name": "Who Wants to Marry a Multi-Millionaire?",
            "popularity": 0.6
        },
        {
            "id": 12691,
            "original_name": "Who Wants to Be a Superhero?",
            "popularity": 0.6
        },
        {
            "id": 14780,
            "original_name": "Farmer Wants a Wife",
            "popularity": 0.6
        },
        {
            "id": 15409,
            "original_name": "The Farmer Wants a Wife",
            "popularity": 1.441
        },
        {
            "id": 16627,
            "original_name": "Who Wants to Marry My Dad?",
            "popularity": 0.6
        },
        {
            "id": 18722,
            "original_name": "Youth Wants to Know",
            "popularity": 0.6
        },
        {
            "id": 21301,
            "original_name": "Dogshitter Wants",
            "popularity": 0.988
        },
        {
            "id": 26007,
            "original_name": "What The Public Wants",
            "popularity": 0.6
        },
        {
            "id": 26527,
            "original_name": "Megan Wants a Millionaire",
            "popularity": 0.6
        },
        {
            "id": 31138,
            "original_name": "Who Wants to Be Rich?",
            "popularity": 0.6
        },
        {
            "id": 32565,
            "original_name": "What Chilli Wants",
            "popularity": 0.843
        },
        {
            "id": 33799,
            "original_name": "Who Wants to Be a Millionaire? Hot Seat",
            "popularity": 0.6
        },
        {
            "id": 43848,
            "original_name": "Who Wants to Be a Superhero?",
            "popularity": 1.824
        },
        {
            "id": 44137,
            "original_name": "Who Wants to Be a Millionaire?",
            "popularity": 0.6
        },
        {
            "id": 47246,
            "original_name": "Mrs. Delafield Wants to Marry",
            "popularity": 0.6
        },
        {
            "id": 55089,
            "original_name": "Who Wants to Be a Millionaire?",
            "popularity": 19.684
        },
        {
            "id": 60386,
            "original_name": "Who Wants to Date a Comedian?",
            "popularity": 0.654
        },
        {
            "id": 103934,
            "original_name": "Who Wants to Be a Millionaire",
            "popularity": 1.768
        },
        {
            "id": 113582,
            "original_name": "35 Serial Killers the World Wants to Forget",
            "popularity": 0.6
        },
        {
            "id": 134209,
            "original_name": "Who Wants to Be a Millionaire? 10th Anniversary Prime Time Special",
            "popularity": 0.6
        }
    ],
    "relations": [],
    "top20": [
        {
            "id": 55089,
            "original_name": "Who Wants to Be a Millionaire?",
            "popularity": 19.684
        },
        {
            "id": 2225,
            "original_name": "Who Wants to Be a Millionaire?",
            "popularity": 12.951
        },
        {
            "id": 43848,
            "original_name": "Who Wants to Be a Superhero?",
            "popularity": 1.824
        },
        {
            "id": 103934,
            "original_name": "Who Wants to Be a Millionaire",
            "popularity": 1.768
        },
        {
            "id": 15409,
            "original_name": "The Farmer Wants a Wife",
            "popularity": 1.441
        },
        {
            "id": 8502,
            "original_name": "Megan Wants a Millionaire",
            "popularity": 1.4
        },
        {
            "id": 233,
            "original_name": "Who Wants to Be a Superhero?",
            "popularity": 1.265
        },
        {
            "id": 7147,
            "original_name": "Farmer Wants a Wife",
            "popularity": 1.127
        },
        {
            "id": 21301,
            "original_name": "Dogshitter Wants",
            "popularity": 0.988
        },
        {
            "id": 32565,
            "original_name": "What Chilli Wants",
            "popularity": 0.843
        },
        {
            "id": 8222,
            "original_name": "Who Wants to Be a Millionaire?",
            "popularity": 0.84
        },
        {
            "id": 60386,
            "original_name": "Who Wants to Date a Comedian?",
            "popularity": 0.654
        },
        {
            "id": 8175,
            "original_name": "Who Wants to Be a Millionaire?",
            "popularity": 0.6
        },
        {
            "id": 8277,
            "original_name": "Who Wants to Be a Millionaire?",
            "popularity": 0.6
        },
        {
            "id": 2240,
            "original_name": "Who Wants to Be a Super Millionaire",
            "popularity": 0.6
        },
        {
            "id": 5990,
            "original_name": "Who Wants to Be a Millionaire?",
            "popularity": 0.6
        },
        {
            "id": 8167,
            "original_name": "Who Wants to Be a Millionaire?",
            "popularity": 0.6
        },
        {
            "id": 8281,
            "original_name": "Who Wants to Be a Millionaire?",
            "popularity": 0.6
        },
        {
            "id": 8289,
            "original_name": "Who Wants to Be a Millionaire?",
            "popularity": 0.6
        },
        {
            "id": 6890,
            "original_name": "Who Wants to Be a Millionaire?",
            "popularity": 0.6
        }
    ]
}