{
    "data": [
        {
            "id": 99443,
            "original_name": "Die wilden Zwanziger",
            "popularity": 0.6
        }
    ],
    "relations": [],
    "top20": [
        {
            "id": 99443,
            "original_name": "Die wilden Zwanziger",
            "popularity": 0.6
        }
    ]
}