{
    "data": [
        {
            "id": 3196,
            "original_name": "Washington Journal",
            "popularity": 0.6
        },
        {
            "id": 6864,
            "original_name": "Washington Exclusive",
            "popularity": 0.6
        },
        {
            "id": 10478,
            "original_name": "Washington Week",
            "popularity": 0.636
        },
        {
            "id": 11827,
            "original_name": "Inside Washington",
            "popularity": 0.6
        },
        {
            "id": 16801,
            "original_name": "Too Posh to Wash",
            "popularity": 0.6
        },
        {
            "id": 17294,
            "original_name": "Petey Greene's Washington",
            "popularity": 0.6
        },
        {
            "id": 17796,
            "original_name": "Washingtonienne",
            "popularity": 0.6
        },
        {
            "id": 17982,
            "original_name": "Mr. Smith Goes to Washington",
            "popularity": 1.416
        },
        {
            "id": 18559,
            "original_name": "A Visit to Washington with Mrs. Lyndon B. Johnson",
            "popularity": 0.6
        },
        {
            "id": 18945,
            "original_name": "Mr. Rooney Goes to Washington",
            "popularity": 0.6
        },
        {
            "id": 19795,
            "original_name": "Whitewash",
            "popularity": 0.6
        },
        {
            "id": 21344,
            "original_name": "George Washington",
            "popularity": 3.194
        },
        {
            "id": 22789,
            "original_name": "The Adventures of Captain Pugwash",
            "popularity": 0.6
        },
        {
            "id": 24984,
            "original_name": "Washington Square",
            "popularity": 0.6
        },
        {
            "id": 26433,
            "original_name": "Christmas in Washington",
            "popularity": 3.101
        },
        {
            "id": 26603,
            "original_name": "Grandpa Goes to Washington",
            "popularity": 3.255
        },
        {
            "id": 27605,
            "original_name": "Washington: Behind Closed Doors",
            "popularity": 2.259
        },
        {
            "id": 28216,
            "original_name": "Washingtoon",
            "popularity": 1.653
        },
        {
            "id": 30003,
            "original_name": "Captain Pugwash",
            "popularity": 0.875
        },
        {
            "id": 32841,
            "original_name": "Washington Report",
            "popularity": 0.6
        },
        {
            "id": 40194,
            "original_name": "Backwash",
            "popularity": 0.6
        },
        {
            "id": 40794,
            "original_name": "NightWash",
            "popularity": 2.619
        },
        {
            "id": 41499,
            "original_name": "Washington Watch with Roland Martin",
            "popularity": 0.6
        },
        {
            "id": 47717,
            "original_name": "George Washington II: The Forging of a Nation",
            "popularity": 0.6
        },
        {
            "id": 54359,
            "original_name": "Washaa al-Hawa",
            "popularity": 0.6
        },
        {
            "id": 57276,
            "original_name": "TURN: Washington's Spies",
            "popularity": 7.977
        },
        {
            "id": 58486,
            "original_name": "Washington Heights",
            "popularity": 0.6
        },
        {
            "id": 67002,
            "original_name": "Car Wash Bloopers",
            "popularity": 0.6
        },
        {
            "id": 76725,
            "original_name": "Swashbuckle",
            "popularity": 0.875
        },
        {
            "id": 79748,
            "original_name": "Brainwashing Stacey",
            "popularity": 0.6
        },
        {
            "id": 80309,
            "original_name": "All About the Washingtons",
            "popularity": 4.328
        },
        {
            "id": 91255,
            "original_name": "Kuwasha",
            "popularity": 0.6
        },
        {
            "id": 98628,
            "original_name": "Washington",
            "popularity": 1.999
        },
        {
            "id": 137955,
            "original_name": "One Deadly Weekend in America: A Killing at the Carwash",
            "popularity": 0.6
        }
    ],
    "relations": [
        {
            "character": "washi"
        },
        {
            "character": "washa"
        },
        {
            "character": "washb"
        }
    ],
    "top20": [
        {
            "id": 57276,
            "original_name": "TURN: Washington's Spies",
            "popularity": 7.977
        },
        {
            "id": 80309,
            "original_name": "All About the Washingtons",
            "popularity": 4.328
        },
        {
            "id": 26603,
            "original_name": "Grandpa Goes to Washington",
            "popularity": 3.255
        },
        {
            "id": 21344,
            "original_name": "George Washington",
            "popularity": 3.194
        },
        {
            "id": 26433,
            "original_name": "Christmas in Washington",
            "popularity": 3.101
        },
        {
            "id": 40794,
            "original_name": "NightWash",
            "popularity": 2.619
        },
        {
            "id": 27605,
            "original_name": "Washington: Behind Closed Doors",
            "popularity": 2.259
        },
        {
            "id": 98628,
            "original_name": "Washington",
            "popularity": 1.999
        },
        {
            "id": 28216,
            "original_name": "Washingtoon",
            "popularity": 1.653
        },
        {
            "id": 17982,
            "original_name": "Mr. Smith Goes to Washington",
            "popularity": 1.416
        },
        {
            "id": 76725,
            "original_name": "Swashbuckle",
            "popularity": 0.875
        },
        {
            "id": 30003,
            "original_name": "Captain Pugwash",
            "popularity": 0.875
        },
        {
            "id": 10478,
            "original_name": "Washington Week",
            "popularity": 0.636
        },
        {
            "id": 3196,
            "original_name": "Washington Journal",
            "popularity": 0.6
        },
        {
            "id": 11827,
            "original_name": "Inside Washington",
            "popularity": 0.6
        },
        {
            "id": 6864,
            "original_name": "Washington Exclusive",
            "popularity": 0.6
        },
        {
            "id": 17796,
            "original_name": "Washingtonienne",
            "popularity": 0.6
        },
        {
            "id": 18559,
            "original_name": "A Visit to Washington with Mrs. Lyndon B. Johnson",
            "popularity": 0.6
        },
        {
            "id": 17294,
            "original_name": "Petey Greene's Washington",
            "popularity": 0.6
        },
        {
            "id": 16801,
            "original_name": "Too Posh to Wash",
            "popularity": 0.6
        }
    ]
}