{
    "data": [
        {
            "id": 1111,
            "original_name": "Making Waves",
            "popularity": 1.59
        },
        {
            "id": 2203,
            "original_name": "First Wave",
            "popularity": 17.901
        },
        {
            "id": 3498,
            "original_name": "Wizards of Waverly Place",
            "popularity": 33.539
        },
        {
            "id": 3874,
            "original_name": "Airwaves",
            "popularity": 0.658
        },
        {
            "id": 7610,
            "original_name": "Big Wave Dave's",
            "popularity": 1.191
        },
        {
            "id": 9772,
            "original_name": "Love Boat: The Next Wave",
            "popularity": 6.236
        },
        {
            "id": 11785,
            "original_name": "New Wave Theatre",
            "popularity": 0.6
        },
        {
            "id": 15510,
            "original_name": "Shockwave",
            "popularity": 0.6
        },
        {
            "id": 18952,
            "original_name": "Amber Waves",
            "popularity": 0.6
        },
        {
            "id": 18981,
            "original_name": "WAVER(\u30a6\u30a7\u30fc\u30d0\u30fc)",
            "popularity": 7.786
        },
        {
            "id": 24447,
            "original_name": "Brainwave",
            "popularity": 0.6
        },
        {
            "id": 24897,
            "original_name": "Wavelength",
            "popularity": 0.6
        },
        {
            "id": 27915,
            "original_name": "The Waverly Wonders",
            "popularity": 0.6
        },
        {
            "id": 29721,
            "original_name": "Comedy Wavelength",
            "popularity": 0.6
        },
        {
            "id": 35426,
            "original_name": "Killer Wave",
            "popularity": 3.911
        },
        {
            "id": 35616,
            "original_name": "Feasting On Waves",
            "popularity": 0.6
        },
        {
            "id": 45368,
            "original_name": "Crime Wave",
            "popularity": 0.6
        },
        {
            "id": 45633,
            "original_name": "Billabong XXL Global Big Wave Awards",
            "popularity": 0.6
        },
        {
            "id": 58723,
            "original_name": "The Restless Wave",
            "popularity": 0.6
        },
        {
            "id": 61344,
            "original_name": "The Secret Life of Waves",
            "popularity": 0.6
        },
        {
            "id": 76387,
            "original_name": "The Wave",
            "popularity": 0.6
        },
        {
            "id": 83359,
            "original_name": "Welcome to Waverly",
            "popularity": 0.6
        },
        {
            "id": 86720,
            "original_name": "Sound Waves: The Symphony of Physics",
            "popularity": 0.849
        },
        {
            "id": 113780,
            "original_name": "WAVE!!\uff5e\u30b5\u30fc\u30d5\u30a3\u30f3\u3084\u3063\u307a!!\uff5e",
            "popularity": 15.86
        },
        {
            "id": 121481,
            "original_name": "100 Foot Wave",
            "popularity": 13.479
        },
        {
            "id": 125378,
            "original_name": "World's Greatest Shipwrecks: History Beneath the Waves",
            "popularity": 1.205
        },
        {
            "id": 130251,
            "original_name": "Dame Edna Rules The Waves",
            "popularity": 0.6
        },
        {
            "id": 131811,
            "original_name": "New Wave Warriors",
            "popularity": 0.6
        },
        {
            "id": 132860,
            "original_name": "Submarine Life Under the Waves",
            "popularity": 4.891
        }
    ],
    "relations": [
        {
            "character": "waves"
        },
        {
            "character": "waver"
        },
        {
            "character": "wavel"
        },
        {
            "character": "wave!"
        }
    ],
    "top20": [
        {
            "id": 3498,
            "original_name": "Wizards of Waverly Place",
            "popularity": 33.539
        },
        {
            "id": 2203,
            "original_name": "First Wave",
            "popularity": 17.901
        },
        {
            "id": 113780,
            "original_name": "WAVE!!\uff5e\u30b5\u30fc\u30d5\u30a3\u30f3\u3084\u3063\u307a!!\uff5e",
            "popularity": 15.86
        },
        {
            "id": 121481,
            "original_name": "100 Foot Wave",
            "popularity": 13.479
        },
        {
            "id": 18981,
            "original_name": "WAVER(\u30a6\u30a7\u30fc\u30d0\u30fc)",
            "popularity": 7.786
        },
        {
            "id": 9772,
            "original_name": "Love Boat: The Next Wave",
            "popularity": 6.236
        },
        {
            "id": 132860,
            "original_name": "Submarine Life Under the Waves",
            "popularity": 4.891
        },
        {
            "id": 35426,
            "original_name": "Killer Wave",
            "popularity": 3.911
        },
        {
            "id": 1111,
            "original_name": "Making Waves",
            "popularity": 1.59
        },
        {
            "id": 125378,
            "original_name": "World's Greatest Shipwrecks: History Beneath the Waves",
            "popularity": 1.205
        },
        {
            "id": 7610,
            "original_name": "Big Wave Dave's",
            "popularity": 1.191
        },
        {
            "id": 86720,
            "original_name": "Sound Waves: The Symphony of Physics",
            "popularity": 0.849
        },
        {
            "id": 3874,
            "original_name": "Airwaves",
            "popularity": 0.658
        },
        {
            "id": 24897,
            "original_name": "Wavelength",
            "popularity": 0.6
        },
        {
            "id": 18952,
            "original_name": "Amber Waves",
            "popularity": 0.6
        },
        {
            "id": 11785,
            "original_name": "New Wave Theatre",
            "popularity": 0.6
        },
        {
            "id": 27915,
            "original_name": "The Waverly Wonders",
            "popularity": 0.6
        },
        {
            "id": 15510,
            "original_name": "Shockwave",
            "popularity": 0.6
        },
        {
            "id": 29721,
            "original_name": "Comedy Wavelength",
            "popularity": 0.6
        },
        {
            "id": 24447,
            "original_name": "Brainwave",
            "popularity": 0.6
        }
    ]
}