{
    "data": [
        {
            "id": 57874,
            "original_name": "Wong wean hua jai",
            "popularity": 0.6
        },
        {
            "id": 57997,
            "original_name": "Wong wean hua jai",
            "popularity": 0.6
        }
    ],
    "relations": [],
    "top20": [
        {
            "id": 57874,
            "original_name": "Wong wean hua jai",
            "popularity": 0.6
        },
        {
            "id": 57997,
            "original_name": "Wong wean hua jai",
            "popularity": 0.6
        }
    ]
}