{
    "data": [
        {
            "id": 186,
            "original_name": "Weeds",
            "popularity": 48.506
        },
        {
            "id": 20015,
            "original_name": "Sacred Weeds",
            "popularity": 0.6
        },
        {
            "id": 24301,
            "original_name": "Mijn Tweede Thuis",
            "popularity": 0.6
        },
        {
            "id": 35748,
            "original_name": "Tweede Leven, Een",
            "popularity": 0.6
        },
        {
            "id": 36735,
            "original_name": "The Grumbleweeds Radio Show",
            "popularity": 0.6
        },
        {
            "id": 42283,
            "original_name": "Weed Wars",
            "popularity": 0.654
        },
        {
            "id": 45739,
            "original_name": "Tweed's Russian Train Trip",
            "popularity": 0.6
        },
        {
            "id": 54168,
            "original_name": "Tarweed El-Sharesa",
            "popularity": 0.6
        },
        {
            "id": 59648,
            "original_name": "Weed Country",
            "popularity": 1.574
        },
        {
            "id": 64916,
            "original_name": "American Weed",
            "popularity": 0.614
        },
        {
            "id": 65773,
            "original_name": "Weediquette",
            "popularity": 1.14
        },
        {
            "id": 70147,
            "original_name": "Geraldina Die Tweede",
            "popularity": 0.6
        },
        {
            "id": 75849,
            "original_name": "Holly Weed",
            "popularity": 1.168
        },
        {
            "id": 80788,
            "original_name": "Hollyweed",
            "popularity": 1.598
        },
        {
            "id": 110505,
            "original_name": "Patrick Gower: On Weed",
            "popularity": 0.6
        }
    ],
    "relations": [],
    "top20": [
        {
            "id": 186,
            "original_name": "Weeds",
            "popularity": 48.506
        },
        {
            "id": 20015,
            "original_name": "Sacred Weeds",
            "popularity": 0.6
        },
        {
            "id": 24301,
            "original_name": "Mijn Tweede Thuis",
            "popularity": 0.6
        },
        {
            "id": 35748,
            "original_name": "Tweede Leven, Een",
            "popularity": 0.6
        },
        {
            "id": 36735,
            "original_name": "The Grumbleweeds Radio Show",
            "popularity": 0.6
        },
        {
            "id": 42283,
            "original_name": "Weed Wars",
            "popularity": 0.654
        },
        {
            "id": 45739,
            "original_name": "Tweed's Russian Train Trip",
            "popularity": 0.6
        },
        {
            "id": 54168,
            "original_name": "Tarweed El-Sharesa",
            "popularity": 0.6
        },
        {
            "id": 59648,
            "original_name": "Weed Country",
            "popularity": 1.574
        },
        {
            "id": 64916,
            "original_name": "American Weed",
            "popularity": 0.614
        },
        {
            "id": 65773,
            "original_name": "Weediquette",
            "popularity": 1.14
        },
        {
            "id": 70147,
            "original_name": "Geraldina Die Tweede",
            "popularity": 0.6
        },
        {
            "id": 75849,
            "original_name": "Holly Weed",
            "popularity": 1.168
        },
        {
            "id": 80788,
            "original_name": "Hollyweed",
            "popularity": 1.598
        },
        {
            "id": 110505,
            "original_name": "Patrick Gower: On Weed",
            "popularity": 0.6
        }
    ]
}