{
    "data": [
        {
            "id": 115974,
            "original_name": "Westpol: Eins zu eins",
            "popularity": 3.145
        }
    ],
    "relations": [],
    "top20": [
        {
            "id": 115974,
            "original_name": "Westpol: Eins zu eins",
            "popularity": 3.145
        }
    ]
}