{
    "data": [
        {
            "id": 30,
            "original_name": "St. Elsewhere",
            "popularity": 24.17
        },
        {
            "id": 750,
            "original_name": "Where the Heart Is",
            "popularity": 4.847
        },
        {
            "id": 926,
            "original_name": "Scooby-Doo, Where Are You?",
            "popularity": 31.806
        },
        {
            "id": 965,
            "original_name": "Where in the World Is Carmen Sandiego?",
            "popularity": 3.403
        },
        {
            "id": 1544,
            "original_name": "Where Are They Now",
            "popularity": 0.6
        },
        {
            "id": 2081,
            "original_name": "South of Nowhere",
            "popularity": 5.35
        },
        {
            "id": 2491,
            "original_name": "Max and Paddy's Road to Nowhere",
            "popularity": 2.467
        },
        {
            "id": 2716,
            "original_name": "Where I Live",
            "popularity": 0.781
        },
        {
            "id": 2978,
            "original_name": "Where the Hell Are We and What Day Is It... This Is Static-X",
            "popularity": 0.6
        },
        {
            "id": 3492,
            "original_name": "Where the Girls Are",
            "popularity": 0.6
        },
        {
            "id": 3727,
            "original_name": "Car 54, Where Are You?",
            "popularity": 1.269
        },
        {
            "id": 3945,
            "original_name": "Where on Earth is Carmen Sandiego?",
            "popularity": 10.487
        },
        {
            "id": 4091,
            "original_name": "Where in Time Is Carmen Sandiego?",
            "popularity": 2.862
        },
        {
            "id": 4112,
            "original_name": "Where's Waldo?: The Animated Series",
            "popularity": 12.562
        },
        {
            "id": 6315,
            "original_name": "Pontoffel Pock, Where Are You?",
            "popularity": 0.6
        },
        {
            "id": 7090,
            "original_name": "We're Getting Nowhere",
            "popularity": 0.6
        },
        {
            "id": 7102,
            "original_name": "Where Are They Now?",
            "popularity": 0.6
        },
        {
            "id": 8433,
            "original_name": "Boldly Going Nowhere",
            "popularity": 0.96
        },
        {
            "id": 9133,
            "original_name": "They Came From Somewhere Else",
            "popularity": 1.125
        },
        {
            "id": 9255,
            "original_name": "Going Nowhere Slowly",
            "popularity": 0.6
        },
        {
            "id": 10136,
            "original_name": "Where the Heart Is",
            "popularity": 8.831
        },
        {
            "id": 10494,
            "original_name": "Nowhere Man",
            "popularity": 3.312
        },
        {
            "id": 10799,
            "original_name": "Where My Dogs At?",
            "popularity": 3.062
        },
        {
            "id": 11173,
            "original_name": "Where's Huddles?",
            "popularity": 0.973
        },
        {
            "id": 12137,
            "original_name": "The Who, What, or Where Game",
            "popularity": 0.6
        },
        {
            "id": 12322,
            "original_name": "Where the Action Is",
            "popularity": 0.929
        },
        {
            "id": 13418,
            "original_name": "Neverwhere",
            "popularity": 4.82
        },
        {
            "id": 15594,
            "original_name": "A River Somewhere",
            "popularity": 0.6
        },
        {
            "id": 16016,
            "original_name": "Where Are They Now?",
            "popularity": 9.691
        },
        {
            "id": 16435,
            "original_name": "Where in the World",
            "popularity": 0.6
        },
        {
            "id": 17253,
            "original_name": "Where's Rodney?",
            "popularity": 0.62
        },
        {
            "id": 17608,
            "original_name": "On the Street Where You Live",
            "popularity": 0.6
        },
        {
            "id": 19045,
            "original_name": "Where We Stand",
            "popularity": 0.6
        },
        {
            "id": 19812,
            "original_name": "Put Your Money Where Your Mouth Is",
            "popularity": 1.232
        },
        {
            "id": 21102,
            "original_name": "Where Was I?",
            "popularity": 0.6
        },
        {
            "id": 22323,
            "original_name": "Where Are They Now",
            "popularity": 0.6
        },
        {
            "id": 23878,
            "original_name": "Where's Raymond?",
            "popularity": 2.223
        },
        {
            "id": 24379,
            "original_name": "Where's My Mortgage Gone?",
            "popularity": 0.6
        },
        {
            "id": 25912,
            "original_name": "We Know Where You Live",
            "popularity": 0.6
        },
        {
            "id": 26150,
            "original_name": "Where Did It Come From?",
            "popularity": 0.6
        },
        {
            "id": 26182,
            "original_name": "Where Do I Sit?",
            "popularity": 0.6
        },
        {
            "id": 30005,
            "original_name": "Have I Got You ... Where You Want Me?",
            "popularity": 0.6
        },
        {
            "id": 31151,
            "original_name": "Somewhere in My Heart",
            "popularity": 0.6
        },
        {
            "id": 31612,
            "original_name": "Where Is Warehouse Mouse?",
            "popularity": 0.6
        },
        {
            "id": 31944,
            "original_name": "Where the Heart Is",
            "popularity": 0.6
        },
        {
            "id": 34239,
            "original_name": "Where the Sky Begins",
            "popularity": 0.6
        },
        {
            "id": 34259,
            "original_name": "Where It's At",
            "popularity": 0.6
        },
        {
            "id": 34280,
            "original_name": "Where Once They Stood",
            "popularity": 0.6
        },
        {
            "id": 34505,
            "original_name": "Tooth Fairy, Where Are You?",
            "popularity": 0.6
        },
        {
            "id": 35155,
            "original_name": "Where's Elvis This Week?",
            "popularity": 0.6
        },
        {
            "id": 39609,
            "original_name": "Go Back To Where You Came From",
            "popularity": 0.6
        },
        {
            "id": 39786,
            "original_name": "Where Are My Children?",
            "popularity": 0.6
        },
        {
            "id": 42852,
            "original_name": "Where's Rogan?",
            "popularity": 0.6
        },
        {
            "id": 45486,
            "original_name": "Where Was Spring?",
            "popularity": 0.6
        },
        {
            "id": 47226,
            "original_name": "Where Pigeons Go to Die",
            "popularity": 0.6
        },
        {
            "id": 49682,
            "original_name": "Who Are the DeBolts? And Where Did They Get Nineteen Kids?",
            "popularity": 0.6
        },
        {
            "id": 50857,
            "original_name": "The Shirley MacLaine Special: Where Do We Go from Here?",
            "popularity": 0.6
        },
        {
            "id": 54861,
            "original_name": "Tell Me Where It Hurts",
            "popularity": 0.6
        },
        {
            "id": 54866,
            "original_name": "Nowhere Boys",
            "popularity": 13.71
        },
        {
            "id": 55871,
            "original_name": "Chefs Put Your Menu Where Your Mouth Is",
            "popularity": 0.6
        },
        {
            "id": 56332,
            "original_name": "The Whereabouts of Jenny",
            "popularity": 0.6
        },
        {
            "id": 56495,
            "original_name": "Where We Stand II",
            "popularity": 0.6
        },
        {
            "id": 59127,
            "original_name": "Where You at Baby?",
            "popularity": 0.6
        },
        {
            "id": 64096,
            "original_name": "100 Miles From Nowhere",
            "popularity": 1.055
        },
        {
            "id": 65007,
            "original_name": "Nowhere to Hide",
            "popularity": 0.6
        },
        {
            "id": 67498,
            "original_name": "Oprah: Where Are They Now?",
            "popularity": 1.425
        },
        {
            "id": 69308,
            "original_name": "Where the Bears Are",
            "popularity": 3.837
        },
        {
            "id": 70390,
            "original_name": "Somewhere Between",
            "popularity": 11.418
        },
        {
            "id": 72483,
            "original_name": "Where There's Blame, There's a Claim",
            "popularity": 0.6
        },
        {
            "id": 75637,
            "original_name": "House Hunters: Where Are They Now?",
            "popularity": 0.6
        },
        {
            "id": 75954,
            "original_name": "Nowhere Fast",
            "popularity": 0.6
        },
        {
            "id": 77186,
            "original_name": "Alice to Nowhere",
            "popularity": 0.6
        },
        {
            "id": 79343,
            "original_name": "ASTRO \"Where Have You Been?\"",
            "popularity": 1.888
        },
        {
            "id": 81241,
            "original_name": "Dispatches from Elsewhere",
            "popularity": 11.247
        },
        {
            "id": 86252,
            "original_name": "Timothy Spall: Somewhere at Sea",
            "popularity": 0.831
        },
        {
            "id": 86528,
            "original_name": "Where to I Do?",
            "popularity": 0.6
        },
        {
            "id": 89096,
            "original_name": "Somewhere Over the Sky",
            "popularity": 0.6
        },
        {
            "id": 90257,
            "original_name": "Little Fires Everywhere",
            "popularity": 22.99
        },
        {
            "id": 94518,
            "original_name": "Nomad of Nowhere",
            "popularity": 1.283
        },
        {
            "id": 96333,
            "original_name": "Where Is Franco?",
            "popularity": 0.6
        },
        {
            "id": 103742,
            "original_name": "My 600-lb Life: Where Are They Now?",
            "popularity": 1.819
        },
        {
            "id": 105348,
            "original_name": "Where's Waldo?",
            "popularity": 1.088
        },
        {
            "id": 105876,
            "original_name": "Home Is Where the Art Is",
            "popularity": 0.6
        },
        {
            "id": 106175,
            "original_name": "Where Do We Go From Here?",
            "popularity": 0.6
        },
        {
            "id": 106308,
            "original_name": "Somebody Somewhere",
            "popularity": 1.285
        },
        {
            "id": 108338,
            "original_name": "Where the Trail Ends",
            "popularity": 0.6
        },
        {
            "id": 108862,
            "original_name": "Where's My Water?: Swampy's Underground Adventures",
            "popularity": 1.14
        },
        {
            "id": 114725,
            "original_name": "Where's Chicky?",
            "popularity": 1.221
        },
        {
            "id": 118471,
            "original_name": "Toddlers & Tiaras: Where Are They Now?",
            "popularity": 0.6
        },
        {
            "id": 119965,
            "original_name": "A New Life in the Sun: Where Are They Now",
            "popularity": 1.168
        },
        {
            "id": 120041,
            "original_name": "Where Murder Lies",
            "popularity": 0.661
        },
        {
            "id": 125136,
            "original_name": "Happily Wherever",
            "popularity": 0.6
        },
        {
            "id": 128577,
            "original_name": "Out Where the West Begins",
            "popularity": 6.961
        },
        {
            "id": 132546,
            "original_name": "Where We Call Home",
            "popularity": 0.6
        },
        {
            "id": 139098,
            "original_name": "Where are you, Eun-seok!",
            "popularity": 7.252
        }
    ],
    "relations": [
        {
            "character": "wherea"
        },
        {
            "character": "wherev"
        }
    ],
    "top20": [
        {
            "id": 926,
            "original_name": "Scooby-Doo, Where Are You?",
            "popularity": 31.806
        },
        {
            "id": 30,
            "original_name": "St. Elsewhere",
            "popularity": 24.17
        },
        {
            "id": 90257,
            "original_name": "Little Fires Everywhere",
            "popularity": 22.99
        },
        {
            "id": 54866,
            "original_name": "Nowhere Boys",
            "popularity": 13.71
        },
        {
            "id": 4112,
            "original_name": "Where's Waldo?: The Animated Series",
            "popularity": 12.562
        },
        {
            "id": 70390,
            "original_name": "Somewhere Between",
            "popularity": 11.418
        },
        {
            "id": 81241,
            "original_name": "Dispatches from Elsewhere",
            "popularity": 11.247
        },
        {
            "id": 3945,
            "original_name": "Where on Earth is Carmen Sandiego?",
            "popularity": 10.487
        },
        {
            "id": 16016,
            "original_name": "Where Are They Now?",
            "popularity": 9.691
        },
        {
            "id": 10136,
            "original_name": "Where the Heart Is",
            "popularity": 8.831
        },
        {
            "id": 139098,
            "original_name": "Where are you, Eun-seok!",
            "popularity": 7.252
        },
        {
            "id": 128577,
            "original_name": "Out Where the West Begins",
            "popularity": 6.961
        },
        {
            "id": 2081,
            "original_name": "South of Nowhere",
            "popularity": 5.35
        },
        {
            "id": 750,
            "original_name": "Where the Heart Is",
            "popularity": 4.847
        },
        {
            "id": 13418,
            "original_name": "Neverwhere",
            "popularity": 4.82
        },
        {
            "id": 69308,
            "original_name": "Where the Bears Are",
            "popularity": 3.837
        },
        {
            "id": 965,
            "original_name": "Where in the World Is Carmen Sandiego?",
            "popularity": 3.403
        },
        {
            "id": 10494,
            "original_name": "Nowhere Man",
            "popularity": 3.312
        },
        {
            "id": 10799,
            "original_name": "Where My Dogs At?",
            "popularity": 3.062
        },
        {
            "id": 4091,
            "original_name": "Where in Time Is Carmen Sandiego?",
            "popularity": 2.862
        }
    ]
}