{
    "data": [
        {
            "id": 1258,
            "original_name": "Wicked Wicked Games",
            "popularity": 2.97
        },
        {
            "id": 5601,
            "original_name": "Pelswick",
            "popularity": 4.15
        },
        {
            "id": 9546,
            "original_name": "Swizzlewick",
            "popularity": 0.6
        },
        {
            "id": 10333,
            "original_name": "The Kwicky Koala Show",
            "popularity": 0.6
        },
        {
            "id": 11392,
            "original_name": "Hardwicke House",
            "popularity": 0.6
        },
        {
            "id": 13341,
            "original_name": "Camberwick Green",
            "popularity": 0.842
        },
        {
            "id": 15851,
            "original_name": "Wicked Science",
            "popularity": 3.214
        },
        {
            "id": 17306,
            "original_name": "Wickedly Perfect",
            "popularity": 0.6
        },
        {
            "id": 18138,
            "original_name": "Pretty Wicked",
            "popularity": 0.6
        },
        {
            "id": 18186,
            "original_name": "Eastwick",
            "popularity": 9.905
        },
        {
            "id": 27849,
            "original_name": "It's Wicked",
            "popularity": 0.965
        },
        {
            "id": 32627,
            "original_name": "Wicked Summer",
            "popularity": 0.6
        },
        {
            "id": 35209,
            "original_name": "The Pickwick Papers",
            "popularity": 1.618
        },
        {
            "id": 39538,
            "original_name": "Wicked Attraction",
            "popularity": 1.557
        },
        {
            "id": 42371,
            "original_name": "Babblewick Hall",
            "popularity": 0.6
        },
        {
            "id": 43607,
            "original_name": "In Concert Classics Featuring Dionne Warwick",
            "popularity": 0.6
        },
        {
            "id": 48331,
            "original_name": "My Wicked, Wicked Ways... The Legend of Errol Flynn",
            "popularity": 0.6
        },
        {
            "id": 55608,
            "original_name": "Chris Hardwick's All Star Celebrity Bowling",
            "popularity": 0.6
        },
        {
            "id": 56516,
            "original_name": "Wicks",
            "popularity": 0.6
        },
        {
            "id": 58422,
            "original_name": "Pretty Wicked Moms",
            "popularity": 0.6
        },
        {
            "id": 59462,
            "original_name": "Wicked Single",
            "popularity": 0.6
        },
        {
            "id": 59652,
            "original_name": "Inside Gatwick",
            "popularity": 1.4
        },
        {
            "id": 62426,
            "original_name": "Weekend Escapes with Warwick Davis",
            "popularity": 0.6
        },
        {
            "id": 62598,
            "original_name": "Wicked Tuna",
            "popularity": 3.438
        },
        {
            "id": 62927,
            "original_name": "Wicked City",
            "popularity": 4.505
        },
        {
            "id": 63632,
            "original_name": "Zwickelbach & Co",
            "popularity": 1.4
        },
        {
            "id": 63848,
            "original_name": "Hei\u00dfe Wickel - kalte G\u00fcsse",
            "popularity": 0.904
        },
        {
            "id": 64054,
            "original_name": "Wicked Tuna: Outer Banks",
            "popularity": 3.516
        },
        {
            "id": 65016,
            "original_name": "Descendants: Wicked World",
            "popularity": 8.502
        },
        {
            "id": 65660,
            "original_name": "Wickie und die starken M\u00e4nner",
            "popularity": 0.716
        },
        {
            "id": 87404,
            "original_name": "The Wicked Wife",
            "popularity": 0.6
        },
        {
            "id": 89774,
            "original_name": "\u6076\u9b54\u503a\u4e3b / \u0e2a\u0e32\u0e27\u0e19\u0e49\u0e2d\u0e22\u0e23\u0e49\u0e2d\u0e22\u0e2b\u0e21\u0e49\u0e2d / My Wicked Debtor",
            "popularity": 0.6
        },
        {
            "id": 101901,
            "original_name": "Wicked Enigma",
            "popularity": 0.6
        },
        {
            "id": 116339,
            "original_name": "Joe Wicks The Body Coach Workout",
            "popularity": 0.6
        },
        {
            "id": 119492,
            "original_name": "Talking with Chris Hardwick",
            "popularity": 0.664
        },
        {
            "id": 120632,
            "original_name": "Call Me Madame: Backstage at 'Wicked' with Sheryl Lee Ralph",
            "popularity": 6.894
        },
        {
            "id": 124715,
            "original_name": "Fly Girl: Backstage at 'Wicked' with Lindsay Mendez",
            "popularity": 6.557
        },
        {
            "id": 125860,
            "original_name": "Les aventures de Monsieur Pickwick",
            "popularity": 0.6
        },
        {
            "id": 126215,
            "original_name": "The Chadwick Journals",
            "popularity": 0.6
        },
        {
            "id": 126452,
            "original_name": "A Little Sparkle: Backstage at 'Wicked' with Amanda Jane Cooper",
            "popularity": 0.6
        },
        {
            "id": 127013,
            "original_name": "Think Pink: Backstage at 'Wicked' with Kara Lindsay",
            "popularity": 6.158
        },
        {
            "id": 138028,
            "original_name": "Hey Duggee & Joe Wicks - The Workout Badges",
            "popularity": 0.635
        },
        {
            "id": 138492,
            "original_name": "The Spiderwick Chronicles",
            "popularity": 1.09
        }
    ],
    "relations": [
        {
            "character": "wicke"
        },
        {
            "character": "wicky"
        },
        {
            "character": "wicks"
        },
        {
            "character": "wicki"
        }
    ],
    "top20": [
        {
            "id": 18186,
            "original_name": "Eastwick",
            "popularity": 9.905
        },
        {
            "id": 65016,
            "original_name": "Descendants: Wicked World",
            "popularity": 8.502
        },
        {
            "id": 120632,
            "original_name": "Call Me Madame: Backstage at 'Wicked' with Sheryl Lee Ralph",
            "popularity": 6.894
        },
        {
            "id": 124715,
            "original_name": "Fly Girl: Backstage at 'Wicked' with Lindsay Mendez",
            "popularity": 6.557
        },
        {
            "id": 127013,
            "original_name": "Think Pink: Backstage at 'Wicked' with Kara Lindsay",
            "popularity": 6.158
        },
        {
            "id": 62927,
            "original_name": "Wicked City",
            "popularity": 4.505
        },
        {
            "id": 5601,
            "original_name": "Pelswick",
            "popularity": 4.15
        },
        {
            "id": 64054,
            "original_name": "Wicked Tuna: Outer Banks",
            "popularity": 3.516
        },
        {
            "id": 62598,
            "original_name": "Wicked Tuna",
            "popularity": 3.438
        },
        {
            "id": 15851,
            "original_name": "Wicked Science",
            "popularity": 3.214
        },
        {
            "id": 1258,
            "original_name": "Wicked Wicked Games",
            "popularity": 2.97
        },
        {
            "id": 35209,
            "original_name": "The Pickwick Papers",
            "popularity": 1.618
        },
        {
            "id": 39538,
            "original_name": "Wicked Attraction",
            "popularity": 1.557
        },
        {
            "id": 63632,
            "original_name": "Zwickelbach & Co",
            "popularity": 1.4
        },
        {
            "id": 59652,
            "original_name": "Inside Gatwick",
            "popularity": 1.4
        },
        {
            "id": 138492,
            "original_name": "The Spiderwick Chronicles",
            "popularity": 1.09
        },
        {
            "id": 27849,
            "original_name": "It's Wicked",
            "popularity": 0.965
        },
        {
            "id": 63848,
            "original_name": "Hei\u00dfe Wickel - kalte G\u00fcsse",
            "popularity": 0.904
        },
        {
            "id": 13341,
            "original_name": "Camberwick Green",
            "popularity": 0.842
        },
        {
            "id": 65660,
            "original_name": "Wickie und die starken M\u00e4nner",
            "popularity": 0.716
        }
    ]
}