{
    "data": [
        {
            "id": 14239,
            "original_name": "The Peter Serafinowicz Show",
            "popularity": 2.204
        },
        {
            "id": 66895,
            "original_name": "Podr\u00f3\u017ce Kulinarne Roberta Mak\u0142owicza",
            "popularity": 0.6
        }
    ],
    "relations": [],
    "top20": [
        {
            "id": 14239,
            "original_name": "The Peter Serafinowicz Show",
            "popularity": 2.204
        },
        {
            "id": 66895,
            "original_name": "Podr\u00f3\u017ce Kulinarne Roberta Mak\u0142owicza",
            "popularity": 0.6
        }
    ]
}