{
    "data": [
        {
            "id": 24313,
            "original_name": "Skwids",
            "popularity": 0.6
        }
    ],
    "relations": [],
    "top20": [
        {
            "id": 24313,
            "original_name": "Skwids",
            "popularity": 0.6
        }
    ]
}