{
    "data": [
        {
            "id": 46055,
            "original_name": "Schwiegertochter gesucht",
            "popularity": 0.92
        },
        {
            "id": 63138,
            "original_name": "Meine Schwiegers\u00f6hne und ich",
            "popularity": 0.804
        }
    ],
    "relations": [],
    "top20": [
        {
            "id": 46055,
            "original_name": "Schwiegertochter gesucht",
            "popularity": 0.92
        },
        {
            "id": 63138,
            "original_name": "Meine Schwiegers\u00f6hne und ich",
            "popularity": 0.804
        }
    ]
}