{
    "data": [
        {
            "id": 20,
            "original_name": "Wildboyz",
            "popularity": 5.032
        },
        {
            "id": 663,
            "original_name": "Wild West Tech",
            "popularity": 1.699
        },
        {
            "id": 997,
            "original_name": "Wild Square",
            "popularity": 0.6
        },
        {
            "id": 1031,
            "original_name": "Wild & Crazy Kids",
            "popularity": 1.61
        },
        {
            "id": 1123,
            "original_name": "Really Wild Animals",
            "popularity": 0.871
        },
        {
            "id": 1193,
            "original_name": "Wild at Heart",
            "popularity": 3.649
        },
        {
            "id": 1381,
            "original_name": "Life Is Wild",
            "popularity": 1.551
        },
        {
            "id": 1594,
            "original_name": "The Future Is Wild",
            "popularity": 1.4
        },
        {
            "id": 1700,
            "original_name": "Wild, Wild Women",
            "popularity": 0.601
        },
        {
            "id": 2043,
            "original_name": "Darcy's Wild Life",
            "popularity": 2.884
        },
        {
            "id": 2299,
            "original_name": "Nick Cannon Presents: Wild 'N Out",
            "popularity": 19.785
        },
        {
            "id": 2408,
            "original_name": "The Wild Thornberrys",
            "popularity": 19.343
        },
        {
            "id": 2464,
            "original_name": "Wildfire",
            "popularity": 11.035
        },
        {
            "id": 3283,
            "original_name": "Wild Palms",
            "popularity": 5.898
        },
        {
            "id": 3393,
            "original_name": "Wild Instinct",
            "popularity": 0.6
        },
        {
            "id": 3944,
            "original_name": "World's Wildest Police Videos",
            "popularity": 0.844
        },
        {
            "id": 4709,
            "original_name": "Man vs. Wild",
            "popularity": 29.164
        },
        {
            "id": 5344,
            "original_name": "The Really Wild Show",
            "popularity": 0.635
        },
        {
            "id": 5749,
            "original_name": "Wild Animal Games",
            "popularity": 0.6
        },
        {
            "id": 5751,
            "original_name": "Wild Animal Games",
            "popularity": 0.6
        },
        {
            "id": 5802,
            "original_name": "Wild 100: Top 10",
            "popularity": 0.6
        },
        {
            "id": 6031,
            "original_name": "Wild Oats",
            "popularity": 2.132
        },
        {
            "id": 6401,
            "original_name": "Wild West",
            "popularity": 2.069
        },
        {
            "id": 6428,
            "original_name": "The Joker's Wild",
            "popularity": 0.6
        },
        {
            "id": 6519,
            "original_name": "Bigfoot and Wildboy",
            "popularity": 1.454
        },
        {
            "id": 6723,
            "original_name": "Camp Wilder",
            "popularity": 3.655
        },
        {
            "id": 6939,
            "original_name": "Born to Be Wild",
            "popularity": 0.6
        },
        {
            "id": 7057,
            "original_name": "Stars Gone Wild",
            "popularity": 0.6
        },
        {
            "id": 8251,
            "original_name": "Out of the Wild",
            "popularity": 0.6
        },
        {
            "id": 8515,
            "original_name": "Wildlife SOS",
            "popularity": 0.6
        },
        {
            "id": 8633,
            "original_name": "Wild New World",
            "popularity": 0.6
        },
        {
            "id": 8681,
            "original_name": "BBC Wildlife Specials",
            "popularity": 1.96
        },
        {
            "id": 8683,
            "original_name": "Great Wildlife Moments",
            "popularity": 0.6
        },
        {
            "id": 8795,
            "original_name": "The Way We Went Wild",
            "popularity": 0.6
        },
        {
            "id": 8827,
            "original_name": "Wild America",
            "popularity": 1.387
        },
        {
            "id": 8893,
            "original_name": "The Wild House",
            "popularity": 0.84
        },
        {
            "id": 9472,
            "original_name": "Wild Chicago",
            "popularity": 0.6
        },
        {
            "id": 9708,
            "original_name": "Wilde Alliance",
            "popularity": 0.848
        },
        {
            "id": 9784,
            "original_name": "Wild Kingdom",
            "popularity": 1.431
        },
        {
            "id": 9791,
            "original_name": "Wild Guess",
            "popularity": 0.6
        },
        {
            "id": 9838,
            "original_name": "Wildfire",
            "popularity": 4.439
        },
        {
            "id": 9876,
            "original_name": "Wild West C.O.W.-Boys of Moo Mesa",
            "popularity": 3.749
        },
        {
            "id": 9987,
            "original_name": "WildC.A.T.S: Covert Action Teams",
            "popularity": 1.867
        },
        {
            "id": 10084,
            "original_name": "Wild Card",
            "popularity": 1.97
        },
        {
            "id": 10929,
            "original_name": "The Wild Wild West",
            "popularity": 26.898
        },
        {
            "id": 11162,
            "original_name": "Lorne Greene's New Wilderness",
            "popularity": 1.511
        },
        {
            "id": 11590,
            "original_name": "Jokers Wild",
            "popularity": 0.6
        },
        {
            "id": 12378,
            "original_name": "Totally Wild",
            "popularity": 0.6
        },
        {
            "id": 12449,
            "original_name": "Wildside",
            "popularity": 2.695
        },
        {
            "id": 13053,
            "original_name": "Wild World of Spike",
            "popularity": 0.6
        },
        {
            "id": 13658,
            "original_name": "The Adventures of Wild Bill Hickok",
            "popularity": 7.245
        },
        {
            "id": 14671,
            "original_name": "S Club 7 Go Wild!",
            "popularity": 0.932
        },
        {
            "id": 14871,
            "original_name": "Audubon Wildlife Theatre",
            "popularity": 0.6
        },
        {
            "id": 15678,
            "original_name": "Bill Oddie Goes Wild",
            "popularity": 0.6
        },
        {
            "id": 15952,
            "original_name": "Outback Wildlife Rescue",
            "popularity": 0.6
        },
        {
            "id": 16045,
            "original_name": "Wild Discovery",
            "popularity": 0.6
        },
        {
            "id": 16095,
            "original_name": "Wildlife Jams",
            "popularity": 0.6
        },
        {
            "id": 16197,
            "original_name": "Wild Roses",
            "popularity": 0.957
        },
        {
            "id": 16239,
            "original_name": "Going Wild With Jeff Corwin",
            "popularity": 0.6
        },
        {
            "id": 16298,
            "original_name": "Something Wilder",
            "popularity": 3.415
        },
        {
            "id": 16345,
            "original_name": "Wild Food",
            "popularity": 0.6
        },
        {
            "id": 16586,
            "original_name": "Wild Africa",
            "popularity": 0.6
        },
        {
            "id": 16587,
            "original_name": "Wild Down Under",
            "popularity": 0.6
        },
        {
            "id": 16590,
            "original_name": "Wild Caribbean",
            "popularity": 1.123
        },
        {
            "id": 16695,
            "original_name": "The Crowd Goes Wild",
            "popularity": 0.6
        },
        {
            "id": 16758,
            "original_name": "Winston Churchill: The Wilderness Years",
            "popularity": 2.001
        },
        {
            "id": 17018,
            "original_name": "Wild Rescues",
            "popularity": 0.6
        },
        {
            "id": 17339,
            "original_name": "Wildlife on One",
            "popularity": 1.4
        },
        {
            "id": 18015,
            "original_name": "The Future Is Wild",
            "popularity": 0.6
        },
        {
            "id": 18153,
            "original_name": "Teens in the Wild",
            "popularity": 0.6
        },
        {
            "id": 18624,
            "original_name": "Wild",
            "popularity": 0.6
        },
        {
            "id": 19421,
            "original_name": "Bill Oddie's How to Watch Wildlife",
            "popularity": 0.756
        },
        {
            "id": 19609,
            "original_name": "In the Wild",
            "popularity": 0.6
        },
        {
            "id": 20171,
            "original_name": "Britain Goes Wild with Bill Oddie",
            "popularity": 0.843
        },
        {
            "id": 20172,
            "original_name": "Wild In Your Garden",
            "popularity": 0.6
        },
        {
            "id": 20574,
            "original_name": "Wild China",
            "popularity": 3.731
        },
        {
            "id": 21192,
            "original_name": "Charlie Wild, Private Detective",
            "popularity": 0.6
        },
        {
            "id": 21624,
            "original_name": "Call of the Wild",
            "popularity": 1.874
        },
        {
            "id": 21680,
            "original_name": "Buddy Into the Wild",
            "popularity": 1.116
        },
        {
            "id": 21819,
            "original_name": "NWA Wildside TV",
            "popularity": 0.6
        },
        {
            "id": 22218,
            "original_name": "The Wild Days",
            "popularity": 0.6
        },
        {
            "id": 22249,
            "original_name": "Clinically Wild: Alaska",
            "popularity": 0.6
        },
        {
            "id": 22567,
            "original_name": "Wild Weather with Richard Hammond",
            "popularity": 0.6
        },
        {
            "id": 22629,
            "original_name": "Blue Wilderness",
            "popularity": 0.6
        },
        {
            "id": 23281,
            "original_name": "Wildcat",
            "popularity": 0.6
        },
        {
            "id": 23438,
            "original_name": "Wilderness Explored",
            "popularity": 0.6
        },
        {
            "id": 24009,
            "original_name": "Wild About Your Garden",
            "popularity": 0.6
        },
        {
            "id": 24032,
            "original_name": "Wild Kat",
            "popularity": 0.6
        },
        {
            "id": 24130,
            "original_name": "Wild Arms - Twilight Venom",
            "popularity": 3.695
        },
        {
            "id": 24171,
            "original_name": "Ray Mears' Wild Food",
            "popularity": 0.6
        },
        {
            "id": 24215,
            "original_name": "Wildside",
            "popularity": 2.005
        },
        {
            "id": 25509,
            "original_name": "The Future Is Wild",
            "popularity": 0.6
        },
        {
            "id": 25652,
            "original_name": "The Really Wild Guide To Britain",
            "popularity": 0.608
        },
        {
            "id": 26336,
            "original_name": "Jim Knox's Wild Zoofari",
            "popularity": 0.6
        },
        {
            "id": 26349,
            "original_name": "My Wildest Dreams",
            "popularity": 0.6
        },
        {
            "id": 26495,
            "original_name": "Wildcatters",
            "popularity": 0.6
        },
        {
            "id": 26516,
            "original_name": "Wildebeesten",
            "popularity": 0.6
        },
        {
            "id": 26521,
            "original_name": "A Cook on the Wild Side",
            "popularity": 0.6
        },
        {
            "id": 26671,
            "original_name": "Australian Wildlife",
            "popularity": 0.6
        },
        {
            "id": 27024,
            "original_name": "Wild Animal Games",
            "popularity": 0.6
        },
        {
            "id": 27159,
            "original_name": "Wild Thing: I Love You",
            "popularity": 0.6
        },
        {
            "id": 27205,
            "original_name": "Alone in the Wild",
            "popularity": 0.84
        },
        {
            "id": 27545,
            "original_name": "Locusts And Wild Honey",
            "popularity": 0.654
        },
        {
            "id": 27608,
            "original_name": "Wildschut & De Vries",
            "popularity": 1.095
        },
        {
            "id": 27628,
            "original_name": "Cities: Nature's New Wild",
            "popularity": 0.6
        },
        {
            "id": 28296,
            "original_name": "Willa's Wild Life",
            "popularity": 0.6
        },
        {
            "id": 28312,
            "original_name": "Wildes Russland",
            "popularity": 1.121
        },
        {
            "id": 28514,
            "original_name": "My New Wild Life",
            "popularity": 0.6
        },
        {
            "id": 28640,
            "original_name": "Wilderness Road",
            "popularity": 0.6
        },
        {
            "id": 28685,
            "original_name": "Hearts Are Wild",
            "popularity": 0.628
        },
        {
            "id": 28716,
            "original_name": "Wild on the Set",
            "popularity": 0.6
        },
        {
            "id": 28807,
            "original_name": "Wildest Dreams",
            "popularity": 0.843
        },
        {
            "id": 28826,
            "original_name": "Running Wild",
            "popularity": 1.34
        },
        {
            "id": 28873,
            "original_name": "Animal Park: Wild On The West Coast",
            "popularity": 0.603
        },
        {
            "id": 28982,
            "original_name": "Medicine Men Go Wild",
            "popularity": 0.6
        },
        {
            "id": 29592,
            "original_name": "Wild Pacific",
            "popularity": 0.6
        },
        {
            "id": 29793,
            "original_name": "A Place in The Wild",
            "popularity": 0.6
        },
        {
            "id": 30046,
            "original_name": "Wild Events",
            "popularity": 0.6
        },
        {
            "id": 30073,
            "original_name": "World's Wildest Vacation Videos",
            "popularity": 0.6
        },
        {
            "id": 30099,
            "original_name": "Wild Weddings",
            "popularity": 0.6
        },
        {
            "id": 30276,
            "original_name": "Wild Planet: North America",
            "popularity": 0.77
        },
        {
            "id": 30382,
            "original_name": "Wild & Crazy Kids",
            "popularity": 0.833
        },
        {
            "id": 30493,
            "original_name": "Champions of the Wild",
            "popularity": 0.841
        },
        {
            "id": 30629,
            "original_name": "In The Wild With...",
            "popularity": 0.6
        },
        {
            "id": 31083,
            "original_name": "Walk on the Wild Side",
            "popularity": 0.6
        },
        {
            "id": 31421,
            "original_name": "Ray Mears' Northern Wilderness",
            "popularity": 0.6
        },
        {
            "id": 31433,
            "original_name": "Robson Green's Wild Swimming Adventure",
            "popularity": 0.6
        },
        {
            "id": 31822,
            "original_name": "Jack Hanna's Into the Wild",
            "popularity": 0.6
        },
        {
            "id": 32180,
            "original_name": "Pretty Wild",
            "popularity": 0.6
        },
        {
            "id": 32434,
            "original_name": "Wild Things",
            "popularity": 0.6
        },
        {
            "id": 32757,
            "original_name": "Running Wilde",
            "popularity": 5.222
        },
        {
            "id": 33175,
            "original_name": "Man, Woman, Wild",
            "popularity": 1.393
        },
        {
            "id": 33222,
            "original_name": "Willa's Wild Life",
            "popularity": 1.09
        },
        {
            "id": 33530,
            "original_name": "The Great Rift: Africa's Wild Heart",
            "popularity": 1.57
        },
        {
            "id": 33569,
            "original_name": "Music of Eric Wild",
            "popularity": 0.6
        },
        {
            "id": 34888,
            "original_name": "Wild Kids",
            "popularity": 0.6
        },
        {
            "id": 35094,
            "original_name": "Wild Kratts",
            "popularity": 16.356
        },
        {
            "id": 35183,
            "original_name": "Wild Wales",
            "popularity": 6.869
        },
        {
            "id": 35230,
            "original_name": "Wild About Animals",
            "popularity": 0.6
        },
        {
            "id": 35397,
            "original_name": "Flying Wild Alaska",
            "popularity": 0.6
        },
        {
            "id": 35574,
            "original_name": "Wilderness",
            "popularity": 1.4
        },
        {
            "id": 35596,
            "original_name": "Im Tal der wilden Rosen",
            "popularity": 2.829
        },
        {
            "id": 35630,
            "original_name": "Wild Britain with Ray Mears",
            "popularity": 0.6
        },
        {
            "id": 35848,
            "original_name": "Wilde keuken, De",
            "popularity": 0.6
        },
        {
            "id": 35964,
            "original_name": "Knievel's Wild Ride",
            "popularity": 0.6
        },
        {
            "id": 36037,
            "original_name": "Wild Girls Vegas",
            "popularity": 0.6
        },
        {
            "id": 36138,
            "original_name": "Operation Wild",
            "popularity": 0.6
        },
        {
            "id": 36228,
            "original_name": "Worlds Wildest Encounters",
            "popularity": 0.6
        },
        {
            "id": 36477,
            "original_name": "Mutual of Omaha's Wild Kingdom",
            "popularity": 1.48
        },
        {
            "id": 36480,
            "original_name": "Wild Nights",
            "popularity": 0.6
        },
        {
            "id": 36696,
            "original_name": "Running Wild",
            "popularity": 0.6
        },
        {
            "id": 36818,
            "original_name": "Popstars: De Wildcard",
            "popularity": 0.6
        },
        {
            "id": 36957,
            "original_name": "America's Wild Spaces",
            "popularity": 0.6
        },
        {
            "id": 37251,
            "original_name": "Expedition Wild with Casey Anderson",
            "popularity": 0.6
        },
        {
            "id": 37372,
            "original_name": "Girls Gone Wild Presents: Search for the Hottest Girl in America",
            "popularity": 1.96
        },
        {
            "id": 37915,
            "original_name": "The World Wild Vet",
            "popularity": 0.6
        },
        {
            "id": 38100,
            "original_name": "Wild Justice",
            "popularity": 1.382
        },
        {
            "id": 38291,
            "original_name": "Wild Case Files",
            "popularity": 0.6
        },
        {
            "id": 38348,
            "original_name": "Crime Scene Wild",
            "popularity": 0.6
        },
        {
            "id": 38703,
            "original_name": "The Wild Within",
            "popularity": 0.6
        },
        {
            "id": 38802,
            "original_name": "Out Of The Wild: Venezuela",
            "popularity": 0.6
        },
        {
            "id": 38813,
            "original_name": "Hogs Gone Wild",
            "popularity": 0.6
        },
        {
            "id": 38815,
            "original_name": "Wild Animal Repo",
            "popularity": 0.6
        },
        {
            "id": 38968,
            "original_name": "Wild Animal Baby Explorers",
            "popularity": 0.6
        },
        {
            "id": 38996,
            "original_name": "Wild, Wild World of Animals",
            "popularity": 0.6
        },
        {
            "id": 39366,
            "original_name": "The Tenant of Wildfell Hall",
            "popularity": 3.711
        },
        {
            "id": 39733,
            "original_name": "Love in the Wild",
            "popularity": 0.6
        },
        {
            "id": 39780,
            "original_name": "Wild West Comedy Show: 30 Days & 30 Nights - Hollywood to the Heartland",
            "popularity": 0.6
        },
        {
            "id": 40283,
            "original_name": "Wild Boys",
            "popularity": 2.7
        },
        {
            "id": 40519,
            "original_name": "The Truth About Wildlife",
            "popularity": 0.6
        },
        {
            "id": 40881,
            "original_name": "Wildbach",
            "popularity": 2.776
        },
        {
            "id": 41314,
            "original_name": "Wilderness Love",
            "popularity": 0.6
        },
        {
            "id": 41412,
            "original_name": "Gary Spetze's Painting Wild Places",
            "popularity": 0.6
        },
        {
            "id": 41513,
            "original_name": "Der wilde G\u00e4rtner",
            "popularity": 0.6
        },
        {
            "id": 41591,
            "original_name": "Viking Wilderness",
            "popularity": 0.6
        },
        {
            "id": 42663,
            "original_name": "Wilder Westen inclusive",
            "popularity": 1.01
        },
        {
            "id": 42682,
            "original_name": "Forever Wild",
            "popularity": 0.6
        },
        {
            "id": 43041,
            "original_name": "Saving the Wildlife",
            "popularity": 0.6
        },
        {
            "id": 43150,
            "original_name": "The Future is Wild",
            "popularity": 0.6
        },
        {
            "id": 43235,
            "original_name": "Wild Germany",
            "popularity": 0.844
        },
        {
            "id": 43272,
            "original_name": "Bill Oddie's Wild Side",
            "popularity": 0.6
        },
        {
            "id": 43973,
            "original_name": "The Tenant of Wildfell Hall",
            "popularity": 0.955
        },
        {
            "id": 44078,
            "original_name": "Wild Recon",
            "popularity": 0.6
        },
        {
            "id": 44101,
            "original_name": "Champions of the Wild",
            "popularity": 0.6
        },
        {
            "id": 44691,
            "original_name": "To the Wild Country",
            "popularity": 0.6
        },
        {
            "id": 44795,
            "original_name": "Girls Gone Wild",
            "popularity": 0.6
        },
        {
            "id": 45246,
            "original_name": "Krempoli - Ein Platz f\u00fcr wilde Kinder",
            "popularity": 1.4
        },
        {
            "id": 45744,
            "original_name": "Wild West Showdown",
            "popularity": 0.6
        },
        {
            "id": 46915,
            "original_name": "Buckwild",
            "popularity": 0.6
        },
        {
            "id": 47297,
            "original_name": "The Wild West",
            "popularity": 0.6
        },
        {
            "id": 47303,
            "original_name": "Call of the Wild",
            "popularity": 0.6
        },
        {
            "id": 47331,
            "original_name": "Wild Texas Wind",
            "popularity": 0.6
        },
        {
            "id": 47611,
            "original_name": "Born To Be Wild: Operation Lemur, With John Cleese",
            "popularity": 0.62
        },
        {
            "id": 49147,
            "original_name": "Wildlife Safari In Ethiopia",
            "popularity": 0.6
        },
        {
            "id": 49244,
            "original_name": "Wild Iris",
            "popularity": 0.6
        },
        {
            "id": 49291,
            "original_name": "Wild Skandinavia",
            "popularity": 0.6
        },
        {
            "id": 49949,
            "original_name": "Wild Things with Dominic Monaghan",
            "popularity": 0.667
        },
        {
            "id": 50169,
            "original_name": "Wild West Alaska",
            "popularity": 0.6
        },
        {
            "id": 51477,
            "original_name": "Wild Cameramen at Work",
            "popularity": 0.6
        },
        {
            "id": 51495,
            "original_name": "National Geographic Nordic Wild",
            "popularity": 0.6
        },
        {
            "id": 51928,
            "original_name": "Wildes Deutschland",
            "popularity": 2.112
        },
        {
            "id": 52070,
            "original_name": "Wild Life At The Zoo",
            "popularity": 0.6
        },
        {
            "id": 52102,
            "original_name": "Wildest India",
            "popularity": 0.601
        },
        {
            "id": 53033,
            "original_name": "Wildest Latin America",
            "popularity": 0.648
        },
        {
            "id": 53358,
            "original_name": "Wild Shepherdess with Kate Humble",
            "popularity": 0.6
        },
        {
            "id": 55168,
            "original_name": "Land Gone Wild",
            "popularity": 0.6
        },
        {
            "id": 55541,
            "original_name": "Tales From The Wild Wood",
            "popularity": 0.6
        },
        {
            "id": 55757,
            "original_name": "Wild Arabia",
            "popularity": 1.166
        },
        {
            "id": 55878,
            "original_name": "Ben Fogle: New Lives In The Wild",
            "popularity": 1.427
        },
        {
            "id": 56251,
            "original_name": "Wildfire!",
            "popularity": 0.6
        },
        {
            "id": 56787,
            "original_name": "Wild Case Files",
            "popularity": 0.6
        },
        {
            "id": 57072,
            "original_name": "Wild Moves",
            "popularity": 0.6
        },
        {
            "id": 57479,
            "original_name": "Wild Cameraman At Work",
            "popularity": 0.6
        },
        {
            "id": 57503,
            "original_name": "Wild Life: Miami",
            "popularity": 0.6
        },
        {
            "id": 57845,
            "original_name": "Mordecai Richler: The Last of the Wild Jews",
            "popularity": 0.6
        },
        {
            "id": 57949,
            "original_name": "Het Wilde Oosten",
            "popularity": 0.6
        },
        {
            "id": 57953,
            "original_name": "Monteith's Wild Food Challenge",
            "popularity": 0.6
        },
        {
            "id": 57964,
            "original_name": "Wild About New Zealand",
            "popularity": 0.6
        },
        {
            "id": 58051,
            "original_name": "Steve Irwin's Wildlife Warriors",
            "popularity": 0.6
        },
        {
            "id": 58468,
            "original_name": "Attenborough: 60 Years in the Wild",
            "popularity": 1.304
        },
        {
            "id": 58968,
            "original_name": "Wild Grinders",
            "popularity": 0.6
        },
        {
            "id": 59203,
            "original_name": "Wild Deep",
            "popularity": 0.6
        },
        {
            "id": 59273,
            "original_name": "Call of the Wildman",
            "popularity": 0.754
        },
        {
            "id": 59313,
            "original_name": "Guinness World Records Gone Wild",
            "popularity": 0.6
        },
        {
            "id": 59961,
            "original_name": "Wild Amazon",
            "popularity": 0.6
        },
        {
            "id": 60598,
            "original_name": "Animal Life: Young & Wild",
            "popularity": 0.6
        },
        {
            "id": 60599,
            "original_name": "Wildlife Diary",
            "popularity": 0.6
        },
        {
            "id": 60773,
            "original_name": "Wildest Islands",
            "popularity": 1.444
        },
        {
            "id": 61120,
            "original_name": "Running Wild with Bear Grylls",
            "popularity": 9.492
        },
        {
            "id": 61330,
            "original_name": "Sheriff Callie's Wild West",
            "popularity": 5.517
        },
        {
            "id": 61409,
            "original_name": "Wild Canada",
            "popularity": 1.325
        },
        {
            "id": 62065,
            "original_name": "Wilder Kaiser",
            "popularity": 1.3
        },
        {
            "id": 62089,
            "original_name": "Earth: A New Wild",
            "popularity": 0.6
        },
        {
            "id": 62300,
            "original_name": "Abenteuer Wilder Westen",
            "popularity": 0.6
        },
        {
            "id": 62519,
            "original_name": "Wild Ireland",
            "popularity": 0.6
        },
        {
            "id": 62828,
            "original_name": "Wilde Engel",
            "popularity": 2.394
        },
        {
            "id": 63144,
            "original_name": "Kevin McCloud's Escape to the Wild",
            "popularity": 0.6
        },
        {
            "id": 63162,
            "original_name": "Wilde Zeiten",
            "popularity": 1.176
        },
        {
            "id": 63425,
            "original_name": "Building Wild",
            "popularity": 0.778
        },
        {
            "id": 63636,
            "original_name": "Novellen aus dem wilden Westen",
            "popularity": 0.742
        },
        {
            "id": 63866,
            "original_name": "This Wild Life",
            "popularity": 1.4
        },
        {
            "id": 63979,
            "original_name": "Wilde Jungs",
            "popularity": 1.342
        },
        {
            "id": 64242,
            "original_name": "Wild Island - Das pure \u00dcberleben",
            "popularity": 0.6
        },
        {
            "id": 64841,
            "original_name": "Great Wild North",
            "popularity": 0.6
        },
        {
            "id": 65378,
            "original_name": "Wild Nile",
            "popularity": 0.6
        },
        {
            "id": 65410,
            "original_name": "Tony Robinson's Wild West",
            "popularity": 0.6
        },
        {
            "id": 65744,
            "original_name": "Jim Kopf und die wilde 13",
            "popularity": 0.6
        },
        {
            "id": 66371,
            "original_name": "Zwei im Wilden Westen",
            "popularity": 0.6
        },
        {
            "id": 66539,
            "original_name": "Zwei im Wilden Westen",
            "popularity": 0.6
        },
        {
            "id": 66743,
            "original_name": "Wilde Reise",
            "popularity": 0.6
        },
        {
            "id": 67573,
            "original_name": "The Wild",
            "popularity": 1.739
        },
        {
            "id": 67582,
            "original_name": "Durch die Wildnis \u2013 Das Abenteuer Deines Lebens",
            "popularity": 0.6
        },
        {
            "id": 68149,
            "original_name": "World of The Wild",
            "popularity": 0.6
        },
        {
            "id": 68317,
            "original_name": "Texas Parks and Wildlife",
            "popularity": 0.862
        },
        {
            "id": 68541,
            "original_name": "Wildes Lateinamerika",
            "popularity": 0.6
        },
        {
            "id": 68819,
            "original_name": "Wild Ride",
            "popularity": 0.6
        },
        {
            "id": 68841,
            "original_name": "Das Waisenhaus f\u00fcr wilde Tiere",
            "popularity": 0.6
        },
        {
            "id": 69048,
            "original_name": "The Wild Life of Tim Faulkner",
            "popularity": 0.6
        },
        {
            "id": 69130,
            "original_name": "Wild Europa",
            "popularity": 0.6
        },
        {
            "id": 69566,
            "original_name": "Wild Transport",
            "popularity": 0.6
        },
        {
            "id": 69742,
            "original_name": "Nat Geo Wild",
            "popularity": 0.6
        },
        {
            "id": 70287,
            "original_name": "Hacking the Wild",
            "popularity": 0.644
        },
        {
            "id": 70335,
            "original_name": "Wildes Skandinavien",
            "popularity": 1.051
        },
        {
            "id": 70644,
            "original_name": "Highlands: Scotland's Wild Heart",
            "popularity": 0.6
        },
        {
            "id": 70870,
            "original_name": "Freeks Wilde Wereld",
            "popularity": 0.6
        },
        {
            "id": 70931,
            "original_name": "Freek in het Wild",
            "popularity": 0.6
        },
        {
            "id": 71270,
            "original_name": "Atlantic: The Wildest Ocean on Earth",
            "popularity": 0.693
        },
        {
            "id": 72385,
            "original_name": "Earth's Wildest Waters: The Big Fish",
            "popularity": 0.6
        },
        {
            "id": 72722,
            "original_name": "Wild Alaska Live",
            "popularity": 0.6
        },
        {
            "id": 73049,
            "original_name": "CWC/Canal Wild Card",
            "popularity": 0.6
        },
        {
            "id": 73388,
            "original_name": "Wild West: America's Great Frontier",
            "popularity": 0.6
        },
        {
            "id": 73456,
            "original_name": "Wild Hawaii",
            "popularity": 1.865
        },
        {
            "id": 73666,
            "original_name": "Johnny Into The Wild",
            "popularity": 0.601
        },
        {
            "id": 73672,
            "original_name": "Wild Colombia",
            "popularity": 0.84
        },
        {
            "id": 73714,
            "original_name": "Wilde Wellen \u2013 Nichts bleibt verborgen",
            "popularity": 1.438
        },
        {
            "id": 73741,
            "original_name": "Wilder Planet",
            "popularity": 0.6
        },
        {
            "id": 73907,
            "original_name": "Wild Mississippi",
            "popularity": 0.6
        },
        {
            "id": 73910,
            "original_name": "Spy in the Wild",
            "popularity": 1.471
        },
        {
            "id": 74209,
            "original_name": "Zarah: Wilde Jahre",
            "popularity": 1.732
        },
        {
            "id": 74470,
            "original_name": "Snoop Dogg Presents The Joker's Wild",
            "popularity": 1.008
        },
        {
            "id": 74593,
            "original_name": "Wildest Islands of Indonesia",
            "popularity": 0.84
        },
        {
            "id": 74846,
            "original_name": "Wild Florida",
            "popularity": 0.6
        },
        {
            "id": 75195,
            "original_name": "Ireland's Wild Coast",
            "popularity": 0.6
        },
        {
            "id": 75445,
            "original_name": "Wild North",
            "popularity": 0.631
        },
        {
            "id": 75464,
            "original_name": "Die Wilden Kerle",
            "popularity": 0.6
        },
        {
            "id": 75816,
            "original_name": "Wilder",
            "popularity": 1.663
        },
        {
            "id": 76422,
            "original_name": "Secrets of Wild India",
            "popularity": 0.6
        },
        {
            "id": 76563,
            "original_name": "Great Blue Wild",
            "popularity": 0.664
        },
        {
            "id": 76574,
            "original_name": "Jim Knopf und die Wilde 13",
            "popularity": 0.65
        },
        {
            "id": 76684,
            "original_name": "Yellowstone: Wildest Winter to Blazing Summer",
            "popularity": 1.4
        },
        {
            "id": 76854,
            "original_name": "Wildlife Warriors",
            "popularity": 0.6
        },
        {
            "id": 77219,
            "original_name": "Wild Burma: Nature's Lost Kingdom",
            "popularity": 1.211
        },
        {
            "id": 77246,
            "original_name": "Wild Times",
            "popularity": 0.796
        },
        {
            "id": 77601,
            "original_name": "Wild Wild Country",
            "popularity": 6.665
        },
        {
            "id": 77818,
            "original_name": "Casey's Wild Backyard",
            "popularity": 0.6
        },
        {
            "id": 77851,
            "original_name": "Mark Emery's American Wildlife",
            "popularity": 0.6
        },
        {
            "id": 77860,
            "original_name": "Wild italy",
            "popularity": 1.101
        },
        {
            "id": 78061,
            "original_name": "Wildlife",
            "popularity": 0.6
        },
        {
            "id": 78354,
            "original_name": "Wild, la course de survie",
            "popularity": 0.6
        },
        {
            "id": 78616,
            "original_name": "Wild Brazil",
            "popularity": 0.6
        },
        {
            "id": 78645,
            "original_name": "Wild Israel",
            "popularity": 0.6
        },
        {
            "id": 78818,
            "original_name": "Man, Cheetah, Wild",
            "popularity": 0.6
        },
        {
            "id": 78957,
            "original_name": "Guardians of the Wild",
            "popularity": 0.662
        },
        {
            "id": 79772,
            "original_name": "Our Wild Life",
            "popularity": 0.6
        },
        {
            "id": 79798,
            "original_name": "Wild Frank",
            "popularity": 3.625
        },
        {
            "id": 79934,
            "original_name": "Into the french wild",
            "popularity": 0.6
        },
        {
            "id": 80287,
            "original_name": "Dick 'N' Dom Go Wild",
            "popularity": 0.6
        },
        {
            "id": 80376,
            "original_name": "Wild Sri Lanka",
            "popularity": 0.702
        },
        {
            "id": 80508,
            "original_name": "Wild Chile: Un viaje salvaje",
            "popularity": 0.601
        },
        {
            "id": 80912,
            "original_name": "Paula und die wilden Tiere",
            "popularity": 0.6
        },
        {
            "id": 80913,
            "original_name": "Felix und die wilden Tiere",
            "popularity": 1.512
        },
        {
            "id": 80923,
            "original_name": "Anna und die wilden Tiere",
            "popularity": 1.48
        },
        {
            "id": 81473,
            "original_name": "Europas wilder Osten",
            "popularity": 0.6
        },
        {
            "id": 81485,
            "original_name": "Great Lakes Wild",
            "popularity": 0.6
        },
        {
            "id": 82080,
            "original_name": "The Wild Adventures of Blinky Bill",
            "popularity": 0.691
        },
        {
            "id": 82552,
            "original_name": "Wild Africa: Rivers of Life",
            "popularity": 0.692
        },
        {
            "id": 83074,
            "original_name": "Wild Bill",
            "popularity": 6.294
        },
        {
            "id": 83681,
            "original_name": "Wild Ones",
            "popularity": 0.9
        },
        {
            "id": 83697,
            "original_name": "Wildest Europe",
            "popularity": 0.6
        },
        {
            "id": 83714,
            "original_name": "Seasons of the Wild",
            "popularity": 1.096
        },
        {
            "id": 83731,
            "original_name": "The Wild Andes",
            "popularity": 0.6
        },
        {
            "id": 83887,
            "original_name": "Wild Britain",
            "popularity": 0.6
        },
        {
            "id": 84583,
            "original_name": "Alone in the Wild",
            "popularity": 1.686
        },
        {
            "id": 84585,
            "original_name": "Wild Weather",
            "popularity": 1.091
        },
        {
            "id": 84610,
            "original_name": "Jimmy Doherty's Escape to the Wild",
            "popularity": 0.6
        },
        {
            "id": 84883,
            "original_name": "A Year in the Wild",
            "popularity": 0.6
        },
        {
            "id": 85630,
            "original_name": "Bear's Wild Weekend with...",
            "popularity": 0.6
        },
        {
            "id": 85741,
            "original_name": "Hippo: Wild Feast Live",
            "popularity": 0.6
        },
        {
            "id": 85939,
            "original_name": "Wilderness Walks with Ray Mears",
            "popularity": 0.6
        },
        {
            "id": 86016,
            "original_name": "Wildes Baltikum",
            "popularity": 0.6
        },
        {
            "id": 86114,
            "original_name": "Britain's Big Wildlife Revival",
            "popularity": 0.6
        },
        {
            "id": 86160,
            "original_name": "Into the Wild with Gordon Buchanan",
            "popularity": 0.6
        },
        {
            "id": 86178,
            "original_name": "Wild Mexico",
            "popularity": 0.6
        },
        {
            "id": 86314,
            "original_name": "Wild Thailand",
            "popularity": 0.845
        },
        {
            "id": 86585,
            "original_name": "Hugh's Wild West",
            "popularity": 0.602
        },
        {
            "id": 86837,
            "original_name": "Spaniens wilder S\u00fcden",
            "popularity": 0.6
        },
        {
            "id": 87591,
            "original_name": "Sex In the Wild",
            "popularity": 0.6
        },
        {
            "id": 87712,
            "original_name": "You vs. Wild",
            "popularity": 4.563
        },
        {
            "id": 88091,
            "original_name": "Treks in a Wild World",
            "popularity": 0.6
        },
        {
            "id": 88153,
            "original_name": "Wild C.A.T.S",
            "popularity": 0.6
        },
        {
            "id": 88313,
            "original_name": "Evan Goes Wild",
            "popularity": 0.6
        },
        {
            "id": 88494,
            "original_name": "Alaska's Wild Gourmet",
            "popularity": 0.6
        },
        {
            "id": 88504,
            "original_name": "The Wild Canadian Year",
            "popularity": 0.601
        },
        {
            "id": 88739,
            "original_name": "Heidi Hetzers wilde Weltreise",
            "popularity": 0.6
        },
        {
            "id": 88746,
            "original_name": "Vet Gone Wild",
            "popularity": 0.6
        },
        {
            "id": 88766,
            "original_name": "Legends of the Wild West",
            "popularity": 0.897
        },
        {
            "id": 88870,
            "original_name": "Indiens wilde Sch\u00f6nheit",
            "popularity": 0.6
        },
        {
            "id": 89199,
            "original_name": "Reiterhof Wildenstein",
            "popularity": 0.84
        },
        {
            "id": 89325,
            "original_name": "Secrets of Wild Australia",
            "popularity": 0.6
        },
        {
            "id": 89389,
            "original_name": "Wild Window",
            "popularity": 0.605
        },
        {
            "id": 89466,
            "original_name": "News Of The Wild",
            "popularity": 0.6
        },
        {
            "id": 89818,
            "original_name": "The Wild Brothers",
            "popularity": 0.6
        },
        {
            "id": 90032,
            "original_name": "Raising Wild",
            "popularity": 0.6
        },
        {
            "id": 90142,
            "original_name": "Islands in Time: A Wildlife Odyssey",
            "popularity": 0.887
        },
        {
            "id": 90219,
            "original_name": "Cabins in the Wild with Dick Strawbridge",
            "popularity": 0.993
        },
        {
            "id": 90272,
            "original_name": "Wildest Arctic",
            "popularity": 0.6
        },
        {
            "id": 90451,
            "original_name": "\u30cf\u30f3\u30b0\u30ea\u30fc\u30cf\u30fc\u30c8 WILD STRIKER",
            "popularity": 4.608
        },
        {
            "id": 90466,
            "original_name": "Billy Wilder, wie haben Sie's gemacht?",
            "popularity": 0.84
        },
        {
            "id": 91697,
            "original_name": "Code of the Wild",
            "popularity": 0.6
        },
        {
            "id": 91832,
            "original_name": "From Russia to Iran: Crossing Wild Frontier",
            "popularity": 0.6
        },
        {
            "id": 91957,
            "original_name": "Leo the Wildlife Ranger",
            "popularity": 0.6
        },
        {
            "id": 91981,
            "original_name": "Wild Rockies",
            "popularity": 0.6
        },
        {
            "id": 92210,
            "original_name": "Wild Yellowstone",
            "popularity": 1.149
        },
        {
            "id": 92233,
            "original_name": "Wild Adventures with Bedi Brothers",
            "popularity": 0.6
        },
        {
            "id": 92270,
            "original_name": "Wild Filipinas",
            "popularity": 0.6
        },
        {
            "id": 92557,
            "original_name": "The Great Canadian Wilderness",
            "popularity": 0.6
        },
        {
            "id": 93038,
            "original_name": "Wild Bear Rescue",
            "popularity": 0.6
        },
        {
            "id": 93187,
            "original_name": "Wildflower",
            "popularity": 2.034
        },
        {
            "id": 93698,
            "original_name": "Wild Argentina",
            "popularity": 0.851
        },
        {
            "id": 94368,
            "original_name": "Wilder Rhein",
            "popularity": 0.6
        },
        {
            "id": 94472,
            "original_name": "A wild Test",
            "popularity": 0.6
        },
        {
            "id": 94897,
            "original_name": "Andy's Wild Adventures",
            "popularity": 0.964
        },
        {
            "id": 94921,
            "original_name": "Wildes \u00d6sterreich",
            "popularity": 0.6
        },
        {
            "id": 95119,
            "original_name": "Pets: Wild at Heart",
            "popularity": 0.6
        },
        {
            "id": 95287,
            "original_name": "Wild Congo",
            "popularity": 0.6
        },
        {
            "id": 95397,
            "original_name": "America's Wild Frontier",
            "popularity": 0.603
        },
        {
            "id": 95872,
            "original_name": "I Witness: Wilderness Quest",
            "popularity": 0.6
        },
        {
            "id": 95877,
            "original_name": "Judi Dench's Wild Borneo Adventure",
            "popularity": 0.732
        },
        {
            "id": 95980,
            "original_name": "Wild Castles",
            "popularity": 0.6
        },
        {
            "id": 97123,
            "original_name": "Wildes Mexiko (BBC Earth)",
            "popularity": 0.6
        },
        {
            "id": 97368,
            "original_name": "Lost in the Wild",
            "popularity": 0.617
        },
        {
            "id": 97472,
            "original_name": "Uncaged...up close in the wild",
            "popularity": 0.6
        },
        {
            "id": 97660,
            "original_name": "Wild Edens Russia",
            "popularity": 0.6
        },
        {
            "id": 97855,
            "original_name": "One Wild Day",
            "popularity": 2.269
        },
        {
            "id": 98391,
            "original_name": "Restoration Wild",
            "popularity": 0.6
        },
        {
            "id": 98450,
            "original_name": "Driving Wild",
            "popularity": 0.6
        },
        {
            "id": 98582,
            "original_name": "Wilde Schl\u00f6sser",
            "popularity": 0.6
        },
        {
            "id": 98659,
            "original_name": "Africa's Wild Horizons",
            "popularity": 0.6
        },
        {
            "id": 98660,
            "original_name": "Alaska: A Year in the Wild",
            "popularity": 0.6
        },
        {
            "id": 99443,
            "original_name": "Die wilden Zwanziger",
            "popularity": 0.6
        },
        {
            "id": 99511,
            "original_name": "America the Wild with Casey Anderson",
            "popularity": 0.6
        },
        {
            "id": 99598,
            "original_name": "Wild Cats of India",
            "popularity": 1.4
        },
        {
            "id": 99658,
            "original_name": "Schottlands wilder Norden",
            "popularity": 0.6
        },
        {
            "id": 99883,
            "original_name": "Men Women Wild",
            "popularity": 0.6
        },
        {
            "id": 99992,
            "original_name": "Wild Archeology",
            "popularity": 0.6
        },
        {
            "id": 100435,
            "original_name": "Enchantimals: Tales From Everwilde",
            "popularity": 2.127
        },
        {
            "id": 100473,
            "original_name": "Wild Animal Reunions",
            "popularity": 0.6
        },
        {
            "id": 101060,
            "original_name": "Hope for Wildlife",
            "popularity": 0.629
        },
        {
            "id": 101499,
            "original_name": "Legends of the Wild",
            "popularity": 0.911
        },
        {
            "id": 101845,
            "original_name": "Beyond the Wild Blue - A History of the USAF",
            "popularity": 0.6
        },
        {
            "id": 102283,
            "original_name": "America's Wild Seasons",
            "popularity": 0.6
        },
        {
            "id": 102343,
            "original_name": "Win the Wilderness: Alaska",
            "popularity": 1.291
        },
        {
            "id": 102354,
            "original_name": "Wildest Indochina",
            "popularity": 2.011
        },
        {
            "id": 102387,
            "original_name": "Wildflower",
            "popularity": 2.317
        },
        {
            "id": 102853,
            "original_name": "Wildest Middle East",
            "popularity": 3.737
        },
        {
            "id": 103148,
            "original_name": "Wildest Places",
            "popularity": 0.6
        },
        {
            "id": 103476,
            "original_name": "Die wilden Kerle",
            "popularity": 0.6
        },
        {
            "id": 103591,
            "original_name": "How the Wild West was Won with Ray Mears",
            "popularity": 0.6
        },
        {
            "id": 103877,
            "original_name": "Coyote Peterson - Brave The Wild",
            "popularity": 0.6
        },
        {
            "id": 103880,
            "original_name": "Roaming in the Wild",
            "popularity": 0.6
        },
        {
            "id": 103899,
            "original_name": "The Wild West",
            "popularity": 0.6
        },
        {
            "id": 103919,
            "original_name": "Wales: Land of the Wild",
            "popularity": 0.6
        },
        {
            "id": 104047,
            "original_name": "Hope in the Wild",
            "popularity": 0.605
        },
        {
            "id": 104254,
            "original_name": "Africa River Wild",
            "popularity": 0.6
        },
        {
            "id": 104619,
            "original_name": "Russlands weite Wildnis",
            "popularity": 0.6
        },
        {
            "id": 104682,
            "original_name": "Kings of the Wild",
            "popularity": 1.383
        },
        {
            "id": 104879,
            "original_name": "Wild Wild East",
            "popularity": 0.607
        },
        {
            "id": 105019,
            "original_name": "Viralwild",
            "popularity": 0.6
        },
        {
            "id": 105160,
            "original_name": "Wild Untamed Brazil",
            "popularity": 0.6
        },
        {
            "id": 105185,
            "original_name": "Ted Sieger's Wildlife",
            "popularity": 0.6
        },
        {
            "id": 105368,
            "original_name": "Augsburger Puppenkiste - Jim Knopf und die Wilde 13",
            "popularity": 0.6
        },
        {
            "id": 105589,
            "original_name": "A Wild Year",
            "popularity": 0.6
        },
        {
            "id": 106339,
            "original_name": "Wild Chile",
            "popularity": 0.972
        },
        {
            "id": 106588,
            "original_name": "Buried Worlds with Don Wildman",
            "popularity": 0.6
        },
        {
            "id": 106866,
            "original_name": "Baby Animals In The Wild",
            "popularity": 0.676
        },
        {
            "id": 107443,
            "original_name": "Wildnis Yellowstone - Im Wechsel der Extreme",
            "popularity": 0.6
        },
        {
            "id": 107597,
            "original_name": "A Wilderness of Error",
            "popularity": 1.111
        },
        {
            "id": 107598,
            "original_name": "Wild Korea",
            "popularity": 0.6
        },
        {
            "id": 107969,
            "original_name": "Wild Indonesia",
            "popularity": 0.6
        },
        {
            "id": 108386,
            "original_name": "Wild Asia",
            "popularity": 0.6
        },
        {
            "id": 109330,
            "original_name": "Madagascar: A Little Wild",
            "popularity": 8.472
        },
        {
            "id": 109381,
            "original_name": "Wildest Africa",
            "popularity": 1.167
        },
        {
            "id": 109476,
            "original_name": "100 Days Wild",
            "popularity": 1.21
        },
        {
            "id": 109976,
            "original_name": "Wild Dogs Tracing Tales",
            "popularity": 0.6
        },
        {
            "id": 110118,
            "original_name": "Wild Nordic",
            "popularity": 0.963
        },
        {
            "id": 110120,
            "original_name": "Wild Central America",
            "popularity": 0.6
        },
        {
            "id": 110311,
            "original_name": "Wild Carpathia",
            "popularity": 0.6
        },
        {
            "id": 110610,
            "original_name": "Wild Life",
            "popularity": 0.87
        },
        {
            "id": 111102,
            "original_name": "Atlantic: A Year in the Wild",
            "popularity": 0.6
        },
        {
            "id": 111787,
            "original_name": "Wild Monsoon",
            "popularity": 0.6
        },
        {
            "id": 111994,
            "original_name": "Wild Ireland: The Edge of the World",
            "popularity": 0.6
        },
        {
            "id": 112095,
            "original_name": "Wild South Africa",
            "popularity": 0.6
        },
        {
            "id": 113227,
            "original_name": "China's Wild Side",
            "popularity": 0.6
        },
        {
            "id": 113271,
            "original_name": "Ben Fogle: Return To The Wild",
            "popularity": 0.6
        },
        {
            "id": 113334,
            "original_name": "Kenya Wildlife Diaries",
            "popularity": 0.6
        },
        {
            "id": 113367,
            "original_name": "The Wilds",
            "popularity": 42.309
        },
        {
            "id": 113648,
            "original_name": "Into the Wild: Colombia",
            "popularity": 0.6
        },
        {
            "id": 113917,
            "original_name": "Wild UK",
            "popularity": 0.6
        },
        {
            "id": 114128,
            "original_name": "Dark Tales With Don Wildman",
            "popularity": 0.6
        },
        {
            "id": 114287,
            "original_name": "Wild Indonesia",
            "popularity": 0.6
        },
        {
            "id": 114431,
            "original_name": "Europe's Great Wilderness",
            "popularity": 0.6
        },
        {
            "id": 114652,
            "original_name": "Thailand's Wild Side",
            "popularity": 1.4
        },
        {
            "id": 115834,
            "original_name": "Africa's Wild Side",
            "popularity": 1.107
        },
        {
            "id": 115846,
            "original_name": "Animals Gone Wild",
            "popularity": 0.638
        },
        {
            "id": 115988,
            "original_name": "Universum: Wildes Griechenland",
            "popularity": 0.6
        },
        {
            "id": 116012,
            "original_name": "Wild City",
            "popularity": 0.6
        },
        {
            "id": 116136,
            "original_name": "Nature Gone Wild",
            "popularity": 1.271
        },
        {
            "id": 116255,
            "original_name": "Universum: Russlands wildes Meer",
            "popularity": 0.6
        },
        {
            "id": 116571,
            "original_name": "Australian Wilderness with Ray Mears",
            "popularity": 0.851
        },
        {
            "id": 116825,
            "original_name": "Wild Portugal",
            "popularity": 0.6
        },
        {
            "id": 116916,
            "original_name": "Wild Australia with Ray Mears",
            "popularity": 0.6
        },
        {
            "id": 117176,
            "original_name": "The Wild Life of Dr. Ole",
            "popularity": 0.84
        },
        {
            "id": 117368,
            "original_name": "Wild Chronicles",
            "popularity": 0.922
        },
        {
            "id": 117487,
            "original_name": "A Wild Year On Earth",
            "popularity": 0.958
        },
        {
            "id": 117592,
            "original_name": "Secret Safari: Into the Wild",
            "popularity": 1.526
        },
        {
            "id": 117629,
            "original_name": "The Year The Earth Went Wild",
            "popularity": 0.6
        },
        {
            "id": 117924,
            "original_name": "Cherries Wild",
            "popularity": 1.45
        },
        {
            "id": 118031,
            "original_name": "Wild Hunters",
            "popularity": 0.6
        },
        {
            "id": 118263,
            "original_name": "Darcey Bussell's Wild Coasts of Scotland",
            "popularity": 0.84
        },
        {
            "id": 118367,
            "original_name": "Europe's New Wild",
            "popularity": 0.702
        },
        {
            "id": 118466,
            "original_name": "Drive (Notes from the Wilderness)",
            "popularity": 0.6
        },
        {
            "id": 118698,
            "original_name": "Wild Survivor",
            "popularity": 0.6
        },
        {
            "id": 119402,
            "original_name": "The Making of The Legend of Zelda: Breath of the Wild",
            "popularity": 1.4
        },
        {
            "id": 119872,
            "original_name": "Wild China With Ray Mears",
            "popularity": 4.403
        },
        {
            "id": 119942,
            "original_name": "De Wilde Keuken",
            "popularity": 0.644
        },
        {
            "id": 120012,
            "original_name": "WildCraft: South Africa",
            "popularity": 0.6
        },
        {
            "id": 120148,
            "original_name": "Wild Birds of Australia",
            "popularity": 0.6
        },
        {
            "id": 120150,
            "original_name": "Malawi Wildlife Rescue",
            "popularity": 0.6
        },
        {
            "id": 120151,
            "original_name": "Wildest New Zealand",
            "popularity": 0.6
        },
        {
            "id": 120370,
            "original_name": "Hazen's Wild Survival Guide",
            "popularity": 0.6
        },
        {
            "id": 120773,
            "original_name": "Wildlife Icons",
            "popularity": 0.636
        },
        {
            "id": 120994,
            "original_name": "Olis Wilde Welt",
            "popularity": 0.6
        },
        {
            "id": 121036,
            "original_name": "Into the Wild: India",
            "popularity": 0.6
        },
        {
            "id": 121059,
            "original_name": "Wild France with Ray Mears",
            "popularity": 0.6
        },
        {
            "id": 121103,
            "original_name": "Bear Grylls Wild Adventure",
            "popularity": 0.777
        },
        {
            "id": 121186,
            "original_name": "Wild Islands",
            "popularity": 0.6
        },
        {
            "id": 121465,
            "original_name": "Pia und die wilden Tiere",
            "popularity": 0.969
        },
        {
            "id": 121656,
            "original_name": "Animals Gone Wild With Jaaved Jaaferi",
            "popularity": 0.92
        },
        {
            "id": 122252,
            "original_name": "Wildlife Heroes",
            "popularity": 0.6
        },
        {
            "id": 122283,
            "original_name": "Wild River with Ray Mears",
            "popularity": 0.6
        },
        {
            "id": 122348,
            "original_name": "Wildes S\u00fcdafrika - Der 8. Kontinent",
            "popularity": 0.6
        },
        {
            "id": 122674,
            "original_name": "Ocean Wild",
            "popularity": 0.6
        },
        {
            "id": 122866,
            "original_name": "Abenteuer Wildnis",
            "popularity": 0.6
        },
        {
            "id": 122966,
            "original_name": "Loslopend Wild",
            "popularity": 2.296
        },
        {
            "id": 123348,
            "original_name": "Wild Republic",
            "popularity": 8.318
        },
        {
            "id": 124650,
            "original_name": "Wildes Bayern",
            "popularity": 0.6
        },
        {
            "id": 124712,
            "original_name": "Equator's Wild Secrets",
            "popularity": 0.6
        },
        {
            "id": 124778,
            "original_name": "Wild Mongolia",
            "popularity": 0.6
        },
        {
            "id": 124853,
            "original_name": "Asia's Wild Secrets",
            "popularity": 0.648
        },
        {
            "id": 124983,
            "original_name": "Wild Baltic",
            "popularity": 0.6
        },
        {
            "id": 125032,
            "original_name": "National Geographic : Secrets of Wild India",
            "popularity": 0.6
        },
        {
            "id": 126136,
            "original_name": "Wild Things",
            "popularity": 0.6
        },
        {
            "id": 126211,
            "original_name": "Wildfire",
            "popularity": 0.6
        },
        {
            "id": 126741,
            "original_name": "Survive the Wild",
            "popularity": 0.6
        },
        {
            "id": 127035,
            "original_name": "Wild Sex",
            "popularity": 0.6
        },
        {
            "id": 127097,
            "original_name": "Steve-O's Wild Ride!",
            "popularity": 2.391
        },
        {
            "id": 127412,
            "original_name": "Wild Peru - Andes Battleground",
            "popularity": 0.617
        },
        {
            "id": 127499,
            "original_name": "Our Wild Adventures",
            "popularity": 0.84
        },
        {
            "id": 128287,
            "original_name": "Scotland: A Year In The Wild",
            "popularity": 4.171
        },
        {
            "id": 128701,
            "original_name": "Wild Faces of Switzerland",
            "popularity": 0.6
        },
        {
            "id": 129555,
            "original_name": "Jim Knopf und die Wilde 13",
            "popularity": 0.6
        },
        {
            "id": 130008,
            "original_name": "New Forest: A Year in the Wild Wood",
            "popularity": 0.6
        },
        {
            "id": 130161,
            "original_name": "Wild Adapter",
            "popularity": 0.6
        },
        {
            "id": 130475,
            "original_name": "Andreas Kieling: Mitten im wilden Deutschland",
            "popularity": 0.6
        },
        {
            "id": 130476,
            "original_name": "Kielings wilde Welt",
            "popularity": 0.6
        },
        {
            "id": 130617,
            "original_name": "Wild About Pandas",
            "popularity": 0.6
        },
        {
            "id": 130712,
            "original_name": "Living Wild: How To Change Your LIfe",
            "popularity": 0.752
        },
        {
            "id": 131049,
            "original_name": "Les Stroud's Wild Harvest",
            "popularity": 0.6
        },
        {
            "id": 131612,
            "original_name": "Trials of the Wild",
            "popularity": 0.604
        },
        {
            "id": 131776,
            "original_name": "Warzone Gone Wild",
            "popularity": 0.6
        },
        {
            "id": 131880,
            "original_name": "Terra X - Wilder Planet",
            "popularity": 0.6
        },
        {
            "id": 132062,
            "original_name": "De Nieuwe Wildernis",
            "popularity": 0.6
        },
        {
            "id": 132201,
            "original_name": "Anna und die wilden Lieder",
            "popularity": 0.6
        },
        {
            "id": 132202,
            "original_name": "Paula und die wilden Lieder",
            "popularity": 0.6
        },
        {
            "id": 132204,
            "original_name": "Pia und die wilde Natur",
            "popularity": 0.6
        },
        {
            "id": 132206,
            "original_name": "Pia und das wilde Wissen",
            "popularity": 0.6
        },
        {
            "id": 133008,
            "original_name": "Wild Nevada",
            "popularity": 0.6
        },
        {
            "id": 133301,
            "original_name": "Wild Galapagos",
            "popularity": 0.6
        },
        {
            "id": 133865,
            "original_name": "Lil Wild",
            "popularity": 0.6
        },
        {
            "id": 133933,
            "original_name": "Wild Villa",
            "popularity": 0.6
        },
        {
            "id": 134218,
            "original_name": "Wild Winners",
            "popularity": 0.6
        },
        {
            "id": 134874,
            "original_name": "Chris and Meg's Wild Summer",
            "popularity": 4.551
        },
        {
            "id": 135134,
            "original_name": "Wild Crime",
            "popularity": 5.279
        },
        {
            "id": 135379,
            "original_name": "Secrets of the Zoo: The Wild Side",
            "popularity": 0.6
        },
        {
            "id": 135488,
            "original_name": "Born to Be Wild",
            "popularity": 0.6
        },
        {
            "id": 136053,
            "original_name": "Inside Wilder vs Fury III",
            "popularity": 0.6
        },
        {
            "id": 136297,
            "original_name": "Wildlife S\u00fcdafrika",
            "popularity": 0.6
        },
        {
            "id": 136442,
            "original_name": "Destination Wild : Hawa\u00ef a l'\u00e9tat sauvage",
            "popularity": 0.6
        },
        {
            "id": 136478,
            "original_name": "Wild 24",
            "popularity": 0.6
        },
        {
            "id": 136566,
            "original_name": "The Wilderness Years",
            "popularity": 0.6
        },
        {
            "id": 137293,
            "original_name": "Wild Arctic",
            "popularity": 0.6
        },
        {
            "id": 137411,
            "original_name": "Into The Wild With Bear Grylls and Ajay Devgn",
            "popularity": 0.992
        },
        {
            "id": 137452,
            "original_name": "Scotland: Escape To The Wilderness",
            "popularity": 1.02
        },
        {
            "id": 137917,
            "original_name": "Wild West chronicles",
            "popularity": 0.6
        },
        {
            "id": 138127,
            "original_name": "Wild Teens - Contadini in erba",
            "popularity": 1.4
        },
        {
            "id": 138164,
            "original_name": "Great Plains - America's Lingering Wild",
            "popularity": 0.6
        },
        {
            "id": 138210,
            "original_name": "Russia's Wild Sea",
            "popularity": 0.6
        },
        {
            "id": 139305,
            "original_name": "The Wild Gardener",
            "popularity": 1.887
        },
        {
            "id": 139370,
            "original_name": "\u540d\u63a2\u5075\u30b3\u30ca\u30f3 \u8b66\u5bdf\u5b66\u6821\u7de8 Wild Police Story",
            "popularity": 11.638
        },
        {
            "id": 139434,
            "original_name": "7 vs. Wild",
            "popularity": 23.195
        },
        {
            "id": 146398,
            "original_name": "Wild Mongolia: Land of Extremes",
            "popularity": 0.6
        },
        {
            "id": 152262,
            "original_name": "Barra's Wild Days Out",
            "popularity": 1.689
        }
    ],
    "relations": [
        {
            "character": "wildb"
        },
        {
            "character": "wildf"
        },
        {
            "character": "wilde"
        },
        {
            "character": "wildl"
        },
        {
            "character": "wildc"
        },
        {
            "character": "wilds"
        },
        {
            "character": "wild!"
        },
        {
            "character": "wildm"
        },
        {
            "character": "wildn"
        }
    ],
    "top20": [
        {
            "id": 113367,
            "original_name": "The Wilds",
            "popularity": 42.309
        },
        {
            "id": 4709,
            "original_name": "Man vs. Wild",
            "popularity": 29.164
        },
        {
            "id": 10929,
            "original_name": "The Wild Wild West",
            "popularity": 26.898
        },
        {
            "id": 139434,
            "original_name": "7 vs. Wild",
            "popularity": 23.195
        },
        {
            "id": 2299,
            "original_name": "Nick Cannon Presents: Wild 'N Out",
            "popularity": 19.785
        },
        {
            "id": 2408,
            "original_name": "The Wild Thornberrys",
            "popularity": 19.343
        },
        {
            "id": 35094,
            "original_name": "Wild Kratts",
            "popularity": 16.356
        },
        {
            "id": 139370,
            "original_name": "\u540d\u63a2\u5075\u30b3\u30ca\u30f3 \u8b66\u5bdf\u5b66\u6821\u7de8 Wild Police Story",
            "popularity": 11.638
        },
        {
            "id": 2464,
            "original_name": "Wildfire",
            "popularity": 11.035
        },
        {
            "id": 61120,
            "original_name": "Running Wild with Bear Grylls",
            "popularity": 9.492
        },
        {
            "id": 109330,
            "original_name": "Madagascar: A Little Wild",
            "popularity": 8.472
        },
        {
            "id": 123348,
            "original_name": "Wild Republic",
            "popularity": 8.318
        },
        {
            "id": 13658,
            "original_name": "The Adventures of Wild Bill Hickok",
            "popularity": 7.245
        },
        {
            "id": 35183,
            "original_name": "Wild Wales",
            "popularity": 6.869
        },
        {
            "id": 77601,
            "original_name": "Wild Wild Country",
            "popularity": 6.665
        },
        {
            "id": 83074,
            "original_name": "Wild Bill",
            "popularity": 6.294
        },
        {
            "id": 3283,
            "original_name": "Wild Palms",
            "popularity": 5.898
        },
        {
            "id": 61330,
            "original_name": "Sheriff Callie's Wild West",
            "popularity": 5.517
        },
        {
            "id": 135134,
            "original_name": "Wild Crime",
            "popularity": 5.279
        },
        {
            "id": 32757,
            "original_name": "Running Wilde",
            "popularity": 5.222
        }
    ]
}