{
    "data": [
        {
            "id": 26239,
            "original_name": "Wintergasten",
            "popularity": 0.743
        },
        {
            "id": 90208,
            "original_name": "Wei\u00dfblaue Wintergeschichten",
            "popularity": 3.66
        }
    ],
    "relations": [],
    "top20": [
        {
            "id": 26239,
            "original_name": "Wintergasten",
            "popularity": 0.743
        },
        {
            "id": 90208,
            "original_name": "Wei\u00dfblaue Wintergeschichten",
            "popularity": 3.66
        }
    ]
}