{
    "data": [
        {
            "id": 7019,
            "original_name": "Kapag May Katwiran, Ipaglaban Mo!",
            "popularity": 0.6
        }
    ],
    "relations": [],
    "top20": [
        {
            "id": 7019,
            "original_name": "Kapag May Katwiran, Ipaglaban Mo!",
            "popularity": 0.6
        }
    ]
}