{
    "data": [
        {
            "id": 2633,
            "original_name": "24 Hours with...",
            "popularity": 0.6
        },
        {
            "id": 5111,
            "original_name": "An Audience with...",
            "popularity": 12.801
        },
        {
            "id": 11554,
            "original_name": "Allan Gregg in Conversation with...",
            "popularity": 0.6
        },
        {
            "id": 15375,
            "original_name": "Ghosthunting With...",
            "popularity": 0.6
        },
        {
            "id": 17847,
            "original_name": "At Home With...",
            "popularity": 0.6
        },
        {
            "id": 19798,
            "original_name": "Spectacle: Elvis Costello with...",
            "popularity": 1.251
        },
        {
            "id": 22057,
            "original_name": "At Home with... Fann Wong",
            "popularity": 0.6
        },
        {
            "id": 22796,
            "original_name": "Friday Night With...",
            "popularity": 0.6
        },
        {
            "id": 25909,
            "original_name": "The Trouble With...",
            "popularity": 0.6
        },
        {
            "id": 26545,
            "original_name": "Coping With...",
            "popularity": 0.6
        },
        {
            "id": 27037,
            "original_name": "Eating With...",
            "popularity": 0.6
        },
        {
            "id": 28661,
            "original_name": "An Evening With...",
            "popularity": 0.6
        },
        {
            "id": 28996,
            "original_name": "You Rock with...",
            "popularity": 0.6
        },
        {
            "id": 30629,
            "original_name": "In The Wild With...",
            "popularity": 0.6
        },
        {
            "id": 31391,
            "original_name": "My Date With...",
            "popularity": 0.6
        },
        {
            "id": 42177,
            "original_name": "A Night with...",
            "popularity": 0.6
        },
        {
            "id": 57396,
            "original_name": "Walking with...",
            "popularity": 0.6
        },
        {
            "id": 59393,
            "original_name": "At the Table with...",
            "popularity": 0.6
        },
        {
            "id": 79346,
            "original_name": "John Bishop: In Conversation With...",
            "popularity": 3.209
        },
        {
            "id": 85630,
            "original_name": "Bear's Wild Weekend with...",
            "popularity": 0.6
        },
        {
            "id": 86804,
            "original_name": "Bear's Mission with...",
            "popularity": 1.915
        },
        {
            "id": 91609,
            "original_name": "Discovering with...",
            "popularity": 0.6
        },
        {
            "id": 91769,
            "original_name": "Ross Kemp: Living with...",
            "popularity": 0.6
        },
        {
            "id": 106776,
            "original_name": "Everything Wrong with...",
            "popularity": 0.6
        },
        {
            "id": 135125,
            "original_name": "Foxy's Fearless 48 Hours With...",
            "popularity": 0.6
        },
        {
            "id": 138878,
            "original_name": "Walking With...",
            "popularity": 0.6
        }
    ],
    "relations": [
        {
            "character": "with..."
        }
    ],
    "top20": [
        {
            "id": 5111,
            "original_name": "An Audience with...",
            "popularity": 12.801
        },
        {
            "id": 79346,
            "original_name": "John Bishop: In Conversation With...",
            "popularity": 3.209
        },
        {
            "id": 86804,
            "original_name": "Bear's Mission with...",
            "popularity": 1.915
        },
        {
            "id": 19798,
            "original_name": "Spectacle: Elvis Costello with...",
            "popularity": 1.251
        },
        {
            "id": 22057,
            "original_name": "At Home with... Fann Wong",
            "popularity": 0.6
        },
        {
            "id": 27037,
            "original_name": "Eating With...",
            "popularity": 0.6
        },
        {
            "id": 42177,
            "original_name": "A Night with...",
            "popularity": 0.6
        },
        {
            "id": 25909,
            "original_name": "The Trouble With...",
            "popularity": 0.6
        },
        {
            "id": 2633,
            "original_name": "24 Hours with...",
            "popularity": 0.6
        },
        {
            "id": 15375,
            "original_name": "Ghosthunting With...",
            "popularity": 0.6
        },
        {
            "id": 28996,
            "original_name": "You Rock with...",
            "popularity": 0.6
        },
        {
            "id": 31391,
            "original_name": "My Date With...",
            "popularity": 0.6
        },
        {
            "id": 26545,
            "original_name": "Coping With...",
            "popularity": 0.6
        },
        {
            "id": 28661,
            "original_name": "An Evening With...",
            "popularity": 0.6
        },
        {
            "id": 59393,
            "original_name": "At the Table with...",
            "popularity": 0.6
        },
        {
            "id": 22796,
            "original_name": "Friday Night With...",
            "popularity": 0.6
        },
        {
            "id": 30629,
            "original_name": "In The Wild With...",
            "popularity": 0.6
        },
        {
            "id": 57396,
            "original_name": "Walking with...",
            "popularity": 0.6
        },
        {
            "id": 17847,
            "original_name": "At Home With...",
            "popularity": 0.6
        },
        {
            "id": 11554,
            "original_name": "Allan Gregg in Conversation with...",
            "popularity": 0.6
        }
    ]
}