{
    "data": [
        {
            "id": 12913,
            "original_name": "20 Minute Workout",
            "popularity": 0.6
        },
        {
            "id": 22571,
            "original_name": "My Workout",
            "popularity": 0.6
        },
        {
            "id": 59562,
            "original_name": "Workout From Within with Jeff Halevy",
            "popularity": 0.6
        },
        {
            "id": 71480,
            "original_name": "Classic 57 Minute - Full Body Workout",
            "popularity": 0.6
        },
        {
            "id": 71481,
            "original_name": "Classic 57 Minute - Full Body Workout",
            "popularity": 0.6
        },
        {
            "id": 71482,
            "original_name": "Classic 57 Minute - Full Body Workout",
            "popularity": 0.6
        },
        {
            "id": 71483,
            "original_name": "Classic 57 Minute - Full Body Workout",
            "popularity": 0.6
        },
        {
            "id": 99745,
            "original_name": "Extreme Kettlebell Workout",
            "popularity": 0.6
        },
        {
            "id": 102417,
            "original_name": "One & Done Workout Program",
            "popularity": 0.612
        },
        {
            "id": 111241,
            "original_name": "Rodney Yee's Advanced Yoga - 1 Total-Body and Arm-Balance Workout",
            "popularity": 0.6
        },
        {
            "id": 111323,
            "original_name": "Insanity workout",
            "popularity": 0.6
        },
        {
            "id": 116339,
            "original_name": "Joe Wicks The Body Coach Workout",
            "popularity": 0.6
        },
        {
            "id": 138028,
            "original_name": "Hey Duggee & Joe Wicks - The Workout Badges",
            "popularity": 0.635
        }
    ],
    "relations": [],
    "top20": [
        {
            "id": 12913,
            "original_name": "20 Minute Workout",
            "popularity": 0.6
        },
        {
            "id": 22571,
            "original_name": "My Workout",
            "popularity": 0.6
        },
        {
            "id": 59562,
            "original_name": "Workout From Within with Jeff Halevy",
            "popularity": 0.6
        },
        {
            "id": 71480,
            "original_name": "Classic 57 Minute - Full Body Workout",
            "popularity": 0.6
        },
        {
            "id": 71481,
            "original_name": "Classic 57 Minute - Full Body Workout",
            "popularity": 0.6
        },
        {
            "id": 71482,
            "original_name": "Classic 57 Minute - Full Body Workout",
            "popularity": 0.6
        },
        {
            "id": 71483,
            "original_name": "Classic 57 Minute - Full Body Workout",
            "popularity": 0.6
        },
        {
            "id": 99745,
            "original_name": "Extreme Kettlebell Workout",
            "popularity": 0.6
        },
        {
            "id": 102417,
            "original_name": "One & Done Workout Program",
            "popularity": 0.612
        },
        {
            "id": 111241,
            "original_name": "Rodney Yee's Advanced Yoga - 1 Total-Body and Arm-Balance Workout",
            "popularity": 0.6
        },
        {
            "id": 111323,
            "original_name": "Insanity workout",
            "popularity": 0.6
        },
        {
            "id": 116339,
            "original_name": "Joe Wicks The Body Coach Workout",
            "popularity": 0.6
        },
        {
            "id": 138028,
            "original_name": "Hey Duggee & Joe Wicks - The Workout Badges",
            "popularity": 0.635
        }
    ]
}