{
    "data": [
        {
            "id": 17747,
            "original_name": "Harry and the Wrinklies",
            "popularity": 0.6
        },
        {
            "id": 134395,
            "original_name": "A Wrinkle in Time",
            "popularity": 0.6
        }
    ],
    "relations": [],
    "top20": [
        {
            "id": 17747,
            "original_name": "Harry and the Wrinklies",
            "popularity": 0.6
        },
        {
            "id": 134395,
            "original_name": "A Wrinkle in Time",
            "popularity": 0.6
        }
    ]
}