{
    "data": [
        {
            "id": 17500,
            "original_name": "How's Your News?",
            "popularity": 0.668
        },
        {
            "id": 58725,
            "original_name": "What's Your News?",
            "popularity": 0.804
        }
    ],
    "relations": [],
    "top20": [
        {
            "id": 17500,
            "original_name": "How's Your News?",
            "popularity": 0.668
        },
        {
            "id": 58725,
            "original_name": "What's Your News?",
            "popularity": 0.804
        }
    ]
}