{
    "data": [
        {
            "id": 21375,
            "original_name": "Newsmark",
            "popularity": 0.6
        }
    ],
    "relations": [],
    "top20": [
        {
            "id": 21375,
            "original_name": "Newsmark",
            "popularity": 0.6
        }
    ]
}