{
    "data": [
        {
            "id": 25379,
            "original_name": "Sex... with Mom and Dad",
            "popularity": 0.6
        },
        {
            "id": 49520,
            "original_name": "Sexaholix...A Love Story",
            "popularity": 0.6
        },
        {
            "id": 59807,
            "original_name": "Sex... with Mum and Dad",
            "popularity": 0.6
        },
        {
            "id": 73758,
            "original_name": "Gogglebox. Przed telewizorem.",
            "popularity": 3.941
        },
        {
            "id": 82619,
            "original_name": "X.X.X: Uncensored",
            "popularity": 22.845
        },
        {
            "id": 94008,
            "original_name": "Operation.X.Jagten.p\u00e5.vores.milliarder",
            "popularity": 0.6
        },
        {
            "id": 95829,
            "original_name": "Operation.X.Graadighedens.pris",
            "popularity": 0.6
        }
    ],
    "relations": [],
    "top20": [
        {
            "id": 25379,
            "original_name": "Sex... with Mom and Dad",
            "popularity": 0.6
        },
        {
            "id": 49520,
            "original_name": "Sexaholix...A Love Story",
            "popularity": 0.6
        },
        {
            "id": 59807,
            "original_name": "Sex... with Mum and Dad",
            "popularity": 0.6
        },
        {
            "id": 73758,
            "original_name": "Gogglebox. Przed telewizorem.",
            "popularity": 3.941
        },
        {
            "id": 82619,
            "original_name": "X.X.X: Uncensored",
            "popularity": 22.845
        },
        {
            "id": 94008,
            "original_name": "Operation.X.Jagten.p\u00e5.vores.milliarder",
            "popularity": 0.6
        },
        {
            "id": 95829,
            "original_name": "Operation.X.Graadighedens.pris",
            "popularity": 0.6
        }
    ]
}