{
    "data": [
        {
            "id": 45854,
            "original_name": "\u904a\u2606\u622f\u2606\u738bZEXAL",
            "popularity": 7.095
        },
        {
            "id": 66881,
            "original_name": "Xal Maan U Waayey",
            "popularity": 0.6
        },
        {
            "id": 113851,
            "original_name": "Naxalbari",
            "popularity": 1.611
        }
    ],
    "relations": [],
    "top20": [
        {
            "id": 45854,
            "original_name": "\u904a\u2606\u622f\u2606\u738bZEXAL",
            "popularity": 7.095
        },
        {
            "id": 66881,
            "original_name": "Xal Maan U Waayey",
            "popularity": 0.6
        },
        {
            "id": 113851,
            "original_name": "Naxalbari",
            "popularity": 1.611
        }
    ]
}