{
    "data": [
        {
            "id": 27407,
            "original_name": "Xperimental",
            "popularity": 0.6
        },
        {
            "id": 63491,
            "original_name": "Experimental",
            "popularity": 0.6
        },
        {
            "id": 98566,
            "original_name": "Walt Disney Animation Studios: Short Circuit Experimental Films",
            "popularity": 4.797
        }
    ],
    "relations": [],
    "top20": [
        {
            "id": 27407,
            "original_name": "Xperimental",
            "popularity": 0.6
        },
        {
            "id": 63491,
            "original_name": "Experimental",
            "popularity": 0.6
        },
        {
            "id": 98566,
            "original_name": "Walt Disney Animation Studios: Short Circuit Experimental Films",
            "popularity": 4.797
        }
    ]
}