{
    "data": [
        {
            "id": 5386,
            "original_name": "6ixth Sense",
            "popularity": 0.6
        },
        {
            "id": 13648,
            "original_name": "The Sixth Sense",
            "popularity": 6.915
        },
        {
            "id": 17789,
            "original_name": "I Was a Sixth Grade Alien",
            "popularity": 3.673
        },
        {
            "id": 29736,
            "original_name": "Sixth Form Challenge",
            "popularity": 0.6
        }
    ],
    "relations": [],
    "top20": [
        {
            "id": 5386,
            "original_name": "6ixth Sense",
            "popularity": 0.6
        },
        {
            "id": 13648,
            "original_name": "The Sixth Sense",
            "popularity": 6.915
        },
        {
            "id": 17789,
            "original_name": "I Was a Sixth Grade Alien",
            "popularity": 3.673
        },
        {
            "id": 29736,
            "original_name": "Sixth Form Challenge",
            "popularity": 0.6
        }
    ]
}