{
    "data": [
        {
            "id": 99382,
            "original_name": "4xxx4",
            "popularity": 0.6
        }
    ],
    "relations": [],
    "top20": [
        {
            "id": 99382,
            "original_name": "4xxx4",
            "popularity": 0.6
        }
    ]
}