{
    "data": [
        {
            "id": 13325,
            "original_name": "Merseybeat",
            "popularity": 1.939
        },
        {
            "id": 59241,
            "original_name": "Teddybears",
            "popularity": 0.6
        }
    ],
    "relations": [],
    "top20": [
        {
            "id": 13325,
            "original_name": "Merseybeat",
            "popularity": 1.939
        },
        {
            "id": 59241,
            "original_name": "Teddybears",
            "popularity": 0.6
        }
    ]
}