{
    "data": [
        {
            "id": 252,
            "original_name": "Everybody Hates Chris",
            "popularity": 20.196
        },
        {
            "id": 2140,
            "original_name": "Everybody Loves Raymond",
            "popularity": 25.825
        },
        {
            "id": 4904,
            "original_name": "Everybody's Equal",
            "popularity": 0.6
        },
        {
            "id": 7555,
            "original_name": "It's Anybody's Guess",
            "popularity": 0.6
        },
        {
            "id": 11423,
            "original_name": "Everybody's Talking",
            "popularity": 0.6
        },
        {
            "id": 24705,
            "original_name": "Anybody Can Play",
            "popularity": 0.6
        },
        {
            "id": 28456,
            "original_name": "Everybody",
            "popularity": 0.6
        },
        {
            "id": 28561,
            "original_name": "Everybody's Talking",
            "popularity": 0.6
        },
        {
            "id": 29957,
            "original_name": "Everybody's Talking!",
            "popularity": 0.6
        },
        {
            "id": 33456,
            "original_name": "Everybody Hapi",
            "popularity": 0.6
        },
        {
            "id": 36605,
            "original_name": "Everybody Hurts",
            "popularity": 0.6
        },
        {
            "id": 46149,
            "original_name": "Everybody Dance!",
            "popularity": 0.6
        },
        {
            "id": 50404,
            "original_name": "Everybody Dance Now",
            "popularity": 0.6
        },
        {
            "id": 56910,
            "original_name": "Everybody Speaks Nonsenses II \u2013 Hot Pot",
            "popularity": 0.6
        },
        {
            "id": 124431,
            "original_name": "Everybody, Kimchi",
            "popularity": 0.6
        },
        {
            "id": 137999,
            "original_name": "Everybody Loves Natti",
            "popularity": 16.968
        }
    ],
    "relations": [],
    "top20": [
        {
            "id": 252,
            "original_name": "Everybody Hates Chris",
            "popularity": 20.196
        },
        {
            "id": 2140,
            "original_name": "Everybody Loves Raymond",
            "popularity": 25.825
        },
        {
            "id": 4904,
            "original_name": "Everybody's Equal",
            "popularity": 0.6
        },
        {
            "id": 7555,
            "original_name": "It's Anybody's Guess",
            "popularity": 0.6
        },
        {
            "id": 11423,
            "original_name": "Everybody's Talking",
            "popularity": 0.6
        },
        {
            "id": 24705,
            "original_name": "Anybody Can Play",
            "popularity": 0.6
        },
        {
            "id": 28456,
            "original_name": "Everybody",
            "popularity": 0.6
        },
        {
            "id": 28561,
            "original_name": "Everybody's Talking",
            "popularity": 0.6
        },
        {
            "id": 29957,
            "original_name": "Everybody's Talking!",
            "popularity": 0.6
        },
        {
            "id": 33456,
            "original_name": "Everybody Hapi",
            "popularity": 0.6
        },
        {
            "id": 36605,
            "original_name": "Everybody Hurts",
            "popularity": 0.6
        },
        {
            "id": 46149,
            "original_name": "Everybody Dance!",
            "popularity": 0.6
        },
        {
            "id": 50404,
            "original_name": "Everybody Dance Now",
            "popularity": 0.6
        },
        {
            "id": 56910,
            "original_name": "Everybody Speaks Nonsenses II \u2013 Hot Pot",
            "popularity": 0.6
        },
        {
            "id": 124431,
            "original_name": "Everybody, Kimchi",
            "popularity": 0.6
        },
        {
            "id": 137999,
            "original_name": "Everybody Loves Natti",
            "popularity": 16.968
        }
    ]
}