{
    "data": [
        {
            "id": 95361,
            "original_name": "A Konyhaf\u0151n\u00f6k VIP",
            "popularity": 118.502
        },
        {
            "id": 42368,
            "original_name": "Lilyhammer",
            "popularity": 15.839
        },
        {
            "id": 10809,
            "original_name": "The Philco Television Playhouse",
            "popularity": 15.039
        },
        {
            "id": 8591,
            "original_name": "Westinghouse Desilu Playhouse",
            "popularity": 10.839
        },
        {
            "id": 11448,
            "original_name": "Goodyear Television Playhouse",
            "popularity": 9.43
        },
        {
            "id": 1737,
            "original_name": "Four Star Playhouse",
            "popularity": 8.44
        },
        {
            "id": 18567,
            "original_name": "CBS Playhouse",
            "popularity": 5.935
        },
        {
            "id": 12238,
            "original_name": "The Pepsi-Cola Playhouse",
            "popularity": 5.873
        },
        {
            "id": 3073,
            "original_name": "Comedy Playhouse",
            "popularity": 5.353
        },
        {
            "id": 4612,
            "original_name": "Pee-wee's Playhouse",
            "popularity": 5.051
        },
        {
            "id": 68302,
            "original_name": "Crazyhead",
            "popularity": 4.839
        },
        {
            "id": 24608,
            "original_name": "Vacation Playhouse",
            "popularity": 3.495
        },
        {
            "id": 10282,
            "original_name": "American Playhouse",
            "popularity": 3.316
        },
        {
            "id": 9961,
            "original_name": "CBS Summer Playhouse",
            "popularity": 3.277
        },
        {
            "id": 77709,
            "original_name": "Svenska nyheter",
            "popularity": 3.153
        },
        {
            "id": 44844,
            "original_name": "Playhouse Presents",
            "popularity": 3.144
        },
        {
            "id": 34034,
            "original_name": "C/o Segemyhr",
            "popularity": 2.846
        },
        {
            "id": 5235,
            "original_name": "Through the Keyhole",
            "popularity": 2.716
        },
        {
            "id": 30504,
            "original_name": "Playhouse",
            "popularity": 2.492
        },
        {
            "id": 84712,
            "original_name": "Daddyhunt: The Serial",
            "popularity": 2.37
        },
        {
            "id": 27575,
            "original_name": "Screen Director's Playhouse",
            "popularity": 2.097
        },
        {
            "id": 78785,
            "original_name": "Vyhnanstv\u00ed",
            "popularity": 2.07
        },
        {
            "id": 25944,
            "original_name": "Summer Playhouse",
            "popularity": 2.04
        },
        {
            "id": 15068,
            "original_name": "The Campbell Playhouse",
            "popularity": 1.989
        },
        {
            "id": 11168,
            "original_name": "Playhouse 90",
            "popularity": 1.963
        },
        {
            "id": 15049,
            "original_name": "Westinghouse Playhouse",
            "popularity": 1.476
        },
        {
            "id": 5190,
            "original_name": "Snacka om nyheter",
            "popularity": 1.463
        },
        {
            "id": 23980,
            "original_name": "Clayhanger",
            "popularity": 1.405
        },
        {
            "id": 68344,
            "original_name": "Beyhadh",
            "popularity": 1.222
        },
        {
            "id": 25307,
            "original_name": "The Galton & Simpson Playhouse",
            "popularity": 1.148
        },
        {
            "id": 133813,
            "original_name": "Career Opportunities In Murder & Mayhem",
            "popularity": 1.126
        },
        {
            "id": 26842,
            "original_name": "Lux Playhouse",
            "popularity": 1.118
        },
        {
            "id": 80291,
            "original_name": "Massive Monster Mayhem",
            "popularity": 1.095
        },
        {
            "id": 62348,
            "original_name": "A Konyhaf\u0151n\u00f6k",
            "popularity": 1.025
        },
        {
            "id": 71335,
            "original_name": "Hymyhuulet",
            "popularity": 0.96
        },
        {
            "id": 85051,
            "original_name": "Through the Keyhole",
            "popularity": 0.937
        },
        {
            "id": 15562,
            "original_name": "Pulitzer Prize Playhouse",
            "popularity": 0.904
        },
        {
            "id": 11442,
            "original_name": "Schlitz Playhouse of Stars",
            "popularity": 0.807
        },
        {
            "id": 180111,
            "original_name": "yh533388\u94f6\u6cb3\u3010\u7f54\u82b7jy01,cc\u3011_\u767e\u5ea6\u77e5\u9053m",
            "popularity": 0.765
        },
        {
            "id": 109908,
            "original_name": "Doup\u011b Mekyho \u017dbirky",
            "popularity": 0.761
        },
        {
            "id": 13699,
            "original_name": "Wodehouse Playhouse",
            "popularity": 0.694
        },
        {
            "id": 3915,
            "original_name": "Adventures in Hollyhood",
            "popularity": 0.669
        },
        {
            "id": 21531,
            "original_name": "Celebrity Playhouse",
            "popularity": 0.639
        },
        {
            "id": 22019,
            "original_name": "CBS Afternoon Playhouse",
            "popularity": 0.627
        },
        {
            "id": 5629,
            "original_name": "The Ronnie Barker Playhouse",
            "popularity": 0.6
        },
        {
            "id": 6834,
            "original_name": "Playhouse Disney",
            "popularity": 0.6
        },
        {
            "id": 7114,
            "original_name": "Playhouse Disney Morning",
            "popularity": 0.6
        },
        {
            "id": 8412,
            "original_name": "Adventure Playhouse",
            "popularity": 0.6
        },
        {
            "id": 8447,
            "original_name": "The O. Henry Playhouse",
            "popularity": 0.6
        },
        {
            "id": 11421,
            "original_name": "Veckans nyheter",
            "popularity": 0.6
        },
        {
            "id": 11566,
            "original_name": "Skyhawks",
            "popularity": 0.6
        },
        {
            "id": 13580,
            "original_name": "Yle Nyheter",
            "popularity": 0.6
        },
        {
            "id": 14357,
            "original_name": "TV4Nyheterna",
            "popularity": 0.6
        },
        {
            "id": 15560,
            "original_name": "NET Playhouse",
            "popularity": 0.6
        },
        {
            "id": 16509,
            "original_name": "Comedy Playhouse",
            "popularity": 0.6
        },
        {
            "id": 16955,
            "original_name": "Comedy Playhouse",
            "popularity": 0.6
        },
        {
            "id": 17091,
            "original_name": "ITV Playhouse",
            "popularity": 0.6
        },
        {
            "id": 17355,
            "original_name": "SeeMore's Playhouse",
            "popularity": 0.6
        },
        {
            "id": 17734,
            "original_name": "Comedy Playhouse",
            "popularity": 0.6
        },
        {
            "id": 18708,
            "original_name": "Television Playhouse",
            "popularity": 0.6
        },
        {
            "id": 19912,
            "original_name": "Playhouse Disney India",
            "popularity": 0.6
        },
        {
            "id": 20346,
            "original_name": "Steve Smith Playhouse",
            "popularity": 0.6
        },
        {
            "id": 20347,
            "original_name": "Comedy Playhouse",
            "popularity": 0.6
        },
        {
            "id": 21028,
            "original_name": "TV 2 Nyhetene",
            "popularity": 0.6
        },
        {
            "id": 23418,
            "original_name": "Philip Morris Playhouse",
            "popularity": 0.6
        },
        {
            "id": 23466,
            "original_name": "Mighty Mouse Playhouse",
            "popularity": 0.6
        },
        {
            "id": 25228,
            "original_name": "Gruen Guild Playhouse",
            "popularity": 0.6
        },
        {
            "id": 25517,
            "original_name": "The Lonelyhearts Kid",
            "popularity": 0.6
        },
        {
            "id": 25540,
            "original_name": "S.R.O. Playhouse",
            "popularity": 0.6
        },
        {
            "id": 26570,
            "original_name": "Australian Playhouse",
            "popularity": 0.6
        },
        {
            "id": 26592,
            "original_name": "Gulf Playhouse",
            "popularity": 0.6
        },
        {
            "id": 26759,
            "original_name": "Writers's Playhouse",
            "popularity": 0.6
        },
        {
            "id": 26869,
            "original_name": "Enchanted Musical Playhouse",
            "popularity": 0.6
        },
        {
            "id": 28260,
            "original_name": "Adorn Playhouse",
            "popularity": 0.6
        },
        {
            "id": 28370,
            "original_name": "The Steve Allen Playhouse",
            "popularity": 0.6
        },
        {
            "id": 29928,
            "original_name": "Purple Playhouse",
            "popularity": 0.6
        },
        {
            "id": 30088,
            "original_name": "Prudential Family Playhouse",
            "popularity": 0.6
        },
        {
            "id": 31423,
            "original_name": "O. Henry Playhouse",
            "popularity": 0.6
        },
        {
            "id": 32853,
            "original_name": "Gruen Playhouse",
            "popularity": 0.6
        },
        {
            "id": 33051,
            "original_name": "International Playhouse",
            "popularity": 0.6
        },
        {
            "id": 33706,
            "original_name": "Purple Playhouse",
            "popularity": 0.6
        },
        {
            "id": 35638,
            "original_name": "K\u00f6yh\u00e4t ritarit",
            "popularity": 0.6
        },
        {
            "id": 39216,
            "original_name": "Nyhetsmorgon L\u00f6rdag",
            "popularity": 0.6
        },
        {
            "id": 39234,
            "original_name": "Nyhetsmorgon S\u00f6ndag",
            "popularity": 0.6
        },
        {
            "id": 40850,
            "original_name": "UK Wrestling Mayhem",
            "popularity": 0.6
        },
        {
            "id": 46115,
            "original_name": "Boyhunt",
            "popularity": 0.6
        },
        {
            "id": 47493,
            "original_name": "Christmas at Pee Wee's Playhouse",
            "popularity": 0.6
        },
        {
            "id": 50947,
            "original_name": "Magiki nyhta",
            "popularity": 0.6
        },
        {
            "id": 54394,
            "original_name": "Anisyha neiata",
            "popularity": 0.6
        },
        {
            "id": 54894,
            "original_name": "Enas filisyhos anthropos",
            "popularity": 0.6
        },
        {
            "id": 58333,
            "original_name": "Cannon and Balls Playhouse",
            "popularity": 0.6
        },
        {
            "id": 59260,
            "original_name": "Program Playhouse",
            "popularity": 0.6
        },
        {
            "id": 65985,
            "original_name": "Byh\u00e5la",
            "popularity": 0.6
        },
        {
            "id": 73998,
            "original_name": "Playhouse Masters",
            "popularity": 0.6
        },
        {
            "id": 75628,
            "original_name": "Yhdeks\u00e4n Miehen Saappaat",
            "popularity": 0.6
        },
        {
            "id": 83409,
            "original_name": "Bodyhack",
            "popularity": 0.6
        },
        {
            "id": 88482,
            "original_name": "Hynttyyt yhteen",
            "popularity": 0.6
        },
        {
            "id": 95818,
            "original_name": "Rudyho m\u00e1 ka\u017ed\u00fd r\u00e1d",
            "popularity": 0.6
        },
        {
            "id": 103022,
            "original_name": "Playhouse",
            "popularity": 0.6
        },
        {
            "id": 120402,
            "original_name": "En slags nyheder med Flykt & N\u00f8rgaard",
            "popularity": 0.6
        },
        {
            "id": 121763,
            "original_name": "Dobrodru\u017estv\u00ed Huckleberryho Finna",
            "popularity": 0.6
        },
        {
            "id": 126376,
            "original_name": "Scam City: Money, Mayhem and Maseratis",
            "popularity": 0.6
        },
        {
            "id": 127765,
            "original_name": "Bertelsen - De uaktuelle nyheder",
            "popularity": 0.6
        },
        {
            "id": 131634,
            "original_name": "Ponyhof",
            "popularity": 0.6
        },
        {
            "id": 136633,
            "original_name": "Rozmaring kunyh\u00f3",
            "popularity": 0.6
        },
        {
            "id": 136781,
            "original_name": "Knights of Mayhem",
            "popularity": 0.6
        },
        {
            "id": 136927,
            "original_name": "Wales Playhouse",
            "popularity": 0.6
        },
        {
            "id": 195103,
            "original_name": "pg\u7535\u5b50\u5b98\u65b9\u3010\u7f54:jy01,cc\u3011\u76ae\u76ae\u86cbTRYHSG_\u4f84",
            "popularity": 0.0
        },
        {
            "id": 195104,
            "original_name": "\u7ade\u6280\u5b9d\u4e0b\u8f7d\u5b98\u65b9\u7248\u3010\u7f54:jy01,cc\u3011\u76ae\u76ae\u86cbTRYHSG_\u8c1d",
            "popularity": 0.0
        },
        {
            "id": 195105,
            "original_name": "\u7f8e\u4eba\u9c7c\u6355\u9c7c\u6e38\u620f\u653b\u7565\u3010\u7f54:jy01,cc\u3011\u76ae\u76ae\u86cbTRYHSG_\u6376",
            "popularity": 0.0
        },
        {
            "id": 195106,
            "original_name": "\u975e\u51e1\u56fd\u9645\u3010\u7f54:jy01,cc\u3011\u76ae\u76ae\u86cbTRYHSG_\u533b",
            "popularity": 0.0
        },
        {
            "id": 195107,
            "original_name": "\u59da\u8bb0\u4fe1\u8a89\u5b98\u7f51\u3010\u7f54:jy01,cc\u3011\u76ae\u76ae\u86cbTRYHSG_\u4fb5",
            "popularity": 0.0
        },
        {
            "id": 195108,
            "original_name": "\u4e9a\u535a\u53d6\u6b3e\u5fc3\u4e08\u79d2\u5230\u8d26\u3010\u7f54:jy01,cc\u3011\u76ae\u76ae\u86cbTRYHSG_\u6e4d",
            "popularity": 0.0
        },
        {
            "id": 195109,
            "original_name": "\u4e9a\u535a\u5168\u7f51\u7f51\u7ad9\u767b\u5f55\u3010\u7f54:jy01,cc\u3011\u76ae\u76ae\u86cbTRYHSG_\u7ed5",
            "popularity": 0.0
        },
        {
            "id": 195110,
            "original_name": "vr\u5f69\u7968\u7f51\u9875\u3010\u7f54:jy01,cc\u3011\u76ae\u76ae\u86cbTRYHSG_\u6dd6",
            "popularity": 0.0
        },
        {
            "id": 195111,
            "original_name": "\u4e9a\u535a2021vip\u7f51\u9875\u7248\u3010\u7f54:jy01,cc\u3011\u76ae\u76ae\u86cbTRYHSG_\u9662",
            "popularity": 0.0
        },
        {
            "id": 195112,
            "original_name": "\u4e5d\u5dde\u4f53\u80b2bet9\u5165\u53e3\u3010\u7f54:jy01,cc\u3011\u76ae\u76ae\u86cbTRYHSG_\u9001",
            "popularity": 0.0
        },
        {
            "id": 195113,
            "original_name": "\u4e0b\u8f7d\u91d1\u6c99\u7535\u73a9\u57ce\u3010\u7f54:jy01,cc\u3011\u76ae\u76ae\u86cbTRYHSG_\u5524",
            "popularity": 0.0
        },
        {
            "id": 195114,
            "original_name": "\u5f69\u795e\u7f51\u3010\u7f54:jy01,cc\u3011\u76ae\u76ae\u86cbTRYHSG_\u5ae1",
            "popularity": 0.0
        },
        {
            "id": 195116,
            "original_name": "\u7231\u8d62\u5b98\u7f51\u3010\u7f54:jy01,cc\u3011\u76ae\u76ae\u86cbTRYHSG_\u542d",
            "popularity": 0.0
        },
        {
            "id": 195117,
            "original_name": "\u592a\u9633gg\u6d4b\u901f\u767b\u5f55\u3010\u7f54:jy01,cc\u3011\u76ae\u76ae\u86cbTRYHSG_\u8bfd",
            "popularity": 0.0
        },
        {
            "id": 195118,
            "original_name": "bdy\u5fc5\u80dc\u8d62\u3010\u7f54:jy01,cc\u3011\u76ae\u76ae\u86cbTRYHSG_\u53bf",
            "popularity": 0.0
        },
        {
            "id": 195119,
            "original_name": "\u4e9a\u535a\u9876\u7ea7\u7ebf\u4e0a\u5a31\u4e50\u5e73\u53f0\u3010\u7f54:jy01,cc\u3011\u76ae\u76ae\u86cbTRYHSG_\u5eb8",
            "popularity": 0.0
        },
        {
            "id": 195120,
            "original_name": "\u68cb\u724c\u5a31\u4e50\u3010\u7f54:jy01,cc\u3011\u76ae\u76ae\u86cbTRYHSG_\u4ed9",
            "popularity": 0.0
        },
        {
            "id": 195121,
            "original_name": "\u4eba\u5de5\u8ba1\u5212\u8f6f\u4ef6\u3010\u7f54:jy01,cc\u3011\u76ae\u76ae\u86cbTRYHSG_\u6e34",
            "popularity": 0.0
        },
        {
            "id": 195122,
            "original_name": "\u7ebf\u4e0a\u57f9\u8bad\u5e73\u53f0\u3010\u7f54:jy01,cc\u3011\u76ae\u76ae\u86cbTRYHSG_\u8d44",
            "popularity": 0.0
        },
        {
            "id": 195123,
            "original_name": "\u771f\u4ebaag\u624b\u673a\u7248\u3010\u7f54:jy01,cc\u3011\u76ae\u76ae\u86cbTRYHSG_\u75f4",
            "popularity": 0.0
        },
        {
            "id": 195124,
            "original_name": "\u4e5d\u6e38\u4f1a\u771f\u4eba\u3010\u7f54:jy01,cc\u3011\u76ae\u76ae\u86cbTRYHSG_\u4f55",
            "popularity": 0.0
        },
        {
            "id": 195126,
            "original_name": "mg\u6e38\u620f\u767b\u5f55\u7f51\u7ad9\u3010\u7f54:jy01,cc\u3011\u76ae\u76ae\u86cbTRYHSG_\u4fd7",
            "popularity": 0.0
        },
        {
            "id": 195127,
            "original_name": "\u4e9a\u640f\u7535\u7ade\u3010\u7f54:jy01,cc\u3011\u76ae\u76ae\u86cbTRYHSG_\u4ec6",
            "popularity": 0.0
        },
        {
            "id": 195128,
            "original_name": "\u62a2\u5355\u8f6f\u4ef6\u4e0b\u8f7d\u3010\u7f54:jy01,cc\u3011\u76ae\u76ae\u86cbTRYHSG_\u6e24",
            "popularity": 0.0
        },
        {
            "id": 195129,
            "original_name": "opebet\u4f53\u80b2\u6700\u65b0\u8d44\u8bafc\u3010\u7f54:jy01,cc\u3011\u76ae\u76ae\u86cbTRYHSG_\u4f4d",
            "popularity": 0.0
        },
        {
            "id": 195130,
            "original_name": "\u5927\u53d124\u5c0f\u65f6\u7cbe\u51c6\u804a\u5929\u5ba4\u3010\u7f54:jy01,cc\u3011\u76ae\u76ae\u86cbTRYHSG_\u9e4a",
            "popularity": 0.0
        },
        {
            "id": 195131,
            "original_name": "\u4e9a\u535aapp\u5e73\u53f0\u3010\u7f54:jy01,cc\u3011\u76ae\u76ae\u86cbTRYHSG_\u5c24",
            "popularity": 0.0
        },
        {
            "id": 195132,
            "original_name": "pg\u6e38\u620f\u5e73\u53f0\u3010\u7f54:jy01,cc\u3011\u76ae\u76ae\u86cbTRYHSG_\u8c0e",
            "popularity": 0.0
        },
        {
            "id": 195133,
            "original_name": "\u65b0\u4e07\u535a\u4f53\u80b2app\u5b98\u7f51\u3010\u7f54:jy01,cc\u3011\u76ae\u76ae\u86cbTRYHSG_\u8c22",
            "popularity": 0.0
        },
        {
            "id": 195134,
            "original_name": "\u91d1\u6c99\u5f69\u7968\u624b\u673a\u7248\u5b89\u5353app\u3010\u7f54:jy01,cc\u3011\u76ae\u76ae\u86cbTRYHSG_\u9563",
            "popularity": 0.0
        },
        {
            "id": 195135,
            "original_name": "\u4ebf\u4e50\u5728\u7ebf\u767b\u5f55\u3010\u7f54:jy01,cc\u3011\u76ae\u76ae\u86cbTRYHSG_\u6868",
            "popularity": 0.0
        },
        {
            "id": 195136,
            "original_name": "\u4e9a\u535a\u5b89\u5353\u4e0b\u8f7d\u3010\u7f54:jy01,cc\u3011\u76ae\u76ae\u86cbTRYHSG_\u5c51",
            "popularity": 0.0
        },
        {
            "id": 195137,
            "original_name": "\u8d1d\u65af\u7279\u624b\u673a\u6ce8\u518c\u3010\u7f54:jy01,cc\u3011\u76ae\u76ae\u86cbTRYHSG_\u5b5c",
            "popularity": 0.0
        },
        {
            "id": 195138,
            "original_name": "\u7ea2\u8db31\u4e00\u4e16\u7f51\u5740\u8db3\u7403\u3010\u7f54:jy01,cc\u3011\u76ae\u76ae\u86cbTRYHSG_\u65a1",
            "popularity": 0.0
        },
        {
            "id": 195139,
            "original_name": "7m\u4f53\u80b2\u8db3\u7403\u3010\u7f54:jy01,cc\u3011\u76ae\u76ae\u86cbTRYHSG_\u83b1",
            "popularity": 0.0
        },
        {
            "id": 195140,
            "original_name": "bet\u5b98\u7f51365\u5165\u53e3\u3010\u7f54:jy01,cc\u3011\u76ae\u76ae\u86cbTRYHSG_\u82d1",
            "popularity": 0.0
        },
        {
            "id": 195141,
            "original_name": "\u96c5\u535a\u56fd\u9645\u3010\u7f54:jy01,cc\u3011\u76ae\u76ae\u86cbTRYHSG_\u8e72",
            "popularity": 0.0
        },
        {
            "id": 195142,
            "original_name": "\u6700\u70ed\u95e8\u7684\u7f51\u8d4c\u7f51\u5740\u5927\u5168\u3010\u7f54:jy01,cc\u3011\u76ae\u76ae\u86cbTRYHSG_\u817a",
            "popularity": 0.0
        },
        {
            "id": 195143,
            "original_name": "mg\u6e38\u620f\u5e73\u53f0\u7f51\u5740\u3010\u7f54:jy01,cc\u3011\u76ae\u76ae\u86cbTRYHSG_\u95fb",
            "popularity": 0.0
        },
        {
            "id": 195144,
            "original_name": "\u7f51\u7edc\u624e\u91d1\u82b1\u7f51\u7ad9\u3010\u7f54:jy01,cc\u3011\u76ae\u76ae\u86cbTRYHSG_\u5189",
            "popularity": 0.0
        },
        {
            "id": 195145,
            "original_name": "\u4e9a\u640f\u7535\u7ade\u3010\u7f54:jy01,cc\u3011\u76ae\u76ae\u86cbTRYHSG_\u9e35",
            "popularity": 0.0
        },
        {
            "id": 195146,
            "original_name": "\u98de\u9c7c\u7535\u7adeapp\u4e0b\u8f7d\u3010\u7f54:jy01,cc\u3011\u76ae\u76ae\u86cbTRYHSG_\u8def",
            "popularity": 0.0
        },
        {
            "id": 195147,
            "original_name": "\u4e9a\u6e383\u5a31\u4e50\u5f00\u6237\u3010\u7f54:jy01,cc\u3011\u76ae\u76ae\u86cbTRYHSG_\u8f86",
            "popularity": 0.0
        },
        {
            "id": 195148,
            "original_name": "\u6fb3\u95e8\u6b63\u89c4\u5341\u5927\u5a31\u4e50\u7f51\u7ad9\u3010\u7f54:jy01,cc\u3011\u76ae\u76ae\u86cbTRYHSG_\u533b",
            "popularity": 0.0
        },
        {
            "id": 195149,
            "original_name": "\u5a01\u5c3c\u65af\u7535\u5b50\u6e38\u620f\u4e0b\u8f7d\u3010\u7f54:jy01,cc\u3011\u76ae\u76ae\u86cbTRYHSG_\u7740",
            "popularity": 0.0
        },
        {
            "id": 195150,
            "original_name": "\u6d77\u5e95\u4e16\u754c2\u6355\u9c7c\u6e38\u620f\u3010\u7f54:jy01,cc\u3011\u76ae\u76ae\u86cbTRYHSG_\u7f34",
            "popularity": 0.0
        },
        {
            "id": 195151,
            "original_name": "\u5575\u4e50\u6700\u65b0\u7248\u672c\u5b98\u7f51\u3010\u7f54:jy01,cc\u3011\u76ae\u76ae\u86cbTRYHSG_\u566c",
            "popularity": 0.0
        },
        {
            "id": 195152,
            "original_name": "\u91d1\u6c99\u57ce\u4e2d\u5fc3\u3010\u7f54:jy01,cc\u3011\u76ae\u76ae\u86cbTRYHSG_\u6daf",
            "popularity": 0.0
        },
        {
            "id": 195153,
            "original_name": "\u8db3\u7403\u65b0\u95fb\u3010\u7f54:jy01,cc\u3011\u76ae\u76ae\u86cbTRYHSG_\u58a9",
            "popularity": 0.0
        },
        {
            "id": 195154,
            "original_name": "og\u7f51\u7ad9\u3010\u7f54:jy01,cc\u3011\u76ae\u76ae\u86cbTRYHSG_\u4f3a",
            "popularity": 0.0
        },
        {
            "id": 195155,
            "original_name": "\u60a6\u5e73\u53f0\u5b98\u65b9\u4e0b\u8f7d\u3010\u7f54:jy01,cc\u3011\u76ae\u76ae\u86cbTRYHSG_\u75ea",
            "popularity": 0.0
        },
        {
            "id": 195156,
            "original_name": "bob\u4f53\u80b2\u5b98\u7f51\u6ce8\u518c\u767b\u5f55\u3010\u7f54:jy01,cc\u3011\u76ae\u76ae\u86cbTRYHSG_\u520e",
            "popularity": 0.0
        },
        {
            "id": 195157,
            "original_name": "pg\u7535\u5b50\u9ebb\u5c06\u80e1\u4e86\u7f51\u5740\u3010\u7f54:jy01,cc\u3011\u76ae\u76ae\u86cbTRYHSG_\u56bc",
            "popularity": 0.0
        },
        {
            "id": 195158,
            "original_name": "pg\u7535\u5b50\u5341\u500d\u91d1\u725b\u3010\u7f54:jy01,cc\u3011\u76ae\u76ae\u86cbTRYHSG_\u9761",
            "popularity": 0.0
        },
        {
            "id": 195159,
            "original_name": "\u4e07\u4eba\u70b8\u91d1\u82b1\u624b\u673a\u65e7\u7248\u3010\u7f54:jy01,cc\u3011\u76ae\u76ae\u86cbTRYHSG_\u7ca4",
            "popularity": 0.0
        },
        {
            "id": 195160,
            "original_name": "\u5a31\u4e50\u5f00\u53d1\u591a\u5c11\u94b1\u3010\u7f54:jy01,cc\u3011\u76ae\u76ae\u86cbTRYHSG_\u7ec3",
            "popularity": 0.0
        },
        {
            "id": 195161,
            "original_name": "\u4e9a\u535a\u4f53\u5f69\u4e0b\u8f7d\u3010\u7f54:jy01,cc\u3011\u76ae\u76ae\u86cbTRYHSG_\u56b7",
            "popularity": 0.0
        },
        {
            "id": 195162,
            "original_name": "\u5343\u4ebf\u4f53\u80b2\u9996\u9875\u3010\u7f54:jy01,cc\u3011\u76ae\u76ae\u86cbTRYHSG_\u6491",
            "popularity": 0.0
        },
        {
            "id": 195163,
            "original_name": "\u6fb3\u95e8\u65b0\u8461\u5e78\u8fd0\u5927\u8f6c\u76c6\u3010\u7f54:jy01,cc\u3011\u76ae\u76ae\u86cbTRYHSG_\u59ff",
            "popularity": 0.0
        },
        {
            "id": 195164,
            "original_name": "\u4ebf\u9f0e\u535a\u624b\u673a\u7248\u3010\u7f54:jy01,cc\u3011\u76ae\u76ae\u86cbTRYHSG_\u5440",
            "popularity": 0.0
        },
        {
            "id": 195165,
            "original_name": "\u535a\u4f70\u5b98\u7f51\u3010\u7f54:jy01,cc\u3011\u76ae\u76ae\u86cbTRYHSG_\u8c1c",
            "popularity": 0.0
        },
        {
            "id": 195166,
            "original_name": "\u4e91\u9876\u96c6\u56e2\u7535\u5b50\u6e38\u620f\u3010\u7f54:jy01,cc\u3011\u76ae\u76ae\u86cbTRYHSG_\u6a1f",
            "popularity": 0.0
        },
        {
            "id": 195167,
            "original_name": "\u4ebf\u535a\u4f53\u80b2\u5e73\u53f0\u7f51\u5740\u3010\u7f54:jy01,cc\u3011\u76ae\u76ae\u86cbTRYHSG_\u97e7",
            "popularity": 0.0
        },
        {
            "id": 195168,
            "original_name": "mg\u89c6\u8baf\u5b98\u7f51\u3010\u7f54:jy01,cc\u3011\u76ae\u76ae\u86cbTRYHSG_\u6073",
            "popularity": 0.0
        },
        {
            "id": 195169,
            "original_name": "\u8d5a\u94b1\u7684\u8f6f\u4ef6\u3010\u7f54:jy01,cc\u3011\u76ae\u76ae\u86cbTRYHSG_\u8c0b",
            "popularity": 0.0
        },
        {
            "id": 195170,
            "original_name": "\u591a\u5b9d\u4f53\u80b2\u3010\u7f54:jy01,cc\u3011\u76ae\u76ae\u86cbTRYHSG_\u54d1",
            "popularity": 0.0
        },
        {
            "id": 195171,
            "original_name": "yibo\u4ebf\u535a\u7535\u7ade\u3010\u7f54:jy01,cc\u3011\u76ae\u76ae\u86cbTRYHSG_\u8c2a",
            "popularity": 0.0
        },
        {
            "id": 195173,
            "original_name": "\u706b\u72d0\u4f53\u80b2\u6b63\u5f0f\u5b98\u7f51\u9996\u9875\u3010\u7f54:jy01,cc\u3011\u76ae\u76ae\u86cbTRYHSG_\u767b",
            "popularity": 0.0
        },
        {
            "id": 195174,
            "original_name": "\u6fb3\u6d32\u5e78\u8fd0\u5f00\u5956\u7f51\u7ad9\u3010\u7f54:jy01,cc\u3011\u76ae\u76ae\u86cbTRYHSG_\u64bc",
            "popularity": 0.0
        },
        {
            "id": 195175,
            "original_name": "\u4e91\u9876\u56fd\u9645\u96c6\u56e2\u3010\u7f54:jy01,cc\u3011\u76ae\u76ae\u86cbTRYHSG_\u96f7",
            "popularity": 0.0
        },
        {
            "id": 195176,
            "original_name": "\u6fb3\u95e8\u7687\u90fd\u56fd\u9645\u5b98\u7f51\u3010\u7f54:jy01,cc\u3011\u76ae\u76ae\u86cbTRYHSG_\u541e",
            "popularity": 0.0
        },
        {
            "id": 195177,
            "original_name": "\u7231\u535a\u5a31\u4e50\u5e73\u53f0\u3010\u7f54:jy01,cc\u3011\u76ae\u76ae\u86cbTRYHSG_\u560e",
            "popularity": 0.0
        },
        {
            "id": 195178,
            "original_name": "\u7ebf\u4e0a\u7bee\u7403\u6295\u6ce8\u3010\u7f54:jy01,cc\u3011\u76ae\u76ae\u86cbTRYHSG_\u7a1a",
            "popularity": 0.0
        },
        {
            "id": 195179,
            "original_name": "bob\u4f53\u80b2\u7f51\u3010\u7f54:jy01,cc\u3011\u76ae\u76ae\u86cbTRYHSG_\u9759",
            "popularity": 0.0
        },
        {
            "id": 195180,
            "original_name": "\u5229\u5174\u767b\u5f55\u5e73\u53f0\u3010\u7f54:jy01,cc\u3011\u76ae\u76ae\u86cbTRYHSG_\u7591",
            "popularity": 0.0
        },
        {
            "id": 195181,
            "original_name": "\u8001\u864e\u673a\u7535\u5b50\u6e38\u620f\u5e73\u53f0\u3010\u7f54:jy01,cc\u3011\u76ae\u76ae\u86cbTRYHSG_\u5e9f",
            "popularity": 0.0
        },
        {
            "id": 195182,
            "original_name": "\u5fc5\u53d1\u5a31\u4e50\u5b98\u65b9\u3010\u7f54:jy01,cc\u3011\u76ae\u76ae\u86cbTRYHSG_\u9119",
            "popularity": 0.0
        },
        {
            "id": 195183,
            "original_name": "\u91d1\u5143\u5b9d\u5a31\u4e50\u3010\u7f54:jy01,cc\u3011\u76ae\u76ae\u86cbTRYHSG_\u786e",
            "popularity": 0.0
        },
        {
            "id": 195184,
            "original_name": "\u624b\u673a\u7248\u540c\u57ce\u6e38\u4e0b\u8f7d\u5b89\u88c5\u3010\u7f54:jy01,cc\u3011\u76ae\u76ae\u86cbTRYHSG_\u95f9",
            "popularity": 0.0
        },
        {
            "id": 195185,
            "original_name": "\u53bb\u54ea\u91cc\u4e70\u7bee\u5f69\u3010\u7f54:jy01,cc\u3011\u76ae\u76ae\u86cbTRYHSG_\u7537",
            "popularity": 0.0
        },
        {
            "id": 195186,
            "original_name": "w88\u4f18\u5fb7\u6700\u65b0\u7248\u672c\u4e0b\u8f7d\u3010\u7f54:jy01,cc\u3011\u76ae\u76ae\u86cbTRYHSG_\u63a5",
            "popularity": 0.0
        },
        {
            "id": 195187,
            "original_name": "\u6fb3\u95e8\u771f\u94b1\u5e73\u53f0\u3010\u7f54:jy01,cc\u3011\u76ae\u76ae\u86cbTRYHSG_\u7f62",
            "popularity": 0.0
        }
    ],
    "relations": [
        {
            "character": "yho"
        },
        {
            "character": "yhe"
        },
        {
            "character": "yha"
        },
        {
            "character": "yhr"
        },
        {
            "character": "yhu"
        },
        {
            "character": "yht"
        },
        {
            "character": "yhd"
        },
        {
            "character": "yhn"
        },
        {
            "character": "yhs"
        }
    ],
    "top20": [
        {
            "id": 95361,
            "original_name": "A Konyhaf\u0151n\u00f6k VIP",
            "popularity": 118.502
        },
        {
            "id": 42368,
            "original_name": "Lilyhammer",
            "popularity": 15.839
        },
        {
            "id": 10809,
            "original_name": "The Philco Television Playhouse",
            "popularity": 15.039
        },
        {
            "id": 8591,
            "original_name": "Westinghouse Desilu Playhouse",
            "popularity": 10.839
        },
        {
            "id": 11448,
            "original_name": "Goodyear Television Playhouse",
            "popularity": 9.43
        },
        {
            "id": 1737,
            "original_name": "Four Star Playhouse",
            "popularity": 8.44
        },
        {
            "id": 18567,
            "original_name": "CBS Playhouse",
            "popularity": 5.935
        },
        {
            "id": 12238,
            "original_name": "The Pepsi-Cola Playhouse",
            "popularity": 5.873
        },
        {
            "id": 3073,
            "original_name": "Comedy Playhouse",
            "popularity": 5.353
        },
        {
            "id": 4612,
            "original_name": "Pee-wee's Playhouse",
            "popularity": 5.051
        },
        {
            "id": 68302,
            "original_name": "Crazyhead",
            "popularity": 4.839
        },
        {
            "id": 24608,
            "original_name": "Vacation Playhouse",
            "popularity": 3.495
        },
        {
            "id": 10282,
            "original_name": "American Playhouse",
            "popularity": 3.316
        },
        {
            "id": 9961,
            "original_name": "CBS Summer Playhouse",
            "popularity": 3.277
        },
        {
            "id": 77709,
            "original_name": "Svenska nyheter",
            "popularity": 3.153
        },
        {
            "id": 44844,
            "original_name": "Playhouse Presents",
            "popularity": 3.144
        },
        {
            "id": 34034,
            "original_name": "C/o Segemyhr",
            "popularity": 2.846
        },
        {
            "id": 5235,
            "original_name": "Through the Keyhole",
            "popularity": 2.716
        },
        {
            "id": 30504,
            "original_name": "Playhouse",
            "popularity": 2.492
        },
        {
            "id": 84712,
            "original_name": "Daddyhunt: The Serial",
            "popularity": 2.37
        }
    ]
}