{
    "data": [
        {
            "id": 48876,
            "original_name": "Yiqian Di Yanlei",
            "popularity": 0.6
        },
        {
            "id": 52379,
            "original_name": "Mamaraat Dayiqah",
            "popularity": 0.6
        }
    ],
    "relations": [],
    "top20": [
        {
            "id": 48876,
            "original_name": "Yiqian Di Yanlei",
            "popularity": 0.6
        },
        {
            "id": 52379,
            "original_name": "Mamaraat Dayiqah",
            "popularity": 0.6
        }
    ]
}