{
    "data": [
        {
            "id": 60412,
            "original_name": "Styled to Rock",
            "popularity": 0.6
        }
    ],
    "relations": [],
    "top20": [
        {
            "id": 60412,
            "original_name": "Styled to Rock",
            "popularity": 0.6
        }
    ]
}