{
    "data": [
        {
            "id": 2140,
            "original_name": "Everybody Loves Raymond",
            "popularity": 25.825
        },
        {
            "id": 6546,
            "original_name": "D\u00eda a D\u00eda con Raymond y Dagmar",
            "popularity": 0.842
        },
        {
            "id": 23878,
            "original_name": "Where's Raymond?",
            "popularity": 2.223
        },
        {
            "id": 37205,
            "original_name": "Raymond Blanc's Kitchen Secrets",
            "popularity": 0.6
        },
        {
            "id": 42649,
            "original_name": "Wisconsin Cheese Presents Favorite Foods with Chef Michael Symon",
            "popularity": 0.6
        },
        {
            "id": 48138,
            "original_name": "The Execution of Raymond Graham",
            "popularity": 0.6
        },
        {
            "id": 48906,
            "original_name": "Szymon Majewski show",
            "popularity": 0.6
        },
        {
            "id": 55462,
            "original_name": "Symon's Suppers",
            "popularity": 0.6
        },
        {
            "id": 55927,
            "original_name": "Raymond Blanc: How to Cook Well",
            "popularity": 0.6
        },
        {
            "id": 63799,
            "original_name": "Raymond Blanc: The Very Hungry Frenchman",
            "popularity": 0.899
        },
        {
            "id": 67190,
            "original_name": "Raymond y sus amigos",
            "popularity": 1.496
        },
        {
            "id": 79512,
            "original_name": "Raymond y Miguel - Los Reyes del Humor",
            "popularity": 0.6
        },
        {
            "id": 106799,
            "original_name": "Symon's Dinners Cooking Out",
            "popularity": 1.581
        },
        {
            "id": 107616,
            "original_name": "Le dernier vol de Raymond Boulanger",
            "popularity": 0.628
        },
        {
            "id": 125333,
            "original_name": "Keymon Ache",
            "popularity": 0.6
        },
        {
            "id": 128837,
            "original_name": "BBQ Brawl - Flay vs Symon",
            "popularity": 0.723
        },
        {
            "id": 147047,
            "original_name": "Raymond Goethals: Magie in Marseille",
            "popularity": 2.925
        }
    ],
    "relations": [],
    "top20": [
        {
            "id": 2140,
            "original_name": "Everybody Loves Raymond",
            "popularity": 25.825
        },
        {
            "id": 6546,
            "original_name": "D\u00eda a D\u00eda con Raymond y Dagmar",
            "popularity": 0.842
        },
        {
            "id": 23878,
            "original_name": "Where's Raymond?",
            "popularity": 2.223
        },
        {
            "id": 37205,
            "original_name": "Raymond Blanc's Kitchen Secrets",
            "popularity": 0.6
        },
        {
            "id": 42649,
            "original_name": "Wisconsin Cheese Presents Favorite Foods with Chef Michael Symon",
            "popularity": 0.6
        },
        {
            "id": 48138,
            "original_name": "The Execution of Raymond Graham",
            "popularity": 0.6
        },
        {
            "id": 48906,
            "original_name": "Szymon Majewski show",
            "popularity": 0.6
        },
        {
            "id": 55462,
            "original_name": "Symon's Suppers",
            "popularity": 0.6
        },
        {
            "id": 55927,
            "original_name": "Raymond Blanc: How to Cook Well",
            "popularity": 0.6
        },
        {
            "id": 63799,
            "original_name": "Raymond Blanc: The Very Hungry Frenchman",
            "popularity": 0.899
        },
        {
            "id": 67190,
            "original_name": "Raymond y sus amigos",
            "popularity": 1.496
        },
        {
            "id": 79512,
            "original_name": "Raymond y Miguel - Los Reyes del Humor",
            "popularity": 0.6
        },
        {
            "id": 106799,
            "original_name": "Symon's Dinners Cooking Out",
            "popularity": 1.581
        },
        {
            "id": 107616,
            "original_name": "Le dernier vol de Raymond Boulanger",
            "popularity": 0.628
        },
        {
            "id": 125333,
            "original_name": "Keymon Ache",
            "popularity": 0.6
        },
        {
            "id": 128837,
            "original_name": "BBQ Brawl - Flay vs Symon",
            "popularity": 0.723
        },
        {
            "id": 147047,
            "original_name": "Raymond Goethals: Magie in Marseille",
            "popularity": 2.925
        }
    ]
}