{
    "data": [
        {
            "id": 85348,
            "original_name": "Beyonc\u00e9: Self-Titled",
            "popularity": 0.6
        }
    ],
    "relations": [],
    "top20": [
        {
            "id": 85348,
            "original_name": "Beyonc\u00e9: Self-Titled",
            "popularity": 0.6
        }
    ]
}