{
    "data": [
        {
            "id": 113777,
            "original_name": "Yougoslavie, de l'autre c\u00f4t\u00e9 du miroir",
            "popularity": 0.6
        },
        {
            "id": 125532,
            "original_name": "Ex-Yougoslavie - Les proc\u00e8s du Tribunal p\u00e9nal international",
            "popularity": 0.6
        }
    ],
    "relations": [],
    "top20": [
        {
            "id": 113777,
            "original_name": "Yougoslavie, de l'autre c\u00f4t\u00e9 du miroir",
            "popularity": 0.6
        },
        {
            "id": 125532,
            "original_name": "Ex-Yougoslavie - Les proc\u00e8s du Tribunal p\u00e9nal international",
            "popularity": 0.6
        }
    ]
}