{
    "data": [
        {
            "id": 58330,
            "original_name": "Jyouou no kyoushitsu",
            "popularity": 0.6
        }
    ],
    "relations": [],
    "top20": [
        {
            "id": 58330,
            "original_name": "Jyouou no kyoushitsu",
            "popularity": 0.6
        }
    ]
}