{
    "data": [
        {
            "id": 50228,
            "original_name": "Erkeksen Seyret",
            "popularity": 0.6
        },
        {
            "id": 51891,
            "original_name": "Jungledyret Hugo",
            "popularity": 1.285
        },
        {
            "id": 55533,
            "original_name": "Damen & Dyret",
            "popularity": 0.6
        },
        {
            "id": 63117,
            "original_name": "Olje - Historien om det norske oljeeventyret",
            "popularity": 0.6
        },
        {
            "id": 72241,
            "original_name": "H\u00e5ndballeventyret",
            "popularity": 0.6
        },
        {
            "id": 117496,
            "original_name": "Brennpunkt: Millioneventyret",
            "popularity": 0.678
        }
    ],
    "relations": [],
    "top20": [
        {
            "id": 50228,
            "original_name": "Erkeksen Seyret",
            "popularity": 0.6
        },
        {
            "id": 51891,
            "original_name": "Jungledyret Hugo",
            "popularity": 1.285
        },
        {
            "id": 55533,
            "original_name": "Damen & Dyret",
            "popularity": 0.6
        },
        {
            "id": 63117,
            "original_name": "Olje - Historien om det norske oljeeventyret",
            "popularity": 0.6
        },
        {
            "id": 72241,
            "original_name": "H\u00e5ndballeventyret",
            "popularity": 0.6
        },
        {
            "id": 117496,
            "original_name": "Brennpunkt: Millioneventyret",
            "popularity": 0.678
        }
    ]
}