{
    "data": [
        {
            "id": 68997,
            "original_name": "Valkyrien",
            "popularity": 2.172
        }
    ],
    "relations": [],
    "top20": [
        {
            "id": 68997,
            "original_name": "Valkyrien",
            "popularity": 2.172
        }
    ]
}