{
    "data": [
        {
            "id": 85495,
            "original_name": "The Great Indian Dysfunctional Family",
            "popularity": 0.646
        },
        {
            "id": 85496,
            "original_name": "The Great Indian Dysfunctional Family",
            "popularity": 1.385
        }
    ],
    "relations": [],
    "top20": [
        {
            "id": 85495,
            "original_name": "The Great Indian Dysfunctional Family",
            "popularity": 0.646
        },
        {
            "id": 85496,
            "original_name": "The Great Indian Dysfunctional Family",
            "popularity": 1.385
        }
    ]
}