{
    "data": [
        {
            "id": 23231,
            "original_name": "Szysznyk",
            "popularity": 1.715
        },
        {
            "id": 49174,
            "original_name": "Myszka Walewska",
            "popularity": 0.6
        },
        {
            "id": 53143,
            "original_name": "The Krzysztof Kieslowski Collection",
            "popularity": 0.6
        },
        {
            "id": 75057,
            "original_name": "Przygody Myszki",
            "popularity": 1.4
        },
        {
            "id": 88847,
            "original_name": "Pyszne 25",
            "popularity": 0.6
        }
    ],
    "relations": [],
    "top20": [
        {
            "id": 23231,
            "original_name": "Szysznyk",
            "popularity": 1.715
        },
        {
            "id": 49174,
            "original_name": "Myszka Walewska",
            "popularity": 0.6
        },
        {
            "id": 53143,
            "original_name": "The Krzysztof Kieslowski Collection",
            "popularity": 0.6
        },
        {
            "id": 75057,
            "original_name": "Przygody Myszki",
            "popularity": 1.4
        },
        {
            "id": 88847,
            "original_name": "Pyszne 25",
            "popularity": 0.6
        }
    ]
}