{
    "data": [
        {
            "id": 1428,
            "original_name": "MythBusters",
            "popularity": 23.471
        },
        {
            "id": 69144,
            "original_name": "MythBusters: The Search",
            "popularity": 0.6
        },
        {
            "id": 85200,
            "original_name": "Mythbusters Jr.",
            "popularity": 1.267
        },
        {
            "id": 99824,
            "original_name": "Streamlined MythBusters",
            "popularity": 0.6
        },
        {
            "id": 132946,
            "original_name": "Motor Mythbusters",
            "popularity": 4.486
        }
    ],
    "relations": [],
    "top20": [
        {
            "id": 1428,
            "original_name": "MythBusters",
            "popularity": 23.471
        },
        {
            "id": 69144,
            "original_name": "MythBusters: The Search",
            "popularity": 0.6
        },
        {
            "id": 85200,
            "original_name": "Mythbusters Jr.",
            "popularity": 1.267
        },
        {
            "id": 99824,
            "original_name": "Streamlined MythBusters",
            "popularity": 0.6
        },
        {
            "id": 132946,
            "original_name": "Motor Mythbusters",
            "popularity": 4.486
        }
    ]
}