{
    "data": [
        {
            "id": 5443,
            "original_name": "Mythic Warriors",
            "popularity": 0.621
        },
        {
            "id": 65701,
            "original_name": "Good Mythical Morning",
            "popularity": 98.381
        },
        {
            "id": 67173,
            "original_name": "New Zealand: Earth's Mythical Islands",
            "popularity": 2.04
        },
        {
            "id": 68705,
            "original_name": "Good Mythical Crew",
            "popularity": 1.391
        },
        {
            "id": 83167,
            "original_name": "Mythical Beasts",
            "popularity": 0.984
        },
        {
            "id": 94951,
            "original_name": "Mythic Quest",
            "popularity": 23.614
        },
        {
            "id": 104326,
            "original_name": "TED-Ed MYTHIC",
            "popularity": 0.6
        },
        {
            "id": 126677,
            "original_name": "Good Mythical MORE",
            "popularity": 1.502
        }
    ],
    "relations": [],
    "top20": [
        {
            "id": 5443,
            "original_name": "Mythic Warriors",
            "popularity": 0.621
        },
        {
            "id": 65701,
            "original_name": "Good Mythical Morning",
            "popularity": 98.381
        },
        {
            "id": 67173,
            "original_name": "New Zealand: Earth's Mythical Islands",
            "popularity": 2.04
        },
        {
            "id": 68705,
            "original_name": "Good Mythical Crew",
            "popularity": 1.391
        },
        {
            "id": 83167,
            "original_name": "Mythical Beasts",
            "popularity": 0.984
        },
        {
            "id": 94951,
            "original_name": "Mythic Quest",
            "popularity": 23.614
        },
        {
            "id": 104326,
            "original_name": "TED-Ed MYTHIC",
            "popularity": 0.6
        },
        {
            "id": 126677,
            "original_name": "Good Mythical MORE",
            "popularity": 1.502
        }
    ]
}