{
    "data": [
        {
            "id": 37630,
            "original_name": "Yus, My Dear",
            "popularity": 0.948
        },
        {
            "id": 51785,
            "original_name": "Yusra and Yumna",
            "popularity": 0.6
        },
        {
            "id": 55897,
            "original_name": "Privet ot Katyushi",
            "popularity": 0.6
        },
        {
            "id": 59486,
            "original_name": "Ayushmaan",
            "popularity": 0.6
        },
        {
            "id": 97505,
            "original_name": "Wangpai Yushi",
            "popularity": 0.6
        },
        {
            "id": 105171,
            "original_name": "Ryusei Wagon",
            "popularity": 0.6
        },
        {
            "id": 105394,
            "original_name": "#TamyUSA",
            "popularity": 0.847
        },
        {
            "id": 129212,
            "original_name": "Yusuf y\u00fczl\u00fc",
            "popularity": 0.6
        },
        {
            "id": 129715,
            "original_name": "Kyusei Sentai WakuSaver",
            "popularity": 1.273
        },
        {
            "id": 136839,
            "original_name": "Kyushu Pro Monday Night Vai",
            "popularity": 0.605
        }
    ],
    "relations": [],
    "top20": [
        {
            "id": 37630,
            "original_name": "Yus, My Dear",
            "popularity": 0.948
        },
        {
            "id": 51785,
            "original_name": "Yusra and Yumna",
            "popularity": 0.6
        },
        {
            "id": 55897,
            "original_name": "Privet ot Katyushi",
            "popularity": 0.6
        },
        {
            "id": 59486,
            "original_name": "Ayushmaan",
            "popularity": 0.6
        },
        {
            "id": 97505,
            "original_name": "Wangpai Yushi",
            "popularity": 0.6
        },
        {
            "id": 105171,
            "original_name": "Ryusei Wagon",
            "popularity": 0.6
        },
        {
            "id": 105394,
            "original_name": "#TamyUSA",
            "popularity": 0.847
        },
        {
            "id": 129212,
            "original_name": "Yusuf y\u00fczl\u00fc",
            "popularity": 0.6
        },
        {
            "id": 129715,
            "original_name": "Kyusei Sentai WakuSaver",
            "popularity": 1.273
        },
        {
            "id": 136839,
            "original_name": "Kyushu Pro Monday Night Vai",
            "popularity": 0.605
        }
    ]
}