{
    "data": [
        {
            "id": 42401,
            "original_name": "Sesame Street: Elmopalooza!",
            "popularity": 0.6
        }
    ],
    "relations": [],
    "top20": [
        {
            "id": 42401,
            "original_name": "Sesame Street: Elmopalooza!",
            "popularity": 0.6
        }
    ]
}