{
    "data": [
        {
            "id": 81551,
            "original_name": "Finanzamt Mitte - Helden im Amt",
            "popularity": 1.135
        }
    ],
    "relations": [],
    "top20": [
        {
            "id": 81551,
            "original_name": "Finanzamt Mitte - Helden im Amt",
            "popularity": 1.135
        }
    ]
}