{
    "data": [
        {
            "id": 6048,
            "original_name": "Mi\u015b Uszatek",
            "popularity": 0.709
        },
        {
            "id": 38329,
            "original_name": "Lachen op zaterdag",
            "popularity": 0.6
        }
    ],
    "relations": [],
    "top20": [
        {
            "id": 6048,
            "original_name": "Mi\u015b Uszatek",
            "popularity": 0.709
        },
        {
            "id": 38329,
            "original_name": "Lachen op zaterdag",
            "popularity": 0.6
        }
    ]
}