{
    "data": [
        {
            "id": 40571,
            "original_name": "Aoi Zessh\u014d",
            "popularity": 0.6
        },
        {
            "id": 63572,
            "original_name": "Donauprinzessin",
            "popularity": 1.995
        },
        {
            "id": 64022,
            "original_name": "Prinzessin Lillifee",
            "popularity": 0.6
        },
        {
            "id": 66554,
            "original_name": "Beutolom\u00e4us und die Prinzessin",
            "popularity": 1.212
        },
        {
            "id": 81445,
            "original_name": "Die Eisprinzessin",
            "popularity": 0.6
        }
    ],
    "relations": [],
    "top20": [
        {
            "id": 40571,
            "original_name": "Aoi Zessh\u014d",
            "popularity": 0.6
        },
        {
            "id": 63572,
            "original_name": "Donauprinzessin",
            "popularity": 1.995
        },
        {
            "id": 64022,
            "original_name": "Prinzessin Lillifee",
            "popularity": 0.6
        },
        {
            "id": 66554,
            "original_name": "Beutolom\u00e4us und die Prinzessin",
            "popularity": 1.212
        },
        {
            "id": 81445,
            "original_name": "Die Eisprinzessin",
            "popularity": 0.6
        }
    ]
}