{
    "data": [
        {
            "id": 81591,
            "original_name": "Flucht mit Luzifer",
            "popularity": 0.845
        },
        {
            "id": 94104,
            "original_name": "Terra X - Blaues Wunder Pazifik",
            "popularity": 0.6
        },
        {
            "id": 100470,
            "original_name": "Der Pazifische Feuerring",
            "popularity": 0.6
        },
        {
            "id": 128171,
            "original_name": "Pfiffige Ziffern",
            "popularity": 0.6
        }
    ],
    "relations": [],
    "top20": [
        {
            "id": 81591,
            "original_name": "Flucht mit Luzifer",
            "popularity": 0.845
        },
        {
            "id": 94104,
            "original_name": "Terra X - Blaues Wunder Pazifik",
            "popularity": 0.6
        },
        {
            "id": 100470,
            "original_name": "Der Pazifische Feuerring",
            "popularity": 0.6
        },
        {
            "id": 128171,
            "original_name": "Pfiffige Ziffern",
            "popularity": 0.6
        }
    ]
}