{
    "data": [
        {
            "id": 98241,
            "original_name": "Zimn\u00e9 rozpr\u00e1vky",
            "popularity": 0.6
        }
    ],
    "relations": [],
    "top20": [
        {
            "id": 98241,
            "original_name": "Zimn\u00e9 rozpr\u00e1vky",
            "popularity": 0.6
        }
    ]
}