{
    "data": [
        {
            "id": 4875,
            "original_name": "Zire Zamin",
            "popularity": 0.6
        },
        {
            "id": 5406,
            "original_name": "Zire Tigh",
            "popularity": 1.414
        },
        {
            "id": 16382,
            "original_name": "Monty Python's Fliegender Zirkus",
            "popularity": 0.6
        },
        {
            "id": 32698,
            "original_name": "Fabrika Zirok",
            "popularity": 0.6
        },
        {
            "id": 34956,
            "original_name": "Zeenat Bint-e-Sakina Hazir Ho",
            "popularity": 0.6
        },
        {
            "id": 49333,
            "original_name": "Zirvedekiler",
            "popularity": 0.937
        },
        {
            "id": 51878,
            "original_name": "Zirkus Nemo",
            "popularity": 0.6
        },
        {
            "id": 55207,
            "original_name": "Mowaten Bedarajet Wazir",
            "popularity": 0.6
        },
        {
            "id": 56345,
            "original_name": "Fawazir Abiad wa Aswad",
            "popularity": 0.6
        },
        {
            "id": 56346,
            "original_name": "Fawazir Shirihan Hagat wi Muhtagat",
            "popularity": 0.6
        },
        {
            "id": 61100,
            "original_name": "Zirkus meines Lebens",
            "popularity": 0.809
        },
        {
            "id": 61867,
            "original_name": "Medcezir",
            "popularity": 8.816
        },
        {
            "id": 63469,
            "original_name": "Heiteres Bezirksgericht",
            "popularity": 0.6
        },
        {
            "id": 86323,
            "original_name": "So ein Zirkus!",
            "popularity": 0.6
        },
        {
            "id": 93478,
            "original_name": "Zirkus Nemo 2018",
            "popularity": 0.6
        }
    ],
    "relations": [],
    "top20": [
        {
            "id": 4875,
            "original_name": "Zire Zamin",
            "popularity": 0.6
        },
        {
            "id": 5406,
            "original_name": "Zire Tigh",
            "popularity": 1.414
        },
        {
            "id": 16382,
            "original_name": "Monty Python's Fliegender Zirkus",
            "popularity": 0.6
        },
        {
            "id": 32698,
            "original_name": "Fabrika Zirok",
            "popularity": 0.6
        },
        {
            "id": 34956,
            "original_name": "Zeenat Bint-e-Sakina Hazir Ho",
            "popularity": 0.6
        },
        {
            "id": 49333,
            "original_name": "Zirvedekiler",
            "popularity": 0.937
        },
        {
            "id": 51878,
            "original_name": "Zirkus Nemo",
            "popularity": 0.6
        },
        {
            "id": 55207,
            "original_name": "Mowaten Bedarajet Wazir",
            "popularity": 0.6
        },
        {
            "id": 56345,
            "original_name": "Fawazir Abiad wa Aswad",
            "popularity": 0.6
        },
        {
            "id": 56346,
            "original_name": "Fawazir Shirihan Hagat wi Muhtagat",
            "popularity": 0.6
        },
        {
            "id": 61100,
            "original_name": "Zirkus meines Lebens",
            "popularity": 0.809
        },
        {
            "id": 61867,
            "original_name": "Medcezir",
            "popularity": 8.816
        },
        {
            "id": 63469,
            "original_name": "Heiteres Bezirksgericht",
            "popularity": 0.6
        },
        {
            "id": 86323,
            "original_name": "So ein Zirkus!",
            "popularity": 0.6
        },
        {
            "id": 93478,
            "original_name": "Zirkus Nemo 2018",
            "popularity": 0.6
        }
    ]
}