{
    "data": [
        {
            "id": 24123,
            "original_name": "Grizzly Adams",
            "popularity": 5.534
        },
        {
            "id": 28524,
            "original_name": "Grizzly Tales for Gruesome Kids",
            "popularity": 0.739
        },
        {
            "id": 28883,
            "original_name": "The Grizzly Man Diaries",
            "popularity": 1.092
        },
        {
            "id": 33259,
            "original_name": "Grizzly Tales for Gruesome Kids",
            "popularity": 0.6
        },
        {
            "id": 44166,
            "original_name": "Breezly and Sneezly",
            "popularity": 2.543
        },
        {
            "id": 68599,
            "original_name": "Project Grizzly",
            "popularity": 0.6
        },
        {
            "id": 79429,
            "original_name": "Alaska's Grizzly Gauntlet",
            "popularity": 0.6
        },
        {
            "id": 85064,
            "original_name": "Grizzly Bear Cubs and Me",
            "popularity": 0.606
        },
        {
            "id": 99721,
            "original_name": "Grizzlys hautnah",
            "popularity": 0.6
        },
        {
            "id": 136564,
            "original_name": "Ob\u0159\u00ed dopravn\u00ed uzly",
            "popularity": 0.6
        }
    ],
    "relations": [],
    "top20": [
        {
            "id": 24123,
            "original_name": "Grizzly Adams",
            "popularity": 5.534
        },
        {
            "id": 28524,
            "original_name": "Grizzly Tales for Gruesome Kids",
            "popularity": 0.739
        },
        {
            "id": 28883,
            "original_name": "The Grizzly Man Diaries",
            "popularity": 1.092
        },
        {
            "id": 33259,
            "original_name": "Grizzly Tales for Gruesome Kids",
            "popularity": 0.6
        },
        {
            "id": 44166,
            "original_name": "Breezly and Sneezly",
            "popularity": 2.543
        },
        {
            "id": 68599,
            "original_name": "Project Grizzly",
            "popularity": 0.6
        },
        {
            "id": 79429,
            "original_name": "Alaska's Grizzly Gauntlet",
            "popularity": 0.6
        },
        {
            "id": 85064,
            "original_name": "Grizzly Bear Cubs and Me",
            "popularity": 0.606
        },
        {
            "id": 99721,
            "original_name": "Grizzlys hautnah",
            "popularity": 0.6
        },
        {
            "id": 136564,
            "original_name": "Ob\u0159\u00ed dopravn\u00ed uzly",
            "popularity": 0.6
        }
    ]
}