{
    "data": [
        {
            "id": 20929,
            "original_name": "Sizzlin' Summer",
            "popularity": 0.6
        },
        {
            "id": 100800,
            "original_name": "west.art Jazzline",
            "popularity": 0.6
        }
    ],
    "relations": [],
    "top20": [
        {
            "id": 20929,
            "original_name": "Sizzlin' Summer",
            "popularity": 0.6
        },
        {
            "id": 100800,
            "original_name": "west.art Jazzline",
            "popularity": 0.6
        }
    ]
}